FIPS,HR_UID,nameid,province,region,analysisTime,dates,pointprevalence_025,pointprevalence_50,pointprevalence_975,pointinfections_025,pointinfections_50,pointinfections_975,pointinfectious_025,pointinfectious_50,pointinfectious_975,pointinfectiousprevalence_05,pointinfectiousprevalence_50,pointinfectiousprevalence_95,infectrate_025,infectrate_50,infectrate_975
1027,0,USAlabamaClay,Alabama,Clay,2021-01-06 05:12:02.913893,2020-03-09 00:00:00.000000,0.00319448,0.02978707,0.09293664,0,3,12,0,2,6,0.00171427,0.01709381,0.05177372,0.37417080,0.47652533,0.68399235
1027,0,USAlabamaClay,Alabama,Clay,2021-01-06 05:12:02.913893,2020-03-10 00:00:00.000000,0.00338872,0.03223503,0.10020836,0,4,13,0,2,6,0.00164676,0.01575504,0.04881203,0.37416491,0.47647435,0.68399234
1027,0,USAlabamaClay,Alabama,Clay,2021-01-06 05:12:02.913893,2020-03-11 00:00:00.000000,0.00357701,0.03548210,0.10761988,0,4,14,0,2,6,0.00165132,0.01602645,0.05100402,0.37415095,0.47637480,0.68399233
1027,0,USAlabamaClay,Alabama,Clay,2021-01-06 05:12:02.913893,2020-03-12 00:00:00.000000,0.00376202,0.03757901,0.11523253,0,4,15,0,2,7,0.00169946,0.01720034,0.05392479,0.37411748,0.47618078,0.68399228
1027,0,USAlabamaClay,Alabama,Clay,2021-01-06 05:12:02.913893,2020-03-13 00:00:00.000000,0.00394576,0.04050410,0.12309707,0,5,16,0,2,7,0.00177354,0.01846784,0.05729288,0.37403661,0.47580388,0.68399215
1027,0,USAlabamaClay,Alabama,Clay,2021-01-06 05:12:02.913893,2020-03-14 00:00:00.000000,0.00412976,0.04425934,0.13309694,0,5,17,0,2,8,0.00186281,0.01939591,0.06099024,0.37384010,0.47505657,0.68399174
1027,0,USAlabamaClay,Alabama,Clay,2021-01-06 05:12:02.913893,2020-03-15 00:00:00.000000,0.00431500,0.04844984,0.14407807,0,6,19,0,2,8,0.00196083,0.02033676,0.06516660,0.37336069,0.47250344,0.68399035
1027,0,USAlabamaClay,Alabama,Clay,2021-01-06 05:12:02.913893,2020-03-16 00:00:00.000000,0.01271041,0.05991026,0.16234529,1,7,21,0,2,9,0.00206382,0.02170853,0.07071946,0.34055749,0.47244834,0.68398533
1027,0,USAlabamaClay,Alabama,Clay,2021-01-06 05:12:02.913893,2020-03-17 00:00:00.000000,0.01813660,0.07443436,0.18131757,2,9,23,0,3,10,0.00385541,0.02518534,0.07748190,0.31437103,0.46387430,0.68396561
1027,0,USAlabamaClay,Alabama,Clay,2021-01-06 05:12:02.913893,2020-03-18 00:00:00.000000,0.02396596,0.09208457,0.20382538,3,12,26,0,3,11,0.00540288,0.02913216,0.08544450,0.30235739,0.45338483,0.68388195
1027,0,USAlabamaClay,Alabama,Clay,2021-01-06 05:12:02.913893,2020-03-19 00:00:00.000000,0.03027505,0.10389168,0.22348578,4,13,29,0,4,12,0.00733876,0.03464194,0.09441678,0.29083113,0.44275138,0.68351570
1027,0,USAlabamaClay,Alabama,Clay,2021-01-06 05:12:02.913893,2020-03-20 00:00:00.000000,0.03709587,0.11847182,0.24654283,4,15,32,1,5,13,0.00959452,0.04118593,0.10428180,0.25164856,0.42836046,0.68209308
1027,0,USAlabamaClay,Alabama,Clay,2021-01-06 05:12:02.913893,2020-03-21 00:00:00.000000,0.04437598,0.13345946,0.27657276,5,17,36,1,6,15,0.01204323,0.04867610,0.11453380,0.23084255,0.39323344,0.63718377
1027,0,USAlabamaClay,Alabama,Clay,2021-01-06 05:12:02.913893,2020-03-22 00:00:00.000000,0.05195190,0.14890604,0.30661458,6,19,40,1,7,16,0.01434748,0.05575123,0.12741799,0.22898759,0.37404040,0.59904835
1027,0,USAlabamaClay,Alabama,Clay,2021-01-06 05:12:02.913893,2020-03-23 00:00:00.000000,0.06463135,0.16774495,0.33232484,8,22,43,2,8,18,0.01681210,0.06182008,0.13980029,0.22044229,0.35555715,0.57634251
1027,0,USAlabamaClay,Alabama,Clay,2021-01-06 05:12:02.913893,2020-03-24 00:00:00.000000,0.07049597,0.19038315,0.35229575,9,25,46,2,9,20,0.02015451,0.06985006,0.15297867,0.21901500,0.34330821,0.55443540
1027,0,USAlabamaClay,Alabama,Clay,2021-01-06 05:12:02.913893,2020-03-25 00:00:00.000000,0.08320034,0.21074855,0.37351957,11,27,49,3,10,22,0.02418190,0.07806805,0.16664379,0.21581096,0.32428648,0.53326718
1027,0,USAlabamaClay,Alabama,Clay,2021-01-06 05:12:02.913893,2020-03-26 00:00:00.000000,0.09612686,0.22471650,0.39936293,12,29,52,3,11,23,0.02875257,0.08453559,0.18059049,0.20875405,0.31170703,0.50131146
1027,0,USAlabamaClay,Alabama,Clay,2021-01-06 05:12:02.913893,2020-03-27 00:00:00.000000,0.10924033,0.23693805,0.42352183,14,31,56,4,12,25,0.03375161,0.09322263,0.19458314,0.19420572,0.30092731,0.46189215
1027,0,USAlabamaClay,Alabama,Clay,2021-01-06 05:12:02.913893,2020-03-28 00:00:00.000000,0.12246398,0.25129876,0.44475921,16,33,58,5,13,27,0.03870946,0.10299022,0.21094824,0.17881092,0.28341117,0.42548555
1027,0,USAlabamaClay,Alabama,Clay,2021-01-06 05:12:02.913893,2020-03-29 00:00:00.000000,0.13241960,0.26562104,0.46275584,17,35,61,5,14,29,0.04436700,0.11016557,0.22411016,0.16921735,0.26639715,0.41136528
1027,0,USAlabamaClay,Alabama,Clay,2021-01-06 05:12:02.913893,2020-03-30 00:00:00.000000,0.14846977,0.27359431,0.48935489,19,36,64,6,15,31,0.05014646,0.11805849,0.23557537,0.16332578,0.25384270,0.38519049
1027,0,USAlabamaClay,Alabama,Clay,2021-01-06 05:12:02.913893,2020-03-31 00:00:00.000000,0.15991352,0.28186897,0.51382318,21,37,68,7,16,33,0.05612198,0.12794297,0.24970329,0.15652373,0.24693677,0.34365074
1027,0,USAlabamaClay,Alabama,Clay,2021-01-06 05:12:02.913893,2020-04-01 00:00:00.000000,0.16369277,0.28946127,0.53652227,21,38,71,8,18,34,0.06169484,0.13643127,0.26228454,0.15480576,0.23820871,0.33959789
1027,0,USAlabamaClay,Alabama,Clay,2021-01-06 05:12:02.913893,2020-04-02 00:00:00.000000,0.17206390,0.29799015,0.55721085,22,39,73,8,18,36,0.06662204,0.14265679,0.27371181,0.14607364,0.22783803,0.33766615
1027,0,USAlabamaClay,Alabama,Clay,2021-01-06 05:12:02.913893,2020-04-03 00:00:00.000000,0.18952553,0.30184862,0.57567037,25,39,76,9,20,37,0.07001875,0.15144695,0.28334542,0.13221289,0.21502758,0.33374737
1027,0,USAlabamaClay,Alabama,Clay,2021-01-06 05:12:02.913893,2020-04-04 00:00:00.000000,0.20476819,0.30850328,0.57031297,27,40,75,9,20,38,0.07188464,0.15315642,0.29033331,0.12776386,0.20695593,0.32669067
1027,0,USAlabamaClay,Alabama,Clay,2021-01-06 05:12:02.913893,2020-04-05 00:00:00.000000,0.21227119,0.31823639,0.60175430,28,42,79,9,20,39,0.07442288,0.15712888,0.29981443,0.12216330,0.20130991,0.31800709
1027,0,USAlabamaClay,Alabama,Clay,2021-01-06 05:12:02.913893,2020-04-06 00:00:00.000000,0.21394711,0.32318874,0.60413486,28,42,79,10,21,40,0.08193664,0.16087565,0.30779301,0.12085853,0.19349521,0.30970321
1027,0,USAlabamaClay,Alabama,Clay,2021-01-06 05:12:02.913893,2020-04-07 00:00:00.000000,0.21520848,0.32851094,0.59958663,28,43,79,11,21,41,0.08921102,0.16178095,0.31630117,0.11901329,0.18578552,0.29074264
1027,0,USAlabamaClay,Alabama,Clay,2021-01-06 05:12:02.913893,2020-04-08 00:00:00.000000,0.21598058,0.33322070,0.59357916,28,44,78,12,21,42,0.09341801,0.16544872,0.32141378,0.11812642,0.18098516,0.28088297
1027,0,USAlabamaClay,Alabama,Clay,2021-01-06 05:12:02.913893,2020-04-09 00:00:00.000000,0.21622169,0.33982285,0.58664113,28,44,77,12,22,42,0.09489191,0.16713541,0.32337242,0.11708869,0.17114472,0.26815298
1027,0,USAlabamaClay,Alabama,Clay,2021-01-06 05:12:02.913893,2020-04-10 00:00:00.000000,0.21583041,0.35044052,0.57984315,28,46,76,12,22,43,0.09590111,0.17255095,0.32943955,0.11417356,0.16504452,0.25990817
1027,0,USAlabamaClay,Alabama,Clay,2021-01-06 05:12:02.913893,2020-04-11 00:00:00.000000,0.21349093,0.35264662,0.58854329,28,46,77,12,23,44,0.09650717,0.17802882,0.33268168,0.11073795,0.15912397,0.25709522
1027,0,USAlabamaClay,Alabama,Clay,2021-01-06 05:12:02.913893,2020-04-12 00:00:00.000000,0.21319940,0.35436310,0.59711406,28,46,79,12,24,44,0.09675387,0.18592335,0.33523024,0.10405799,0.15570539,0.26422401
1027,0,USAlabamaClay,Alabama,Clay,2021-01-06 05:12:02.913893,2020-04-13 00:00:00.000000,0.21856947,0.35515973,0.60762327,28,47,80,12,24,44,0.09671985,0.18605301,0.33683107,0.10041975,0.15302434,0.26802910
1027,0,USAlabamaClay,Alabama,Clay,2021-01-06 05:12:02.913893,2020-04-14 00:00:00.000000,0.22387101,0.36256152,0.61803248,29,47,81,13,24,44,0.09969838,0.18573238,0.33784646,0.09449336,0.15139560,0.26948401
1027,0,USAlabamaClay,Alabama,Clay,2021-01-06 05:12:02.913893,2020-04-15 00:00:00.000000,0.22957830,0.37063561,0.62830310,30,49,83,13,24,44,0.10536941,0.18649988,0.33830420,0.09426215,0.15030981,0.26801226
1027,0,USAlabamaClay,Alabama,Clay,2021-01-06 05:12:02.913893,2020-04-16 00:00:00.000000,0.23484032,0.37337948,0.63808005,31,49,84,14,24,44,0.10779722,0.18797764,0.33831766,0.09073029,0.15052128,0.26381110
1027,0,USAlabamaClay,Alabama,Clay,2021-01-06 05:12:02.913893,2020-04-17 00:00:00.000000,0.23964774,0.37632905,0.64622302,31,49,85,14,24,44,0.11062078,0.18717748,0.33799944,0.08553689,0.15068234,0.25718249
1027,0,USAlabamaClay,Alabama,Clay,2021-01-06 05:12:02.913893,2020-04-18 00:00:00.000000,0.24469166,0.37828534,0.65055316,32,50,86,14,24,44,0.11175194,0.18838852,0.33744096,0.08359007,0.15088296,0.23797392
1027,0,USAlabamaClay,Alabama,Clay,2021-01-06 05:12:02.913893,2020-04-19 00:00:00.000000,0.24956954,0.38149201,0.65065279,33,50,86,14,25,45,0.11098430,0.19067306,0.34648034,0.08179387,0.14768266,0.23128201
1027,0,USAlabamaClay,Alabama,Clay,2021-01-06 05:12:02.913893,2020-04-20 00:00:00.000000,0.24656271,0.38220690,0.65207926,32,50,86,14,25,47,0.11069994,0.19372960,0.35549709,0.08143780,0.14584863,0.22619328
1027,0,USAlabamaClay,Alabama,Clay,2021-01-06 05:12:02.913893,2020-04-21 00:00:00.000000,0.24928392,0.38275299,0.65144241,32,50,86,15,25,47,0.11712102,0.19419518,0.36014243,0.08282650,0.14190505,0.22285522
1027,0,USAlabamaClay,Alabama,Clay,2021-01-06 05:12:02.913893,2020-04-22 00:00:00.000000,0.24394901,0.38924420,0.64230070,32,51,85,16,25,47,0.12180691,0.19321152,0.35769490,0.08475057,0.14110059,0.22218523
1027,0,USAlabamaClay,Alabama,Clay,2021-01-06 05:12:02.913893,2020-04-23 00:00:00.000000,0.23804353,0.38840103,0.63281637,31,51,83,16,25,46,0.12138187,0.19163541,0.35441810,0.08564388,0.13863743,0.22104497
1027,0,USAlabamaClay,Alabama,Clay,2021-01-06 05:12:02.913893,2020-04-24 00:00:00.000000,0.23181710,0.39688180,0.62229388,30,52,82,15,25,46,0.12085985,0.19227413,0.35058300,0.08353505,0.13473560,0.21934498
1027,0,USAlabamaClay,Alabama,Clay,2021-01-06 05:12:02.913893,2020-04-25 00:00:00.000000,0.22718554,0.39344172,0.61049790,30,52,80,15,25,45,0.12026992,0.19099111,0.34620784,0.07996332,0.13333977,0.21718796
1027,0,USAlabamaClay,Alabama,Clay,2021-01-06 05:12:02.913893,2020-04-26 00:00:00.000000,0.22323855,0.38869628,0.59970211,29,51,79,15,25,45,0.11965376,0.18934122,0.34123320,0.07793247,0.13420172,0.21873455
1027,0,USAlabamaClay,Alabama,Clay,2021-01-06 05:12:02.913893,2020-04-27 00:00:00.000000,0.22124265,0.38831244,0.59045752,29,51,78,15,25,44,0.11899471,0.19371921,0.33529175,0.07737348,0.13422059,0.22128599
1027,0,USAlabamaClay,Alabama,Clay,2021-01-06 05:12:02.913893,2020-04-28 00:00:00.000000,0.22029063,0.38558642,0.58030298,29,51,76,15,25,43,0.11737299,0.19406816,0.32874824,0.07797489,0.13522884,0.22535685
1027,0,USAlabamaClay,Alabama,Clay,2021-01-06 05:12:02.913893,2020-04-29 00:00:00.000000,0.22042567,0.38230890,0.56998725,29,50,75,15,25,42,0.11518084,0.19417454,0.32199167,0.07797297,0.13449978,0.22525641
1027,0,USAlabamaClay,Alabama,Clay,2021-01-06 05:12:02.913893,2020-04-30 00:00:00.000000,0.22107211,0.38367831,0.55978989,29,50,74,14,25,41,0.11265156,0.19372747,0.31521645,0.07942527,0.13517815,0.22480983
1027,0,USAlabamaClay,Alabama,Clay,2021-01-06 05:12:02.913893,2020-05-01 00:00:00.000000,0.21616737,0.38331778,0.55725984,28,50,73,14,25,40,0.10993821,0.19426103,0.30857479,0.07861773,0.13545035,0.22115789
1027,0,USAlabamaClay,Alabama,Clay,2021-01-06 05:12:02.913893,2020-05-02 00:00:00.000000,0.21055130,0.38224889,0.55480618,27,50,73,14,25,40,0.10717575,0.19388115,0.30427019,0.08065769,0.13292181,0.21933351
1027,0,USAlabamaClay,Alabama,Clay,2021-01-06 05:12:02.913893,2020-05-03 00:00:00.000000,0.20544467,0.37598593,0.54839845,27,49,72,13,25,40,0.10446669,0.19357906,0.30577655,0.08225788,0.13195012,0.21980088
1027,0,USAlabamaClay,Alabama,Clay,2021-01-06 05:12:02.913893,2020-05-04 00:00:00.000000,0.20441876,0.37074073,0.54263578,27,49,71,13,25,40,0.10188511,0.19192700,0.30516508,0.07866546,0.13117914,0.21993693
1027,0,USAlabamaClay,Alabama,Clay,2021-01-06 05:12:02.913893,2020-05-05 00:00:00.000000,0.20547444,0.36932881,0.53942149,27,48,71,13,25,40,0.10184833,0.19288839,0.30836203,0.07772978,0.13014560,0.21999395
1027,0,USAlabamaClay,Alabama,Clay,2021-01-06 05:12:02.913893,2020-05-06 00:00:00.000000,0.21240260,0.37412048,0.54068311,28,49,71,13,25,41,0.10279150,0.19046832,0.30980253,0.07791829,0.13057422,0.21988614
1027,0,USAlabamaClay,Alabama,Clay,2021-01-06 05:12:02.913893,2020-05-07 00:00:00.000000,0.21942079,0.37124577,0.55000550,29,49,72,13,25,40,0.10399660,0.18970451,0.30663308,0.07869160,0.13465949,0.22523442
1027,0,USAlabamaClay,Alabama,Clay,2021-01-06 05:12:02.913893,2020-05-08 00:00:00.000000,0.22638320,0.37084511,0.56001125,29,49,74,13,25,41,0.10545879,0.18984106,0.31056861,0.08105305,0.13650448,0.23603860
1027,0,USAlabamaClay,Alabama,Clay,2021-01-06 05:12:02.913893,2020-05-09 00:00:00.000000,0.23320375,0.36602061,0.56970603,30,48,75,14,25,41,0.10718715,0.19164464,0.31351092,0.08542948,0.13704956,0.24227617
1027,0,USAlabamaClay,Alabama,Clay,2021-01-06 05:12:02.913893,2020-05-10 00:00:00.000000,0.23962919,0.36226295,0.56513365,31,47,74,14,25,41,0.10915930,0.18962411,0.31334612,0.08420991,0.14099089,0.24229776
1027,0,USAlabamaClay,Alabama,Clay,2021-01-06 05:12:02.913893,2020-05-11 00:00:00.000000,0.22668146,0.35202764,0.54770963,30,46,72,14,25,41,0.11132588,0.18967592,0.31257231,0.08143371,0.14467456,0.24229089
1027,0,USAlabamaClay,Alabama,Clay,2021-01-06 05:12:02.913893,2020-05-12 00:00:00.000000,0.21452964,0.34371133,0.53620962,28,45,70,14,24,41,0.11248937,0.18707974,0.30993459,0.07991204,0.14579030,0.24236162
1027,0,USAlabamaClay,Alabama,Clay,2021-01-06 05:12:02.913893,2020-05-13 00:00:00.000000,0.20313370,0.33806599,0.52785479,26,44,69,14,24,40,0.10897145,0.18191850,0.30602189,0.08743722,0.14889245,0.24269936
1027,0,USAlabamaClay,Alabama,Clay,2021-01-06 05:12:02.913893,2020-05-14 00:00:00.000000,0.19254693,0.32975159,0.52687582,25,43,69,13,23,39,0.10379466,0.17688159,0.30127657,0.08879643,0.15022206,0.24386820
1027,0,USAlabamaClay,Alabama,Clay,2021-01-06 05:12:02.913893,2020-05-15 00:00:00.000000,0.18270376,0.32106977,0.52564099,24,42,69,13,22,39,0.09867832,0.17217361,0.29601979,0.09021157,0.15414089,0.24661132
1027,0,USAlabamaClay,Alabama,Clay,2021-01-06 05:12:02.913893,2020-05-16 00:00:00.000000,0.17368496,0.31149845,0.52431988,22,41,69,12,22,38,0.09374372,0.16653214,0.29315486,0.09290037,0.16016335,0.24575877
1027,0,USAlabamaClay,Alabama,Clay,2021-01-06 05:12:02.913893,2020-05-17 00:00:00.000000,0.16608220,0.30397567,0.52298202,21,40,69,11,21,38,0.08907619,0.16272760,0.29151963,0.09917099,0.16469080,0.24630164
1027,0,USAlabamaClay,Alabama,Clay,2021-01-06 05:12:02.913893,2020-05-18 00:00:00.000000,0.17044681,0.30930854,0.53393809,22,40,70,11,21,38,0.08483625,0.15961986,0.28947267,0.09983887,0.16642477,0.24751925
1027,0,USAlabamaClay,Alabama,Clay,2021-01-06 05:12:02.913893,2020-05-19 00:00:00.000000,0.16950867,0.31043995,0.56169948,22,41,74,11,20,38,0.08341646,0.15805428,0.28827065,0.10025518,0.17028865,0.25764560
1027,0,USAlabamaClay,Alabama,Clay,2021-01-06 05:12:02.913893,2020-05-20 00:00:00.000000,0.16907268,0.31525926,0.56617972,22,41,74,11,21,38,0.08390646,0.15877766,0.28915006,0.10108291,0.17398177,0.25723352
1027,0,USAlabamaClay,Alabama,Clay,2021-01-06 05:12:02.913893,2020-05-21 00:00:00.000000,0.16903304,0.32277026,0.57314104,22,42,75,11,21,38,0.08564609,0.16089677,0.29088338,0.10257638,0.17991104,0.27056169
1027,0,USAlabamaClay,Alabama,Clay,2021-01-06 05:12:02.913893,2020-05-22 00:00:00.000000,0.16946662,0.33115165,0.58261457,22,43,77,11,21,38,0.08819008,0.16150764,0.29292231,0.10657529,0.18664762,0.28706606
1027,0,USAlabamaClay,Alabama,Clay,2021-01-06 05:12:02.913893,2020-05-23 00:00:00.000000,0.17082851,0.33718708,0.60719399,22,44,80,12,21,39,0.09124188,0.16204256,0.29509882,0.12054829,0.18946960,0.29757278
1027,0,USAlabamaClay,Alabama,Clay,2021-01-06 05:12:02.913893,2020-05-24 00:00:00.000000,0.17301658,0.34251321,0.63871741,22,45,84,12,22,39,0.09460484,0.16691479,0.29732715,0.12732850,0.19232943,0.31389070
1027,0,USAlabamaClay,Alabama,Clay,2021-01-06 05:12:02.913893,2020-05-25 00:00:00.000000,0.19139227,0.35595757,0.63891782,25,47,84,12,22,39,0.09750706,0.16850984,0.30047337,0.13121468,0.19859631,0.32667534
1027,0,USAlabamaClay,Alabama,Clay,2021-01-06 05:12:02.913893,2020-05-26 00:00:00.000000,0.20988118,0.36714166,0.66772789,27,48,88,13,22,40,0.10054911,0.17250396,0.30653664,0.13224073,0.19923658,0.32998343
1027,0,USAlabamaClay,Alabama,Clay,2021-01-06 05:12:02.913893,2020-05-27 00:00:00.000000,0.22217842,0.38221523,0.69615276,29,50,92,13,23,41,0.10220631,0.17875601,0.31542034,0.13487842,0.20260153,0.33711490
1027,0,USAlabamaClay,Alabama,Clay,2021-01-06 05:12:02.913893,2020-05-28 00:00:00.000000,0.22369191,0.39747897,0.71760844,29,52,94,13,24,43,0.10341705,0.18459382,0.32679724,0.13662816,0.20705647,0.34687768
1027,0,USAlabamaClay,Alabama,Clay,2021-01-06 05:12:02.913893,2020-05-29 00:00:00.000000,0.22606578,0.41511406,0.74059594,29,54,98,13,25,45,0.10442168,0.18984431,0.34033626,0.13795739,0.21069419,0.36169265
1027,0,USAlabamaClay,Alabama,Clay,2021-01-06 05:12:02.913893,2020-05-30 00:00:00.000000,0.23001490,0.43353251,0.76457072,30,57,101,13,25,46,0.10551100,0.19587312,0.35326196,0.13745271,0.21906954,0.36736580
1027,0,USAlabamaClay,Alabama,Clay,2021-01-06 05:12:02.913893,2020-05-31 00:00:00.000000,0.23618420,0.45392262,0.78928681,31,60,104,14,27,48,0.10690990,0.20410558,0.36700581,0.14402152,0.23408822,0.39621515
1027,0,USAlabamaClay,Alabama,Clay,2021-01-06 05:12:02.913893,2020-06-01 00:00:00.000000,0.25231175,0.46900762,0.83957543,33,62,111,14,28,50,0.10891878,0.21300434,0.38167111,0.16516776,0.24275477,0.41824515
1027,0,USAlabamaClay,Alabama,Clay,2021-01-06 05:12:02.913893,2020-06-02 00:00:00.000000,0.26991860,0.49840411,0.87406736,35,65,115,14,29,52,0.11315571,0.22405082,0.39585271,0.17188196,0.25189992,0.43154564
1027,0,USAlabamaClay,Alabama,Clay,2021-01-06 05:12:02.913893,2020-06-03 00:00:00.000000,0.28930117,0.51715568,0.92958587,38,68,123,15,31,54,0.11907391,0.23451265,0.41103015,0.16435998,0.26262666,0.44158447
1027,0,USAlabamaClay,Alabama,Clay,2021-01-06 05:12:02.913893,2020-06-04 00:00:00.000000,0.31058757,0.53822798,0.99232779,41,71,131,16,32,56,0.12632618,0.24355057,0.42771408,0.17015336,0.27247519,0.44998369
1027,0,USAlabamaClay,Alabama,Clay,2021-01-06 05:12:02.913893,2020-06-05 00:00:00.000000,0.32175727,0.57034071,1.05636456,42,75,139,17,33,57,0.13473188,0.25525509,0.43811005,0.18407059,0.28195151,0.45803177
1027,0,USAlabamaClay,Alabama,Clay,2021-01-06 05:12:02.913893,2020-06-06 00:00:00.000000,0.32914419,0.59609732,1.11868179,43,78,148,18,35,59,0.14229763,0.26625342,0.45054828,0.19408792,0.28655109,0.44870194
1027,0,USAlabamaClay,Alabama,Clay,2021-01-06 05:12:02.913893,2020-06-07 00:00:00.000000,0.33109208,0.62493863,1.18289105,43,82,156,19,37,62,0.14539940,0.28004417,0.47298210,0.19418243,0.30419399,0.47722803
1027,0,USAlabamaClay,Alabama,Clay,2021-01-06 05:12:02.913893,2020-06-08 00:00:00.000000,0.36346723,0.66022435,1.22110223,48,87,161,19,38,67,0.14929789,0.29227144,0.50783157,0.19425354,0.31417633,0.48269126
1027,0,USAlabamaClay,Alabama,Clay,2021-01-06 05:12:02.913893,2020-06-09 00:00:00.000000,0.38969633,0.70126090,1.26316392,51,92,167,20,40,72,0.15469399,0.30404099,0.54447233,0.19483523,0.31904732,0.48511674
1027,0,USAlabamaClay,Alabama,Clay,2021-01-06 05:12:02.913893,2020-06-10 00:00:00.000000,0.41812708,0.73742057,1.30689056,55,97,172,22,42,77,0.16635826,0.31861150,0.58290887,0.21660401,0.32510929,0.48532367
1027,0,USAlabamaClay,Alabama,Clay,2021-01-06 05:12:02.913893,2020-06-11 00:00:00.000000,0.45278744,0.77795682,1.34037501,59,102,177,22,44,82,0.17358065,0.33539734,0.62312789,0.21860444,0.32991441,0.50055206
1027,0,USAlabamaClay,Alabama,Clay,2021-01-06 05:12:02.913893,2020-06-12 00:00:00.000000,0.48093809,0.82186734,1.36298788,63,108,180,25,46,88,0.19090195,0.35501693,0.66508967,0.22276732,0.34128514,0.51321721
1027,0,USAlabamaClay,Alabama,Clay,2021-01-06 05:12:02.913893,2020-06-13 00:00:00.000000,0.51035193,0.86904528,1.43358153,67,115,189,27,49,91,0.20476971,0.37496189,0.69385725,0.24683854,0.36689780,0.53765895
1027,0,USAlabamaClay,Alabama,Clay,2021-01-06 05:12:02.913893,2020-06-14 00:00:00.000000,0.53526753,0.91450703,1.48786893,70,121,196,27,52,95,0.21088033,0.39549409,0.71801247,0.26422435,0.38638291,0.55589001
1027,0,USAlabamaClay,Alabama,Clay,2021-01-06 05:12:02.913893,2020-06-15 00:00:00.000000,0.61130533,0.97734473,1.56462020,80,129,207,28,55,98,0.21702563,0.42140321,0.74300304,0.27313983,0.39754036,0.56459640
1027,0,USAlabamaClay,Alabama,Clay,2021-01-06 05:12:02.913893,2020-06-16 00:00:00.000000,0.69232021,1.03157813,1.64481004,91,136,217,31,59,102,0.23528173,0.44579859,0.77163817,0.28261609,0.40910454,0.56778983
1027,0,USAlabamaClay,Alabama,Clay,2021-01-06 05:12:02.913893,2020-06-17 00:00:00.000000,0.75495976,1.11058911,1.72808411,99,146,228,34,62,106,0.26227248,0.46919835,0.80366962,0.28917373,0.41263562,0.57333890
1027,0,USAlabamaClay,Alabama,Clay,2021-01-06 05:12:02.913893,2020-06-18 00:00:00.000000,0.81362789,1.18490135,1.81463899,107,156,240,39,65,110,0.29621394,0.49599573,0.83839080,0.28926086,0.41869276,0.58622248
1027,0,USAlabamaClay,Alabama,Clay,2021-01-06 05:12:02.913893,2020-06-19 00:00:00.000000,0.88153509,1.24860481,1.94230094,116,165,257,42,69,115,0.32151846,0.52612156,0.87512901,0.28955710,0.42436145,0.58907637
1027,0,USAlabamaClay,Alabama,Clay,2021-01-06 05:12:02.913893,2020-06-20 00:00:00.000000,0.95014670,1.30926884,2.07256439,125,173,274,46,74,120,0.35411546,0.56411975,0.91288604,0.29526980,0.42901726,0.58560349
1027,0,USAlabamaClay,Alabama,Clay,2021-01-06 05:12:02.913893,2020-06-21 00:00:00.000000,1.02430077,1.38423836,2.18762461,135,183,289,50,79,125,0.38254623,0.60188170,0.95160374,0.29865883,0.44048630,0.56747267
1027,0,USAlabamaClay,Alabama,Clay,2021-01-06 05:12:02.913893,2020-06-22 00:00:00.000000,1.12444299,1.48881329,2.32654296,148,197,307,54,84,132,0.41296588,0.64154506,0.99953090,0.31291733,0.45053051,0.55757638
1027,0,USAlabamaClay,Alabama,Clay,2021-01-06 05:12:02.913893,2020-06-23 00:00:00.000000,1.17778374,1.56640172,2.43953890,155,207,322,57,90,139,0.43722203,0.68476402,1.05572230,0.30748408,0.45490971,0.56051787
1027,0,USAlabamaClay,Alabama,Clay,2021-01-06 05:12:02.913893,2020-06-24 00:00:00.000000,1.25063678,1.65280958,2.55346055,165,218,337,61,96,148,0.46311744,0.72831940,1.11859488,0.30294545,0.45263572,0.57719982
1027,0,USAlabamaClay,Alabama,Clay,2021-01-06 05:12:02.913893,2020-06-25 00:00:00.000000,1.29383602,1.76138803,2.66900624,171,233,353,66,103,157,0.50053897,0.78066822,1.19095588,0.30625256,0.44937448,0.58426323
1027,0,USAlabamaClay,Alabama,Clay,2021-01-06 05:12:02.913893,2020-06-26 00:00:00.000000,1.33790933,1.86126324,2.85347740,177,246,377,71,109,167,0.54299350,0.82755051,1.26802868,0.31066194,0.45276043,0.58515659
1027,0,USAlabamaClay,Alabama,Clay,2021-01-06 05:12:02.913893,2020-06-27 00:00:00.000000,1.39513294,1.97742599,3.09823506,184,261,410,77,116,179,0.58428210,0.87702833,1.35270097,0.30900058,0.45371508,0.59042980
1027,0,USAlabamaClay,Alabama,Clay,2021-01-06 05:12:02.913893,2020-06-28 00:00:00.000000,1.46154235,2.09705260,3.27319776,193,277,433,83,122,191,0.62995838,0.92616523,1.44491530,0.29688377,0.44361143,0.57032608
1027,0,USAlabamaClay,Alabama,Clay,2021-01-06 05:12:02.913893,2020-06-29 00:00:00.000000,1.55635552,2.21858203,3.44956575,205,293,456,87,129,204,0.66419784,0.97990043,1.54704295,0.29432567,0.43990342,0.58579503
1027,0,USAlabamaClay,Alabama,Clay,2021-01-06 05:12:02.913893,2020-06-30 00:00:00.000000,1.65426454,2.35535377,3.63075048,218,311,480,93,137,218,0.70806320,1.03632588,1.64880575,0.30384054,0.43499294,0.60181159
1027,0,USAlabamaClay,Alabama,Clay,2021-01-06 05:12:02.913893,2020-07-01 00:00:00.000000,1.75258262,2.48539559,3.81954389,231,328,505,99,144,227,0.75397296,1.09516635,1.72060987,0.31614079,0.43147608,0.60800430
1027,0,USAlabamaClay,Alabama,Clay,2021-01-06 05:12:02.913893,2020-07-02 00:00:00.000000,1.82348760,2.61766219,4.01966008,241,346,532,103,153,245,0.78534428,1.15757143,1.85161492,0.31433251,0.43451221,0.61077338
1027,0,USAlabamaClay,Alabama,Clay,2021-01-06 05:12:02.913893,2020-07-03 00:00:00.000000,1.86529920,2.75510960,4.24782000,246,364,562,108,161,262,0.81799925,1.22209908,1.98694182,0.30235192,0.42679542,0.61274213
1027,0,USAlabamaClay,Alabama,Clay,2021-01-06 05:12:02.913893,2020-07-04 00:00:00.000000,1.91133233,2.90374661,4.50380356,252,384,596,112,172,277,0.85190970,1.30592152,2.10027594,0.30083543,0.42953513,0.60568035
1027,0,USAlabamaClay,Alabama,Clay,2021-01-06 05:12:02.913893,2020-07-05 00:00:00.000000,2.01273442,3.04061336,4.73874785,266,402,627,119,182,292,0.90466303,1.37961564,2.21194570,0.31780931,0.43052589,0.59671399
1027,0,USAlabamaClay,Alabama,Clay,2021-01-06 05:12:02.913893,2020-07-06 00:00:00.000000,2.08726273,3.21454125,4.91705928,276,425,650,127,191,307,0.96524301,1.45035606,2.32333886,0.31778554,0.43045983,0.61323048
1027,0,USAlabamaClay,Alabama,Clay,2021-01-06 05:12:02.913893,2020-07-07 00:00:00.000000,2.17099470,3.35525168,5.09997248,287,444,674,134,201,322,1.01349582,1.52181503,2.43623016,0.31775922,0.42865286,0.62497180
1027,0,USAlabamaClay,Alabama,Clay,2021-01-06 05:12:02.913893,2020-07-08 00:00:00.000000,2.25854836,3.50524876,5.28736490,298,463,699,138,209,337,1.04989592,1.58657343,2.55082891,0.31773131,0.43333549,0.62230197
1027,0,USAlabamaClay,Alabama,Clay,2021-01-06 05:12:02.913893,2020-07-09 00:00:00.000000,2.34880018,3.70068644,5.49683535,310,489,727,144,223,352,1.08963535,1.69231920,2.66671680,0.31046516,0.43343934,0.60252197
1027,0,USAlabamaClay,Alabama,Clay,2021-01-06 05:12:02.913893,2020-07-10 00:00:00.000000,2.44171476,3.91668713,5.84527575,323,518,773,151,235,368,1.14654444,1.77804443,2.78305125,0.31487976,0.42796127,0.59344643
1027,0,USAlabamaClay,Alabama,Clay,2021-01-06 05:12:02.913893,2020-07-11 00:00:00.000000,2.56861264,4.06500645,6.16294424,339,538,815,160,246,383,1.21180535,1.86040560,2.89822776,0.31377390,0.42279578,0.57905067
1027,0,USAlabamaClay,Alabama,Clay,2021-01-06 05:12:02.913893,2020-07-12 00:00:00.000000,2.72354065,4.25009772,6.43281939,360,562,851,169,257,398,1.28057519,1.94331056,3.01294698,0.30913275,0.41014495,0.56608881
1027,0,USAlabamaClay,Alabama,Clay,2021-01-06 05:12:02.913893,2020-07-13 00:00:00.000000,2.87989065,4.46425480,6.61440012,381,590,875,178,268,413,1.35197419,2.02828226,3.12772628,0.30503205,0.40494533,0.56572814
1027,0,USAlabamaClay,Alabama,Clay,2021-01-06 05:12:02.913893,2020-07-14 00:00:00.000000,3.04461946,4.67836016,6.77565003,402,619,896,188,282,429,1.42715021,2.13665566,3.24585899,0.30133103,0.39978600,0.53943925
1027,0,USAlabamaClay,Alabama,Clay,2021-01-06 05:12:02.913893,2020-07-15 00:00:00.000000,3.19189758,4.88522983,6.92047689,422,646,915,198,296,445,1.49959837,2.24095125,3.36687444,0.29766354,0.38882050,0.53878355
1027,0,USAlabamaClay,Alabama,Clay,2021-01-06 05:12:02.913893,2020-07-16 00:00:00.000000,3.31023887,5.11635600,7.11367278,438,677,941,206,306,459,1.55989550,2.31517616,3.47020462,0.29307667,0.38289066,0.53760991
1027,0,USAlabamaClay,Alabama,Clay,2021-01-06 05:12:02.913893,2020-07-17 00:00:00.000000,3.47541071,5.32749832,7.25356232,459,705,960,214,321,468,1.62166581,2.42905333,3.53910322,0.29362373,0.37922885,0.53394418
1027,0,USAlabamaClay,Alabama,Clay,2021-01-06 05:12:02.913893,2020-07-18 00:00:00.000000,3.57782076,5.48496234,7.49651862,473,725,992,222,334,495,1.68473237,2.52943984,3.74241728,0.27771319,0.37170220,0.52266967
1027,0,USAlabamaClay,Alabama,Clay,2021-01-06 05:12:02.913893,2020-07-19 00:00:00.000000,3.68074569,5.66370895,7.66745793,487,749,1014,231,344,513,1.74907851,2.60636056,3.88133473,0.26638014,0.36317948,0.49200778
1027,0,USAlabamaClay,Alabama,Clay,2021-01-06 05:12:02.913893,2020-07-20 00:00:00.000000,3.76995002,5.81529911,7.78127352,498,769,1029,240,354,531,1.81470041,2.67964042,4.01452726,0.25891242,0.35691971,0.47012666
1027,0,USAlabamaClay,Alabama,Clay,2021-01-06 05:12:02.913893,2020-07-21 00:00:00.000000,3.85894274,5.95549315,7.88994783,510,788,1044,248,365,549,1.87457170,2.75946810,4.14813878,0.24336297,0.34702437,0.46954774
1027,0,USAlabamaClay,Alabama,Clay,2021-01-06 05:12:02.913893,2020-07-22 00:00:00.000000,3.94772085,6.05103790,8.05328924,522,800,1065,255,373,567,1.92968058,2.82052886,4.28414433,0.23962898,0.33324105,0.46864661
1027,0,USAlabamaClay,Alabama,Clay,2021-01-06 05:12:02.913893,2020-07-23 00:00:00.000000,4.03621180,6.14316525,8.21459492,534,813,1087,261,382,582,1.97789498,2.88904025,4.40104225,0.23530101,0.32456169,0.46701325
1027,0,USAlabamaClay,Alabama,Clay,2021-01-06 05:12:02.913893,2020-07-24 00:00:00.000000,4.11342503,6.26442430,8.36959403,544,829,1107,266,391,588,2.01597035,2.95658762,4.44644378,0.23693912,0.31674431,0.46417938
1027,0,USAlabamaClay,Alabama,Clay,2021-01-06 05:12:02.913893,2020-07-25 00:00:00.000000,4.13116702,6.33020502,8.50486827,546,837,1125,270,401,589,2.04025975,3.03488536,4.45386520,0.22500303,0.30572082,0.45965955
1027,0,USAlabamaClay,Alabama,Clay,2021-01-06 05:12:02.913893,2020-07-26 00:00:00.000000,4.10783591,6.37901023,8.60598510,543,844,1139,274,408,606,2.07041516,3.08904364,4.58178704,0.21990915,0.29991829,0.43722646
1027,0,USAlabamaClay,Alabama,Clay,2021-01-06 05:12:02.913893,2020-07-27 00:00:00.000000,4.09359142,6.41686593,8.67169978,541,849,1147,277,412,612,2.09885881,3.11609313,4.62432902,0.21779956,0.29857843,0.44446110
1027,0,USAlabamaClay,Alabama,Clay,2021-01-06 05:12:02.913893,2020-07-28 00:00:00.000000,4.13147447,6.47455720,8.71042174,546,856,1152,278,417,611,2.10652327,3.15632532,4.62292845,0.21792661,0.28680795,0.42098942
1027,0,USAlabamaClay,Alabama,Clay,2021-01-06 05:12:02.913893,2020-07-29 00:00:00.000000,4.16842763,6.49460114,8.68119433,551,859,1148,280,422,609,2.11755055,3.19021852,4.60360166,0.21794712,0.28259800,0.41875060
1027,0,USAlabamaClay,Alabama,Clay,2021-01-06 05:12:02.913893,2020-07-30 00:00:00.000000,4.20459845,6.47354123,8.65865743,556,856,1145,282,423,610,2.13481120,3.20149061,4.61082000,0.21792466,0.28091010,0.41615390
1027,0,USAlabamaClay,Alabama,Clay,2021-01-06 05:12:02.913893,2020-07-31 00:00:00.000000,4.24013675,6.46010211,8.63451896,561,854,1142,284,425,618,2.15080567,3.21323858,4.67007691,0.21784573,0.27907341,0.41343702
1027,0,USAlabamaClay,Alabama,Clay,2021-01-06 05:12:02.913893,2020-08-01 00:00:00.000000,4.27537331,6.43482705,8.56243913,565,851,1133,285,426,625,2.16092473,3.22038993,4.72632922,0.21353491,0.27523519,0.40865378
1027,0,USAlabamaClay,Alabama,Clay,2021-01-06 05:12:02.913893,2020-08-02 00:00:00.000000,4.31123652,6.42906232,8.55087359,570,850,1131,286,426,630,2.16481026,3.22487403,4.76594731,0.20215065,0.27337724,0.39844516
1027,0,USAlabamaClay,Alabama,Clay,2021-01-06 05:12:02.913893,2020-08-03 00:00:00.000000,4.35589603,6.48728785,8.56522184,576,858,1133,286,426,634,2.16395428,3.22404257,4.79433526,0.20195354,0.27115566,0.40137075
1027,0,USAlabamaClay,Alabama,Clay,2021-01-06 05:12:02.913893,2020-08-04 00:00:00.000000,4.40271351,6.46105493,8.59107159,582,855,1137,285,425,640,2.15798026,3.21145853,4.83821008,0.20272437,0.27144894,0.39330747
1027,0,USAlabamaClay,Alabama,Clay,2021-01-06 05:12:02.913893,2020-08-05 00:00:00.000000,4.45032901,6.43561788,8.65154261,589,851,1145,284,421,645,2.14796295,3.18691010,4.88027067,0.20345317,0.27138704,0.38431541
1027,0,USAlabamaClay,Alabama,Clay,2021-01-06 05:12:02.913893,2020-08-06 00:00:00.000000,4.49778727,6.37853429,8.70875274,595,844,1152,282,418,651,2.13453033,3.16461611,4.92046964,0.20663909,0.27130423,0.37505069
1027,0,USAlabamaClay,Alabama,Clay,2021-01-06 05:12:02.913893,2020-08-07 00:00:00.000000,4.46535578,6.31093168,8.76261839,590,835,1159,280,419,653,2.11804021,3.17210711,4.93767542,0.20154190,0.27168203,0.36625274
1027,0,USAlabamaClay,Alabama,Clay,2021-01-06 05:12:02.913893,2020-08-08 00:00:00.000000,4.40661200,6.23899694,8.81352116,583,825,1166,277,417,652,2.09876957,3.15416175,4.92995545,0.19821735,0.27413694,0.35834298
1027,0,USAlabamaClay,Alabama,Clay,2021-01-06 05:12:02.913893,2020-08-09 00:00:00.000000,4.34500321,6.16923249,8.85734554,575,816,1172,274,410,649,2.07703431,3.10017792,4.90704630,0.19748641,0.27113940,0.35464011
1027,0,USAlabamaClay,Alabama,Clay,2021-01-06 05:12:02.913893,2020-08-10 00:00:00.000000,4.26976535,6.14075488,8.86426508,565,812,1173,274,408,644,2.07767160,3.08961575,4.87273366,0.19758085,0.27284292,0.34898184
1027,0,USAlabamaClay,Alabama,Clay,2021-01-06 05:12:02.913893,2020-08-11 00:00:00.000000,4.19543841,6.16712085,8.84161504,555,816,1170,272,405,639,2.06063991,3.06727911,4.83161424,0.19831423,0.27860978,0.34505280
1027,0,USAlabamaClay,Alabama,Clay,2021-01-06 05:12:02.913893,2020-08-12 00:00:00.000000,4.24141784,6.20913145,8.87788227,561,821,1174,271,403,633,2.04779330,3.04993116,4.78530237,0.21126297,0.27843572,0.35970025
1027,0,USAlabamaClay,Alabama,Clay,2021-01-06 05:12:02.913893,2020-08-13 00:00:00.000000,4.28975951,6.23094106,8.88899869,567,824,1176,270,401,627,2.04054415,3.03607539,4.73999349,0.20817380,0.27910393,0.37373641
1027,0,USAlabamaClay,Alabama,Clay,2021-01-06 05:12:02.913893,2020-08-14 00:00:00.000000,4.34268383,6.18608637,8.87369143,574,818,1174,268,400,628,2.03239258,3.02442929,4.74740361,0.21037134,0.28585189,0.38731501
1027,0,USAlabamaClay,Alabama,Clay,2021-01-06 05:12:02.913893,2020-08-15 00:00:00.000000,4.34208588,6.19292357,8.85412674,574,819,1171,268,400,628,2.02527382,3.02269067,4.74697044,0.21529628,0.29098633,0.39319189
1027,0,USAlabamaClay,Alabama,Clay,2021-01-06 05:12:02.913893,2020-08-16 00:00:00.000000,4.31416408,6.22544739,8.82797558,570,823,1168,267,400,627,2.02049445,3.02692306,4.73996094,0.21381074,0.29321909,0.42050790
1027,0,USAlabamaClay,Alabama,Clay,2021-01-06 05:12:02.913893,2020-08-17 00:00:00.000000,4.30723822,6.24835297,8.78213569,570,826,1162,270,401,630,2.04222215,3.03482139,4.76155121,0.21343037,0.29719336,0.42844343
1027,0,USAlabamaClay,Alabama,Clay,2021-01-06 05:12:02.913893,2020-08-18 00:00:00.000000,4.30222456,6.28335395,8.73898490,569,831,1156,275,402,637,2.08103721,3.04470321,4.81730609,0.22614570,0.30071178,0.42859276
1027,0,USAlabamaClay,Alabama,Clay,2021-01-06 05:12:02.913893,2020-08-19 00:00:00.000000,4.30007967,6.33794028,8.70797019,569,838,1152,281,402,644,2.12385244,3.03969267,4.86744385,0.22664653,0.30273352,0.42778643
1027,0,USAlabamaClay,Alabama,Clay,2021-01-06 05:12:02.913893,2020-08-20 00:00:00.000000,4.30158668,6.38548943,8.75243538,569,845,1158,284,401,650,2.15085642,3.03506785,4.91215748,0.22907996,0.30580489,0.43890905
1027,0,USAlabamaClay,Alabama,Clay,2021-01-06 05:12:02.913893,2020-08-21 00:00:00.000000,4.30755053,6.40090164,8.75407648,570,847,1158,283,401,655,2.13878989,3.03112507,4.95199229,0.23764733,0.30702610,0.44607077
1027,0,USAlabamaClay,Alabama,Clay,2021-01-06 05:12:02.913893,2020-08-22 00:00:00.000000,4.31836123,6.41539853,8.73881919,571,849,1156,281,400,660,2.12784127,3.02953129,4.98743053,0.23983820,0.31002728,0.41896755
1027,0,USAlabamaClay,Alabama,Clay,2021-01-06 05:12:02.913893,2020-08-23 00:00:00.000000,4.33379230,6.44171488,8.71937565,573,852,1154,280,404,661,2.11818746,3.05669917,5.00022914,0.24450302,0.31554277,0.42449527
1027,0,USAlabamaClay,Alabama,Clay,2021-01-06 05:12:02.913893,2020-08-24 00:00:00.000000,4.34386338,6.46987948,8.76221210,574,856,1159,279,410,661,2.11012141,3.09819382,4.99655973,0.24641602,0.31560395,0.43582430
1027,0,USAlabamaClay,Alabama,Clay,2021-01-06 05:12:02.913893,2020-08-25 00:00:00.000000,4.35806717,6.47978597,8.81027408,576,857,1166,278,416,660,2.10331785,3.14451151,4.99403196,0.24825166,0.31974101,0.43563639
1027,0,USAlabamaClay,Alabama,Clay,2021-01-06 05:12:02.913893,2020-08-26 00:00:00.000000,4.37822249,6.49081745,8.85467859,579,859,1171,277,418,662,2.09822116,3.16115106,5.00614659,0.25500272,0.32564791,0.44896459
1027,0,USAlabamaClay,Alabama,Clay,2021-01-06 05:12:02.913893,2020-08-27 00:00:00.000000,4.36295022,6.52349221,8.89484708,577,863,1177,277,420,667,2.10034205,3.17396060,5.04368860,0.25681261,0.33043759,0.44076361
1027,0,USAlabamaClay,Alabama,Clay,2021-01-06 05:12:02.913893,2020-08-28 00:00:00.000000,4.31718352,6.56662723,8.90887864,571,869,1179,279,422,672,2.11090407,3.18914835,5.07944580,0.25702092,0.33535025,0.44757619
1027,0,USAlabamaClay,Alabama,Clay,2021-01-06 05:12:02.913893,2020-08-29 00:00:00.000000,4.34566803,6.62452174,8.85258946,575,876,1171,277,427,676,2.09387441,3.22771117,5.11454540,0.25848681,0.33927079,0.45963067
1027,0,USAlabamaClay,Alabama,Clay,2021-01-06 05:12:02.913893,2020-08-30 00:00:00.000000,4.40883028,6.65040025,8.79684087,583,880,1164,277,431,675,2.09625820,3.26092014,5.10708095,0.25771320,0.34619648,0.46850906
1027,0,USAlabamaClay,Alabama,Clay,2021-01-06 05:12:02.913893,2020-08-31 00:00:00.000000,4.44794790,6.67511617,8.77937277,588,883,1161,278,435,676,2.10120345,3.28836813,5.11358822,0.25764501,0.35545849,0.47675640
1027,0,USAlabamaClay,Alabama,Clay,2021-01-06 05:12:02.913893,2020-09-01 00:00:00.000000,4.48706720,6.71557029,8.82468347,593,888,1167,279,439,678,2.11144976,3.31797408,5.12486141,0.25763991,0.35886956,0.48443582
1027,0,USAlabamaClay,Alabama,Clay,2021-01-06 05:12:02.913893,2020-09-02 00:00:00.000000,4.52436771,6.72762099,8.87101839,598,890,1174,281,443,678,2.12612289,3.34865695,5.12796155,0.25761389,0.35931020,0.48933345
1027,0,USAlabamaClay,Alabama,Clay,2021-01-06 05:12:02.913893,2020-09-03 00:00:00.000000,4.55599864,6.71763242,8.97264956,602,889,1187,283,445,678,2.14494095,3.36411324,5.12507419,0.25762891,0.35919460,0.48203732
1027,0,USAlabamaClay,Alabama,Clay,2021-01-06 05:12:02.913893,2020-09-04 00:00:00.000000,4.66717659,6.76044807,9.08010107,617,894,1201,287,446,683,2.16961413,3.37354194,5.16219571,0.25976942,0.35489797,0.48179893
1027,0,USAlabamaClay,Alabama,Clay,2021-01-06 05:12:02.913893,2020-09-05 00:00:00.000000,4.84535070,6.82984920,9.18297943,641,903,1215,291,449,690,2.20417932,3.39877441,5.21459647,0.25381247,0.35370213,0.48410444
1027,0,USAlabamaClay,Alabama,Clay,2021-01-06 05:12:02.913893,2020-09-06 00:00:00.000000,4.88192947,6.82633559,9.27926199,646,903,1228,297,454,696,2.25076468,3.43337749,5.26110564,0.25216412,0.35033578,0.48529106
1027,0,USAlabamaClay,Alabama,Clay,2021-01-06 05:12:02.913893,2020-09-07 00:00:00.000000,4.88048510,6.88152165,9.26087112,645,910,1225,305,458,701,2.30823893,3.46632584,5.29837130,0.24143698,0.34625680,0.48918752
1027,0,USAlabamaClay,Alabama,Clay,2021-01-06 05:12:02.913893,2020-09-08 00:00:00.000000,4.86953637,6.91090717,9.19009703,644,914,1216,306,462,704,2.31390448,3.49765409,5.32406483,0.23995236,0.34248750,0.49425139
1027,0,USAlabamaClay,Alabama,Clay,2021-01-06 05:12:02.913893,2020-09-09 00:00:00.000000,4.85275010,6.92720388,9.10565557,642,916,1205,308,466,706,2.33026469,3.52671940,5.33726085,0.23852531,0.33943819,0.49017195
1027,0,USAlabamaClay,Alabama,Clay,2021-01-06 05:12:02.913893,2020-09-10 00:00:00.000000,4.83271163,6.93874221,9.17125845,639,918,1213,311,466,702,2.35509249,3.52552194,5.30933789,0.24106346,0.33603059,0.46288225
1027,0,USAlabamaClay,Alabama,Clay,2021-01-06 05:12:02.913893,2020-09-11 00:00:00.000000,4.80930006,6.94682177,9.24751028,636,919,1223,306,467,693,2.31382783,3.52994010,5.24022109,0.24273486,0.33782379,0.46103223
1027,0,USAlabamaClay,Alabama,Clay,2021-01-06 05:12:02.913893,2020-09-12 00:00:00.000000,4.78247856,6.94484220,9.18935718,632,919,1216,300,467,696,2.27011798,3.53603089,5.26559789,0.24607539,0.33761665,0.44336400
1027,0,USAlabamaClay,Alabama,Clay,2021-01-06 05:12:02.913893,2020-09-13 00:00:00.000000,4.67719572,6.87193281,9.10972423,619,909,1205,294,467,700,2.22318765,3.53148190,5.29014218,0.25173613,0.32586022,0.43865989
1027,0,USAlabamaClay,Alabama,Clay,2021-01-06 05:12:02.913893,2020-09-14 00:00:00.000000,4.55140312,6.80210647,9.00192559,602,900,1191,287,463,696,2.17232441,3.50476043,5.26217287,0.25098605,0.32468609,0.44592464
1027,0,USAlabamaClay,Alabama,Clay,2021-01-06 05:12:02.913893,2020-09-15 00:00:00.000000,4.42310706,6.71558261,8.87681580,585,888,1174,280,461,691,2.11931649,3.48738345,5.22637495,0.24881016,0.32208908,0.44822302
1027,0,USAlabamaClay,Alabama,Clay,2021-01-06 05:12:02.913893,2020-09-16 00:00:00.000000,4.29576344,6.63833651,8.73752935,568,878,1156,274,452,686,2.07265422,3.42237555,5.18675747,0.24476210,0.31940462,0.44796692
1027,0,USAlabamaClay,Alabama,Clay,2021-01-06 05:12:02.913893,2020-09-17 00:00:00.000000,4.17150371,6.57429516,8.60219481,552,870,1138,268,449,689,2.03092345,3.39278519,5.20833805,0.23384445,0.31528458,0.44715171
1027,0,USAlabamaClay,Alabama,Clay,2021-01-06 05:12:02.913893,2020-09-18 00:00:00.000000,4.10195297,6.49320039,8.55009219,542,859,1131,266,442,691,2.01042831,3.34607783,5.22143063,0.22706821,0.31003388,0.44394844
1027,0,USAlabamaClay,Alabama,Clay,2021-01-06 05:12:02.913893,2020-09-19 00:00:00.000000,4.03080637,6.43644048,8.47498552,533,851,1121,262,437,691,1.98597980,3.30231576,5.22133682,0.21972534,0.30260908,0.43843938
1027,0,USAlabamaClay,Alabama,Clay,2021-01-06 05:12:02.913893,2020-09-20 00:00:00.000000,3.95563526,6.37797187,8.42146513,523,844,1114,259,431,689,1.95782376,3.26322116,5.20735067,0.22022433,0.30323982,0.43838213
1027,0,USAlabamaClay,Alabama,Clay,2021-01-06 05:12:02.913893,2020-09-21 00:00:00.000000,3.88371864,6.30892555,8.36915316,514,834,1107,254,427,685,1.92657933,3.22712094,5.18075913,0.21418189,0.30879765,0.43823062
1027,0,USAlabamaClay,Alabama,Clay,2021-01-06 05:12:02.913893,2020-09-22 00:00:00.000000,3.81099204,6.23651431,8.31808855,504,825,1100,250,422,681,1.89408774,3.18970709,5.14705631,0.21068860,0.31239328,0.43798294
1027,0,USAlabamaClay,Alabama,Clay,2021-01-06 05:12:02.913893,2020-09-23 00:00:00.000000,3.73848023,6.19729924,8.27108639,494,820,1094,246,416,676,1.86068600,3.14987358,5.10865344,0.20910026,0.31512887,0.45494929
1027,0,USAlabamaClay,Alabama,Clay,2021-01-06 05:12:02.913893,2020-09-24 00:00:00.000000,3.66726752,6.10299866,8.22113263,485,807,1088,241,411,670,1.82674187,3.10546662,5.06787375,0.21200933,0.31991954,0.45589420
1027,0,USAlabamaClay,Alabama,Clay,2021-01-06 05:12:02.913893,2020-09-25 00:00:00.000000,3.62371098,6.04739314,8.16741420,479,800,1080,237,408,665,1.79278056,3.08472850,5.02653067,0.21782723,0.32464417,0.45598757
1027,0,USAlabamaClay,Alabama,Clay,2021-01-06 05:12:02.913893,2020-09-26 00:00:00.000000,3.60341170,6.02633702,8.11030352,476,797,1073,232,405,659,1.75965280,3.06758551,4.98537388,0.23054273,0.33364818,0.48504133
1027,0,USAlabamaClay,Alabama,Clay,2021-01-06 05:12:02.913893,2020-09-27 00:00:00.000000,3.58595490,5.96972588,8.05030928,474,790,1065,228,402,654,1.72846736,3.04320799,4.94437634,0.24189578,0.34410872,0.51576819
1027,0,USAlabamaClay,Alabama,Clay,2021-01-06 05:12:02.913893,2020-09-28 00:00:00.000000,3.57560811,5.89453139,7.98665520,473,780,1057,225,398,648,1.70029705,3.01425645,4.90321778,0.24822492,0.35437938,0.50958493
1027,0,USAlabamaClay,Alabama,Clay,2021-01-06 05:12:02.913893,2020-09-29 00:00:00.000000,3.56538021,5.85738995,7.92107853,471,775,1048,222,395,643,1.67769643,2.99088500,4.85946805,0.25460919,0.35311934,0.51910206
1027,0,USAlabamaClay,Alabama,Clay,2021-01-06 05:12:02.913893,2020-09-30 00:00:00.000000,3.55557401,5.82748815,7.85493417,470,771,1039,219,394,637,1.65884985,2.97999292,4.81345910,0.26247248,0.35381323,0.52426722
1027,0,USAlabamaClay,Alabama,Clay,2021-01-06 05:12:02.913893,2020-10-01 00:00:00.000000,3.54837527,5.76611344,7.79142871,469,763,1031,217,393,630,1.64243776,2.97319872,4.76544605,0.27254069,0.35661013,0.53011444
1027,0,USAlabamaClay,Alabama,Clay,2021-01-06 05:12:02.913893,2020-10-02 00:00:00.000000,3.55244521,5.73146009,7.73318030,470,758,1023,218,391,624,1.64837922,2.95905038,4.71569147,0.27290346,0.35765298,0.53209991
1027,0,USAlabamaClay,Alabama,Clay,2021-01-06 05:12:02.913893,2020-10-03 00:00:00.000000,3.58624003,5.69308560,7.70260508,474,753,1019,219,388,617,1.65872942,2.93323547,4.66464867,0.28128892,0.36348350,0.53398760
1027,0,USAlabamaClay,Alabama,Clay,2021-01-06 05:12:02.913893,2020-10-04 00:00:00.000000,3.65576733,5.65797591,7.72238099,483,748,1022,220,386,610,1.66923285,2.91659362,4.61354481,0.28662060,0.36307214,0.54959790
1027,0,USAlabamaClay,Alabama,Clay,2021-01-06 05:12:02.913893,2020-10-05 00:00:00.000000,3.72356277,5.64117801,7.74282881,492,746,1024,222,385,604,1.68005419,2.91128979,4.56579182,0.27801498,0.36961875,0.55453235
1027,0,USAlabamaClay,Alabama,Clay,2021-01-06 05:12:02.913893,2020-10-06 00:00:00.000000,3.75384504,5.63034923,7.76203117,496,745,1027,223,383,599,1.69174514,2.90035306,4.52843414,0.27296907,0.37511048,0.56622254
1027,0,USAlabamaClay,Alabama,Clay,2021-01-06 05:12:02.913893,2020-10-07 00:00:00.000000,3.78378868,5.63910389,7.76325533,500,746,1027,225,377,596,1.70323019,2.85105868,4.50472581,0.26625172,0.38030095,0.56842959
1027,0,USAlabamaClay,Alabama,Clay,2021-01-06 05:12:02.913893,2020-10-08 00:00:00.000000,3.81418424,5.62409818,7.72696282,504,744,1022,226,376,594,1.71374174,2.84127683,4.49275624,0.26125437,0.38483438,0.56769684
1027,0,USAlabamaClay,Alabama,Clay,2021-01-06 05:12:02.913893,2020-10-09 00:00:00.000000,3.84404346,5.61563977,7.63850035,508,743,1010,228,377,594,1.72287162,2.85582327,4.48829533,0.26085823,0.39206403,0.56542492
1027,0,USAlabamaClay,Alabama,Clay,2021-01-06 05:12:02.913893,2020-10-10 00:00:00.000000,3.87226842,5.55090782,7.53967686,512,734,997,230,377,593,1.73980828,2.85372459,4.48681492,0.26076237,0.39387384,0.57200490
1027,0,USAlabamaClay,Alabama,Clay,2021-01-06 05:12:02.913893,2020-10-11 00:00:00.000000,3.89723344,5.54113873,7.53387898,515,733,997,234,376,593,1.76911927,2.84776728,4.48469952,0.26066231,0.40211647,0.55311631
1027,0,USAlabamaClay,Alabama,Clay,2021-01-06 05:12:02.913893,2020-10-12 00:00:00.000000,3.91889008,5.50269453,7.45170083,518,728,986,237,375,592,1.79428645,2.84049052,4.48008973,0.26049145,0.40078107,0.53881731
1027,0,USAlabamaClay,Alabama,Clay,2021-01-06 05:12:02.913893,2020-10-13 00:00:00.000000,3.93558937,5.48354671,7.36697295,520,725,975,241,373,591,1.82144440,2.82480294,4.47280824,0.25830583,0.40707523,0.51753538
1027,0,USAlabamaClay,Alabama,Clay,2021-01-06 05:12:02.913893,2020-10-14 00:00:00.000000,3.91422046,5.44370797,7.27957700,518,720,963,244,370,590,1.84916587,2.79919060,4.46305286,0.25728717,0.40476867,0.51734461
1027,0,USAlabamaClay,Alabama,Clay,2021-01-06 05:12:02.913893,2020-10-15 00:00:00.000000,3.86974585,5.43454887,7.25381292,512,719,960,248,365,587,1.87560132,2.76529404,4.43612291,0.25724116,0.40853590,0.51195709
1027,0,USAlabamaClay,Alabama,Clay,2021-01-06 05:12:02.913893,2020-10-16 00:00:00.000000,3.82478784,5.40705634,7.25739441,506,715,960,251,363,578,1.89941196,2.74943595,4.37429261,0.25857312,0.40244012,0.50062717
1027,0,USAlabamaClay,Alabama,Clay,2021-01-06 05:12:02.913893,2020-10-17 00:00:00.000000,3.78671230,5.34975138,7.26406617,501,708,961,252,359,570,1.90947098,2.71584621,4.31033723,0.25981953,0.39008142,0.49945039
1027,0,USAlabamaClay,Alabama,Clay,2021-01-06 05:12:02.913893,2020-10-18 00:00:00.000000,3.76457179,5.24281312,7.26817227,498,693,961,250,353,561,1.89276249,2.67206058,4.24446498,0.26215067,0.38550553,0.49901889
1027,0,USAlabamaClay,Alabama,Clay,2021-01-06 05:12:02.913893,2020-10-19 00:00:00.000000,3.77503778,5.17581587,7.26230582,499,685,961,247,347,552,1.87299656,2.62471185,4.17691726,0.26301452,0.38556989,0.49910920
1027,0,USAlabamaClay,Alabama,Clay,2021-01-06 05:12:02.913893,2020-10-20 00:00:00.000000,3.78479670,5.10251675,7.25084729,500,675,959,245,343,544,1.85658949,2.59201992,4.11387182,0.26257153,0.38418259,0.50145624
1027,0,USAlabamaClay,Alabama,Clay,2021-01-06 05:12:02.913893,2020-10-21 00:00:00.000000,3.72052016,5.07153677,7.23243277,492,671,957,243,342,536,1.83755792,2.58673551,4.05410424,0.26325917,0.38521028,0.50387744
1027,0,USAlabamaClay,Alabama,Clay,2021-01-06 05:12:02.913893,2020-10-22 00:00:00.000000,3.65202356,5.02955314,7.16740629,483,665,948,241,339,528,1.82123330,2.56525416,3.99672887,0.26532855,0.38240509,0.50471528
1027,0,USAlabamaClay,Alabama,Clay,2021-01-06 05:12:02.913893,2020-10-23 00:00:00.000000,3.58405907,4.98281900,7.07938977,474,659,936,238,334,521,1.80543082,2.52559694,3.94106388,0.27034714,0.38232157,0.50496303
1027,0,USAlabamaClay,Alabama,Clay,2021-01-06 05:12:02.913893,2020-10-24 00:00:00.000000,3.50351085,4.90973301,6.98726134,463,649,924,237,329,514,1.79071955,2.48649648,3.88590340,0.27023697,0.38810426,0.50797228
1027,0,USAlabamaClay,Alabama,Clay,2021-01-06 05:12:02.913893,2020-10-25 00:00:00.000000,3.41246699,4.80725863,6.89330488,451,636,912,235,326,506,1.77853365,2.46469834,3.83050472,0.27458365,0.39283751,0.51372714
1027,0,USAlabamaClay,Alabama,Clay,2021-01-06 05:12:02.913893,2020-10-26 00:00:00.000000,3.34939356,4.74098449,6.81996540,443,627,902,234,323,499,1.76808340,2.44304009,3.77537981,0.27576855,0.39653951,0.51928024
1027,0,USAlabamaClay,Alabama,Clay,2021-01-06 05:12:02.913893,2020-10-27 00:00:00.000000,3.28782188,4.67327147,6.74576946,435,618,892,231,319,493,1.74966936,2.41248473,3.72606245,0.27516983,0.39709890,0.52918379
1027,0,USAlabamaClay,Alabama,Clay,2021-01-06 05:12:02.913893,2020-10-28 00:00:00.000000,3.22927736,4.62852834,6.67376024,427,612,883,226,314,491,1.71282022,2.37498009,3.71342707,0.27516473,0.40112671,0.56162543
1027,0,USAlabamaClay,Alabama,Clay,2021-01-06 05:12:02.913893,2020-10-29 00:00:00.000000,3.17822233,4.59121302,6.61365838,420,607,875,221,309,490,1.67432413,2.33929671,3.70657429,0.27373705,0.40694055,0.57468663
1027,0,USAlabamaClay,Alabama,Clay,2021-01-06 05:12:02.913893,2020-10-30 00:00:00.000000,3.21836217,4.57466231,6.57258210,425,605,869,216,307,490,1.63509670,2.32528775,3.70358070,0.27553257,0.41485520,0.57953338
1027,0,USAlabamaClay,Alabama,Clay,2021-01-06 05:12:02.913893,2020-10-31 00:00:00.000000,3.28058701,4.56114459,6.53920576,434,603,865,215,306,490,1.62482532,2.31792154,3.70305865,0.27849971,0.42490738,0.58507395
1027,0,USAlabamaClay,Alabama,Clay,2021-01-06 05:12:02.913893,2020-11-01 00:00:00.000000,3.30639192,4.51034623,6.50662775,437,596,861,214,305,490,1.62278600,2.31191291,3.70444170,0.28403250,0.43927692,0.59542254
1027,0,USAlabamaClay,Alabama,Clay,2021-01-06 05:12:02.913893,2020-11-02 00:00:00.000000,3.27593172,4.48615784,6.46289056,433,593,855,214,304,490,1.61977048,2.30095844,3.70804563,0.29105917,0.45110361,0.60014614
1027,0,USAlabamaClay,Alabama,Clay,2021-01-06 05:12:02.913893,2020-11-03 00:00:00.000000,3.25483322,4.44452923,6.41932967,430,588,849,213,300,491,1.61263691,2.27232221,3.71294756,0.30024162,0.46297660,0.61391174
1027,0,USAlabamaClay,Alabama,Clay,2021-01-06 05:12:02.913893,2020-11-04 00:00:00.000000,3.24296488,4.43171551,6.37510312,429,586,843,212,296,492,1.60769294,2.24332848,3.71935760,0.30935300,0.46911373,0.62109593
1027,0,USAlabamaClay,Alabama,Clay,2021-01-06 05:12:02.913893,2020-11-05 00:00:00.000000,3.23958464,4.43379027,6.32736782,428,586,837,213,298,493,1.61022956,2.25171988,3.72672512,0.30954257,0.47488530,0.62704337
1027,0,USAlabamaClay,Alabama,Clay,2021-01-06 05:12:02.913893,2020-11-06 00:00:00.000000,3.24367316,4.43452042,6.27908135,429,586,831,213,298,494,1.61658620,2.25834768,3.73435656,0.31542823,0.47500722,0.62831642
1027,0,USAlabamaClay,Alabama,Clay,2021-01-06 05:12:02.913893,2020-11-07 00:00:00.000000,3.25547630,4.42365525,6.23123820,430,585,824,214,298,495,1.61967357,2.25437240,3.74168868,0.31742189,0.48461367,0.64989460
1027,0,USAlabamaClay,Alabama,Clay,2021-01-06 05:12:02.913893,2020-11-08 00:00:00.000000,3.29453257,4.43462538,6.25409077,436,586,827,212,297,496,1.60765026,2.25082834,3.74833650,0.32437871,0.49159853,0.68076021
1027,0,USAlabamaClay,Alabama,Clay,2021-01-06 05:12:02.913893,2020-11-09 00:00:00.000000,3.27789071,4.44923237,6.29548650,433,588,833,213,295,496,1.61472567,2.23048422,3.75408804,0.34039011,0.50090354,0.72039490
1027,0,USAlabamaClay,Alabama,Clay,2021-01-06 05:12:02.913893,2020-11-10 00:00:00.000000,3.28756808,4.47725237,6.34427692,435,592,839,214,292,497,1.62078924,2.21259052,3.75754636,0.35013132,0.51536939,0.75294767
1027,0,USAlabamaClay,Alabama,Clay,2021-01-06 05:12:02.913893,2020-11-11 00:00:00.000000,3.29998397,4.48780530,6.30354941,436,593,834,215,292,497,1.62969506,2.20757662,3.75866081,0.36268799,0.52239421,0.78420088
1027,0,USAlabamaClay,Alabama,Clay,2021-01-06 05:12:02.913893,2020-11-12 00:00:00.000000,3.31523672,4.48883537,6.33450988,438,594,838,216,294,497,1.63463359,2.22291608,3.75867344,0.37050848,0.53504531,0.84288134
1027,0,USAlabamaClay,Alabama,Clay,2021-01-06 05:12:02.913893,2020-11-13 00:00:00.000000,3.33268730,4.49117486,6.35924322,441,594,841,216,294,497,1.63701474,2.22389515,3.75769017,0.37269542,0.54412924,0.91965781
1027,0,USAlabamaClay,Alabama,Clay,2021-01-06 05:12:02.913893,2020-11-14 00:00:00.000000,3.35170658,4.56043837,6.34925883,443,603,840,217,294,497,1.63959426,2.22463069,3.75571908,0.37372454,0.56071374,0.94177735
1027,0,USAlabamaClay,Alabama,Clay,2021-01-06 05:12:02.913893,2020-11-15 00:00:00.000000,3.35751525,4.60644764,6.36209964,444,609,842,218,297,496,1.64943425,2.25046068,3.75276438,0.37596661,0.57203586,0.94656518
1027,0,USAlabamaClay,Alabama,Clay,2021-01-06 05:12:02.913893,2020-11-16 00:00:00.000000,3.36697889,4.65077839,6.48101237,445,615,857,220,301,496,1.66538422,2.27784617,3.74888026,0.38294145,0.58169283,0.94786783
1027,0,USAlabamaClay,Alabama,Clay,2021-01-06 05:12:02.913893,2020-11-17 00:00:00.000000,3.38291370,4.69218983,6.59744433,447,621,873,221,302,495,1.67182268,2.28895720,3.74451326,0.39544816,0.58835631,0.94925791
1027,0,USAlabamaClay,Alabama,Clay,2021-01-06 05:12:02.913893,2020-11-18 00:00:00.000000,3.40344610,4.75265350,6.71101223,450,629,888,220,304,494,1.66626723,2.29995257,3.73976059,0.40287381,0.59908488,0.94170172
1027,0,USAlabamaClay,Alabama,Clay,2021-01-06 05:12:02.913893,2020-11-19 00:00:00.000000,3.42518944,4.81326322,6.80362580,453,637,900,217,306,494,1.64186060,2.31426285,3.73406506,0.41178287,0.61188540,0.93930145
1027,0,USAlabamaClay,Alabama,Clay,2021-01-06 05:12:02.913893,2020-11-20 00:00:00.000000,3.44663506,4.84444861,6.83977308,456,641,905,217,311,493,1.64217290,2.35038349,3.72604336,0.41539211,0.63027480,0.99016352
1027,0,USAlabamaClay,Alabama,Clay,2021-01-06 05:12:02.913893,2020-11-21 00:00:00.000000,3.44739850,4.90620403,6.87447706,456,649,909,217,314,491,1.64294813,2.37337479,3.71542553,0.41827382,0.65658874,1.03161572
1027,0,USAlabamaClay,Alabama,Clay,2021-01-06 05:12:02.913893,2020-11-22 00:00:00.000000,3.44503175,4.99641857,6.90978314,455,661,914,217,318,500,1.64431349,2.40469241,3.78412260,0.42083734,0.67525524,1.08101181
1027,0,USAlabamaClay,Alabama,Clay,2021-01-06 05:12:02.913893,2020-11-23 00:00:00.000000,3.46136419,5.04959115,6.97067033,458,668,922,217,322,512,1.64371390,2.43554363,3.86896060,0.42284321,0.68069838,1.09055648
1027,0,USAlabamaClay,Alabama,Clay,2021-01-06 05:12:02.913893,2020-11-24 00:00:00.000000,3.48488707,5.10444494,7.10857190,461,675,940,218,326,522,1.64756162,2.46432010,3.94737431,0.42428971,0.68258968,1.10340703
1027,0,USAlabamaClay,Alabama,Clay,2021-01-06 05:12:02.913893,2020-11-25 00:00:00.000000,3.52564155,5.19790940,7.24685126,466,687,959,220,329,528,1.66443115,2.49305454,3.99393283,0.42527369,0.68382886,1.13401815
1027,0,USAlabamaClay,Alabama,Clay,2021-01-06 05:12:02.913893,2020-11-26 00:00:00.000000,3.54024022,5.26889784,7.32220702,468,697,969,221,336,529,1.67689805,2.54272647,3.99870477,0.42592400,0.70455011,1.19626016
1027,0,USAlabamaClay,Alabama,Clay,2021-01-06 05:12:02.913893,2020-11-27 00:00:00.000000,3.55446817,5.36844302,7.37971404,470,710,976,223,340,529,1.69230093,2.57519095,4.00009219,0.42637316,0.73578714,1.24698956
1027,0,USAlabamaClay,Alabama,Clay,2021-01-06 05:12:02.913893,2020-11-28 00:00:00.000000,3.56958425,5.42120363,7.43794224,472,717,984,226,344,529,1.71270265,2.60469706,3.99907736,0.42690116,0.74702606,1.26666991
1027,0,USAlabamaClay,Alabama,Clay,2021-01-06 05:12:02.913893,2020-11-29 00:00:00.000000,3.58919534,5.47620966,7.49442641,475,724,991,229,350,528,1.73407810,2.65177791,3.99611390,0.42976133,0.76239470,1.27243070
1027,0,USAlabamaClay,Alabama,Clay,2021-01-06 05:12:02.913893,2020-11-30 00:00:00.000000,3.63287175,5.57683066,7.54529425,480,738,998,232,357,528,1.75586818,2.70122019,3.99129868,0.44407515,0.78662697,1.27417360
1027,0,USAlabamaClay,Alabama,Clay,2021-01-06 05:12:02.913893,2020-12-01 00:00:00.000000,3.67560805,5.67497558,7.59135841,486,751,1004,234,364,527,1.77431279,2.75113002,3.98666879,0.45396261,0.80476065,1.27537090
1027,0,USAlabamaClay,Alabama,Clay,2021-01-06 05:12:02.913893,2020-12-02 00:00:00.000000,3.71462831,5.75541269,7.63194042,491,761,1010,236,368,526,1.79060401,2.78724312,3.98177375,0.45649466,0.81257826,1.27770136
1027,0,USAlabamaClay,Alabama,Clay,2021-01-06 05:12:02.913893,2020-12-03 00:00:00.000000,3.76475825,5.85254670,7.71758811,498,774,1021,239,374,529,1.80583741,2.82937779,4.00289548,0.45614117,0.80817175,1.29007761
1027,0,USAlabamaClay,Alabama,Clay,2021-01-06 05:12:02.913893,2020-12-04 00:00:00.000000,3.83787023,5.94925933,7.82946185,507,787,1036,241,380,539,1.82141229,2.87658533,4.07797936,0.45584851,0.82626286,1.37781969
1027,0,USAlabamaClay,Alabama,Clay,2021-01-06 05:12:02.913893,2020-12-05 00:00:00.000000,3.87260294,6.06061877,7.91411033,512,802,1047,243,386,550,1.83933804,2.92347728,4.15903682,0.46101780,0.83959744,1.47624854
1027,0,USAlabamaClay,Alabama,Clay,2021-01-06 05:12:02.913893,2020-12-06 00:00:00.000000,3.90178384,6.14992439,8.00777001,516,813,1059,246,392,560,1.86195164,2.96626425,4.23690644,0.47703027,0.84486056,1.59516117
1027,0,USAlabamaClay,Alabama,Clay,2021-01-06 05:12:02.913893,2020-12-07 00:00:00.000000,3.90201884,6.19525546,8.09778021,516,819,1071,250,397,570,1.89055882,3.00201368,4.31061510,0.48204918,0.85079199,1.64343505
1027,0,USAlabamaClay,Alabama,Clay,2021-01-06 05:12:02.913893,2020-12-08 00:00:00.000000,3.90472153,6.23867976,8.17796246,516,825,1082,254,399,580,1.92276459,3.02056708,4.38301575,0.48238596,0.85105656,1.66334771
1027,0,USAlabamaClay,Alabama,Clay,2021-01-06 05:12:02.913893,2020-12-09 00:00:00.000000,3.91173544,6.31310087,8.24811015,517,835,1091,259,401,589,1.95796149,3.03663275,4.45234218,0.47700007,0.84855376,1.68180513
1027,0,USAlabamaClay,Alabama,Clay,2021-01-06 05:12:02.913893,2020-12-10 00:00:00.000000,3.92197787,6.35562865,8.30791907,519,841,1099,264,405,597,1.99540225,3.06525909,4.51731714,0.43603802,0.85256698,1.72478696
1027,0,USAlabamaClay,Alabama,Clay,2021-01-06 05:12:02.913893,2020-12-11 00:00:00.000000,3.93380337,6.44430659,8.35713936,520,852,1106,269,412,605,2.03535576,3.11400498,4.57699811,0.44723623,0.86417553,1.75424646
1027,0,USAlabamaClay,Alabama,Clay,2021-01-06 05:12:02.913893,2020-12-12 00:00:00.000000,3.94593372,6.48350666,8.39557759,522,858,1111,271,416,612,2.05096146,3.14322408,4.63067792,0.44358755,0.87093451,1.78077318
1027,0,USAlabamaClay,Alabama,Clay,2021-01-06 05:12:02.913893,2020-12-13 00:00:00.000000,3.95763610,6.52372080,8.42309810,523,863,1114,272,418,619,2.05826302,3.16238667,4.67782086,0.44524744,0.85772259,1.81770263
1027,0,USAlabamaClay,Alabama,Clay,2021-01-06 05:12:02.913893,2020-12-14 00:00:00.000000,4.01289732,6.52303264,8.42873475,531,863,1115,273,421,624,2.06542931,3.18283727,4.71802169,0.44652693,0.84511627,1.85997306
1027,0,USAlabamaClay,Alabama,Clay,2021-01-06 05:12:02.913893,2020-12-15 00:00:00.000000,4.06785497,6.53804784,8.42335877,538,865,1114,275,421,628,2.07969695,3.18195298,4.75058812,0.44842528,0.82987033,1.88972518
1027,0,USAlabamaClay,Alabama,Clay,2021-01-06 05:12:02.913893,2020-12-16 00:00:00.000000,4.12476796,6.61577593,8.40785064,545,875,1112,277,424,638,2.09874892,3.20933537,4.82284707,0.45237386,0.83264952,2.06069900
1027,0,USAlabamaClay,Alabama,Clay,2021-01-06 05:12:02.913893,2020-12-17 00:00:00.000000,4.18511316,6.58498571,8.48039911,553,871,1122,280,428,647,2.12124898,3.23661992,4.88872907,0.45924469,0.85061077,2.13594188
1027,0,USAlabamaClay,Alabama,Clay,2021-01-06 05:12:02.913893,2020-12-18 00:00:00.000000,4.24904533,6.57145461,8.43407004,562,869,1116,284,430,654,2.14661904,3.25509252,4.94827343,0.46667630,0.84548280,2.23944725
1027,0,USAlabamaClay,Alabama,Clay,2021-01-06 05:12:02.913893,2020-12-19 00:00:00.000000,4.31479577,6.62013823,8.47516320,571,876,1121,287,430,653,2.17454084,3.25027187,4.93396846,0.47140487,0.84674345,2.41110900
1027,0,USAlabamaClay,Alabama,Clay,2021-01-06 05:12:02.913893,2020-12-20 00:00:00.000000,4.38063199,6.65222889,8.50576622,579,880,1125,291,428,663,2.20066995,3.23900941,5.01690565,0.47347531,0.84032611,2.44564571
1027,0,USAlabamaClay,Alabama,Clay,2021-01-06 05:12:02.913893,2020-12-21 00:00:00.000000,4.40639502,6.64393871,8.50758903,583,879,1125,294,426,674,2.22415153,3.22187307,5.09524319,0.47422317,0.84681059,2.44419712
1027,0,USAlabamaClay,Alabama,Clay,2021-01-06 05:12:02.913893,2020-12-22 00:00:00.000000,4.43082502,6.61886935,8.49639219,586,876,1124,296,424,679,2.24318487,3.20520970,5.13286685,0.45393448,0.83441958,2.44342745
1027,0,USAlabamaClay,Alabama,Clay,2021-01-06 05:12:02.913893,2020-12-23 00:00:00.000000,4.45274057,6.61861896,8.47352703,589,875,1121,298,423,680,2.25884796,3.20193242,5.14309093,0.45135478,0.85275454,2.44322990
1027,0,USAlabamaClay,Alabama,Clay,2021-01-06 05:12:02.913893,2020-12-24 00:00:00.000000,4.45615897,6.60245461,8.37808068,589,873,1108,300,423,673,2.27189356,3.20060316,5.09209902,0.46232989,0.84689585,2.44412998
1027,0,USAlabamaClay,Alabama,Clay,2021-01-06 05:12:02.913893,2020-12-25 00:00:00.000000,4.36038544,6.56123286,8.39312950,577,868,1110,298,422,666,2.25437843,3.18903533,5.03542998,0.46533400,0.86008075,2.47928230
1027,0,USAlabamaClay,Alabama,Clay,2021-01-06 05:12:02.913893,2020-12-26 00:00:00.000000,4.36152669,6.53449016,8.39047695,577,864,1110,292,420,658,2.20890310,3.17701015,4.97331625,0.47237146,0.85112130,2.65136730
1027,0,USAlabamaClay,Alabama,Clay,2021-01-06 05:12:02.913893,2020-12-27 00:00:00.000000,4.37833118,6.45714016,8.39269779,579,854,1110,286,419,649,2.16225814,3.16888852,4.90602913,0.48251475,0.85942123,2.77381127
1027,0,USAlabamaClay,Alabama,Clay,2021-01-06 05:12:02.913893,2020-12-28 00:00:00.000000,4.36051450,6.28604643,8.36823908,577,831,1107,279,418,641,2.11468394,3.15926482,4.85065854,0.48926971,0.86836721,2.77957254
1027,0,USAlabamaClay,Alabama,Clay,2021-01-06 05:12:02.913893,2020-12-29 00:00:00.000000,4.23661236,6.12964600,8.33008985,560,811,1102,277,418,642,2.09420244,3.16117437,4.85786831,0.49185475,0.88017078,2.77953335
1027,0,USAlabamaClay,Alabama,Clay,2021-01-06 05:12:02.913893,2020-12-30 00:00:00.000000,4.11222794,6.04602355,8.21407353,544,800,1087,276,417,641,2.08927276,3.15278384,4.85044795,0.49251003,0.89089235,2.77691513
1027,0,USAlabamaClay,Alabama,Clay,2021-01-06 05:12:02.913893,2020-12-31 00:00:00.000000,3.98778956,5.95032127,8.08867462,527,787,1070,276,411,639,2.08649186,3.10654766,4.82941441,0.48179250,0.90036020,2.84478294
1027,0,USAlabamaClay,Alabama,Clay,2021-01-06 05:12:02.913893,2021-01-01 00:00:00.000000,3.86359413,5.89329983,7.97117778,511,779,1054,276,408,634,2.08751757,3.08462238,4.79630728,0.48941870,0.90497604,2.85661649
1027,0,USAlabamaClay,Alabama,Clay,2021-01-06 05:12:02.913893,2021-01-02 00:00:00.000000,3.74112626,5.76389912,7.84345218,495,762,1038,271,408,629,2.05132276,3.08275664,4.75269416,0.47043205,0.90944167,2.80294522
1027,0,USAlabamaClay,Alabama,Clay,2021-01-06 05:12:02.913893,2021-01-03 00:00:00.000000,3.62143561,5.65036932,7.70753042,479,747,1020,265,404,622,2.00744624,3.05616418,4.70004470,0.45255316,0.89931036,2.77428273
1027,0,USAlabamaClay,Alabama,Clay,2021-01-06 05:12:02.913893,2021-01-04 00:00:00.000000,3.50292522,5.48097307,7.56557371,463,725,1001,259,398,614,1.96432813,3.00780375,4.63970862,0.42757328,0.87026907,2.79812220
1027,0,USAlabamaClay,Alabama,Clay,2021-01-06 05:12:02.913893,2021-01-05 00:00:00.000000,3.38583948,5.29096603,7.54463919,448,700,998,254,391,605,1.92067638,2.95787724,4.57293159,0.42252851,0.85167978,2.89091332
1027,0,USAlabamaClay,Alabama,Clay,2021-01-06 05:12:02.913893,2021-01-06 00:00:00.000000,3.35971472,5.14032027,7.42360617,444,680,982,248,383,595,1.87664341,2.90088722,4.50079321,0.42162810,0.84730176,3.00918389
1027,0,USAlabamaClay,Alabama,Clay,2021-01-06 05:12:02.913893,2021-01-07 00:00:00.000000,3.33506556,5.03677249,7.37375148,441,666,975,242,377,585,1.83236199,2.85236647,4.42419566,0.42145981,0.84597393,3.06153657
1027,0,USAlabamaClay,Alabama,Clay,2021-01-06 05:12:02.913893,2021-01-08 00:00:00.000000,3.30917765,4.91543390,7.25607794,437,650,960,236,370,583,1.78794946,2.79880362,4.40770510,0.42142450,0.84521916,3.08014731
1027,0,USAlabamaClay,Alabama,Clay,2021-01-06 05:12:02.913893,2021-01-09 00:00:00.000000,3.28212073,4.84590189,7.09242511,434,641,938,230,360,570,1.74351076,2.72758595,4.30776284,0.42141555,0.84482203,3.08627114
1027,0,USAlabamaClay,Alabama,Clay,2021-01-06 05:12:02.913893,2021-01-10 00:00:00.000000,3.12454074,4.72300802,6.92199750,413,625,916,224,350,556,1.69856536,2.64702714,4.20606073,0.41594923,0.84465544,3.08825207
1027,0,USAlabamaClay,Alabama,Clay,2021-01-06 05:12:02.913893,2021-01-11 00:00:00.000000,2.95252498,4.57734066,6.74578535,390,605,892,217,339,543,1.64451942,2.56831497,4.10307607,0.41450258,0.84458575,3.08889774
1027,0,USAlabamaClay,Alabama,Clay,2021-01-06 05:12:02.913893,2021-01-12 00:00:00.000000,2.78778594,4.43664020,6.56475803,368,587,868,210,333,530,1.58864725,2.52237978,4.00837921,0.41421984,0.84455663,3.08911272
1027,0,USAlabamaClay,Alabama,Clay,2021-01-06 05:12:02.913893,2021-01-13 00:00:00.000000,2.63054387,4.30354285,6.37985588,348,569,844,202,322,518,1.53264261,2.44020110,3.91977714,0.41416477,0.84454447,3.08918668
1027,0,USAlabamaClay,Alabama,Clay,2021-01-06 05:12:02.913893,2021-01-14 00:00:00.000000,2.48068025,4.22310950,6.27657916,328,558,830,193,310,506,1.45848327,2.34235015,3.82830862,0.41415398,0.84453940,3.08921325
1027,0,USAlabamaClay,Alabama,Clay,2021-01-06 05:12:02.913893,2021-01-15 00:00:00.000000,2.33185126,4.07963403,6.20116482,308,539,820,185,303,494,1.40172372,2.29621447,3.73524354,0.41415183,0.84453728,3.08922332
1027,0,USAlabamaClay,Alabama,Clay,2021-01-06 05:12:02.913893,2021-01-16 00:00:00.000000,2.20292351,3.94837843,6.12249222,291,522,810,178,298,481,1.34644188,2.25297286,3.64167208,0.41415137,0.84453639,3.08922735
1027,0,USAlabamaClay,Alabama,Clay,2021-01-06 05:12:02.913893,2021-01-17 00:00:00.000000,2.07391562,3.81954842,6.04074284,274,505,799,171,288,469,1.29266963,2.18039917,3.54784639,0.41415125,0.84453602,3.08922906
