FIPS,HR_UID,nameid,province,region,analysisTime,dates,pointprevalence_025,pointprevalence_50,pointprevalence_975,pointinfections_025,pointinfections_50,pointinfections_975,pointinfectious_025,pointinfectious_50,pointinfectious_975,pointinfectiousprevalence_05,pointinfectiousprevalence_50,pointinfectiousprevalence_95,infectrate_025,infectrate_50,infectrate_975
20005,0,USKansasAtchison,Kansas,Atchison,2021-01-05 23:12:50.012454,2020-03-09 00:00:00.000000,0.01311481,0.03197757,0.10418579,2,5,16,1,2,6,0.00741565,0.01638722,0.04353947,0.33870129,0.47796057,0.67182776
20005,0,USKansasAtchison,Kansas,Atchison,2021-01-05 23:12:50.012454,2020-03-10 00:00:00.000000,0.01213825,0.03349993,0.10856474,1,5,17,0,2,6,0.00609708,0.01517821,0.04155654,0.33870129,0.47793677,0.67176235
20005,0,USKansasAtchison,Kansas,Atchison,2021-01-05 23:12:50.012454,2020-03-11 00:00:00.000000,0.01212289,0.03339008,0.11280777,1,5,18,0,2,6,0.00566257,0.01460596,0.04108236,0.33870129,0.47788575,0.67161930
20005,0,USKansasAtchison,Kansas,Atchison,2021-01-05 23:12:50.012454,2020-03-12 00:00:00.000000,0.01243650,0.03609779,0.11690035,1,5,18,0,2,6,0.00526191,0.01450365,0.04168503,0.33870127,0.47777641,0.67130128
20005,0,USKansasAtchison,Kansas,Atchison,2021-01-05 23:12:50.012454,2020-03-13 00:00:00.000000,0.01271238,0.03775023,0.12085035,2,6,19,0,2,6,0.00505676,0.01483285,0.04286067,0.33870122,0.47754260,0.67058566
20005,0,USKansasAtchison,Kansas,Atchison,2021-01-05 23:12:50.012454,2020-03-14 00:00:00.000000,0.01284295,0.03952716,0.12466855,2,6,20,0,2,7,0.00496521,0.01539747,0.04415562,0.33870105,0.47704455,0.66896428
20005,0,USKansasAtchison,Kansas,Atchison,2021-01-05 23:12:50.012454,2020-03-15 00:00:00.000000,0.01299680,0.04099974,0.12835156,2,6,20,0,2,7,0.00493936,0.01599158,0.04549868,0.33870027,0.47599242,0.66526351
20005,0,USKansasAtchison,Kansas,Atchison,2021-01-05 23:12:50.012454,2020-03-16 00:00:00.000000,0.01699316,0.05069454,0.15480959,2,8,24,0,2,7,0.00495128,0.01695495,0.04684931,0.33869501,0.46886523,0.65704736
20005,0,USKansasAtchison,Kansas,Atchison,2021-01-05 23:12:50.012454,2020-03-17 00:00:00.000000,0.02156645,0.06307505,0.18098510,3,10,29,0,3,8,0.00561358,0.01887352,0.05184133,0.33864013,0.45608050,0.64022453
20005,0,USKansasAtchison,Kansas,Atchison,2021-01-05 23:12:50.012454,2020-03-18 00:00:00.000000,0.02560459,0.07523397,0.20764532,4,12,33,1,3,9,0.00667877,0.02270665,0.05902289,0.33664048,0.44770552,0.61548537
20005,0,USKansasAtchison,Kansas,Atchison,2021-01-05 23:12:50.012454,2020-03-19 00:00:00.000000,0.02903569,0.08552952,0.23409737,4,13,37,1,4,10,0.00891864,0.02713134,0.06749424,0.32369418,0.44466083,0.59204580
20005,0,USKansasAtchison,Kansas,Atchison,2021-01-05 23:12:50.012454,2020-03-20 00:00:00.000000,0.03148107,0.09697038,0.25961115,5,15,41,1,5,12,0.00986482,0.03134323,0.07673442,0.28772932,0.40986543,0.57564356
20005,0,USKansasAtchison,Kansas,Atchison,2021-01-05 23:12:50.012454,2020-03-21 00:00:00.000000,0.03359109,0.10835980,0.28370484,5,17,45,1,5,13,0.01079833,0.03502545,0.08659692,0.24877287,0.38709862,0.55949841
20005,0,USKansasAtchison,Kansas,Atchison,2021-01-05 23:12:50.012454,2020-03-22 00:00:00.000000,0.03545584,0.11751274,0.30632882,5,18,49,1,6,15,0.01175972,0.03880262,0.09638455,0.23726194,0.35783339,0.53345286
20005,0,USKansasAtchison,Kansas,Atchison,2021-01-05 23:12:50.012454,2020-03-23 00:00:00.000000,0.04088172,0.13015507,0.31773756,6,20,51,2,6,17,0.01261937,0.04287242,0.10588760,0.23398551,0.33357686,0.51636008
20005,0,USKansasAtchison,Kansas,Atchison,2021-01-05 23:12:50.012454,2020-03-24 00:00:00.000000,0.04611234,0.14071846,0.32816561,7,22,52,2,7,18,0.01378823,0.04883248,0.11302624,0.23093719,0.31564760,0.50579014
20005,0,USKansasAtchison,Kansas,Atchison,2021-01-05 23:12:50.012454,2020-03-25 00:00:00.000000,0.05060432,0.15077829,0.33753353,8,24,54,2,8,19,0.01543088,0.05489411,0.11859114,0.22408923,0.30338797,0.49527214
20005,0,USKansasAtchison,Kansas,Atchison,2021-01-05 23:12:50.012454,2020-03-26 00:00:00.000000,0.05288805,0.16017430,0.36349944,8,25,58,2,9,20,0.01720244,0.06093679,0.12940861,0.20939859,0.29408058,0.46557642
20005,0,USKansasAtchison,Kansas,Atchison,2021-01-05 23:12:50.012454,2020-03-27 00:00:00.000000,0.05476583,0.17201897,0.39906433,8,27,64,3,10,23,0.01899477,0.06474375,0.14422375,0.19163638,0.28120638,0.42998542
20005,0,USKansasAtchison,Kansas,Atchison,2021-01-05 23:12:50.012454,2020-03-28 00:00:00.000000,0.05634952,0.18249960,0.41468892,9,29,66,3,11,24,0.02067927,0.06865987,0.14932171,0.17580832,0.26305764,0.40097008
20005,0,USKansasAtchison,Kansas,Atchison,2021-01-05 23:12:50.012454,2020-03-29 00:00:00.000000,0.05769654,0.19054388,0.42218564,9,30,67,3,11,24,0.02143186,0.07325107,0.15396807,0.16685830,0.25186216,0.38941329
20005,0,USKansasAtchison,Kansas,Atchison,2021-01-05 23:12:50.012454,2020-03-30 00:00:00.000000,0.06136421,0.19454779,0.42294228,9,31,67,3,12,25,0.02207506,0.07674399,0.15803483,0.15701010,0.23539920,0.38642997
20005,0,USKansasAtchison,Kansas,Atchison,2021-01-05 23:12:50.012454,2020-03-31 00:00:00.000000,0.06487781,0.19768042,0.42253822,10,31,67,3,12,25,0.02311627,0.07924354,0.16039515,0.15333463,0.22852119,0.38396079
20005,0,USKansasAtchison,Kansas,Atchison,2021-01-05 23:12:50.012454,2020-04-01 00:00:00.000000,0.06828562,0.20483614,0.42091255,10,32,67,3,13,25,0.02434767,0.08282013,0.16153112,0.14958611,0.22546025,0.38268552
20005,0,USKansasAtchison,Kansas,Atchison,2021-01-05 23:12:50.012454,2020-04-02 00:00:00.000000,0.07076246,0.21034054,0.41723531,11,33,67,4,13,26,0.02564130,0.08506682,0.16191142,0.13851652,0.22132351,0.38174756
20005,0,USKansasAtchison,Kansas,Atchison,2021-01-05 23:12:50.012454,2020-04-03 00:00:00.000000,0.07243180,0.21982454,0.41215516,11,35,66,4,14,25,0.02691634,0.08780717,0.16152888,0.13003221,0.21515673,0.38011414
20005,0,USKansasAtchison,Kansas,Atchison,2021-01-05 23:12:50.012454,2020-04-04 00:00:00.000000,0.07385712,0.22748717,0.40669289,11,36,65,4,14,25,0.02812175,0.08993822,0.16047424,0.12474899,0.19838914,0.37522816
20005,0,USKansasAtchison,Kansas,Atchison,2021-01-05 23:12:50.012454,2020-04-05 00:00:00.000000,0.07505553,0.22911808,0.40114090,12,36,64,4,14,25,0.02871679,0.09318608,0.15896597,0.12075817,0.19146556,0.36452291
20005,0,USKansasAtchison,Kansas,Atchison,2021-01-05 23:12:50.012454,2020-04-06 00:00:00.000000,0.07297995,0.23748845,0.40175684,11,38,64,4,15,25,0.02909205,0.09706220,0.15718346,0.11722420,0.18279095,0.35973577
20005,0,USKansasAtchison,Kansas,Atchison,2021-01-05 23:12:50.012454,2020-04-07 00:00:00.000000,0.07072036,0.24249520,0.40246340,11,38,64,4,16,25,0.02877892,0.10153086,0.15622195,0.11403334,0.17700710,0.34914293
20005,0,USKansasAtchison,Kansas,Atchison,2021-01-05 23:12:50.012454,2020-04-08 00:00:00.000000,0.06824664,0.24279770,0.39974442,10,39,64,4,16,25,0.02804791,0.10416108,0.15739773,0.11112759,0.17678657,0.32833456
20005,0,USKansasAtchison,Kansas,Atchison,2021-01-05 23:12:50.012454,2020-04-09 00:00:00.000000,0.06526987,0.24401235,0.38724897,10,39,62,4,17,25,0.02707552,0.10624923,0.15755439,0.10850658,0.17634441,0.29638389
20005,0,USKansasAtchison,Kansas,Atchison,2021-01-05 23:12:50.012454,2020-04-10 00:00:00.000000,0.06198269,0.24031204,0.37979760,9,38,61,4,16,25,0.02598047,0.10571361,0.16017676,0.10610440,0.17576107,0.29268739
20005,0,USKansasAtchison,Kansas,Atchison,2021-01-05 23:12:50.012454,2020-04-11 00:00:00.000000,0.05928894,0.24475708,0.39037436,9,39,62,3,16,26,0.02483523,0.10525846,0.16477863,0.10329928,0.17450981,0.29197192
20005,0,USKansasAtchison,Kansas,Atchison,2021-01-05 23:12:50.012454,2020-04-12 00:00:00.000000,0.05718823,0.24986186,0.39913012,9,40,64,3,17,27,0.02368584,0.10616736,0.17007092,0.09954580,0.17253621,0.29305029
20005,0,USKansasAtchison,Kansas,Atchison,2021-01-05 23:12:50.012454,2020-04-13 00:00:00.000000,0.05989411,0.25655235,0.40430235,9,41,64,3,17,27,0.02322438,0.10870128,0.16808667,0.09720870,0.17002891,0.29386625
20005,0,USKansasAtchison,Kansas,Atchison,2021-01-05 23:12:50.012454,2020-04-14 00:00:00.000000,0.06431605,0.26136366,0.40891241,10,42,65,3,17,27,0.02325572,0.11059481,0.17260804,0.09630515,0.16613352,0.29382817
20005,0,USKansasAtchison,Kansas,Atchison,2021-01-05 23:12:50.012454,2020-04-15 00:00:00.000000,0.06976365,0.26514965,0.41252617,11,42,66,3,18,28,0.02469693,0.11277428,0.17786405,0.09617625,0.16223536,0.29354937
20005,0,USKansasAtchison,Kansas,Atchison,2021-01-05 23:12:50.012454,2020-04-16 00:00:00.000000,0.07511532,0.26696482,0.41540002,12,42,66,4,18,29,0.02650671,0.11236567,0.18157812,0.09691646,0.15662319,0.29229855
20005,0,USKansasAtchison,Kansas,Atchison,2021-01-05 23:12:50.012454,2020-04-17 00:00:00.000000,0.08023249,0.26927437,0.41731925,12,43,67,4,18,29,0.02847492,0.11237592,0.18426355,0.09857318,0.15478469,0.28401896
20005,0,USKansasAtchison,Kansas,Atchison,2021-01-05 23:12:50.012454,2020-04-18 00:00:00.000000,0.08505447,0.27267665,0.41678357,13,43,66,4,18,29,0.03047489,0.11471255,0.18603032,0.10057797,0.15232074,0.25878129
20005,0,USKansasAtchison,Kansas,Atchison,2021-01-05 23:12:50.012454,2020-04-19 00:00:00.000000,0.08957051,0.26939334,0.41246026,14,43,66,5,18,29,0.03243420,0.11475010,0.18628349,0.10156560,0.15028697,0.24997836
20005,0,USKansasAtchison,Kansas,Atchison,2021-01-05 23:12:50.012454,2020-04-20 00:00:00.000000,0.09425764,0.26574358,0.41347691,15,42,66,5,18,29,0.03431570,0.11579857,0.18631604,0.09973509,0.15127966,0.23351825
20005,0,USKansasAtchison,Kansas,Atchison,2021-01-05 23:12:50.012454,2020-04-21 00:00:00.000000,0.09868602,0.26127084,0.41594843,15,41,66,5,18,30,0.03619229,0.11603836,0.18704742,0.09879703,0.15026939,0.22081846
20005,0,USKansasAtchison,Kansas,Atchison,2021-01-05 23:12:50.012454,2020-04-22 00:00:00.000000,0.10288774,0.25661208,0.41266839,16,41,66,6,18,30,0.03802337,0.11675924,0.18728698,0.10300178,0.14986713,0.21658379
20005,0,USKansasAtchison,Kansas,Atchison,2021-01-05 23:12:50.012454,2020-04-23 00:00:00.000000,0.10686229,0.25176727,0.40869175,17,40,65,6,18,30,0.03978838,0.11750979,0.18757252,0.10314007,0.14760532,0.21937561
20005,0,USKansasAtchison,Kansas,Atchison,2021-01-05 23:12:50.012454,2020-04-24 00:00:00.000000,0.11061362,0.24676202,0.40961237,17,39,65,6,18,30,0.04147711,0.11674878,0.18785272,0.10671201,0.14927488,0.21856113
20005,0,USKansasAtchison,Kansas,Atchison,2021-01-05 23:12:50.012454,2020-04-25 00:00:00.000000,0.11415451,0.24162947,0.40959094,18,38,65,6,18,30,0.04243211,0.11407607,0.18812276,0.11453273,0.14768211,0.21070691
20005,0,USKansasAtchison,Kansas,Atchison,2021-01-05 23:12:50.012454,2020-04-26 00:00:00.000000,0.11750496,0.24140116,0.41211522,18,38,66,6,17,30,0.04299362,0.11054461,0.18836852,0.11606766,0.14729407,0.19828702
20005,0,USKansasAtchison,Kansas,Atchison,2021-01-05 23:12:50.012454,2020-04-27 00:00:00.000000,0.11529682,0.24380216,0.41007842,18,39,65,7,17,30,0.04359869,0.10881301,0.18858382,0.11603201,0.14874302,0.19837380
20005,0,USKansasAtchison,Kansas,Atchison,2021-01-05 23:12:50.012454,2020-04-28 00:00:00.000000,0.11286246,0.24609127,0.40500713,18,39,65,7,17,30,0.04398402,0.10692700,0.18767444,0.11605629,0.14869213,0.19843421
20005,0,USKansasAtchison,Kansas,Atchison,2021-01-05 23:12:50.012454,2020-04-29 00:00:00.000000,0.11007429,0.24511941,0.40582027,17,39,65,7,16,30,0.04427184,0.10503709,0.18734161,0.11613261,0.14678428,0.20378092
20005,0,USKansasAtchison,Kansas,Atchison,2021-01-05 23:12:50.012454,2020-04-30 00:00:00.000000,0.10716325,0.24434066,0.40343116,17,39,64,7,16,30,0.04449138,0.10430980,0.18932610,0.11928554,0.14606818,0.20794079
20005,0,USKansasAtchison,Kansas,Atchison,2021-01-05 23:12:50.012454,2020-05-01 00:00:00.000000,0.10428903,0.24441987,0.40059153,16,39,64,7,16,29,0.04451461,0.10440397,0.18641840,0.12368578,0.14929945,0.20484303
20005,0,USKansasAtchison,Kansas,Atchison,2021-01-05 23:12:50.012454,2020-05-02 00:00:00.000000,0.10154018,0.24367066,0.40182118,16,39,64,6,16,29,0.04351388,0.10400685,0.18290485,0.12347701,0.15075998,0.20608677
20005,0,USKansasAtchison,Kansas,Atchison,2021-01-05 23:12:50.012454,2020-05-03 00:00:00.000000,0.09896076,0.24840436,0.39675195,15,39,63,6,16,29,0.04248531,0.10349942,0.18361772,0.12356663,0.15525465,0.20662496
20005,0,USKansasAtchison,Kansas,Atchison,2021-01-05 23:12:50.012454,2020-05-04 00:00:00.000000,0.10018403,0.24525955,0.39118720,16,39,62,6,16,30,0.04147255,0.10342642,0.18954580,0.12019280,0.15581286,0.20684504
20005,0,USKansasAtchison,Kansas,Atchison,2021-01-05 23:12:50.012454,2020-05-05 00:00:00.000000,0.10862884,0.24427287,0.38582612,17,39,62,6,16,30,0.04118556,0.10394685,0.18741073,0.11485904,0.15617350,0.20693207
20005,0,USKansasAtchison,Kansas,Atchison,2021-01-05 23:12:50.012454,2020-05-06 00:00:00.000000,0.11486798,0.24518898,0.37979042,18,39,61,6,16,29,0.04133856,0.10387726,0.18460699,0.11451181,0.15807664,0.20696708
20005,0,USKansasAtchison,Kansas,Atchison,2021-01-05 23:12:50.012454,2020-05-07 00:00:00.000000,0.11443714,0.24407088,0.37490850,18,39,60,6,16,29,0.04175738,0.10332196,0.18196200,0.11213240,0.15999399,0.20698556
20005,0,USKansasAtchison,Kansas,Atchison,2021-01-05 23:12:50.012454,2020-05-08 00:00:00.000000,0.11218252,0.23656329,0.36949556,18,38,59,7,16,28,0.04415435,0.10186853,0.17858822,0.10453571,0.15748473,0.20700651
20005,0,USKansasAtchison,Kansas,Atchison,2021-01-05 23:12:50.012454,2020-05-09 00:00:00.000000,0.10995795,0.22884922,0.36773189,17,36,59,7,16,27,0.04613073,0.10011313,0.17265787,0.10037350,0.15471803,0.20704556
20005,0,USKansasAtchison,Kansas,Atchison,2021-01-05 23:12:50.012454,2020-05-10 00:00:00.000000,0.10931668,0.21683668,0.36389286,17,34,58,7,15,27,0.04870237,0.09866348,0.17319679,0.10026527,0.15119017,0.20706061
20005,0,USKansasAtchison,Kansas,Atchison,2021-01-05 23:12:50.012454,2020-05-11 00:00:00.000000,0.11760773,0.21740589,0.36979434,18,34,59,8,15,27,0.05061952,0.09830011,0.17307255,0.10026328,0.14821191,0.20596771
20005,0,USKansasAtchison,Kansas,Atchison,2021-01-05 23:12:50.012454,2020-05-12 00:00:00.000000,0.12737914,0.22650175,0.37235213,20,36,59,8,15,27,0.05153533,0.09760729,0.17287512,0.10092502,0.14220975,0.19837348
20005,0,USKansasAtchison,Kansas,Atchison,2021-01-05 23:12:50.012454,2020-05-13 00:00:00.000000,0.13738136,0.23403769,0.37289893,22,37,59,8,15,27,0.05287777,0.09839300,0.17380253,0.10028647,0.13994993,0.20284857
20005,0,USKansasAtchison,Kansas,Atchison,2021-01-05 23:12:50.012454,2020-05-14 00:00:00.000000,0.14177594,0.23903052,0.38447836,22,38,61,8,15,28,0.05367674,0.09924880,0.17545223,0.09948308,0.13821926,0.20489865
20005,0,USKansasAtchison,Kansas,Atchison,2021-01-05 23:12:50.012454,2020-05-15 00:00:00.000000,0.14078149,0.24729304,0.39483405,22,39,63,8,16,28,0.05371286,0.10004160,0.17629677,0.09944910,0.13719685,0.20567029
20005,0,USKansasAtchison,Kansas,Atchison,2021-01-05 23:12:50.012454,2020-05-16 00:00:00.000000,0.13964084,0.25170100,0.40370734,22,40,64,8,16,28,0.05356983,0.10037614,0.17540085,0.09639775,0.13605401,0.20510302
20005,0,USKansasAtchison,Kansas,Atchison,2021-01-05 23:12:50.012454,2020-05-17 00:00:00.000000,0.13429952,0.25359469,0.41333191,21,40,66,8,16,28,0.05330696,0.10427412,0.17837555,0.09346495,0.13633599,0.20363681
20005,0,USKansasAtchison,Kansas,Atchison,2021-01-05 23:12:50.012454,2020-05-18 00:00:00.000000,0.13300345,0.25423425,0.41513517,21,40,66,8,16,29,0.05296053,0.10557329,0.18543034,0.09231334,0.13805808,0.20148481
20005,0,USKansasAtchison,Kansas,Atchison,2021-01-05 23:12:50.012454,2020-05-19 00:00:00.000000,0.13109182,0.25084376,0.41604858,21,40,66,8,16,30,0.05307229,0.10572235,0.18877868,0.09285572,0.13660380,0.19877784
20005,0,USKansasAtchison,Kansas,Atchison,2021-01-05 23:12:50.012454,2020-05-20 00:00:00.000000,0.12978803,0.25115426,0.41474401,20,40,66,8,16,29,0.05488971,0.10529964,0.18567908,0.09481670,0.13889749,0.19767580
20005,0,USKansasAtchison,Kansas,Atchison,2021-01-05 23:12:50.012454,2020-05-21 00:00:00.000000,0.12856726,0.25145807,0.41292091,20,40,66,8,16,29,0.05533310,0.10525746,0.18206939,0.09854763,0.14074027,0.19088000
20005,0,USKansasAtchison,Kansas,Atchison,2021-01-05 23:12:50.012454,2020-05-22 00:00:00.000000,0.12755230,0.24726945,0.41133713,20,39,66,8,16,29,0.05316031,0.10464728,0.18219903,0.10731484,0.14157814,0.18991647
20005,0,USKansasAtchison,Kansas,Atchison,2021-01-05 23:12:50.012454,2020-05-23 00:00:00.000000,0.12676565,0.24457815,0.41027476,20,39,65,8,16,29,0.05164916,0.10233587,0.18202203,0.11036323,0.14415280,0.19294082
20005,0,USKansasAtchison,Kansas,Atchison,2021-01-05 23:12:50.012454,2020-05-24 00:00:00.000000,0.12603122,0.24263149,0.40960953,20,38,65,8,16,29,0.05240162,0.10089057,0.18173768,0.11267439,0.14779952,0.19589416
20005,0,USKansasAtchison,Kansas,Atchison,2021-01-05 23:12:50.012454,2020-05-25 00:00:00.000000,0.12373538,0.23745897,0.40552190,19,38,65,8,16,29,0.05117112,0.10309489,0.18144546,0.11429931,0.15247650,0.19723904
20005,0,USKansasAtchison,Kansas,Atchison,2021-01-05 23:12:50.012454,2020-05-26 00:00:00.000000,0.12294014,0.23243364,0.40151214,19,37,64,8,16,29,0.04983598,0.10178111,0.18053712,0.11343374,0.15905111,0.19643741
20005,0,USKansasAtchison,Kansas,Atchison,2021-01-05 23:12:50.012454,2020-05-27 00:00:00.000000,0.12440364,0.22752950,0.39746902,19,36,63,7,16,28,0.04874028,0.10006055,0.17924694,0.11310916,0.16331290,0.19586717
20005,0,USKansasAtchison,Kansas,Atchison,2021-01-05 23:12:50.012454,2020-05-28 00:00:00.000000,0.12226216,0.22436444,0.39344784,19,36,63,7,15,28,0.04781319,0.09803118,0.17772621,0.11521459,0.16518483,0.19814303
20005,0,USKansasAtchison,Kansas,Atchison,2021-01-05 23:12:50.012454,2020-05-29 00:00:00.000000,0.12179053,0.21776945,0.38948869,19,35,62,7,15,28,0.04725235,0.09528978,0.17607436,0.11733543,0.16680954,0.20016640
20005,0,USKansasAtchison,Kansas,Atchison,2021-01-05 23:12:50.012454,2020-05-30 00:00:00.000000,0.11894398,0.21223434,0.38562133,19,34,61,7,15,28,0.04809801,0.09332695,0.17435729,0.11610622,0.16915380,0.20587393
20005,0,USKansasAtchison,Kansas,Atchison,2021-01-05 23:12:50.012454,2020-05-31 00:00:00.000000,0.11585277,0.20488038,0.38187029,18,32,61,7,14,27,0.04802827,0.09106441,0.17261893,0.11345063,0.17219043,0.22594546
20005,0,USKansasAtchison,Kansas,Atchison,2021-01-05 23:12:50.012454,2020-06-01 00:00:00.000000,0.12488251,0.20392447,0.37361359,20,32,60,7,14,27,0.04695606,0.08865267,0.17088902,0.11409429,0.17434472,0.25049282
20005,0,USKansasAtchison,Kansas,Atchison,2021-01-05 23:12:50.012454,2020-06-02 00:00:00.000000,0.13160378,0.21212646,0.36549681,21,34,58,7,14,27,0.04736194,0.08752544,0.16836716,0.11382779,0.17525002,0.25068542
20005,0,USKansasAtchison,Kansas,Atchison,2021-01-05 23:12:50.012454,2020-06-03 00:00:00.000000,0.13174046,0.21468035,0.35743255,21,34,57,8,14,26,0.05008364,0.08788113,0.16536544,0.11647673,0.17376445,0.24781338
20005,0,USKansasAtchison,Kansas,Atchison,2021-01-05 23:12:50.012454,2020-06-04 00:00:00.000000,0.13254023,0.21879390,0.34955917,21,35,56,8,14,26,0.05242643,0.08815546,0.16209448,0.12279602,0.17419615,0.23906160
20005,0,USKansasAtchison,Kansas,Atchison,2021-01-05 23:12:50.012454,2020-06-05 00:00:00.000000,0.13539849,0.21690551,0.35265998,21,34,56,8,14,25,0.05170664,0.09022949,0.15870520,0.13309045,0.17474626,0.24972309
20005,0,USKansasAtchison,Kansas,Atchison,2021-01-05 23:12:50.012454,2020-06-06 00:00:00.000000,0.13519494,0.21196410,0.36076829,21,34,57,8,14,25,0.05268170,0.09045882,0.15692182,0.14195948,0.17937211,0.24178096
20005,0,USKansasAtchison,Kansas,Atchison,2021-01-05 23:12:50.012454,2020-06-07 00:00:00.000000,0.12917578,0.21044234,0.37746208,20,33,60,8,14,25,0.05374974,0.09072148,0.15939026,0.14668576,0.18692851,0.24762765
20005,0,USKansasAtchison,Kansas,Atchison,2021-01-05 23:12:50.012454,2020-06-08 00:00:00.000000,0.13041108,0.21007509,0.36961572,20,33,59,8,14,26,0.05489040,0.09023004,0.16190955,0.15195886,0.19173333,0.25140589
20005,0,USKansasAtchison,Kansas,Atchison,2021-01-05 23:12:50.012454,2020-06-09 00:00:00.000000,0.12843109,0.20898459,0.36841528,20,33,59,8,14,26,0.05537183,0.08888383,0.16224793,0.15215745,0.19851640,0.25351139
20005,0,USKansasAtchison,Kansas,Atchison,2021-01-05 23:12:50.012454,2020-06-10 00:00:00.000000,0.13027725,0.20867303,0.37426903,20,33,60,8,14,26,0.05550165,0.08731303,0.16308073,0.15181747,0.20069580,0.25419357
20005,0,USKansasAtchison,Kansas,Atchison,2021-01-05 23:12:50.012454,2020-06-11 00:00:00.000000,0.13418900,0.21010643,0.37346741,21,33,60,8,13,26,0.05545893,0.08695964,0.16471862,0.15193081,0.20339384,0.25242523
20005,0,USKansasAtchison,Kansas,Atchison,2021-01-05 23:12:50.012454,2020-06-12 00:00:00.000000,0.13482990,0.21034021,0.37939983,21,33,60,8,14,26,0.05534675,0.08814789,0.16685123,0.15342285,0.20429950,0.25256800
20005,0,USKansasAtchison,Kansas,Atchison,2021-01-05 23:12:50.012454,2020-06-13 00:00:00.000000,0.13449838,0.20898110,0.38763591,21,33,62,8,14,27,0.05522210,0.08913892,0.16926074,0.15590249,0.20684286,0.25517381
20005,0,USKansasAtchison,Kansas,Atchison,2021-01-05 23:12:50.012454,2020-06-14 00:00:00.000000,0.13436981,0.21102706,0.39671897,21,33,63,8,14,27,0.05511324,0.08985628,0.17173930,0.16096097,0.20776763,0.26172383
20005,0,USKansasAtchison,Kansas,Atchison,2021-01-05 23:12:50.012454,2020-06-15 00:00:00.000000,0.14013312,0.21753928,0.39626561,22,34,63,8,14,27,0.05503119,0.09139490,0.17342285,0.16813203,0.21191611,0.27052504
20005,0,USKansasAtchison,Kansas,Atchison,2021-01-05 23:12:50.012454,2020-06-16 00:00:00.000000,0.14514600,0.21828302,0.39802616,23,35,63,9,14,27,0.05651670,0.09221568,0.17214726,0.17684621,0.21430209,0.27281188
20005,0,USKansasAtchison,Kansas,Atchison,2021-01-05 23:12:50.012454,2020-06-17 00:00:00.000000,0.14826424,0.21812390,0.40796920,23,35,65,9,14,27,0.05829681,0.09202448,0.17053375,0.18047344,0.20896794,0.27814780
20005,0,USKansasAtchison,Kansas,Atchison,2021-01-05 23:12:50.012454,2020-06-18 00:00:00.000000,0.15047626,0.21964237,0.41694003,24,35,67,9,14,27,0.06006390,0.09227606,0.17229151,0.17630538,0.20734095,0.27405405
20005,0,USKansasAtchison,Kansas,Atchison,2021-01-05 23:12:50.012454,2020-06-19 00:00:00.000000,0.15704387,0.22460016,0.42985809,25,36,69,9,15,27,0.06131098,0.09345339,0.17402663,0.17504523,0.20423941,0.27325873
20005,0,USKansasAtchison,Kansas,Atchison,2021-01-05 23:12:50.012454,2020-06-20 00:00:00.000000,0.16290301,0.22761293,0.44122378,26,36,70,9,15,28,0.06213634,0.09533593,0.17975225,0.17127505,0.20402374,0.27459480
20005,0,USKansasAtchison,Kansas,Atchison,2021-01-05 23:12:50.012454,2020-06-21 00:00:00.000000,0.16439056,0.22842613,0.45125006,26,36,72,10,15,29,0.06294595,0.09583000,0.18521217,0.16667755,0.20868177,0.28037601
20005,0,USKansasAtchison,Kansas,Atchison,2021-01-05 23:12:50.012454,2020-06-22 00:00:00.000000,0.16672381,0.22884377,0.44207666,26,36,71,10,15,30,0.06375921,0.09664963,0.19024032,0.16400426,0.21187482,0.28243656
20005,0,USKansasAtchison,Kansas,Atchison,2021-01-05 23:12:50.012454,2020-06-23 00:00:00.000000,0.16566381,0.23426769,0.43221142,26,37,69,10,15,30,0.06505152,0.09783108,0.19169555,0.16301959,0.21533024,0.28084941
20005,0,USKansasAtchison,Kansas,Atchison,2021-01-05 23:12:50.012454,2020-06-24 00:00:00.000000,0.16507187,0.23732490,0.42147079,26,38,67,10,15,30,0.06584889,0.09814068,0.19076263,0.16259834,0.22238936,0.28141893
20005,0,USKansasAtchison,Kansas,Atchison,2021-01-05 23:12:50.012454,2020-06-25 00:00:00.000000,0.16177316,0.23932696,0.41032537,26,38,65,10,15,30,0.06589611,0.09895734,0.18826910,0.16253008,0.22531522,0.28241927
20005,0,USKansasAtchison,Kansas,Atchison,2021-01-05 23:12:50.012454,2020-06-26 00:00:00.000000,0.15961071,0.24034327,0.39908798,25,38,64,10,16,29,0.06567985,0.10045042,0.18478627,0.16271756,0.22913582,0.28621565
20005,0,USKansasAtchison,Kansas,Atchison,2021-01-05 23:12:50.012454,2020-06-27 00:00:00.000000,0.15858016,0.24250784,0.39181345,25,38,62,10,16,29,0.06465220,0.10007032,0.18303514,0.16315814,0.23975207,0.29405399
20005,0,USKansasAtchison,Kansas,Atchison,2021-01-05 23:12:50.012454,2020-06-28 00:00:00.000000,0.15763308,0.24351986,0.38116886,25,39,61,10,16,28,0.06491081,0.10090832,0.18036721,0.16397946,0.24199496,0.29709370
20005,0,USKansasAtchison,Kansas,Atchison,2021-01-05 23:12:50.012454,2020-06-29 00:00:00.000000,0.16326082,0.24663009,0.38729131,26,39,62,10,16,28,0.06526118,0.10197523,0.17689951,0.16565812,0.24178839,0.30079881
20005,0,USKansasAtchison,Kansas,Atchison,2021-01-05 23:12:50.012454,2020-06-30 00:00:00.000000,0.16237552,0.25064245,0.39239903,26,40,63,10,16,28,0.06751915,0.10301161,0.17648617,0.16941080,0.24162459,0.30220246
20005,0,USKansasAtchison,Kansas,Atchison,2021-01-05 23:12:50.012454,2020-07-01 00:00:00.000000,0.16135340,0.25524148,0.38793894,25,41,62,11,16,28,0.07082684,0.10448262,0.17458919,0.17457645,0.24269385,0.30265138
20005,0,USKansasAtchison,Kansas,Atchison,2021-01-05 23:12:50.012454,2020-07-02 00:00:00.000000,0.16026395,0.26220556,0.38357900,25,42,61,11,17,27,0.07298170,0.10644358,0.17287447,0.18147109,0.24434293,0.30287911
20005,0,USKansasAtchison,Kansas,Atchison,2021-01-05 23:12:50.012454,2020-07-03 00:00:00.000000,0.15941573,0.27593818,0.38219549,25,44,61,11,17,27,0.07279192,0.10807307,0.17057448,0.18599074,0.24892224,0.30361257
20005,0,USKansasAtchison,Kansas,Atchison,2021-01-05 23:12:50.012454,2020-07-04 00:00:00.000000,0.15893860,0.27504468,0.38801761,25,44,62,11,17,27,0.07234353,0.10806526,0.16799226,0.19344594,0.26577861,0.31704735
20005,0,USKansasAtchison,Kansas,Atchison,2021-01-05 23:12:50.012454,2020-07-05 00:00:00.000000,0.15890809,0.27861210,0.39700258,25,44,63,11,17,26,0.07199904,0.10942777,0.16747435,0.20247977,0.27270212,0.33422423
20005,0,USKansasAtchison,Kansas,Atchison,2021-01-05 23:12:50.012454,2020-07-06 00:00:00.000000,0.17055178,0.29063350,0.40657603,27,46,65,11,18,27,0.07180290,0.11356900,0.17037705,0.21112460,0.28524391,0.33616503
20005,0,USKansasAtchison,Kansas,Atchison,2021-01-05 23:12:50.012454,2020-07-07 00:00:00.000000,0.18106325,0.30624694,0.41873751,29,49,67,11,18,27,0.07398614,0.11797657,0.17332297,0.21785117,0.29328152,0.34413597
20005,0,USKansasAtchison,Kansas,Atchison,2021-01-05 23:12:50.012454,2020-07-08 00:00:00.000000,0.18761061,0.31289539,0.43122348,30,50,69,12,19,28,0.07769558,0.12318836,0.17636993,0.22451388,0.29796262,0.35146292
20005,0,USKansasAtchison,Kansas,Atchison,2021-01-05 23:12:50.012454,2020-07-09 00:00:00.000000,0.19628887,0.32013011,0.44413058,31,51,71,13,20,28,0.08238478,0.12746711,0.17950760,0.23114671,0.30654118,0.38770325
20005,0,USKansasAtchison,Kansas,Atchison,2021-01-05 23:12:50.012454,2020-07-10 00:00:00.000000,0.20361786,0.33256838,0.45758605,32,53,73,13,20,29,0.08603708,0.12964431,0.18274779,0.23896429,0.31258650,0.44236267
20005,0,USKansasAtchison,Kansas,Atchison,2021-01-05 23:12:50.012454,2020-07-11 00:00:00.000000,0.21148486,0.34016475,0.47165576,33,54,75,14,21,29,0.09027085,0.13454619,0.18607186,0.25195239,0.32200196,0.49651175
20005,0,USKansasAtchison,Kansas,Atchison,2021-01-05 23:12:50.012454,2020-07-12 00:00:00.000000,0.22091538,0.35470951,0.48164291,35,57,77,15,22,31,0.09356708,0.14043771,0.19394355,0.27634223,0.33851252,0.50644674
20005,0,USKansasAtchison,Kansas,Atchison,2021-01-05 23:12:50.012454,2020-07-13 00:00:00.000000,0.24319479,0.37346459,0.49493482,39,60,79,15,23,32,0.09723848,0.14632294,0.20390508,0.29569495,0.35980310,0.52190654
20005,0,USKansasAtchison,Kansas,Atchison,2021-01-05 23:12:50.012454,2020-07-14 00:00:00.000000,0.26676978,0.39890920,0.50666002,42,64,81,16,24,33,0.10369392,0.15106706,0.21109695,0.30578420,0.37284927,0.54115154
20005,0,USKansasAtchison,Kansas,Atchison,2021-01-05 23:12:50.012454,2020-07-15 00:00:00.000000,0.28811894,0.42194084,0.53834219,46,67,86,18,25,35,0.11211871,0.15695292,0.21825298,0.30583881,0.39087045,0.55892322
20005,0,USKansasAtchison,Kansas,Atchison,2021-01-05 23:12:50.012454,2020-07-16 00:00:00.000000,0.30603814,0.44367255,0.57602411,49,71,92,19,26,36,0.12193373,0.16623306,0.22544791,0.30588220,0.40358268,0.56565487
20005,0,USKansasAtchison,Kansas,Atchison,2021-01-05 23:12:50.012454,2020-07-17 00:00:00.000000,0.32412915,0.47276738,0.61489893,52,75,98,20,27,37,0.13056986,0.17413560,0.23403136,0.30658050,0.40947085,0.57710001
20005,0,USKansasAtchison,Kansas,Atchison,2021-01-05 23:12:50.012454,2020-07-18 00:00:00.000000,0.34238406,0.50086901,0.65567140,55,80,105,22,29,40,0.13902011,0.18382081,0.24971693,0.30897650,0.41252181,0.60553132
20005,0,USKansasAtchison,Kansas,Atchison,2021-01-05 23:12:50.012454,2020-07-19 00:00:00.000000,0.36108017,0.52716189,0.70047377,58,84,112,23,31,42,0.14723046,0.19459293,0.26406539,0.31256949,0.42752731,0.62152513
20005,0,USKansasAtchison,Kansas,Atchison,2021-01-05 23:12:50.012454,2020-07-20 00:00:00.000000,0.37646217,0.55548664,0.74615996,60,89,119,25,33,45,0.15559907,0.20607857,0.28178361,0.31792180,0.49001972,0.62493337
20005,0,USKansasAtchison,Kansas,Atchison,2021-01-05 23:12:50.012454,2020-07-21 00:00:00.000000,0.39621557,0.58801401,0.79445251,63,94,127,26,35,48,0.16340359,0.21926366,0.29975867,0.32546484,0.53769325,0.63631730
20005,0,USKansasAtchison,Kansas,Atchison,2021-01-05 23:12:50.012454,2020-07-22 00:00:00.000000,0.42069310,0.62409515,0.84489514,67,100,135,27,37,51,0.17118468,0.23478838,0.31839354,0.34650260,0.56230004,0.64685167
20005,0,USKansasAtchison,Kansas,Atchison,2021-01-05 23:12:50.012454,2020-07-23 00:00:00.000000,0.44525166,0.66179521,0.89778968,71,106,144,29,39,54,0.18108876,0.24696865,0.33895191,0.36683643,0.56779465,0.65259996
20005,0,USKansasAtchison,Kansas,Atchison,2021-01-05 23:12:50.012454,2020-07-24 00:00:00.000000,0.47173433,0.69939173,0.95291660,75,112,153,30,42,58,0.18822430,0.26239980,0.36091371,0.37779893,0.57156151,0.67045586
20005,0,USKansasAtchison,Kansas,Atchison,2021-01-05 23:12:50.012454,2020-07-25 00:00:00.000000,0.49974186,0.74602949,1.01999234,80,119,163,31,44,61,0.19791909,0.27516862,0.38304809,0.39234320,0.57580568,0.70551686
20005,0,USKansasAtchison,Kansas,Atchison,2021-01-05 23:12:50.012454,2020-07-26 00:00:00.000000,0.52637277,0.78961505,1.09054567,84,126,175,33,46,65,0.20784469,0.29174235,0.40795260,0.41067428,0.58288014,0.72231222
20005,0,USKansasAtchison,Kansas,Atchison,2021-01-05 23:12:50.012454,2020-07-27 00:00:00.000000,0.57460191,0.86088594,1.16654430,92,138,187,35,50,70,0.21913241,0.31404155,0.43822648,0.42863153,0.58620761,0.73878474
20005,0,USKansasAtchison,Kansas,Atchison,2021-01-05 23:12:50.012454,2020-07-28 00:00:00.000000,0.60875210,0.93526093,1.25070542,97,150,201,37,53,75,0.23039547,0.33578467,0.47031105,0.44486777,0.59109754,0.77179820
20005,0,USKansasAtchison,Kansas,Atchison,2021-01-05 23:12:50.012454,2020-07-29 00:00:00.000000,0.66377249,1.02215842,1.35010080,106,164,217,38,58,81,0.24256730,0.36439524,0.50451201,0.45760515,0.60311561,0.86195542
20005,0,USKansasAtchison,Kansas,Atchison,2021-01-05 23:12:50.012454,2020-07-30 00:00:00.000000,0.71007888,1.11440602,1.49760858,114,179,240,42,63,86,0.26533502,0.39432735,0.53826607,0.46869162,0.62450414,0.88427148
20005,0,USKansasAtchison,Kansas,Atchison,2021-01-05 23:12:50.012454,2020-07-31 00:00:00.000000,0.75908760,1.20043047,1.64401370,122,192,264,45,67,91,0.28297114,0.42277685,0.57209284,0.48868607,0.63397447,0.89533356
20005,0,USKansasAtchison,Kansas,Atchison,2021-01-05 23:12:50.012454,2020-08-01 00:00:00.000000,0.81397702,1.30431927,1.77891855,130,209,285,48,73,98,0.30138347,0.45976563,0.61296904,0.52041585,0.65867909,0.89785559
20005,0,USKansasAtchison,Kansas,Atchison,2021-01-05 23:12:50.012454,2020-08-02 00:00:00.000000,0.87595530,1.43461234,1.97512964,140,230,317,51,79,107,0.32193811,0.49597012,0.66749127,0.53054431,0.68243422,0.89838351
20005,0,USKansasAtchison,Kansas,Atchison,2021-01-05 23:12:50.012454,2020-08-03 00:00:00.000000,0.95267190,1.56834754,2.19344004,153,252,352,55,86,116,0.34500394,0.54009202,0.72787237,0.57510915,0.70069077,0.89846129
20005,0,USKansasAtchison,Kansas,Atchison,2021-01-05 23:12:50.012454,2020-08-04 00:00:00.000000,1.03897427,1.70985208,2.43505108,166,274,391,59,94,128,0.37209828,0.58489206,0.79892350,0.61967827,0.71419392,0.89838573
20005,0,USKansasAtchison,Kansas,Atchison,2021-01-05 23:12:50.012454,2020-08-05 00:00:00.000000,1.13620811,1.87432777,2.69986737,182,301,433,64,102,142,0.40331393,0.63666054,0.88603965,0.62821225,0.71919515,0.89809167
20005,0,USKansasAtchison,Kansas,Atchison,2021-01-05 23:12:50.012454,2020-08-06 00:00:00.000000,1.24572086,2.02105960,2.98871968,200,324,480,70,111,158,0.43910172,0.69440542,0.98377359,0.63135341,0.73115913,0.89710171
20005,0,USKansasAtchison,Kansas,Atchison,2021-01-05 23:12:50.012454,2020-08-07 00:00:00.000000,1.36776766,2.18137519,3.30061740,219,350,530,77,121,173,0.47961500,0.75863193,1.07992290,0.64893736,0.73844194,0.89428532
20005,0,USKansasAtchison,Kansas,Atchison,2021-01-05 23:12:50.012454,2020-08-08 00:00:00.000000,1.52559972,2.39376299,3.63167657,245,384,583,84,134,191,0.52744633,0.83765749,1.18912693,0.65969287,0.75443109,0.88415368
20005,0,USKansasAtchison,Kansas,Atchison,2021-01-05 23:12:50.012454,2020-08-09 00:00:00.000000,1.71674312,2.62435977,3.97717160,275,421,639,95,148,210,0.59141450,0.92095018,1.31023953,0.68143968,0.76902450,0.88992389
20005,0,USKansasAtchison,Kansas,Atchison,2021-01-05 23:12:50.012454,2020-08-10 00:00:00.000000,1.94711188,2.90744001,4.33742805,312,467,697,106,163,230,0.66427579,1.01579515,1.43505839,0.70247842,0.78560007,0.90783597
20005,0,USKansasAtchison,Kansas,Atchison,2021-01-05 23:12:50.012454,2020-08-11 00:00:00.000000,2.20723873,3.22312570,4.71536502,354,518,757,120,179,250,0.74960884,1.11826261,1.55915543,0.69223374,0.80305003,0.92508208
20005,0,USKansasAtchison,Kansas,Atchison,2021-01-05 23:12:50.012454,2020-08-12 00:00:00.000000,2.49608126,3.59353250,5.11275163,401,577,821,136,197,272,0.84783166,1.22907178,1.69722366,0.68116404,0.80277935,0.95613273
20005,0,USKansasAtchison,Kansas,Atchison,2021-01-05 23:12:50.012454,2020-08-13 00:00:00.000000,2.81710941,3.94304073,5.45459183,452,633,876,154,218,296,0.95888540,1.35871609,1.84612079,0.67838613,0.81125789,0.95804142
20005,0,USKansasAtchison,Kansas,Atchison,2021-01-05 23:12:50.012454,2020-08-14 00:00:00.000000,3.17355530,4.33559952,5.74226530,510,696,922,174,239,321,1.08336738,1.48923250,2.00118039,0.65843675,0.80649166,0.95449823
20005,0,USKansasAtchison,Kansas,Atchison,2021-01-05 23:12:50.012454,2020-08-15 00:00:00.000000,3.51401020,4.75190836,5.99377871,564,763,963,196,262,350,1.22224998,1.63330934,2.17959709,0.63456509,0.77538092,0.93502082
20005,0,USKansasAtchison,Kansas,Atchison,2021-01-05 23:12:50.012454,2020-08-16 00:00:00.000000,3.84447242,5.09464573,6.49896126,617,818,1044,218,289,379,1.36126634,1.79825470,2.36356535,0.59953211,0.75318772,0.90543267
20005,0,USKansasAtchison,Kansas,Atchison,2021-01-05 23:12:50.012454,2020-08-17 00:00:00.000000,4.18084582,5.42922018,6.85999150,671,872,1102,239,316,409,1.48771168,1.96949035,2.54948450,0.56189689,0.72946372,0.88428495
20005,0,USKansasAtchison,Kansas,Atchison,2021-01-05 23:12:50.012454,2020-08-18 00:00:00.000000,4.52795035,5.76129690,7.27592446,727,926,1169,260,340,442,1.62246572,2.11833817,2.75475294,0.52778117,0.68229766,0.84868662
20005,0,USKansasAtchison,Kansas,Atchison,2021-01-05 23:12:50.012454,2020-08-19 00:00:00.000000,4.86113202,6.12882841,7.61148065,781,985,1223,283,366,477,1.76158893,2.28288645,2.96921701,0.49601334,0.64221619,0.84061355
20005,0,USKansasAtchison,Kansas,Atchison,2021-01-05 23:12:50.012454,2020-08-20 00:00:00.000000,5.15181776,6.43355142,8.05793764,828,1034,1295,298,392,513,1.85958776,2.44349087,3.19684098,0.45723316,0.58455224,0.79022223
20005,0,USKansasAtchison,Kansas,Atchison,2021-01-05 23:12:50.012454,2020-08-21 00:00:00.000000,5.39701371,6.75898113,8.49068598,867,1086,1364,311,420,548,1.93566149,2.61312442,3.41514661,0.42907175,0.53652562,0.71461310
20005,0,USKansasAtchison,Kansas,Atchison,2021-01-05 23:12:50.012454,2020-08-22 00:00:00.000000,5.59038231,6.89406066,8.76988861,898,1108,1409,330,439,581,2.05931249,2.73168592,3.61486797,0.39668536,0.49766341,0.65784715
20005,0,USKansasAtchison,Kansas,Atchison,2021-01-05 23:12:50.012454,2020-08-23 00:00:00.000000,5.81212658,7.04329305,8.97998448,934,1132,1443,351,451,604,2.18617597,2.80727154,3.76130963,0.37418071,0.46062497,0.62313200
20005,0,USKansasAtchison,Kansas,Atchison,2021-01-05 23:12:50.012454,2020-08-24 00:00:00.000000,5.96156216,7.10452175,9.12038492,958,1141,1465,359,463,635,2.23907804,2.88494755,3.95578037,0.36072342,0.43480783,0.59138920
20005,0,USKansasAtchison,Kansas,Atchison,2021-01-05 23:12:50.012454,2020-08-25 00:00:00.000000,6.04293615,7.17435885,9.03035994,971,1153,1451,373,473,653,2.32366355,2.94744935,4.06361419,0.34474621,0.42436890,0.55782900
20005,0,USKansasAtchison,Kansas,Atchison,2021-01-05 23:12:50.012454,2020-08-26 00:00:00.000000,5.99905445,7.17761186,9.02989328,964,1153,1451,377,478,662,2.34598450,2.97708665,4.11891557,0.31372888,0.40580748,0.52236097
20005,0,USKansasAtchison,Kansas,Atchison,2021-01-05 23:12:50.012454,2020-08-27 00:00:00.000000,5.96126904,7.19538286,9.26334702,958,1156,1488,379,475,665,2.35881354,2.95872068,4.14240146,0.27975602,0.38942203,0.47058431
20005,0,USKansasAtchison,Kansas,Atchison,2021-01-05 23:12:50.012454,2020-08-28 00:00:00.000000,5.91940252,7.15592855,9.16856739,951,1150,1473,380,476,657,2.36510180,2.96261506,4.09243310,0.26836115,0.37332132,0.45266337
20005,0,USKansasAtchison,Kansas,Atchison,2021-01-05 23:12:50.012454,2020-08-29 00:00:00.000000,5.87780546,7.09853788,8.99990133,944,1140,1446,376,477,663,2.34089994,2.96938901,4.12727335,0.25740300,0.36513884,0.43651716
20005,0,USKansasAtchison,Kansas,Atchison,2021-01-05 23:12:50.012454,2020-08-30 00:00:00.000000,5.73814012,7.01642805,8.79719388,922,1127,1413,368,480,661,2.29171310,2.99075726,4.11615932,0.25303274,0.36221501,0.42906744
20005,0,USKansasAtchison,Kansas,Atchison,2021-01-05 23:12:50.012454,2020-08-31 00:00:00.000000,5.61147693,6.89385085,8.59608842,901,1108,1381,360,483,661,2.24077741,3.00889659,4.11535616,0.24994956,0.36018054,0.42205043
20005,0,USKansasAtchison,Kansas,Atchison,2021-01-05 23:12:50.012454,2020-09-01 00:00:00.000000,5.47633073,6.77274332,8.49101126,880,1088,1364,351,484,655,2.18595070,3.01546465,4.07919434,0.24697697,0.34608160,0.41777277
20005,0,USKansasAtchison,Kansas,Atchison,2021-01-05 23:12:50.012454,2020-09-02 00:00:00.000000,5.30967719,6.63282829,8.37527587,853,1066,1346,342,478,645,2.13316797,2.97986636,4.01528550,0.24523395,0.33600207,0.40885859
20005,0,USKansasAtchison,Kansas,Atchison,2021-01-05 23:12:50.012454,2020-09-03 00:00:00.000000,5.14823135,6.54727478,8.23480766,827,1052,1323,342,471,637,2.12972699,2.93197572,3.96600094,0.24282552,0.31958697,0.39330484
20005,0,USKansasAtchison,Kansas,Atchison,2021-01-05 23:12:50.012454,2020-09-04 00:00:00.000000,4.99505163,6.40423137,8.07789943,802,1029,1298,337,460,629,2.09852711,2.86523313,3.91714587,0.24014073,0.30423325,0.38897272
20005,0,USKansasAtchison,Kansas,Atchison,2021-01-05 23:12:50.012454,2020-09-05 00:00:00.000000,4.85101601,6.20385071,7.83016898,779,997,1258,327,453,619,2.03755343,2.82098724,3.85709306,0.23683934,0.29297159,0.37980204
20005,0,USKansasAtchison,Kansas,Atchison,2021-01-05 23:12:50.012454,2020-09-06 00:00:00.000000,4.73006932,6.03629989,7.55639265,760,970,1214,318,443,608,1.97903830,2.76024947,3.78885909,0.22832228,0.28182205,0.36901241
20005,0,USKansasAtchison,Kansas,Atchison,2021-01-05 23:12:50.012454,2020-09-07 00:00:00.000000,4.59530373,5.84599846,7.28842835,738,939,1171,309,426,597,1.92405672,2.65040766,3.71494837,0.21663215,0.27635303,0.37072854
20005,0,USKansasAtchison,Kansas,Atchison,2021-01-05 23:12:50.012454,2020-09-08 00:00:00.000000,4.47421643,5.67900188,7.02575362,719,912,1129,300,414,584,1.87170305,2.58085779,3.63698392,0.19706925,0.27401237,0.38770683
20005,0,USKansasAtchison,Kansas,Atchison,2021-01-05 23:12:50.012454,2020-09-09 00:00:00.000000,4.31983430,5.48957164,6.76900110,694,882,1087,292,406,571,1.81996887,2.52794056,3.55634578,0.18325834,0.27413431,0.39654405
20005,0,USKansasAtchison,Kansas,Atchison,2021-01-05 23:12:50.012454,2020-09-10 00:00:00.000000,4.17283831,5.30310707,6.51891411,670,852,1047,283,397,558,1.76685949,2.47557457,3.47397973,0.18533661,0.27557413,0.39662431
20005,0,USKansasAtchison,Kansas,Atchison,2021-01-05 23:12:50.012454,2020-09-11 00:00:00.000000,3.93633075,5.16551458,6.41853493,632,830,1031,275,385,540,1.71331919,2.40072192,3.36174967,0.19226157,0.27795059,0.39648817
20005,0,USKansasAtchison,Kansas,Atchison,2021-01-05 23:12:50.012454,2020-09-12 00:00:00.000000,3.74805765,5.01915129,6.35063746,602,806,1020,266,371,520,1.66017931,2.30858097,3.23870793,0.20199434,0.27908650,0.40782793
20005,0,USKansasAtchison,Kansas,Atchison,2021-01-05 23:12:50.012454,2020-09-13 00:00:00.000000,3.58378309,4.85114088,6.28656786,576,779,1010,258,360,501,1.60792319,2.24025421,3.12109358,0.21070489,0.28965853,0.41706601
20005,0,USKansasAtchison,Kansas,Atchison,2021-01-05 23:12:50.012454,2020-09-14 00:00:00.000000,3.46000529,4.69877517,6.21858790,556,755,999,250,351,484,1.55661122,2.18506584,3.01261337,0.21812269,0.30168765,0.41950763
20005,0,USKansasAtchison,Kansas,Atchison,2021-01-05 23:12:50.012454,2020-09-15 00:00:00.000000,3.33479712,4.55309964,6.14040964,536,731,986,239,340,468,1.49157597,2.11932712,2.91694952,0.22650262,0.30222097,0.42156372
20005,0,USKansasAtchison,Kansas,Atchison,2021-01-05 23:12:50.012454,2020-09-16 00:00:00.000000,3.16733069,4.41403296,6.01164893,509,709,966,230,329,455,1.43384678,2.05029302,2.83110688,0.23950104,0.30134239,0.42559498
20005,0,USKansasAtchison,Kansas,Atchison,2021-01-05 23:12:50.012454,2020-09-17 00:00:00.000000,3.03003919,4.28551234,5.96160424,487,688,958,222,319,442,1.38195120,1.98792950,2.75235078,0.25883603,0.30347338,0.42648819
20005,0,USKansasAtchison,Kansas,Atchison,2021-01-05 23:12:50.012454,2020-09-18 00:00:00.000000,2.92227015,4.19170360,5.91095228,469,673,950,214,308,430,1.33468001,1.91719197,2.67893953,0.26587093,0.31182848,0.42719081
20005,0,USKansasAtchison,Kansas,Atchison,2021-01-05 23:12:50.012454,2020-09-19 00:00:00.000000,2.82615164,4.07872671,5.86018788,454,655,941,206,302,419,1.28183581,1.88111841,2.60998959,0.26884419,0.32267731,0.43362964
20005,0,USKansasAtchison,Kansas,Atchison,2021-01-05 23:12:50.012454,2020-09-20 00:00:00.000000,2.75311769,3.99785113,5.72403321,442,642,920,197,296,409,1.22835141,1.84757681,2.54524005,0.27589857,0.34517334,0.44173662
20005,0,USKansasAtchison,Kansas,Atchison,2021-01-05 23:12:50.012454,2020-09-21 00:00:00.000000,2.70343834,3.94141755,5.59791761,434,633,899,189,291,399,1.17768677,1.81527555,2.48481030,0.29448784,0.36479660,0.44927644
20005,0,USKansasAtchison,Kansas,Atchison,2021-01-05 23:12:50.012454,2020-09-22 00:00:00.000000,2.60540067,3.90752724,5.56861035,418,628,895,181,285,390,1.12981488,1.77775821,2.42665969,0.31650652,0.38956081,0.45430374
20005,0,USKansasAtchison,Kansas,Atchison,2021-01-05 23:12:50.012454,2020-09-23 00:00:00.000000,2.53325186,3.88000745,5.53647676,407,623,889,176,281,384,1.09711610,1.74848793,2.39230758,0.32480878,0.39688109,0.45474911
20005,0,USKansasAtchison,Kansas,Atchison,2021-01-05 23:12:50.012454,2020-09-24 00:00:00.000000,2.49847838,3.85544159,5.49747738,401,619,883,172,277,378,1.07361623,1.72685865,2.35346550,0.32894054,0.40639739,0.46750685
20005,0,USKansasAtchison,Kansas,Atchison,2021-01-05 23:12:50.012454,2020-09-25 00:00:00.000000,2.49630342,3.80468178,5.44125931,401,611,874,169,274,371,1.05669331,1.70965021,2.31330529,0.32232615,0.41590452,0.48922376
20005,0,USKansasAtchison,Kansas,Atchison,2021-01-05 23:12:50.012454,2020-09-26 00:00:00.000000,2.51545995,3.77143078,5.34076438,404,606,858,167,272,366,1.04406965,1.69232993,2.28099199,0.31875838,0.42303512,0.50991291
20005,0,USKansasAtchison,Kansas,Atchison,2021-01-05 23:12:50.012454,2020-09-27 00:00:00.000000,2.54621171,3.76482367,5.22228327,409,605,839,166,268,361,1.03404825,1.66764953,2.24928760,0.31677750,0.42622389,0.52693738
20005,0,USKansasAtchison,Kansas,Atchison,2021-01-05 23:12:50.012454,2020-09-28 00:00:00.000000,2.58497073,3.71728450,5.10302229,415,597,820,164,262,356,1.02567057,1.63619212,2.21996184,0.31551496,0.42781332,0.53931282
20005,0,USKansasAtchison,Kansas,Atchison,2021-01-05 23:12:50.012454,2020-09-29 00:00:00.000000,2.62559072,3.72005689,4.98253212,422,597,800,164,261,347,1.02098761,1.62765041,2.16496141,0.31520541,0.42926032,0.54579776
20005,0,USKansasAtchison,Kansas,Atchison,2021-01-05 23:12:50.012454,2020-09-30 00:00:00.000000,2.66662437,3.76117103,4.86115880,428,604,781,165,261,347,1.03258601,1.62989057,2.16168308,0.31766900,0.43415974,0.54930529
20005,0,USKansasAtchison,Kansas,Atchison,2021-01-05 23:12:50.012454,2020-10-01 00:00:00.000000,2.70091195,3.75013527,4.82826568,434,602,776,168,262,347,1.04619906,1.63595408,2.16278014,0.35289842,0.44016424,0.55569085
20005,0,USKansasAtchison,Kansas,Atchison,2021-01-05 23:12:50.012454,2020-10-02 00:00:00.000000,2.71783132,3.77493159,4.76825885,436,606,766,170,263,349,1.06057670,1.63652536,2.17299331,0.38569996,0.45012560,0.56412945
20005,0,USKansasAtchison,Kansas,Atchison,2021-01-05 23:12:50.012454,2020-10-03 00:00:00.000000,2.73515741,3.77851648,4.81035257,439,607,773,172,261,349,1.07574723,1.62813689,2.17461219,0.39362109,0.47664677,0.57399257
20005,0,USKansasAtchison,Kansas,Atchison,2021-01-05 23:12:50.012454,2020-10-04 00:00:00.000000,2.75547851,3.79399434,4.88212335,442,609,784,174,261,348,1.08837640,1.62549702,2.16808369,0.39728563,0.49283614,0.59245494
20005,0,USKansasAtchison,Kansas,Atchison,2021-01-05 23:12:50.012454,2020-10-05 00:00:00.000000,2.76434728,3.83251143,4.92458432,444,615,791,173,262,348,1.07964820,1.63238096,2.16589187,0.41014467,0.49909267,0.61973376
20005,0,USKansasAtchison,Kansas,Atchison,2021-01-05 23:12:50.012454,2020-10-06 00:00:00.000000,2.78155624,3.83412633,4.96425622,447,616,797,173,262,349,1.07986878,1.63353355,2.17203732,0.41308948,0.50383089,0.64631410
20005,0,USKansasAtchison,Kansas,Atchison,2021-01-05 23:12:50.012454,2020-10-07 00:00:00.000000,2.81478697,3.85437656,5.01776633,452,619,806,174,264,356,1.08548988,1.64386985,2.21771631,0.41497562,0.51563658,0.66551882
20005,0,USKansasAtchison,Kansas,Atchison,2021-01-05 23:12:50.012454,2020-10-08 00:00:00.000000,2.89408992,3.90253820,5.07506181,465,627,815,178,265,364,1.11312915,1.65109637,2.26744478,0.42115836,0.51794469,0.67530984
20005,0,USKansasAtchison,Kansas,Atchison,2021-01-05 23:12:50.012454,2020-10-09 00:00:00.000000,2.97246356,3.94135225,5.10054573,477,633,819,183,268,372,1.14298563,1.67303181,2.31915793,0.43474903,0.51995128,0.68137751
20005,0,USKansasAtchison,Kansas,Atchison,2021-01-05 23:12:50.012454,2020-10-10 00:00:00.000000,2.98094664,3.96335603,5.17737423,479,637,832,188,268,381,1.17367002,1.67077051,2.37066953,0.43881029,0.52424218,0.69748354
20005,0,USKansasAtchison,Kansas,Atchison,2021-01-05 23:12:50.012454,2020-10-11 00:00:00.000000,2.99684726,4.01479673,5.25238157,481,645,844,193,269,385,1.20453899,1.67630458,2.39852598,0.44106251,0.53317910,0.72129585
20005,0,USKansasAtchison,Kansas,Atchison,2021-01-05 23:12:50.012454,2020-10-12 00:00:00.000000,3.01959522,4.02927865,5.31116230,485,647,853,198,271,387,1.23537111,1.69040849,2.40936430,0.43395742,0.53208775,0.74072427
20005,0,USKansasAtchison,Kansas,Atchison,2021-01-05 23:12:50.012454,2020-10-13 00:00:00.000000,3.06366989,4.07752893,5.36318322,492,655,862,202,273,388,1.26018523,1.70361987,2.41944259,0.43959229,0.53056179,0.73923333
20005,0,USKansasAtchison,Kansas,Atchison,2021-01-05 23:12:50.012454,2020-10-14 00:00:00.000000,3.11797860,4.12944546,5.45607643,501,663,876,204,276,393,1.27292027,1.71905901,2.44830809,0.44786887,0.53731330,0.72216885
20005,0,USKansasAtchison,Kansas,Atchison,2021-01-05 23:12:50.012454,2020-10-15 00:00:00.000000,3.17136950,4.16745586,5.57765466,509,669,896,207,280,397,1.28966612,1.74417887,2.47345105,0.46084985,0.53749382,0.70640818
20005,0,USKansasAtchison,Kansas,Atchison,2021-01-05 23:12:50.012454,2020-10-16 00:00:00.000000,3.22129183,4.21722561,5.67501183,517,677,912,210,283,400,1.31059444,1.76165747,2.49466861,0.46977856,0.53884089,0.70370442
20005,0,USKansasAtchison,Kansas,Atchison,2021-01-05 23:12:50.012454,2020-10-17 00:00:00.000000,3.25952655,4.27475544,5.74278235,523,687,923,214,285,405,1.33675062,1.77529448,2.52526363,0.47049702,0.54162664,0.72496382
20005,0,USKansasAtchison,Kansas,Atchison,2021-01-05 23:12:50.012454,2020-10-18 00:00:00.000000,3.33884591,4.34440799,5.85669398,536,698,941,214,288,414,1.33463909,1.79365827,2.58166062,0.44618376,0.55757993,0.77338556
20005,0,USKansasAtchison,Kansas,Atchison,2021-01-05 23:12:50.012454,2020-10-19 00:00:00.000000,3.34215003,4.42947618,5.93121402,537,711,953,216,290,419,1.34821376,1.80557914,2.61014570,0.43010367,0.56771619,0.82121312
20005,0,USKansasAtchison,Kansas,Atchison,2021-01-05 23:12:50.012454,2020-10-20 00:00:00.000000,3.35597165,4.51940772,5.99475476,539,726,963,218,292,422,1.35823063,1.81933838,2.62796646,0.42251699,0.57833925,0.84055106
20005,0,USKansasAtchison,Kansas,Atchison,2021-01-05 23:12:50.012454,2020-10-21 00:00:00.000000,3.37514237,4.59500676,6.08415374,542,738,977,218,295,430,1.35687414,1.84058016,2.67927114,0.42747043,0.58549204,0.84339486
20005,0,USKansasAtchison,Kansas,Atchison,2021-01-05 23:12:50.012454,2020-10-22 00:00:00.000000,3.37888694,4.63692526,6.17955237,543,745,993,218,296,440,1.35969485,1.84514357,2.74286132,0.46555391,0.59557003,0.83292998
20005,0,USKansasAtchison,Kansas,Atchison,2021-01-05 23:12:50.012454,2020-10-23 00:00:00.000000,3.42603566,4.76784656,6.31418379,550,766,1014,219,302,447,1.36657091,1.87931950,2.78672277,0.48475297,0.59423162,0.80771446
20005,0,USKansasAtchison,Kansas,Atchison,2021-01-05 23:12:50.012454,2020-10-24 00:00:00.000000,3.46752284,4.86116020,6.44120575,557,781,1035,221,309,457,1.37878087,1.92800415,2.84531698,0.48516423,0.62203950,0.76471107
20005,0,USKansasAtchison,Kansas,Atchison,2021-01-05 23:12:50.012454,2020-10-25 00:00:00.000000,3.51327084,4.96010695,6.54609978,564,797,1052,224,315,467,1.39818543,1.96355326,2.90584629,0.48157438,0.62002452,0.78992409
20005,0,USKansasAtchison,Kansas,Atchison,2021-01-05 23:12:50.012454,2020-10-26 00:00:00.000000,3.62641637,5.01151712,6.63898852,582,805,1067,229,322,476,1.42585720,2.00620202,2.96153968,0.47420645,0.64074640,0.82036405
20005,0,USKansasAtchison,Kansas,Atchison,2021-01-05 23:12:50.012454,2020-10-27 00:00:00.000000,3.77067893,5.08384223,6.73596628,606,817,1082,233,329,484,1.45569185,2.05269479,3.01197947,0.48771059,0.64662791,0.83770117
20005,0,USKansasAtchison,Kansas,Atchison,2021-01-05 23:12:50.012454,2020-10-28 00:00:00.000000,3.94861476,5.13988597,6.85334658,634,826,1101,240,336,491,1.49535745,2.09280611,3.06005149,0.55311356,0.65992661,0.87123140
20005,0,USKansasAtchison,Kansas,Atchison,2021-01-05 23:12:50.012454,2020-10-29 00:00:00.000000,4.13106526,5.18775900,6.97137472,663,833,1120,248,341,499,1.54729992,2.12754603,3.11064449,0.55380292,0.67128721,0.94456851
20005,0,USKansasAtchison,Kansas,Atchison,2021-01-05 23:12:50.012454,2020-10-30 00:00:00.000000,4.31849270,5.22241524,7.08411482,694,839,1138,258,346,508,1.60617208,2.15285790,3.16302470,0.56272407,0.68567167,1.02526794
20005,0,USKansasAtchison,Kansas,Atchison,2021-01-05 23:12:50.012454,2020-10-31 00:00:00.000000,4.50968405,5.28665484,7.18889606,724,849,1155,268,352,516,1.66939027,2.19499207,3.21544898,0.57927367,0.71261415,1.06425159
20005,0,USKansasAtchison,Kansas,Atchison,2021-01-05 23:12:50.012454,2020-11-01 00:00:00.000000,4.63962982,5.41230657,7.28618015,745,869,1171,278,358,525,1.73544053,2.23327793,3.26664441,0.58800922,0.74820969,1.07632025
20005,0,USKansasAtchison,Kansas,Atchison,2021-01-05 23:12:50.012454,2020-11-02 00:00:00.000000,4.78305318,5.58599610,7.42268492,768,897,1193,289,367,532,1.80345638,2.28789491,3.31566918,0.59612251,0.75419638,1.07917982
20005,0,USKansasAtchison,Kansas,Atchison,2021-01-05 23:12:50.012454,2020-11-03 00:00:00.000000,4.90937829,5.79414686,7.58608633,789,931,1219,300,376,540,1.87013311,2.34408795,3.36490708,0.59742654,0.75206850,1.07919253
20005,0,USKansasAtchison,Kansas,Atchison,2021-01-05 23:12:50.012454,2020-11-04 00:00:00.000000,4.98161096,5.97179951,7.64158136,800,959,1228,304,384,548,1.89148362,2.39526312,3.41218884,0.60481700,0.75193601,1.07792797
20005,0,USKansasAtchison,Kansas,Atchison,2021-01-05 23:12:50.012454,2020-11-05 00:00:00.000000,5.05646307,6.11767876,7.67282527,812,983,1233,308,394,555,1.91743660,2.45509397,3.45501664,0.58792246,0.75653018,1.07551123
20005,0,USKansasAtchison,Kansas,Atchison,2021-01-05 23:12:50.012454,2020-11-06 00:00:00.000000,5.19505522,6.26269407,7.78997625,835,1006,1252,320,405,560,1.99384414,2.52025914,3.49020079,0.57176372,0.75041670,1.07170115
20005,0,USKansasAtchison,Kansas,Atchison,2021-01-05 23:12:50.012454,2020-11-07 00:00:00.000000,5.34748297,6.39012803,7.92413649,859,1027,1273,332,413,564,2.07081868,2.57191576,3.51512915,0.55898140,0.75768241,1.06640431
20005,0,USKansasAtchison,Kansas,Atchison,2021-01-05 23:12:50.012454,2020-11-08 00:00:00.000000,5.45872400,6.50928685,8.05754566,877,1046,1295,340,425,567,2.11888006,2.64563321,3.52923330,0.55174679,0.76774923,1.06007558
20005,0,USKansasAtchison,Kansas,Atchison,2021-01-05 23:12:50.012454,2020-11-09 00:00:00.000000,5.57846001,6.64494738,8.14782245,896,1068,1309,347,436,567,2.16291881,2.71542950,3.53363039,0.54754089,0.76981880,1.05376076
20005,0,USKansasAtchison,Kansas,Atchison,2021-01-05 23:12:50.012454,2020-11-10 00:00:00.000000,5.60045003,6.77187472,8.35641136,900,1088,1343,355,447,569,2.20958986,2.78702789,3.54356810,0.54632688,0.77107064,1.04861092
20005,0,USKansasAtchison,Kansas,Atchison,2021-01-05 23:12:50.012454,2020-11-11 00:00:00.000000,5.64914527,6.84311420,8.54322394,907,1099,1373,362,459,571,2.25830456,2.85855090,3.55348077,0.54356560,0.76708743,1.04548958
20005,0,USKansasAtchison,Kansas,Atchison,2021-01-05 23:12:50.012454,2020-11-12 00:00:00.000000,5.75490700,7.00577680,8.66612292,924,1126,1392,370,465,584,2.30805524,2.89560298,3.63454890,0.54497602,0.77163112,1.05174395
20005,0,USKansasAtchison,Kansas,Atchison,2021-01-05 23:12:50.012454,2020-11-13 00:00:00.000000,5.77154245,7.15086916,8.73947582,927,1149,1404,383,471,591,2.38648372,2.93540413,3.67824052,0.54389923,0.78989268,1.07373731
20005,0,USKansasAtchison,Kansas,Atchison,2021-01-05 23:12:50.012454,2020-11-14 00:00:00.000000,5.78880878,7.30860017,8.76529244,930,1174,1408,392,482,600,2.44274388,3.00169943,3.73845928,0.54104727,0.76369717,1.06919447
20005,0,USKansasAtchison,Kansas,Atchison,2021-01-05 23:12:50.012454,2020-11-15 00:00:00.000000,5.81812857,7.38180019,8.87293820,935,1186,1426,393,492,609,2.44757967,3.06616085,3.79258069,0.53892701,0.75770673,1.09237266
20005,0,USKansasAtchison,Kansas,Atchison,2021-01-05 23:12:50.012454,2020-11-16 00:00:00.000000,5.75009375,7.44115981,8.96501819,924,1196,1440,403,501,616,2.51172941,3.12085021,3.83686669,0.53452277,0.75419020,1.13339064
20005,0,USKansasAtchison,Kansas,Atchison,2021-01-05 23:12:50.012454,2020-11-17 00:00:00.000000,5.75539784,7.54972256,9.00219708,925,1213,1446,413,508,621,2.57502198,3.16282030,3.86935529,0.54499995,0.76497490,1.16023492
20005,0,USKansasAtchison,Kansas,Atchison,2021-01-05 23:12:50.012454,2020-11-18 00:00:00.000000,5.84672253,7.61932136,9.06286482,939,1224,1456,414,508,625,2.57853626,3.16624916,3.89311497,0.56244291,0.77884932,1.17663941
20005,0,USKansasAtchison,Kansas,Atchison,2021-01-05 23:12:50.012454,2020-11-19 00:00:00.000000,5.81595589,7.68066414,9.16724624,934,1234,1473,408,514,628,2.54085849,3.20153533,3.91203094,0.59769576,0.80200260,1.20507157
20005,0,USKansasAtchison,Kansas,Atchison,2021-01-05 23:12:50.012454,2020-11-20 00:00:00.000000,5.81098680,7.72824616,9.25339188,933,1242,1487,402,517,631,2.50572431,3.22017215,3.92991483,0.62308326,0.81302604,1.24510332
20005,0,USKansasAtchison,Kansas,Atchison,2021-01-05 23:12:50.012454,2020-11-21 00:00:00.000000,5.83008739,7.81536543,9.25621926,937,1256,1487,398,523,634,2.47664334,3.25642385,3.94936351,0.63766492,0.80657866,1.26933019
20005,0,USKansasAtchison,Kansas,Atchison,2021-01-05 23:12:50.012454,2020-11-22 00:00:00.000000,5.81914593,7.90897989,9.31566020,935,1271,1497,397,527,638,2.47470994,3.28473921,3.97066432,0.64646840,0.81897977,1.34484334
20005,0,USKansasAtchison,Kansas,Atchison,2021-01-05 23:12:50.012454,2020-11-23 00:00:00.000000,5.78882680,7.99148297,9.36996720,930,1284,1506,398,530,651,2.47979468,3.30319111,4.05300625,0.62191310,0.84138227,1.36833932
20005,0,USKansasAtchison,Kansas,Atchison,2021-01-05 23:12:50.012454,2020-11-24 00:00:00.000000,5.75635424,7.99599691,9.43313460,925,1285,1516,400,534,666,2.48893158,3.32838201,4.14777123,0.61600324,0.85898403,1.36999881
20005,0,USKansasAtchison,Kansas,Atchison,2021-01-05 23:12:50.012454,2020-11-25 00:00:00.000000,5.72943674,8.05936549,9.60594348,920,1295,1543,401,538,681,2.50065038,3.35087370,4.23926004,0.62933079,0.86480483,1.36301308
20005,0,USKansasAtchison,Kansas,Atchison,2021-01-05 23:12:50.012454,2020-11-26 00:00:00.000000,5.73544759,8.13219370,9.67398716,921,1307,1554,403,542,684,2.51275488,3.37764784,4.26092794,0.65572996,0.87383246,1.25833021
20005,0,USKansasAtchison,Kansas,Atchison,2021-01-05 23:12:50.012454,2020-11-27 00:00:00.000000,5.82130278,8.10946976,9.77595339,935,1303,1571,405,544,687,2.52366750,3.38915079,4.27568879,0.69022723,0.90909177,1.21780751
20005,0,USKansasAtchison,Kansas,Atchison,2021-01-05 23:12:50.012454,2020-11-28 00:00:00.000000,5.90598296,8.09955609,9.86090927,949,1301,1584,407,547,688,2.53310808,3.40495955,4.28343667,0.70473322,0.93662404,1.27059184
20005,0,USKansasAtchison,Kansas,Atchison,2021-01-05 23:12:50.012454,2020-11-29 00:00:00.000000,5.98697223,8.04626461,9.92829355,962,1293,1595,408,548,695,2.54258320,3.41521911,4.32785959,0.72326773,0.96267774,1.31680351
20005,0,USKansasAtchison,Kansas,Atchison,2021-01-05 23:12:50.012454,2020-11-30 00:00:00.000000,6.07522573,8.01225966,9.96020382,976,1287,1600,410,555,707,2.55091880,3.45562247,4.39972367,0.73356633,0.97805833,1.33391161
20005,0,USKansasAtchison,Kansas,Atchison,2021-01-05 23:12:50.012454,2020-12-01 00:00:00.000000,6.15649023,7.98627539,9.97387028,989,1283,1603,411,554,717,2.56022871,3.44883922,4.46539600,0.73732218,1.00005551,1.34182058
20005,0,USKansasAtchison,Kansas,Atchison,2021-01-05 23:12:50.012454,2020-12-02 00:00:00.000000,6.23027058,7.92472875,9.96859037,1001,1273,1602,412,554,726,2.56816920,3.45141460,4.52144156,0.73519914,1.01590230,1.34805335
20005,0,USKansasAtchison,Kansas,Atchison,2021-01-05 23:12:50.012454,2020-12-03 00:00:00.000000,6.24063540,7.92902591,10.05671737,1003,1274,1616,414,556,734,2.57845187,3.46129889,4.56779088,0.72356164,1.03025828,1.35611845
20005,0,USKansasAtchison,Kansas,Atchison,2021-01-05 23:12:50.012454,2020-12-04 00:00:00.000000,6.12345733,7.92756951,10.14019547,984,1274,1629,419,551,740,2.60952961,3.43140636,4.60418326,0.70543785,1.02764102,1.35486172
20005,0,USKansasAtchison,Kansas,Atchison,2021-01-05 23:12:50.012454,2020-12-05 00:00:00.000000,6.20288159,7.84904113,10.20483934,996,1261,1640,423,545,744,2.63282602,3.39349092,4.63034877,0.68009339,1.02082436,1.40653961
20005,0,USKansasAtchison,Kansas,Atchison,2021-01-05 23:12:50.012454,2020-12-06 00:00:00.000000,6.25557070,7.81418713,10.22781378,1005,1255,1643,422,546,746,2.63130821,3.40283934,4.64610202,0.66685470,1.03703449,1.49047813
20005,0,USKansasAtchison,Kansas,Atchison,2021-01-05 23:12:50.012454,2020-12-07 00:00:00.000000,6.19552394,7.76296825,10.17579151,995,1247,1635,412,537,747,2.56558781,3.34497921,4.65134748,0.66258948,1.04637500,1.55538313
20005,0,USKansasAtchison,Kansas,Atchison,2021-01-05 23:12:50.012454,2020-12-08 00:00:00.000000,6.06197324,7.63536599,10.10420703,974,1227,1624,408,536,742,2.53940873,3.33805687,4.62028144,0.66217854,1.04679540,1.60979890
20005,0,USKansasAtchison,Kansas,Atchison,2021-01-05 23:12:50.012454,2020-12-09 00:00:00.000000,5.87006542,7.52194702,10.01421009,943,1209,1609,404,530,736,2.51946530,3.30273434,4.58169090,0.66549300,1.04908814,1.63116037
20005,0,USKansasAtchison,Kansas,Atchison,2021-01-05 23:12:50.012454,2020-12-10 00:00:00.000000,5.72344581,7.45378925,9.90645159,919,1198,1592,400,523,729,2.49322748,3.25870602,4.53612393,0.67872963,1.04643937,1.60421839
20005,0,USKansasAtchison,Kansas,Atchison,2021-01-05 23:12:50.012454,2020-12-11 00:00:00.000000,5.58055128,7.33657433,9.78161353,896,1179,1572,391,516,720,2.43490718,3.21136969,4.48330218,0.70316493,1.04329712,1.49006035
20005,0,USKansasAtchison,Kansas,Atchison,2021-01-05 23:12:50.012454,2020-12-12 00:00:00.000000,5.44024731,7.26246948,9.63999599,874,1167,1549,381,510,710,2.37467498,3.17716193,4.42325477,0.70277691,1.06108672,1.41332953
20005,0,USKansasAtchison,Kansas,Atchison,2021-01-05 23:12:50.012454,2020-12-13 00:00:00.000000,5.30163730,7.17657954,9.48272327,852,1153,1524,371,505,700,2.31221102,3.14233577,4.35621726,0.72840971,1.08651734,1.33089145
20005,0,USKansasAtchison,Kansas,Atchison,2021-01-05 23:12:50.012454,2020-12-14 00:00:00.000000,5.15144389,7.05967470,9.32248117,827,1134,1498,361,500,690,2.24712652,3.11256541,4.29834493,0.74922413,1.06475236,1.30767111
20005,0,USKansasAtchison,Kansas,Atchison,2021-01-05 23:12:50.012454,2020-12-15 00:00:00.000000,5.00552612,6.94199481,9.14948857,804,1115,1470,349,496,682,2.17637237,3.09076527,4.24915894,0.75192365,1.05321802,1.35035833
20005,0,USKansasAtchison,Kansas,Atchison,2021-01-05 23:12:50.012454,2020-12-16 00:00:00.000000,4.85435305,6.79727924,8.96544698,780,1092,1441,337,494,674,2.10270964,3.07572958,4.19508796,0.77794143,1.04943332,1.35568427
20005,0,USKansasAtchison,Kansas,Atchison,2021-01-05 23:12:50.012454,2020-12-17 00:00:00.000000,4.70713788,6.63677480,8.77157236,756,1066,1409,326,484,664,2.03015640,3.01215495,4.13587355,0.78250598,1.04888424,1.30406486
20005,0,USKansasAtchison,Kansas,Atchison,2021-01-05 23:12:50.012454,2020-12-18 00:00:00.000000,4.56191873,6.48511388,8.53570606,733,1042,1371,315,471,654,1.96000988,2.93549585,4.07151930,0.78341817,1.06039281,1.28814315
20005,0,USKansasAtchison,Kansas,Atchison,2021-01-05 23:12:50.012454,2020-12-19 00:00:00.000000,4.41835043,6.34580236,8.27328254,710,1019,1329,304,461,639,1.89157847,2.86962871,3.97944262,0.78653576,1.03781811,1.26061455
20005,0,USKansasAtchison,Kansas,Atchison,2021-01-05 23:12:50.012454,2020-12-20 00:00:00.000000,4.25220626,6.19259182,8.01316261,683,995,1287,293,455,623,1.82450623,2.83547499,3.87746272,0.78909976,1.01548169,1.22173315
20005,0,USKansasAtchison,Kansas,Atchison,2021-01-05 23:12:50.012454,2020-12-21 00:00:00.000000,4.09944921,6.00704059,7.76301191,658,965,1247,282,447,606,1.75863560,2.78640663,3.77134216,0.79088512,1.00114113,1.21872353
20005,0,USKansasAtchison,Kansas,Atchison,2021-01-05 23:12:50.012454,2020-12-22 00:00:00.000000,3.94999344,5.84264304,7.51310172,634,939,1207,273,436,588,1.70230165,2.71395998,3.66355311,0.79090480,0.99642551,1.21527367
20005,0,USKansasAtchison,Kansas,Atchison,2021-01-05 23:12:50.012454,2020-12-23 00:00:00.000000,3.75028715,5.67733358,7.30311200,602,912,1173,265,424,571,1.65006205,2.63931887,3.55411708,0.79107153,0.99037545,1.21184980
20005,0,USKansasAtchison,Kansas,Atchison,2021-01-05 23:12:50.012454,2020-12-24 00:00:00.000000,3.55058839,5.48053409,7.12607332,570,880,1145,257,411,552,1.59904113,2.56323495,3.44014318,0.79051722,0.98183150,1.20485202
20005,0,USKansasAtchison,Kansas,Atchison,2021-01-05 23:12:50.012454,2020-12-25 00:00:00.000000,3.35941367,5.27939712,6.91108361,539,848,1110,249,399,533,1.54930301,2.48633107,3.31809312,0.72799928,0.95163667,1.18975000
20005,0,USKansasAtchison,Kansas,Atchison,2021-01-05 23:12:50.012454,2020-12-26 00:00:00.000000,3.17597431,5.06691900,6.66520103,510,814,1071,241,386,512,1.50139038,2.40259592,3.19144749,0.65645966,0.87926021,1.20091363
20005,0,USKansasAtchison,Kansas,Atchison,2021-01-05 23:12:50.012454,2020-12-27 00:00:00.000000,3.03968254,4.85803810,6.41291786,488,780,1030,234,372,492,1.45660068,2.31604923,3.06275494,0.64714074,0.83948192,1.20505500
20005,0,USKansasAtchison,Kansas,Atchison,2021-01-05 23:12:50.012454,2020-12-28 00:00:00.000000,2.91715367,4.61178774,6.21072499,468,741,998,224,357,471,1.39654631,2.22725794,2.93383321,0.64726227,0.87323309,1.19274740
20005,0,USKansasAtchison,Kansas,Atchison,2021-01-05 23:12:50.012454,2020-12-29 00:00:00.000000,2.79066174,4.41661068,5.95269937,448,709,956,213,341,459,1.32850571,2.12510787,2.85869002,0.63686547,0.86174845,1.21165917
20005,0,USKansasAtchison,Kansas,Atchison,2021-01-05 23:12:50.012454,2020-12-30 00:00:00.000000,2.66357882,4.21051210,5.69452661,428,676,915,202,324,447,1.25970116,2.02055893,2.78498055,0.63561379,0.84563576,1.21937117
20005,0,USKansasAtchison,Kansas,Atchison,2021-01-05 23:12:50.012454,2020-12-31 00:00:00.000000,2.53860154,4.02899214,5.43836411,408,647,874,191,307,434,1.19171996,1.91515641,2.70500113,0.63040436,0.82017780,1.22032599
20005,0,USKansasAtchison,Kansas,Atchison,2021-01-05 23:12:50.012454,2021-01-01 00:00:00.000000,2.41725986,3.79678291,5.18132806,388,610,832,181,294,421,1.12738655,1.82974770,2.62034782,0.61273397,0.79420292,1.23227486
20005,0,USKansasAtchison,Kansas,Atchison,2021-01-05 23:12:50.012454,2021-01-02 00:00:00.000000,2.30007803,3.56684775,4.92588039,369,573,791,172,278,406,1.07073871,1.73398290,2.53192215,0.58896880,0.79277061,1.23792086
20005,0,USKansasAtchison,Kansas,Atchison,2021-01-05 23:12:50.012454,2021-01-03 00:00:00.000000,2.18736717,3.34680575,4.69682746,351,537,754,163,262,392,1.01600751,1.63076985,2.44019783,0.56750058,0.79312597,1.24368235
20005,0,USKansasAtchison,Kansas,Atchison,2021-01-05 23:12:50.012454,2021-01-04 00:00:00.000000,2.07923927,3.15795219,4.47485709,334,507,719,154,245,376,0.96272319,1.52446272,2.34544630,0.54614138,0.79250269,1.24714080
20005,0,USKansasAtchison,Kansas,Atchison,2021-01-05 23:12:50.012454,2021-01-05 00:00:00.000000,1.97569409,2.99766420,4.25973858,317,481,684,146,230,361,0.91237224,1.43151086,2.24794970,0.52882462,0.81065864,1.24856758
20005,0,USKansasAtchison,Kansas,Atchison,2021-01-05 23:12:50.012454,2021-01-06 00:00:00.000000,1.87666578,2.80388930,4.05167923,301,450,651,138,219,345,0.86360705,1.36509447,2.14816946,0.51607566,0.81077641,1.24906238
20005,0,USKansasAtchison,Kansas,Atchison,2021-01-05 23:12:50.012454,2021-01-07 00:00:00.000000,1.78205008,2.63745904,3.85082312,286,423,618,131,209,328,0.81705892,1.30642436,2.04681924,0.50734446,0.81087572,1.24961545
20005,0,USKansasAtchison,Kansas,Atchison,2021-01-05 23:12:50.012454,2021-01-08 00:00:00.000000,1.67549550,2.48879586,3.65725840,269,400,587,124,199,312,0.77269831,1.24362946,1.94482464,0.50165738,0.81094083,1.25014095
20005,0,USKansasAtchison,Kansas,Atchison,2021-01-05 23:12:50.012454,2021-01-09 00:00:00.000000,1.55590547,2.31869071,3.47102381,250,372,557,117,187,296,0.73050475,1.16708797,1.84320816,0.49807314,0.81097805,1.25037122
20005,0,USKansasAtchison,Kansas,Atchison,2021-01-05 23:12:50.012454,2021-01-10 00:00:00.000000,1.44430722,2.18863630,3.29211466,232,351,529,110,176,280,0.69043199,1.09531192,1.74296236,0.49589271,0.81099802,1.25047199
20005,0,USKansasAtchison,Kansas,Atchison,2021-01-05 23:12:50.012454,2021-01-11 00:00:00.000000,1.34027213,2.04398098,3.12048818,215,328,501,104,166,264,0.64972908,1.03845110,1.64495598,0.49458183,0.81100840,1.25051606
20005,0,USKansasAtchison,Kansas,Atchison,2021-01-05 23:12:50.012454,2021-01-12 00:00:00.000000,1.24336818,1.92513682,2.95606848,199,309,475,96,157,249,0.60342461,0.97986254,1.54988635,0.49378934,0.81101368,1.25053533
20005,0,USKansasAtchison,Kansas,Atchison,2021-01-05 23:12:50.012454,2021-01-13 00:00:00.000000,1.15316938,1.80832253,2.79826215,185,290,449,90,149,234,0.56005244,0.92951276,1.45827023,0.49331249,0.81101634,1.25054375
20005,0,USKansasAtchison,Kansas,Atchison,2021-01-05 23:12:50.012454,2021-01-14 00:00:00.000000,1.06926173,1.69491875,2.64720436,171,272,425,83,139,220,0.51963402,0.86514903,1.37045857,0.49302638,0.81101767,1.25054743
20005,0,USKansasAtchison,Kansas,Atchison,2021-01-05 23:12:50.012454,2021-01-15 00:00:00.000000,0.99124684,1.58818602,2.48688404,159,255,399,77,128,206,0.48199807,0.79810869,1.28666242,0.49285501,0.81101833,1.25054904
20005,0,USKansasAtchison,Kansas,Atchison,2021-01-05 23:12:50.012454,2021-01-16 00:00:00.000000,0.91874398,1.48779324,2.32879008,147,239,374,71,120,193,0.44697635,0.74715105,1.20698132,0.49271542,0.81101866,1.25054975
20005,0,USKansasAtchison,Kansas,Atchison,2021-01-05 23:12:50.012454,2021-01-17 00:00:00.000000,0.85139117,1.40189166,2.17971856,136,225,350,66,111,181,0.41440582,0.69669635,1.13142976,0.49197578,0.81101882,1.25055005
