FIPS,HR_UID,nameid,province,region,analysisTime,dates,pointprevalence_025,pointprevalence_50,pointprevalence_975,pointinfections_025,pointinfections_50,pointinfections_975,pointinfectious_025,pointinfectious_50,pointinfectious_975,pointinfectiousprevalence_05,pointinfectiousprevalence_50,pointinfectiousprevalence_95,infectrate_025,infectrate_50,infectrate_975
54061,0,USWestVirginiaMonongalia,West Virginia,Monongalia,2021-01-05 06:02:38.326206,2020-03-09 00:00:00.000000,0.00489677,0.01048186,0.02144184,5,11,22,1,4,11,0.00168639,0.00419220,0.01083715,0.47631355,0.64802569,0.82783162
54061,0,USWestVirginiaMonongalia,West Virginia,Monongalia,2021-01-05 06:02:38.326206,2020-03-10 00:00:00.000000,0.00644506,0.01307588,0.02555193,6,13,26,2,5,13,0.00272606,0.00561526,0.01293026,0.47631478,0.64776613,0.82782893
54061,0,USWestVirginiaMonongalia,West Virginia,Monongalia,2021-01-05 06:02:38.326206,2020-03-11 00:00:00.000000,0.00832498,0.01614871,0.03056682,8,17,32,3,7,16,0.00363720,0.00742662,0.01583986,0.47632032,0.64527579,0.82782196
54061,0,USWestVirginiaMonongalia,West Virginia,Monongalia,2021-01-05 06:02:38.326206,2020-03-12 00:00:00.000000,0.01039564,0.01932808,0.03918717,10,20,41,4,10,20,0.00465969,0.00972775,0.01905245,0.47634508,0.64272531,0.82780373
54061,0,USWestVirginiaMonongalia,West Virginia,Monongalia,2021-01-05 06:02:38.326206,2020-03-13 00:00:00.000000,0.01266045,0.02440466,0.04698518,13,25,49,6,13,24,0.00584436,0.01237475,0.02318117,0.47645496,0.64188507,0.82775556
54061,0,USWestVirginiaMonongalia,West Virginia,Monongalia,2021-01-05 06:02:38.326206,2020-03-14 00:00:00.000000,0.01513917,0.02975071,0.05672599,15,31,59,7,15,29,0.00715291,0.01463949,0.02797390,0.47693812,0.64016876,0.82762701
54061,0,USWestVirginiaMonongalia,West Virginia,Monongalia,2021-01-05 06:02:38.326206,2020-03-15 00:00:00.000000,0.01735495,0.03558967,0.06827369,18,37,72,8,18,35,0.00851793,0.01742631,0.03355986,0.47900052,0.63822898,0.82728171
54061,0,USWestVirginiaMonongalia,West Virginia,Monongalia,2021-01-05 06:02:38.326206,2020-03-16 00:00:00.000000,0.02072060,0.04191229,0.07896382,21,44,83,10,22,43,0.00975607,0.02094007,0.04157776,0.48614529,0.63821291,0.81802408
54061,0,USWestVirginiaMonongalia,West Virginia,Monongalia,2021-01-05 06:02:38.326206,2020-03-17 00:00:00.000000,0.02377255,0.04889117,0.08906660,25,51,94,12,25,50,0.01156156,0.02428005,0.04796639,0.47163482,0.63502512,0.81380445
54061,0,USWestVirginiaMonongalia,West Virginia,Monongalia,2021-01-05 06:02:38.326206,2020-03-18 00:00:00.000000,0.02707382,0.05521840,0.10148609,28,58,107,14,30,54,0.01357006,0.02846685,0.05205829,0.46746069,0.62225634,0.81362970
54061,0,USWestVirginiaMonongalia,West Virginia,Monongalia,2021-01-05 06:02:38.326206,2020-03-19 00:00:00.000000,0.03072768,0.06389319,0.11532740,32,67,121,16,35,60,0.01563229,0.03326814,0.05715844,0.45920463,0.61308023,0.79459696
54061,0,USWestVirginiaMonongalia,West Virginia,Monongalia,2021-01-05 06:02:38.326206,2020-03-20 00:00:00.000000,0.03468308,0.07116371,0.13080246,36,75,138,18,39,68,0.01798410,0.03727053,0.06442876,0.44284096,0.59453341,0.75096270
54061,0,USWestVirginiaMonongalia,West Virginia,Monongalia,2021-01-05 06:02:38.326206,2020-03-21 00:00:00.000000,0.03788291,0.07898645,0.14583854,40,83,154,21,43,76,0.01990405,0.04159809,0.07218199,0.43174318,0.57346384,0.74283512
54061,0,USWestVirginiaMonongalia,West Virginia,Monongalia,2021-01-05 06:02:38.326206,2020-03-22 00:00:00.000000,0.04173077,0.08726434,0.15960696,44,92,168,23,49,86,0.02251724,0.04656759,0.08149628,0.40501855,0.55925973,0.73637058
54061,0,USWestVirginiaMonongalia,West Virginia,Monongalia,2021-01-05 06:02:38.326206,2020-03-23 00:00:00.000000,0.04561487,0.09582431,0.17399449,48,101,183,25,55,96,0.02454067,0.05221946,0.09167350,0.39645177,0.54371275,0.72157409
54061,0,USWestVirginiaMonongalia,West Virginia,Monongalia,2021-01-05 06:02:38.326206,2020-03-24 00:00:00.000000,0.04971201,0.10421006,0.18909497,52,110,199,28,60,109,0.02655715,0.05733168,0.10379078,0.37181989,0.51127075,0.69368066
54061,0,USWestVirginiaMonongalia,West Virginia,Monongalia,2021-01-05 06:02:38.326206,2020-03-25 00:00:00.000000,0.05385435,0.11261417,0.20520985,56,118,216,30,64,123,0.02867345,0.06142525,0.11695855,0.35563949,0.48605186,0.66075942
54061,0,USWestVirginiaMonongalia,West Virginia,Monongalia,2021-01-05 06:02:38.326206,2020-03-26 00:00:00.000000,0.05818591,0.11978536,0.21859367,61,126,230,32,70,136,0.03091074,0.06661106,0.12936777,0.33327310,0.45908852,0.62595935
54061,0,USWestVirginiaMonongalia,West Virginia,Monongalia,2021-01-05 06:02:38.326206,2020-03-27 00:00:00.000000,0.06257359,0.12805489,0.22743832,66,135,240,35,75,145,0.03342990,0.07122395,0.13811724,0.30573096,0.43868247,0.58009728
54061,0,USWestVirginiaMonongalia,West Virginia,Monongalia,2021-01-05 06:02:38.326206,2020-03-28 00:00:00.000000,0.06719586,0.13239656,0.23384663,70,139,246,38,80,151,0.03604948,0.07625621,0.14364301,0.28592448,0.41920880,0.57826570
54061,0,USWestVirginiaMonongalia,West Virginia,Monongalia,2021-01-05 06:02:38.326206,2020-03-29 00:00:00.000000,0.07180265,0.13786001,0.23548903,75,145,248,40,84,156,0.03876913,0.07994914,0.14774259,0.26864426,0.39899223,0.55401990
54061,0,USWestVirginiaMonongalia,West Virginia,Monongalia,2021-01-05 06:02:38.326206,2020-03-30 00:00:00.000000,0.08026261,0.14423192,0.23560449,84,152,248,43,87,157,0.04152712,0.08253936,0.14900534,0.26086135,0.37635039,0.52913361
54061,0,USWestVirginiaMonongalia,West Virginia,Monongalia,2021-01-05 06:02:38.326206,2020-03-31 00:00:00.000000,0.08358315,0.15156433,0.23957412,88,160,253,48,91,156,0.04569725,0.08620440,0.14844649,0.25124907,0.36218300,0.49198393
54061,0,USWestVirginiaMonongalia,West Virginia,Monongalia,2021-01-05 06:02:38.326206,2020-04-01 00:00:00.000000,0.08582083,0.15313201,0.24203649,90,161,255,49,95,161,0.04724545,0.09060965,0.15261187,0.24688858,0.34851746,0.46151514
54061,0,USWestVirginiaMonongalia,West Virginia,Monongalia,2021-01-05 06:02:38.326206,2020-04-02 00:00:00.000000,0.08802309,0.15765667,0.24351413,92,166,257,52,98,163,0.04957011,0.09317879,0.15509927,0.22547530,0.33906683,0.44790558
54061,0,USWestVirginiaMonongalia,West Virginia,Monongalia,2021-01-05 06:02:38.326206,2020-04-03 00:00:00.000000,0.09020302,0.15742916,0.24523356,95,166,258,55,100,165,0.05285338,0.09533761,0.15661547,0.22490065,0.32693955,0.43414275
54061,0,USWestVirginiaMonongalia,West Virginia,Monongalia,2021-01-05 06:02:38.326206,2020-04-04 00:00:00.000000,0.09240905,0.15611756,0.25065923,97,164,264,58,99,164,0.05544048,0.09461185,0.15540112,0.21538433,0.31374216,0.41836751
54061,0,USWestVirginiaMonongalia,West Virginia,Monongalia,2021-01-05 06:02:38.326206,2020-04-05 00:00:00.000000,0.09153441,0.15306387,0.25556560,96,161,269,58,98,163,0.05515151,0.09365448,0.15507056,0.20445517,0.30034193,0.39923640
54061,0,USWestVirginiaMonongalia,West Virginia,Monongalia,2021-01-05 06:02:38.326206,2020-04-06 00:00:00.000000,0.09069703,0.15102276,0.24680312,95,159,260,56,97,160,0.05307090,0.09266803,0.15183777,0.19249668,0.29069599,0.38696007
54061,0,USWestVirginiaMonongalia,West Virginia,Monongalia,2021-01-05 06:02:38.326206,2020-04-07 00:00:00.000000,0.09072889,0.14711625,0.23714546,95,155,250,55,96,156,0.05274921,0.09138805,0.14811542,0.19086537,0.28114381,0.37141485
54061,0,USWestVirginiaMonongalia,West Virginia,Monongalia,2021-01-05 06:02:38.326206,2020-04-08 00:00:00.000000,0.08929964,0.14574167,0.22711552,94,153,239,53,96,152,0.05090400,0.09102410,0.14412908,0.18913269,0.27177452,0.36721815
54061,0,USWestVirginiaMonongalia,West Virginia,Monongalia,2021-01-05 06:02:38.326206,2020-04-09 00:00:00.000000,0.08604453,0.14276756,0.21873592,90,150,231,53,95,148,0.05030968,0.09039309,0.14020970,0.18448815,0.26051064,0.35265855
54061,0,USWestVirginiaMonongalia,West Virginia,Monongalia,2021-01-05 06:02:38.326206,2020-04-10 00:00:00.000000,0.08152688,0.14026636,0.21771661,86,148,229,52,93,146,0.04968223,0.08855924,0.13849870,0.17388920,0.25371011,0.33390138
54061,0,USWestVirginiaMonongalia,West Virginia,Monongalia,2021-01-05 06:02:38.326206,2020-04-11 00:00:00.000000,0.07712389,0.13465590,0.21866499,81,142,230,50,91,146,0.04763189,0.08702462,0.13877087,0.16121113,0.24255943,0.32088990
54061,0,USWestVirginiaMonongalia,West Virginia,Monongalia,2021-01-05 06:02:38.326206,2020-04-12 00:00:00.000000,0.07233613,0.12790834,0.21850247,76,135,230,47,88,147,0.04504272,0.08393015,0.13944801,0.14728587,0.23388343,0.31921630
54061,0,USWestVirginiaMonongalia,West Virginia,Monongalia,2021-01-05 06:02:38.326206,2020-04-13 00:00:00.000000,0.06973471,0.12171785,0.21684183,73,128,229,44,85,147,0.04259768,0.08113446,0.13948474,0.14612592,0.22789735,0.31319501
54061,0,USWestVirginiaMonongalia,West Virginia,Monongalia,2021-01-05 06:02:38.326206,2020-04-14 00:00:00.000000,0.06689385,0.11889586,0.21351463,70,125,225,42,82,146,0.04063499,0.07809396,0.13859075,0.14614995,0.22589271,0.30185284
54061,0,USWestVirginiaMonongalia,West Virginia,Monongalia,2021-01-05 06:02:38.326206,2020-04-15 00:00:00.000000,0.06438374,0.11850389,0.20905772,67,125,220,41,79,144,0.03897945,0.07485861,0.13662903,0.14366562,0.22341037,0.28092222
54061,0,USWestVirginiaMonongalia,West Virginia,Monongalia,2021-01-05 06:02:38.326206,2020-04-16 00:00:00.000000,0.06179227,0.11321643,0.20364686,65,119,215,39,75,141,0.03750845,0.07160627,0.13386648,0.13468616,0.21641050,0.27480345
54061,0,USWestVirginiaMonongalia,West Virginia,Monongalia,2021-01-05 06:02:38.326206,2020-04-17 00:00:00.000000,0.05844740,0.10864434,0.19446161,61,114,205,37,74,137,0.03569033,0.07062226,0.13048530,0.13262568,0.21399342,0.27394312
54061,0,USWestVirginiaMonongalia,West Virginia,Monongalia,2021-01-05 06:02:38.326206,2020-04-18 00:00:00.000000,0.05536940,0.10362334,0.18296468,58,109,193,36,72,133,0.03442027,0.06860709,0.12625307,0.13211662,0.21016069,0.27216958
54061,0,USWestVirginiaMonongalia,West Virginia,Monongalia,2021-01-05 06:02:38.326206,2020-04-19 00:00:00.000000,0.05280625,0.09931756,0.17138221,55,104,181,34,68,125,0.03308656,0.06452846,0.11921490,0.12229357,0.20401361,0.25779505
54061,0,USWestVirginiaMonongalia,West Virginia,Monongalia,2021-01-05 06:02:38.326206,2020-04-20 00:00:00.000000,0.05099384,0.09511995,0.16050315,53,100,169,33,65,118,0.03161676,0.06198094,0.11198274,0.12065012,0.19933795,0.25747754
54061,0,USWestVirginiaMonongalia,West Virginia,Monongalia,2021-01-05 06:02:38.326206,2020-04-21 00:00:00.000000,0.04964864,0.09081159,0.15111222,52,95,159,31,63,110,0.02997146,0.06002896,0.10500789,0.12063633,0.19552768,0.27318966
54061,0,USWestVirginiaMonongalia,West Virginia,Monongalia,2021-01-05 06:02:38.326206,2020-04-22 00:00:00.000000,0.04864181,0.08737053,0.14857618,51,92,156,30,60,103,0.02843461,0.05747828,0.09827864,0.12064762,0.19063618,0.27492560
54061,0,USWestVirginiaMonongalia,West Virginia,Monongalia,2021-01-05 06:02:38.326206,2020-04-23 00:00:00.000000,0.04800980,0.08348897,0.14362146,50,88,151,29,58,101,0.02782055,0.05503677,0.09604166,0.12072371,0.18401083,0.27311305
54061,0,USWestVirginiaMonongalia,West Virginia,Monongalia,2021-01-05 06:02:38.326206,2020-04-24 00:00:00.000000,0.04760590,0.08041058,0.14178044,50,84,149,28,55,99,0.02740697,0.05234039,0.09429958,0.12110241,0.18100589,0.26659684
54061,0,USWestVirginiaMonongalia,West Virginia,Monongalia,2021-01-05 06:02:38.326206,2020-04-25 00:00:00.000000,0.04591535,0.07711252,0.13806893,48,81,145,28,52,97,0.02714304,0.04957343,0.09257091,0.12289109,0.18220917,0.25695695
54061,0,USWestVirginiaMonongalia,West Virginia,Monongalia,2021-01-05 06:02:38.326206,2020-04-26 00:00:00.000000,0.04254434,0.07274021,0.13499720,44,76,142,28,50,94,0.02695625,0.04810637,0.08928928,0.12808293,0.17990958,0.24771455
54061,0,USWestVirginiaMonongalia,West Virginia,Monongalia,2021-01-05 06:02:38.326206,2020-04-27 00:00:00.000000,0.04025954,0.07000125,0.13332433,42,73,140,27,47,93,0.02625523,0.04531938,0.08885145,0.12340817,0.17946503,0.24451247
54061,0,USWestVirginiaMonongalia,West Virginia,Monongalia,2021-01-05 06:02:38.326206,2020-04-28 00:00:00.000000,0.03824559,0.06668524,0.13163284,40,70,139,26,45,92,0.02466764,0.04299256,0.08743081,0.12071056,0.17825415,0.24929310
54061,0,USWestVirginiaMonongalia,West Virginia,Monongalia,2021-01-05 06:02:38.326206,2020-04-29 00:00:00.000000,0.03650406,0.06462239,0.13008800,38,68,137,24,43,91,0.02337520,0.04111972,0.08622872,0.11954351,0.18067276,0.25528151
54061,0,USWestVirginiaMonongalia,West Virginia,Monongalia,2021-01-05 06:02:38.326206,2020-04-30 00:00:00.000000,0.03496135,0.06207647,0.12860153,36,65,135,23,41,89,0.02227056,0.03944504,0.08515399,0.11969533,0.18171586,0.25696535
54061,0,USWestVirginiaMonongalia,West Virginia,Monongalia,2021-01-05 06:02:38.326206,2020-05-01 00:00:00.000000,0.03357791,0.05926329,0.12596450,35,62,133,22,39,88,0.02129881,0.03784076,0.08417010,0.11998645,0.18382886,0.25857489
54061,0,USWestVirginiaMonongalia,West Virginia,Monongalia,2021-01-05 06:02:38.326206,2020-05-02 00:00:00.000000,0.03232534,0.05627806,0.12019256,34,59,126,21,38,86,0.02043072,0.03636707,0.08143963,0.12045297,0.18705214,0.25876043
54061,0,USWestVirginiaMonongalia,West Virginia,Monongalia,2021-01-05 06:02:38.326206,2020-05-03 00:00:00.000000,0.02945566,0.05470264,0.11462520,31,57,121,20,37,82,0.01964994,0.03523257,0.07779491,0.12263506,0.18890516,0.25795475
54061,0,USWestVirginiaMonongalia,West Virginia,Monongalia,2021-01-05 06:02:38.326206,2020-05-04 00:00:00.000000,0.02857273,0.05470388,0.10917185,30,57,115,19,35,78,0.01814945,0.03388663,0.07421295,0.12581503,0.18958634,0.25901187
54061,0,USWestVirginiaMonongalia,West Virginia,Monongalia,2021-01-05 06:02:38.326206,2020-05-05 00:00:00.000000,0.02795403,0.05394494,0.10401334,29,56,109,18,35,74,0.01755743,0.03315869,0.07073052,0.12329870,0.19156503,0.26025447
54061,0,USWestVirginiaMonongalia,West Virginia,Monongalia,2021-01-05 06:02:38.326206,2020-05-06 00:00:00.000000,0.02766928,0.05299015,0.09915119,29,55,104,18,33,71,0.01730996,0.03203900,0.06739876,0.12357066,0.19314605,0.26058545
54061,0,USWestVirginiaMonongalia,West Virginia,Monongalia,2021-01-05 06:02:38.326206,2020-05-07 00:00:00.000000,0.02748320,0.05116205,0.09458870,29,54,99,18,33,67,0.01716522,0.03152664,0.06424065,0.12461466,0.19419599,0.26307406
54061,0,USWestVirginiaMonongalia,West Virginia,Monongalia,2021-01-05 06:02:38.326206,2020-05-08 00:00:00.000000,0.02733018,0.04978982,0.09032569,28,52,95,18,32,64,0.01705363,0.03107767,0.06126518,0.12270822,0.19746730,0.27145153
54061,0,USWestVirginiaMonongalia,West Virginia,Monongalia,2021-01-05 06:02:38.326206,2020-05-09 00:00:00.000000,0.02789888,0.04834937,0.08636148,29,51,91,17,32,61,0.01695729,0.03050089,0.05847527,0.12474576,0.19772355,0.27167890
54061,0,USWestVirginiaMonongalia,West Virginia,Monongalia,2021-01-05 06:02:38.326206,2020-05-10 00:00:00.000000,0.02797848,0.04740951,0.08269294,29,50,87,17,31,59,0.01680343,0.03000246,0.05587164,0.13078931,0.19893543,0.27198829
54061,0,USWestVirginiaMonongalia,West Virginia,Monongalia,2021-01-05 06:02:38.326206,2020-05-11 00:00:00.000000,0.02709729,0.04553249,0.07938431,28,48,83,17,30,56,0.01643213,0.02924061,0.05345338,0.13524717,0.20107411,0.27237017
54061,0,USWestVirginiaMonongalia,West Virginia,Monongalia,2021-01-05 06:02:38.326206,2020-05-12 00:00:00.000000,0.02609693,0.04378344,0.07633796,27,46,80,17,29,54,0.01635005,0.02830278,0.05124179,0.13967581,0.20034650,0.28302530
54061,0,USWestVirginiaMonongalia,West Virginia,Monongalia,2021-01-05 06:02:38.326206,2020-05-13 00:00:00.000000,0.02530218,0.04423861,0.07713647,26,46,81,16,29,51,0.01585940,0.02752887,0.04921401,0.14164751,0.20197862,0.28842052
54061,0,USWestVirginiaMonongalia,West Virginia,Monongalia,2021-01-05 06:02:38.326206,2020-05-14 00:00:00.000000,0.02459406,0.04337890,0.07897965,25,45,83,16,28,51,0.01541346,0.02678851,0.04886230,0.14472798,0.20249246,0.29002474
54061,0,USWestVirginiaMonongalia,West Virginia,Monongalia,2021-01-05 06:02:38.326206,2020-05-15 00:00:00.000000,0.02395423,0.04250526,0.07902637,25,44,83,15,28,52,0.01495170,0.02682518,0.05003980,0.14734569,0.20680178,0.29263579
54061,0,USWestVirginiaMonongalia,West Virginia,Monongalia,2021-01-05 06:02:38.326206,2020-05-16 00:00:00.000000,0.02336553,0.04308589,0.07737371,24,45,81,15,28,53,0.01432294,0.02664990,0.05021357,0.15062315,0.21529294,0.29426883
54061,0,USWestVirginiaMonongalia,West Virginia,Monongalia,2021-01-05 06:02:38.326206,2020-05-17 00:00:00.000000,0.02281959,0.04349488,0.07640773,24,45,80,14,28,51,0.01373610,0.02676867,0.04907760,0.15389118,0.22013933,0.29523807
54061,0,USWestVirginiaMonongalia,West Virginia,Monongalia,2021-01-05 06:02:38.326206,2020-05-18 00:00:00.000000,0.02211918,0.04300160,0.07780556,23,45,82,13,28,51,0.01320572,0.02652718,0.04834530,0.15722401,0.22302912,0.30178672
54061,0,USWestVirginiaMonongalia,West Virginia,Monongalia,2021-01-05 06:02:38.326206,2020-05-19 00:00:00.000000,0.02207121,0.04338841,0.07944221,23,45,83,13,28,51,0.01306453,0.02692451,0.04880861,0.15777670,0.23070295,0.30467647
54061,0,USWestVirginiaMonongalia,West Virginia,Monongalia,2021-01-05 06:02:38.326206,2020-05-20 00:00:00.000000,0.02193704,0.04425347,0.08133190,23,46,85,13,28,52,0.01307486,0.02721585,0.04977907,0.16269047,0.24041134,0.30506357
54061,0,USWestVirginiaMonongalia,West Virginia,Monongalia,2021-01-05 06:02:38.326206,2020-05-21 00:00:00.000000,0.02192170,0.04402121,0.08334174,23,46,88,13,28,53,0.01315173,0.02682505,0.05094806,0.17375340,0.24215631,0.30873558
54061,0,USWestVirginiaMonongalia,West Virginia,Monongalia,2021-01-05 06:02:38.326206,2020-05-22 00:00:00.000000,0.02200394,0.04339981,0.08565120,23,45,90,14,28,55,0.01326975,0.02684162,0.05220142,0.17519905,0.24703585,0.32635332
54061,0,USWestVirginiaMonongalia,West Virginia,Monongalia,2021-01-05 06:02:38.326206,2020-05-23 00:00:00.000000,0.02212949,0.04387215,0.08829823,23,46,93,14,28,56,0.01345050,0.02690675,0.05360537,0.17447561,0.24715838,0.33852499
54061,0,USWestVirginiaMonongalia,West Virginia,Monongalia,2021-01-05 06:02:38.326206,2020-05-24 00:00:00.000000,0.02227340,0.04534818,0.09102479,23,47,96,14,28,58,0.01372296,0.02669308,0.05521054,0.17306581,0.25343330,0.35444639
54061,0,USWestVirginiaMonongalia,West Virginia,Monongalia,2021-01-05 06:02:38.326206,2020-05-25 00:00:00.000000,0.02371668,0.04477893,0.09218655,25,47,97,14,28,60,0.01409307,0.02668373,0.05691234,0.17295017,0.25845716,0.37217007
54061,0,USWestVirginiaMonongalia,West Virginia,Monongalia,2021-01-05 06:02:38.326206,2020-05-26 00:00:00.000000,0.02504223,0.04474721,0.09338030,26,47,98,14,28,61,0.01411464,0.02658839,0.05791932,0.17321348,0.26408838,0.38963299
54061,0,USWestVirginiaMonongalia,West Virginia,Monongalia,2021-01-05 06:02:38.326206,2020-05-27 00:00:00.000000,0.02576576,0.04504418,0.09450272,27,47,99,15,28,61,0.01429085,0.02697739,0.05868350,0.17454844,0.27004999,0.39825165
54061,0,USWestVirginiaMonongalia,West Virginia,Monongalia,2021-01-05 06:02:38.326206,2020-05-28 00:00:00.000000,0.02499011,0.04467662,0.09568637,26,47,101,16,28,62,0.01545889,0.02677484,0.05938650,0.17913417,0.27763430,0.40472044
54061,0,USWestVirginiaMonongalia,West Virginia,Monongalia,2021-01-05 06:02:38.326206,2020-05-29 00:00:00.000000,0.02457141,0.04653632,0.09702610,25,49,102,15,28,63,0.01494608,0.02721676,0.06011574,0.18749068,0.28383779,0.41100481
54061,0,USWestVirginiaMonongalia,West Virginia,Monongalia,2021-01-05 06:02:38.326206,2020-05-30 00:00:00.000000,0.02552563,0.04787512,0.09860906,26,50,104,15,29,64,0.01463358,0.02803982,0.06093054,0.19381358,0.29168874,0.41740543
54061,0,USWestVirginiaMonongalia,West Virginia,Monongalia,2021-01-05 06:02:38.326206,2020-05-31 00:00:00.000000,0.02702159,0.04829240,0.10051000,28,51,106,15,30,65,0.01451514,0.02851374,0.06188466,0.20561632,0.30714865,0.42373212
54061,0,USWestVirginiaMonongalia,West Virginia,Monongalia,2021-01-05 06:02:38.326206,2020-06-01 00:00:00.000000,0.02752887,0.04927721,0.10189977,29,52,107,16,30,66,0.01537448,0.02933498,0.06302654,0.20944371,0.31845698,0.42969241
54061,0,USWestVirginiaMonongalia,West Virginia,Monongalia,2021-01-05 06:02:38.326206,2020-06-02 00:00:00.000000,0.02807052,0.04972228,0.10464659,29,52,110,16,31,67,0.01581321,0.02998601,0.06400133,0.20974911,0.32412695,0.43505084
54061,0,USWestVirginiaMonongalia,West Virginia,Monongalia,2021-01-05 06:02:38.326206,2020-06-03 00:00:00.000000,0.02907268,0.05191714,0.10886873,30,54,114,17,32,68,0.01623299,0.03061755,0.06505070,0.21054377,0.33298975,0.47995364
54061,0,USWestVirginiaMonongalia,West Virginia,Monongalia,2021-01-05 06:02:38.326206,2020-06-04 00:00:00.000000,0.02935981,0.05400866,0.11066762,31,57,116,17,32,69,0.01693716,0.03095231,0.06621613,0.21242249,0.33939696,0.55372828
54061,0,USWestVirginiaMonongalia,West Virginia,Monongalia,2021-01-05 06:02:38.326206,2020-06-05 00:00:00.000000,0.02981666,0.05668004,0.11271057,31,59,119,17,33,71,0.01678672,0.03170843,0.06755129,0.22063430,0.35472269,0.55816008
54061,0,USWestVirginiaMonongalia,West Virginia,Monongalia,2021-01-05 06:02:38.326206,2020-06-06 00:00:00.000000,0.03031883,0.05950905,0.11498989,32,62,121,18,34,73,0.01717744,0.03292862,0.06969913,0.24203520,0.37028656,0.57495694
54061,0,USWestVirginiaMonongalia,West Virginia,Monongalia,2021-01-05 06:02:38.326206,2020-06-07 00:00:00.000000,0.03117476,0.06197433,0.12256963,32,65,129,18,36,77,0.01781897,0.03464408,0.07375409,0.24909989,0.39516932,0.58170970
54061,0,USWestVirginiaMonongalia,West Virginia,Monongalia,2021-01-05 06:02:38.326206,2020-06-08 00:00:00.000000,0.03272962,0.06393003,0.13185143,34,67,139,19,38,79,0.01852799,0.03646430,0.07549098,0.25559010,0.41473674,0.58537872
54061,0,USWestVirginiaMonongalia,West Virginia,Monongalia,2021-01-05 06:02:38.326206,2020-06-09 00:00:00.000000,0.03447925,0.06753666,0.13765618,36,71,145,20,40,83,0.01945669,0.03858440,0.07899126,0.28465415,0.44136430,0.59022259
54061,0,USWestVirginiaMonongalia,West Virginia,Monongalia,2021-01-05 06:02:38.326206,2020-06-10 00:00:00.000000,0.03671704,0.07158913,0.13975547,38,75,147,22,43,89,0.02084488,0.04081371,0.08498264,0.28755044,0.45603898,0.60948059
54061,0,USWestVirginiaMonongalia,West Virginia,Monongalia,2021-01-05 06:02:38.326206,2020-06-11 00:00:00.000000,0.03971163,0.07917658,0.14688794,41,83,155,23,46,93,0.02246490,0.04413510,0.08853757,0.28995299,0.47675374,0.69001851
54061,0,USWestVirginiaMonongalia,West Virginia,Monongalia,2021-01-05 06:02:38.326206,2020-06-12 00:00:00.000000,0.04367088,0.08553955,0.15766764,46,90,166,25,49,97,0.02454276,0.04679509,0.09202069,0.30529873,0.51006326,0.69642596
54061,0,USWestVirginiaMonongalia,West Virginia,Monongalia,2021-01-05 06:02:38.326206,2020-06-13 00:00:00.000000,0.05037260,0.09151377,0.17008033,53,96,179,28,53,104,0.02734197,0.05027588,0.09848128,0.31986958,0.53912432,0.75254217
54061,0,USWestVirginiaMonongalia,West Virginia,Monongalia,2021-01-05 06:02:38.326206,2020-06-14 00:00:00.000000,0.05699400,0.10047574,0.18419817,60,106,194,31,57,111,0.02974253,0.05442167,0.10593261,0.32868112,0.56208310,0.77165657
54061,0,USWestVirginiaMonongalia,West Virginia,Monongalia,2021-01-05 06:02:38.326206,2020-06-15 00:00:00.000000,0.06354944,0.11110031,0.20026345,67,117,211,34,62,120,0.03268972,0.05896411,0.11445019,0.39964247,0.59089184,0.77567613
54061,0,USWestVirginiaMonongalia,West Virginia,Monongalia,2021-01-05 06:02:38.326206,2020-06-16 00:00:00.000000,0.07243746,0.12515591,0.21779962,76,132,230,38,69,131,0.03635702,0.06581341,0.12415272,0.41210205,0.62202101,0.82176516
54061,0,USWestVirginiaMonongalia,West Virginia,Monongalia,2021-01-05 06:02:38.326206,2020-06-17 00:00:00.000000,0.08083081,0.14202507,0.24282399,85,149,256,42,78,142,0.04053687,0.07469377,0.13491060,0.43672608,0.63898760,0.84319269
54061,0,USWestVirginiaMonongalia,West Virginia,Monongalia,2021-01-05 06:02:38.326206,2020-06-18 00:00:00.000000,0.09072519,0.15850887,0.26809372,95,167,283,47,89,154,0.04485314,0.08455112,0.14667112,0.44515587,0.66233042,0.90814484
54061,0,USWestVirginiaMonongalia,West Virginia,Monongalia,2021-01-05 06:02:38.326206,2020-06-19 00:00:00.000000,0.09838593,0.18052030,0.30093386,103,190,317,54,101,168,0.05126037,0.09607114,0.15944827,0.46028462,0.69409788,0.94431943
54061,0,USWestVirginiaMonongalia,West Virginia,Monongalia,2021-01-05 06:02:38.326206,2020-06-20 00:00:00.000000,0.10728567,0.20930523,0.34611255,113,221,365,61,114,182,0.05857490,0.10810269,0.17298225,0.51935203,0.73979533,0.97490169
54061,0,USWestVirginiaMonongalia,West Virginia,Monongalia,2021-01-05 06:02:38.326206,2020-06-21 00:00:00.000000,0.11782292,0.23922772,0.40221948,124,252,424,71,128,207,0.06764984,0.12159453,0.19683194,0.53981962,0.78124142,1.00481466
54061,0,USWestVirginiaMonongalia,West Virginia,Monongalia,2021-01-05 06:02:38.326206,2020-06-22 00:00:00.000000,0.13784862,0.27507733,0.46677854,145,290,492,80,146,238,0.07648926,0.13883459,0.22613389,0.56062366,0.80663349,1.00864271
54061,0,USWestVirginiaMonongalia,West Virginia,Monongalia,2021-01-05 06:02:38.326206,2020-06-23 00:00:00.000000,0.16106496,0.31733459,0.54148431,170,335,571,93,169,275,0.08807126,0.16076916,0.26039580,0.60197231,0.83148201,1.01001808
54061,0,USWestVirginiaMonongalia,West Virginia,Monongalia,2021-01-05 06:02:38.326206,2020-06-24 00:00:00.000000,0.19552071,0.36954704,0.62780675,206,390,663,108,195,318,0.10263974,0.18475520,0.30133549,0.64287365,0.83963686,1.01054025
54061,0,USWestVirginiaMonongalia,West Virginia,Monongalia,2021-01-05 06:02:38.326206,2020-06-25 00:00:00.000000,0.23736629,0.42408046,0.72752445,250,447,768,127,229,369,0.12038804,0.21720961,0.35007801,0.68099125,0.86038872,1.01068279
54061,0,USWestVirginiaMonongalia,West Virginia,Monongalia,2021-01-05 06:02:38.326206,2020-06-26 00:00:00.000000,0.27959575,0.49488428,0.83951350,295,522,886,144,263,429,0.13702749,0.24931052,0.40700367,0.71700594,0.86732339,1.01049649
54061,0,USWestVirginiaMonongalia,West Virginia,Monongalia,2021-01-05 06:02:38.326206,2020-06-27 00:00:00.000000,0.32734434,0.57643191,0.96365113,345,608,1017,167,304,499,0.15862622,0.28786037,0.47325444,0.73869936,0.88631026,1.01287713
54061,0,USWestVirginiaMonongalia,West Virginia,Monongalia,2021-01-05 06:02:38.326206,2020-06-28 00:00:00.000000,0.37922081,0.67583447,1.10579029,400,713,1167,194,357,581,0.18398108,0.33856609,0.55015442,0.75842856,0.89053631,1.03880979
54061,0,USWestVirginiaMonongalia,West Virginia,Monongalia,2021-01-05 06:02:38.326206,2020-06-29 00:00:00.000000,0.44229848,0.77508086,1.26861340,467,818,1339,224,418,675,0.21228246,0.39631362,0.63920393,0.78439916,0.89376834,1.07263652
54061,0,USWestVirginiaMonongalia,West Virginia,Monongalia,2021-01-05 06:02:38.326206,2020-06-30 00:00:00.000000,0.51675325,0.90588079,1.45892369,545,956,1540,259,479,783,0.24552709,0.45368165,0.74218198,0.77313299,0.90215159,1.08190170
54061,0,USWestVirginiaMonongalia,West Virginia,Monongalia,2021-01-05 06:02:38.326206,2020-07-01 00:00:00.000000,0.60078422,1.04685995,1.67443210,634,1105,1768,301,547,906,0.28546896,0.51864806,0.85861719,0.76606110,0.90265785,1.08264226
54061,0,USWestVirginiaMonongalia,West Virginia,Monongalia,2021-01-05 06:02:38.326206,2020-07-02 00:00:00.000000,0.69828542,1.20453334,1.92040273,737,1272,2028,350,634,1042,0.33201317,0.60087597,0.98745785,0.74464178,0.90044586,1.07896652
54061,0,USWestVirginiaMonongalia,West Virginia,Monongalia,2021-01-05 06:02:38.326206,2020-07-03 00:00:00.000000,0.81114699,1.40140461,2.20398565,856,1480,2327,407,733,1182,0.38595854,0.69467102,1.11967326,0.68694596,0.88477950,1.06820875
54061,0,USWestVirginiaMonongalia,West Virginia,Monongalia,2021-01-05 06:02:38.326206,2020-07-04 00:00:00.000000,0.94169194,1.58403171,2.49907734,994,1672,2639,473,844,1334,0.44839862,0.79969972,1.26369387,0.62387829,0.86879769,1.04105235
54061,0,USWestVirginiaMonongalia,West Virginia,Monongalia,2021-01-05 06:02:38.326206,2020-07-05 00:00:00.000000,1.08968598,1.78748575,2.72123532,1150,1887,2873,549,971,1527,0.52063679,0.91997952,1.44623774,0.55241625,0.82660667,0.97896850
54061,0,USWestVirginiaMonongalia,West Virginia,Monongalia,2021-01-05 06:02:38.326206,2020-07-06 00:00:00.000000,1.24576624,1.96887009,2.91157581,1315,2079,3074,636,1090,1715,0.60290931,1.03244681,1.62463157,0.42434972,0.75573816,0.94114296
54061,0,USWestVirginiaMonongalia,West Virginia,Monongalia,2021-01-05 06:02:38.326206,2020-07-07 00:00:00.000000,1.39239580,2.15454581,3.00663103,1470,2275,3175,730,1195,1904,0.69121465,1.13161393,1.80306374,0.36361624,0.63154390,0.86943168
54061,0,USWestVirginiaMonongalia,West Virginia,Monongalia,2021-01-05 06:02:38.326206,2020-07-08 00:00:00.000000,1.50073948,2.25392734,3.16943204,1584,2380,3347,820,1334,2002,0.77661745,1.26392686,1.89640613,0.28473975,0.48962674,0.75027320
54061,0,USWestVirginiaMonongalia,West Virginia,Monongalia,2021-01-05 06:02:38.326206,2020-07-09 00:00:00.000000,1.55831610,2.30272610,3.22047793,1645,2431,3401,892,1436,2088,0.84541533,1.36017420,1.97745280,0.23949384,0.38277963,0.56355867
54061,0,USWestVirginiaMonongalia,West Virginia,Monongalia,2021-01-05 06:02:38.326206,2020-07-10 00:00:00.000000,1.57590436,2.26940746,3.22264218,1664,2396,3403,931,1459,2132,0.88229557,1.38227122,2.01921395,0.21821663,0.32836555,0.47469427
54061,0,USWestVirginiaMonongalia,West Virginia,Monongalia,2021-01-05 06:02:38.326206,2020-07-11 00:00:00.000000,1.52165045,2.23930893,3.14433230,1607,2364,3320,936,1452,2172,0.88651248,1.37511666,2.05685939,0.20800030,0.29735846,0.41136023
54061,0,USWestVirginiaMonongalia,West Virginia,Monongalia,2021-01-05 06:02:38.326206,2020-07-12 00:00:00.000000,1.45674652,2.16975478,3.02008283,1538,2291,3189,929,1420,2110,0.87991656,1.34542891,1.99868322,0.20541678,0.27835561,0.36948742
54061,0,USWestVirginiaMonongalia,West Virginia,Monongalia,2021-01-05 06:02:38.326206,2020-07-13 00:00:00.000000,1.37592846,2.09763764,2.88024560,1453,2215,3041,918,1370,2044,0.86926156,1.29797846,1.93573274,0.20306732,0.26420223,0.35004206
54061,0,USWestVirginiaMonongalia,West Virginia,Monongalia,2021-01-05 06:02:38.326206,2020-07-14 00:00:00.000000,1.31448036,2.00531102,2.75974869,1388,2117,2914,883,1327,1969,0.83679799,1.25686581,1.86516387,0.20006428,0.25503229,0.33592746
54061,0,USWestVirginiaMonongalia,West Virginia,Monongalia,2021-01-05 06:02:38.326206,2020-07-15 00:00:00.000000,1.25638803,1.88838248,2.68904489,1326,1994,2839,818,1288,1876,0.77539732,1.22007892,1.77639343,0.18863623,0.24238208,0.31588938
54061,0,USWestVirginiaMonongalia,West Virginia,Monongalia,2021-01-05 06:02:38.326206,2020-07-16 00:00:00.000000,1.20112597,1.78440429,2.59443175,1268,1884,2740,768,1219,1775,0.72773542,1.15495554,1.68141055,0.18334994,0.23386214,0.31254772
54061,0,USWestVirginiaMonongalia,West Virginia,Monongalia,2021-01-05 06:02:38.326206,2020-07-17 00:00:00.000000,1.13551887,1.69690192,2.46006365,1199,1792,2598,733,1174,1703,0.69416600,1.11167819,1.61327881,0.16772841,0.22438302,0.30461547
54061,0,USWestVirginiaMonongalia,West Virginia,Monongalia,2021-01-05 06:02:38.326206,2020-07-18 00:00:00.000000,1.05490568,1.60391114,2.32132470,1114,1693,2451,696,1130,1646,0.65914698,1.07019471,1.55943381,0.16106421,0.21577405,0.28539248
54061,0,USWestVirginiaMonongalia,West Virginia,Monongalia,2021-01-05 06:02:38.326206,2020-07-19 00:00:00.000000,0.98429763,1.49597132,2.23606295,1039,1579,2361,659,1078,1580,0.62434522,1.02094289,1.49614809,0.15644074,0.21039400,0.27835373
54061,0,USWestVirginiaMonongalia,West Virginia,Monongalia,2021-01-05 06:02:38.326206,2020-07-20 00:00:00.000000,0.92895570,1.38873422,2.14456632,981,1466,2264,623,1011,1514,0.59063745,0.95747603,1.43429146,0.15643145,0.20504463,0.27516769
54061,0,USWestVirginiaMonongalia,West Virginia,Monongalia,2021-01-05 06:02:38.326206,2020-07-21 00:00:00.000000,0.87652622,1.29610449,1.99548349,925,1368,2107,589,946,1429,0.55776810,0.89603041,1.35334717,0.15124473,0.20407208,0.27896642
54061,0,USWestVirginiaMonongalia,West Virginia,Monongalia,2021-01-05 06:02:38.326206,2020-07-22 00:00:00.000000,0.82688054,1.21179972,1.84342454,873,1279,1946,554,881,1347,0.52499334,0.83466850,1.27594530,0.15002877,0.20376179,0.28114100
54061,0,USWestVirginiaMonongalia,West Virginia,Monongalia,2021-01-05 06:02:38.326206,2020-07-23 00:00:00.000000,0.78001277,1.12634203,1.72070012,823,1189,1817,513,827,1268,0.48637428,0.78384056,1.20128161,0.14887713,0.20521569,0.28209143
54061,0,USWestVirginiaMonongalia,West Virginia,Monongalia,2021-01-05 06:02:38.326206,2020-07-24 00:00:00.000000,0.72081917,1.05547337,1.62916800,761,1114,1720,476,771,1188,0.45147624,0.73023379,1.12526251,0.14832060,0.20780736,0.27752325
54061,0,USWestVirginiaMonongalia,West Virginia,Monongalia,2021-01-05 06:02:38.326206,2020-07-25 00:00:00.000000,0.66742164,0.99151230,1.53655978,704,1047,1622,443,711,1117,0.42031641,0.67383702,1.05820449,0.14892196,0.21128074,0.27351131
54061,0,USWestVirginiaMonongalia,West Virginia,Monongalia,2021-01-05 06:02:38.326206,2020-07-26 00:00:00.000000,0.61847166,0.92945816,1.44849547,653,981,1529,410,661,1060,0.38899283,0.62669915,1.00378031,0.15350225,0.21299456,0.28289660
54061,0,USWestVirginiaMonongalia,West Virginia,Monongalia,2021-01-05 06:02:38.326206,2020-07-27 00:00:00.000000,0.57305913,0.86851616,1.39116502,605,917,1469,384,613,1004,0.36398942,0.58053371,0.95152187,0.15343968,0.21451555,0.28318995
54061,0,USWestVirginiaMonongalia,West Virginia,Monongalia,2021-01-05 06:02:38.326206,2020-07-28 00:00:00.000000,0.53569368,0.81242001,1.33822968,565,858,1413,357,574,954,0.33859367,0.54359459,0.90391025,0.15346379,0.21592915,0.30289756
54061,0,USWestVirginiaMonongalia,West Virginia,Monongalia,2021-01-05 06:02:38.326206,2020-07-29 00:00:00.000000,0.50075122,0.76330826,1.28817811,528,806,1360,330,540,908,0.31323749,0.51142935,0.86014800,0.15344139,0.22015590,0.30371943
54061,0,USWestVirginiaMonongalia,West Virginia,Monongalia,2021-01-05 06:02:38.326206,2020-07-30 00:00:00.000000,0.46867099,0.71513358,1.24090375,494,755,1310,306,510,865,0.29035844,0.48355953,0.81933332,0.15853258,0.22333916,0.30263940
54061,0,USWestVirginiaMonongalia,West Virginia,Monongalia,2021-01-05 06:02:38.326206,2020-07-31 00:00:00.000000,0.44504708,0.67717099,1.18544729,470,715,1251,286,478,824,0.27105650,0.45327440,0.78092050,0.16450284,0.22740812,0.29945063
54061,0,USWestVirginiaMonongalia,West Virginia,Monongalia,2021-01-05 06:02:38.326206,2020-08-01 00:00:00.000000,0.41933163,0.64136544,1.13069656,442,677,1194,270,452,786,0.25632110,0.42853372,0.74457941,0.16261638,0.22933516,0.30051958
54061,0,USWestVirginiaMonongalia,West Virginia,Monongalia,2021-01-05 06:02:38.326206,2020-08-02 00:00:00.000000,0.39339761,0.60645795,1.07856317,415,640,1139,258,426,749,0.24444524,0.40359082,0.71009813,0.16469389,0.23518249,0.32719639
54061,0,USWestVirginiaMonongalia,West Virginia,Monongalia,2021-01-05 06:02:38.326206,2020-08-03 00:00:00.000000,0.37047760,0.57374239,1.02816322,391,605,1085,242,401,715,0.22978807,0.37980111,0.67731286,0.16918094,0.24194458,0.33380130
54061,0,USWestVirginiaMonongalia,West Virginia,Monongalia,2021-01-05 06:02:38.326206,2020-08-04 00:00:00.000000,0.35084837,0.54816439,0.97980978,370,578,1034,227,381,682,0.21567203,0.36164230,0.64585156,0.17257996,0.25111351,0.34508352
54061,0,USWestVirginiaMonongalia,West Virginia,Monongalia,2021-01-05 06:02:38.326206,2020-08-05 00:00:00.000000,0.33381224,0.52686589,0.93361568,352,556,986,214,362,650,0.20297165,0.34290470,0.61564893,0.17871088,0.26227492,0.34733713
54061,0,USWestVirginiaMonongalia,West Virginia,Monongalia,2021-01-05 06:02:38.326206,2020-08-06 00:00:00.000000,0.31858688,0.51034681,0.88980643,336,538,939,202,348,619,0.19209859,0.33038188,0.58673313,0.19419172,0.27399277,0.37827673
54061,0,USWestVirginiaMonongalia,West Virginia,Monongalia,2021-01-05 06:02:38.326206,2020-08-07 00:00:00.000000,0.30524305,0.49552071,0.85032416,322,523,898,193,337,590,0.18277644,0.31966663,0.55919939,0.19584375,0.29280965,0.40114981
54061,0,USWestVirginiaMonongalia,West Virginia,Monongalia,2021-01-05 06:02:38.326206,2020-08-08 00:00:00.000000,0.29665722,0.48560454,0.82614083,313,512,872,184,323,563,0.17456158,0.30628346,0.53375895,0.19900508,0.31343989,0.42500893
54061,0,USWestVirginiaMonongalia,West Virginia,Monongalia,2021-01-05 06:02:38.326206,2020-08-09 00:00:00.000000,0.29729356,0.46803349,0.81098620,313,494,856,176,312,543,0.16733285,0.29597469,0.51451853,0.20530070,0.33342077,0.44975482
54061,0,USWestVirginiaMonongalia,West Virginia,Monongalia,2021-01-05 06:02:38.326206,2020-08-10 00:00:00.000000,0.30188274,0.45999031,0.80080704,318,485,845,177,306,529,0.16806501,0.28980436,0.50129319,0.21731868,0.35167604,0.47469754
54061,0,USWestVirginiaMonongalia,West Virginia,Monongalia,2021-01-05 06:02:38.326206,2020-08-11 00:00:00.000000,0.30542858,0.44914508,0.79233362,322,474,836,182,303,519,0.17269797,0.28773400,0.49205808,0.23760678,0.36969481,0.51584689
54061,0,USWestVirginiaMonongalia,West Virginia,Monongalia,2021-01-05 06:02:38.326206,2020-08-12 00:00:00.000000,0.30690836,0.44859851,0.78586670,324,473,829,182,300,515,0.17301748,0.28470147,0.48767240,0.25234235,0.37415598,0.53912426
54061,0,USWestVirginiaMonongalia,West Virginia,Monongalia,2021-01-05 06:02:38.326206,2020-08-13 00:00:00.000000,0.30829850,0.45240749,0.78366820,325,477,827,181,298,519,0.17219565,0.28245487,0.49176686,0.25923207,0.39517375,0.56842284
54061,0,USWestVirginiaMonongalia,West Virginia,Monongalia,2021-01-05 06:02:38.326206,2020-08-14 00:00:00.000000,0.31428337,0.46559575,0.79355846,331,491,838,184,293,524,0.17505866,0.27787667,0.49705499,0.28167351,0.41535675,0.59975812
54061,0,USWestVirginiaMonongalia,West Virginia,Monongalia,2021-01-05 06:02:38.326206,2020-08-15 00:00:00.000000,0.31900471,0.48542721,0.80431593,336,512,849,190,297,531,0.18006141,0.28178040,0.50300901,0.29065137,0.44358632,0.62657680
54061,0,USWestVirginiaMonongalia,West Virginia,Monongalia,2021-01-05 06:02:38.326206,2020-08-16 00:00:00.000000,0.32300521,0.50291402,0.83691145,341,531,883,198,308,538,0.18839808,0.29253472,0.50951047,0.33300968,0.46691330,0.65293595
54061,0,USWestVirginiaMonongalia,West Virginia,Monongalia,2021-01-05 06:02:38.326206,2020-08-17 00:00:00.000000,0.33742326,0.51863113,0.88084864,356,547,930,204,324,545,0.19368380,0.30683103,0.51669713,0.34221495,0.49770634,0.66033751
54061,0,USWestVirginiaMonongalia,West Virginia,Monongalia,2021-01-05 06:02:38.326206,2020-08-18 00:00:00.000000,0.34717782,0.54657025,0.94902370,366,577,1002,211,336,569,0.20072338,0.31863794,0.53937711,0.35992330,0.51323856,0.66717620
54061,0,USWestVirginiaMonongalia,West Virginia,Monongalia,2021-01-05 06:02:38.326206,2020-08-19 00:00:00.000000,0.36766716,0.57840872,0.98848394,388,610,1043,215,347,609,0.20405554,0.32913893,0.57725353,0.39811644,0.53807614,0.68770923
54061,0,USWestVirginiaMonongalia,West Virginia,Monongalia,2021-01-05 06:02:38.326206,2020-08-20 00:00:00.000000,0.39358745,0.60838153,1.05290690,415,642,1111,223,363,655,0.21191237,0.34377997,0.62090130,0.41290046,0.57667936,0.72987928
54061,0,USWestVirginiaMonongalia,West Virginia,Monongalia,2021-01-05 06:02:38.326206,2020-08-21 00:00:00.000000,0.42667120,0.66138744,1.13325069,450,698,1196,248,386,707,0.23517456,0.36635697,0.67013276,0.42525058,0.60639054,0.78285358
54061,0,USWestVirginiaMonongalia,West Virginia,Monongalia,2021-01-05 06:02:38.326206,2020-08-22 00:00:00.000000,0.47026901,0.71788652,1.22641362,496,758,1295,268,410,765,0.25405923,0.38909680,0.72450530,0.45323208,0.62926878,0.79598542
54061,0,USWestVirginiaMonongalia,West Virginia,Monongalia,2021-01-05 06:02:38.326206,2020-08-23 00:00:00.000000,0.52214205,0.77899910,1.32944589,551,822,1404,288,440,827,0.27347498,0.41687615,0.78397117,0.46713118,0.65552377,0.80843997
54061,0,USWestVirginiaMonongalia,West Virginia,Monongalia,2021-01-05 06:02:38.326206,2020-08-24 00:00:00.000000,0.55560939,0.84961152,1.43728610,586,897,1517,315,472,890,0.29911332,0.44764423,0.84363472,0.47299506,0.67208958,0.80948558
54061,0,USWestVirginiaMonongalia,West Virginia,Monongalia,2021-01-05 06:02:38.326206,2020-08-25 00:00:00.000000,0.59886368,0.93210521,1.56596866,632,984,1653,336,515,948,0.31857921,0.48853720,0.89790706,0.53070356,0.68544556,0.82851446
54061,0,USWestVirginiaMonongalia,West Virginia,Monongalia,2021-01-05 06:02:38.326206,2020-08-26 00:00:00.000000,0.66292352,1.02757048,1.70000744,700,1085,1795,361,564,1010,0.34259113,0.53486929,0.95717320,0.55670678,0.70101703,0.85621196
54061,0,USWestVirginiaMonongalia,West Virginia,Monongalia,2021-01-05 06:02:38.326206,2020-08-27 00:00:00.000000,0.74613957,1.13556903,1.84429708,788,1199,1947,398,628,1110,0.37734233,0.59491703,1.05166654,0.57123389,0.70767075,0.89343563
54061,0,USWestVirginiaMonongalia,West Virginia,Monongalia,2021-01-05 06:02:38.326206,2020-08-28 00:00:00.000000,0.81164828,1.26954949,1.99833677,857,1340,2110,449,704,1238,0.42570317,0.66664706,1.17249664,0.58160779,0.71178809,0.90120091
54061,0,USWestVirginiaMonongalia,West Virginia,Monongalia,2021-01-05 06:02:38.326206,2020-08-29 00:00:00.000000,0.89372614,1.40521152,2.16166062,943,1484,2282,495,776,1346,0.46872629,0.73529336,1.27535855,0.56756255,0.72222194,0.90840363
54061,0,USWestVirginiaMonongalia,West Virginia,Monongalia,2021-01-05 06:02:38.326206,2020-08-30 00:00:00.000000,0.97268990,1.52268003,2.33511696,1027,1608,2466,536,865,1457,0.50811618,0.81987415,1.37986319,0.54469076,0.70893727,0.89890031
54061,0,USWestVirginiaMonongalia,West Virginia,Monongalia,2021-01-05 06:02:38.326206,2020-08-31 00:00:00.000000,1.04807015,1.65546040,2.52351698,1106,1748,2665,579,943,1574,0.54860784,0.89328611,1.49079434,0.53626451,0.69872056,0.88177069
54061,0,USWestVirginiaMonongalia,West Virginia,Monongalia,2021-01-05 06:02:38.326206,2020-09-01 00:00:00.000000,1.12691795,1.77236273,2.72220007,1190,1871,2874,624,1034,1730,0.59096184,0.97977797,1.63881621,0.52900938,0.68801346,0.84398505
54061,0,USWestVirginiaMonongalia,West Virginia,Monongalia,2021-01-05 06:02:38.326206,2020-09-02 00:00:00.000000,1.21017254,1.89500990,2.93145440,1278,2001,3095,674,1133,1873,0.63850621,1.07290464,1.77384304,0.51357792,0.66011085,0.82089663
54061,0,USWestVirginiaMonongalia,West Virginia,Monongalia,2021-01-05 06:02:38.326206,2020-09-03 00:00:00.000000,1.35273838,2.06476528,3.15034863,1428,2180,3327,740,1227,2002,0.70097823,1.16248358,1.89639104,0.50034917,0.63030876,0.81372518
54061,0,USWestVirginiaMonongalia,West Virginia,Monongalia,2021-01-05 06:02:38.326206,2020-09-04 00:00:00.000000,1.46063006,2.22181944,3.22139151,1542,2346,3402,797,1318,2114,0.75537650,1.24879712,2.00178455,0.48812830,0.61473191,0.79400666
54061,0,USWestVirginiaMonongalia,West Virginia,Monongalia,2021-01-05 06:02:38.326206,2020-09-05 00:00:00.000000,1.56161109,2.30282903,3.51028700,1649,2432,3707,863,1406,2203,0.81776722,1.33203383,2.08644314,0.43921086,0.58491285,0.75648591
54061,0,USWestVirginiaMonongalia,West Virginia,Monongalia,2021-01-05 06:02:38.326206,2020-09-06 00:00:00.000000,1.64895889,2.43467267,3.74810368,1741,2571,3958,924,1485,2284,0.87542880,1.40701714,2.16336019,0.40703313,0.52986503,0.73124367
54061,0,USWestVirginiaMonongalia,West Virginia,Monongalia,2021-01-05 06:02:38.326206,2020-09-07 00:00:00.000000,1.73376525,2.55359360,3.97208640,1831,2696,4194,978,1551,2462,0.92661011,1.46931547,2.33192981,0.35570467,0.48469870,0.68396748
54061,0,USWestVirginiaMonongalia,West Virginia,Monongalia,2021-01-05 06:02:38.326206,2020-09-08 00:00:00.000000,1.78277687,2.62757631,4.09905326,1882,2775,4329,1015,1605,2569,0.96155871,1.51998482,2.43287605,0.31982469,0.44314974,0.61207292
54061,0,USWestVirginiaMonongalia,West Virginia,Monongalia,2021-01-05 06:02:38.326206,2020-09-09 00:00:00.000000,1.79442104,2.61224827,4.03858939,1895,2758,4265,1037,1664,2550,0.98225181,1.57569265,2.41498011,0.28092630,0.40941567,0.52958645
54061,0,USWestVirginiaMonongalia,West Virginia,Monongalia,2021-01-05 06:02:38.326206,2020-09-10 00:00:00.000000,1.74617858,2.60548031,3.93587077,1844,2751,4156,1052,1679,2620,0.99649128,1.58997897,2.48091234,0.25012982,0.36976089,0.48190417
54061,0,USWestVirginiaMonongalia,West Virginia,Monongalia,2021-01-05 06:02:38.326206,2020-09-11 00:00:00.000000,1.73480457,2.59341554,3.82872055,1832,2738,4043,1050,1679,2649,0.99479470,1.59066449,2.50886131,0.22878673,0.34733002,0.45539415
54061,0,USWestVirginiaMonongalia,West Virginia,Monongalia,2021-01-05 06:02:38.326206,2020-09-12 00:00:00.000000,1.65698227,2.52651443,3.71790608,1749,2668,3926,1045,1656,2571,0.98973815,1.56852223,2.43455040,0.21850534,0.31642227,0.41489654
54061,0,USWestVirginiaMonongalia,West Virginia,Monongalia,2021-01-05 06:02:38.326206,2020-09-13 00:00:00.000000,1.57181015,2.40287246,3.61620952,1660,2537,3819,1001,1615,2522,0.94840962,1.52964580,2.38843767,0.21287332,0.29332089,0.37064297
54061,0,USWestVirginiaMonongalia,West Virginia,Monongalia,2021-01-05 06:02:38.326206,2020-09-14 00:00:00.000000,1.48341986,2.29859618,3.44485105,1566,2427,3638,954,1561,2490,0.90369251,1.47827094,2.35812378,0.20849800,0.28009961,0.34816171
54061,0,USWestVirginiaMonongalia,West Virginia,Monongalia,2021-01-05 06:02:38.326206,2020-09-15 00:00:00.000000,1.39383876,2.18623808,3.29387315,1472,2308,3478,904,1485,2413,0.85688522,1.40661637,2.28515840,0.20266337,0.27312627,0.34061842
54061,0,USWestVirginiaMonongalia,West Virginia,Monongalia,2021-01-05 06:02:38.326206,2020-09-16 00:00:00.000000,1.30533319,2.06521033,3.16319634,1378,2181,3340,853,1407,2315,0.80785155,1.33302527,2.19284364,0.19826282,0.26741897,0.33762958
54061,0,USWestVirginiaMonongalia,West Virginia,Monongalia,2021-01-05 06:02:38.326206,2020-09-17 00:00:00.000000,1.21938745,1.95015477,3.01674552,1287,2059,3186,799,1342,2198,0.75700492,1.27157054,2.08181042,0.18793635,0.26521479,0.33256862
54061,0,USWestVirginiaMonongalia,West Virginia,Monongalia,2021-01-05 06:02:38.326206,2020-09-18 00:00:00.000000,1.13650803,1.84038299,2.84030835,1200,1943,2999,746,1269,2095,0.70642297,1.20246032,1.98385748,0.17775052,0.25467428,0.32315410
54061,0,USWestVirginiaMonongalia,West Virginia,Monongalia,2021-01-05 06:02:38.326206,2020-09-19 00:00:00.000000,1.05552751,1.73818407,2.66629404,1114,1835,2815,694,1203,2000,0.65775076,1.13956686,1.89402336,0.17240046,0.24646783,0.32484587
54061,0,USWestVirginiaMonongalia,West Virginia,Monongalia,2021-01-05 06:02:38.326206,2020-09-20 00:00:00.000000,0.97515794,1.65298682,2.51578583,1029,1745,2656,646,1143,1892,0.61179233,1.08311670,1.79219990,0.16997164,0.24069110,0.32428261
54061,0,USWestVirginiaMonongalia,West Virginia,Monongalia,2021-01-05 06:02:38.326206,2020-09-21 00:00:00.000000,0.90240182,1.56554244,2.37486109,953,1653,2508,600,1080,1787,0.56895558,1.02266322,1.69232714,0.16972188,0.23721301,0.32444837
54061,0,USWestVirginiaMonongalia,West Virginia,Monongalia,2021-01-05 06:02:38.326206,2020-09-22 00:00:00.000000,0.83935768,1.46730640,2.25193652,886,1549,2378,558,1020,1684,0.52883476,0.96583163,1.59525356,0.17209912,0.23648185,0.32178912
54061,0,USWestVirginiaMonongalia,West Virginia,Monongalia,2021-01-05 06:02:38.326206,2020-09-23 00:00:00.000000,0.78777280,1.37397341,2.13868206,831,1451,2258,519,957,1586,0.49145239,0.90639127,1.50233987,0.17554325,0.23713366,0.30343465
54061,0,USWestVirginiaMonongalia,West Virginia,Monongalia,2021-01-05 06:02:38.326206,2020-09-24 00:00:00.000000,0.72720173,1.29625858,2.02341603,768,1369,2136,482,903,1493,0.45674516,0.85570457,1.41441070,0.17375087,0.23708465,0.30929890
54061,0,USWestVirginiaMonongalia,West Virginia,Monongalia,2021-01-05 06:02:38.326206,2020-09-25 00:00:00.000000,0.67329265,1.20133260,1.90129571,711,1268,2007,448,857,1406,0.42458180,0.81178869,1.33205161,0.17534377,0.23722077,0.31827090
54061,0,USWestVirginiaMonongalia,West Virginia,Monongalia,2021-01-05 06:02:38.326206,2020-09-26 00:00:00.000000,0.62824091,1.12216077,1.79213321,663,1185,1892,421,797,1319,0.39876327,0.75487677,1.24893416,0.17435399,0.23712532,0.32908077
54061,0,USWestVirginiaMonongalia,West Virginia,Monongalia,2021-01-05 06:02:38.326206,2020-09-27 00:00:00.000000,0.59134508,1.05628733,1.67278969,624,1115,1766,396,743,1226,0.37550503,0.70437082,1.16152918,0.17468167,0.24114858,0.33697493
54061,0,USWestVirginiaMonongalia,West Virginia,Monongalia,2021-01-05 06:02:38.326206,2020-09-28 00:00:00.000000,0.55845671,1.00037960,1.58039307,589,1056,1669,374,700,1138,0.35413763,0.66318166,1.07830424,0.17546382,0.24466037,0.33628615
54061,0,USWestVirginiaMonongalia,West Virginia,Monongalia,2021-01-05 06:02:38.326206,2020-09-29 00:00:00.000000,0.52881687,0.93320861,1.48520251,558,985,1568,354,660,1059,0.33543518,0.62500541,1.00293729,0.17702469,0.25000550,0.33427461
54061,0,USWestVirginiaMonongalia,West Virginia,Monongalia,2021-01-05 06:02:38.326206,2020-09-30 00:00:00.000000,0.50149116,0.87671400,1.40982161,529,925,1488,336,622,995,0.31888672,0.58928784,0.94243004,0.17986729,0.25365242,0.33163915
54061,0,USWestVirginiaMonongalia,West Virginia,Monongalia,2021-01-05 06:02:38.326206,2020-10-01 00:00:00.000000,0.47609463,0.83931110,1.34312510,502,886,1418,316,589,935,0.29949426,0.55853325,0.88569785,0.18466976,0.25902296,0.32940920
54061,0,USWestVirginiaMonongalia,West Virginia,Monongalia,2021-01-05 06:02:38.326206,2020-10-02 00:00:00.000000,0.45250082,0.79027443,1.27891681,477,834,1350,297,557,889,0.28203583,0.52805880,0.84194016,0.18729037,0.26591412,0.32860497
54061,0,USWestVirginiaMonongalia,West Virginia,Monongalia,2021-01-05 06:02:38.326206,2020-10-03 00:00:00.000000,0.43082211,0.75868438,1.21709892,454,801,1285,281,530,846,0.26630974,0.50218867,0.80177551,0.19369062,0.27171785,0.32880490
54061,0,USWestVirginiaMonongalia,West Virginia,Monongalia,2021-01-05 06:02:38.326206,2020-10-04 00:00:00.000000,0.41134017,0.72949862,1.15772922,434,770,1222,266,504,805,0.25216800,0.47723428,0.76316766,0.20365422,0.28163715,0.34160281
54061,0,USWestVirginiaMonongalia,West Virginia,Monongalia,2021-01-05 06:02:38.326206,2020-10-05 00:00:00.000000,0.39413182,0.69952916,1.10169702,416,738,1163,252,481,766,0.23947088,0.45584307,0.72611038,0.20404958,0.28524576,0.35866714
54061,0,USWestVirginiaMonongalia,West Virginia,Monongalia,2021-01-05 06:02:38.326206,2020-10-06 00:00:00.000000,0.37910714,0.66727986,1.04681427,400,704,1105,240,459,730,0.22816698,0.43498216,0.69178330,0.20664090,0.29339052,0.36977729
54061,0,USWestVirginiaMonongalia,West Virginia,Monongalia,2021-01-05 06:02:38.326206,2020-10-07 00:00:00.000000,0.36575544,0.64167357,0.99665458,386,677,1052,230,437,696,0.21805015,0.41448779,0.65946397,0.21173447,0.29949183,0.37424779
54061,0,USWestVirginiaMonongalia,West Virginia,Monongalia,2021-01-05 06:02:38.326206,2020-10-08 00:00:00.000000,0.35365750,0.61668954,0.95298688,373,651,1006,220,417,664,0.20921309,0.39534415,0.62884810,0.21542209,0.30782367,0.39635440
54061,0,USWestVirginiaMonongalia,West Virginia,Monongalia,2021-01-05 06:02:38.326206,2020-10-09 00:00:00.000000,0.34574373,0.60008570,0.91326367,365,633,964,215,402,641,0.20447087,0.38071453,0.60709878,0.21974133,0.32407106,0.45214950
54061,0,USWestVirginiaMonongalia,West Virginia,Monongalia,2021-01-05 06:02:38.326206,2020-10-10 00:00:00.000000,0.34598384,0.58840228,0.87281727,365,621,921,213,388,629,0.20175881,0.36769826,0.59616553,0.22430681,0.33468095,0.45833587
54061,0,USWestVirginiaMonongalia,West Virginia,Monongalia,2021-01-05 06:02:38.326206,2020-10-11 00:00:00.000000,0.33550839,0.57609203,0.85038419,354,608,898,213,386,617,0.20217785,0.36596603,0.58448660,0.23228187,0.34108220,0.47092042
54061,0,USWestVirginiaMonongalia,West Virginia,Monongalia,2021-01-05 06:02:38.326206,2020-10-12 00:00:00.000000,0.33384741,0.56740942,0.82832194,352,599,874,209,386,592,0.19830084,0.36618929,0.56138030,0.24211375,0.35520722,0.48384530
54061,0,USWestVirginiaMonongalia,West Virginia,Monongalia,2021-01-05 06:02:38.326206,2020-10-13 00:00:00.000000,0.32589277,0.56103523,0.82429626,344,592,870,203,380,576,0.19252255,0.36046705,0.54565375,0.24914338,0.36797468,0.48884809
54061,0,USWestVirginiaMonongalia,West Virginia,Monongalia,2021-01-05 06:02:38.326206,2020-10-14 00:00:00.000000,0.32767002,0.55575120,0.81421453,346,586,859,197,376,560,0.18723054,0.35676641,0.53098685,0.25777316,0.38201228,0.50036166
54061,0,USWestVirginiaMonongalia,West Virginia,Monongalia,2021-01-05 06:02:38.326206,2020-10-15 00:00:00.000000,0.32181263,0.54665303,0.81116624,339,577,856,193,369,546,0.18299011,0.34998750,0.51699946,0.26921134,0.38933725,0.51658456
54061,0,USWestVirginiaMonongalia,West Virginia,Monongalia,2021-01-05 06:02:38.326206,2020-10-16 00:00:00.000000,0.31744678,0.53739042,0.82734652,335,567,873,189,363,545,0.17940575,0.34387483,0.51663425,0.29102607,0.39735996,0.53910961
54061,0,USWestVirginiaMonongalia,West Virginia,Monongalia,2021-01-05 06:02:38.326206,2020-10-17 00:00:00.000000,0.31453702,0.53437408,0.84559020,332,564,893,186,357,547,0.17655806,0.33853980,0.51864066,0.29545277,0.41427618,0.55783974
54061,0,USWestVirginiaMonongalia,West Virginia,Monongalia,2021-01-05 06:02:38.326206,2020-10-18 00:00:00.000000,0.31257484,0.53651731,0.85593120,330,566,903,184,354,546,0.17450013,0.33520521,0.51789046,0.30987198,0.42915722,0.58338623
54061,0,USWestVirginiaMonongalia,West Virginia,Monongalia,2021-01-05 06:02:38.326206,2020-10-19 00:00:00.000000,0.31249109,0.54008005,0.86729207,330,570,915,182,351,549,0.17310035,0.33277012,0.52066718,0.31661054,0.44720021,0.64329141
54061,0,USWestVirginiaMonongalia,West Virginia,Monongalia,2021-01-05 06:02:38.326206,2020-10-20 00:00:00.000000,0.31319789,0.54311567,0.88651600,330,573,936,182,355,554,0.17256037,0.33680677,0.52463739,0.32089693,0.47419875,0.64781898
54061,0,USWestVirginiaMonongalia,West Virginia,Monongalia,2021-01-05 06:02:38.326206,2020-10-21 00:00:00.000000,0.31556197,0.55095920,0.90624018,333,581,957,182,353,571,0.17263739,0.33430093,0.54078478,0.33128573,0.49850947,0.69121214
54061,0,USWestVirginiaMonongalia,West Virginia,Monongalia,2021-01-05 06:02:38.326206,2020-10-22 00:00:00.000000,0.32149741,0.56729124,0.92902858,339,599,981,183,365,598,0.17349239,0.34578375,0.56627828,0.35269358,0.51564297,0.73866871
54061,0,USWestVirginiaMonongalia,West Virginia,Monongalia,2021-01-05 06:02:38.326206,2020-10-23 00:00:00.000000,0.33346097,0.58812699,0.98141548,352,621,1036,185,380,629,0.17585017,0.36056691,0.59557918,0.36697464,0.55062494,0.74727720
54061,0,USWestVirginiaMonongalia,West Virginia,Monongalia,2021-01-05 06:02:38.326206,2020-10-24 00:00:00.000000,0.35193076,0.62234541,1.03211207,371,657,1090,190,388,664,0.18084545,0.36777492,0.62890514,0.38328078,0.56717686,0.74852595
54061,0,USWestVirginiaMonongalia,West Virginia,Monongalia,2021-01-05 06:02:38.326206,2020-10-25 00:00:00.000000,0.37488962,0.65030490,1.05733022,395,686,1116,199,397,682,0.18904755,0.37623589,0.64612501,0.40723186,0.58703669,0.78537938
54061,0,USWestVirginiaMonongalia,West Virginia,Monongalia,2021-01-05 06:02:38.326206,2020-10-26 00:00:00.000000,0.40010873,0.68600936,1.11952823,422,724,1182,211,416,698,0.20004712,0.39472763,0.66174205,0.46073850,0.62012669,0.81363952
54061,0,USWestVirginiaMonongalia,West Virginia,Monongalia,2021-01-05 06:02:38.326206,2020-10-27 00:00:00.000000,0.42778818,0.72625490,1.21190870,451,767,1279,224,444,727,0.21286760,0.42084847,0.68914279,0.47898113,0.62901945,0.80878081
54061,0,USWestVirginiaMonongalia,West Virginia,Monongalia,2021-01-05 06:02:38.326206,2020-10-28 00:00:00.000000,0.45766801,0.77135198,1.28511153,483,814,1357,240,466,754,0.22726914,0.44141954,0.71473905,0.48469967,0.64012618,0.81399905
54061,0,USWestVirginiaMonongalia,West Virginia,Monongalia,2021-01-05 06:02:38.326206,2020-10-29 00:00:00.000000,0.48987364,0.82298349,1.35462417,517,869,1430,256,494,807,0.24299735,0.46854750,0.76498940,0.49736480,0.64536220,0.81457195
54061,0,USWestVirginiaMonongalia,West Virginia,Monongalia,2021-01-05 06:02:38.326206,2020-10-30 00:00:00.000000,0.52482807,0.88364088,1.42811659,554,933,1508,274,530,872,0.26000109,0.50274788,0.82640482,0.52658425,0.66084152,0.85143784
54061,0,USWestVirginiaMonongalia,West Virginia,Monongalia,2021-01-05 06:02:38.326206,2020-10-31 00:00:00.000000,0.56343727,0.96176385,1.50656175,595,1015,1591,294,575,939,0.27842300,0.54510158,0.88972539,0.55037239,0.67787067,0.85947029
54061,0,USWestVirginiaMonongalia,West Virginia,Monongalia,2021-01-05 06:02:38.326206,2020-11-01 00:00:00.000000,0.61316279,1.04781937,1.62299479,647,1106,1714,315,622,1007,0.29863162,0.58919786,0.95402192,0.55842786,0.70339524,0.88197317
54061,0,USWestVirginiaMonongalia,West Virginia,Monongalia,2021-01-05 06:02:38.326206,2020-11-02 00:00:00.000000,0.67806785,1.13517462,1.77918705,716,1198,1879,339,674,1075,0.32132109,0.63883420,1.01824014,0.55228268,0.69294271,0.90834289
54061,0,USWestVirginiaMonongalia,West Virginia,Monongalia,2021-01-05 06:02:38.326206,2020-11-03 00:00:00.000000,0.74924437,1.22192463,1.94739593,791,1290,2056,366,723,1137,0.34716198,0.68530967,1.07685252,0.54482612,0.69776200,0.94245516
54061,0,USWestVirginiaMonongalia,West Virginia,Monongalia,2021-01-05 06:02:38.326206,2020-11-04 00:00:00.000000,0.82827964,1.31254261,2.10671453,874,1386,2224,403,776,1216,0.38238863,0.73515272,1.15233058,0.55432610,0.68732113,0.96980178
54061,0,USWestVirginiaMonongalia,West Virginia,Monongalia,2021-01-05 06:02:38.326206,2020-11-05 00:00:00.000000,0.88923072,1.37456583,2.23827668,939,1451,2363,446,828,1276,0.42275803,0.78426960,1.20890690,0.55462794,0.67248800,0.97597413
54061,0,USWestVirginiaMonongalia,West Virginia,Monongalia,2021-01-05 06:02:38.326206,2020-11-06 00:00:00.000000,0.93609786,1.46650107,2.30592238,988,1548,2435,493,880,1383,0.46728905,0.83358919,1.31039733,0.55560226,0.66653462,0.94757484
54061,0,USWestVirginiaMonongalia,West Virginia,Monongalia,2021-01-05 06:02:38.326206,2020-11-07 00:00:00.000000,1.01298836,1.56945213,2.46806950,1069,1657,2606,545,924,1472,0.51628760,0.87509912,1.39391208,0.55347296,0.66341423,0.89922316
54061,0,USWestVirginiaMonongalia,West Virginia,Monongalia,2021-01-05 06:02:38.326206,2020-11-08 00:00:00.000000,1.07492879,1.66702191,2.57607124,1135,1760,2720,579,985,1562,0.54842112,0.93270558,1.47919364,0.53588700,0.66120780,0.89845114
54061,0,USWestVirginiaMonongalia,West Virginia,Monongalia,2021-01-05 06:02:38.326206,2020-11-09 00:00:00.000000,1.14588565,1.75558364,2.78289826,1210,1854,2939,618,1055,1653,0.58607323,0.99969493,1.56531498,0.52403006,0.65936864,0.83815953
54061,0,USWestVirginiaMonongalia,West Virginia,Monongalia,2021-01-05 06:02:38.326206,2020-11-10 00:00:00.000000,1.21785057,1.85531511,2.90926135,1286,1959,3072,672,1127,1751,0.63682535,1.06801851,1.65853962,0.51799512,0.64566983,0.80169834
54061,0,USWestVirginiaMonongalia,West Virginia,Monongalia,2021-01-05 06:02:38.326206,2020-11-11 00:00:00.000000,1.27301745,1.94562847,2.99687170,1344,2054,3165,728,1177,1828,0.68933333,1.11474481,1.73113882,0.49859747,0.63259207,0.78504308
54061,0,USWestVirginiaMonongalia,West Virginia,Monongalia,2021-01-05 06:02:38.326206,2020-11-12 00:00:00.000000,1.33014425,2.04350123,3.06671835,1404,2158,3238,761,1228,1968,0.72064027,1.16323599,1.86391530,0.47494222,0.62983232,0.75648731
54061,0,USWestVirginiaMonongalia,West Virginia,Monongalia,2021-01-05 06:02:38.326206,2020-11-13 00:00:00.000000,1.42946968,2.14366158,3.11821169,1509,2263,3293,795,1287,2010,0.75306974,1.21861352,1.90329362,0.46797462,0.59621514,0.72185402
54061,0,USWestVirginiaMonongalia,West Virginia,Monongalia,2021-01-05 06:02:38.326206,2020-11-14 00:00:00.000000,1.53518803,2.20973423,3.15290715,1621,2333,3329,842,1344,2032,0.79748852,1.27344068,1.92402542,0.46548583,0.57597127,0.69866704
54061,0,USWestVirginiaMonongalia,West Virginia,Monongalia,2021-01-05 06:02:38.326206,2020-11-15 00:00:00.000000,1.59545204,2.26670229,3.24571522,1684,2393,3427,905,1404,2079,0.85720252,1.32960667,1.96942145,0.44085591,0.56773655,0.67369299
54061,0,USWestVirginiaMonongalia,West Virginia,Monongalia,2021-01-05 06:02:38.326206,2020-11-16 00:00:00.000000,1.64337304,2.31563833,3.36449242,1735,2445,3553,957,1440,2165,0.90646941,1.36366819,2.05025330,0.42983676,0.55518388,0.65943679
54061,0,USWestVirginiaMonongalia,West Virginia,Monongalia,2021-01-05 06:02:38.326206,2020-11-17 00:00:00.000000,1.69067716,2.39124149,3.47213142,1785,2525,3666,972,1484,2245,0.92102623,1.40553532,2.12645739,0.41479449,0.53353461,0.65207932
54061,0,USWestVirginiaMonongalia,West Virginia,Monongalia,2021-01-05 06:02:38.326206,2020-11-18 00:00:00.000000,1.72406789,2.46776864,3.56088956,1820,2606,3760,987,1542,2304,0.93487275,1.46028548,2.18172579,0.40224620,0.52858501,0.63587966
54061,0,USWestVirginiaMonongalia,West Virginia,Monongalia,2021-01-05 06:02:38.326206,2020-11-19 00:00:00.000000,1.73221509,2.51673872,3.62507371,1829,2657,3828,1035,1576,2351,0.98048878,1.49246328,2.22664529,0.38804942,0.52664933,0.63618351
54061,0,USWestVirginiaMonongalia,West Virginia,Monongalia,2021-01-05 06:02:38.326206,2020-11-20 00:00:00.000000,1.74621928,2.52736459,3.66675553,1844,2669,3872,1068,1618,2397,1.01186061,1.53229347,2.27045053,0.38782653,0.52774583,0.64750758
54061,0,USWestVirginiaMonongalia,West Virginia,Monongalia,2021-01-05 06:02:38.326206,2020-11-21 00:00:00.000000,1.78110237,2.56480538,3.69264089,1881,2708,3899,1073,1651,2439,1.01688878,1.56348158,2.30971628,0.38774199,0.51784834,0.64389567
54061,0,USWestVirginiaMonongalia,West Virginia,Monongalia,2021-01-05 06:02:38.326206,2020-11-22 00:00:00.000000,1.78996821,2.63330785,3.72573509,1890,2781,3934,1082,1690,2432,1.02461225,1.60077573,2.30328867,0.39429956,0.52808370,0.64286755
54061,0,USWestVirginiaMonongalia,West Virginia,Monongalia,2021-01-05 06:02:38.326206,2020-11-23 00:00:00.000000,1.82783824,2.67866205,3.83545634,1930,2828,4050,1101,1718,2482,1.04284809,1.62760466,2.35051299,0.39824474,0.53421593,0.64322591
54061,0,USWestVirginiaMonongalia,West Virginia,Monongalia,2021-01-05 06:02:38.326206,2020-11-24 00:00:00.000000,1.86802524,2.70988061,3.83116728,1972,2861,4046,1095,1742,2490,1.03710712,1.65028742,2.35803233,0.40008948,0.53400118,0.64393370
54061,0,USWestVirginiaMonongalia,West Virginia,Monongalia,2021-01-05 06:02:38.326206,2020-11-25 00:00:00.000000,1.89824607,2.75412492,3.82510443,2004,2908,4039,1089,1765,2495,1.03146274,1.67182911,2.36260423,0.40086404,0.53826948,0.65218682
54061,0,USWestVirginiaMonongalia,West Virginia,Monongalia,2021-01-05 06:02:38.326206,2020-11-26 00:00:00.000000,1.89156820,2.79989101,3.82863506,1997,2957,4043,1116,1779,2497,1.05685124,1.68476246,2.36452366,0.40129673,0.54415605,0.67205045
54061,0,USWestVirginiaMonongalia,West Virginia,Monongalia,2021-01-05 06:02:38.326206,2020-11-27 00:00:00.000000,1.88689422,2.83681320,3.94071553,1992,2996,4161,1128,1803,2552,1.06867201,1.70752094,2.41713569,0.40271126,0.55078172,0.68955040
54061,0,USWestVirginiaMonongalia,West Virginia,Monongalia,2021-01-05 06:02:38.326206,2020-11-28 00:00:00.000000,1.88714157,2.88050884,4.06043305,1993,3042,4288,1129,1828,2632,1.06957107,1.73164810,2.49285440,0.41419232,0.57001501,0.69997508
54061,0,USWestVirginiaMonongalia,West Virginia,Monongalia,2021-01-05 06:02:38.326206,2020-11-29 00:00:00.000000,1.89721671,2.94897001,4.18399048,2003,3114,4418,1145,1858,2713,1.08502539,1.75999770,2.56889510,0.43516320,0.58510464,0.73646607
54061,0,USWestVirginiaMonongalia,West Virginia,Monongalia,2021-01-05 06:02:38.326206,2020-11-30 00:00:00.000000,1.92345281,3.04480125,4.32985014,2031,3215,4572,1178,1900,2795,1.11633867,1.79913487,2.64682707,0.46688292,0.60357502,0.76952123
54061,0,USWestVirginiaMonongalia,West Virginia,Monongalia,2021-01-05 06:02:38.326206,2020-12-01 00:00:00.000000,1.97036473,3.15629142,4.46062420,2080,3333,4710,1224,1949,2882,1.15910798,1.84626500,2.72905322,0.46710726,0.61709735,0.78014080
54061,0,USWestVirginiaMonongalia,West Virginia,Monongalia,2021-01-05 06:02:38.326206,2020-12-02 00:00:00.000000,2.03851506,3.25686567,4.59109859,2152,3439,4848,1276,2018,2973,1.20900835,1.91129030,2.81519927,0.46888244,0.63160861,0.81383973
54061,0,USWestVirginiaMonongalia,West Virginia,Monongalia,2021-01-05 06:02:38.326206,2020-12-03 00:00:00.000000,2.12912442,3.34720617,4.72907438,2248,3535,4994,1334,2078,3066,1.26374592,1.96764077,2.90342643,0.49271002,0.64379874,0.79532787
54061,0,USWestVirginiaMonongalia,West Virginia,Monongalia,2021-01-05 06:02:38.326206,2020-12-04 00:00:00.000000,2.23357539,3.49938119,4.91453579,2358,3695,5190,1365,2143,3224,1.29331295,2.02933369,3.05354830,0.52138329,0.64625402,0.80139794
54061,0,USWestVirginiaMonongalia,West Virginia,Monongalia,2021-01-05 06:02:38.326206,2020-12-05 00:00:00.000000,2.34546434,3.65592441,5.13670244,2477,3861,5424,1396,2215,3398,1.32240573,2.09784672,3.21815481,0.53451502,0.65356739,0.80033780
54061,0,USWestVirginiaMonongalia,West Virginia,Monongalia,2021-01-05 06:02:38.326206,2020-12-06 00:00:00.000000,2.49307303,3.80233422,5.34679780,2632,4015,5646,1450,2283,3548,1.37337070,2.16193799,3.35989997,0.53535325,0.65551048,0.81045439
54061,0,USWestVirginiaMonongalia,West Virginia,Monongalia,2021-01-05 06:02:38.326206,2020-12-07 00:00:00.000000,2.60274115,3.89597747,5.54193365,2748,4114,5852,1533,2381,3671,1.45162259,2.25450135,3.47652946,0.53167468,0.66365103,0.82043090
54061,0,USWestVirginiaMonongalia,West Virginia,Monongalia,2021-01-05 06:02:38.326206,2020-12-08 00:00:00.000000,2.70679942,4.05175079,5.73698006,2858,4279,6058,1592,2508,3775,1.50821260,2.37486793,3.57458469,0.51136017,0.66353283,0.82915769
54061,0,USWestVirginiaMonongalia,West Virginia,Monongalia,2021-01-05 06:02:38.326206,2020-12-09 00:00:00.000000,2.81666267,4.15101710,5.89501658,2974,4383,6225,1666,2619,3865,1.57807836,2.48013617,3.66035514,0.52441635,0.65906358,0.83490495
54061,0,USWestVirginiaMonongalia,West Virginia,Monongalia,2021-01-05 06:02:38.326206,2020-12-10 00:00:00.000000,2.92574797,4.25858666,6.12255625,3089,4497,6466,1718,2720,3972,1.62717836,2.57568816,3.76168116,0.53450689,0.65449718,0.83545117
54061,0,USWestVirginiaMonongalia,West Virginia,Monongalia,2021-01-05 06:02:38.326206,2020-12-11 00:00:00.000000,3.02445654,4.37908932,6.32019716,3194,4624,6674,1767,2796,4130,1.67360258,2.64811862,3.91057234,0.46785844,0.63653289,0.83905780
54061,0,USWestVirginiaMonongalia,West Virginia,Monongalia,2021-01-05 06:02:38.326206,2020-12-12 00:00:00.000000,3.10740912,4.49196779,6.47747970,3281,4744,6840,1812,2872,4269,1.71639561,2.72008842,4.04270664,0.44425870,0.62272341,0.83849390
54061,0,USWestVirginiaMonongalia,West Virginia,Monongalia,2021-01-05 06:02:38.326206,2020-12-13 00:00:00.000000,3.18163152,4.61433296,6.65141253,3360,4873,7024,1854,2941,4386,1.75599813,2.78478571,4.15331296,0.43028600,0.60183461,0.83636803
54061,0,USWestVirginiaMonongalia,West Virginia,Monongalia,2021-01-05 06:02:38.326206,2020-12-14 00:00:00.000000,3.22792923,4.68044501,6.82707513,3409,4943,7210,1900,2972,4477,1.79969905,2.81476769,4.23926008,0.43018604,0.59020985,0.83359835
54061,0,USWestVirginiaMonongalia,West Virginia,Monongalia,2021-01-05 06:02:38.326206,2020-12-15 00:00:00.000000,3.26271024,4.68490546,6.95706895,3445,4947,7347,1943,3037,4538,1.84064527,2.87630742,4.29713256,0.42198496,0.58324791,0.83090953
54061,0,USWestVirginiaMonongalia,West Virginia,Monongalia,2021-01-05 06:02:38.326206,2020-12-16 00:00:00.000000,3.29496546,4.69684985,7.05652399,3479,4960,7452,1984,3111,4610,1.87900813,2.94598254,4.36543310,0.41831302,0.57511740,0.82861254
54061,0,USWestVirginiaMonongalia,West Virginia,Monongalia,2021-01-05 06:02:38.326206,2020-12-17 00:00:00.000000,3.27691008,4.72632288,7.13476556,3460,4991,7535,2021,3121,4683,1.91412229,2.95596089,4.43419181,0.41809801,0.56688159,0.82569610
54061,0,USWestVirginiaMonongalia,West Virginia,Monongalia,2021-01-05 06:02:38.326206,2020-12-18 00:00:00.000000,3.25074397,4.73581570,7.19615640,3433,5001,7600,2042,3114,4738,1.93400138,2.94922653,4.48708827,0.41671833,0.55719381,0.81306385
54061,0,USWestVirginiaMonongalia,West Virginia,Monongalia,2021-01-05 06:02:38.326206,2020-12-19 00:00:00.000000,3.22293776,4.72932656,7.24782689,3403,4994,7654,2036,3122,4782,1.92792894,2.95641738,4.52858454,0.41655717,0.55146638,0.76946303
54061,0,USWestVirginiaMonongalia,West Virginia,Monongalia,2021-01-05 06:02:38.326206,2020-12-20 00:00:00.000000,3.20734631,4.68895997,7.28956880,3387,4952,7698,2018,3118,4817,1.91129785,2.95313467,4.56107368,0.41656893,0.55296169,0.76961730
54061,0,USWestVirginiaMonongalia,West Virginia,Monongalia,2021-01-05 06:02:38.326206,2020-12-21 00:00:00.000000,3.20353595,4.63183884,7.31828012,3383,4891,7728,1999,3088,4843,1.89357726,2.92421699,4.58584157,0.41678782,0.55034526,0.76836955
54061,0,USWestVirginiaMonongalia,West Virginia,Monongalia,2021-01-05 06:02:38.326206,2020-12-22 00:00:00.000000,3.18074378,4.60948102,7.33406858,3359,4868,7745,1977,3053,4861,1.87268123,2.89115392,4.60305709,0.40188382,0.56297632,0.78803888
54061,0,USWestVirginiaMonongalia,West Virginia,Monongalia,2021-01-05 06:02:38.326206,2020-12-23 00:00:00.000000,3.16127601,4.59680521,7.33898119,3338,4854,7750,1953,3007,4873,1.85006656,2.84735900,4.61428415,0.40161024,0.56791618,0.81543667
54061,0,USWestVirginiaMonongalia,West Virginia,Monongalia,2021-01-05 06:02:38.326206,2020-12-24 00:00:00.000000,3.15428605,4.60724767,7.34323845,3331,4865,7755,1928,2987,4879,1.82639454,2.82887511,4.62009545,0.41423392,0.56969268,0.83338227
54061,0,USWestVirginiaMonongalia,West Virginia,Monongalia,2021-01-05 06:02:38.326206,2020-12-25 00:00:00.000000,3.17276015,4.64304658,7.35800609,3350,4903,7770,1918,2976,4883,1.81643285,2.81806475,4.62361466,0.45704413,0.61176221,0.86041146
54061,0,USWestVirginiaMonongalia,West Virginia,Monongalia,2021-01-05 06:02:38.326206,2020-12-26 00:00:00.000000,3.22093897,4.69895255,7.38347270,3401,4962,7797,1933,2984,4890,1.83091771,2.82637621,4.63103406,0.46792473,0.64721118,0.93092372
54061,0,USWestVirginiaMonongalia,West Virginia,Monongalia,2021-01-05 06:02:38.326206,2020-12-27 00:00:00.000000,3.26548578,4.76928375,7.31774048,3448,5036,7728,1965,3025,4882,1.86142001,2.86448301,4.62340833,0.47156809,0.67836286,0.97754704
54061,0,USWestVirginiaMonongalia,West Virginia,Monongalia,2021-01-05 06:02:38.326206,2020-12-28 00:00:00.000000,3.25176253,4.80511783,7.18658504,3434,5074,7589,1966,3055,4904,1.86200899,2.89284647,4.64408952,0.47643722,0.71597001,1.01220041
54061,0,USWestVirginiaMonongalia,West Virginia,Monongalia,2021-01-05 06:02:38.326206,2020-12-29 00:00:00.000000,3.23961887,4.92538726,7.19575203,3421,5201,7599,1993,3108,4920,1.88752286,2.94295458,4.65927236,0.48057297,0.73682104,1.01649420
54061,0,USWestVirginiaMonongalia,West Virginia,Monongalia,2021-01-05 06:02:38.326206,2020-12-30 00:00:00.000000,3.26577032,5.05292141,7.19593027,3449,5336,7599,2017,3154,4930,1.90996330,2.98664952,4.66841064,0.47484573,0.74068576,1.01714457
54061,0,USWestVirginiaMonongalia,West Virginia,Monongalia,2021-01-05 06:02:38.326206,2020-12-31 00:00:00.000000,3.33509920,5.10184696,7.40205474,3522,5388,7817,2030,3209,4933,1.92285899,3.03858406,4.67167022,0.47485771,0.75844352,1.10072615
54061,0,USWestVirginiaMonongalia,West Virginia,Monongalia,2021-01-05 06:02:38.326206,2021-01-01 00:00:00.000000,3.42051407,5.17843369,7.36154149,3612,5469,7774,2046,3287,4932,1.93793307,3.11309109,4.67024992,0.47289843,0.75706490,1.13214928
54061,0,USWestVirginiaMonongalia,West Virginia,Monongalia,2021-01-05 06:02:38.326206,2021-01-02 00:00:00.000000,3.47499931,5.38311147,7.30857292,3670,5685,7718,2108,3354,4930,1.99640520,3.17593958,4.66831320,0.45885249,0.76030120,1.12249462
54061,0,USWestVirginiaMonongalia,West Virginia,Monongalia,2021-01-05 06:02:38.326206,2021-01-03 00:00:00.000000,3.52626620,5.56530303,7.38160054,3724,5877,7795,2180,3432,4928,2.06426500,3.25037493,4.66665188,0.45614797,0.77490928,1.18583876
54061,0,USWestVirginiaMonongalia,West Virginia,Monongalia,2021-01-05 06:02:38.326206,2021-01-04 00:00:00.000000,3.59283637,5.50822945,7.51641988,3794,5817,7938,2121,3530,4927,2.00879713,3.34272320,4.66523379,0.45358883,0.77521151,1.20675877
54061,0,USWestVirginiaMonongalia,West Virginia,Monongalia,2021-01-05 06:02:38.326206,2021-01-05 00:00:00.000000,3.53178156,5.49555343,7.77110759,3729,5803,8207,2204,3556,5073,2.08745363,3.36729056,4.80345834,0.45143357,0.77885273,1.21432796
54061,0,USWestVirginiaMonongalia,West Virginia,Monongalia,2021-01-05 06:02:38.326206,2021-01-06 00:00:00.000000,3.40604365,5.61358119,7.79311334,3597,5928,8230,2204,3587,5228,2.08771619,3.39700122,4.95062615,0.45018984,0.77208783,1.22815669
54061,0,USWestVirginiaMonongalia,West Virginia,Monongalia,2021-01-05 06:02:38.326206,2021-01-07 00:00:00.000000,3.28282567,5.76626625,7.87254787,3467,6089,8314,2168,3627,5372,2.05334895,3.43486247,5.08669223,0.44962557,0.77520434,1.23060106
54061,0,USWestVirginiaMonongalia,West Virginia,Monongalia,2021-01-05 06:02:38.326206,2021-01-08 00:00:00.000000,3.16175807,5.76506926,8.12690562,3339,6088,8582,2132,3601,5500,2.01885391,3.40965404,5.20835681,0.44937862,0.76210982,1.23173161
54061,0,USWestVirginiaMonongalia,West Virginia,Monongalia,2021-01-05 06:02:38.326206,2021-01-09 00:00:00.000000,3.04314102,5.75962051,8.35964844,3213,6082,8828,2074,3580,5612,1.96470498,3.39057116,5.31404218,0.44926317,0.76124741,1.23218092
54061,0,USWestVirginiaMonongalia,West Virginia,Monongalia,2021-01-05 06:02:38.326206,2021-01-10 00:00:00.000000,2.92716360,5.78687594,8.56724006,3091,6111,9048,1997,3635,5705,1.89124584,3.44241704,5.40235021,0.44920448,0.76091872,1.23234814
54061,0,USWestVirginiaMonongalia,West Virginia,Monongalia,2021-01-05 06:02:38.326206,2021-01-11 00:00:00.000000,2.81395849,5.75187327,8.74685222,2971,6074,9237,1921,3618,5779,1.81938681,3.42654067,5.47210142,0.44917259,0.76079234,1.23240884
54061,0,USWestVirginiaMonongalia,West Virginia,Monongalia,2021-01-05 06:02:38.326206,2021-01-12 00:00:00.000000,2.72803548,5.84182541,8.89600673,2881,6169,9395,1847,3575,5832,1.74921575,3.38541260,5.52236878,0.44915451,0.76074276,1.23243067
54061,0,USWestVirginiaMonongalia,West Virginia,Monongalia,2021-01-05 06:02:38.326206,2021-01-13 00:00:00.000000,2.67547030,5.75796202,9.01264805,2825,6081,9518,1775,3562,5864,1.68079836,3.37325114,5.55250449,0.44914400,0.76072277,1.23243850
54061,0,USWestVirginiaMonongalia,West Virginia,Monongalia,2021-01-05 06:02:38.326206,2021-01-14 00:00:00.000000,2.51487218,5.64522388,9.09520458,2656,5962,9605,1687,3627,5874,1.59819409,3.43443313,5.56215826,0.44913781,0.76071444,1.23244131
54061,0,USWestVirginiaMonongalia,West Virginia,Monongalia,2021-01-05 06:02:38.326206,2021-01-15 00:00:00.000000,2.38482066,5.56200419,9.14263499,2518,5874,9655,1584,3614,5963,1.50031399,3.42262534,5.64689616,0.44913413,0.76071085,1.23244231
54061,0,USWestVirginiaMonongalia,West Virginia,Monongalia,2021-01-05 06:02:38.326206,2021-01-16 00:00:00.000000,2.28388298,5.40829822,9.35634727,2412,5711,9881,1551,3560,6235,1.46874981,3.37086069,5.90391963,0.44913194,0.76070925,1.23244267
54061,0,USWestVirginiaMonongalia,West Virginia,Monongalia,2021-01-05 06:02:38.326206,2021-01-17 00:00:00.000000,2.18627178,5.26300320,9.68351133,2308,5558,10226,1501,3565,6498,1.42194870,3.37586259,6.15318131,0.44913064,0.76070850,1.23244280
