FIPS,HR_UID,nameid,province,region,analysisTime,dates,pointprevalence_025,pointprevalence_50,pointprevalence_975,pointinfections_025,pointinfections_50,pointinfections_975,pointinfectious_025,pointinfectious_50,pointinfectious_975,pointinfectiousprevalence_05,pointinfectiousprevalence_50,pointinfectiousprevalence_95,infectrate_025,infectrate_50,infectrate_975
26149,0,USMichiganSt.Joseph,Michigan,St. Joseph,2021-01-05 19:27:51.016008,2020-03-09 00:00:00.000000,0.00144866,0.00655374,0.01427039,0,3,8,0,2,4,0.00076845,0.00357977,0.00786483,0.40484262,0.60136945,0.73287236
26149,0,USMichiganSt.Joseph,Michigan,St. Joseph,2021-01-05 19:27:51.016008,2020-03-10 00:00:00.000000,0.00176286,0.00737917,0.01510496,1,4,9,0,2,4,0.00078818,0.00347198,0.00744500,0.40484464,0.60136952,0.73286531
26149,0,USMichiganSt.Joseph,Michigan,St. Joseph,2021-01-05 19:27:51.016008,2020-03-11 00:00:00.000000,0.00207467,0.00809833,0.01695676,1,4,10,0,2,4,0.00084641,0.00357113,0.00792870,0.40485206,0.60136971,0.73285068
26149,0,USMichiganSt.Joseph,Michigan,St. Joseph,2021-01-05 19:27:51.016008,2020-03-12 00:00:00.000000,0.00234767,0.00861212,0.01889595,1,5,11,0,2,4,0.00093183,0.00363196,0.00779095,0.40487941,0.60137023,0.73282033
26149,0,USMichiganSt.Joseph,Michigan,St. Joseph,2021-01-05 19:27:51.016008,2020-03-13 00:00:00.000000,0.00262291,0.00949890,0.02086510,1,5,12,0,2,4,0.00103792,0.00389351,0.00801559,0.40498036,0.60068626,0.73275734
26149,0,USMichiganSt.Joseph,Michigan,St. Joseph,2021-01-05 19:27:51.016008,2020-03-14 00:00:00.000000,0.00291606,0.01048186,0.02290408,1,6,13,0,2,5,0.00115100,0.00422419,0.00867023,0.40535298,0.59908048,0.73262671
26149,0,USMichiganSt.Joseph,Michigan,St. Joseph,2021-01-05 19:27:51.016008,2020-03-15 00:00:00.000000,0.00323033,0.01145920,0.02504393,1,6,15,0,2,5,0.00127647,0.00459033,0.00939800,0.40671979,0.59651641,0.73235605
26149,0,USMichiganSt.Joseph,Michigan,St. Joseph,2021-01-05 19:27:51.016008,2020-03-16 00:00:00.000000,0.00472690,0.01411633,0.03048582,2,8,18,0,3,6,0.00141399,0.00511079,0.01018541,0.41160088,0.59304579,0.73179655
26149,0,USMichiganSt.Joseph,Michigan,St. Joseph,2021-01-05 19:27:51.016008,2020-03-17 00:00:00.000000,0.00598058,0.01702382,0.03483667,3,10,21,1,3,6,0.00179940,0.00587391,0.01147980,0.41285769,0.59320206,0.73064567
26149,0,USMichiganSt.Joseph,Michigan,St. Joseph,2021-01-05 19:27:51.016008,2020-03-18 00:00:00.000000,0.00728241,0.02009794,0.04174771,4,12,25,1,4,7,0.00236585,0.00685289,0.01312075,0.43335201,0.58638086,0.72821863
26149,0,USMichiganSt.Joseph,Michigan,St. Joseph,2021-01-05 19:27:51.016008,2020-03-19 00:00:00.000000,0.00864025,0.02276910,0.05130367,5,13,31,1,5,9,0.00300974,0.00822743,0.01499203,0.42604069,0.57856991,0.72328248
26149,0,USMichiganSt.Joseph,Michigan,St. Joseph,2021-01-05 19:27:51.016008,2020-03-20 00:00:00.000000,0.01006349,0.02572374,0.05958561,6,15,36,2,5,10,0.00346703,0.00952422,0.01704325,0.41056091,0.56423755,0.71608704
26149,0,USMichiganSt.Joseph,Michigan,St. Joseph,2021-01-05 19:27:51.016008,2020-03-21 00:00:00.000000,0.01156012,0.02871206,0.06774191,7,17,41,2,6,12,0.00401666,0.01072332,0.02056151,0.40120500,0.54539407,0.70826173
26149,0,USMichiganSt.Joseph,Michigan,St. Joseph,2021-01-05 19:27:51.016008,2020-03-22 00:00:00.000000,0.01294638,0.03160235,0.07625774,7,19,46,2,7,14,0.00469952,0.01193158,0.02459226,0.38127095,0.52574745,0.69917691
26149,0,USMichiganSt.Joseph,Michigan,St. Joseph,2021-01-05 19:27:51.016008,2020-03-23 00:00:00.000000,0.01455239,0.03524617,0.08269627,8,21,50,3,8,17,0.00555442,0.01320314,0.02876912,0.37713787,0.51824977,0.65779190
26149,0,USMichiganSt.Joseph,Michigan,St. Joseph,2021-01-05 19:27:51.016008,2020-03-24 00:00:00.000000,0.01616742,0.03950133,0.08884132,9,24,54,4,8,19,0.00659793,0.01465785,0.03187501,0.37372868,0.50460288,0.64186264
26149,0,USMichiganSt.Joseph,Michigan,St. Joseph,2021-01-05 19:27:51.016008,2020-03-25 00:00:00.000000,0.01831994,0.04357768,0.09327461,11,26,56,4,10,21,0.00777486,0.01644151,0.03513730,0.35269895,0.50048912,0.64224012
26149,0,USMichiganSt.Joseph,Michigan,St. Joseph,2021-01-05 19:27:51.016008,2020-03-26 00:00:00.000000,0.02078589,0.04809040,0.09784207,12,29,59,5,11,23,0.00905336,0.01851085,0.03777948,0.32278242,0.49703109,0.63594979
26149,0,USMichiganSt.Joseph,Michigan,St. Joseph,2021-01-05 19:27:51.016008,2020-03-27 00:00:00.000000,0.02335876,0.05256993,0.10266336,14,32,62,6,12,24,0.01041589,0.02041412,0.04024579,0.30221987,0.49979274,0.65013595
26149,0,USMichiganSt.Joseph,Michigan,St. Joseph,2021-01-05 19:27:51.016008,2020-03-28 00:00:00.000000,0.02606302,0.05778612,0.11131663,15,35,67,7,13,26,0.01185471,0.02240739,0.04308915,0.29338829,0.48730584,0.63564434
26149,0,USMichiganSt.Joseph,Michigan,St. Joseph,2021-01-05 19:27:51.016008,2020-03-29 00:00:00.000000,0.02895035,0.06237845,0.12324310,17,38,75,8,14,28,0.01337089,0.02449452,0.04690027,0.29041351,0.43935635,0.61895100
26149,0,USMichiganSt.Joseph,Michigan,St. Joseph,2021-01-05 19:27:51.016008,2020-03-30 00:00:00.000000,0.03255213,0.06637283,0.13260899,19,40,80,9,16,31,0.01497723,0.02658592,0.05096378,0.29595347,0.43699670,0.58914265
26149,0,USMichiganSt.Joseph,Michigan,St. Joseph,2021-01-05 19:27:51.016008,2020-03-31 00:00:00.000000,0.03645460,0.07294395,0.14166826,22,44,86,10,17,33,0.01679832,0.02880292,0.05526416,0.29269651,0.42864941,0.58575364
26149,0,USMichiganSt.Joseph,Michigan,St. Joseph,2021-01-05 19:27:51.016008,2020-04-01 00:00:00.000000,0.04175146,0.08078174,0.15347889,25,49,93,11,19,36,0.01829905,0.03148073,0.05981507,0.28763161,0.42527958,0.58335528
26149,0,USMichiganSt.Joseph,Michigan,St. Joseph,2021-01-05 19:27:51.016008,2020-04-02 00:00:00.000000,0.04695258,0.08756191,0.16611914,28,53,101,11,20,39,0.01932293,0.03435488,0.06461755,0.28597044,0.41960127,0.58060914
26149,0,USMichiganSt.Joseph,Michigan,St. Joseph,2021-01-05 19:27:51.016008,2020-04-03 00:00:00.000000,0.05283175,0.09327953,0.17931177,32,56,109,12,22,42,0.02028717,0.03723721,0.06966156,0.28006276,0.40684235,0.57104177
26149,0,USMichiganSt.Joseph,Michigan,St. Joseph,2021-01-05 19:27:51.016008,2020-04-04 00:00:00.000000,0.05744662,0.09996107,0.19098439,35,60,116,12,25,45,0.02121598,0.04122770,0.07492889,0.26396963,0.39290271,0.57439791
26149,0,USMichiganSt.Joseph,Michigan,St. Joseph,2021-01-05 19:27:51.016008,2020-04-05 00:00:00.000000,0.06080708,0.10730695,0.19920521,37,65,121,14,26,49,0.02325536,0.04423491,0.08039834,0.25256813,0.38729572,0.58244830
26149,0,USMichiganSt.Joseph,Michigan,St. Joseph,2021-01-05 19:27:51.016008,2020-04-06 00:00:00.000000,0.06603958,0.11384994,0.20721565,40,69,126,15,28,52,0.02540007,0.04701599,0.08605315,0.25827586,0.37333196,0.58626067
26149,0,USMichiganSt.Joseph,Michigan,St. Joseph,2021-01-05 19:27:51.016008,2020-04-07 00:00:00.000000,0.06914016,0.12047997,0.21483106,42,73,130,17,30,56,0.02790408,0.05031432,0.09211348,0.26017523,0.37299873,0.56379721
26149,0,USMichiganSt.Joseph,Michigan,St. Joseph,2021-01-05 19:27:51.016008,2020-04-08 00:00:00.000000,0.07226911,0.12545514,0.22258351,44,76,135,18,32,60,0.03035122,0.05367759,0.09848043,0.26124827,0.37422184,0.53482559
26149,0,USMichiganSt.Joseph,Michigan,St. Joseph,2021-01-05 19:27:51.016008,2020-04-09 00:00:00.000000,0.07544182,0.13128424,0.23053218,45,80,140,19,34,63,0.03277507,0.05695531,0.10405396,0.26307170,0.36935317,0.49799292
26149,0,USMichiganSt.Joseph,Michigan,St. Joseph,2021-01-05 19:27:51.016008,2020-04-10 00:00:00.000000,0.07867029,0.13757457,0.23864112,47,83,145,21,36,67,0.03519181,0.05914240,0.11144943,0.26472082,0.36247257,0.47915545
26149,0,USMichiganSt.Joseph,Michigan,St. Joseph,2021-01-05 19:27:51.016008,2020-04-11 00:00:00.000000,0.08176960,0.14574172,0.24682315,49,88,150,22,37,72,0.03709918,0.06226406,0.11813681,0.26145615,0.35961342,0.46958873
26149,0,USMichiganSt.Joseph,Michigan,St. Joseph,2021-01-05 19:27:51.016008,2020-04-12 00:00:00.000000,0.08457905,0.15305199,0.25492469,51,93,155,23,40,75,0.03872441,0.06608178,0.12408890,0.25470950,0.35197753,0.46663071
26149,0,USMichiganSt.Joseph,Michigan,St. Joseph,2021-01-05 19:27:51.016008,2020-04-13 00:00:00.000000,0.09068789,0.16084555,0.27121544,55,98,165,24,42,78,0.04002836,0.06959402,0.12951051,0.25255375,0.34548789,0.49383828
26149,0,USMichiganSt.Joseph,Michigan,St. Joseph,2021-01-05 19:27:51.016008,2020-04-14 00:00:00.000000,0.09610181,0.17007524,0.28723433,58,103,175,24,43,82,0.04077290,0.07203562,0.13468945,0.25292794,0.33899557,0.50718096
26149,0,USMichiganSt.Joseph,Michigan,St. Joseph,2021-01-05 19:27:51.016008,2020-04-15 00:00:00.000000,0.09799334,0.17803470,0.30316437,59,108,184,25,46,85,0.04155642,0.07667254,0.13970616,0.25327111,0.33984877,0.50609988
26149,0,USMichiganSt.Joseph,Michigan,St. Joseph,2021-01-05 19:27:51.016008,2020-04-16 00:00:00.000000,0.09998413,0.18709260,0.31893860,60,114,194,25,49,89,0.04237109,0.08084694,0.14682083,0.24886299,0.33254414,0.49607807
26149,0,USMichiganSt.Joseph,Michigan,St. Joseph,2021-01-05 19:27:51.016008,2020-04-17 00:00:00.000000,0.10218930,0.19608612,0.33448106,62,119,203,26,51,93,0.04322364,0.08465081,0.15358035,0.25034102,0.33671427,0.46566364
26149,0,USMichiganSt.Joseph,Michigan,St. Joseph,2021-01-05 19:27:51.016008,2020-04-18 00:00:00.000000,0.10481050,0.20390890,0.34913931,63,124,212,26,54,96,0.04413461,0.08938103,0.15848761,0.25336091,0.32799429,0.46943684
26149,0,USMichiganSt.Joseph,Michigan,St. Joseph,2021-01-05 19:27:51.016008,2020-04-19 00:00:00.000000,0.10875832,0.21303256,0.35830745,66,129,218,28,57,99,0.04602504,0.09422113,0.16333262,0.25092982,0.33257465,0.47220893
26149,0,USMichiganSt.Joseph,Michigan,St. Joseph,2021-01-05 19:27:51.016008,2020-04-20 00:00:00.000000,0.11321433,0.22138514,0.36498652,69,134,222,29,60,102,0.04864227,0.09861497,0.16815635,0.25357321,0.33363082,0.47101105
26149,0,USMichiganSt.Joseph,Michigan,St. Joseph,2021-01-05 19:27:51.016008,2020-04-21 00:00:00.000000,0.11817487,0.23366156,0.37401891,72,142,228,31,63,105,0.05095877,0.10339573,0.17292450,0.25128308,0.33338341,0.46167485
26149,0,USMichiganSt.Joseph,Michigan,St. Joseph,2021-01-05 19:27:51.016008,2020-04-22 00:00:00.000000,0.12386151,0.24336038,0.38832192,75,148,236,32,65,108,0.05307711,0.10774773,0.17778427,0.24783791,0.33020630,0.46399528
26149,0,USMichiganSt.Joseph,Michigan,St. Joseph,2021-01-05 19:27:51.016008,2020-04-23 00:00:00.000000,0.12994488,0.25279638,0.40243113,79,154,245,33,68,111,0.05507002,0.11316659,0.18360470,0.25354585,0.32895070,0.46339125
26149,0,USMichiganSt.Joseph,Michigan,St. Joseph,2021-01-05 19:27:51.016008,2020-04-24 00:00:00.000000,0.13615787,0.26364632,0.41607267,83,160,253,34,72,116,0.05698679,0.11833325,0.19096482,0.25615211,0.32828607,0.44091986
26149,0,USMichiganSt.Joseph,Michigan,St. Joseph,2021-01-05 19:27:51.016008,2020-04-25 00:00:00.000000,0.14250982,0.27216151,0.43516440,86,165,265,35,74,122,0.05886165,0.12268798,0.20125707,0.25267171,0.33116857,0.42852603
26149,0,USMichiganSt.Joseph,Michigan,St. Joseph,2021-01-05 19:27:51.016008,2020-04-26 00:00:00.000000,0.15007953,0.28071951,0.45779129,91,171,279,37,77,125,0.06072405,0.12743754,0.20579194,0.24576755,0.32855471,0.45448513
26149,0,USMichiganSt.Joseph,Michigan,St. Joseph,2021-01-05 19:27:51.016008,2020-04-27 00:00:00.000000,0.16535366,0.29008530,0.47653855,100,176,290,38,80,128,0.06261725,0.13164846,0.21049797,0.24041996,0.32681160,0.45611292
26149,0,USMichiganSt.Joseph,Michigan,St. Joseph,2021-01-05 19:27:51.016008,2020-04-28 00:00:00.000000,0.17705564,0.29942984,0.49630111,107,182,302,39,83,133,0.06535190,0.13663309,0.21855519,0.23355356,0.32484798,0.45638638
26149,0,USMichiganSt.Joseph,Michigan,St. Joseph,2021-01-05 19:27:51.016008,2020-04-29 00:00:00.000000,0.18820020,0.30709885,0.51765459,114,187,315,43,86,139,0.07080066,0.14189852,0.22844251,0.22844745,0.32600230,0.45593591
26149,0,USMichiganSt.Joseph,Michigan,St. Joseph,2021-01-05 19:27:51.016008,2020-04-30 00:00:00.000000,0.19604156,0.31725720,0.53911289,119,193,328,47,89,146,0.07712725,0.14696860,0.24030113,0.22908732,0.32394920,0.45450238
26149,0,USMichiganSt.Joseph,Michigan,St. Joseph,2021-01-05 19:27:51.016008,2020-05-01 00:00:00.000000,0.20425874,0.32653425,0.56350238,124,199,343,51,92,154,0.08416081,0.15198932,0.25289694,0.23039641,0.31964834,0.45105182
26149,0,USMichiganSt.Joseph,Michigan,St. Joseph,2021-01-05 19:27:51.016008,2020-05-02 00:00:00.000000,0.21252414,0.33349249,0.59700772,129,203,363,55,95,161,0.09177946,0.15684480,0.26553972,0.22297737,0.31209143,0.44386783
26149,0,USMichiganSt.Joseph,Michigan,St. Joseph,2021-01-05 19:27:51.016008,2020-05-03 00:00:00.000000,0.21941601,0.33811200,0.61472652,133,206,374,59,98,169,0.09719039,0.16177495,0.27806980,0.22134760,0.30747986,0.43509458
26149,0,USMichiganSt.Joseph,Michigan,St. Joseph,2021-01-05 19:27:51.016008,2020-05-04 00:00:00.000000,0.22776472,0.34527332,0.63146331,138,210,384,62,101,178,0.10177329,0.16656815,0.29328384,0.22123632,0.30417954,0.43975726
26149,0,USMichiganSt.Joseph,Michigan,St. Joseph,2021-01-05 19:27:51.016008,2020-05-05 00:00:00.000000,0.24142667,0.35475662,0.64787611,147,216,394,64,102,188,0.10532576,0.16842779,0.30839345,0.21919181,0.30630974,0.44287761
26149,0,USMichiganSt.Joseph,Michigan,St. Joseph,2021-01-05 19:27:51.016008,2020-05-06 00:00:00.000000,0.25431747,0.36141194,0.66389988,155,220,404,66,104,195,0.10916316,0.17080642,0.32148444,0.21442916,0.30313608,0.43866552
26149,0,USMichiganSt.Joseph,Michigan,St. Joseph,2021-01-05 19:27:51.016008,2020-05-07 00:00:00.000000,0.26248179,0.36709125,0.67938765,160,223,414,69,107,202,0.11329623,0.17645698,0.33278258,0.21939757,0.29730628,0.42862361
26149,0,USMichiganSt.Joseph,Michigan,St. Joseph,2021-01-05 19:27:51.016008,2020-05-08 00:00:00.000000,0.26807042,0.37763316,0.69425992,163,230,423,71,111,208,0.11769014,0.18259137,0.34233396,0.22188064,0.29459617,0.40712587
26149,0,USMichiganSt.Joseph,Michigan,St. Joseph,2021-01-05 19:27:51.016008,2020-05-09 00:00:00.000000,0.27359119,0.38832410,0.70832054,166,236,431,74,113,213,0.12150415,0.18624326,0.35015636,0.22370907,0.29181349,0.40809617
26149,0,USMichiganSt.Joseph,Michigan,St. Joseph,2021-01-05 19:27:51.016008,2020-05-10 00:00:00.000000,0.27906489,0.39936518,0.72283893,170,243,440,75,115,217,0.12437518,0.19018247,0.35636548,0.22331226,0.29471014,0.40823695
26149,0,USMichiganSt.Joseph,Michigan,St. Joseph,2021-01-05 19:27:51.016008,2020-05-11 00:00:00.000000,0.28155924,0.40678916,0.73239992,171,247,446,77,119,220,0.12712219,0.19656522,0.36120271,0.22298951,0.29358477,0.41113544
26149,0,USMichiganSt.Joseph,Michigan,St. Joseph,2021-01-05 19:27:51.016008,2020-05-12 00:00:00.000000,0.28404543,0.41645326,0.74700406,173,253,455,78,122,222,0.12933382,0.20134918,0.36499555,0.22288096,0.29023260,0.41244997
26149,0,USMichiganSt.Joseph,Michigan,St. Joseph,2021-01-05 19:27:51.016008,2020-05-13 00:00:00.000000,0.28647639,0.42542964,0.77098923,174,259,470,79,126,227,0.13121968,0.20752040,0.37317523,0.22831111,0.29124152,0.41051909
26149,0,USMichiganSt.Joseph,Michigan,St. Joseph,2021-01-05 19:27:51.016008,2020-05-14 00:00:00.000000,0.28889297,0.43456086,0.78843242,176,264,480,80,129,233,0.13285275,0.21263704,0.38344064,0.22829829,0.29299126,0.40836944
26149,0,USMichiganSt.Joseph,Michigan,St. Joseph,2021-01-05 19:27:51.016008,2020-05-15 00:00:00.000000,0.29584893,0.44568221,0.81733996,180,271,498,81,133,236,0.13431466,0.21956796,0.38745806,0.22835788,0.29703588,0.41496661
26149,0,USMichiganSt.Joseph,Michigan,St. Joseph,2021-01-05 19:27:51.016008,2020-05-16 00:00:00.000000,0.30688735,0.45699942,0.84783513,187,278,516,82,137,243,0.13566708,0.22529399,0.39942466,0.22857818,0.30080750,0.43031193
26149,0,USMichiganSt.Joseph,Michigan,St. Joseph,2021-01-05 19:27:51.016008,2020-05-17 00:00:00.000000,0.31899838,0.46930473,0.87542619,194,286,533,83,139,251,0.13696167,0.22865941,0.41173210,0.22984853,0.29959626,0.45011762
26149,0,USMichiganSt.Joseph,Michigan,St. Joseph,2021-01-05 19:27:51.016008,2020-05-18 00:00:00.000000,0.33075129,0.47883760,0.89442585,201,291,545,84,142,258,0.13827171,0.23391352,0.42432197,0.23283368,0.29935869,0.45684814
26149,0,USMichiganSt.Joseph,Michigan,St. Joseph,2021-01-05 19:27:51.016008,2020-05-19 00:00:00.000000,0.33715763,0.49457884,0.91388360,205,301,557,85,146,267,0.13971403,0.23954110,0.43831825,0.23555598,0.30052944,0.46084291
26149,0,USMichiganSt.Joseph,Michigan,St. Joseph,2021-01-05 19:27:51.016008,2020-05-20 00:00:00.000000,0.34390498,0.50552174,0.93343638,209,308,569,86,149,272,0.14164098,0.24572909,0.44735287,0.23625559,0.30341092,0.46184564
26149,0,USMichiganSt.Joseph,Michigan,St. Joseph,2021-01-05 19:27:51.016008,2020-05-21 00:00:00.000000,0.35088845,0.52238017,0.95325084,213,318,581,87,153,279,0.14426417,0.25163088,0.45802569,0.23926040,0.30787096,0.46267885
26149,0,USMichiganSt.Joseph,Michigan,St. Joseph,2021-01-05 19:27:51.016008,2020-05-22 00:00:00.000000,0.35818932,0.53516407,0.97331733,218,326,593,89,157,285,0.14746520,0.25798797,0.46882440,0.24104980,0.31322249,0.46475023
26149,0,USMichiganSt.Joseph,Michigan,St. Joseph,2021-01-05 19:27:51.016008,2020-05-23 00:00:00.000000,0.36612658,0.54785999,0.99306190,223,333,605,93,161,292,0.15403942,0.26503307,0.47952507,0.24155123,0.31869257,0.47207245
26149,0,USMichiganSt.Joseph,Michigan,St. Joseph,2021-01-05 19:27:51.016008,2020-05-24 00:00:00.000000,0.37101100,0.57024907,1.00991513,226,347,615,97,165,298,0.15952993,0.27211610,0.49011002,0.24251139,0.32021872,0.44796861
26149,0,USMichiganSt.Joseph,Michigan,St. Joseph,2021-01-05 19:27:51.016008,2020-05-25 00:00:00.000000,0.37607636,0.58905064,1.02686470,229,359,626,99,169,304,0.16312607,0.27805855,0.50019458,0.24346685,0.32835041,0.42408440
26149,0,USMichiganSt.Joseph,Michigan,St. Joseph,2021-01-05 19:27:51.016008,2020-05-26 00:00:00.000000,0.38217312,0.61018303,1.07338836,232,371,654,101,172,310,0.16710997,0.28293594,0.50928420,0.23684157,0.33989142,0.42822981
26149,0,USMichiganSt.Joseph,Michigan,St. Joseph,2021-01-05 19:27:51.016008,2020-05-27 00:00:00.000000,0.39070897,0.62796198,1.10034320,238,382,670,104,176,318,0.17141794,0.28969072,0.52244756,0.24122661,0.33919674,0.43494916
26149,0,USMichiganSt.Joseph,Michigan,St. Joseph,2021-01-05 19:27:51.016008,2020-05-28 00:00:00.000000,0.40502369,0.64289303,1.11938335,246,391,682,106,181,329,0.17482017,0.29811418,0.54106075,0.24482710,0.34032500,0.45375071
26149,0,USMichiganSt.Joseph,Michigan,St. Joseph,2021-01-05 19:27:51.016008,2020-05-29 00:00:00.000000,0.42068745,0.66037465,1.14859419,256,402,700,110,187,335,0.18093726,0.30797275,0.55097366,0.24543275,0.34016186,0.47108318
26149,0,USMichiganSt.Joseph,Michigan,St. Joseph,2021-01-05 19:27:51.016008,2020-05-30 00:00:00.000000,0.43971118,0.67941341,1.17534050,268,414,716,114,194,342,0.18751023,0.31954560,0.56250360,0.24611234,0.33492062,0.47063600
26149,0,USMichiganSt.Joseph,Michigan,St. Joseph,2021-01-05 19:27:51.016008,2020-05-31 00:00:00.000000,0.46096274,0.69877826,1.19580735,281,426,729,118,202,353,0.19460950,0.33145239,0.57967785,0.24691204,0.33427080,0.47065640
26149,0,USMichiganSt.Joseph,Michigan,St. Joseph,2021-01-05 19:27:51.016008,2020-06-01 00:00:00.000000,0.48224041,0.72448392,1.22035176,293,441,743,123,208,362,0.20233529,0.34176131,0.59500479,0.26036141,0.33968543,0.47501353
26149,0,USMichiganSt.Joseph,Michigan,St. Joseph,2021-01-05 19:27:51.016008,2020-06-02 00:00:00.000000,0.50862488,0.75589331,1.25219246,310,460,763,128,212,371,0.21147241,0.34778994,0.60948532,0.24969756,0.34306523,0.47690796
26149,0,USMichiganSt.Joseph,Michigan,St. Joseph,2021-01-05 19:27:51.016008,2020-06-03 00:00:00.000000,0.52696941,0.78208889,1.28506061,321,476,783,135,217,380,0.22189556,0.35648562,0.62334127,0.25138231,0.33840463,0.47713076
26149,0,USMichiganSt.Joseph,Michigan,St. Joseph,2021-01-05 19:27:51.016008,2020-06-04 00:00:00.000000,0.55010632,0.79830499,1.31718366,335,486,803,142,226,388,0.23351255,0.37113594,0.63672212,0.25274737,0.34234930,0.47628326
26149,0,USMichiganSt.Joseph,Michigan,St. Joseph,2021-01-05 19:27:51.016008,2020-06-05 00:00:00.000000,0.56900698,0.82655529,1.34750153,346,503,821,150,232,396,0.24624033,0.38189265,0.64964584,0.25577777,0.34763021,0.47486203
26149,0,USMichiganSt.Joseph,Michigan,St. Joseph,2021-01-05 19:27:51.016008,2020-06-06 00:00:00.000000,0.58713433,0.84834018,1.37564510,357,517,838,158,240,403,0.26000233,0.39450479,0.66197739,0.25310245,0.34880967,0.47361812
26149,0,USMichiganSt.Joseph,Michigan,St. Joseph,2021-01-05 19:27:51.016008,2020-06-07 00:00:00.000000,0.60683575,0.86675715,1.40181564,369,528,854,167,243,410,0.27395851,0.39986379,0.67356025,0.25147864,0.35106315,0.47090103
26149,0,USMichiganSt.Joseph,Michigan,St. Joseph,2021-01-05 19:27:51.016008,2020-06-08 00:00:00.000000,0.62648705,0.88710417,1.42603640,381,540,869,171,249,417,0.28158496,0.40967022,0.68493553,0.25075988,0.36112741,0.46784081
26149,0,USMichiganSt.Joseph,Michigan,St. Joseph,2021-01-05 19:27:51.016008,2020-06-09 00:00:00.000000,0.64723362,0.91095254,1.43414629,394,555,874,176,257,426,0.29025043,0.42289647,0.69888865,0.24991987,0.36761994,0.46875268
26149,0,USMichiganSt.Joseph,Michigan,St. Joseph,2021-01-05 19:27:51.016008,2020-06-10 00:00:00.000000,0.66899641,0.94042504,1.45883728,407,573,889,182,267,434,0.29978239,0.43879582,0.71231639,0.24980402,0.37100143,0.47176247
26149,0,USMichiganSt.Joseph,Michigan,St. Joseph,2021-01-05 19:27:51.016008,2020-06-11 00:00:00.000000,0.68653434,0.97588993,1.49778435,418,594,913,186,279,442,0.30598271,0.45837491,0.72533331,0.25004840,0.36889066,0.47605126
26149,0,USMichiganSt.Joseph,Michigan,St. Joseph,2021-01-05 19:27:51.016008,2020-06-12 00:00:00.000000,0.70245252,1.01704165,1.53067172,428,620,933,194,287,449,0.31950940,0.47168724,0.73808594,0.25104587,0.35740687,0.47865387
26149,0,USMichiganSt.Joseph,Michigan,St. Joseph,2021-01-05 19:27:51.016008,2020-06-13 00:00:00.000000,0.71885207,1.05195403,1.57969203,438,641,963,202,295,457,0.33193637,0.48488493,0.75081210,0.25312815,0.35767381,0.48655267
26149,0,USMichiganSt.Joseph,Michigan,St. Joseph,2021-01-05 19:27:51.016008,2020-06-14 00:00:00.000000,0.74241275,1.08248912,1.62581201,452,659,991,209,305,468,0.34375362,0.50082102,0.76803073,0.23791898,0.34724242,0.49719300
26149,0,USMichiganSt.Joseph,Michigan,St. Joseph,2021-01-05 19:27:51.016008,2020-06-15 00:00:00.000000,0.78442607,1.11545810,1.66447108,478,680,1014,217,317,483,0.35618237,0.52080517,0.79384868,0.23425561,0.34589649,0.52009285
26149,0,USMichiganSt.Joseph,Michigan,St. Joseph,2021-01-05 19:27:51.016008,2020-06-16 00:00:00.000000,0.82964866,1.14778019,1.69911174,505,699,1035,224,330,501,0.36891747,0.54280042,0.82313801,0.23387228,0.34101241,0.53015714
26149,0,USMichiganSt.Joseph,Michigan,St. Joseph,2021-01-05 19:27:51.016008,2020-06-17 00:00:00.000000,0.86759405,1.16532031,1.73134127,528,710,1055,232,342,518,0.38205793,0.56246963,0.85101872,0.23283168,0.33819927,0.53355661
26149,0,USMichiganSt.Joseph,Michigan,St. Joseph,2021-01-05 19:27:51.016008,2020-06-18 00:00:00.000000,0.88595631,1.19423960,1.76408958,540,728,1075,241,347,534,0.39564817,0.57079502,0.87746995,0.22806862,0.33939343,0.53428658
26149,0,USMichiganSt.Joseph,Michigan,St. Joseph,2021-01-05 19:27:51.016008,2020-06-19 00:00:00.000000,0.92488701,1.22437892,1.79782151,563,746,1096,248,356,549,0.40821483,0.58450546,0.90149970,0.21963904,0.33816906,0.53335179
26149,0,USMichiganSt.Joseph,Michigan,St. Joseph,2021-01-05 19:27:51.016008,2020-06-20 00:00:00.000000,0.96510816,1.24810765,1.83044914,588,760,1115,254,366,564,0.41814525,0.60053844,0.92611262,0.21789665,0.33882131,0.52981275
26149,0,USMichiganSt.Joseph,Michigan,St. Joseph,2021-01-05 19:27:51.016008,2020-06-21 00:00:00.000000,0.98817887,1.28919676,1.86274739,602,785,1135,260,375,577,0.42798172,0.61603217,0.94799679,0.22436918,0.33843916,0.50543963
26149,0,USMichiganSt.Joseph,Michigan,St. Joseph,2021-01-05 19:27:51.016008,2020-06-22 00:00:00.000000,0.99983913,1.32214394,1.89298083,609,806,1154,267,379,590,0.43860111,0.62283065,0.96799905,0.22307730,0.33447753,0.47979722
26149,0,USMichiganSt.Joseph,Michigan,St. Joseph,2021-01-05 19:27:51.016008,2020-06-23 00:00:00.000000,1.01177653,1.35814594,1.92318046,616,827,1172,276,386,600,0.45329092,0.63461140,0.98533281,0.22249719,0.33064539,0.46900819
26149,0,USMichiganSt.Joseph,Michigan,St. Joseph,2021-01-05 19:27:51.016008,2020-06-24 00:00:00.000000,1.02412696,1.37760093,1.98310119,624,839,1208,281,390,609,0.46204740,0.64068051,1.00041768,0.22223373,0.32256614,0.45329354
26149,0,USMichiganSt.Joseph,Michigan,St. Joseph,2021-01-05 19:27:51.016008,2020-06-25 00:00:00.000000,1.03716058,1.39631729,2.04135460,632,851,1244,289,404,617,0.47431322,0.66377989,1.01367234,0.22211196,0.31865521,0.44903129
26149,0,USMichiganSt.Joseph,Michigan,St. Joseph,2021-01-05 19:27:51.016008,2020-06-26 00:00:00.000000,1.06240998,1.41782043,2.12733026,647,864,1296,296,413,632,0.48639136,0.67791463,1.03773660,0.21848740,0.30883660,0.44032416
26149,0,USMichiganSt.Joseph,Michigan,St. Joseph,2021-01-05 19:27:51.016008,2020-06-27 00:00:00.000000,1.06545736,1.44454882,2.19769622,649,880,1339,303,420,650,0.49803378,0.68905084,1.06770379,0.21104049,0.30388423,0.40634819
26149,0,USMichiganSt.Joseph,Michigan,St. Joseph,2021-01-05 19:27:51.016008,2020-06-28 00:00:00.000000,1.08084676,1.47057276,2.19284123,658,896,1336,310,424,661,0.50893374,0.69579628,1.08555279,0.20661787,0.29599863,0.39409893
26149,0,USMichiganSt.Joseph,Michigan,St. Joseph,2021-01-05 19:27:51.016008,2020-06-29 00:00:00.000000,1.09554560,1.50430547,2.18138606,667,917,1329,313,429,669,0.51454173,0.70500641,1.09808051,0.20380076,0.28796817,0.39172219
26149,0,USMichiganSt.Joseph,Michigan,St. Joseph,2021-01-05 19:27:51.016008,2020-06-30 00:00:00.000000,1.10912292,1.52307265,2.19467447,676,928,1337,317,439,676,0.52002511,0.72051170,1.10890392,0.19790753,0.27775524,0.39076599
26149,0,USMichiganSt.Joseph,Michigan,St. Joseph,2021-01-05 19:27:51.016008,2020-07-01 00:00:00.000000,1.11942619,1.52467587,2.22301265,682,929,1355,320,453,690,0.52540356,0.74376339,1.13244348,0.18596418,0.27280760,0.37218089
26149,0,USMichiganSt.Joseph,Michigan,St. Joseph,2021-01-05 19:27:51.016008,2020-07-02 00:00:00.000000,1.12622419,1.52014336,2.24940747,686,926,1371,320,463,704,0.52598985,0.75972362,1.15596237,0.17407003,0.27044745,0.36974549
26149,0,USMichiganSt.Joseph,Michigan,St. Joseph,2021-01-05 19:27:51.016008,2020-07-03 00:00:00.000000,1.13108588,1.54765456,2.31546606,689,943,1411,319,468,708,0.52439678,0.76858336,1.16288773,0.16407575,0.26804329,0.36333551
26149,0,USMichiganSt.Joseph,Michigan,St. Joseph,2021-01-05 19:27:51.016008,2020-07-04 00:00:00.000000,1.15270996,1.55250243,2.34224850,702,946,1427,325,473,711,0.53352545,0.77635968,1.16652508,0.15459761,0.25629644,0.37471302
26149,0,USMichiganSt.Joseph,Michigan,St. Joseph,2021-01-05 19:27:51.016008,2020-07-05 00:00:00.000000,1.16595064,1.56115790,2.33434000,710,951,1423,331,478,711,0.54340245,0.78537176,1.16730940,0.15271644,0.25114170,0.36097513
26149,0,USMichiganSt.Joseph,Michigan,St. Joseph,2021-01-05 19:27:51.016008,2020-07-06 00:00:00.000000,1.16155428,1.56113383,2.32052270,708,951,1414,332,478,710,0.54622144,0.78439215,1.16614092,0.15240982,0.25023928,0.34777220
26149,0,USMichiganSt.Joseph,Michigan,St. Joseph,2021-01-05 19:27:51.016008,2020-07-07 00:00:00.000000,1.15737417,1.56369369,2.30393567,705,953,1404,334,475,711,0.54887284,0.78077525,1.16639105,0.15235123,0.24814899,0.34743311
26149,0,USMichiganSt.Joseph,Michigan,St. Joseph,2021-01-05 19:27:51.016008,2020-07-08 00:00:00.000000,1.15390292,1.55826124,2.28614244,703,949,1393,338,474,720,0.55495965,0.77832538,1.18104836,0.15234661,0.24781647,0.34717867
26149,0,USMichiganSt.Joseph,Michigan,St. Joseph,2021-01-05 19:27:51.016008,2020-07-09 00:00:00.000000,1.15077390,1.54975039,2.26755632,701,944,1382,339,473,725,0.55676018,0.77687678,1.18926247,0.15238434,0.24724291,0.34662453
26149,0,USMichiganSt.Joseph,Michigan,St. Joseph,2021-01-05 19:27:51.016008,2020-07-10 00:00:00.000000,1.14766806,1.55811660,2.24737274,699,949,1370,340,471,727,0.55840188,0.77408190,1.19313368,0.15259011,0.24261979,0.34498133
26149,0,USMichiganSt.Joseph,Michigan,St. Joseph,2021-01-05 19:27:51.016008,2020-07-11 00:00:00.000000,1.14497091,1.55319106,2.22123104,698,946,1354,341,472,727,0.55972866,0.77534702,1.19388596,0.16250431,0.24211729,0.34456062
26149,0,USMichiganSt.Joseph,Michigan,St. Joseph,2021-01-05 19:27:51.016008,2020-07-12 00:00:00.000000,1.14050021,1.55227793,2.18828759,695,946,1334,342,473,726,0.56117020,0.77690971,1.19234000,0.15542188,0.24110636,0.34496876
26149,0,USMichiganSt.Joseph,Michigan,St. Joseph,2021-01-05 19:27:51.016008,2020-07-13 00:00:00.000000,1.12830420,1.54982987,2.17504429,687,944,1325,343,473,724,0.56386091,0.77750226,1.18905909,0.15683644,0.24041120,0.33733229
26149,0,USMichiganSt.Joseph,Michigan,St. Joseph,2021-01-05 19:27:51.016008,2020-07-14 00:00:00.000000,1.11388814,1.54738409,2.16102232,679,943,1317,345,472,718,0.56708145,0.77573382,1.17816534,0.15754062,0.24374617,0.31025733
26149,0,USMichiganSt.Joseph,Michigan,St. Joseph,2021-01-05 19:27:51.016008,2020-07-15 00:00:00.000000,1.09905487,1.54559140,2.14650327,670,942,1308,347,472,705,0.57066833,0.77536677,1.15684378,0.15847087,0.24144486,0.31008733
26149,0,USMichiganSt.Joseph,Michigan,St. Joseph,2021-01-05 19:27:51.016008,2020-07-16 00:00:00.000000,1.08280606,1.54661326,2.13139294,660,942,1299,348,469,690,0.57189789,0.77093873,1.13281014,0.16005185,0.23975802,0.30971319
26149,0,USMichiganSt.Joseph,Michigan,St. Joseph,2021-01-05 19:27:51.016008,2020-07-17 00:00:00.000000,1.06436707,1.54330680,2.11498676,648,940,1289,344,472,674,0.56501289,0.77531918,1.10694516,0.16146805,0.23424008,0.30113859
26149,0,USMichiganSt.Joseph,Michigan,St. Joseph,2021-01-05 19:27:51.016008,2020-07-18 00:00:00.000000,1.04430299,1.55307054,2.13565386,636,946,1301,339,470,678,0.55720731,0.77200281,1.11246010,0.15775104,0.22767751,0.29493657
26149,0,USMichiganSt.Joseph,Michigan,St. Joseph,2021-01-05 19:27:51.016008,2020-07-19 00:00:00.000000,1.02488609,1.53138860,2.15373581,624,933,1313,334,468,685,0.54854243,0.76808901,1.12465108,0.15174426,0.22256678,0.29718042
26149,0,USMichiganSt.Joseph,Michigan,St. Joseph,2021-01-05 19:27:51.016008,2020-07-20 00:00:00.000000,1.00673875,1.50369560,2.16238728,613,916,1318,329,468,692,0.54084821,0.76895920,1.13609908,0.14814755,0.21881057,0.30021934
26149,0,USMichiganSt.Joseph,Michigan,St. Joseph,2021-01-05 19:27:51.016008,2020-07-21 00:00:00.000000,0.99013355,1.48099615,2.16550089,603,902,1320,327,469,690,0.53737180,0.77002572,1.13219878,0.14647523,0.21148028,0.29928678
26149,0,USMichiganSt.Joseph,Michigan,St. Joseph,2021-01-05 19:27:51.016008,2020-07-22 00:00:00.000000,0.97415309,1.46421441,2.15385227,593,892,1313,325,466,682,0.53374109,0.76574442,1.11873172,0.14548921,0.20857663,0.29561234
26149,0,USMichiganSt.Joseph,Michigan,St. Joseph,2021-01-05 19:27:51.016008,2020-07-23 00:00:00.000000,0.95936779,1.43441318,2.10351015,584,874,1282,323,459,672,0.53001072,0.75346645,1.10265679,0.15169220,0.20525244,0.29086725
26149,0,USMichiganSt.Joseph,Michigan,St. Joseph,2021-01-05 19:27:51.016008,2020-07-24 00:00:00.000000,0.94684575,1.42374687,2.05852392,577,867,1254,320,451,660,0.52622081,0.74111894,1.08368569,0.15427050,0.20351415,0.28569807
26149,0,USMichiganSt.Joseph,Michigan,St. Joseph,2021-01-05 19:27:51.016008,2020-07-25 00:00:00.000000,0.93721469,1.40255232,2.05735757,571,855,1254,318,444,650,0.52246754,0.72881386,1.06741246,0.14482980,0.20073559,0.27690048
26149,0,USMichiganSt.Joseph,Michigan,St. Joseph,2021-01-05 19:27:51.016008,2020-07-26 00:00:00.000000,0.92967686,1.37490750,2.04212059,566,838,1244,314,437,650,0.51583615,0.71750723,1.06674326,0.13456604,0.19757452,0.27507765
26149,0,USMichiganSt.Joseph,Michigan,St. Joseph,2021-01-05 19:27:51.016008,2020-07-27 00:00:00.000000,0.91938173,1.34626917,2.01274882,560,820,1227,308,434,648,0.50680113,0.71297470,1.06296536,0.12933328,0.19621373,0.27290899
26149,0,USMichiganSt.Joseph,Michigan,St. Joseph,2021-01-05 19:27:51.016008,2020-07-28 00:00:00.000000,0.90964917,1.30969128,1.97545509,554,798,1204,304,425,643,0.49881360,0.69724824,1.05506511,0.12579246,0.19163380,0.26993096
26149,0,USMichiganSt.Joseph,Michigan,St. Joseph,2021-01-05 19:27:51.016008,2020-07-29 00:00:00.000000,0.90014641,1.29193983,1.93417851,548,787,1179,300,418,636,0.49220403,0.68605973,1.04414422,0.12514037,0.18616440,0.26710631
26149,0,USMichiganSt.Joseph,Michigan,St. Joseph,2021-01-05 19:27:51.016008,2020-07-30 00:00:00.000000,0.88316279,1.26641797,1.87086580,538,772,1140,295,410,628,0.48552676,0.67375993,1.03085303,0.12454058,0.17954818,0.26396173
26149,0,USMichiganSt.Joseph,Michigan,St. Joseph,2021-01-05 19:27:51.016008,2020-07-31 00:00:00.000000,0.86412104,1.24070369,1.83046603,526,756,1115,290,403,617,0.47704056,0.66261551,1.01363279,0.12368109,0.17576148,0.25834415
26149,0,USMichiganSt.Joseph,Michigan,St. Joseph,2021-01-05 19:27:51.016008,2020-08-01 00:00:00.000000,0.85578775,1.21668680,1.78803905,521,741,1090,288,397,607,0.47282428,0.65191469,0.99699981,0.12374273,0.17469500,0.24894906
26149,0,USMichiganSt.Joseph,Michigan,St. Joseph,2021-01-05 19:27:51.016008,2020-08-02 00:00:00.000000,0.83542569,1.19592365,1.74540436,509,729,1064,279,390,596,0.45842971,0.64044685,0.97917035,0.12261799,0.17287295,0.23987466
26149,0,USMichiganSt.Joseph,Michigan,St. Joseph,2021-01-05 19:27:51.016008,2020-08-03 00:00:00.000000,0.83538385,1.17016363,1.70837956,509,713,1041,273,384,585,0.44905356,0.63066113,0.96056327,0.11937256,0.17241141,0.23441882
26149,0,USMichiganSt.Joseph,Michigan,St. Joseph,2021-01-05 19:27:51.016008,2020-08-04 00:00:00.000000,0.82756744,1.15572888,1.67194427,504,704,1019,270,378,574,0.44399917,0.62063345,0.94155146,0.11821853,0.17437071,0.23612810
26149,0,USMichiganSt.Joseph,Michigan,St. Joseph,2021-01-05 19:27:51.016008,2020-08-05 00:00:00.000000,0.80331510,1.12593929,1.63626912,489,686,997,263,370,562,0.43265920,0.60840958,0.92212667,0.11615262,0.17478879,0.23858279
26149,0,USMichiganSt.Joseph,Michigan,St. Joseph,2021-01-05 19:27:51.016008,2020-08-06 00:00:00.000000,0.77122863,1.10664831,1.60134620,470,674,976,253,364,550,0.41659422,0.59863910,0.90291962,0.11472296,0.17764075,0.23983094
26149,0,USMichiganSt.Joseph,Michigan,St. Joseph,2021-01-05 19:27:51.016008,2020-08-07 00:00:00.000000,0.74217381,1.09172407,1.56704368,452,665,955,244,358,538,0.40087366,0.58868604,0.88398357,0.11369618,0.17600021,0.23982609
26149,0,USMichiganSt.Joseph,Michigan,St. Joseph,2021-01-05 19:27:51.016008,2020-08-08 00:00:00.000000,0.72543211,1.07399643,1.53267138,442,654,934,235,350,527,0.38557946,0.57526224,0.86533487,0.11210239,0.17541798,0.23841061
26149,0,USMichiganSt.Joseph,Michigan,St. Joseph,2021-01-05 19:27:51.016008,2020-08-09 00:00:00.000000,0.71276750,1.05040298,1.49635853,434,640,912,226,343,516,0.37087129,0.56274271,0.84687634,0.11081344,0.17565229,0.23363189
26149,0,USMichiganSt.Joseph,Michigan,St. Joseph,2021-01-05 19:27:51.016008,2020-08-10 00:00:00.000000,0.69250069,1.02875206,1.45208147,422,627,885,217,335,504,0.35701181,0.54987356,0.82824480,0.10961817,0.17916285,0.23137124
26149,0,USMichiganSt.Joseph,Michigan,St. Joseph,2021-01-05 19:27:51.016008,2020-08-11 00:00:00.000000,0.67027613,1.00770800,1.40839957,408,614,858,209,327,492,0.34417731,0.53703884,0.80823695,0.10856202,0.18239092,0.23045354
26149,0,USMichiganSt.Joseph,Michigan,St. Joseph,2021-01-05 19:27:51.016008,2020-08-12 00:00:00.000000,0.65259461,0.99031420,1.36720671,397,603,833,203,323,479,0.33395976,0.53049978,0.78733430,0.10832493,0.18245801,0.23007842
26149,0,USMichiganSt.Joseph,Michigan,St. Joseph,2021-01-05 19:27:51.016008,2020-08-13 00:00:00.000000,0.63769100,0.97587499,1.33199175,388,594,812,195,321,467,0.32121972,0.52692984,0.76620350,0.11177720,0.18150884,0.23380725
26149,0,USMichiganSt.Joseph,Michigan,St. Joseph,2021-01-05 19:27:51.016008,2020-08-14 00:00:00.000000,0.62832629,0.96066949,1.31324227,383,585,800,189,315,454,0.31017846,0.51804858,0.74550642,0.12160806,0.18170775,0.25330089
26149,0,USMichiganSt.Joseph,Michigan,St. Joseph,2021-01-05 19:27:51.016008,2020-08-15 00:00:00.000000,0.60946150,0.93771479,1.29475916,371,571,789,182,310,442,0.30008003,0.50864707,0.72568400,0.12320859,0.18305765,0.25468942
26149,0,USMichiganSt.Joseph,Michigan,St. Joseph,2021-01-05 19:27:51.016008,2020-08-16 00:00:00.000000,0.59223126,0.91564491,1.26395273,361,558,770,177,304,430,0.29054636,0.49916034,0.70687308,0.12181283,0.18399236,0.25623349
26149,0,USMichiganSt.Joseph,Michigan,St. Joseph,2021-01-05 19:27:51.016008,2020-08-17 00:00:00.000000,0.57932192,0.90500755,1.23412638,353,551,752,171,297,423,0.28163017,0.48767875,0.69447056,0.12336810,0.18862764,0.26178264
26149,0,USMichiganSt.Joseph,Michigan,St. Joseph,2021-01-05 19:27:51.016008,2020-08-18 00:00:00.000000,0.56651272,0.89477435,1.22939523,345,545,749,167,291,414,0.27401526,0.47876210,0.68015604,0.12497369,0.18690960,0.26463639
26149,0,USMichiganSt.Joseph,Michigan,St. Joseph,2021-01-05 19:27:51.016008,2020-08-19 00:00:00.000000,0.55456182,0.87221382,1.21600300,338,531,741,163,285,403,0.26798388,0.46789420,0.66267562,0.12547245,0.18748200,0.26223015
26149,0,USMichiganSt.Joseph,Michigan,St. Joseph,2021-01-05 19:27:51.016008,2020-08-20 00:00:00.000000,0.54325105,0.85366531,1.20912395,331,520,737,160,280,400,0.26369806,0.45953494,0.65652923,0.12699858,0.18997954,0.27747240
26149,0,USMichiganSt.Joseph,Michigan,St. Joseph,2021-01-05 19:27:51.016008,2020-08-21 00:00:00.000000,0.53246910,0.83351327,1.20449708,324,508,734,159,278,397,0.26113853,0.45692611,0.65176358,0.13060363,0.19387716,0.28499596
26149,0,USMichiganSt.Joseph,Michigan,St. Joseph,2021-01-05 19:27:51.016008,2020-08-22 00:00:00.000000,0.52215211,0.82187849,1.19635881,318,501,729,158,273,390,0.26008266,0.44887617,0.64064429,0.13811058,0.19646760,0.29136557
26149,0,USMichiganSt.Joseph,Michigan,St. Joseph,2021-01-05 19:27:51.016008,2020-08-23 00:00:00.000000,0.51248838,0.81564983,1.18742697,312,497,723,158,267,383,0.26021843,0.43893740,0.62924050,0.14163551,0.20025578,0.29574255
26149,0,USMichiganSt.Joseph,Michigan,St. Joseph,2021-01-05 19:27:51.016008,2020-08-24 00:00:00.000000,0.50680877,0.79827833,1.18950859,308,486,725,155,260,380,0.25586798,0.42717843,0.62340277,0.14228804,0.20815818,0.30713725
26149,0,USMichiganSt.Joseph,Michigan,St. Joseph,2021-01-05 19:27:51.016008,2020-08-25 00:00:00.000000,0.50513471,0.78813722,1.18813327,307,480,724,152,255,382,0.25015795,0.41965297,0.62734373,0.14326868,0.21589004,0.30778256
26149,0,USMichiganSt.Joseph,Michigan,St. Joseph,2021-01-05 19:27:51.016008,2020-08-26 00:00:00.000000,0.50429145,0.78137614,1.16818518,307,476,712,148,250,384,0.24285373,0.41146715,0.63137966,0.14493258,0.21995398,0.31291940
26149,0,USMichiganSt.Joseph,Michigan,St. Joseph,2021-01-05 19:27:51.016008,2020-08-27 00:00:00.000000,0.50414158,0.78106590,1.14770453,307,476,699,144,245,383,0.23621101,0.40274331,0.62907142,0.14793653,0.23086883,0.31915325
26149,0,USMichiganSt.Joseph,Michigan,St. Joseph,2021-01-05 19:27:51.016008,2020-08-28 00:00:00.000000,0.50484702,0.78168581,1.13071093,307,476,689,140,240,378,0.23010590,0.39524219,0.62091500,0.15326476,0.23090087,0.32159898
26149,0,USMichiganSt.Joseph,Michigan,St. Joseph,2021-01-05 19:27:51.016008,2020-08-29 00:00:00.000000,0.50671202,0.77327217,1.12587062,308,471,686,139,238,373,0.22925044,0.39188432,0.61262783,0.16181530,0.23301015,0.33177542
26149,0,USMichiganSt.Joseph,Michigan,St. Joseph,2021-01-05 19:27:51.016008,2020-08-30 00:00:00.000000,0.50383584,0.76433128,1.12348083,307,465,684,140,236,375,0.23000005,0.38716219,0.61570587,0.17324339,0.23312375,0.35007300
26149,0,USMichiganSt.Joseph,Michigan,St. Joseph,2021-01-05 19:27:51.016008,2020-08-31 00:00:00.000000,0.49983061,0.75880088,1.12413284,304,462,685,141,232,376,0.23130599,0.38058889,0.61733871,0.18485027,0.23336020,0.36162741
26149,0,USMichiganSt.Joseph,Michigan,St. Joseph,2021-01-05 19:27:51.016008,2020-09-01 00:00:00.000000,0.49502396,0.75163230,1.13507436,301,458,691,141,230,376,0.23279999,0.37866703,0.61780929,0.18470695,0.24384797,0.36845215
26149,0,USMichiganSt.Joseph,Michigan,St. Joseph,2021-01-05 19:27:51.016008,2020-09-02 00:00:00.000000,0.48591437,0.75337558,1.17148263,296,459,714,143,231,376,0.23487860,0.37975654,0.61753202,0.18937630,0.25856161,0.37316130
26149,0,USMichiganSt.Joseph,Michigan,St. Joseph,2021-01-05 19:27:51.016008,2020-09-03 00:00:00.000000,0.49151070,0.74879081,1.18462767,299,456,722,145,233,375,0.23789827,0.38273744,0.61640780,0.19196546,0.26635773,0.39487383
26149,0,USMichiganSt.Joseph,Michigan,St. Joseph,2021-01-05 19:27:51.016008,2020-09-04 00:00:00.000000,0.49011212,0.74680580,1.18486754,298,455,722,144,235,374,0.23755046,0.38560408,0.61510660,0.20028574,0.28295682,0.41521739
26149,0,USMichiganSt.Joseph,Michigan,St. Joseph,2021-01-05 19:27:51.016008,2020-09-05 00:00:00.000000,0.49093041,0.74985195,1.20517255,299,457,734,144,236,380,0.23776155,0.38754166,0.62360112,0.20709171,0.29842547,0.42601867
26149,0,USMichiganSt.Joseph,Michigan,St. Joseph,2021-01-05 19:27:51.016008,2020-09-06 00:00:00.000000,0.49508865,0.76740002,1.22339670,301,467,745,145,238,391,0.23889641,0.39174959,0.64160110,0.21059290,0.31442019,0.43904708
26149,0,USMichiganSt.Joseph,Michigan,St. Joseph,2021-01-05 19:27:51.016008,2020-09-07 00:00:00.000000,0.50267605,0.78819894,1.23941116,306,480,755,147,241,387,0.24118485,0.39553509,0.63610690,0.21352931,0.32935005,0.44690699
26149,0,USMichiganSt.Joseph,Michigan,St. Joseph,2021-01-05 19:27:51.016008,2020-09-08 00:00:00.000000,0.50791732,0.80930795,1.25542531,309,493,765,148,244,383,0.24299866,0.40072947,0.62987777,0.22365317,0.34087961,0.44853213
26149,0,USMichiganSt.Joseph,Michigan,St. Joseph,2021-01-05 19:27:51.016008,2020-09-09 00:00:00.000000,0.51033656,0.83159007,1.27165600,311,506,775,149,246,389,0.24444990,0.40461134,0.63971854,0.22752538,0.34841069,0.45583951
26149,0,USMichiganSt.Joseph,Michigan,St. Joseph,2021-01-05 19:27:51.016008,2020-09-10 00:00:00.000000,0.51369671,0.85271582,1.28843725,313,519,785,150,251,395,0.24678440,0.41213566,0.64918724,0.23119670,0.35994291,0.46211083
26149,0,USMichiganSt.Joseph,Michigan,St. Joseph,2021-01-05 19:27:51.016008,2020-09-11 00:00:00.000000,0.51822975,0.87695895,1.30641724,315,534,796,152,255,401,0.24974850,0.41953541,0.65847785,0.24262838,0.36890373,0.47742636
26149,0,USMichiganSt.Joseph,Michigan,St. Joseph,2021-01-05 19:27:51.016008,2020-09-12 00:00:00.000000,0.52485025,0.90671393,1.33880800,319,552,816,154,263,407,0.25325124,0.43173347,0.66782679,0.25823424,0.38756707,0.49408245
26149,0,USMichiganSt.Joseph,Michigan,St. Joseph,2021-01-05 19:27:51.016008,2020-09-13 00:00:00.000000,0.54292561,0.93830951,1.37381801,330,572,837,157,271,413,0.25759167,0.44488223,0.67759760,0.27940689,0.41206990,0.49550258
26149,0,USMichiganSt.Joseph,Michigan,St. Joseph,2021-01-05 19:27:51.016008,2020-09-14 00:00:00.000000,0.57237455,0.97194277,1.41629748,348,592,863,160,279,419,0.26360607,0.45919910,0.68839912,0.28643198,0.42059617,0.50947590
26149,0,USMichiganSt.Joseph,Michigan,St. Joseph,2021-01-05 19:27:51.016008,2020-09-15 00:00:00.000000,0.60432035,1.01175394,1.47456956,368,616,898,166,289,428,0.27271067,0.47431264,0.70334080,0.28631201,0.42599991,0.54057685
26149,0,USMichiganSt.Joseph,Michigan,St. Joseph,2021-01-05 19:27:51.016008,2020-09-16 00:00:00.000000,0.63876931,1.04650669,1.53652356,389,637,936,173,298,439,0.28430710,0.48998757,0.72118060,0.28630622,0.43091046,0.56448650
26149,0,USMichiganSt.Joseph,Michigan,St. Joseph,2021-01-05 19:27:51.016008,2020-09-17 00:00:00.000000,0.67649142,1.08376070,1.60126459,412,660,976,181,309,451,0.29795232,0.50729845,0.74010620,0.28651738,0.43055529,0.57545244
26149,0,USMichiganSt.Joseph,Michigan,St. Joseph,2021-01-05 19:27:51.016008,2020-09-18 00:00:00.000000,0.71865608,1.11857452,1.66768887,438,681,1016,191,319,463,0.31352478,0.52344513,0.76024268,0.28783376,0.43444837,0.58891115
26149,0,USMichiganSt.Joseph,Michigan,St. Joseph,2021-01-05 19:27:51.016008,2020-09-19 00:00:00.000000,0.76642895,1.16714093,1.73396836,467,711,1057,201,332,478,0.33042181,0.54602340,0.78517278,0.29488594,0.45093532,0.62325149
26149,0,USMichiganSt.Joseph,Michigan,St. Joseph,2021-01-05 19:27:51.016008,2020-09-20 00:00:00.000000,0.82058784,1.22561786,1.80416284,500,747,1099,209,346,497,0.34342203,0.56811925,0.81528386,0.31113898,0.45336834,0.63890556
26149,0,USMichiganSt.Joseph,Michigan,St. Joseph,2021-01-05 19:27:51.016008,2020-09-21 00:00:00.000000,0.86855476,1.27667539,1.87293436,529,778,1141,218,362,517,0.35796083,0.59393453,0.84933014,0.33062194,0.45560992,0.64087651
26149,0,USMichiganSt.Joseph,Michigan,St. Joseph,2021-01-05 19:27:51.016008,2020-09-22 00:00:00.000000,0.92317610,1.33724298,1.95574620,562,815,1192,228,374,540,0.37515188,0.61432673,0.88734772,0.34741274,0.46162357,0.64151927
26149,0,USMichiganSt.Joseph,Michigan,St. Joseph,2021-01-05 19:27:51.016008,2020-09-23 00:00:00.000000,0.97259185,1.40092887,2.04939262,592,854,1249,240,389,569,0.39497941,0.63910727,0.93362251,0.34918181,0.47077824,0.64132771
26149,0,USMichiganSt.Joseph,Michigan,St. Joseph,2021-01-05 19:27:51.016008,2020-09-24 00:00:00.000000,1.03425396,1.46738340,2.14279869,630,894,1306,254,408,606,0.41746086,0.67065905,0.99510001,0.35536340,0.47564399,0.64273231
26149,0,USMichiganSt.Joseph,Michigan,St. Joseph,2021-01-05 19:27:51.016008,2020-09-25 00:00:00.000000,1.10495966,1.53899554,2.25097237,673,938,1372,270,435,638,0.44291040,0.71407749,1.04806812,0.35783129,0.48277662,0.64140921
26149,0,USMichiganSt.Joseph,Michigan,St. Joseph,2021-01-05 19:27:51.016008,2020-09-26 00:00:00.000000,1.17909263,1.61123154,2.36430735,718,982,1441,287,457,667,0.47199034,0.75112896,1.09439667,0.36129342,0.49064114,0.66977464
26149,0,USMichiganSt.Joseph,Michigan,St. Joseph,2021-01-05 19:27:51.016008,2020-09-27 00:00:00.000000,1.25536122,1.69904247,2.48209974,765,1035,1513,305,477,697,0.50127986,0.78318174,1.14469950,0.36358601,0.49902065,0.69143597
26149,0,USMichiganSt.Joseph,Michigan,St. Joseph,2021-01-05 19:27:51.016008,2020-09-28 00:00:00.000000,1.33592116,1.79708833,2.65160624,814,1095,1616,321,500,727,0.52692079,0.82101876,1.19388348,0.36813383,0.50704383,0.70227275
26149,0,USMichiganSt.Joseph,Michigan,St. Joseph,2021-01-05 19:27:51.016008,2020-09-29 00:00:00.000000,1.41930265,1.92515742,2.82582772,865,1173,1722,344,532,757,0.56451209,0.87284105,1.24171757,0.37199596,0.50959608,0.71771312
26149,0,USMichiganSt.Joseph,Michigan,St. Joseph,2021-01-05 19:27:51.016008,2020-09-30 00:00:00.000000,1.50239843,1.99973154,2.97867005,915,1219,1815,367,557,787,0.60231919,0.91408683,1.29249205,0.37849998,0.51099705,0.72148687
26149,0,USMichiganSt.Joseph,Michigan,St. Joseph,2021-01-05 19:27:51.016008,2020-10-01 00:00:00.000000,1.57842852,2.10997905,3.14091567,962,1286,1914,390,581,820,0.64037283,0.95370370,1.34619274,0.39380948,0.51073713,0.72045451
26149,0,USMichiganSt.Joseph,Michigan,St. Joseph,2021-01-05 19:27:51.016008,2020-10-02 00:00:00.000000,1.65387451,2.22937704,3.31476115,1008,1359,2020,415,608,867,0.68110793,0.99870329,1.42330544,0.39518271,0.50899124,0.72855006
26149,0,USMichiganSt.Joseph,Michigan,St. Joseph,2021-01-05 19:27:51.016008,2020-10-03 00:00:00.000000,1.75860697,2.38359777,3.50207050,1072,1453,2135,442,649,925,0.72526916,1.06618023,1.51825894,0.39385678,0.51006447,0.73950877
26149,0,USMichiganSt.Joseph,Michigan,St. Joseph,2021-01-05 19:27:51.016008,2020-10-04 00:00:00.000000,1.86791821,2.50130281,3.70176781,1138,1524,2256,472,688,991,0.77428934,1.12860980,1.62629731,0.39113800,0.51892112,0.74560584
26149,0,USMichiganSt.Joseph,Michigan,St. Joseph,2021-01-05 19:27:51.016008,2020-10-05 00:00:00.000000,1.98325969,2.61899509,3.95026150,1209,1596,2408,505,723,1061,0.82956158,1.18709808,1.74074389,0.39039747,0.54455790,0.74782878
26149,0,USMichiganSt.Joseph,Michigan,St. Joseph,2021-01-05 19:27:51.016008,2020-10-06 00:00:00.000000,2.06747121,2.76339438,4.19248878,1260,1684,2555,539,759,1138,0.88533947,1.24567198,1.86766720,0.38770699,0.54727524,0.75439471
26149,0,USMichiganSt.Joseph,Michigan,St. Joseph,2021-01-05 19:27:51.016008,2020-10-07 00:00:00.000000,2.18751962,2.93503814,4.37095137,1333,1789,2664,569,798,1209,0.93371639,1.30955177,1.98374923,0.39064676,0.53520114,0.78617874
26149,0,USMichiganSt.Joseph,Michigan,St. Joseph,2021-01-05 19:27:51.016008,2020-10-08 00:00:00.000000,2.30590996,3.12615517,4.55137779,1405,1905,2774,590,839,1290,0.96844247,1.37782319,2.11682604,0.40003312,0.53882940,0.79026468
26149,0,USMichiganSt.Joseph,Michigan,St. Joseph,2021-01-05 19:27:51.016008,2020-10-09 00:00:00.000000,2.42134663,3.33034013,4.88677962,1476,2030,2979,612,881,1377,1.00426369,1.44560824,2.25884453,0.41833151,0.53409105,0.77017994
26149,0,USMichiganSt.Joseph,Michigan,St. Joseph,2021-01-05 19:27:51.016008,2020-10-10 00:00:00.000000,2.53976628,3.53932044,5.18840006,1548,2157,3163,658,931,1470,1.08035983,1.52835563,2.41130358,0.42853087,0.53083132,0.80240000
26149,0,USMichiganSt.Joseph,Michigan,St. Joseph,2021-01-05 19:27:51.016008,2020-10-11 00:00:00.000000,2.66315373,3.76044066,5.42243764,1623,2292,3305,715,976,1569,1.17379509,1.60185349,2.57492155,0.42478689,0.53079356,0.80301168
26149,0,USMichiganSt.Joseph,Michigan,St. Joseph,2021-01-05 19:27:51.016008,2020-10-12 00:00:00.000000,2.79477464,3.97478383,5.57911408,1703,2423,3401,758,1025,1676,1.24344860,1.68239312,2.74973188,0.41837870,0.53923250,0.80285809
26149,0,USMichiganSt.Joseph,Michigan,St. Joseph,2021-01-05 19:27:51.016008,2020-10-13 00:00:00.000000,2.93327576,4.17557889,5.70436258,1788,2545,3477,794,1085,1789,1.30387919,1.78082841,2.93564391,0.42268246,0.53958077,0.80062667
26149,0,USMichiganSt.Joseph,Michigan,St. Joseph,2021-01-05 19:27:51.016008,2020-10-14 00:00:00.000000,3.07981011,4.43537744,5.96920672,1877,2703,3639,835,1147,1909,1.36967305,1.88296184,3.13249306,0.42381822,0.53992975,0.77885708
26149,0,USMichiganSt.Joseph,Michigan,St. Joseph,2021-01-05 19:27:51.016008,2020-10-15 00:00:00.000000,3.23703127,4.62560148,6.26245592,1973,2819,3817,872,1209,1987,1.43170141,1.98432751,3.25959046,0.42348704,0.54768308,0.75297772
26149,0,USMichiganSt.Joseph,Michigan,St. Joseph,2021-01-05 19:27:51.016008,2020-10-16 00:00:00.000000,3.38354122,4.85151418,6.59157227,2062,2957,4018,909,1283,2044,1.49185800,2.10454379,3.35388164,0.42209090,0.54765553,0.74283281
26149,0,USMichiganSt.Joseph,Michigan,St. Joseph,2021-01-05 19:27:51.016008,2020-10-17 00:00:00.000000,3.53181800,5.15501908,6.93934536,2153,3142,4230,950,1360,2096,1.55894756,2.23133226,3.43927307,0.41987143,0.56040577,0.73242774
26149,0,USMichiganSt.Joseph,Michigan,St. Joseph,2021-01-05 19:27:51.016008,2020-10-18 00:00:00.000000,3.72165517,5.47346709,7.23441197,2268,3336,4410,995,1445,2142,1.63331760,2.37105424,3.51372639,0.41779425,0.55931404,0.72686618
26149,0,USMichiganSt.Joseph,Michigan,St. Joseph,2021-01-05 19:27:51.016008,2020-10-19 00:00:00.000000,3.89515464,5.71990595,7.59206122,2374,3487,4628,1045,1537,2196,1.71469601,2.52188211,3.60290758,0.41716964,0.55598533,0.72030566
26149,0,USMichiganSt.Joseph,Michigan,St. Joseph,2021-01-05 19:27:51.016008,2020-10-20 00:00:00.000000,4.07278208,6.02264375,8.01230026,2482,3671,4884,1099,1634,2271,1.80336626,2.68107184,3.72678202,0.41895906,0.56137990,0.75924412
26149,0,USMichiganSt.Joseph,Michigan,St. Joseph,2021-01-05 19:27:51.016008,2020-10-21 00:00:00.000000,4.26305748,6.33046990,8.45783089,2598,3859,5156,1158,1713,2425,1.90083670,2.81072649,3.97914781,0.42351638,0.56062363,0.81559937
26149,0,USMichiganSt.Joseph,Michigan,St. Joseph,2021-01-05 19:27:51.016008,2020-10-22 00:00:00.000000,4.59028729,6.65126382,8.98772141,2798,4054,5479,1226,1806,2590,2.01147847,2.96247872,4.24876102,0.43039119,0.56868824,0.80638028
26149,0,USMichiganSt.Joseph,Michigan,St. Joseph,2021-01-05 19:27:51.016008,2020-10-23 00:00:00.000000,4.83175238,6.96953888,9.55421306,2945,4248,5824,1304,1911,2761,2.14042431,3.13604300,4.52915174,0.43807366,0.57737858,0.78409631
26149,0,USMichiganSt.Joseph,Michigan,St. Joseph,2021-01-05 19:27:51.016008,2020-10-24 00:00:00.000000,5.08341161,7.34238666,10.15965090,3099,4476,6193,1376,2018,2934,2.25826736,3.31122870,4.81314733,0.44486341,0.56936453,0.79506148
26149,0,USMichiganSt.Joseph,Michigan,St. Joseph,2021-01-05 19:27:51.016008,2020-10-25 00:00:00.000000,5.34564028,7.74935308,10.80333370,3258,4724,6586,1429,2104,3105,2.34452282,3.45237907,5.09399871,0.44845057,0.56272290,0.78026013
26149,0,USMichiganSt.Joseph,Michigan,St. Joseph,2021-01-05 19:27:51.016008,2020-10-26 00:00:00.000000,5.61763031,8.14676209,11.48580270,3424,4966,7002,1481,2197,3251,2.43045020,3.60386527,5.33383348,0.44309787,0.56761285,0.78115243
26149,0,USMichiganSt.Joseph,Michigan,St. Joseph,2021-01-05 19:27:51.016008,2020-10-27 00:00:00.000000,5.90665996,8.55204174,12.19587587,3600,5213,7435,1562,2303,3387,2.56288088,3.77825755,5.55630048,0.42931250,0.55722871,0.74116421
26149,0,USMichiganSt.Joseph,Michigan,St. Joseph,2021-01-05 19:27:51.016008,2020-10-28 00:00:00.000000,6.13604687,8.86793734,12.74930718,3740,5406,7772,1676,2408,3522,2.75051491,3.95130722,5.77872913,0.41413993,0.55406844,0.74065355
26149,0,USMichiganSt.Joseph,Michigan,St. Joseph,2021-01-05 19:27:51.016008,2020-10-29 00:00:00.000000,6.45797717,9.23998178,13.17629405,3937,5633,8032,1733,2513,3704,2.84307905,4.12255201,6.07593084,0.40606112,0.55137583,0.73471571
26149,0,USMichiganSt.Joseph,Michigan,St. Joseph,2021-01-05 19:27:51.016008,2020-10-30 00:00:00.000000,6.65559472,9.55451715,13.63445497,4057,5824,8312,1791,2634,3887,2.93803950,4.32100752,6.37727848,0.40708084,0.54490362,0.70833923
26149,0,USMichiganSt.Joseph,Michigan,St. Joseph,2021-01-05 19:27:51.016008,2020-10-31 00:00:00.000000,6.83052333,9.88202729,14.01604488,4164,6024,8544,1850,2752,4030,3.03613722,4.51570233,6.61128991,0.39689324,0.52831616,0.71072184
26149,0,USMichiganSt.Joseph,Michigan,St. Joseph,2021-01-05 19:27:51.016008,2020-11-01 00:00:00.000000,7.09780327,10.29056487,14.44402997,4327,6273,8805,1914,2856,4123,3.14000732,4.68608492,6.76392192,0.38548509,0.52098927,0.71716014
26149,0,USMichiganSt.Joseph,Michigan,St. Joseph,2021-01-05 19:27:51.016008,2020-11-02 00:00:00.000000,7.40103812,10.61754057,14.87731183,4511,6472,9069,1980,2950,4192,3.24855914,4.84027029,6.87740698,0.37503253,0.51456773,0.71327603
26149,0,USMichiganSt.Joseph,Michigan,St. Joseph,2021-01-05 19:27:51.016008,2020-11-03 00:00:00.000000,7.70642053,10.85850973,15.31355848,4698,6619,9335,2077,3057,4315,3.40771391,5.01460916,7.07837358,0.37640534,0.50876381,0.66637561
26149,0,USMichiganSt.Joseph,Michigan,St. Joseph,2021-01-05 19:27:51.016008,2020-11-04 00:00:00.000000,8.01069109,11.12381230,15.68010514,4883,6781,9559,2199,3143,4433,3.60771933,5.15614292,7.27230490,0.37109944,0.50906954,0.64039030
26149,0,USMichiganSt.Joseph,Michigan,St. Joseph,2021-01-05 19:27:51.016008,2020-11-05 00:00:00.000000,8.30575626,11.42666335,16.02582288,5063,6966,9769,2320,3253,4546,3.80610249,5.33732934,7.45745428,0.36389952,0.50486128,0.63358959
26149,0,USMichiganSt.Joseph,Michigan,St. Joseph,2021-01-05 19:27:51.016008,2020-11-06 00:00:00.000000,8.57621025,11.63258647,16.35661307,5228,7091,9971,2373,3338,4653,3.89290063,5.47580782,7.63312579,0.35687332,0.48518032,0.61826039
26149,0,USMichiganSt.Joseph,Michigan,St. Joseph,2021-01-05 19:27:51.016008,2020-11-07 00:00:00.000000,8.80226011,11.75749065,16.66834887,5366,7167,10161,2424,3403,4753,3.97767472,5.58238567,7.79727849,0.35056833,0.47534484,0.58443183
26149,0,USMichiganSt.Joseph,Michigan,St. Joseph,2021-01-05 19:27:51.016008,2020-11-08 00:00:00.000000,8.97357753,11.87946869,16.95477549,5470,7242,10336,2475,3454,4844,4.06059739,5.66629387,7.94642653,0.34942175,0.45193826,0.58469939
26149,0,USMichiganSt.Joseph,Michigan,St. Joseph,2021-01-05 19:27:51.016008,2020-11-09 00:00:00.000000,9.09652933,12.03977989,17.07866558,5545,7339,10411,2524,3538,4924,4.14168009,5.80506032,8.07704045,0.34475970,0.44121438,0.58800374
26149,0,USMichiganSt.Joseph,Michigan,St. Joseph,2021-01-05 19:27:51.016008,2020-11-10 00:00:00.000000,9.18801057,12.07480939,17.14424646,5601,7361,10451,2573,3611,4992,4.22081212,5.92471343,8.18870459,0.33486430,0.43237962,0.58222684
26149,0,USMichiganSt.Joseph,Michigan,St. Joseph,2021-01-05 19:27:51.016008,2020-11-11 00:00:00.000000,9.25938426,12.06138536,17.22548315,5644,7353,10501,2620,3680,5048,4.29784655,6.03777651,8.28178077,0.32847875,0.42146877,0.57230733
26149,0,USMichiganSt.Joseph,Michigan,St. Joseph,2021-01-05 19:27:51.016008,2020-11-12 00:00:00.000000,9.31686120,12.12388295,17.37512882,5679,7391,10592,2665,3703,5095,4.37265943,6.07478344,8.35759869,0.31841462,0.42031848,0.56715181
26149,0,USMichiganSt.Joseph,Michigan,St. Joseph,2021-01-05 19:27:51.016008,2020-11-13 00:00:00.000000,9.37700340,12.06084367,17.36153843,5716,7352,10584,2709,3712,5131,4.44516482,6.08937868,8.41750868,0.31282023,0.41099999,0.55742445
26149,0,USMichiganSt.Joseph,Michigan,St. Joseph,2021-01-05 19:27:51.016008,2020-11-14 00:00:00.000000,9.39919700,11.97400762,17.21704575,5730,7299,10496,2752,3707,5159,4.51530955,6.08113436,8.46252812,0.29429260,0.40546413,0.54746544
26149,0,USMichiganSt.Joseph,Michigan,St. Joseph,2021-01-05 19:27:51.016008,2020-11-15 00:00:00.000000,9.42080506,11.84298800,17.37038467,5743,7219,10589,2794,3730,5178,4.58306548,6.11959788,8.49354496,0.28355474,0.40473052,0.54789072
26149,0,USMichiganSt.Joseph,Michigan,St. Joseph,2021-01-05 19:27:51.016008,2020-11-16 00:00:00.000000,9.44180535,11.88390055,17.43891232,5756,7244,10631,2833,3762,5189,4.64842185,6.17249359,8.51177263,0.28339550,0.40544753,0.54007139
26149,0,USMichiganSt.Joseph,Michigan,St. Joseph,2021-01-05 19:27:51.016008,2020-11-17 00:00:00.000000,9.44152621,11.77519989,17.31646900,5755,7178,10556,2845,3774,5195,4.66675672,6.19203804,8.52258818,0.28322509,0.40855448,0.53666576
26149,0,USMichiganSt.Joseph,Michigan,St. Joseph,2021-01-05 19:27:51.016008,2020-11-18 00:00:00.000000,9.37377034,11.65256588,17.51566991,5714,7103,10678,2824,3765,5205,4.63387530,6.17596528,8.53841998,0.28161990,0.41575604,0.54113887
26149,0,USMichiganSt.Joseph,Michigan,St. Joseph,2021-01-05 19:27:51.016008,2020-11-19 00:00:00.000000,9.32589115,11.56739374,17.55953458,5685,7051,10704,2800,3745,5203,4.59315617,6.14386035,8.53618070,0.28131117,0.41589005,0.53638928
26149,0,USMichiganSt.Joseph,Michigan,St. Joseph,2021-01-05 19:27:51.016008,2020-11-20 00:00:00.000000,9.30947852,11.58398697,17.54075068,5675,7062,10693,2786,3720,5189,4.57105426,6.10229441,8.51203761,0.28165282,0.41730000,0.55909300
26149,0,USMichiganSt.Joseph,Michigan,St. Joseph,2021-01-05 19:27:51.016008,2020-11-21 00:00:00.000000,9.29648523,11.55502759,17.53068187,5667,7044,10687,2769,3716,5164,4.54248085,6.09677381,8.47161919,0.28228047,0.42341807,0.55692398
26149,0,USMichiganSt.Joseph,Michigan,St. Joseph,2021-01-05 19:27:51.016008,2020-11-22 00:00:00.000000,9.25222122,11.50012441,17.52571144,5640,7010,10684,2758,3735,5130,4.52435385,6.12802951,8.41542073,0.28277120,0.43039895,0.57497259
26149,0,USMichiganSt.Joseph,Michigan,St. Joseph,2021-01-05 19:27:51.016008,2020-11-23 00:00:00.000000,9.08763221,11.28170715,17.52191621,5540,6877,10682,2730,3711,5086,4.47913482,6.08775237,8.34360035,0.27834133,0.43262675,0.57861178
26149,0,USMichiganSt.Joseph,Michigan,St. Joseph,2021-01-05 19:27:51.016008,2020-11-24 00:00:00.000000,9.04827768,11.16104427,17.50320442,5516,6804,10670,2701,3689,5033,4.43184951,6.05142571,8.25727256,0.27612686,0.43554399,0.58053255
26149,0,USMichiganSt.Joseph,Michigan,St. Joseph,2021-01-05 19:27:51.016008,2020-11-25 00:00:00.000000,8.96488689,11.08128657,17.45832563,5465,6755,10643,2685,3654,4973,4.40549948,5.99500267,8.15845097,0.27960770,0.43664395,0.58092349
26149,0,USMichiganSt.Joseph,Michigan,St. Joseph,2021-01-05 19:27:51.016008,2020-11-26 00:00:00.000000,8.85629140,10.94307653,17.18924882,5399,6671,10479,2662,3600,4911,4.36726430,5.90514890,8.05708807,0.28182538,0.43446523,0.58087454
26149,0,USMichiganSt.Joseph,Michigan,St. Joseph,2021-01-05 19:27:51.016008,2020-11-27 00:00:00.000000,8.74265906,10.81469845,16.89733188,5329,6593,10301,2628,3556,4875,4.31094111,5.83324544,7.99655846,0.28436696,0.43222170,0.58020977
26149,0,USMichiganSt.Joseph,Michigan,St. Joseph,2021-01-05 19:27:51.016008,2020-11-28 00:00:00.000000,8.62503364,10.66087526,16.58370742,5258,6499,10110,2610,3519,4816,4.28254208,5.77298273,7.90015832,0.28590792,0.43547651,0.58443806
26149,0,USMichiganSt.Joseph,Michigan,St. Joseph,2021-01-05 19:27:51.016008,2020-11-29 00:00:00.000000,8.50438265,10.62297118,16.25275346,5184,6476,9908,2556,3467,4762,4.19366131,5.68839106,7.81211165,0.28686675,0.44574680,0.58771722
26149,0,USMichiganSt.Joseph,Michigan,St. Joseph,2021-01-05 19:27:51.016008,2020-11-30 00:00:00.000000,8.38391204,10.52926058,15.91387887,5111,6419,9701,2489,3432,4712,4.08411375,5.63081780,7.72938781,0.28897510,0.44915835,0.59755462
26149,0,USMichiganSt.Joseph,Michigan,St. Joseph,2021-01-05 19:27:51.016008,2020-12-01 00:00:00.000000,8.26671768,10.39162689,15.58012450,5039,6335,9498,2455,3402,4665,4.02710423,5.58142111,7.65304266,0.29518624,0.45695968,0.61761479
26149,0,USMichiganSt.Joseph,Michigan,St. Joseph,2021-01-05 19:27:51.016008,2020-12-02 00:00:00.000000,8.16626872,10.25613260,15.29106042,4978,6252,9322,2425,3355,4630,3.97803255,5.50424628,7.59594083,0.30343036,0.45921254,0.63365495
26149,0,USMichiganSt.Joseph,Michigan,St. Joseph,2021-01-05 19:27:51.016008,2020-12-03 00:00:00.000000,8.08114334,10.12848878,15.06664882,4926,6174,9185,2399,3307,4596,3.93512558,5.42581329,7.53940802,0.30792753,0.46493837,0.62820905
26149,0,USMichiganSt.Joseph,Michigan,St. Joseph,2021-01-05 19:27:51.016008,2020-12-04 00:00:00.000000,7.99916921,10.01062326,14.90908833,4876,6102,9089,2375,3282,4576,3.89711691,5.38502417,7.50643583,0.31106933,0.47590157,0.66526838
26149,0,USMichiganSt.Joseph,Michigan,St. Joseph,2021-01-05 19:27:51.016008,2020-12-05 00:00:00.000000,7.91797112,9.86762043,14.89179593,4827,6015,9078,2355,3232,4551,3.86304649,5.30211118,7.46637564,0.31265223,0.48182850,0.69511381
26149,0,USMichiganSt.Joseph,Michigan,St. Joseph,2021-01-05 19:27:51.016008,2020-12-06 00:00:00.000000,7.83837026,9.74738782,14.55176169,4778,5942,8871,2336,3179,4523,3.83239653,5.21618668,7.41939701,0.31490137,0.48546123,0.70588843
26149,0,USMichiganSt.Joseph,Michigan,St. Joseph,2021-01-05 19:27:51.016008,2020-12-07 00:00:00.000000,7.71907878,9.59541890,14.19754706,4705,5849,8655,2320,3143,4489,3.80591687,5.15630309,7.36445261,0.31806267,0.48922481,0.70674515
26149,0,USMichiganSt.Joseph,Michigan,St. Joseph,2021-01-05 19:27:51.016008,2020-12-08 00:00:00.000000,7.58999207,9.46533795,13.98369659,4627,5770,8525,2300,3112,4440,3.77355809,5.10523063,7.28421846,0.32224238,0.48814987,0.70704532
26149,0,USMichiganSt.Joseph,Michigan,St. Joseph,2021-01-05 19:27:51.016008,2020-12-09 00:00:00.000000,7.48506660,9.38074071,13.84942604,4563,5718,8443,2298,3088,4396,3.77057870,5.06582961,7.21205124,0.32750938,0.49534047,0.70741577
26149,0,USMichiganSt.Joseph,Michigan,St. Joseph,2021-01-05 19:27:51.016008,2020-12-10 00:00:00.000000,7.40605719,9.30092828,13.71033517,4515,5670,8358,2282,3046,4347,3.74370163,4.99653043,7.13100679,0.32992265,0.50263693,0.70875630
26149,0,USMichiganSt.Joseph,Michigan,St. Joseph,2021-01-05 19:27:51.016008,2020-12-11 00:00:00.000000,7.25850155,9.22546097,13.56014977,4425,5624,8266,2255,3015,4292,3.69943319,4.94616501,7.04142963,0.32564061,0.51637760,0.73027241
26149,0,USMichiganSt.Joseph,Michigan,St. Joseph,2021-01-05 19:27:51.016008,2020-12-12 00:00:00.000000,7.17536782,9.15985839,13.39338444,4374,5584,8165,2232,2997,4233,3.66153084,4.91686381,6.94380184,0.31892970,0.52266303,0.78309995
26149,0,USMichiganSt.Joseph,Michigan,St. Joseph,2021-01-05 19:27:51.016008,2020-12-13 00:00:00.000000,7.11104735,9.10211984,13.20324412,4335,5549,8049,2210,2960,4169,3.62565359,4.85681561,6.83866071,0.33231393,0.53622545,0.81314720
26149,0,USMichiganSt.Joseph,Michigan,St. Joseph,2021-01-05 19:27:51.016008,2020-12-14 00:00:00.000000,7.06445246,9.04856928,12.93545848,4306,5516,7885,2175,2919,4101,3.56894264,4.78870464,6.72710882,0.33891212,0.56017506,0.85954823
26149,0,USMichiganSt.Joseph,Michigan,St. Joseph,2021-01-05 19:27:51.016008,2020-12-15 00:00:00.000000,7.03124832,8.99519091,12.72968382,4286,5483,7760,2157,2882,4033,3.53908518,4.72880060,6.61662292,0.33316317,0.58370584,0.87712518
26149,0,USMichiganSt.Joseph,Michigan,St. Joseph,2021-01-05 19:27:51.016008,2020-12-16 00:00:00.000000,7.00808108,8.95529657,12.45132467,4272,5459,7590,2136,2842,3977,3.50400782,4.66311290,6.52366182,0.35979494,0.59278814,0.88420619
26149,0,USMichiganSt.Joseph,Michigan,St. Joseph,2021-01-05 19:27:51.016008,2020-12-17 00:00:00.000000,7.00233897,8.90247779,12.43299942,4268,5427,7579,2092,2798,3927,3.43188308,4.59093048,6.44311897,0.37227982,0.60962991,0.85694009
26149,0,USMichiganSt.Joseph,Michigan,St. Joseph,2021-01-05 19:27:51.016008,2020-12-18 00:00:00.000000,6.98556064,8.81018363,12.46137766,4258,5371,7596,2046,2775,3900,3.35762849,4.55279672,6.39872246,0.37696589,0.62761894,0.90428413
26149,0,USMichiganSt.Joseph,Michigan,St. Joseph,2021-01-05 19:27:51.016008,2020-12-19 00:00:00.000000,6.91860755,8.70822384,12.46382485,4217,5308,7598,2003,2778,3910,3.28559915,4.55818487,6.41394044,0.38795677,0.64571775,0.97894031
26149,0,USMichiganSt.Joseph,Michigan,St. Joseph,2021-01-05 19:27:51.016008,2020-12-20 00:00:00.000000,6.86264737,8.62467936,12.42660434,4183,5257,7575,1960,2752,3916,3.21581399,4.51572830,6.42501529,0.39874194,0.66740259,1.01472814
26149,0,USMichiganSt.Joseph,Michigan,St. Joseph,2021-01-05 19:27:51.016008,2020-12-21 00:00:00.000000,6.83442148,8.56160482,12.36761671,4166,5219,7539,1929,2714,3918,3.16438356,4.45316530,6.42760281,0.41722605,0.70691132,1.06085048
26149,0,USMichiganSt.Joseph,Michigan,St. Joseph,2021-01-05 19:27:51.016008,2020-12-22 00:00:00.000000,6.82701348,8.57231761,12.16710875,4162,5226,7417,1927,2701,3912,3.16169998,4.43148038,6.41778845,0.42269949,0.71516043,1.12765988
26149,0,USMichiganSt.Joseph,Michigan,St. Joseph,2021-01-05 19:27:51.016008,2020-12-23 00:00:00.000000,6.78769722,8.51906206,11.88990060,4138,5193,7248,1929,2714,3900,3.16446514,4.45220846,6.39846139,0.44753890,0.71608652,1.28177174
26149,0,USMichiganSt.Joseph,Michigan,St. Joseph,2021-01-05 19:27:51.016008,2020-12-24 00:00:00.000000,6.74817244,8.45331653,11.79660789,4113,5153,7191,1928,2695,3883,3.16404872,4.42070334,6.36941069,0.46674631,0.71402531,1.39374339
26149,0,USMichiganSt.Joseph,Michigan,St. Joseph,2021-01-05 19:27:51.016008,2020-12-25 00:00:00.000000,6.70525769,8.46169142,11.84139353,4087,5158,7218,1906,2691,3859,3.12691058,4.41555351,6.33061251,0.47195037,0.73079347,1.48402758
26149,0,USMichiganSt.Joseph,Michigan,St. Joseph,2021-01-05 19:27:51.016008,2020-12-26 00:00:00.000000,6.64357466,8.45622366,11.84095525,4050,5155,7218,1885,2698,3830,3.09224666,4.42579104,6.28240132,0.47426426,0.74881181,1.49551429
26149,0,USMichiganSt.Joseph,Michigan,St. Joseph,2021-01-05 19:27:51.016008,2020-12-27 00:00:00.000000,6.58903445,8.41653817,11.77484330,4016,5131,7178,1865,2688,3800,3.06046086,4.40994097,6.23375619,0.48504185,0.76734332,1.51254303
26149,0,USMichiganSt.Joseph,Michigan,St. Joseph,2021-01-05 19:27:51.016008,2020-12-28 00:00:00.000000,6.53638936,8.37633395,11.68014816,3984,5106,7120,1852,2657,3773,3.03786082,4.35862346,6.19021889,0.49963087,0.79682727,1.52484354
26149,0,USMichiganSt.Joseph,Michigan,St. Joseph,2021-01-05 19:27:51.016008,2020-12-29 00:00:00.000000,6.48395478,8.31620700,11.56609082,3952,5069,7051,1858,2633,3746,3.04840743,4.31956858,6.14517512,0.49283701,0.79138760,1.51426081
26149,0,USMichiganSt.Joseph,Michigan,St. Joseph,2021-01-05 19:27:51.016008,2020-12-30 00:00:00.000000,6.40803147,8.20889730,11.43306694,3906,5004,6970,1865,2627,3765,3.06025346,4.31023275,6.17601554,0.48991478,0.79650293,1.49868454
26149,0,USMichiganSt.Joseph,Michigan,St. Joseph,2021-01-05 19:27:51.016008,2020-12-31 00:00:00.000000,6.16773704,8.12648427,11.28184855,3760,4954,6877,1873,2615,3776,3.07243723,4.29070081,6.19390196,0.49348851,0.80159632,1.49794383
26149,0,USMichiganSt.Joseph,Michigan,St. Joseph,2021-01-05 19:27:51.016008,2021-01-01 00:00:00.000000,6.20108597,8.11045169,11.15624186,3780,4944,6801,1847,2635,3778,3.03056580,4.32272142,6.19830749,0.49396058,0.80981636,1.49044199
26149,0,USMichiganSt.Joseph,Michigan,St. Joseph,2021-01-05 19:27:51.016008,2021-01-02 00:00:00.000000,6.07453525,8.01067620,11.09711361,3703,4883,6765,1787,2625,3773,2.93130458,4.30603311,6.18909799,0.49386575,0.81135584,1.46807303
26149,0,USMichiganSt.Joseph,Michigan,St. Joseph,2021-01-05 19:27:51.016008,2021-01-03 00:00:00.000000,5.92342368,7.92164804,11.01714832,3611,4829,6716,1747,2589,3759,2.86623018,4.24835217,6.16631366,0.48905421,0.80309220,1.43018916
26149,0,USMichiganSt.Joseph,Michigan,St. Joseph,2021-01-05 19:27:51.016008,2021-01-04 00:00:00.000000,5.77540748,7.89871824,10.91703064,3520,4815,6655,1728,2529,3737,2.83521121,4.14849072,6.13014878,0.48360136,0.81184252,1.40892906
26149,0,USMichiganSt.Joseph,Michigan,St. Joseph,2021-01-05 19:27:51.016008,2021-01-05 00:00:00.000000,5.56384372,7.82528234,10.79758804,3391,4770,6582,1698,2504,3707,2.78648387,4.10895999,6.08093488,0.47989474,0.82140807,1.47023473
26149,0,USMichiganSt.Joseph,Michigan,St. Joseph,2021-01-05 19:27:51.016008,2021-01-06 00:00:00.000000,5.43041109,7.75141004,10.66489754,3310,4725,6501,1639,2509,3670,2.68901198,4.11656779,6.02014899,0.47780607,0.81870611,1.51593096
26149,0,USMichiganSt.Joseph,Michigan,St. Joseph,2021-01-05 19:27:51.016008,2021-01-07 00:00:00.000000,5.23032980,7.61076680,10.53734781,3188,4639,6423,1580,2429,3627,2.59296192,3.98577573,5.95085561,0.47673432,0.81390630,1.52977535
26149,0,USMichiganSt.Joseph,Michigan,St. Joseph,2021-01-05 19:27:51.016008,2021-01-08 00:00:00.000000,5.02787081,7.49340916,10.38854901,3065,4568,6333,1522,2362,3576,2.49710320,3.87455179,5.86581337,0.47501109,0.81404403,1.53357548
26149,0,USMichiganSt.Joseph,Michigan,St. Joseph,2021-01-05 19:27:51.016008,2021-01-09 00:00:00.000000,4.81847953,7.41874392,10.17297779,2937,4522,6201,1463,2298,3517,2.39994893,3.77062337,5.76979301,0.47480250,0.81075958,1.53458972
26149,0,USMichiganSt.Joseph,Michigan,St. Joseph,2021-01-05 19:27:51.016008,2021-01-10 00:00:00.000000,4.60216574,7.26954912,9.95546571,2805,4431,6069,1404,2269,3506,2.30397165,3.72287490,5.75154574,0.47471636,0.80905590,1.53485838
26149,0,USMichiganSt.Joseph,Michigan,St. Joseph,2021-01-05 19:27:51.016008,2021-01-11 00:00:00.000000,4.39214153,7.12493183,9.78877234,2677,4343,5967,1347,2241,3486,2.20991169,3.67658095,5.71858120,0.47468087,0.80849934,1.53492940
26149,0,USMichiganSt.Joseph,Michigan,St. Joseph,2021-01-05 19:27:51.016008,2021-01-12 00:00:00.000000,4.18885538,6.97428443,9.69334282,2553,4251,5909,1291,2185,3415,2.11805375,3.58456104,5.60228090,0.47466626,0.80831993,1.53494816
26149,0,USMichiganSt.Joseph,Michigan,St. Joseph,2021-01-05 19:27:51.016008,2021-01-13 00:00:00.000000,3.99257035,6.80364202,9.49535968,2434,4147,5788,1236,2165,3341,2.02860136,3.55196862,5.48166502,0.47466026,0.80826257,1.53495311
26149,0,USMichiganSt.Joseph,Michigan,St. Joseph,2021-01-05 19:27:51.016008,2021-01-14 00:00:00.000000,3.80342087,6.62829802,9.28851035,2318,4040,5662,1183,2137,3265,1.94169648,3.50662409,5.35683094,0.47465779,0.80824439,1.53495442
26149,0,USMichiganSt.Joseph,Michigan,St. Joseph,2021-01-05 19:27:51.016008,2021-01-15 00:00:00.000000,3.62144882,6.45085350,9.07385777,2207,3932,5531,1132,2119,3187,1.85743413,3.47674224,5.22803859,0.47465679,0.80823869,1.53495477
26149,0,USMichiganSt.Joseph,Michigan,St. Joseph,2021-01-05 19:27:51.016008,2021-01-16 00:00:00.000000,3.44662811,6.26464919,8.85245880,2101,3819,5396,1082,2084,3106,1.77587304,3.41896084,5.09566073,0.47465638,0.80823694,1.53495486
26149,0,USMichiganSt.Joseph,Michigan,St. Joseph,2021-01-05 19:27:51.016008,2021-01-17 00:00:00.000000,3.27888220,6.11694975,8.62535530,1998,3729,5258,1034,2040,3044,1.69704378,3.34731067,4.99396511,0.47465622,0.80823642,1.53495488
