FIPS,HR_UID,nameid,province,region,analysisTime,dates,pointprevalence_025,pointprevalence_50,pointprevalence_975,pointinfections_025,pointinfections_50,pointinfections_975,pointinfectious_025,pointinfectious_50,pointinfectious_975,pointinfectiousprevalence_05,pointinfectiousprevalence_50,pointinfectiousprevalence_95,infectrate_025,infectrate_50,infectrate_975
13039,0,USGeorgiaCamden,Georgia,Camden,2021-01-06 02:19:39.176140,2020-03-09 00:00:00.000000,0.00129411,0.00694423,0.02765891,0,3,15,0,2,9,0.00071125,0.00371228,0.01666373,0.40418457,0.53286738,0.75794966
13039,0,USGeorgiaCamden,Georgia,Camden,2021-01-06 02:19:39.176140,2020-03-10 00:00:00.000000,0.00151052,0.00782053,0.03120616,0,4,17,0,2,8,0.00068188,0.00371687,0.01517780,0.40417568,0.53285836,0.75786107
13039,0,USGeorgiaCamden,Georgia,Camden,2021-01-06 02:19:39.176140,2020-03-11 00:00:00.000000,0.00172251,0.00871438,0.03477644,0,4,19,0,2,8,0.00070879,0.00379966,0.01578022,0.40415941,0.53283776,0.75770066
13039,0,USGeorgiaCamden,Georgia,Camden,2021-01-06 02:19:39.176140,2020-03-12 00:00:00.000000,0.00193749,0.00962452,0.03841264,1,5,20,0,2,8,0.00076817,0.00396820,0.01604330,0.40412959,0.53245171,0.75740947
13039,0,USGeorgiaCamden,Georgia,Camden,2021-01-06 02:19:39.176140,2020-03-13 00:00:00.000000,0.00216048,0.01058483,0.04077151,1,5,22,0,2,9,0.00084739,0.00427956,0.01709946,0.40407471,0.53142715,0.75687899
13039,0,USGeorgiaCamden,Georgia,Camden,2021-01-06 02:19:39.176140,2020-03-14 00:00:00.000000,0.00239518,0.01155110,0.04252545,1,6,23,0,2,10,0.00093994,0.00458782,0.01918543,0.40397191,0.52758532,0.75590823
13039,0,USGeorgiaCamden,Georgia,Camden,2021-01-06 02:19:39.176140,2020-03-15 00:00:00.000000,0.00264445,0.01233199,0.04678478,1,6,25,0,2,11,0.00104273,0.00497368,0.02128341,0.40328361,0.52720008,0.75412371
13039,0,USGeorgiaCamden,Georgia,Camden,2021-01-06 02:19:39.176140,2020-03-16 00:00:00.000000,0.00613240,0.01680408,0.05499241,3,9,30,0,2,12,0.00115449,0.00538051,0.02307918,0.39699610,0.52603739,0.75084245
13039,0,USGeorgiaCamden,Georgia,Camden,2021-01-06 02:19:39.176140,2020-03-17 00:00:00.000000,0.00892032,0.02121007,0.06030719,4,11,32,1,3,14,0.00200958,0.00649710,0.02619204,0.38407879,0.52180185,0.72246196
13039,0,USGeorgiaCamden,Georgia,Camden,2021-01-06 02:19:39.176140,2020-03-18 00:00:00.000000,0.01084357,0.02579911,0.06532450,5,14,35,1,4,16,0.00325754,0.00809077,0.03011757,0.36711206,0.51520752,0.70817628
13039,0,USGeorgiaCamden,Georgia,Camden,2021-01-06 02:19:39.176140,2020-03-19 00:00:00.000000,0.01221898,0.03075119,0.07016475,6,16,38,2,5,18,0.00424562,0.01003099,0.03381380,0.35302850,0.51010598,0.71003617
13039,0,USGeorgiaCamden,Georgia,Camden,2021-01-06 02:19:39.176140,2020-03-20 00:00:00.000000,0.01450812,0.03613200,0.08569029,7,19,46,2,6,20,0.00483729,0.01231710,0.03787007,0.34760377,0.49595836,0.69926172
13039,0,USGeorgiaCamden,Georgia,Camden,2021-01-06 02:19:39.176140,2020-03-21 00:00:00.000000,0.01746470,0.04166393,0.10142846,9,22,55,3,8,23,0.00579644,0.01472710,0.04229156,0.34480804,0.46672382,0.66453361
13039,0,USGeorgiaCamden,Georgia,Camden,2021-01-06 02:19:39.176140,2020-03-22 00:00:00.000000,0.02060894,0.04769722,0.11106615,11,26,60,3,9,25,0.00713877,0.01768010,0.04705635,0.33011750,0.45113236,0.64695078
13039,0,USGeorgiaCamden,Georgia,Camden,2021-01-06 02:19:39.176140,2020-03-23 00:00:00.000000,0.02398893,0.05330941,0.12126278,13,29,66,4,11,28,0.00853865,0.02039075,0.05199841,0.32232441,0.42515964,0.63214441
13039,0,USGeorgiaCamden,Georgia,Camden,2021-01-06 02:19:39.176140,2020-03-24 00:00:00.000000,0.02701812,0.06032507,0.13187679,14,32,72,5,12,31,0.01023013,0.02328260,0.05742645,0.31644505,0.41928150,0.62506898
13039,0,USGeorgiaCamden,Georgia,Camden,2021-01-06 02:19:39.176140,2020-03-25 00:00:00.000000,0.03017486,0.06649697,0.14298561,16,36,78,6,14,34,0.01161007,0.02648475,0.06317310,0.28923634,0.40869058,0.61340086
13039,0,USGeorgiaCamden,Georgia,Camden,2021-01-06 02:19:39.176140,2020-03-26 00:00:00.000000,0.03344563,0.07322149,0.15429697,18,40,84,7,16,37,0.01285130,0.02962251,0.06913644,0.28465768,0.40200301,0.59547787
13039,0,USGeorgiaCamden,Georgia,Camden,2021-01-06 02:19:39.176140,2020-03-27 00:00:00.000000,0.03679532,0.07990432,0.16455263,20,43,89,7,17,41,0.01459653,0.03253854,0.07519072,0.24757450,0.39424697,0.57086312
13039,0,USGeorgiaCamden,Georgia,Camden,2021-01-06 02:19:39.176140,2020-03-28 00:00:00.000000,0.03882543,0.08510855,0.17317461,21,46,94,8,19,44,0.01641008,0.03567309,0.08117311,0.23312776,0.37816592,0.56357597
13039,0,USGeorgiaCamden,Georgia,Camden,2021-01-06 02:19:39.176140,2020-03-29 00:00:00.000000,0.03975401,0.09132891,0.18131521,21,49,99,9,21,47,0.01828369,0.03909433,0.08690899,0.21854551,0.34646308,0.54317754
13039,0,USGeorgiaCamden,Georgia,Camden,2021-01-06 02:19:39.176140,2020-03-30 00:00:00.000000,0.04610337,0.09870211,0.19076742,25,53,104,10,23,50,0.01943006,0.04241529,0.09225583,0.20909279,0.32155508,0.50909023
13039,0,USGeorgiaCamden,Georgia,Camden,2021-01-06 02:19:39.176140,2020-03-31 00:00:00.000000,0.04992523,0.10697266,0.19748231,27,58,107,11,25,53,0.02110226,0.04634543,0.09713550,0.20386655,0.31039146,0.49910234
13039,0,USGeorgiaCamden,Georgia,Camden,2021-01-06 02:19:39.176140,2020-04-01 00:00:00.000000,0.05306695,0.11342561,0.19846698,29,62,108,12,27,55,0.02230665,0.05036318,0.10150515,0.20190930,0.30222336,0.49313628
13039,0,USGeorgiaCamden,Georgia,Camden,2021-01-06 02:19:39.176140,2020-04-02 00:00:00.000000,0.05620064,0.12035519,0.20475449,30,65,111,13,29,57,0.02388480,0.05385056,0.10531908,0.19743399,0.29850571,0.48095431
13039,0,USGeorgiaCamden,Georgia,Camden,2021-01-06 02:19:39.176140,2020-04-03 00:00:00.000000,0.05934344,0.12341494,0.21547975,32,67,117,14,31,61,0.02672673,0.05792559,0.11174306,0.18922669,0.29248993,0.44082713
13039,0,USGeorgiaCamden,Georgia,Camden,2021-01-06 02:19:39.176140,2020-04-04 00:00:00.000000,0.06250411,0.12729762,0.22589382,34,69,123,15,33,64,0.02838103,0.06105586,0.11831642,0.18224657,0.28082155,0.41930688
13039,0,USGeorgiaCamden,Georgia,Camden,2021-01-06 02:19:39.176140,2020-04-05 00:00:00.000000,0.06568020,0.13382647,0.23591634,35,73,128,16,34,68,0.02989051,0.06392202,0.12485584,0.17912560,0.26916070,0.40507412
13039,0,USGeorgiaCamden,Georgia,Camden,2021-01-06 02:19:39.176140,2020-04-06 00:00:00.000000,0.06899828,0.13937912,0.24565145,37,76,134,17,36,71,0.03133713,0.06624702,0.13129784,0.16783390,0.26525762,0.39112488
13039,0,USGeorgiaCamden,Georgia,Camden,2021-01-06 02:19:39.176140,2020-04-07 00:00:00.000000,0.06881941,0.14399906,0.25521510,37,78,139,18,37,75,0.03366657,0.06853630,0.13761731,0.14898673,0.25993650,0.37836373
13039,0,USGeorgiaCamden,Georgia,Camden,2021-01-06 02:19:39.176140,2020-04-08 00:00:00.000000,0.06818737,0.14670025,0.26232333,37,80,143,19,39,78,0.03655649,0.07182121,0.14381944,0.14078159,0.25354611,0.37269399
13039,0,USGeorgiaCamden,Georgia,Camden,2021-01-06 02:19:39.176140,2020-04-09 00:00:00.000000,0.06745077,0.14994764,0.26664030,36,81,145,21,40,81,0.03903756,0.07365366,0.14939324,0.13892672,0.24232011,0.36077863
13039,0,USGeorgiaCamden,Georgia,Camden,2021-01-06 02:19:39.176140,2020-04-10 00:00:00.000000,0.06665195,0.15221239,0.27496248,36,83,150,21,41,83,0.03939448,0.07527833,0.15272697,0.13702705,0.22877762,0.35985179
13039,0,USGeorgiaCamden,Georgia,Camden,2021-01-06 02:19:39.176140,2020-04-11 00:00:00.000000,0.06581896,0.15615784,0.28262528,35,85,154,21,42,85,0.03914552,0.07758104,0.15572510,0.13381586,0.22126967,0.35640444
13039,0,USGeorgiaCamden,Georgia,Camden,2021-01-06 02:19:39.176140,2020-04-12 00:00:00.000000,0.06497104,0.15836985,0.29648051,35,86,162,21,42,87,0.03880092,0.07848679,0.15974754,0.12901879,0.21220399,0.34467691
13039,0,USGeorgiaCamden,Georgia,Camden,2021-01-06 02:19:39.176140,2020-04-13 00:00:00.000000,0.07403208,0.16038125,0.30236018,40,87,165,20,42,90,0.03839643,0.07852646,0.16555827,0.12753652,0.20984298,0.32605377
13039,0,USGeorgiaCamden,Georgia,Camden,2021-01-06 02:19:39.176140,2020-04-14 00:00:00.000000,0.08309978,0.16338154,0.30734634,45,89,168,21,43,94,0.04023094,0.08024327,0.17260140,0.13106830,0.21052083,0.32415339
13039,0,USGeorgiaCamden,Georgia,Camden,2021-01-06 02:19:39.176140,2020-04-15 00:00:00.000000,0.08821388,0.16391267,0.31040466,48,89,169,23,45,97,0.04284073,0.08244804,0.17823247,0.13800513,0.20952758,0.32212336
13039,0,USGeorgiaCamden,Georgia,Camden,2021-01-06 02:19:39.176140,2020-04-16 00:00:00.000000,0.09037774,0.16552250,0.31519377,49,90,172,23,45,99,0.04246674,0.08395050,0.18254243,0.14770467,0.20586720,0.31844479
13039,0,USGeorgiaCamden,Georgia,Camden,2021-01-06 02:19:39.176140,2020-04-17 00:00:00.000000,0.08927302,0.16668828,0.32147149,48,91,175,23,46,101,0.04209997,0.08439092,0.18561688,0.14323880,0.20525964,0.31571742
13039,0,USGeorgiaCamden,Georgia,Camden,2021-01-06 02:19:39.176140,2020-04-18 00:00:00.000000,0.08824147,0.17019561,0.32768801,48,93,179,22,47,102,0.04174171,0.08652364,0.18761552,0.13656887,0.20306586,0.31477807
13039,0,USGeorgiaCamden,Georgia,Camden,2021-01-06 02:19:39.176140,2020-04-19 00:00:00.000000,0.08725096,0.17292154,0.33399061,47,94,182,22,47,103,0.04139690,0.08768193,0.18871097,0.13069151,0.20207122,0.31203135
13039,0,USGeorgiaCamden,Georgia,Camden,2021-01-06 02:19:39.176140,2020-04-20 00:00:00.000000,0.08560341,0.17318045,0.34192152,46,94,186,22,48,104,0.04107715,0.08863063,0.19195734,0.12296781,0.20531845,0.31131605
13039,0,USGeorgiaCamden,Georgia,Camden,2021-01-06 02:19:39.176140,2020-04-21 00:00:00.000000,0.08396800,0.17558114,0.34148887,45,95,186,22,49,107,0.04072469,0.09070979,0.19621425,0.11294701,0.20621886,0.31093160
13039,0,USGeorgiaCamden,Georgia,Camden,2021-01-06 02:19:39.176140,2020-04-22 00:00:00.000000,0.08235427,0.17380424,0.33837920,45,95,184,22,50,109,0.04035156,0.09246007,0.20056509,0.11139329,0.20575282,0.31072589
13039,0,USGeorgiaCamden,Georgia,Camden,2021-01-06 02:19:39.176140,2020-04-23 00:00:00.000000,0.08079089,0.17486985,0.33369597,44,95,182,21,51,112,0.03996860,0.09386896,0.20490669,0.11137314,0.20503462,0.31051724
13039,0,USGeorgiaCamden,Georgia,Camden,2021-01-06 02:19:39.176140,2020-04-24 00:00:00.000000,0.07938854,0.17679310,0.32837448,43,96,179,21,52,113,0.03958485,0.09626864,0.20831360,0.11334319,0.20278773,0.30913621
13039,0,USGeorgiaCamden,Georgia,Camden,2021-01-06 02:19:39.176140,2020-04-25 00:00:00.000000,0.07862548,0.17806549,0.32390113,42,97,177,21,52,113,0.03920837,0.09662406,0.20691689,0.11895569,0.20008516,0.30841286
13039,0,USGeorgiaCamden,Georgia,Camden,2021-01-06 02:19:39.176140,2020-04-26 00:00:00.000000,0.07817398,0.17952814,0.32637659,42,98,178,21,53,112,0.03884660,0.09807595,0.20506686,0.11871338,0.19837577,0.29818749
13039,0,USGeorgiaCamden,Georgia,Camden,2021-01-06 02:19:39.176140,2020-04-27 00:00:00.000000,0.08498419,0.18122193,0.33147804,46,99,181,21,54,113,0.03850416,0.10006593,0.20766297,0.11877556,0.19563593,0.29377921
13039,0,USGeorgiaCamden,Georgia,Camden,2021-01-06 02:19:39.176140,2020-04-28 00:00:00.000000,0.08612574,0.18406265,0.33592010,47,100,183,21,54,114,0.03845668,0.10002303,0.20966154,0.11904003,0.19858848,0.29488104
13039,0,USGeorgiaCamden,Georgia,Camden,2021-01-06 02:19:39.176140,2020-04-29 00:00:00.000000,0.08743364,0.18483496,0.34021533,47,101,185,21,54,115,0.03862672,0.09961300,0.21117583,0.11959962,0.19829437,0.29919924
13039,0,USGeorgiaCamden,Georgia,Camden,2021-01-06 02:19:39.176140,2020-04-30 00:00:00.000000,0.08884812,0.18731614,0.34442427,48,102,188,21,55,116,0.03895914,0.10184952,0.21228926,0.12063403,0.19802662,0.30610091
13039,0,USGeorgiaCamden,Georgia,Camden,2021-01-06 02:19:39.176140,2020-05-01 00:00:00.000000,0.09031875,0.18761294,0.34856087,49,102,190,21,56,116,0.03940993,0.10365046,0.21307504,0.12229001,0.19625559,0.31665769
13039,0,USGeorgiaCamden,Georgia,Camden,2021-01-06 02:19:39.176140,2020-05-02 00:00:00.000000,0.09181123,0.18938445,0.35259807,50,103,192,21,57,116,0.03994331,0.10433695,0.21360068,0.12917345,0.19023848,0.32235964
13039,0,USGeorgiaCamden,Georgia,Camden,2021-01-06 02:19:39.176140,2020-05-03 00:00:00.000000,0.09330557,0.19338809,0.35631299,51,105,194,22,57,116,0.04053127,0.10492054,0.21392564,0.13014235,0.18814876,0.32264776
13039,0,USGeorgiaCamden,Georgia,Camden,2021-01-06 02:19:39.176140,2020-05-04 00:00:00.000000,0.09457575,0.19697884,0.36062734,51,107,197,22,58,117,0.04115769,0.10738953,0.21409919,0.13348370,0.18740218,0.33788421
13039,0,USGeorgiaCamden,Georgia,Camden,2021-01-06 02:19:39.176140,2020-05-05 00:00:00.000000,0.09583987,0.19910272,0.36237633,52,108,198,22,59,117,0.04176553,0.10795484,0.21417156,0.13993898,0.18851487,0.34238517
13039,0,USGeorgiaCamden,Georgia,Camden,2021-01-06 02:19:39.176140,2020-05-06 00:00:00.000000,0.10111980,0.20402921,0.36279767,55,111,198,23,59,117,0.04249785,0.10820924,0.21416880,0.14379624,0.19143597,0.34375052
13039,0,USGeorgiaCamden,Georgia,Camden,2021-01-06 02:19:39.176140,2020-05-07 00:00:00.000000,0.11169000,0.20894378,0.36272838,61,114,198,25,60,117,0.04693699,0.11032325,0.21411097,0.14561362,0.19326369,0.34460239
13039,0,USGeorgiaCamden,Georgia,Camden,2021-01-06 02:19:39.176140,2020-05-08 00:00:00.000000,0.12186829,0.21397013,0.36223713,66,116,198,27,61,116,0.04958584,0.11312380,0.21401359,0.13843181,0.19532445,0.34266950
13039,0,USGeorgiaCamden,Georgia,Camden,2021-01-06 02:19:39.176140,2020-05-09 00:00:00.000000,0.12128418,0.21877734,0.36149596,66,119,197,28,62,116,0.05179218,0.11414515,0.21388957,0.14188637,0.19367328,0.34736757
13039,0,USGeorgiaCamden,Georgia,Camden,2021-01-06 02:19:39.176140,2020-05-10 00:00:00.000000,0.12082413,0.22081013,0.36071782,66,120,197,30,62,116,0.05493604,0.11519707,0.21375214,0.14467968,0.19763629,0.35420159
13039,0,USGeorgiaCamden,Georgia,Camden,2021-01-06 02:19:39.176140,2020-05-11 00:00:00.000000,0.12627453,0.22339344,0.35914850,69,122,196,32,63,116,0.05872303,0.11640636,0.21361963,0.14391835,0.19709865,0.35569977
13039,0,USGeorgiaCamden,Georgia,Camden,2021-01-06 02:19:39.176140,2020-05-12 00:00:00.000000,0.13122576,0.22537059,0.35801671,71,123,195,33,63,116,0.06200002,0.11688864,0.21355919,0.14360323,0.19607509,0.36115928
13039,0,USGeorgiaCamden,Georgia,Camden,2021-01-06 02:19:39.176140,2020-05-13 00:00:00.000000,0.12839572,0.22930023,0.35772152,70,125,195,35,65,116,0.06480659,0.11971573,0.21361486,0.14407475,0.20592714,0.36750608
13039,0,USGeorgiaCamden,Georgia,Camden,2021-01-06 02:19:39.176140,2020-05-14 00:00:00.000000,0.13130440,0.23333364,0.35846572,71,127,195,36,66,116,0.06704560,0.12155899,0.21384547,0.14753475,0.20935030,0.37256885
13039,0,USGeorgiaCamden,Georgia,Camden,2021-01-06 02:19:39.176140,2020-05-15 00:00:00.000000,0.13408985,0.23423125,0.35999974,73,128,196,37,67,117,0.06935998,0.12276460,0.21428573,0.14892932,0.21150056,0.38021931
13039,0,USGeorgiaCamden,Georgia,Camden,2021-01-06 02:19:39.176140,2020-05-16 00:00:00.000000,0.13677781,0.23815124,0.36198147,74,130,197,38,67,117,0.07129476,0.12366810,0.21492613,0.15166524,0.21453999,0.39362834
13039,0,USGeorgiaCamden,Georgia,Camden,2021-01-06 02:19:39.176140,2020-05-17 00:00:00.000000,0.13968532,0.24415176,0.36423010,76,133,199,39,68,117,0.07308048,0.12545812,0.21571957,0.15240161,0.22044344,0.39882833
13039,0,USGeorgiaCamden,Georgia,Camden,2021-01-06 02:19:39.176140,2020-05-18 00:00:00.000000,0.14521566,0.24733753,0.36733956,79,135,200,40,70,118,0.07352487,0.12821366,0.21659658,0.15563560,0.22365847,0.40147662
13039,0,USGeorgiaCamden,Georgia,Camden,2021-01-06 02:19:39.176140,2020-05-19 00:00:00.000000,0.14850581,0.25212664,0.38161094,81,137,208,40,70,119,0.07426465,0.12950660,0.21769623,0.16109375,0.22738187,0.39168495
13039,0,USGeorgiaCamden,Georgia,Camden,2021-01-06 02:19:39.176140,2020-05-20 00:00:00.000000,0.15182003,0.25389033,0.39601287,82,138,216,41,71,119,0.07531339,0.13005564,0.21899782,0.16422686,0.23036978,0.40567477
13039,0,USGeorgiaCamden,Georgia,Camden,2021-01-06 02:19:39.176140,2020-05-21 00:00:00.000000,0.15515556,0.25659398,0.41045501,84,140,224,41,71,120,0.07657619,0.13126865,0.22052594,0.16592895,0.23533262,0.40958389
13039,0,USGeorgiaCamden,Georgia,Camden,2021-01-06 02:19:39.176140,2020-05-22 00:00:00.000000,0.15851423,0.26090175,0.42134012,86,142,230,42,74,121,0.07798819,0.13669075,0.22232892,0.17698740,0.24906195,0.41508079
13039,0,USGeorgiaCamden,Georgia,Camden,2021-01-06 02:19:39.176140,2020-05-23 00:00:00.000000,0.16190754,0.26750574,0.42726281,88,146,233,43,76,122,0.07950566,0.14008668,0.22446624,0.18005812,0.25655954,0.42439868
13039,0,USGeorgiaCamden,Georgia,Camden,2021-01-06 02:19:39.176140,2020-05-24 00:00:00.000000,0.16536391,0.27309739,0.43363053,90,149,237,44,77,124,0.08110075,0.14093089,0.22699561,0.18032067,0.26347127,0.44025481
13039,0,USGeorgiaCamden,Georgia,Camden,2021-01-06 02:19:39.176140,2020-05-25 00:00:00.000000,0.17238653,0.28199213,0.44719043,94,154,244,45,79,125,0.08275916,0.14562769,0.22996005,0.18702945,0.26396151,0.45614064
13039,0,USGeorgiaCamden,Georgia,Camden,2021-01-06 02:19:39.176140,2020-05-26 00:00:00.000000,0.17307783,0.29286953,0.46227113,94,160,252,45,81,127,0.08400563,0.14919305,0.23302290,0.19335614,0.26693391,0.47000629
13039,0,USGeorgiaCamden,Georgia,Camden,2021-01-06 02:19:39.176140,2020-05-27 00:00:00.000000,0.17397042,0.30341853,0.47725365,95,165,260,46,83,129,0.08498862,0.15302066,0.23628358,0.20049633,0.27299503,0.48461660
13039,0,USGeorgiaCamden,Georgia,Camden,2021-01-06 02:19:39.176140,2020-05-28 00:00:00.000000,0.17528087,0.31190770,0.49185461,95,170,268,46,85,131,0.08583330,0.15716116,0.23979554,0.20270920,0.27931534,0.49437092
13039,0,USGeorgiaCamden,Georgia,Camden,2021-01-06 02:19:39.176140,2020-05-29 00:00:00.000000,0.17734935,0.32537346,0.51081716,96,177,279,47,88,133,0.08665027,0.16183373,0.24359962,0.20609567,0.29295046,0.48788021
13039,0,USGeorgiaCamden,Georgia,Camden,2021-01-06 02:19:39.176140,2020-05-30 00:00:00.000000,0.18132655,0.33606038,0.52704601,99,183,288,49,90,136,0.08977579,0.16633827,0.25059688,0.21834256,0.31164355,0.48929393
13039,0,USGeorgiaCamden,Georgia,Camden,2021-01-06 02:19:39.176140,2020-05-31 00:00:00.000000,0.18738821,0.35336413,0.54447287,102,193,297,51,93,143,0.09361194,0.17088983,0.26232922,0.22301076,0.31884615,0.49193721
13039,0,USGeorgiaCamden,Georgia,Camden,2021-01-06 02:19:39.176140,2020-06-01 00:00:00.000000,0.19685168,0.36453312,0.55779254,107,199,304,52,95,150,0.09554574,0.17504783,0.27555836,0.22921136,0.33242534,0.49215191
13039,0,USGeorgiaCamden,Georgia,Camden,2021-01-06 02:19:39.176140,2020-06-02 00:00:00.000000,0.20922404,0.38164582,0.60240156,114,208,329,54,99,159,0.09904450,0.18174223,0.29231775,0.23671417,0.34298365,0.52340259
13039,0,USGeorgiaCamden,Georgia,Camden,2021-01-06 02:19:39.176140,2020-06-03 00:00:00.000000,0.21951118,0.39873496,0.65135960,119,217,356,56,104,170,0.10372324,0.19040721,0.31256127,0.24526744,0.35649532,0.56402305
13039,0,USGeorgiaCamden,Georgia,Camden,2021-01-06 02:19:39.176140,2020-06-04 00:00:00.000000,0.22387995,0.40965893,0.69733013,122,223,381,58,108,181,0.10710980,0.19841571,0.33132065,0.25665373,0.36128112,0.57139870
13039,0,USGeorgiaCamden,Georgia,Camden,2021-01-06 02:19:39.176140,2020-06-05 00:00:00.000000,0.23108460,0.41766422,0.73173604,126,228,400,62,112,187,0.11348775,0.20540778,0.34385393,0.26670355,0.37164595,0.57850482
13039,0,USGeorgiaCamden,Georgia,Camden,2021-01-06 02:19:39.176140,2020-06-06 00:00:00.000000,0.24146628,0.43226487,0.77297040,131,236,422,63,117,195,0.11574476,0.21576104,0.35814676,0.27840321,0.38541406,0.58895639
13039,0,USGeorgiaCamden,Georgia,Camden,2021-01-06 02:19:39.176140,2020-06-07 00:00:00.000000,0.25492881,0.45328316,0.82034527,139,247,448,65,123,204,0.11920918,0.22514748,0.37410445,0.29945966,0.40960022,0.59050854
13039,0,USGeorgiaCamden,Georgia,Camden,2021-01-06 02:19:39.176140,2020-06-08 00:00:00.000000,0.27658170,0.48274970,0.86354820,151,263,472,67,128,214,0.12399786,0.23499901,0.39156206,0.30240149,0.42036516,0.57294858
13039,0,USGeorgiaCamden,Georgia,Camden,2021-01-06 02:19:39.176140,2020-06-09 00:00:00.000000,0.29925741,0.51160468,0.90923910,163,279,497,72,134,224,0.13207545,0.24572475,0.41034474,0.30244821,0.43555528,0.59784912
13039,0,USGeorgiaCamden,Georgia,Camden,2021-01-06 02:19:39.176140,2020-06-10 00:00:00.000000,0.32599335,0.54870377,0.95722824,178,299,523,78,142,237,0.14293457,0.26018694,0.43482978,0.31780622,0.44640340,0.61832389
13039,0,USGeorgiaCamden,Georgia,Camden,2021-01-06 02:19:39.176140,2020-06-11 00:00:00.000000,0.35341694,0.59118504,1.00433591,193,323,549,85,150,249,0.15562453,0.27550970,0.45577428,0.33104873,0.46168641,0.66022572
13039,0,USGeorgiaCamden,Georgia,Camden,2021-01-06 02:19:39.176140,2020-06-12 00:00:00.000000,0.38818986,0.63221281,1.05786204,212,345,578,91,160,261,0.16826601,0.29426140,0.47778719,0.33434813,0.46507230,0.67886315
13039,0,USGeorgiaCamden,Georgia,Camden,2021-01-06 02:19:39.176140,2020-06-13 00:00:00.000000,0.43112724,0.67690762,1.11713789,235,370,610,96,168,273,0.17706475,0.30874214,0.50089125,0.35525026,0.48385442,0.70751975
13039,0,USGeorgiaCamden,Georgia,Camden,2021-01-06 02:19:39.176140,2020-06-14 00:00:00.000000,0.46645865,0.72695790,1.17955525,254,397,644,105,177,287,0.19293645,0.32477808,0.52514496,0.37657180,0.50012168,0.74244126
13039,0,USGeorgiaCamden,Georgia,Camden,2021-01-06 02:19:39.176140,2020-06-15 00:00:00.000000,0.51829483,0.77372062,1.24496087,283,422,680,115,188,301,0.21046273,0.34397730,0.55067361,0.37887317,0.51800991,0.74337368
13039,0,USGeorgiaCamden,Georgia,Camden,2021-01-06 02:19:39.176140,2020-06-16 00:00:00.000000,0.55801550,0.84417563,1.31353478,305,461,718,122,203,318,0.22350130,0.37175804,0.58209416,0.39059011,0.52702488,0.77016308
13039,0,USGeorgiaCamden,Georgia,Camden,2021-01-06 02:19:39.176140,2020-06-17 00:00:00.000000,0.60513563,0.90571140,1.40588706,330,495,768,130,220,347,0.23862615,0.40282252,0.63575741,0.39265166,0.54088650,0.79035998
13039,0,USGeorgiaCamden,Georgia,Camden,2021-01-06 02:19:39.176140,2020-06-18 00:00:00.000000,0.65435844,0.97653966,1.54175729,357,533,842,139,237,380,0.25577558,0.43408298,0.69557043,0.40554866,0.54428578,0.85943571
13039,0,USGeorgiaCamden,Georgia,Camden,2021-01-06 02:19:39.176140,2020-06-19 00:00:00.000000,0.70494504,1.06195450,1.68920110,385,580,923,151,254,416,0.27671170,0.46561515,0.76163979,0.43740366,0.54291126,0.88067139
13039,0,USGeorgiaCamden,Georgia,Camden,2021-01-06 02:19:39.176140,2020-06-20 00:00:00.000000,0.76519897,1.16345039,1.79296052,418,636,980,166,277,455,0.30380456,0.50753194,0.83415398,0.43938395,0.54840032,0.88606548
13039,0,USGeorgiaCamden,Georgia,Camden,2021-01-06 02:19:39.176140,2020-06-21 00:00:00.000000,0.83978765,1.26521768,1.87976323,459,691,1027,180,299,499,0.33077028,0.54716349,0.91313714,0.44798127,0.55929910,0.88718018
13039,0,USGeorgiaCamden,Georgia,Camden,2021-01-06 02:19:39.176140,2020-06-22 00:00:00.000000,0.92081427,1.37948525,1.97356936,503,754,1078,197,319,545,0.36106421,0.58378961,0.99815381,0.43919646,0.56060665,0.88487230
13039,0,USGeorgiaCamden,Georgia,Camden,2021-01-06 02:19:39.176140,2020-06-23 00:00:00.000000,1.01044372,1.50803739,2.06906948,552,824,1131,206,340,574,0.37744975,0.62227157,1.05104919,0.43333213,0.56135686,0.87610022
13039,0,USGeorgiaCamden,Georgia,Camden,2021-01-06 02:19:39.176140,2020-06-24 00:00:00.000000,1.10142803,1.63421304,2.22043017,602,893,1213,225,367,602,0.41220657,0.67249816,1.10255668,0.43760424,0.56149192,0.85618396
13039,0,USGeorgiaCamden,Georgia,Camden,2021-01-06 02:19:39.176140,2020-06-25 00:00:00.000000,1.19904349,1.74854669,2.39297319,655,955,1308,246,406,631,0.45117346,0.74331615,1.15542787,0.43867489,0.56198377,0.83117402
13039,0,USGeorgiaCamden,Georgia,Camden,2021-01-06 02:19:39.176140,2020-06-26 00:00:00.000000,1.29904014,1.87299834,2.59061919,710,1023,1416,269,443,671,0.49231744,0.81076238,1.22755364,0.43962613,0.55953063,0.83729149
13039,0,USGeorgiaCamden,Georgia,Camden,2021-01-06 02:19:39.176140,2020-06-27 00:00:00.000000,1.39172962,2.01069418,2.80433992,760,1099,1533,292,484,726,0.53473776,0.88578073,1.32886967,0.42553711,0.55183396,0.84985032
13039,0,USGeorgiaCamden,Georgia,Camden,2021-01-06 02:19:39.176140,2020-06-28 00:00:00.000000,1.49109243,2.17095325,3.03310620,815,1186,1658,317,526,785,0.58164153,0.96272025,1.43636903,0.41155671,0.54775284,0.83359554
13039,0,USGeorgiaCamden,Georgia,Camden,2021-01-06 02:19:39.176140,2020-06-29 00:00:00.000000,1.58587480,2.37099916,3.26510365,866,1296,1784,346,569,839,0.63339614,1.04088583,1.53577049,0.40816237,0.53718069,0.80391976
13039,0,USGeorgiaCamden,Georgia,Camden,2021-01-06 02:19:39.176140,2020-06-30 00:00:00.000000,1.68546853,2.58505569,3.50126301,921,1413,1914,377,614,900,0.69048322,1.12403090,1.64648982,0.40334714,0.53737446,0.80300174
13039,0,USGeorgiaCamden,Georgia,Camden,2021-01-06 02:19:39.176140,2020-07-01 00:00:00.000000,1.79036583,2.77069993,3.74629620,978,1514,2047,411,664,968,0.75300970,1.21484481,1.77116400,0.39363272,0.52735054,0.80105850
13039,0,USGeorgiaCamden,Georgia,Camden,2021-01-06 02:19:39.176140,2020-07-02 00:00:00.000000,1.90064334,2.96692714,4.00547532,1039,1621,2189,448,715,1038,0.82086556,1.30867842,1.90054837,0.38886339,0.51938980,0.76470412
13039,0,USGeorgiaCamden,Georgia,Camden,2021-01-06 02:19:39.176140,2020-07-03 00:00:00.000000,2.01548849,3.16404242,4.36008012,1101,1729,2383,488,770,1130,0.89317352,1.40872266,2.06849452,0.37285095,0.51206328,0.78818404
13039,0,USGeorgiaCamden,Georgia,Camden,2021-01-06 02:19:39.176140,2020-07-04 00:00:00.000000,2.12650003,3.33720639,4.70699744,1162,1824,2573,521,818,1222,0.95358615,1.49807796,2.23651678,0.37569453,0.48262947,0.77354418
13039,0,USGeorgiaCamden,Georgia,Camden,2021-01-06 02:19:39.176140,2020-07-05 00:00:00.000000,2.24613360,3.50778609,5.04168002,1227,1917,2756,558,872,1327,1.02103507,1.59649757,2.42885921,0.35112303,0.45927985,0.73807734
13039,0,USGeorgiaCamden,Georgia,Camden,2021-01-06 02:19:39.176140,2020-07-06 00:00:00.000000,2.36483020,3.71396483,5.33776238,1292,2030,2917,589,926,1436,1.07823979,1.69479100,2.62865032,0.34105673,0.43590516,0.69397196
13039,0,USGeorgiaCamden,Georgia,Camden,2021-01-06 02:19:39.176140,2020-07-07 00:00:00.000000,2.54060307,3.87618236,5.63099985,1388,2118,3078,617,981,1543,1.12941716,1.79470920,2.82360521,0.33462142,0.42927439,0.67604386
13039,0,USGeorgiaCamden,Georgia,Camden,2021-01-06 02:19:39.176140,2020-07-08 00:00:00.000000,2.70576662,4.02232606,5.91237319,1479,2198,3232,649,1037,1645,1.18804393,1.89766553,3.01083230,0.33051198,0.42055928,0.66972220
13039,0,USGeorgiaCamden,Georgia,Camden,2021-01-06 02:19:39.176140,2020-07-09 00:00:00.000000,2.86494046,4.13072233,6.12865106,1566,2258,3350,706,1079,1740,1.29324870,1.97403289,3.18374289,0.31879816,0.41632197,0.65880039
13039,0,USGeorgiaCamden,Georgia,Camden,2021-01-06 02:19:39.176140,2020-07-10 00:00:00.000000,2.97125532,4.26275716,6.31050617,1624,2330,3449,775,1135,1814,1.41898641,2.07750688,3.31903306,0.31100252,0.40524339,0.61057921
13039,0,USGeorgiaCamden,Georgia,Camden,2021-01-06 02:19:39.176140,2020-07-11 00:00:00.000000,3.07875279,4.40078435,6.61615904,1683,2405,3616,813,1191,1883,1.48866475,2.18035708,3.44618965,0.30047971,0.39164074,0.58282342
13039,0,USGeorgiaCamden,Georgia,Camden,2021-01-06 02:19:39.176140,2020-07-12 00:00:00.000000,3.18733929,4.59863132,6.67949062,1742,2513,3651,848,1233,1946,1.55237426,2.25592559,3.56054008,0.27327528,0.38924224,0.54992252
13039,0,USGeorgiaCamden,Georgia,Camden,2021-01-06 02:19:39.176140,2020-07-13 00:00:00.000000,3.29225012,4.82008540,6.81737130,1799,2634,3726,877,1271,2003,1.60604512,2.32661672,3.66501442,0.25400604,0.37420164,0.51320842
13039,0,USGeorgiaCamden,Georgia,Camden,2021-01-06 02:19:39.176140,2020-07-14 00:00:00.000000,3.39751298,4.94933418,7.07826400,1857,2705,3869,906,1310,2065,1.65804933,2.39656177,3.77759654,0.24775867,0.36901368,0.48585585
13039,0,USGeorgiaCamden,Georgia,Camden,2021-01-06 02:19:39.176140,2020-07-15 00:00:00.000000,3.50199293,5.07674198,7.21720253,1914,2775,3945,935,1358,2125,1.71109817,2.48596909,3.88821861,0.24324916,0.36366862,0.48528440
13039,0,USGeorgiaCamden,Georgia,Camden,2021-01-06 02:19:39.176140,2020-07-16 00:00:00.000000,3.59709005,5.19697974,7.31322868,1966,2840,3997,964,1405,2190,1.76468038,2.57089989,4.00790872,0.24229975,0.35680181,0.47764438
13039,0,USGeorgiaCamden,Georgia,Camden,2021-01-06 02:19:39.176140,2020-07-17 00:00:00.000000,3.65071313,5.29502630,7.40722089,1995,2894,4049,993,1444,2251,1.81789607,2.64310059,4.11848339,0.24706480,0.35189209,0.46737876
13039,0,USGeorgiaCamden,Georgia,Camden,2021-01-06 02:19:39.176140,2020-07-18 00:00:00.000000,3.76135520,5.35461942,7.51159229,2056,2927,4106,1021,1482,2307,1.86941458,2.71255306,4.22198927,0.24137773,0.33767857,0.44415357
13039,0,USGeorgiaCamden,Georgia,Camden,2021-01-06 02:19:39.176140,2020-07-19 00:00:00.000000,3.88040622,5.40885052,7.67060292,2121,2956,4193,1048,1531,2361,1.91777168,2.80107890,4.32045868,0.24059950,0.33395296,0.42848368
13039,0,USGeorgiaCamden,Georgia,Camden,2021-01-06 02:19:39.176140,2020-07-20 00:00:00.000000,3.96160415,5.49186373,7.84287876,2165,3002,4287,1072,1557,2413,1.96197719,2.84943657,4.41550909,0.23299871,0.32642354,0.42393199
13039,0,USGeorgiaCamden,Georgia,Camden,2021-01-06 02:19:39.176140,2020-07-21 00:00:00.000000,4.00675666,5.54253559,8.01304985,2190,3029,4380,1094,1580,2464,2.00160631,2.89163202,4.50805077,0.21412363,0.32398784,0.41296431
13039,0,USGeorgiaCamden,Georgia,Camden,2021-01-06 02:19:39.176140,2020-07-22 00:00:00.000000,4.05061590,5.60191003,8.17649227,2214,3062,4469,1111,1604,2512,2.03323195,2.93542468,4.59654679,0.20962902,0.32042555,0.41279653
13039,0,USGeorgiaCamden,Georgia,Camden,2021-01-06 02:19:39.176140,2020-07-23 00:00:00.000000,4.07869503,5.65329488,8.33464130,2229,3090,4556,1130,1614,2600,2.06849066,2.95249539,4.75629460,0.21006417,0.30896432,0.41211635
13039,0,USGeorgiaCamden,Georgia,Camden,2021-01-06 02:19:39.176140,2020-07-24 00:00:00.000000,4.09977749,5.64160687,8.47766238,2241,3084,4634,1145,1637,2701,2.09532969,2.99545273,4.94103949,0.21440663,0.29807318,0.40926052
13039,0,USGeorgiaCamden,Georgia,Camden,2021-01-06 02:19:39.176140,2020-07-25 00:00:00.000000,4.11754100,5.63675737,8.59329543,2250,3081,4697,1156,1660,2756,2.11579857,3.03750666,5.04304068,0.20962608,0.29012434,0.40249529
13039,0,USGeorgiaCamden,Georgia,Camden,2021-01-06 02:19:39.176140,2020-07-26 00:00:00.000000,4.13270664,5.61928227,8.67175792,2259,3071,4740,1163,1666,2805,2.12814306,3.04929273,5.13215921,0.20301750,0.27475057,0.39610879
13039,0,USGeorgiaCamden,Georgia,Camden,2021-01-06 02:19:39.176140,2020-07-27 00:00:00.000000,4.14837621,5.60398060,8.71108303,2267,3063,4762,1166,1665,2847,2.13303835,3.04758884,5.20914791,0.20461010,0.26153515,0.37545172
13039,0,USGeorgiaCamden,Georgia,Camden,2021-01-06 02:19:39.176140,2020-07-28 00:00:00.000000,4.08299725,5.59996307,8.70257444,2232,3061,4757,1165,1659,2881,2.13262150,3.03548704,5.27029355,0.20353096,0.25803476,0.37270391
13039,0,USGeorgiaCamden,Georgia,Camden,2021-01-06 02:19:39.176140,2020-07-29 00:00:00.000000,4.05408272,5.55982668,8.63673767,2216,3039,4721,1163,1651,2903,2.12765741,3.02192184,5.31142953,0.19328364,0.25335130,0.36025715
13039,0,USGeorgiaCamden,Georgia,Camden,2021-01-06 02:19:39.176140,2020-07-30 00:00:00.000000,4.06452131,5.50709198,8.54013913,2221,3010,4668,1149,1644,2912,2.10262681,3.00768476,5.32792257,0.18975385,0.25185971,0.35308875
13039,0,USGeorgiaCamden,Georgia,Camden,2021-01-06 02:19:39.176140,2020-07-31 00:00:00.000000,4.06269069,5.47561240,8.43114098,2220,2993,4608,1131,1638,2909,2.07004224,2.99676635,5.32171439,0.18934924,0.24337762,0.32556067
13039,0,USGeorgiaCamden,Georgia,Camden,2021-01-06 02:19:39.176140,2020-08-01 00:00:00.000000,4.04783232,5.41125918,8.31479363,2212,2958,4545,1113,1624,2895,2.03701922,2.97122508,5.29728909,0.18331907,0.23519703,0.31030045
13039,0,USGeorgiaCamden,Georgia,Camden,2021-01-06 02:19:39.176140,2020-08-02 00:00:00.000000,3.96429771,5.33775287,8.19351653,2167,2917,4479,1100,1617,2874,2.01227825,2.95885271,5.25761039,0.17877726,0.23118392,0.30824201
13039,0,USGeorgiaCamden,Georgia,Camden,2021-01-06 02:19:39.176140,2020-08-03 00:00:00.000000,3.85631733,5.26110795,8.06591125,2108,2876,4409,1086,1606,2846,1.98714190,2.93877434,5.20711920,0.17090215,0.22979375,0.31229125
13039,0,USGeorgiaCamden,Georgia,Camden,2021-01-06 02:19:39.176140,2020-08-04 00:00:00.000000,3.74139704,5.17148485,7.93629433,2045,2827,4338,1071,1587,2814,1.95980286,2.90351587,5.14811008,0.16797572,0.22849484,0.31964986
13039,0,USGeorgiaCamden,Georgia,Camden,2021-01-06 02:19:39.176140,2020-08-05 00:00:00.000000,3.64393053,5.10048471,7.80536815,1991,2788,4266,1055,1565,2778,1.93068843,2.86447577,5.08277262,0.16715811,0.22658478,0.32290122
13039,0,USGeorgiaCamden,Georgia,Camden,2021-01-06 02:19:39.176140,2020-08-06 00:00:00.000000,3.61234432,5.01369230,7.67362282,1974,2740,4194,1038,1541,2740,1.90027729,2.81976414,5.01277152,0.16512336,0.22453857,0.32424304
13039,0,USGeorgiaCamden,Georgia,Camden,2021-01-06 02:19:39.176140,2020-08-07 00:00:00.000000,3.57115206,4.91795132,7.54104969,1952,2688,4122,1021,1520,2700,1.86899668,2.78115570,4.93935373,0.16351044,0.22246396,0.32293890
13039,0,USGeorgiaCamden,Georgia,Camden,2021-01-06 02:19:39.176140,2020-08-08 00:00:00.000000,3.52137119,4.81287535,7.40579316,1924,2631,4048,1004,1495,2658,1.83719079,2.73493578,4.86338623,0.16415424,0.21992866,0.32077067
13039,0,USGeorgiaCamden,Georgia,Camden,2021-01-06 02:19:39.176140,2020-08-09 00:00:00.000000,3.44563360,4.71275431,7.26491091,1883,2576,3971,986,1470,2615,1.80512507,2.68949633,4.78513275,0.16243682,0.21881859,0.31688258
13039,0,USGeorgiaCamden,Georgia,Camden,2021-01-06 02:19:39.176140,2020-08-10 00:00:00.000000,3.35024011,4.61503678,7.12683987,1831,2522,3895,969,1444,2571,1.77300008,2.64228044,4.70421746,0.16198595,0.21839081,0.31178351
13039,0,USGeorgiaCamden,Georgia,Camden,2021-01-06 02:19:39.176140,2020-08-11 00:00:00.000000,3.24206254,4.52267238,6.99162026,1772,2472,3822,951,1419,2526,1.74041468,2.59642930,4.62192918,0.16048249,0.21888245,0.30767172
13039,0,USGeorgiaCamden,Georgia,Camden,2021-01-06 02:19:39.176140,2020-08-12 00:00:00.000000,3.16027168,4.40967693,6.86283677,1727,2410,3751,933,1398,2481,1.70766518,2.55876994,4.53921211,0.15698952,0.22023717,0.32770404
13039,0,USGeorgiaCamden,Georgia,Camden,2021-01-06 02:19:39.176140,2020-08-13 00:00:00.000000,3.10462031,4.29894783,6.74563669,1697,2350,3687,915,1371,2436,1.67503214,2.50911310,4.45738720,0.15584585,0.22197953,0.34230936
13039,0,USGeorgiaCamden,Georgia,Camden,2021-01-06 02:19:39.176140,2020-08-14 00:00:00.000000,3.05838993,4.18818986,6.64689429,1671,2289,3633,898,1344,2393,1.64298764,2.45973195,4.37834131,0.15638607,0.22310141,0.33692408
13039,0,USGeorgiaCamden,Georgia,Camden,2021-01-06 02:19:39.176140,2020-08-15 00:00:00.000000,3.01580032,4.07701263,6.57204520,1648,2228,3592,881,1313,2353,1.61277216,2.40329435,4.30467982,0.15893266,0.22184725,0.33252383
13039,0,USGeorgiaCamden,Georgia,Camden,2021-01-06 02:19:39.176140,2020-08-16 00:00:00.000000,2.97500562,3.98308654,6.52043213,1626,2177,3564,867,1282,2317,1.58708331,2.34673171,4.23924566,0.16307526,0.22816536,0.32867260
13039,0,USGeorgiaCamden,Georgia,Camden,2021-01-06 02:19:39.176140,2020-08-17 00:00:00.000000,2.93063732,3.88795740,6.48296761,1602,2125,3543,857,1255,2287,1.56832378,2.29585792,4.18391008,0.16046674,0.23263651,0.32959490
13039,0,USGeorgiaCamden,Georgia,Camden,2021-01-06 02:19:39.176140,2020-08-18 00:00:00.000000,2.88782238,3.80172815,6.45481303,1578,2078,3528,840,1230,2262,1.53794688,2.25181769,4.13828244,0.16567907,0.23519226,0.32953707
13039,0,USGeorgiaCamden,Georgia,Camden,2021-01-06 02:19:39.176140,2020-08-19 00:00:00.000000,2.82216538,3.73914543,6.43043130,1542,2044,3515,822,1208,2241,1.50496219,2.21051194,4.10119247,0.16255149,0.23782698,0.33758515
13039,0,USGeorgiaCamden,Georgia,Camden,2021-01-06 02:19:39.176140,2020-08-20 00:00:00.000000,2.70229147,3.66342629,6.40746477,1477,2002,3502,805,1184,2225,1.47382942,2.16596557,4.07085559,0.16371139,0.23976764,0.33790564
13039,0,USGeorgiaCamden,Georgia,Camden,2021-01-06 02:19:39.176140,2020-08-21 00:00:00.000000,2.58722943,3.62155452,6.38415984,1414,1979,3489,789,1169,2211,1.44489927,2.13959872,4.04549052,0.16641900,0.24037634,0.33772651
13039,0,USGeorgiaCamden,Georgia,Camden,2021-01-06 02:19:39.176140,2020-08-22 00:00:00.000000,2.47837465,3.57678241,6.35910457,1354,1955,3476,775,1150,2199,1.41840090,2.10433294,4.02353197,0.17048007,0.24040545,0.33808923
13039,0,USGeorgiaCamden,Georgia,Camden,2021-01-06 02:19:39.176140,2020-08-23 00:00:00.000000,2.43219991,3.49778945,6.33046053,1329,1912,3460,747,1121,2188,1.36798824,2.05102992,4.00335820,0.17634798,0.24392685,0.34464966
13039,0,USGeorgiaCamden,Georgia,Camden,2021-01-06 02:19:39.176140,2020-08-24 00:00:00.000000,2.39862463,3.43163902,6.31082795,1311,1875,3449,717,1098,2177,1.31230183,2.00874853,3.98362208,0.17416941,0.24693510,0.34792124
13039,0,USGeorgiaCamden,Georgia,Camden,2021-01-06 02:19:39.176140,2020-08-25 00:00:00.000000,2.36692393,3.36342109,6.28419845,1293,1838,3435,691,1077,2168,1.26553652,1.97146556,3.96605751,0.17227581,0.24806962,0.35868744
13039,0,USGeorgiaCamden,Georgia,Camden,2021-01-06 02:19:39.176140,2020-08-26 00:00:00.000000,2.33628874,3.31861613,6.21693073,1277,1814,3398,677,1061,2158,1.23990924,1.94187043,3.94875183,0.17335834,0.24988623,0.36997456
13039,0,USGeorgiaCamden,Georgia,Camden,2021-01-06 02:19:39.176140,2020-08-27 00:00:00.000000,2.30626120,3.28951588,6.10064482,1260,1798,3334,668,1040,2148,1.22256462,1.90342168,3.92998118,0.17663671,0.25136833,0.37133100
13039,0,USGeorgiaCamden,Georgia,Camden,2021-01-06 02:19:39.176140,2020-08-28 00:00:00.000000,2.27675236,3.27878867,5.98907573,1244,1792,3273,659,1024,2136,1.20600129,1.87482000,3.90845800,0.17842940,0.25412170,0.37382101
13039,0,USGeorgiaCamden,Georgia,Camden,2021-01-06 02:19:39.176140,2020-08-29 00:00:00.000000,2.24810359,3.26571991,5.88114670,1228,1785,3214,650,1020,2122,1.19000621,1.86650113,3.88347329,0.18050781,0.25878248,0.37763818
13039,0,USGeorgiaCamden,Georgia,Camden,2021-01-06 02:19:39.176140,2020-08-30 00:00:00.000000,2.22082231,3.25803367,5.77524183,1214,1781,3157,642,1017,2106,1.17449147,1.86108987,3.85385890,0.18178434,0.25847720,0.38116152
13039,0,USGeorgiaCamden,Georgia,Camden,2021-01-06 02:19:39.176140,2020-08-31 00:00:00.000000,2.19733917,3.21608176,5.65449182,1201,1758,3091,633,1004,2082,1.15953916,1.83812829,3.80973702,0.18247086,0.26051297,0.38432015
13039,0,USGeorgiaCamden,Georgia,Camden,2021-01-06 02:19:39.176140,2020-09-01 00:00:00.000000,2.17475403,3.16735568,5.53609443,1188,1731,3026,626,991,2043,1.14563975,1.81301709,3.73832238,0.18329875,0.26317860,0.39677616
13039,0,USGeorgiaCamden,Georgia,Camden,2021-01-06 02:19:39.176140,2020-09-02 00:00:00.000000,2.15255898,3.12979390,5.42080770,1176,1710,2963,619,977,2003,1.13263354,1.78744599,3.66578878,0.18488836,0.26437360,0.39633345
13039,0,USGeorgiaCamden,Georgia,Camden,2021-01-06 02:19:39.176140,2020-09-03 00:00:00.000000,2.13042268,3.09062912,5.31027348,1164,1689,2902,612,961,1964,1.12033161,1.75816168,3.59310850,0.18768911,0.26643162,0.39418613
13039,0,USGeorgiaCamden,Georgia,Camden,2021-01-06 02:19:39.176140,2020-09-04 00:00:00.000000,2.10792521,3.05971657,5.20578073,1152,1672,2845,605,944,1924,1.10853590,1.72753721,3.52127155,0.18621049,0.26137493,0.38133622
13039,0,USGeorgiaCamden,Georgia,Camden,2021-01-06 02:19:39.176140,2020-09-05 00:00:00.000000,2.08496314,3.02829085,5.10698786,1139,1655,2791,599,927,1886,1.09700938,1.69719641,3.45121379,0.17903703,0.26006023,0.38036665
13039,0,USGeorgiaCamden,Georgia,Camden,2021-01-06 02:19:39.176140,2020-09-06 00:00:00.000000,2.06224607,2.97736177,5.01192699,1127,1627,2739,593,912,1849,1.08558713,1.66833776,3.38351375,0.17319494,0.26416930,0.38068663
13039,0,USGeorgiaCamden,Georgia,Camden,2021-01-06 02:19:39.176140,2020-09-07 00:00:00.000000,2.04304917,2.92882719,4.91923001,1116,1601,2689,587,898,1813,1.07421110,1.64412324,3.31817990,0.17251740,0.26084741,0.38613877
13039,0,USGeorgiaCamden,Georgia,Camden,2021-01-06 02:19:39.176140,2020-09-08 00:00:00.000000,2.04234705,2.88836684,4.82654336,1116,1578,2638,581,892,1779,1.06343402,1.63253270,3.25494028,0.17030618,0.25928652,0.38582972
13039,0,USGeorgiaCamden,Georgia,Camden,2021-01-06 02:19:39.176140,2020-09-09 00:00:00.000000,2.01433072,2.85894215,4.73325470,1101,1562,2587,575,879,1745,1.05302977,1.60878463,3.19314119,0.17005842,0.25871744,0.38439163
13039,0,USGeorgiaCamden,Georgia,Camden,2021-01-06 02:19:39.176140,2020-09-10 00:00:00.000000,1.98251493,2.81870598,4.63909911,1083,1540,2536,569,867,1712,1.04247478,1.58651581,3.13220233,0.17055873,0.25756699,0.37908135
13039,0,USGeorgiaCamden,Georgia,Camden,2021-01-06 02:19:39.176140,2020-09-11 00:00:00.000000,1.96107372,2.76545837,4.54382184,1072,1511,2483,563,855,1679,1.03160306,1.56555853,3.07167283,0.17454539,0.25343857,0.36203620
13039,0,USGeorgiaCamden,Georgia,Camden,2021-01-06 02:19:39.176140,2020-09-12 00:00:00.000000,1.93054571,2.70078739,4.44758127,1055,1476,2431,557,844,1646,1.02069575,1.54561644,3.01119841,0.18152647,0.24950938,0.35465024
13039,0,USGeorgiaCamden,Georgia,Camden,2021-01-06 02:19:39.176140,2020-09-13 00:00:00.000000,1.86932917,2.64028673,4.35092262,1021,1443,2378,551,833,1612,1.00956674,1.52551307,2.95056979,0.18482842,0.24296526,0.34649362
13039,0,USGeorgiaCamden,Georgia,Camden,2021-01-06 02:19:39.176140,2020-09-14 00:00:00.000000,1.81231581,2.58658388,4.25518852,990,1413,2326,545,823,1579,0.99804155,1.50592182,2.88975195,0.18507520,0.23784196,0.34409626
13039,0,USGeorgiaCamden,Georgia,Camden,2021-01-06 02:19:39.176140,2020-09-15 00:00:00.000000,1.75765733,2.52916480,4.16052714,960,1382,2274,538,812,1546,0.98578977,1.48569951,2.82898656,0.18012432,0.23463407,0.34507501
13039,0,USGeorgiaCamden,Georgia,Camden,2021-01-06 02:19:39.176140,2020-09-16 00:00:00.000000,1.72367027,2.47361017,4.06737923,942,1352,2223,531,799,1513,0.97290107,1.46262464,2.76847327,0.17322779,0.23552822,0.34574602
13039,0,USGeorgiaCamden,Georgia,Camden,2021-01-06 02:19:39.176140,2020-09-17 00:00:00.000000,1.69434239,2.41769775,3.97559887,926,1321,2173,524,784,1480,0.95922409,1.43469677,2.70843568,0.17170179,0.23361419,0.34562060
13039,0,USGeorgiaCamden,Georgia,Camden,2021-01-06 02:19:39.176140,2020-09-18 00:00:00.000000,1.66307303,2.36525366,3.88508807,909,1292,2123,502,764,1448,0.91858333,1.39926487,2.64900208,0.16206780,0.23359547,0.34514051
13039,0,USGeorgiaCamden,Georgia,Camden,2021-01-06 02:19:39.176140,2020-09-19 00:00:00.000000,1.58687931,2.31698037,3.79600371,867,1266,2075,480,743,1415,0.87893383,1.36060027,2.59023912,0.16003327,0.22782163,0.34562402
13039,0,USGeorgiaCamden,Georgia,Camden,2021-01-06 02:19:39.176140,2020-09-20 00:00:00.000000,1.52172822,2.26779575,3.72853767,831,1239,2038,459,721,1395,0.84009993,1.31900666,2.55346613,0.15179712,0.22529000,0.34600288
13039,0,USGeorgiaCamden,Georgia,Camden,2021-01-06 02:19:39.176140,2020-09-21 00:00:00.000000,1.49012450,2.19361405,3.67371218,814,1199,2008,446,696,1378,0.81760578,1.27405794,2.52186491,0.14958401,0.22638886,0.34601151
13039,0,USGeorgiaCamden,Georgia,Camden,2021-01-06 02:19:39.176140,2020-09-22 00:00:00.000000,1.46330783,2.12465635,3.58700375,799,1161,1960,437,676,1348,0.80083484,1.23726396,2.46649677,0.14937890,0.22254509,0.34580073
13039,0,USGeorgiaCamden,Georgia,Camden,2021-01-06 02:19:39.176140,2020-09-23 00:00:00.000000,1.44039429,2.06232840,3.47571886,787,1127,1900,428,661,1310,0.78303216,1.20929779,2.39666438,0.14926497,0.22245983,0.34505497
13039,0,USGeorgiaCamden,Georgia,Camden,2021-01-06 02:19:39.176140,2020-09-24 00:00:00.000000,1.40545157,2.01639568,3.39128401,768,1102,1853,417,649,1272,0.76461314,1.18756536,2.32704281,0.14919512,0.22273835,0.34292149
13039,0,USGeorgiaCamden,Georgia,Camden,2021-01-06 02:19:39.176140,2020-09-25 00:00:00.000000,1.35783269,1.96679059,3.31603916,742,1075,1812,407,633,1237,0.74590492,1.15801878,2.26347158,0.14915392,0.22658875,0.33596718
13039,0,USGeorgiaCamden,Georgia,Camden,2021-01-06 02:19:39.176140,2020-09-26 00:00:00.000000,1.31436638,1.91341277,3.24124561,718,1045,1771,397,615,1209,0.72714602,1.12528800,2.21270139,0.14914327,0.23108173,0.33222164
13039,0,USGeorgiaCamden,Georgia,Camden,2021-01-06 02:19:39.176140,2020-09-27 00:00:00.000000,1.27721244,1.85991851,3.16798438,698,1016,1731,387,601,1182,0.70851931,1.09966027,2.16298802,0.14922980,0.23353311,0.33578989
13039,0,USGeorgiaCamden,Georgia,Camden,2021-01-06 02:19:39.176140,2020-09-28 00:00:00.000000,1.24330552,1.82019004,3.09297766,679,995,1690,376,587,1155,0.68840975,1.07436689,2.11430870,0.14989489,0.23601535,0.33608168
13039,0,USGeorgiaCamden,Georgia,Camden,2021-01-06 02:19:39.176140,2020-09-29 00:00:00.000000,1.21495491,1.79156093,3.01950498,664,979,1650,361,570,1129,0.66199796,1.04307108,2.06600247,0.15377964,0.23818513,0.34426278
13039,0,USGeorgiaCamden,Georgia,Camden,2021-01-06 02:19:39.176140,2020-09-30 00:00:00.000000,1.19100876,1.76743224,2.93643996,651,966,1605,348,552,1103,0.63736851,1.01097069,2.01824255,0.15651209,0.24508689,0.36625184
13039,0,USGeorgiaCamden,Georgia,Camden,2021-01-06 02:19:39.176140,2020-10-01 00:00:00.000000,1.16321145,1.75205743,2.85490427,635,957,1560,336,536,1077,0.61466630,0.98152008,1.97116864,0.15648318,0.24474079,0.36988211
13039,0,USGeorgiaCamden,Georgia,Camden,2021-01-06 02:19:39.176140,2020-10-02 00:00:00.000000,1.13094629,1.72107252,2.78385372,618,940,1521,324,523,1051,0.59389462,0.95729958,1.92298325,0.15777672,0.25231151,0.37065903
13039,0,USGeorgiaCamden,Georgia,Camden,2021-01-06 02:19:39.176140,2020-10-03 00:00:00.000000,1.10088484,1.69250013,2.72352872,601,925,1488,314,509,1021,0.57490977,0.93252615,1.86872792,0.16035992,0.26090867,0.37144266
13039,0,USGeorgiaCamden,Georgia,Camden,2021-01-06 02:19:39.176140,2020-10-04 00:00:00.000000,1.07245402,1.65290962,2.67301317,586,903,1461,304,497,994,0.55747960,0.91098525,1.81966522,0.16510378,0.27059142,0.39992534
13039,0,USGeorgiaCamden,Georgia,Camden,2021-01-06 02:19:39.176140,2020-10-05 00:00:00.000000,1.04464627,1.65002529,2.63122125,571,902,1438,295,488,970,0.54135861,0.89335527,1.77611242,0.17283683,0.28341942,0.43019131
13039,0,USGeorgiaCamden,Georgia,Camden,2021-01-06 02:19:39.176140,2020-10-06 00:00:00.000000,1.01796541,1.63758945,2.59477185,556,895,1418,287,482,950,0.52622658,0.88290513,1.73806373,0.18342903,0.29052431,0.43203254
13039,0,USGeorgiaCamden,Georgia,Camden,2021-01-06 02:19:39.176140,2020-10-07 00:00:00.000000,0.99235092,1.62315662,2.56177066,542,887,1400,279,480,931,0.51194391,0.87945411,1.70484101,0.18942946,0.30074714,0.45711399
13039,0,USGeorgiaCamden,Georgia,Camden,2021-01-06 02:19:39.176140,2020-10-08 00:00:00.000000,0.96796890,1.61356740,2.55308881,529,882,1395,272,476,915,0.49841144,0.87089806,1.67559311,0.19455186,0.30616460,0.46086508
13039,0,USGeorgiaCamden,Georgia,Camden,2021-01-06 02:19:39.176140,2020-10-09 00:00:00.000000,0.94565940,1.60793460,2.57504679,516,878,1407,265,467,901,0.48558749,0.85548729,1.64954665,0.20396794,0.31505684,0.51523045
13039,0,USGeorgiaCamden,Georgia,Camden,2021-01-06 02:19:39.176140,2020-10-10 00:00:00.000000,0.92739336,1.59790383,2.56567441,506,873,1402,258,463,889,0.47354849,0.84781350,1.62624340,0.21085712,0.32671630,0.57072231
13039,0,USGeorgiaCamden,Georgia,Camden,2021-01-06 02:19:39.176140,2020-10-11 00:00:00.000000,0.91957564,1.60512185,2.54424249,502,877,1390,252,461,877,0.46263358,0.84494262,1.60594163,0.21798362,0.34206794,0.57421920
13039,0,USGeorgiaCamden,Georgia,Camden,2021-01-06 02:19:39.176140,2020-10-12 00:00:00.000000,0.92699272,1.63592394,2.54835506,506,894,1393,250,461,869,0.45787630,0.84385230,1.59033627,0.24205189,0.35986311,0.57676697
13039,0,USGeorgiaCamden,Georgia,Camden,2021-01-06 02:19:39.176140,2020-10-13 00:00:00.000000,0.93521960,1.65413781,2.57170297,511,904,1405,251,463,864,0.46026693,0.84740511,1.58207510,0.24245612,0.37074031,0.58779263
13039,0,USGeorgiaCamden,Georgia,Camden,2021-01-06 02:19:39.176140,2020-10-14 00:00:00.000000,0.94399217,1.66388670,2.61506083,516,909,1429,253,467,865,0.46343471,0.85540848,1.58306237,0.25873320,0.38403303,0.60185946
13039,0,USGeorgiaCamden,Georgia,Camden,2021-01-06 02:19:39.176140,2020-10-15 00:00:00.000000,0.95314880,1.67820814,2.68024098,521,917,1465,255,468,871,0.46714908,0.85653133,1.59397677,0.26071422,0.40344283,0.63723560
13039,0,USGeorgiaCamden,Georgia,Camden,2021-01-06 02:19:39.176140,2020-10-16 00:00:00.000000,0.96342471,1.72651993,2.75235992,526,943,1504,257,473,880,0.47124861,0.86537292,1.61067562,0.27160986,0.42249897,0.67056973
13039,0,USGeorgiaCamden,Georgia,Camden,2021-01-06 02:19:39.176140,2020-10-17 00:00:00.000000,0.99594584,1.77809335,2.82869616,544,972,1546,260,479,893,0.47568080,0.87745493,1.63471082,0.29438980,0.44795834,0.70518626
13039,0,USGeorgiaCamden,Georgia,Camden,2021-01-06 02:19:39.176140,2020-10-18 00:00:00.000000,1.02366602,1.82947110,2.87891786,559,1000,1573,262,486,909,0.48104899,0.88960128,1.66401761,0.31010451,0.46490105,0.72927965
13039,0,USGeorgiaCamden,Georgia,Camden,2021-01-06 02:19:39.176140,2020-10-19 00:00:00.000000,1.08025380,1.89610168,2.93243148,590,1036,1603,268,497,928,0.49064670,0.91078049,1.69758983,0.33424399,0.48381763,0.73564714
13039,0,USGeorgiaCamden,Georgia,Camden,2021-01-06 02:19:39.176140,2020-10-20 00:00:00.000000,1.13380519,1.94373922,2.99375095,619,1062,1636,276,514,935,0.50656524,0.94042674,1.71214437,0.35695170,0.50512016,0.73785013
13039,0,USGeorgiaCamden,Georgia,Camden,2021-01-06 02:19:39.176140,2020-10-21 00:00:00.000000,1.19316016,2.01130572,3.08749188,652,1099,1687,288,531,952,0.52696106,0.97213948,1.74197340,0.36999667,0.51869118,0.78368856
13039,0,USGeorgiaCamden,Georgia,Camden,2021-01-06 02:19:39.176140,2020-10-22 00:00:00.000000,1.26122754,2.08119828,3.19328597,689,1137,1745,301,549,972,0.55108592,1.00502130,1.77877028,0.38046970,0.52987193,0.81553568
13039,0,USGeorgiaCamden,Georgia,Camden,2021-01-06 02:19:39.176140,2020-10-23 00:00:00.000000,1.32213822,2.15975281,3.33534428,722,1180,1823,316,571,995,0.57874595,1.04626538,1.82066284,0.39241764,0.54511427,0.83221484
13039,0,USGeorgiaCamden,Georgia,Camden,2021-01-06 02:19:39.176140,2020-10-24 00:00:00.000000,1.37045809,2.27308541,3.43796859,749,1242,1879,333,600,1020,0.60971330,1.09883200,1.86733522,0.39866196,0.55205582,0.85170254
13039,0,USGeorgiaCamden,Georgia,Camden,2021-01-06 02:19:39.176140,2020-10-25 00:00:00.000000,1.44670950,2.37750806,3.54203438,790,1299,1936,345,627,1048,0.63161740,1.14842885,1.91795041,0.40266609,0.55336213,0.86716586
13039,0,USGeorgiaCamden,Georgia,Camden,2021-01-06 02:19:39.176140,2020-10-26 00:00:00.000000,1.52780082,2.46324325,3.64631738,835,1346,1993,359,650,1074,0.65794293,1.18991249,1.96600482,0.41205747,0.56120381,0.88626794
13039,0,USGeorgiaCamden,Georgia,Camden,2021-01-06 02:19:39.176140,2020-10-27 00:00:00.000000,1.61304025,2.55418259,3.75199384,881,1396,2051,381,671,1102,0.69703066,1.22785201,2.01668888,0.43075830,0.56248831,0.89692828
13039,0,USGeorgiaCamden,Georgia,Camden,2021-01-06 02:19:39.176140,2020-10-28 00:00:00.000000,1.70231733,2.67055840,3.85945117,930,1459,2109,403,691,1133,0.73844583,1.26581909,2.07345566,0.41935562,0.56973274,0.88789087
13039,0,USGeorgiaCamden,Georgia,Camden,2021-01-06 02:19:39.176140,2020-10-29 00:00:00.000000,1.79480853,2.77574429,3.96866645,981,1517,2169,427,717,1167,0.78221134,1.31218143,2.13542518,0.42182170,0.57496117,0.85517102
13039,0,USGeorgiaCamden,Georgia,Camden,2021-01-06 02:19:39.176140,2020-10-30 00:00:00.000000,1.88453870,2.87924145,4.07937535,1030,1573,2230,452,752,1205,0.82835893,1.37729346,2.20608276,0.40975636,0.57130427,0.83164084
13039,0,USGeorgiaCamden,Georgia,Camden,2021-01-06 02:19:39.176140,2020-10-31 00:00:00.000000,1.96206188,3.01974477,4.19255788,1072,1650,2291,479,784,1245,0.87674050,1.43496792,2.27922342,0.40589041,0.56003852,0.80201115
13039,0,USGeorgiaCamden,Georgia,Camden,2021-01-06 02:19:39.176140,2020-11-01 00:00:00.000000,2.03513802,3.13383515,4.30780165,1112,1713,2354,506,811,1294,0.92594181,1.48406393,2.36793788,0.40638701,0.55676757,0.77715642
13039,0,USGeorgiaCamden,Georgia,Camden,2021-01-06 02:19:39.176140,2020-11-02 00:00:00.000000,2.12300274,3.26309852,4.42395151,1160,1783,2418,530,841,1344,0.96992248,1.53981684,2.45910504,0.39630287,0.55012059,0.75922892
13039,0,USGeorgiaCamden,Georgia,Camden,2021-01-06 02:19:39.176140,2020-11-03 00:00:00.000000,2.23061286,3.38894165,4.53697915,1219,1852,2480,550,875,1395,1.00790204,1.60168979,2.55270044,0.38982493,0.53259516,0.74644204
13039,0,USGeorgiaCamden,Georgia,Camden,2021-01-06 02:19:39.176140,2020-11-04 00:00:00.000000,2.34311936,3.50996598,4.66129335,1280,1918,2548,571,909,1444,1.04543433,1.66403300,2.64236104,0.38954445,0.52772101,0.73074090
13039,0,USGeorgiaCamden,Georgia,Camden,2021-01-06 02:19:39.176140,2020-11-05 00:00:00.000000,2.41799039,3.62876885,4.78191996,1321,1983,2614,592,950,1482,1.08306041,1.73921648,2.71163418,0.38973220,0.51027624,0.69672747
13039,0,USGeorgiaCamden,Georgia,Camden,2021-01-06 02:19:39.176140,2020-11-06 00:00:00.000000,2.45271786,3.72480747,4.90141673,1340,2036,2679,612,994,1515,1.12107643,1.81909771,2.77281814,0.38838962,0.50234647,0.68142404
13039,0,USGeorgiaCamden,Georgia,Camden,2021-01-06 02:19:39.176140,2020-11-07 00:00:00.000000,2.48976284,3.78507536,5.01809768,1361,2069,2743,633,1032,1545,1.15962402,1.88885648,2.82721842,0.37058607,0.49420190,0.67433533
13039,0,USGeorgiaCamden,Georgia,Camden,2021-01-06 02:19:39.176140,2020-11-08 00:00:00.000000,2.56658795,3.85307006,5.13111517,1403,2106,2804,653,1062,1572,1.19495705,1.94380743,2.87635634,0.36997371,0.48213024,0.66955012
13039,0,USGeorgiaCamden,Georgia,Camden,2021-01-06 02:19:39.176140,2020-11-09 00:00:00.000000,2.64620543,3.96733312,5.24086666,1446,2168,2864,676,1098,1605,1.23758365,2.00867733,2.93625583,0.36222209,0.47525658,0.65812189
13039,0,USGeorgiaCamden,Georgia,Camden,2021-01-06 02:19:39.176140,2020-11-10 00:00:00.000000,2.71518847,4.04390313,5.34839563,1484,2210,2923,693,1116,1639,1.26815523,2.04322089,2.99857862,0.35583636,0.47370393,0.65123685
13039,0,USGeorgiaCamden,Georgia,Camden,2021-01-06 02:19:39.176140,2020-11-11 00:00:00.000000,2.77633043,4.07875752,5.45401174,1517,2229,2981,697,1131,1674,1.27619676,2.06996891,3.06394296,0.35324591,0.47596237,0.63882335
13039,0,USGeorgiaCamden,Georgia,Camden,2021-01-06 02:19:39.176140,2020-11-12 00:00:00.000000,2.83555068,4.11487381,5.55797028,1550,2249,3038,711,1154,1709,1.30139559,2.11109185,3.12766456,0.35306714,0.47647486,0.63527051
13039,0,USGeorgiaCamden,Georgia,Camden,2021-01-06 02:19:39.176140,2020-11-13 00:00:00.000000,2.89431130,4.18458580,5.65915579,1582,2287,3093,723,1169,1742,1.32270624,2.13938443,3.18842117,0.34823478,0.46770068,0.63030917
13039,0,USGeorgiaCamden,Georgia,Camden,2021-01-06 02:19:39.176140,2020-11-14 00:00:00.000000,2.95310399,4.26540486,5.75396897,1614,2331,3145,735,1185,1774,1.34595543,2.16804738,3.24626974,0.35238385,0.47361267,0.62484804
13039,0,USGeorgiaCamden,Georgia,Camden,2021-01-06 02:19:39.176140,2020-11-15 00:00:00.000000,3.01247267,4.31658718,5.84054386,1646,2359,3192,748,1191,1804,1.36981920,2.17998516,3.30114778,0.34109781,0.46735825,0.61968530
13039,0,USGeorgiaCamden,Georgia,Camden,2021-01-06 02:19:39.176140,2020-11-16 00:00:00.000000,3.07056526,4.37208194,5.93816156,1678,2390,3246,762,1212,1832,1.39520758,2.21715341,3.35302843,0.33382437,0.46163489,0.61714548
13039,0,USGeorgiaCamden,Georgia,Camden,2021-01-06 02:19:39.176140,2020-11-17 00:00:00.000000,3.11317202,4.42072363,6.03359353,1701,2416,3298,778,1223,1859,1.42330380,2.23756064,3.40236277,0.33262636,0.46143061,0.62237901
13039,0,USGeorgiaCamden,Georgia,Camden,2021-01-06 02:19:39.176140,2020-11-18 00:00:00.000000,3.10966853,4.45905810,6.12908075,1699,2437,3350,794,1229,1885,1.45383774,2.24841683,3.44914374,0.33481691,0.46084818,0.62866491
13039,0,USGeorgiaCamden,Georgia,Camden,2021-01-06 02:19:39.176140,2020-11-19 00:00:00.000000,3.10344988,4.51370771,6.26488753,1696,2467,3424,812,1239,1919,1.48616342,2.26791297,3.51135168,0.33892650,0.46332361,0.63425198
13039,0,USGeorgiaCamden,Georgia,Camden,2021-01-06 02:19:39.176140,2020-11-20 00:00:00.000000,3.09462951,4.55029879,6.39095121,1691,2487,3493,830,1257,1962,1.51948339,2.30027735,3.59036662,0.33991971,0.46892860,0.63489563
13039,0,USGeorgiaCamden,Georgia,Camden,2021-01-06 02:19:39.176140,2020-11-21 00:00:00.000000,3.08366433,4.59039383,6.50307906,1685,2509,3554,849,1274,2005,1.55319035,2.33084843,3.66820712,0.34006124,0.47184524,0.64392850
13039,0,USGeorgiaCamden,Georgia,Camden,2021-01-06 02:19:39.176140,2020-11-22 00:00:00.000000,3.07155613,4.61985773,6.60245250,1679,2525,3609,867,1295,2045,1.58700961,2.36910855,3.74246659,0.33921850,0.47574505,0.64615830
13039,0,USGeorgiaCamden,Georgia,Camden,2021-01-06 02:19:39.176140,2020-11-23 00:00:00.000000,3.06264445,4.65958288,6.67904876,1674,2547,3651,886,1322,2083,1.62086302,2.41996123,3.81176754,0.33809906,0.48445122,0.64682101
13039,0,USGeorgiaCamden,Georgia,Camden,2021-01-06 02:19:39.176140,2020-11-24 00:00:00.000000,3.10317931,4.69754924,6.73815956,1696,2567,3683,898,1343,2117,1.64283018,2.45817765,3.87323521,0.33321869,0.47490895,0.64710311
13039,0,USGeorgiaCamden,Georgia,Camden,2021-01-06 02:19:39.176140,2020-11-25 00:00:00.000000,3.14634054,4.73517738,6.78145878,1719,2588,3707,900,1353,2146,1.64808392,2.47644763,3.92612903,0.32230017,0.47696611,0.64814642
13039,0,USGeorgiaCamden,Georgia,Camden,2021-01-06 02:19:39.176140,2020-11-26 00:00:00.000000,3.19521446,4.78705234,6.87087080,1746,2616,3756,902,1355,2169,1.65013573,2.47908491,3.96943707,0.32257822,0.47999798,0.69472745
13039,0,USGeorgiaCamden,Georgia,Camden,2021-01-06 02:19:39.176140,2020-11-27 00:00:00.000000,3.25502372,4.82548308,6.96193179,1779,2637,3805,901,1371,2207,1.64983703,2.50864195,4.03747248,0.32501435,0.48286818,0.70555199
13039,0,USGeorgiaCamden,Georgia,Camden,2021-01-06 02:19:39.176140,2020-11-28 00:00:00.000000,3.32869359,4.86592344,7.05700559,1819,2660,3857,900,1383,2272,1.64778664,2.53147907,4.15771750,0.33781231,0.48380253,0.73497329
13039,0,USGeorgiaCamden,Georgia,Camden,2021-01-06 02:19:39.176140,2020-11-29 00:00:00.000000,3.41243647,4.88132476,7.15090391,1865,2668,3909,908,1396,2328,1.66146989,2.55428321,4.25978761,0.36292442,0.48076880,0.73780646
13039,0,USGeorgiaCamden,Georgia,Camden,2021-01-06 02:19:39.176140,2020-11-30 00:00:00.000000,3.49838048,4.94633106,7.22623263,1912,2703,3950,915,1413,2373,1.67487955,2.58578929,4.34253422,0.36796211,0.48087500,0.75553392
13039,0,USGeorgiaCamden,Georgia,Camden,2021-01-06 02:19:39.176140,2020-12-01 00:00:00.000000,3.52284797,5.01892114,7.33236092,1925,2743,4008,915,1431,2399,1.67386420,2.61771711,4.39002984,0.36864065,0.48183166,0.75724091
13039,0,USGeorgiaCamden,Georgia,Camden,2021-01-06 02:19:39.176140,2020-12-02 00:00:00.000000,3.52853329,5.09470451,7.41566144,1928,2785,4053,914,1451,2420,1.67253374,2.65513487,4.42701861,0.36655568,0.48212192,0.75825830
13039,0,USGeorgiaCamden,Georgia,Camden,2021-01-06 02:19:39.176140,2020-12-03 00:00:00.000000,3.54871558,5.16012614,7.46653124,1939,2820,4081,914,1471,2440,1.67326032,2.69138475,4.46495224,0.36395500,0.48400431,0.76332631
13039,0,USGeorgiaCamden,Georgia,Camden,2021-01-06 02:19:39.176140,2020-12-04 00:00:00.000000,3.58771745,5.22833352,7.52794836,1961,2858,4115,921,1489,2461,1.68591947,2.72528312,4.50228515,0.36439175,0.48750790,0.76689754
13039,0,USGeorgiaCamden,Georgia,Camden,2021-01-06 02:19:39.176140,2020-12-05 00:00:00.000000,3.64165759,5.31224038,7.61863456,1990,2903,4164,943,1508,2469,1.72536252,2.75872790,4.51708463,0.36785167,0.50859113,0.78556037
13039,0,USGeorgiaCamden,Georgia,Camden,2021-01-06 02:19:39.176140,2020-12-06 00:00:00.000000,3.70153021,5.36688486,7.72003723,2023,2933,4220,963,1526,2483,1.76339132,2.79188537,4.54293186,0.37441379,0.51288119,0.81470158
13039,0,USGeorgiaCamden,Georgia,Camden,2021-01-06 02:19:39.176140,2020-12-07 00:00:00.000000,3.76166419,5.44764529,7.81944796,2056,2978,4274,983,1538,2524,1.79920062,2.81406849,4.61730441,0.38243148,0.52128744,0.81751869
13039,0,USGeorgiaCamden,Georgia,Camden,2021-01-06 02:19:39.176140,2020-12-08 00:00:00.000000,3.82276856,5.53991989,7.92219996,2089,3028,4330,1000,1562,2554,1.83074369,2.85807392,4.67249513,0.39313312,0.52777255,0.82284180
13039,0,USGeorgiaCamden,Georgia,Camden,2021-01-06 02:19:39.176140,2020-12-09 00:00:00.000000,3.88426343,5.54330990,8.03338065,2123,3030,4391,1016,1580,2593,1.85914028,2.89053207,4.74353947,0.39634155,0.54333307,0.82946377
13039,0,USGeorgiaCamden,Georgia,Camden,2021-01-06 02:19:39.176140,2020-12-10 00:00:00.000000,3.94589834,5.53100588,8.15946305,2157,3023,4460,1030,1597,2638,1.88525377,2.92279596,4.82683788,0.40293437,0.55628074,0.85091135
13039,0,USGeorgiaCamden,Georgia,Camden,2021-01-06 02:19:39.176140,2020-12-11 00:00:00.000000,4.00755124,5.60636171,8.29859349,2190,3064,4536,1043,1613,2685,1.90967951,2.95114817,4.91314536,0.40936104,0.56086059,0.86168873
13039,0,USGeorgiaCamden,Georgia,Camden,2021-01-06 02:19:39.176140,2020-12-12 00:00:00.000000,4.06934722,5.75696561,8.44821811,2224,3147,4618,1056,1642,2725,1.93281525,3.00515370,4.98493553,0.41013732,0.57270543,0.88532931
13039,0,USGeorgiaCamden,Georgia,Camden,2021-01-06 02:19:39.176140,2020-12-13 00:00:00.000000,4.13177387,5.89976006,8.63192414,2258,3225,4718,1068,1675,2767,1.95498936,3.06572349,5.06208714,0.41109122,0.59179124,0.90689482
13039,0,USGeorgiaCamden,Georgia,Camden,2021-01-06 02:19:39.176140,2020-12-14 00:00:00.000000,4.19372335,5.98045022,8.82849680,2292,3269,4826,1080,1700,2811,1.97692343,3.11072931,5.14252909,0.41219860,0.60891887,0.92248079
13039,0,USGeorgiaCamden,Georgia,Camden,2021-01-06 02:19:39.176140,2020-12-15 00:00:00.000000,4.25971189,6.12241515,9.03118094,2328,3346,4936,1093,1718,2856,2.00104966,3.14298044,5.22477739,0.42552812,0.61836068,0.93259751
13039,0,USGeorgiaCamden,Georgia,Camden,2021-01-06 02:19:39.176140,2020-12-16 00:00:00.000000,4.33127722,6.28106657,9.21051836,2367,3433,5035,1111,1736,2901,2.03289653,3.17720418,5.30702902,0.44615586,0.63253486,0.94428828
13039,0,USGeorgiaCamden,Georgia,Camden,2021-01-06 02:19:39.176140,2020-12-17 00:00:00.000000,4.40869000,6.43362464,9.31836658,2410,3517,5093,1133,1772,2945,2.07297951,3.24272586,5.38808650,0.45357480,0.65284949,1.02836999
13039,0,USGeorgiaCamden,Georgia,Camden,2021-01-06 02:19:39.176140,2020-12-18 00:00:00.000000,4.53933569,6.55299070,9.43213601,2481,3582,5156,1159,1816,2989,2.12061512,3.32381014,5.46823645,0.45801096,0.67070793,1.08221097
13039,0,USGeorgiaCamden,Georgia,Camden,2021-01-06 02:19:39.176140,2020-12-19 00:00:00.000000,4.57863883,6.67394721,9.56571653,2502,3648,5229,1189,1858,3035,2.17569080,3.39994784,5.55311708,0.45061816,0.69227483,1.12570258
13039,0,USGeorgiaCamden,Georgia,Camden,2021-01-06 02:19:39.176140,2020-12-20 00:00:00.000000,4.68928553,6.81341507,9.74725588,2563,3724,5328,1223,1916,3091,2.23793973,3.50651258,5.65488480,0.47312261,0.70911220,1.16316389
13039,0,USGeorgiaCamden,Georgia,Camden,2021-01-06 02:19:39.176140,2020-12-21 00:00:00.000000,4.85137854,7.01776819,10.01403882,2652,3836,5474,1260,1980,3167,2.30647614,3.62250812,5.79513089,0.48312458,0.71305773,1.19393872
13039,0,USGeorgiaCamden,Georgia,Camden,2021-01-06 02:19:39.176140,2020-12-22 00:00:00.000000,5.01693762,7.17420214,10.27063560,2742,3921,5614,1282,2028,3250,2.34575343,3.71099063,5.94646071,0.47537173,0.71725396,1.21744782
13039,0,USGeorgiaCamden,Georgia,Camden,2021-01-06 02:19:39.176140,2020-12-23 00:00:00.000000,5.18426484,7.32370929,10.39709379,2834,4003,5683,1294,2072,3329,2.36878068,3.79172561,6.09152525,0.47065726,0.73597505,1.23490963
13039,0,USGeorgiaCamden,Georgia,Camden,2021-01-06 02:19:39.176140,2020-12-24 00:00:00.000000,5.35139019,7.48305993,10.54787292,2925,4090,5766,1310,2113,3405,2.39725044,3.86553732,6.22880306,0.46773982,0.74917716,1.24840373
13039,0,USGeorgiaCamden,Georgia,Camden,2021-01-06 02:19:39.176140,2020-12-25 00:00:00.000000,5.48591312,7.59963050,10.74765331,2998,4154,5875,1328,2162,3475,2.43048880,3.95539202,6.35692083,0.46493452,0.76154417,1.26040174
13039,0,USGeorgiaCamden,Georgia,Camden,2021-01-06 02:19:39.176140,2020-12-26 00:00:00.000000,5.60090920,7.79091658,10.98960855,3061,4258,6007,1349,2222,3542,2.46878032,4.06555513,6.48086101,0.45936902,0.75897609,1.30486757
13039,0,USGeorgiaCamden,Georgia,Camden,2021-01-06 02:19:39.176140,2020-12-27 00:00:00.000000,5.71488064,7.91003254,11.20773753,3124,4324,6126,1372,2266,3599,2.51159217,4.14603276,6.58414982,0.44756792,0.74637868,1.48992169
13039,0,USGeorgiaCamden,Georgia,Camden,2021-01-06 02:19:39.176140,2020-12-28 00:00:00.000000,5.81962254,8.08340248,11.45096956,3181,4418,6259,1397,2293,3652,2.55721259,4.19545283,6.68082135,0.43416798,0.73793791,1.46228157
13039,0,USGeorgiaCamden,Georgia,Camden,2021-01-06 02:19:39.176140,2020-12-29 00:00:00.000000,5.90007885,8.17623056,11.57261025,3225,4469,6326,1423,2339,3696,2.60358726,4.27975301,6.76275867,0.42986008,0.73547562,1.44461481
13039,0,USGeorgiaCamden,Georgia,Camden,2021-01-06 02:19:39.176140,2020-12-30 00:00:00.000000,5.92749010,8.24588790,11.85540603,3240,4507,6480,1448,2382,3752,2.64985401,4.35869972,6.86441186,0.44217614,0.74125125,1.42841933
13039,0,USGeorgiaCamden,Georgia,Camden,2021-01-06 02:19:39.176140,2020-12-31 00:00:00.000000,6.00909817,8.33722959,12.12375621,3284,4557,6627,1473,2422,3814,2.69545541,4.43224201,6.97845832,0.48264499,0.73948533,1.42676376
13039,0,USGeorgiaCamden,Georgia,Camden,2021-01-06 02:19:39.176140,2021-01-01 00:00:00.000000,5.97724522,8.48602009,12.10365536,3267,4638,6616,1498,2460,3849,2.74125911,4.50021892,7.04262418,0.47515274,0.73932766,1.52117115
13039,0,USGeorgiaCamden,Georgia,Camden,2021-01-06 02:19:39.176140,2021-01-02 00:00:00.000000,5.90672544,8.60939492,12.37197994,3228,4706,6763,1525,2491,3861,2.79075170,4.55691650,7.06439723,0.46083297,0.74650880,1.70045763
13039,0,USGeorgiaCamden,Georgia,Camden,2021-01-06 02:19:39.176140,2021-01-03 00:00:00.000000,5.83685058,8.69418971,12.53171477,3190,4752,6850,1562,2529,3866,2.85901363,4.62779495,7.07245120,0.45676402,0.75322199,1.75392489
13039,0,USGeorgiaCamden,Georgia,Camden,2021-01-06 02:19:39.176140,2021-01-04 00:00:00.000000,5.80254577,8.68577201,12.55489703,3172,4748,6863,1570,2554,3883,2.87258424,4.67202364,7.10495053,0.44628969,0.76717226,1.74765992
13039,0,USGeorgiaCamden,Georgia,Camden,2021-01-06 02:19:39.176140,2021-01-05 00:00:00.000000,5.83352375,8.72315762,12.59390601,3188,4768,6884,1576,2548,4006,2.88315026,4.66151403,7.32931203,0.43929182,0.76978527,1.73539302
13039,0,USGeorgiaCamden,Georgia,Camden,2021-01-06 02:19:39.176140,2021-01-06 00:00:00.000000,5.79962902,8.76962721,12.97729239,3170,4794,7094,1578,2525,4077,2.88681690,4.61945929,7.45872450,0.43491184,0.76573302,1.72686720
13039,0,USGeorgiaCamden,Georgia,Camden,2021-01-06 02:19:39.176140,2021-01-07 00:00:00.000000,5.69972105,8.75225460,12.93355371,3115,4784,7070,1578,2517,4113,2.88803314,4.60541921,7.52433412,0.43227327,0.76511297,1.72271362
13039,0,USGeorgiaCamden,Georgia,Camden,2021-01-06 02:19:39.176140,2021-01-08 00:00:00.000000,5.55210092,8.77632341,12.85798941,3035,4797,7028,1577,2555,4143,2.88579368,4.67420038,7.57915701,0.43071477,0.76475772,1.72104826
13039,0,USGeorgiaCamden,Georgia,Camden,2021-01-06 02:19:39.176140,2021-01-09 00:00:00.000000,5.40059495,8.71005421,13.15853902,2952,4761,7193,1574,2560,4165,2.88015249,4.68336145,7.62023184,0.42980321,0.76455695,1.72044073
13039,0,USGeorgiaCamden,Georgia,Camden,2021-01-06 02:19:39.176140,2021-01-10 00:00:00.000000,5.24613948,8.72166725,13.54552733,2867,4767,7404,1569,2536,4178,2.87179290,4.64013391,7.64290943,0.42927264,0.76444433,1.72023047
13039,0,USGeorgiaCamden,Georgia,Camden,2021-01-06 02:19:39.176140,2021-01-11 00:00:00.000000,5.08954846,8.70288099,13.91616068,2782,4757,7607,1563,2538,4180,2.86099549,4.64282505,7.64701250,0.42896456,0.76438141,1.72016092
13039,0,USGeorgiaCamden,Georgia,Camden,2021-01-06 02:19:39.176140,2021-01-12 00:00:00.000000,4.93154754,8.62608308,14.26789438,2695,4715,7799,1556,2535,4173,2.84699621,4.63794777,7.63373602,0.42878588,0.76434635,1.72013929
13039,0,USGeorgiaCamden,Georgia,Camden,2021-01-06 02:19:39.176140,2021-01-13 00:00:00.000000,4.77279406,8.55911665,14.59823508,2609,4678,7980,1516,2515,4156,2.77403972,4.60225178,7.60287939,0.42868229,0.76432683,1.72013328
13039,0,USGeorgiaCamden,Georgia,Camden,2021-01-06 02:19:39.176140,2021-01-14 00:00:00.000000,4.61388847,8.43334420,14.82458278,2522,4610,8104,1459,2540,4188,2.67044192,4.64644334,7.66200309,0.42862225,0.76431597,1.72013202
13039,0,USGeorgiaCamden,Georgia,Camden,2021-01-06 02:19:39.176140,2021-01-15 00:00:00.000000,4.45538091,8.35629372,14.79580250,2435,4568,8088,1404,2506,4286,2.56931139,4.58511801,7.84174886,0.42858744,0.76430994,1.72013203
13039,0,USGeorgiaCamden,Georgia,Camden,2021-01-06 02:19:39.176140,2021-01-16 00:00:00.000000,4.29777500,8.24468235,14.72837490,2349,4507,8051,1350,2478,4336,2.47079343,4.53302589,7.93241617,0.42856727,0.76430658,1.72013227
13039,0,USGeorgiaCamden,Georgia,Camden,2021-01-06 02:19:39.176140,2021-01-17 00:00:00.000000,4.14153012,8.20677608,14.90909651,2264,4486,8150,1329,2438,4461,2.43191141,4.46026050,8.16154881,0.42855557,0.76430471,1.72013248
