FIPS,HR_UID,nameid,province,region,analysisTime,dates,pointprevalence_025,pointprevalence_50,pointprevalence_975,pointinfections_025,pointinfections_50,pointinfections_975,pointinfectious_025,pointinfectious_50,pointinfectious_975,pointinfectiousprevalence_05,pointinfectiousprevalence_50,pointinfectiousprevalence_95,infectrate_025,infectrate_50,infectrate_975
19019,0,USIowaBuchanan,Iowa,Buchanan,2021-01-05 23:25:20.957131,2020-03-09 00:00:00.000000,0.00230384,0.01585481,0.04358343,0,3,9,0,1,5,0.00150945,0.00910003,0.02626336,0.35523130,0.52831148,0.73418515
19019,0,USIowaBuchanan,Iowa,Buchanan,2021-01-05 23:25:20.957131,2020-03-10 00:00:00.000000,0.00248719,0.01701396,0.04692892,0,3,9,0,1,5,0.00151688,0.00906926,0.02542082,0.35522632,0.52831127,0.73418059
19019,0,USIowaBuchanan,Iowa,Buchanan,2021-01-05 23:25:20.957131,2020-03-11 00:00:00.000000,0.00274411,0.01861512,0.04904182,0,3,10,0,1,5,0.00150292,0.00927161,0.02624940,0.35521450,0.52831085,0.73417310
19019,0,USIowaBuchanan,Iowa,Buchanan,2021-01-05 23:25:20.957131,2020-03-12 00:00:00.000000,0.00305057,0.02038330,0.05274983,0,4,11,0,2,5,0.00153225,0.00979904,0.02674330,0.35518640,0.52831001,0.73416074
19019,0,USIowaBuchanan,Iowa,Buchanan,2021-01-05 23:25:20.957131,2020-03-13 00:00:00.000000,0.00338081,0.02223307,0.05828083,0,4,12,0,2,5,0.00159099,0.01041186,0.02746356,0.35511964,0.52830824,0.73413999
19019,0,USIowaBuchanan,Iowa,Buchanan,2021-01-05 23:25:20.957131,2020-03-14 00:00:00.000000,0.00374097,0.02401661,0.06431861,0,5,13,0,2,6,0.00167085,0.01115184,0.02989405,0.35496113,0.52734821,0.73410363
19019,0,USIowaBuchanan,Iowa,Buchanan,2021-01-05 23:25:20.957131,2020-03-15 00:00:00.000000,0.00413618,0.02611262,0.07093588,0,5,15,0,2,6,0.00176696,0.01204121,0.03259817,0.35458536,0.52337642,0.73403371
19019,0,USIowaBuchanan,Iowa,Buchanan,2021-01-05 23:25:20.957131,2020-03-16 00:00:00.000000,0.00821389,0.03471892,0.08446844,1,7,17,0,2,7,0.00187657,0.01309832,0.03592353,0.35369852,0.51682758,0.73387502
19019,0,USIowaBuchanan,Iowa,Buchanan,2021-01-05 23:25:20.957131,2020-03-17 00:00:00.000000,0.01039523,0.04092063,0.10453384,2,8,22,0,3,8,0.00306044,0.01578081,0.04227625,0.35162744,0.50605935,0.73342981
19019,0,USIowaBuchanan,Iowa,Buchanan,2021-01-05 23:25:20.957131,2020-03-18 00:00:00.000000,0.01263873,0.05151455,0.12632356,2,10,26,0,4,10,0.00431719,0.01967365,0.05144171,0.34690861,0.48495589,0.73194015
19019,0,USIowaBuchanan,Iowa,Buchanan,2021-01-05 23:25:20.957131,2020-03-19 00:00:00.000000,0.01486140,0.05999062,0.14951309,3,12,31,1,4,13,0.00543224,0.02316055,0.06227539,0.33637819,0.46859645,0.72658262
19019,0,USIowaBuchanan,Iowa,Buchanan,2021-01-05 23:25:20.957131,2020-03-20 00:00:00.000000,0.01832519,0.06698544,0.16816894,3,14,35,1,5,15,0.00652223,0.02790111,0.07236075,0.31971156,0.45042998,0.70913811
19019,0,USIowaBuchanan,Iowa,Buchanan,2021-01-05 23:25:20.957131,2020-03-21 00:00:00.000000,0.02226098,0.07338626,0.19585098,4,15,41,1,6,17,0.00800356,0.03208011,0.08116489,0.29543177,0.43682484,0.68789978
19019,0,USIowaBuchanan,Iowa,Buchanan,2021-01-05 23:25:20.957131,2020-03-22 00:00:00.000000,0.02644779,0.08352465,0.22408998,5,17,47,2,7,19,0.01018482,0.03604689,0.09015984,0.26948970,0.41179828,0.65555681
19019,0,USIowaBuchanan,Iowa,Buchanan,2021-01-05 23:25:20.957131,2020-03-23 00:00:00.000000,0.03070410,0.09658191,0.23768377,6,20,50,2,8,21,0.01223936,0.04007110,0.10112139,0.25034689,0.39175626,0.63137194
19019,0,USIowaBuchanan,Iowa,Buchanan,2021-01-05 23:25:20.957131,2020-03-24 00:00:00.000000,0.03969900,0.10500021,0.25137923,8,22,53,3,9,24,0.01447817,0.04473776,0.11370977,0.23096165,0.37961513,0.62517378
19019,0,USIowaBuchanan,Iowa,Buchanan,2021-01-05 23:25:20.957131,2020-03-25 00:00:00.000000,0.04495813,0.11797307,0.26417911,9,24,55,3,10,26,0.01770472,0.05117378,0.12522418,0.21343617,0.36555214,0.61292808
19019,0,USIowaBuchanan,Iowa,Buchanan,2021-01-05 23:25:20.957131,2020-03-26 00:00:00.000000,0.05264602,0.12745231,0.27566710,11,26,58,4,12,29,0.02068022,0.05832352,0.13725900,0.19854717,0.35044867,0.61204073
19019,0,USIowaBuchanan,Iowa,Buchanan,2021-01-05 23:25:20.957131,2020-03-27 00:00:00.000000,0.06078155,0.13985673,0.28795722,12,29,60,5,13,31,0.02439020,0.06597681,0.14917684,0.18842362,0.33687330,0.58864446
19019,0,USIowaBuchanan,Iowa,Buchanan,2021-01-05 23:25:20.957131,2020-03-28 00:00:00.000000,0.06907771,0.15095657,0.30485231,14,31,64,5,15,34,0.02758547,0.07392395,0.16078196,0.18277795,0.32243310,0.54962779
19019,0,USIowaBuchanan,Iowa,Buchanan,2021-01-05 23:25:20.957131,2020-03-29 00:00:00.000000,0.07543431,0.16193741,0.31587612,15,34,66,6,17,36,0.03077208,0.08084439,0.17176299,0.17785008,0.30595514,0.51080227
19019,0,USIowaBuchanan,Iowa,Buchanan,2021-01-05 23:25:20.957131,2020-03-30 00:00:00.000000,0.08455978,0.17574586,0.32260933,17,37,68,7,18,38,0.03454985,0.08785899,0.18186622,0.15217385,0.28699856,0.47224172
19019,0,USIowaBuchanan,Iowa,Buchanan,2021-01-05 23:25:20.957131,2020-03-31 00:00:00.000000,0.09168451,0.18549378,0.33878487,19,39,71,8,19,40,0.03909166,0.09395000,0.19095970,0.14623833,0.27687850,0.42915677
19019,0,USIowaBuchanan,Iowa,Buchanan,2021-01-05 23:25:20.957131,2020-04-01 00:00:00.000000,0.09880224,0.19732970,0.35607720,20,41,75,9,21,41,0.04306811,0.10080988,0.19590669,0.14570405,0.26870634,0.42361311
19019,0,USIowaBuchanan,Iowa,Buchanan,2021-01-05 23:25:20.957131,2020-04-02 00:00:00.000000,0.10523940,0.20771137,0.38165662,22,43,80,9,22,42,0.04693709,0.10768735,0.19995891,0.14662805,0.25287596,0.41818633
19019,0,USIowaBuchanan,Iowa,Buchanan,2021-01-05 23:25:20.957131,2020-04-03 00:00:00.000000,0.10990510,0.21583804,0.40851434,23,45,86,10,23,43,0.05061209,0.11291541,0.20342735,0.14717743,0.24641842,0.40807584
19019,0,USIowaBuchanan,Iowa,Buchanan,2021-01-05 23:25:20.957131,2020-04-04 00:00:00.000000,0.10893225,0.22024842,0.43225067,23,46,91,11,24,44,0.05425050,0.11755048,0.21036338,0.14682806,0.23547421,0.40226519
19019,0,USIowaBuchanan,Iowa,Buchanan,2021-01-05 23:25:20.957131,2020-04-05 00:00:00.000000,0.10791178,0.22721377,0.45225285,22,48,95,12,25,46,0.05799072,0.12276554,0.22067773,0.15052869,0.22973166,0.38084560
19019,0,USIowaBuchanan,Iowa,Buchanan,2021-01-05 23:25:20.957131,2020-04-06 00:00:00.000000,0.10859530,0.23696052,0.46879172,22,50,99,12,27,48,0.05874003,0.12767626,0.22938060,0.15036752,0.22774018,0.35726916
19019,0,USIowaBuchanan,Iowa,Buchanan,2021-01-05 23:25:20.957131,2020-04-07 00:00:00.000000,0.11836263,0.24963994,0.48533520,25,52,102,12,27,49,0.05800246,0.13140119,0.23532381,0.15010868,0.21959105,0.33936313
19019,0,USIowaBuchanan,Iowa,Buchanan,2021-01-05 23:25:20.957131,2020-04-08 00:00:00.000000,0.12860851,0.25724331,0.50188011,27,54,106,12,29,52,0.05922702,0.13823378,0.24896012,0.14963887,0.21457980,0.33557245
19019,0,USIowaBuchanan,Iowa,Buchanan,2021-01-05 23:25:20.957131,2020-04-09 00:00:00.000000,0.13895002,0.26653223,0.51846005,29,56,109,12,30,55,0.06014507,0.14636371,0.26350082,0.14765707,0.20874192,0.33654146
19019,0,USIowaBuchanan,Iowa,Buchanan,2021-01-05 23:25:20.957131,2020-04-10 00:00:00.000000,0.14323671,0.27896650,0.53497839,30,59,113,13,31,58,0.06187550,0.15059142,0.27510576,0.13883109,0.20332478,0.33424624
19019,0,USIowaBuchanan,Iowa,Buchanan,2021-01-05 23:25:20.957131,2020-04-11 00:00:00.000000,0.14524339,0.28885480,0.55131497,30,61,116,14,32,61,0.06661655,0.15338042,0.28824365,0.12790358,0.19873224,0.32993904
19019,0,USIowaBuchanan,Iowa,Buchanan,2021-01-05 23:25:20.957131,2020-04-12 00:00:00.000000,0.14573771,0.30017846,0.56760787,30,63,120,15,34,63,0.07138590,0.16126762,0.30018624,0.11725385,0.19432132,0.31909180
19019,0,USIowaBuchanan,Iowa,Buchanan,2021-01-05 23:25:20.957131,2020-04-13 00:00:00.000000,0.14876100,0.30429807,0.58222463,31,64,123,16,35,65,0.07610670,0.16776816,0.31012523,0.10953004,0.18698320,0.32044590
19019,0,USIowaBuchanan,Iowa,Buchanan,2021-01-05 23:25:20.957131,2020-04-14 00:00:00.000000,0.15185012,0.31108513,0.59687715,32,65,126,16,37,67,0.07837487,0.17541308,0.31808636,0.10516202,0.18026530,0.32200869
19019,0,USIowaBuchanan,Iowa,Buchanan,2021-01-05 23:25:20.957131,2020-04-15 00:00:00.000000,0.15516849,0.32203307,0.61243869,32,68,129,16,38,68,0.07885398,0.18360085,0.32512299,0.10313357,0.17580178,0.32210390
19019,0,USIowaBuchanan,Iowa,Buchanan,2021-01-05 23:25:20.957131,2020-04-16 00:00:00.000000,0.15848340,0.33073573,0.62557561,33,70,132,16,39,71,0.07991698,0.18675177,0.33535842,0.10237576,0.17250507,0.30975697
19019,0,USIowaBuchanan,Iowa,Buchanan,2021-01-05 23:25:20.957131,2020-04-17 00:00:00.000000,0.16159978,0.34266767,0.63776272,34,72,135,17,39,73,0.08129448,0.18633621,0.34502449,0.10221772,0.17007827,0.29477771
19019,0,USIowaBuchanan,Iowa,Buchanan,2021-01-05 23:25:20.957131,2020-04-18 00:00:00.000000,0.16438921,0.34991444,0.64544314,34,74,136,17,39,74,0.08279486,0.18880880,0.35373295,0.10197310,0.16508425,0.27331349
19019,0,USIowaBuchanan,Iowa,Buchanan,2021-01-05 23:25:20.957131,2020-04-19 00:00:00.000000,0.16683192,0.34516686,0.64793312,35,73,137,17,41,76,0.08428351,0.19493941,0.36115817,0.09455285,0.15730026,0.25153355
19019,0,USIowaBuchanan,Iowa,Buchanan,2021-01-05 23:25:20.957131,2020-04-20 00:00:00.000000,0.16623921,0.34546860,0.64569033,35,73,136,17,41,77,0.08197771,0.19495776,0.36721443,0.09173683,0.15337924,0.24145146
19019,0,USIowaBuchanan,Iowa,Buchanan,2021-01-05 23:25:20.957131,2020-04-21 00:00:00.000000,0.16542679,0.34428347,0.64167585,35,72,135,17,42,79,0.08080857,0.19914620,0.37331717,0.08856641,0.15220707,0.24114069
19019,0,USIowaBuchanan,Iowa,Buchanan,2021-01-05 23:25:20.957131,2020-04-22 00:00:00.000000,0.17035500,0.34517383,0.63622467,36,73,134,17,42,80,0.08186718,0.19935619,0.37927189,0.08674047,0.14795794,0.23724222
19019,0,USIowaBuchanan,Iowa,Buchanan,2021-01-05 23:25:20.957131,2020-04-23 00:00:00.000000,0.17803115,0.34227773,0.62477710,37,72,132,18,42,80,0.08615364,0.19868843,0.37813642,0.08671145,0.14750329,0.23080244
19019,0,USIowaBuchanan,Iowa,Buchanan,2021-01-05 23:25:20.957131,2020-04-24 00:00:00.000000,0.17936167,0.34124713,0.60794307,37,72,128,18,41,79,0.08561243,0.19663120,0.37328036,0.08631715,0.14776999,0.23160408
19019,0,USIowaBuchanan,Iowa,Buchanan,2021-01-05 23:25:20.957131,2020-04-25 00:00:00.000000,0.18086777,0.33742532,0.59092758,38,71,125,17,41,77,0.08495330,0.19636034,0.36674135,0.08662294,0.14535983,0.23041289
19019,0,USIowaBuchanan,Iowa,Buchanan,2021-01-05 23:25:20.957131,2020-04-26 00:00:00.000000,0.18274259,0.33497705,0.57407025,38,70,121,17,41,75,0.08425779,0.19526240,0.35880830,0.08653127,0.14434612,0.24019171
19019,0,USIowaBuchanan,Iowa,Buchanan,2021-01-05 23:25:20.957131,2020-04-27 00:00:00.000000,0.17891696,0.34088249,0.56698280,37,72,120,18,41,76,0.08692399,0.19508567,0.35943045,0.08648138,0.14127032,0.24684371
19019,0,USIowaBuchanan,Iowa,Buchanan,2021-01-05 23:25:20.957131,2020-04-28 00:00:00.000000,0.17537624,0.34061351,0.56029049,37,72,118,18,41,76,0.08803810,0.19487276,0.35900694,0.08140734,0.13969150,0.24696651
19019,0,USIowaBuchanan,Iowa,Buchanan,2021-01-05 23:25:20.957131,2020-04-29 00:00:00.000000,0.17189841,0.34180948,0.54807289,36,72,116,18,41,75,0.08718317,0.19381617,0.35653612,0.07867333,0.13673818,0.24673755
19019,0,USIowaBuchanan,Iowa,Buchanan,2021-01-05 23:25:20.957131,2020-04-30 00:00:00.000000,0.16858870,0.34079023,0.54871063,35,72,116,18,40,74,0.08517187,0.19214508,0.35282918,0.07693044,0.13736527,0.24591868
19019,0,USIowaBuchanan,Iowa,Buchanan,2021-01-05 23:25:20.957131,2020-05-01 00:00:00.000000,0.16553560,0.33960633,0.54354485,35,71,115,17,40,73,0.08254566,0.19166090,0.34841760,0.07673124,0.13737764,0.24355817
19019,0,USIowaBuchanan,Iowa,Buchanan,2021-01-05 23:25:20.957131,2020-05-02 00:00:00.000000,0.16278434,0.33771052,0.53860773,34,71,114,16,41,73,0.07966992,0.19377538,0.34485140,0.07782540,0.13489562,0.23741198
19019,0,USIowaBuchanan,Iowa,Buchanan,2021-01-05 23:25:20.957131,2020-05-03 00:00:00.000000,0.16032179,0.33566500,0.53357556,33,71,112,16,41,73,0.07675766,0.19657942,0.34787653,0.07842851,0.13436498,0.22431881
19019,0,USIowaBuchanan,Iowa,Buchanan,2021-01-05 23:25:20.957131,2020-05-04 00:00:00.000000,0.16355316,0.33316479,0.52860283,34,70,111,15,41,74,0.07433032,0.19686716,0.35005226,0.07861499,0.13282434,0.20536783
19019,0,USIowaBuchanan,Iowa,Buchanan,2021-01-05 23:25:20.957131,2020-05-05 00:00:00.000000,0.16697127,0.33029149,0.52747572,35,69,111,15,41,74,0.07432477,0.19590660,0.34960515,0.07869908,0.13240066,0.18915283
19019,0,USIowaBuchanan,Iowa,Buchanan,2021-01-05 23:25:20.957131,2020-05-06 00:00:00.000000,0.16879395,0.33063033,0.52587241,35,70,111,16,41,74,0.07588072,0.19384205,0.35263630,0.07882534,0.13069072,0.18018131
19019,0,USIowaBuchanan,Iowa,Buchanan,2021-01-05 23:25:20.957131,2020-05-07 00:00:00.000000,0.16602970,0.32572528,0.52387168,35,68,110,16,40,74,0.07856641,0.19137044,0.34965044,0.08481169,0.12974017,0.18050064
19019,0,USIowaBuchanan,Iowa,Buchanan,2021-01-05 23:25:20.957131,2020-05-08 00:00:00.000000,0.16343494,0.31860944,0.52144612,34,67,110,17,40,71,0.08159365,0.19100897,0.33846168,0.08272229,0.12876698,0.18643811
19019,0,USIowaBuchanan,Iowa,Buchanan,2021-01-05 23:25:20.957131,2020-05-09 00:00:00.000000,0.16444025,0.31184814,0.51889965,34,66,109,17,39,70,0.08469210,0.18724418,0.33379937,0.08163682,0.12823059,0.19001981
19019,0,USIowaBuchanan,Iowa,Buchanan,2021-01-05 23:25:20.957131,2020-05-10 00:00:00.000000,0.16995076,0.30700168,0.51631959,35,65,109,18,39,70,0.08774002,0.18818871,0.33507832,0.08103634,0.12798745,0.19107135
19019,0,USIowaBuchanan,Iowa,Buchanan,2021-01-05 23:25:20.957131,2020-05-11 00:00:00.000000,0.17059886,0.30162777,0.51012859,36,63,108,18,39,71,0.08639112,0.18888353,0.33594855,0.08228163,0.12830441,0.18786284
19019,0,USIowaBuchanan,Iowa,Buchanan,2021-01-05 23:25:20.957131,2020-05-12 00:00:00.000000,0.17958880,0.30658517,0.50395090,38,64,106,18,39,71,0.08943991,0.18699584,0.33603239,0.08098302,0.12944043,0.18535499
19019,0,USIowaBuchanan,Iowa,Buchanan,2021-01-05 23:25:20.957131,2020-05-13 00:00:00.000000,0.17538802,0.31162203,0.49775139,37,65,105,19,39,71,0.09082144,0.18498123,0.33551697,0.08119323,0.12847754,0.18670364
19019,0,USIowaBuchanan,Iowa,Buchanan,2021-01-05 23:25:20.957131,2020-05-14 00:00:00.000000,0.18010571,0.31119945,0.49168499,38,65,104,18,39,70,0.08972487,0.18460716,0.33283466,0.07874230,0.12873023,0.19462719
19019,0,USIowaBuchanan,Iowa,Buchanan,2021-01-05 23:25:20.957131,2020-05-15 00:00:00.000000,0.17498828,0.31132795,0.48579077,37,65,102,19,38,69,0.09305315,0.18010388,0.32710957,0.08099255,0.12925608,0.19759718
19019,0,USIowaBuchanan,Iowa,Buchanan,2021-01-05 23:25:20.957131,2020-05-16 00:00:00.000000,0.16412697,0.31076056,0.48574979,34,65,102,20,37,68,0.09464302,0.17920067,0.32118517,0.08294191,0.12928782,0.19882622
19019,0,USIowaBuchanan,Iowa,Buchanan,2021-01-05 23:25:20.957131,2020-05-17 00:00:00.000000,0.16058464,0.31000774,0.48599180,34,65,102,20,37,66,0.09716567,0.17495153,0.31522995,0.08329874,0.13106081,0.19967022
19019,0,USIowaBuchanan,Iowa,Buchanan,2021-01-05 23:25:20.957131,2020-05-18 00:00:00.000000,0.15852686,0.30604550,0.47859924,33,64,101,20,36,65,0.09775769,0.17365309,0.30934551,0.08189051,0.13019685,0.20074020
19019,0,USIowaBuchanan,Iowa,Buchanan,2021-01-05 23:25:20.957131,2020-05-19 00:00:00.000000,0.16398793,0.30073601,0.47097283,34,63,99,20,36,65,0.09534707,0.17315779,0.31000160,0.08121751,0.12952040,0.20207425
19019,0,USIowaBuchanan,Iowa,Buchanan,2021-01-05 23:25:20.957131,2020-05-20 00:00:00.000000,0.16229824,0.30114193,0.47397124,34,63,100,19,36,65,0.09205506,0.17324606,0.31140386,0.08018654,0.13182716,0.20371667
19019,0,USIowaBuchanan,Iowa,Buchanan,2021-01-05 23:25:20.957131,2020-05-21 00:00:00.000000,0.15581008,0.30193163,0.48262986,32,63,102,18,36,66,0.08840938,0.17248017,0.31235437,0.07968290,0.13374200,0.20563748
19019,0,USIowaBuchanan,Iowa,Buchanan,2021-01-05 23:25:20.957131,2020-05-22 00:00:00.000000,0.14959195,0.30202296,0.49138415,31,63,104,17,36,66,0.08496722,0.17267849,0.31293783,0.07909806,0.13681542,0.20770401
19019,0,USIowaBuchanan,Iowa,Buchanan,2021-01-05 23:25:20.957131,2020-05-23 00:00:00.000000,0.14352465,0.29877349,0.49217473,30,63,104,17,36,65,0.08475956,0.17177496,0.30732429,0.07850593,0.13849894,0.21311466
19019,0,USIowaBuchanan,Iowa,Buchanan,2021-01-05 23:25:20.957131,2020-05-24 00:00:00.000000,0.13774525,0.29572142,0.49245848,29,62,104,18,36,63,0.08687065,0.17071141,0.30124573,0.07831038,0.13859840,0.21492621
19019,0,USIowaBuchanan,Iowa,Buchanan,2021-01-05 23:25:20.957131,2020-05-25 00:00:00.000000,0.13378253,0.29864062,0.49164034,28,63,104,17,36,63,0.08473177,0.17005945,0.29903493,0.07916834,0.13913955,0.21608110
19019,0,USIowaBuchanan,Iowa,Buchanan,2021-01-05 23:25:20.957131,2020-05-26 00:00:00.000000,0.13019473,0.29679020,0.49170297,27,62,104,17,35,63,0.08276204,0.16925521,0.30221899,0.07993797,0.13877314,0.22218378
19019,0,USIowaBuchanan,Iowa,Buchanan,2021-01-05 23:25:20.957131,2020-05-27 00:00:00.000000,0.12711648,0.29531930,0.50039123,26,62,105,17,35,64,0.08093324,0.16943519,0.30569432,0.07980602,0.13842742,0.24260526
19019,0,USIowaBuchanan,Iowa,Buchanan,2021-01-05 23:25:20.957131,2020-05-28 00:00:00.000000,0.12484902,0.29297524,0.49808583,26,62,105,16,35,65,0.07922255,0.16991924,0.30940768,0.07959407,0.13717871,0.24772657
19019,0,USIowaBuchanan,Iowa,Buchanan,2021-01-05 23:25:20.957131,2020-05-29 00:00:00.000000,0.12390760,0.29122001,0.50337123,26,61,106,16,36,66,0.07761056,0.17143282,0.31564518,0.07943092,0.13752482,0.25417970
19019,0,USIowaBuchanan,Iowa,Buchanan,2021-01-05 23:25:20.957131,2020-05-30 00:00:00.000000,0.12422239,0.29565475,0.51118637,26,62,108,16,36,67,0.07607691,0.17307210,0.31766374,0.07790301,0.14099760,0.25454936
19019,0,USIowaBuchanan,Iowa,Buchanan,2021-01-05 23:25:20.957131,2020-05-31 00:00:00.000000,0.12518607,0.29721339,0.53869511,26,62,114,15,36,67,0.07461534,0.17456608,0.32027225,0.07684623,0.14119805,0.25636503
19019,0,USIowaBuchanan,Iowa,Buchanan,2021-01-05 23:25:20.957131,2020-06-01 00:00:00.000000,0.13326769,0.29825134,0.53828194,28,63,113,15,36,68,0.07322189,0.17466572,0.32333519,0.07990795,0.14403537,0.26092146
19019,0,USIowaBuchanan,Iowa,Buchanan,2021-01-05 23:25:20.957131,2020-06-02 00:00:00.000000,0.13421328,0.29628201,0.55528624,28,62,117,15,36,69,0.07409645,0.17397812,0.32953325,0.08158235,0.14558288,0.26163885
19019,0,USIowaBuchanan,Iowa,Buchanan,2021-01-05 23:25:20.957131,2020-06-03 00:00:00.000000,0.13650669,0.29642481,0.57574233,28,62,121,15,36,71,0.07483602,0.17420196,0.33789522,0.08332807,0.15036121,0.26260475
19019,0,USIowaBuchanan,Iowa,Buchanan,2021-01-05 23:25:20.957131,2020-06-04 00:00:00.000000,0.14375660,0.28875179,0.59606896,30,61,126,15,36,73,0.07330524,0.17214759,0.34772277,0.08556217,0.15428789,0.26428593
19019,0,USIowaBuchanan,Iowa,Buchanan,2021-01-05 23:25:20.957131,2020-06-05 00:00:00.000000,0.15112037,0.28930055,0.59970583,31,61,126,16,35,75,0.07711955,0.16947446,0.35849961,0.08574792,0.15458371,0.26731766
19019,0,USIowaBuchanan,Iowa,Buchanan,2021-01-05 23:25:20.957131,2020-06-06 00:00:00.000000,0.15231630,0.29313563,0.59419787,32,62,125,17,36,78,0.08138588,0.17096373,0.36982730,0.08644399,0.15473517,0.27204927
19019,0,USIowaBuchanan,Iowa,Buchanan,2021-01-05 23:25:20.957131,2020-06-07 00:00:00.000000,0.15662480,0.29700004,0.58261856,33,62,123,18,36,80,0.08596739,0.17272132,0.38138878,0.08876367,0.16120169,0.27759854
19019,0,USIowaBuchanan,Iowa,Buchanan,2021-01-05 23:25:20.957131,2020-06-08 00:00:00.000000,0.15205609,0.29789790,0.59071982,32,63,125,18,37,81,0.08657579,0.17483225,0.38305520,0.09438653,0.16299110,0.28208825
19019,0,USIowaBuchanan,Iowa,Buchanan,2021-01-05 23:25:20.957131,2020-06-09 00:00:00.000000,0.14759872,0.30715229,0.60149089,31,65,127,18,37,80,0.08775639,0.17798888,0.38128800,0.09821256,0.16842354,0.28478706
19019,0,USIowaBuchanan,Iowa,Buchanan,2021-01-05 23:25:20.957131,2020-06-10 00:00:00.000000,0.15667652,0.32080564,0.61350778,33,67,129,18,38,80,0.08898418,0.18193971,0.38194977,0.09664090,0.17205219,0.29400759
19019,0,USIowaBuchanan,Iowa,Buchanan,2021-01-05 23:25:20.957131,2020-06-11 00:00:00.000000,0.15956931,0.32835052,0.62684258,33,69,132,18,38,81,0.08805611,0.18386537,0.38455920,0.09693663,0.17835705,0.29674670
19019,0,USIowaBuchanan,Iowa,Buchanan,2021-01-05 23:25:20.957131,2020-06-12 00:00:00.000000,0.15367885,0.33307339,0.64343109,32,70,136,18,39,82,0.08683880,0.18640809,0.38880597,0.10051522,0.18280577,0.30715478
19019,0,USIowaBuchanan,Iowa,Buchanan,2021-01-05 23:25:20.957131,2020-06-13 00:00:00.000000,0.14808994,0.33597193,0.66284936,31,71,140,17,39,83,0.08455249,0.18815780,0.39485143,0.10616608,0.18582383,0.31635137
19019,0,USIowaBuchanan,Iowa,Buchanan,2021-01-05 23:25:20.957131,2020-06-14 00:00:00.000000,0.14286125,0.34402978,0.65667602,30,72,139,18,39,85,0.08568475,0.18877224,0.40326000,0.11404991,0.19257677,0.33876340
19019,0,USIowaBuchanan,Iowa,Buchanan,2021-01-05 23:25:20.957131,2020-06-15 00:00:00.000000,0.16108125,0.35383539,0.66963854,34,74,141,17,40,87,0.08485080,0.19147034,0.41422054,0.11399588,0.19676115,0.35546360
19019,0,USIowaBuchanan,Iowa,Buchanan,2021-01-05 23:25:20.957131,2020-06-16 00:00:00.000000,0.18130437,0.36675298,0.68242349,38,77,144,18,40,89,0.08926940,0.19334939,0.42293818,0.11398764,0.19926900,0.37064937
19019,0,USIowaBuchanan,Iowa,Buchanan,2021-01-05 23:25:20.957131,2020-06-17 00:00:00.000000,0.20217875,0.37502723,0.69552669,42,79,147,20,41,90,0.09695421,0.19471497,0.42716281,0.11406401,0.20178708,0.37346822
19019,0,USIowaBuchanan,Iowa,Buchanan,2021-01-05 23:25:20.957131,2020-06-18 00:00:00.000000,0.21106872,0.38768437,0.70901622,44,82,150,22,42,91,0.10664569,0.20029180,0.43273487,0.11451147,0.20783216,0.37386975
19019,0,USIowaBuchanan,Iowa,Buchanan,2021-01-05 23:25:20.957131,2020-06-19 00:00:00.000000,0.20853722,0.39815064,0.72322947,44,84,153,22,44,93,0.10779112,0.20892627,0.43928771,0.11793752,0.20795238,0.37488416
19019,0,USIowaBuchanan,Iowa,Buchanan,2021-01-05 23:25:20.957131,2020-06-20 00:00:00.000000,0.20544719,0.41020322,0.74341958,43,86,157,22,45,94,0.10787218,0.21488215,0.44664627,0.12313746,0.21613007,0.37831099
19019,0,USIowaBuchanan,Iowa,Buchanan,2021-01-05 23:25:20.957131,2020-06-21 00:00:00.000000,0.20392257,0.42122549,0.76694094,43,89,162,22,47,96,0.10806072,0.22429384,0.45476464,0.12548975,0.22162283,0.39037103
19019,0,USIowaBuchanan,Iowa,Buchanan,2021-01-05 23:25:20.957131,2020-06-22 00:00:00.000000,0.23411596,0.44057495,0.78765024,49,93,166,22,49,98,0.10835644,0.23142327,0.46641769,0.12381023,0.22407851,0.39922064
19019,0,USIowaBuchanan,Iowa,Buchanan,2021-01-05 23:25:20.957131,2020-06-23 00:00:00.000000,0.25865021,0.46216648,0.81574637,54,97,172,23,50,103,0.11296509,0.23669667,0.48917645,0.12539365,0.22829638,0.40829390
19019,0,USIowaBuchanan,Iowa,Buchanan,2021-01-05 23:25:20.957131,2020-06-24 00:00:00.000000,0.27363629,0.47578781,0.85313097,57,100,180,25,51,108,0.12036074,0.24345692,0.51363028,0.12667968,0.23101235,0.41203140
19019,0,USIowaBuchanan,Iowa,Buchanan,2021-01-05 23:25:20.957131,2020-06-25 00:00:00.000000,0.28135641,0.49726905,0.89005192,59,105,188,27,53,114,0.12948307,0.25341222,0.53846106,0.12883794,0.23185874,0.41132208
19019,0,USIowaBuchanan,Iowa,Buchanan,2021-01-05 23:25:20.957131,2020-06-26 00:00:00.000000,0.29848857,0.51922967,0.92701968,63,109,196,29,54,118,0.13965438,0.25864898,0.55734127,0.13267852,0.23726090,0.40823039
19019,0,USIowaBuchanan,Iowa,Buchanan,2021-01-05 23:25:20.957131,2020-06-27 00:00:00.000000,0.32984681,0.53896474,0.96369435,69,114,204,31,57,120,0.15044974,0.27036427,0.57137205,0.14093964,0.24063899,0.39787128
19019,0,USIowaBuchanan,Iowa,Buchanan,2021-01-05 23:25:20.957131,2020-06-28 00:00:00.000000,0.35272686,0.55016669,0.99740443,74,116,211,33,59,124,0.15797223,0.28174585,0.58564516,0.14265103,0.24211560,0.40332588
19019,0,USIowaBuchanan,Iowa,Buchanan,2021-01-05 23:25:20.957131,2020-06-29 00:00:00.000000,0.37179539,0.57352024,1.01164263,78,121,214,35,63,127,0.16893031,0.29894181,0.60015249,0.14381518,0.24305173,0.40192641
19019,0,USIowaBuchanan,Iowa,Buchanan,2021-01-05 23:25:20.957131,2020-06-30 00:00:00.000000,0.38226893,0.58899029,1.02191984,80,124,216,38,66,131,0.18073073,0.31384736,0.62021005,0.14534928,0.24538560,0.39844722
19019,0,USIowaBuchanan,Iowa,Buchanan,2021-01-05 23:25:20.957131,2020-07-01 00:00:00.000000,0.39127956,0.62088690,1.03055179,82,131,218,39,68,136,0.18797072,0.32356436,0.64436767,0.14567122,0.24611069,0.44347429
19019,0,USIowaBuchanan,Iowa,Buchanan,2021-01-05 23:25:20.957131,2020-07-02 00:00:00.000000,0.39944478,0.65112887,1.03844413,84,137,219,40,71,142,0.19211951,0.33603167,0.67158316,0.14705408,0.24809241,0.44107390
19019,0,USIowaBuchanan,Iowa,Buchanan,2021-01-05 23:25:20.957131,2020-07-03 00:00:00.000000,0.40763316,0.67602067,1.06394630,86,143,225,41,73,146,0.19617301,0.34647591,0.68966685,0.16930558,0.25533771,0.42755674
19019,0,USIowaBuchanan,Iowa,Buchanan,2021-01-05 23:25:20.957131,2020-07-04 00:00:00.000000,0.41724761,0.69065100,1.09550721,88,146,231,42,76,147,0.20013619,0.35948616,0.69697965,0.17459047,0.25621602,0.42175750
19019,0,USIowaBuchanan,Iowa,Buchanan,2021-01-05 23:25:20.957131,2020-07-05 00:00:00.000000,0.42693371,0.71699800,1.12755527,90,151,238,43,78,149,0.20539479,0.36894028,0.70386920,0.17683860,0.26095411,0.41992619
19019,0,USIowaBuchanan,Iowa,Buchanan,2021-01-05 23:25:20.957131,2020-07-06 00:00:00.000000,0.42972559,0.72943286,1.16918189,90,154,247,44,80,150,0.21160722,0.38010734,0.71117677,0.17792443,0.25839938,0.42164966
19019,0,USIowaBuchanan,Iowa,Buchanan,2021-01-05 23:25:20.957131,2020-07-07 00:00:00.000000,0.43261305,0.75328478,1.21130335,91,159,256,46,82,152,0.21993888,0.38988588,0.71839296,0.17879109,0.25770486,0.42543132
19019,0,USIowaBuchanan,Iowa,Buchanan,2021-01-05 23:25:20.957131,2020-07-08 00:00:00.000000,0.43562480,0.77494401,1.25414874,92,164,265,48,85,153,0.22803928,0.40485092,0.72559889,0.18797905,0.25725089,0.42872698
19019,0,USIowaBuchanan,Iowa,Buchanan,2021-01-05 23:25:20.957131,2020-07-09 00:00:00.000000,0.43852447,0.79638513,1.29759854,92,168,274,49,89,155,0.23371761,0.42474063,0.73283408,0.18829286,0.25852377,0.43129896
19019,0,USIowaBuchanan,Iowa,Buchanan,2021-01-05 23:25:20.957131,2020-07-10 00:00:00.000000,0.44517236,0.81429844,1.34153304,94,172,284,50,93,156,0.23721590,0.44042886,0.74012875,0.19228304,0.26290976,0.43232876
19019,0,USIowaBuchanan,Iowa,Buchanan,2021-01-05 23:25:20.957131,2020-07-11 00:00:00.000000,0.44399350,0.83814572,1.38584879,94,177,293,50,96,158,0.23969604,0.45566990,0.75084271,0.20000373,0.26486293,0.44908761
19019,0,USIowaBuchanan,Iowa,Buchanan,2021-01-05 23:25:20.957131,2020-07-12 00:00:00.000000,0.44836909,0.85888861,1.43048194,94,181,302,51,99,163,0.24160958,0.46961173,0.77022332,0.19722839,0.26824343,0.44519115
19019,0,USIowaBuchanan,Iowa,Buchanan,2021-01-05 23:25:20.957131,2020-07-13 00:00:00.000000,0.48142900,0.88980089,1.45861384,101,188,308,51,102,167,0.24456639,0.48574988,0.78993412,0.20053787,0.27012046,0.41683102
19019,0,USIowaBuchanan,Iowa,Buchanan,2021-01-05 23:25:20.957131,2020-07-14 00:00:00.000000,0.48747599,0.92032034,1.48676284,103,194,314,53,105,171,0.25162860,0.50028301,0.81215398,0.19813176,0.27299035,0.41638938
19019,0,USIowaBuchanan,Iowa,Buchanan,2021-01-05 23:25:20.957131,2020-07-15 00:00:00.000000,0.48702569,0.95361123,1.55104867,103,201,328,53,107,176,0.25341694,0.50981959,0.83223123,0.19846564,0.27577474,0.41662273
19019,0,USIowaBuchanan,Iowa,Buchanan,2021-01-05 23:25:20.957131,2020-07-16 00:00:00.000000,0.50598522,0.98651094,1.61867757,107,208,342,53,111,180,0.25397153,0.52595300,0.85076061,0.19955284,0.27819645,0.41486320
19019,0,USIowaBuchanan,Iowa,Buchanan,2021-01-05 23:25:20.957131,2020-07-17 00:00:00.000000,0.53758490,1.00824076,1.67320311,113,213,354,54,114,183,0.25575944,0.54216522,0.86793914,0.19874418,0.27555588,0.40790955
19019,0,USIowaBuchanan,Iowa,Buchanan,2021-01-05 23:25:20.957131,2020-07-18 00:00:00.000000,0.56812926,1.03685060,1.70352296,120,219,360,57,118,188,0.27241027,0.56063449,0.88909564,0.20223465,0.27726005,0.38698467
19019,0,USIowaBuchanan,Iowa,Buchanan,2021-01-05 23:25:20.957131,2020-07-19 00:00:00.000000,0.59781316,1.07763407,1.73621635,126,228,367,61,122,194,0.28898847,0.57714655,0.91632926,0.20399995,0.27576786,0.37383276
19019,0,USIowaBuchanan,Iowa,Buchanan,2021-01-05 23:25:20.957131,2020-07-20 00:00:00.000000,0.59407349,1.10425246,1.76328612,125,233,373,64,125,199,0.30528729,0.59164593,0.94159994,0.20311499,0.27652275,0.37494986
19019,0,USIowaBuchanan,Iowa,Buchanan,2021-01-05 23:25:20.957131,2020-07-21 00:00:00.000000,0.60594037,1.14030481,1.76242477,128,241,373,66,129,203,0.31296856,0.61006783,0.95950219,0.19772832,0.28182754,0.37510859
19019,0,USIowaBuchanan,Iowa,Buchanan,2021-01-05 23:25:20.957131,2020-07-22 00:00:00.000000,0.62495377,1.16758676,1.75970605,132,247,372,66,132,205,0.31554351,0.62623818,0.97244720,0.19224123,0.28063976,0.37524968
19019,0,USIowaBuchanan,Iowa,Buchanan,2021-01-05 23:25:20.957131,2020-07-23 00:00:00.000000,0.64575185,1.18431153,1.75576495,136,250,371,66,136,209,0.31515946,0.64250408,0.98716868,0.18953441,0.27771340,0.38729573
19019,0,USIowaBuchanan,Iowa,Buchanan,2021-01-05 23:25:20.957131,2020-07-24 00:00:00.000000,0.66877681,1.21565272,1.76740021,141,257,374,68,139,216,0.32545704,0.65759103,1.02199503,0.18824641,0.27575445,0.35783033
19019,0,USIowaBuchanan,Iowa,Buchanan,2021-01-05 23:25:20.957131,2020-07-25 00:00:00.000000,0.69247609,1.25523810,1.83898387,146,265,389,71,143,224,0.33639272,0.67845476,1.05923760,0.18724930,0.27379805,0.36600474
19019,0,USIowaBuchanan,Iowa,Buchanan,2021-01-05 23:25:20.957131,2020-07-26 00:00:00.000000,0.71639580,1.28293893,1.90799343,151,271,404,73,147,232,0.34786418,0.69597578,1.09954515,0.18208215,0.26908511,0.37519836
19019,0,USIowaBuchanan,Iowa,Buchanan,2021-01-05 23:25:20.957131,2020-07-27 00:00:00.000000,0.72967553,1.32612193,1.96495944,154,280,416,76,151,242,0.35998913,0.71410250,1.14289117,0.17404929,0.27009416,0.38404390
19019,0,USIowaBuchanan,Iowa,Buchanan,2021-01-05 23:25:20.957131,2020-07-28 00:00:00.000000,0.74315717,1.34458024,2.01781372,157,284,427,78,152,250,0.36999397,0.72215285,1.18534140,0.17330669,0.26773065,0.38868009
19019,0,USIowaBuchanan,Iowa,Buchanan,2021-01-05 23:25:20.957131,2020-07-29 00:00:00.000000,0.75673681,1.35084252,2.06791932,160,286,437,80,156,259,0.37871456,0.74141185,1.22766265,0.17409759,0.26562755,0.38780962
19019,0,USIowaBuchanan,Iowa,Buchanan,2021-01-05 23:25:20.957131,2020-07-30 00:00:00.000000,0.77120121,1.37090904,2.11350667,163,290,447,81,159,268,0.38673336,0.75338493,1.27030321,0.17634710,0.26214820,0.38741635
19019,0,USIowaBuchanan,Iowa,Buchanan,2021-01-05 23:25:20.957131,2020-07-31 00:00:00.000000,0.78742624,1.38709882,2.15794125,166,293,456,83,161,278,0.39455327,0.76481816,1.31350994,0.17913736,0.25809683,0.38700613
19019,0,USIowaBuchanan,Iowa,Buchanan,2021-01-05 23:25:20.957131,2020-08-01 00:00:00.000000,0.80551851,1.40370365,2.20276732,170,297,466,85,164,283,0.40265608,0.77497027,1.33881080,0.18053024,0.25307540,0.38555660
19019,0,USIowaBuchanan,Iowa,Buchanan,2021-01-05 23:25:20.957131,2020-08-02 00:00:00.000000,0.82483774,1.43937770,2.23624062,174,304,473,87,166,287,0.41134676,0.78764151,1.35760767,0.18024120,0.25232336,0.37900037
19019,0,USIowaBuchanan,Iowa,Buchanan,2021-01-05 23:25:20.957131,2020-08-03 00:00:00.000000,0.84054734,1.46032306,2.24444723,177,309,475,89,168,291,0.42065925,0.79791239,1.37525309,0.18006280,0.24946130,0.35807664
19019,0,USIowaBuchanan,Iowa,Buchanan,2021-01-05 23:25:20.957131,2020-08-04 00:00:00.000000,0.85664610,1.47187156,2.26318553,181,311,479,90,170,294,0.42807899,0.80751341,1.39152286,0.17989622,0.24839039,0.36135561
19019,0,USIowaBuchanan,Iowa,Buchanan,2021-01-05 23:25:20.957131,2020-08-05 00:00:00.000000,0.87279137,1.48746612,2.28081315,184,314,482,90,172,297,0.42544902,0.81691588,1.40650077,0.17963460,0.24465330,0.36146888
19019,0,USIowaBuchanan,Iowa,Buchanan,2021-01-05 23:25:20.957131,2020-08-06 00:00:00.000000,0.88099542,1.49881060,2.29690659,186,317,486,89,176,300,0.42377791,0.83380265,1.42014411,0.17914913,0.24406612,0.35629810
19019,0,USIowaBuchanan,Iowa,Buchanan,2021-01-05 23:25:20.957131,2020-08-07 00:00:00.000000,0.86043948,1.50231416,2.31219696,182,318,489,89,179,303,0.42276088,0.84794816,1.43206552,0.17833639,0.24196213,0.34666365
19019,0,USIowaBuchanan,Iowa,Buchanan,2021-01-05 23:25:20.957131,2020-08-08 00:00:00.000000,0.84120955,1.49798473,2.32721146,178,317,492,89,180,308,0.42226748,0.85179061,1.45633810,0.17729954,0.23990654,0.34503586
19019,0,USIowaBuchanan,Iowa,Buchanan,2021-01-05 23:25:20.957131,2020-08-09 00:00:00.000000,0.82350102,1.50477876,2.34340379,174,318,496,89,180,313,0.42208120,0.85253041,1.47873177,0.17715282,0.24145758,0.34460854
19019,0,USIowaBuchanan,Iowa,Buchanan,2021-01-05 23:25:20.957131,2020-08-10 00:00:00.000000,0.81330874,1.51616037,2.37564673,172,321,503,89,181,315,0.42217489,0.85679825,1.48813701,0.17529780,0.23942055,0.32481334
19019,0,USIowaBuchanan,Iowa,Buchanan,2021-01-05 23:25:20.957131,2020-08-11 00:00:00.000000,0.80452000,1.53349195,2.41608124,170,324,511,89,182,313,0.42097851,0.86187935,1.48083675,0.17484814,0.23727699,0.32718591
19019,0,USIowaBuchanan,Iowa,Buchanan,2021-01-05 23:25:20.957131,2020-08-12 00:00:00.000000,0.79739338,1.54599706,2.42468729,168,327,513,88,184,316,0.41918476,0.87226896,1.49542626,0.17476351,0.22994521,0.32719835
19019,0,USIowaBuchanan,Iowa,Buchanan,2021-01-05 23:25:20.957131,2020-08-13 00:00:00.000000,0.79227171,1.54493669,2.41780166,167,327,511,88,186,321,0.41721726,0.87861547,1.51635216,0.17522272,0.22651411,0.33004387
19019,0,USIowaBuchanan,Iowa,Buchanan,2021-01-05 23:25:20.957131,2020-08-14 00:00:00.000000,0.79012434,1.55157891,2.40948330,167,328,510,87,184,321,0.41528349,0.87209144,1.51822162,0.17654820,0.22641233,0.33150694
19019,0,USIowaBuchanan,Iowa,Buchanan,2021-01-05 23:25:20.957131,2020-08-15 00:00:00.000000,0.79204800,1.55672593,2.40046225,167,329,508,87,182,321,0.41344407,0.86289683,1.51816352,0.17725522,0.22594523,0.33217032
19019,0,USIowaBuchanan,Iowa,Buchanan,2021-01-05 23:25:20.957131,2020-08-16 00:00:00.000000,0.79813712,1.54066503,2.39119671,169,326,506,87,182,321,0.41170127,0.86091478,1.51771848,0.17672915,0.22393605,0.32778316
19019,0,USIowaBuchanan,Iowa,Buchanan,2021-01-05 23:25:20.957131,2020-08-17 00:00:00.000000,0.80104607,1.52876368,2.40180414,169,323,508,86,182,321,0.41004209,0.86183951,1.51702248,0.17998575,0.22268341,0.32451985
19019,0,USIowaBuchanan,Iowa,Buchanan,2021-01-05 23:25:20.957131,2020-08-18 00:00:00.000000,0.80620680,1.52333571,2.42930650,170,322,514,87,183,321,0.41361501,0.86784112,1.51666460,0.18002480,0.22171514,0.32270764
19019,0,USIowaBuchanan,Iowa,Buchanan,2021-01-05 23:25:20.957131,2020-08-19 00:00:00.000000,0.81313824,1.52714673,2.45693987,172,323,520,88,184,321,0.42029164,0.87116076,1.51742325,0.17973806,0.22151938,0.32176818
19019,0,USIowaBuchanan,Iowa,Buchanan,2021-01-05 23:25:20.957131,2020-08-20 00:00:00.000000,0.82221001,1.53251591,2.47702087,174,324,524,90,184,321,0.42878169,0.87082224,1.51936434,0.17990955,0.22511708,0.32277797
19019,0,USIowaBuchanan,Iowa,Buchanan,2021-01-05 23:25:20.957131,2020-08-21 00:00:00.000000,0.82131778,1.52351370,2.48815221,173,322,526,92,183,322,0.43830136,0.86654918,1.52240360,0.18166102,0.22398398,0.33199684
19019,0,USIowaBuchanan,Iowa,Buchanan,2021-01-05 23:25:20.957131,2020-08-22 00:00:00.000000,0.81405071,1.53362243,2.50326143,172,324,530,92,181,323,0.43796978,0.85683256,1.52657662,0.18216121,0.22851686,0.33271023
19019,0,USIowaBuchanan,Iowa,Buchanan,2021-01-05 23:25:20.957131,2020-08-23 00:00:00.000000,0.80916391,1.55446185,2.52348649,171,329,534,91,179,324,0.43367235,0.84917195,1.53228819,0.17959389,0.23684074,0.33184918
19019,0,USIowaBuchanan,Iowa,Buchanan,2021-01-05 23:25:20.957131,2020-08-24 00:00:00.000000,0.81481820,1.57098287,2.55055492,172,332,540,91,179,326,0.43010418,0.84649720,1.54003417,0.17513905,0.23918524,0.33573105
19019,0,USIowaBuchanan,Iowa,Buchanan,2021-01-05 23:25:20.957131,2020-08-25 00:00:00.000000,0.82256648,1.58575082,2.58076783,174,335,546,90,179,328,0.42926165,0.84577629,1.55052438,0.17937564,0.24538228,0.34383870
19019,0,USIowaBuchanan,Iowa,Buchanan,2021-01-05 23:25:20.957131,2020-08-26 00:00:00.000000,0.83165226,1.57536191,2.61567532,176,333,553,91,178,331,0.43054363,0.84503278,1.56349491,0.18213574,0.25038672,0.35174487
19019,0,USIowaBuchanan,Iowa,Buchanan,2021-01-05 23:25:20.957131,2020-08-27 00:00:00.000000,0.84139991,1.57000705,2.65843731,178,332,562,91,178,334,0.43334335,0.84442920,1.58157955,0.18599521,0.26094091,0.35718890
19019,0,USIowaBuchanan,Iowa,Buchanan,2021-01-05 23:25:20.957131,2020-08-28 00:00:00.000000,0.85149261,1.58566804,2.71269971,180,335,574,92,181,339,0.43715736,0.85831483,1.60363593,0.18929056,0.26300204,0.36501163
19019,0,USIowaBuchanan,Iowa,Buchanan,2021-01-05 23:25:20.957131,2020-08-29 00:00:00.000000,0.86191278,1.60260468,2.78009444,182,339,588,94,187,344,0.44394711,0.88717540,1.62634833,0.19377845,0.26539019,0.37383002
19019,0,USIowaBuchanan,Iowa,Buchanan,2021-01-05 23:25:20.957131,2020-08-30 00:00:00.000000,0.87853048,1.63272081,2.84854234,186,345,603,96,195,349,0.45354282,0.92158337,1.65027005,0.20059140,0.27083696,0.37744340
19019,0,USIowaBuchanan,Iowa,Buchanan,2021-01-05 23:25:20.957131,2020-08-31 00:00:00.000000,0.92705811,1.66425818,2.90858236,196,352,615,98,198,356,0.46342552,0.93648823,1.68540302,0.19828025,0.27316346,0.40297394
19019,0,USIowaBuchanan,Iowa,Buchanan,2021-01-05 23:25:20.957131,2020-09-01 00:00:00.000000,0.97382160,1.71215433,2.97209938,206,362,629,101,201,364,0.48097093,0.95037807,1.72071932,0.19551638,0.28152125,0.41705366
19019,0,USIowaBuchanan,Iowa,Buchanan,2021-01-05 23:25:20.957131,2020-09-02 00:00:00.000000,1.00336193,1.75968051,3.03847155,212,372,643,106,204,369,0.50244708,0.96798525,1.74338484,0.20281768,0.28695766,0.42743315
19019,0,USIowaBuchanan,Iowa,Buchanan,2021-01-05 23:25:20.957131,2020-09-03 00:00:00.000000,1.02766457,1.80548476,3.10480488,217,382,657,111,208,374,0.52549908,0.98668642,1.76989592,0.20957436,0.28870893,0.43306195
19019,0,USIowaBuchanan,Iowa,Buchanan,2021-01-05 23:25:20.957131,2020-09-04 00:00:00.000000,1.05822346,1.84834041,3.16890374,224,391,671,116,214,385,0.54873302,1.01384989,1.82053728,0.21170447,0.29528221,0.43062035
19019,0,USIowaBuchanan,Iowa,Buchanan,2021-01-05 23:25:20.957131,2020-09-05 00:00:00.000000,1.09874244,1.90986059,3.22856747,232,404,683,121,223,400,0.57151833,1.05568037,1.88995441,0.21611164,0.30103328,0.42653016
19019,0,USIowaBuchanan,Iowa,Buchanan,2021-01-05 23:25:20.957131,2020-09-06 00:00:00.000000,1.14799672,1.97366332,3.28656471,243,417,695,124,228,415,0.58970482,1.08010631,1.96101506,0.23025241,0.31014975,0.42298101
19019,0,USIowaBuchanan,Iowa,Buchanan,2021-01-05 23:25:20.957131,2020-09-07 00:00:00.000000,1.20048384,2.02950101,3.34992593,254,429,709,128,233,430,0.60872442,1.10393722,2.03231341,0.24028854,0.31717243,0.43342738
19019,0,USIowaBuchanan,Iowa,Buchanan,2021-01-05 23:25:20.957131,2020-09-08 00:00:00.000000,1.21575529,2.07590325,3.41349445,257,439,722,131,240,440,0.62306001,1.13360643,2.07917534,0.23988312,0.32219930,0.44446535
19019,0,USIowaBuchanan,Iowa,Buchanan,2021-01-05 23:25:20.957131,2020-09-09 00:00:00.000000,1.22971592,2.12707410,3.47939176,260,450,736,135,244,446,0.63825075,1.15565700,2.10716632,0.24001486,0.32506355,0.45471636
19019,0,USIowaBuchanan,Iowa,Buchanan,2021-01-05 23:25:20.957131,2020-09-10 00:00:00.000000,1.24289689,2.17685311,3.55262118,263,460,752,138,247,452,0.65303020,1.17073609,2.13923657,0.24232545,0.33431683,0.46069139
19019,0,USIowaBuchanan,Iowa,Buchanan,2021-01-05 23:25:20.957131,2020-09-11 00:00:00.000000,1.25593723,2.24281315,3.62947829,265,474,768,140,252,460,0.66142397,1.19031496,2.17529359,0.24541441,0.33635122,0.45596359
19019,0,USIowaBuchanan,Iowa,Buchanan,2021-01-05 23:25:20.957131,2020-09-12 00:00:00.000000,1.26925747,2.31410633,3.70897740,268,490,785,141,259,468,0.66904824,1.22407204,2.21473098,0.24735978,0.34268495,0.45161717
19019,0,USIowaBuchanan,Iowa,Buchanan,2021-01-05 23:25:20.957131,2020-09-13 00:00:00.000000,1.31785188,2.38841896,3.79418792,279,505,803,143,267,477,0.67638233,1.26121771,2.25710236,0.24073854,0.34037401,0.45954314
19019,0,USIowaBuchanan,Iowa,Buchanan,2021-01-05 23:25:20.957131,2020-09-14 00:00:00.000000,1.39784394,2.45902601,3.88570095,295,520,822,144,276,487,0.68367528,1.30604967,2.30193610,0.24218551,0.34428859,0.45988973
19019,0,USIowaBuchanan,Iowa,Buchanan,2021-01-05 23:25:20.957131,2020-09-15 00:00:00.000000,1.48061291,2.52772945,3.97954828,313,535,842,147,288,497,0.69482492,1.36022355,2.34762505,0.22814848,0.33633574,0.45996810
19019,0,USIowaBuchanan,Iowa,Buchanan,2021-01-05 23:25:20.957131,2020-09-16 00:00:00.000000,1.56522011,2.60848313,4.07194860,331,552,862,153,297,506,0.72491039,1.40328423,2.39406956,0.23136289,0.32703132,0.45023149
19019,0,USIowaBuchanan,Iowa,Buchanan,2021-01-05 23:25:20.957131,2020-09-17 00:00:00.000000,1.62565267,2.69141218,4.16301257,344,569,881,160,305,516,0.75715991,1.44218424,2.44092367,0.22439441,0.32419430,0.44070573
19019,0,USIowaBuchanan,Iowa,Buchanan,2021-01-05 23:25:20.957131,2020-09-18 00:00:00.000000,1.63405597,2.77814181,4.24902560,346,588,899,164,311,526,0.77630679,1.46971985,2.48806283,0.22664175,0.31884064,0.42927133
19019,0,USIowaBuchanan,Iowa,Buchanan,2021-01-05 23:25:20.957131,2020-09-19 00:00:00.000000,1.64140305,2.85574005,4.32740965,347,604,916,168,318,536,0.79709062,1.50641548,2.53565228,0.22132340,0.30805153,0.41422885
19019,0,USIowaBuchanan,Iowa,Buchanan,2021-01-05 23:25:20.957131,2020-09-20 00:00:00.000000,1.64783300,2.90931716,4.40049024,348,616,931,172,326,546,0.81544236,1.54120671,2.58277250,0.22098950,0.30204345,0.40299173
19019,0,USIowaBuchanan,Iowa,Buchanan,2021-01-05 23:25:20.957131,2020-09-21 00:00:00.000000,1.66270374,2.92463363,4.47154790,352,619,946,173,332,556,0.82078567,1.57213945,2.62645240,0.21762329,0.29574074,0.39284326
19019,0,USIowaBuchanan,Iowa,Buchanan,2021-01-05 23:25:20.957131,2020-09-22 00:00:00.000000,1.67701987,2.93291357,4.53986473,355,621,961,176,340,564,0.83398087,1.60891032,2.66502023,0.21561011,0.29278391,0.39061181
19019,0,USIowaBuchanan,Iowa,Buchanan,2021-01-05 23:25:20.957131,2020-09-23 00:00:00.000000,1.69136060,2.93909415,4.60517746,358,622,975,177,348,571,0.83951256,1.64352964,2.69933795,0.21551523,0.28927790,0.38947970
19019,0,USIowaBuchanan,Iowa,Buchanan,2021-01-05 23:25:20.957131,2020-09-24 00:00:00.000000,1.70601641,2.95097553,4.66720930,361,624,988,178,354,578,0.84314375,1.67584533,2.73158052,0.21569428,0.28596470,0.38868640
19019,0,USIowaBuchanan,Iowa,Buchanan,2021-01-05 23:25:20.957131,2020-09-25 00:00:00.000000,1.72177538,2.97940229,4.69374636,364,630,993,180,360,591,0.85095259,1.70223798,2.79433798,0.21635200,0.28349976,0.38936729
19019,0,USIowaBuchanan,Iowa,Buchanan,2021-01-05 23:25:20.957131,2020-09-26 00:00:00.000000,1.74052136,3.03038217,4.68389236,368,641,991,181,364,601,0.85841731,1.71908832,2.83880114,0.21157883,0.27948032,0.39042125
19019,0,USIowaBuchanan,Iowa,Buchanan,2021-01-05 23:25:20.957131,2020-09-27 00:00:00.000000,1.76550609,3.06616165,4.66439767,373,649,987,183,367,604,0.86532669,1.73521976,2.85433628,0.21318786,0.27973596,0.39183394
19019,0,USIowaBuchanan,Iowa,Buchanan,2021-01-05 23:25:20.957131,2020-09-28 00:00:00.000000,1.79195289,3.11434363,4.63893145,379,659,982,184,370,605,0.87173864,1.75081042,2.86118160,0.21451538,0.28030479,0.39358731
19019,0,USIowaBuchanan,Iowa,Buchanan,2021-01-05 23:25:20.957131,2020-09-29 00:00:00.000000,1.82607074,3.11878317,4.72112850,386,660,999,185,374,606,0.87632344,1.76826527,2.86373102,0.21517407,0.28208100,0.39504054
19019,0,USIowaBuchanan,Iowa,Buchanan,2021-01-05 23:25:20.957131,2020-09-30 00:00:00.000000,1.86429263,3.12083417,4.80556839,394,660,1017,186,378,612,0.87952646,1.78707958,2.89057038,0.21563471,0.28102967,0.39590671
19019,0,USIowaBuchanan,Iowa,Buchanan,2021-01-05 23:25:20.957131,2020-10-01 00:00:00.000000,1.90454803,3.12274852,4.88965858,403,661,1035,186,382,618,0.88179112,1.80713464,2.91917727,0.21632747,0.28240473,0.40283335
19019,0,USIowaBuchanan,Iowa,Buchanan,2021-01-05 23:25:20.957131,2020-10-02 00:00:00.000000,1.91793178,3.13748316,4.97336761,406,664,1053,187,386,624,0.88354366,1.82304384,2.95016288,0.22568498,0.28517097,0.43620910
19019,0,USIowaBuchanan,Iowa,Buchanan,2021-01-05 23:25:20.957131,2020-10-03 00:00:00.000000,1.92517070,3.18449160,5.05684483,407,674,1070,187,387,633,0.88529328,1.83219222,2.99014785,0.22676805,0.29303952,0.44911737
19019,0,USIowaBuchanan,Iowa,Buchanan,2021-01-05 23:25:20.957131,2020-10-04 00:00:00.000000,1.92572217,3.24258998,5.14097018,407,686,1088,187,390,643,0.88766617,1.84437547,3.03923977,0.22863482,0.29396274,0.45103677
19019,0,USIowaBuchanan,Iowa,Buchanan,2021-01-05 23:25:20.957131,2020-10-05 00:00:00.000000,1.92195389,3.27952010,5.19637586,406,694,1100,188,393,654,0.89130589,1.85978021,3.08995991,0.22889415,0.30102042,0.45255046
19019,0,USIowaBuchanan,Iowa,Buchanan,2021-01-05 23:25:20.957131,2020-10-06 00:00:00.000000,1.91896792,3.33345768,5.25629133,406,705,1113,189,402,665,0.89692415,1.90032340,3.14097691,0.22990768,0.30834373,0.45795669
19019,0,USIowaBuchanan,Iowa,Buchanan,2021-01-05 23:25:20.957131,2020-10-07 00:00:00.000000,1.91787766,3.40519052,5.32220112,406,721,1126,191,411,676,0.90470417,1.94448055,3.19514303,0.23308526,0.31428428,0.46380957
19019,0,USIowaBuchanan,Iowa,Buchanan,2021-01-05 23:25:20.957131,2020-10-08 00:00:00.000000,1.92589834,3.47509954,5.43139755,407,735,1150,193,417,689,0.91474754,1.97013860,3.25401096,0.23404395,0.32621119,0.47837287
19019,0,USIowaBuchanan,Iowa,Buchanan,2021-01-05 23:25:20.957131,2020-10-09 00:00:00.000000,1.96611103,3.56072875,5.54201093,416,753,1173,196,425,702,0.92740325,2.00968211,3.31762818,0.24215606,0.34681270,0.49810911
19019,0,USIowaBuchanan,Iowa,Buchanan,2021-01-05 23:25:20.957131,2020-10-10 00:00:00.000000,2.04088841,3.64840917,5.65403208,432,772,1197,199,437,716,0.94385924,2.06413809,3.38528909,0.25586726,0.35454268,0.51349626
19019,0,USIowaBuchanan,Iowa,Buchanan,2021-01-05 23:25:20.957131,2020-10-11 00:00:00.000000,2.12770943,3.74396049,5.77194153,450,792,1222,204,446,731,0.96662642,2.10786032,3.45623779,0.26472793,0.37020256,0.54855346
19019,0,USIowaBuchanan,Iowa,Buchanan,2021-01-05 23:25:20.957131,2020-10-12 00:00:00.000000,2.22398226,3.88557002,5.91430468,470,822,1252,211,457,747,0.99870208,2.16023889,3.53014153,0.27467666,0.38432650,0.59465104
19019,0,USIowaBuchanan,Iowa,Buchanan,2021-01-05 23:25:20.957131,2020-10-13 00:00:00.000000,2.32038903,4.04752170,6.07316715,491,857,1285,220,471,764,1.04057067,2.22555256,3.60866381,0.28041162,0.39689290,0.61926887
19019,0,USIowaBuchanan,Iowa,Buchanan,2021-01-05 23:25:20.957131,2020-10-14 00:00:00.000000,2.42118048,4.22217161,6.26629871,512,894,1326,231,485,788,1.09209623,2.29109271,3.72438144,0.28915717,0.41053964,0.62826367
19019,0,USIowaBuchanan,Iowa,Buchanan,2021-01-05 23:25:20.957131,2020-10-15 00:00:00.000000,2.54690112,4.40293564,6.51916218,539,932,1380,244,499,816,1.15273352,2.35962466,3.85685917,0.31715430,0.42717800,0.64296940
19019,0,USIowaBuchanan,Iowa,Buchanan,2021-01-05 23:25:20.957131,2020-10-16 00:00:00.000000,2.66864105,4.59360482,6.82691260,565,972,1445,258,517,840,1.22290745,2.44547814,3.96799598,0.33668682,0.44701127,0.66410519
19019,0,USIowaBuchanan,Iowa,Buchanan,2021-01-05 23:25:20.957131,2020-10-17 00:00:00.000000,2.80048503,4.82719951,7.16825162,593,1022,1517,276,541,869,1.30346824,2.55635837,4.10447301,0.36056500,0.47162619,0.67353567
19019,0,USIowaBuchanan,Iowa,Buchanan,2021-01-05 23:25:20.957131,2020-10-18 00:00:00.000000,2.94574877,5.06974537,7.53523262,623,1073,1595,291,564,902,1.37709604,2.66822200,4.26293619,0.37681880,0.49229929,0.67658547
19019,0,USIowaBuchanan,Iowa,Buchanan,2021-01-05 23:25:20.957131,2020-10-19 00:00:00.000000,3.10980244,5.32777753,7.90972081,658,1128,1674,305,589,940,1.44452871,2.78517570,4.44214148,0.38439281,0.51531980,0.69533423
19019,0,USIowaBuchanan,Iowa,Buchanan,2021-01-05 23:25:20.957131,2020-10-20 00:00:00.000000,3.29471328,5.62037761,8.31495009,697,1190,1760,321,616,984,1.51922190,2.91137740,4.64790124,0.38931169,0.53470586,0.74967573
19019,0,USIowaBuchanan,Iowa,Buchanan,2021-01-05 23:25:20.957131,2020-10-21 00:00:00.000000,3.50287328,5.89692748,8.69107183,741,1248,1840,339,645,1036,1.60259626,3.04750638,4.89534530,0.39539493,0.55111023,0.76377310
19019,0,USIowaBuchanan,Iowa,Buchanan,2021-01-05 23:25:20.957131,2020-10-22 00:00:00.000000,3.73496039,6.22414553,9.18467294,790,1317,1944,359,679,1097,1.69598600,3.20829484,5.18272819,0.41368105,0.56932648,0.78364603
19019,0,USIowaBuchanan,Iowa,Buchanan,2021-01-05 23:25:20.957131,2020-10-23 00:00:00.000000,3.98965219,6.63916779,9.87526724,844,1405,2091,381,717,1143,1.80030856,3.38845520,5.39965743,0.44484919,0.57766562,0.81892898
19019,0,USIowaBuchanan,Iowa,Buchanan,2021-01-05 23:25:20.957131,2020-10-24 00:00:00.000000,4.26533913,7.15240397,10.55530330,903,1514,2235,405,769,1194,1.91594039,3.63204268,5.64120372,0.45342012,0.59371798,0.83174047
19019,0,USIowaBuchanan,Iowa,Buchanan,2021-01-05 23:25:20.957131,2020-10-25 00:00:00.000000,4.56027618,7.75757671,11.24623388,965,1642,2381,432,834,1253,2.04279259,3.94037264,5.92113691,0.47641544,0.62051783,0.89104928
19019,0,USIowaBuchanan,Iowa,Buchanan,2021-01-05 23:25:20.957131,2020-10-26 00:00:00.000000,4.87914527,8.41332006,11.98259542,1033,1781,2537,461,883,1325,2.18046148,4.17096860,6.25856231,0.48254017,0.63027090,0.93429549
19019,0,USIowaBuchanan,Iowa,Buchanan,2021-01-05 23:25:20.957131,2020-10-27 00:00:00.000000,5.21596946,9.07676893,12.76298074,1104,1922,2702,493,925,1408,2.32959762,4.37298998,6.65125833,0.52348136,0.63818653,0.93640304
19019,0,USIowaBuchanan,Iowa,Buchanan,2021-01-05 23:25:20.957131,2020-10-28 00:00:00.000000,5.58088745,9.66838280,13.61689816,1181,2047,2883,527,985,1497,2.48948359,4.65256144,7.07430895,0.53390791,0.65131254,0.87950447
19019,0,USIowaBuchanan,Iowa,Buchanan,2021-01-05 23:25:20.957131,2020-10-29 00:00:00.000000,5.97347992,10.26157372,14.59263283,1264,2172,3089,563,1048,1594,2.66161190,4.95083129,7.53205660,0.53423479,0.64742643,0.87756954
19019,0,USIowaBuchanan,Iowa,Buchanan,2021-01-05 23:25:20.957131,2020-10-30 00:00:00.000000,6.38269936,10.99534338,15.57947105,1351,2328,3298,602,1115,1701,2.84689696,5.26945543,8.03633573,0.53065391,0.65841464,0.88307993
19019,0,USIowaBuchanan,Iowa,Buchanan,2021-01-05 23:25:20.957131,2020-10-31 00:00:00.000000,6.80705262,11.79695078,16.50812720,1441,2498,3495,646,1182,1819,3.05100485,5.58546611,8.59094447,0.51676367,0.66195636,0.93006805
19019,0,USIowaBuchanan,Iowa,Buchanan,2021-01-05 23:25:20.957131,2020-11-01 00:00:00.000000,7.24659394,12.60662892,17.45322510,1534,2669,3695,693,1254,1945,3.27496156,5.92329548,9.19001577,0.51826304,0.65544916,0.95917054
19019,0,USIowaBuchanan,Iowa,Buchanan,2021-01-05 23:25:20.957131,2020-11-02 00:00:00.000000,7.69671191,13.29834129,18.44957867,1629,2815,3906,743,1341,2080,3.51065170,6.33585388,9.82600522,0.51651366,0.64631111,0.97074693
19019,0,USIowaBuchanan,Iowa,Buchanan,2021-01-05 23:25:20.957131,2020-11-03 00:00:00.000000,8.15918677,14.14039753,19.63434995,1727,2994,4157,795,1429,2221,3.75754863,6.75074415,10.49019803,0.50125239,0.64240598,0.89940009
19019,0,USIowaBuchanan,Iowa,Buchanan,2021-01-05 23:25:20.957131,2020-11-04 00:00:00.000000,8.62546005,15.03849091,20.82007986,1826,3184,4408,849,1529,2366,4.01104653,7.22321650,11.17676000,0.48353621,0.63127440,0.84921818
19019,0,USIowaBuchanan,Iowa,Buchanan,2021-01-05 23:25:20.957131,2020-11-05 00:00:00.000000,9.08686593,15.79814352,21.98436278,1924,3345,4655,894,1613,2515,4.22665540,7.61945857,11.87989339,0.45583222,0.61101652,0.83349059
19019,0,USIowaBuchanan,Iowa,Buchanan,2021-01-05 23:25:20.957131,2020-11-06 00:00:00.000000,9.52658566,16.23836420,23.07251845,2017,3438,4885,931,1708,2666,4.39927367,8.06681442,12.59359640,0.43245310,0.58367579,0.81601716
19019,0,USIowaBuchanan,Iowa,Buchanan,2021-01-05 23:25:20.957131,2020-11-07 00:00:00.000000,9.73061462,16.49051633,23.94467715,2060,3491,5070,981,1798,2818,4.63669922,8.49167379,13.31151917,0.40794535,0.55773027,0.75762260
19019,0,USIowaBuchanan,Iowa,Buchanan,2021-01-05 23:25:20.957131,2020-11-08 00:00:00.000000,9.83138817,16.66995608,24.45035253,2081,3529,5177,1030,1879,2961,4.86557125,8.87454281,13.98496981,0.37221419,0.53561024,0.73107851
19019,0,USIowaBuchanan,Iowa,Buchanan,2021-01-05 23:25:20.957131,2020-11-09 00:00:00.000000,9.88411259,16.81479773,24.65251573,2092,3560,5220,1064,1956,3080,5.02666462,9.24003021,14.54846812,0.33610776,0.50112904,0.69149622
19019,0,USIowaBuchanan,Iowa,Buchanan,2021-01-05 23:25:20.957131,2020-11-10 00:00:00.000000,9.90507493,16.97560883,24.69661946,2097,3594,5229,1079,1997,3191,5.09933149,9.43392885,15.07313663,0.31429926,0.47240579,0.67715261
19019,0,USIowaBuchanan,Iowa,Buchanan,2021-01-05 23:25:20.957131,2020-11-11 00:00:00.000000,9.90465436,17.22896867,24.65328761,2097,3648,5220,1089,2040,3287,5.14525142,9.63442403,15.52724892,0.30600856,0.43419941,0.62843431
19019,0,USIowaBuchanan,Iowa,Buchanan,2021-01-05 23:25:20.957131,2020-11-12 00:00:00.000000,9.87625847,17.17294501,24.54468173,2091,3636,5197,1094,2080,3335,5.17022641,9.82587677,15.75303031,0.27373449,0.40764019,0.59603385
19019,0,USIowaBuchanan,Iowa,Buchanan,2021-01-05 23:25:20.957131,2020-11-13 00:00:00.000000,9.80958015,16.92057184,24.37579073,2077,3582,5161,1096,2090,3359,5.17706396,9.87113426,15.86667514,0.26654650,0.37910847,0.55073669
19019,0,USIowaBuchanan,Iowa,Buchanan,2021-01-05 23:25:20.957131,2020-11-14 00:00:00.000000,9.68838659,16.62935835,24.13610346,2051,3521,5110,1093,2088,3361,5.16639767,9.86283818,15.87457148,0.25000170,0.35014353,0.50940773
19019,0,USIowaBuchanan,Iowa,Buchanan,2021-01-05 23:25:20.957131,2020-11-15 00:00:00.000000,9.49903564,16.21306653,23.80261992,2011,3433,5040,1087,2070,3343,5.13383505,9.77841771,15.79047799,0.23934281,0.32468038,0.45738126
19019,0,USIowaBuchanan,Iowa,Buchanan,2021-01-05 23:25:20.957131,2020-11-16 00:00:00.000000,9.24573168,15.76772743,23.48222268,1957,3338,4972,1074,2043,3309,5.07288189,9.65219917,15.63120556,0.22834977,0.31098223,0.42446693
19019,0,USIowaBuchanan,Iowa,Buchanan,2021-01-05 23:25:20.957131,2020-11-17 00:00:00.000000,8.94381981,15.30448332,23.11883982,1893,3240,4895,1054,2004,3263,4.98118275,9.46658449,15.41390774,0.21802490,0.30134156,0.41500337
19019,0,USIowaBuchanan,Iowa,Buchanan,2021-01-05 23:25:20.957131,2020-11-18 00:00:00.000000,8.60622889,14.70618830,22.71317209,1822,3114,4809,1029,1965,3208,4.86082678,9.28057921,15.15162886,0.21302070,0.28522234,0.40494608
19019,0,USIowaBuchanan,Iowa,Buchanan,2021-01-05 23:25:20.957131,2020-11-19 00:00:00.000000,8.20464706,14.20251732,22.26348800,1737,3007,4714,998,1920,3145,4.71600016,9.07153521,14.85496396,0.20959507,0.28743087,0.39434738
19019,0,USIowaBuchanan,Iowa,Buchanan,2021-01-05 23:25:20.957131,2020-11-20 00:00:00.000000,7.78664672,13.73974700,21.77069361,1648,2909,4609,963,1866,3077,4.55130902,8.81382764,14.53261311,0.20409648,0.28194768,0.38976331
19019,0,USIowaBuchanan,Iowa,Buchanan,2021-01-05 23:25:20.957131,2020-11-21 00:00:00.000000,7.40014852,13.25429929,21.24194954,1566,2806,4497,925,1801,3010,4.37177641,8.50632134,14.21646647,0.19985304,0.27630957,0.39213485
19019,0,USIowaBuchanan,Iowa,Buchanan,2021-01-05 23:25:20.957131,2020-11-22 00:00:00.000000,7.03511254,12.76426339,20.68818380,1489,2702,4380,885,1745,2933,4.18275043,8.24457823,13.85524876,0.19646955,0.27165662,0.41538770
19019,0,USIowaBuchanan,Iowa,Buchanan,2021-01-05 23:25:20.957131,2020-11-23 00:00:00.000000,6.69494448,12.28350693,20.12632433,1417,2601,4261,844,1688,2854,3.98922529,7.97585302,13.47942777,0.18921269,0.27003750,0.41549221
19019,0,USIowaBuchanan,Iowa,Buchanan,2021-01-05 23:25:20.957131,2020-11-24 00:00:00.000000,6.36696177,11.81283343,19.55651607,1348,2501,4141,803,1622,2777,3.79457250,7.66096813,13.11562260,0.18883412,0.27092368,0.41542089
19019,0,USIowaBuchanan,Iowa,Buchanan,2021-01-05 23:25:20.957131,2020-11-25 00:00:00.000000,6.02060776,11.32276253,18.98357894,1274,2397,4019,762,1547,2699,3.60210173,7.30958760,12.74914205,0.18886788,0.27490779,0.43288214
19019,0,USIowaBuchanan,Iowa,Buchanan,2021-01-05 23:25:20.957131,2020-11-26 00:00:00.000000,5.68912613,10.81145724,18.41037147,1204,2289,3898,723,1481,2621,3.41449071,6.99621137,12.38069764,0.18904136,0.27642052,0.42262152
19019,0,USIowaBuchanan,Iowa,Buchanan,2021-01-05 23:25:20.957131,2020-11-27 00:00:00.000000,5.37271334,10.35493305,17.83662205,1137,2192,3776,684,1416,2543,3.23285171,6.69156228,12.01095714,0.18965801,0.27580299,0.41348533
19019,0,USIowaBuchanan,Iowa,Buchanan,2021-01-05 23:25:20.957131,2020-11-28 00:00:00.000000,5.06996884,9.86928627,17.25386890,1073,2089,3653,647,1353,2464,3.05780218,6.39221448,11.64062163,0.18982701,0.28185607,0.40996846
19019,0,USIowaBuchanan,Iowa,Buchanan,2021-01-05 23:25:20.957131,2020-11-29 00:00:00.000000,4.78169902,9.39813104,16.66294114,1012,1990,3528,611,1291,2386,2.88958575,6.09892665,11.26929234,0.19016892,0.28985170,0.45067877
19019,0,USIowaBuchanan,Iowa,Buchanan,2021-01-05 23:25:20.957131,2020-11-30 00:00:00.000000,4.50598332,8.96576230,16.07038317,954,1898,3402,577,1236,2307,2.72754357,5.84164459,10.89565968,0.19039475,0.30155369,0.47000579
19019,0,USIowaBuchanan,Iowa,Buchanan,2021-01-05 23:25:20.957131,2020-12-01 00:00:00.000000,4.24518370,8.55087699,15.48924462,898,1810,3279,543,1183,2227,2.56791589,5.58683003,10.52043134,0.19065584,0.30837816,0.47491492
19019,0,USIowaBuchanan,Iowa,Buchanan,2021-01-05 23:25:20.957131,2020-12-02 00:00:00.000000,3.99936445,8.18063189,14.92024627,846,1732,3159,512,1129,2148,2.41945285,5.33459021,10.14596831,0.19228898,0.31021383,0.47761323
19019,0,USIowaBuchanan,Iowa,Buchanan,2021-01-05 23:25:20.957131,2020-12-03 00:00:00.000000,3.76938519,7.86025270,14.36317201,798,1664,3041,482,1077,2069,2.28089860,5.08779653,9.77506587,0.20333909,0.31104315,0.49819248
19019,0,USIowaBuchanan,Iowa,Buchanan,2021-01-05 23:25:20.957131,2020-12-04 00:00:00.000000,3.55713230,7.50340543,13.81993510,753,1588,2926,455,1027,1992,2.15209042,4.85242471,9.41039662,0.20441209,0.32062168,0.57722458
19019,0,USIowaBuchanan,Iowa,Buchanan,2021-01-05 23:25:20.957131,2020-12-05 00:00:00.000000,3.36546505,7.16129655,13.29198141,712,1516,2814,430,984,1917,2.03387311,4.64885573,9.05485038,0.20657189,0.33181498,0.61252380
19019,0,USIowaBuchanan,Iowa,Buchanan,2021-01-05 23:25:20.957131,2020-12-06 00:00:00.000000,3.19698998,6.86915198,12.78313429,676,1454,2706,406,944,1844,1.92039676,4.46153490,8.71168661,0.21086482,0.34079506,0.61986558
19019,0,USIowaBuchanan,Iowa,Buchanan,2021-01-05 23:25:20.957131,2020-12-07 00:00:00.000000,3.05704538,6.59023635,12.30590691,647,1395,2605,384,906,1775,1.81753933,4.28278125,8.38406328,0.21879022,0.35080790,0.62077972
19019,0,USIowaBuchanan,Iowa,Buchanan,2021-01-05 23:25:20.957131,2020-12-08 00:00:00.000000,2.93534008,6.34327131,11.87479742,621,1343,2514,365,870,1710,1.72702514,4.11137244,8.07617949,0.21416199,0.35682684,0.63863874
19019,0,USIowaBuchanan,Iowa,Buchanan,2021-01-05 23:25:20.957131,2020-12-09 00:00:00.000000,2.82623410,6.13136334,11.47925086,598,1298,2430,348,833,1649,1.64767710,3.93717877,7.78761735,0.22516945,0.35824245,0.66435346
19019,0,USIowaBuchanan,Iowa,Buchanan,2021-01-05 23:25:20.957131,2020-12-10 00:00:00.000000,2.72610358,5.95335991,11.10305991,577,1260,2351,334,798,1591,1.57758099,3.76889385,7.51648741,0.23734020,0.38315669,0.69582668
19019,0,USIowaBuchanan,Iowa,Buchanan,2021-01-05 23:25:20.957131,2020-12-11 00:00:00.000000,2.63529140,5.79022836,10.74126116,558,1226,2274,320,765,1537,1.51520382,3.61336686,7.26101384,0.23755642,0.41368936,0.70769066
19019,0,USIowaBuchanan,Iowa,Buchanan,2021-01-05 23:25:20.957131,2020-12-12 00:00:00.000000,2.57053715,5.61945720,10.39081314,544,1189,2200,308,739,1488,1.45917879,3.49403341,7.02877077,0.24044804,0.43579738,0.72979641
19019,0,USIowaBuchanan,Iowa,Buchanan,2021-01-05 23:25:20.957131,2020-12-13 00:00:00.000000,2.55971912,5.48388270,10.05868581,542,1161,2129,299,721,1448,1.41243782,3.40762847,6.83895070,0.27800750,0.45942212,0.79528725
19019,0,USIowaBuchanan,Iowa,Buchanan,2021-01-05 23:25:20.957131,2020-12-14 00:00:00.000000,2.58905612,5.34808716,9.76380092,548,1132,2067,290,694,1414,1.37225478,3.28065798,6.68217753,0.28701074,0.46443726,0.82165703
19019,0,USIowaBuchanan,Iowa,Buchanan,2021-01-05 23:25:20.957131,2020-12-15 00:00:00.000000,2.62436472,5.25135082,9.50236121,555,1111,2012,282,674,1385,1.33218302,3.18378024,6.54514266,0.28766077,0.48352230,0.81401938
19019,0,USIowaBuchanan,Iowa,Buchanan,2021-01-05 23:25:20.957131,2020-12-16 00:00:00.000000,2.66626671,5.16561761,9.25345256,564,1093,1959,275,658,1359,1.30050839,3.11092071,6.42093864,0.28878608,0.50178328,0.80235575
19019,0,USIowaBuchanan,Iowa,Buchanan,2021-01-05 23:25:20.957131,2020-12-17 00:00:00.000000,2.71772455,5.04727584,9.01153655,575,1068,1908,271,643,1336,1.27982020,3.03663156,6.31064458,0.29087586,0.51871981,0.83590881
19019,0,USIowaBuchanan,Iowa,Buchanan,2021-01-05 23:25:20.957131,2020-12-18 00:00:00.000000,2.77791319,4.96134267,8.87612422,588,1050,1879,269,628,1316,1.27128648,2.96625769,6.21491085,0.29620407,0.53966748,0.91987945
19019,0,USIowaBuchanan,Iowa,Buchanan,2021-01-05 23:25:20.957131,2020-12-19 00:00:00.000000,2.83313703,4.93472253,8.76163190,599,1044,1855,269,617,1297,1.27238550,2.91436867,6.12772150,0.30586941,0.56858599,0.94007829
19019,0,USIowaBuchanan,Iowa,Buchanan,2021-01-05 23:25:20.957131,2020-12-20 00:00:00.000000,2.86536663,4.91174193,8.63724864,606,1040,1828,270,607,1279,1.27967080,2.86863805,6.04385488,0.31290967,0.57958258,0.95944584
19019,0,USIowaBuchanan,Iowa,Buchanan,2021-01-05 23:25:20.957131,2020-12-21 00:00:00.000000,2.84236806,4.87598539,8.52108545,601,1032,1804,273,602,1261,1.29047734,2.84606287,5.95984531,0.32791775,0.60139311,0.99426325
19019,0,USIowaBuchanan,Iowa,Buchanan,2021-01-05 23:25:20.957131,2020-12-22 00:00:00.000000,2.80267108,4.84838938,8.43001228,593,1026,1785,276,593,1243,1.30528429,2.80465182,5.87357493,0.34099197,0.61031707,1.02281638
19019,0,USIowaBuchanan,Iowa,Buchanan,2021-01-05 23:25:20.957131,2020-12-23 00:00:00.000000,2.76467951,4.81796304,8.33102149,585,1020,1764,279,585,1224,1.32211113,2.76396782,5.78373232,0.35022024,0.62268704,1.02063955
19019,0,USIowaBuchanan,Iowa,Buchanan,2021-01-05 23:25:20.957131,2020-12-24 00:00:00.000000,2.72792159,4.77740735,8.22420392,577,1011,1741,283,578,1202,1.33977008,2.73416659,5.67734737,0.35701100,0.63816597,1.02083214
19019,0,USIowaBuchanan,Iowa,Buchanan,2021-01-05 23:25:20.957131,2020-12-25 00:00:00.000000,2.69208558,4.72270499,8.10985006,570,1000,1717,287,575,1171,1.35753954,2.71763840,5.53030506,0.36262764,0.65099714,1.06941279
19019,0,USIowaBuchanan,Iowa,Buchanan,2021-01-05 23:25:20.957131,2020-12-26 00:00:00.000000,2.65743378,4.61851360,7.99226801,562,977,1692,291,572,1140,1.37496517,2.70292342,5.38661495,0.36454138,0.66092225,1.07879945
19019,0,USIowaBuchanan,Iowa,Buchanan,2021-01-05 23:25:20.957131,2020-12-27 00:00:00.000000,2.62436317,4.54559137,7.86930433,555,962,1666,294,569,1110,1.39205855,2.68892902,5.24641612,0.36587001,0.67264494,1.13525419
19019,0,USIowaBuchanan,Iowa,Buchanan,2021-01-05 23:25:20.957131,2020-12-28 00:00:00.000000,2.56865543,4.45405512,7.69611920,543,943,1629,298,561,1082,1.40873230,2.65191599,5.11007867,0.37021586,0.66680090,1.17863203
19019,0,USIowaBuchanan,Iowa,Buchanan,2021-01-05 23:25:20.957131,2020-12-29 00:00:00.000000,2.48938629,4.41592682,7.51779301,527,935,1591,297,553,1057,1.40361123,2.61163129,4.99435507,0.37499599,0.67633503,1.18018148
19019,0,USIowaBuchanan,Iowa,Buchanan,2021-01-05 23:25:20.957131,2020-12-30 00:00:00.000000,2.42709460,4.33961471,7.33186594,513,918,1552,288,544,1037,1.36039420,2.56961728,4.90046460,0.37639952,0.67562754,1.17853070
19019,0,USIowaBuchanan,Iowa,Buchanan,2021-01-05 23:25:20.957131,2020-12-31 00:00:00.000000,2.47231870,4.24926400,7.13764979,523,899,1511,278,534,1016,1.31704824,2.52287495,4.79899212,0.37610976,0.66503357,1.18148260
19019,0,USIowaBuchanan,Iowa,Buchanan,2021-01-05 23:25:20.957131,2021-01-01 00:00:00.000000,2.50092347,4.17564225,6.93995531,529,884,1469,277,529,993,1.30847861,2.49897860,4.69145249,0.37195582,0.67619106,1.17747260
19019,0,USIowaBuchanan,Iowa,Buchanan,2021-01-05 23:25:20.957131,2021-01-02 00:00:00.000000,2.40968114,4.12437598,6.73974676,510,873,1427,282,519,969,1.33296928,2.45249438,4.57908140,0.35920124,0.66624312,1.19081085
19019,0,USIowaBuchanan,Iowa,Buchanan,2021-01-05 23:25:20.957131,2021-01-03 00:00:00.000000,2.32019916,4.07026925,6.53790667,491,861,1384,272,512,954,1.28820022,2.41832889,4.50595570,0.35462273,0.66689977,1.20091835
19019,0,USIowaBuchanan,Iowa,Buchanan,2021-01-05 23:25:20.957131,2021-01-04 00:00:00.000000,2.23329193,3.97651575,6.33524320,472,842,1341,262,505,941,1.23788379,2.38639815,4.44838344,0.34694308,0.68228674,1.20955217
19019,0,USIowaBuchanan,Iowa,Buchanan,2021-01-05 23:25:20.957131,2021-01-05 00:00:00.000000,2.14483291,3.94325542,6.29643505,454,834,1333,251,508,915,1.18706733,2.40337663,4.32503484,0.33311070,0.68265490,1.21370686
19019,0,USIowaBuchanan,Iowa,Buchanan,2021-01-05 23:25:20.957131,2021-01-06 00:00:00.000000,2.05521145,3.91667967,6.24797777,435,829,1323,240,501,889,1.13647777,2.36823658,4.20075045,0.31868332,0.68078162,1.21509488
19019,0,USIowaBuchanan,Iowa,Buchanan,2021-01-05 23:25:20.957131,2021-01-07 00:00:00.000000,1.96624256,3.83305641,6.02534274,416,811,1275,230,490,862,1.08674941,2.31862078,4.07415692,0.30718267,0.69155512,1.21549663
19019,0,USIowaBuchanan,Iowa,Buchanan,2021-01-05 23:25:20.957131,2021-01-08 00:00:00.000000,1.87900352,3.77436384,5.80601582,397,799,1229,219,485,854,1.03882405,2.29417429,4.03561290,0.30260335,0.69044796,1.21763175
19019,0,USIowaBuchanan,Iowa,Buchanan,2021-01-05 23:25:20.957131,2021-01-09 00:00:00.000000,1.83894460,3.71386970,5.73625655,389,786,1214,210,479,848,0.99230865,2.26496415,4.00740683,0.30230933,0.68987803,1.21843180
19019,0,USIowaBuchanan,Iowa,Buchanan,2021-01-05 23:25:20.957131,2021-01-10 00:00:00.000000,1.81217166,3.63794535,5.70614755,383,770,1208,206,467,831,0.97728107,2.20991549,3.92757421,0.30215467,0.68959333,1.21868919
19019,0,USIowaBuchanan,Iowa,Buchanan,2021-01-05 23:25:20.957131,2021-01-11 00:00:00.000000,1.78545586,3.51831901,5.66945541,378,745,1200,203,461,802,0.96325658,2.17776766,3.78825682,0.30206155,0.68945325,1.21877201
19019,0,USIowaBuchanan,Iowa,Buchanan,2021-01-05 23:25:20.957131,2021-01-12 00:00:00.000000,1.75880637,3.44489576,5.78156965,372,729,1224,201,454,773,0.94928128,2.14752921,3.65099516,0.30200047,0.68938484,1.21879877
19019,0,USIowaBuchanan,Iowa,Buchanan,2021-01-05 23:25:20.957131,2021-01-13 00:00:00.000000,1.73223409,3.34371593,5.82774690,366,708,1234,198,442,744,0.93535019,2.08853837,3.51604773,0.30195861,0.68935155,1.21880749
19019,0,USIowaBuchanan,Iowa,Buchanan,2021-01-05 23:25:20.957131,2021-01-14 00:00:00.000000,1.66472305,3.26483253,5.74833818,352,691,1217,195,435,738,0.92146267,2.05492014,3.48538951,0.30192935,0.68933538,1.21881037
19019,0,USIowaBuchanan,Iowa,Buchanan,2021-01-05 23:25:20.957131,2021-01-15 00:00:00.000000,1.58632080,3.21392083,5.66404838,335,680,1199,192,424,732,0.90762074,2.00577608,3.45836983,0.30190876,0.68932753,1.21881136
19019,0,USIowaBuchanan,Iowa,Buchanan,2021-01-05 23:25:20.957131,2021-01-16 00:00:00.000000,1.51115276,3.18295879,5.57523877,319,673,1180,184,417,731,0.87070056,1.97238365,3.45389252,0.30189423,0.68932372,1.21881172
19019,0,USIowaBuchanan,Iowa,Buchanan,2021-01-05 23:25:20.957131,2021-01-17 00:00:00.000000,1.43913635,3.09555107,5.48227698,304,655,1160,175,410,748,0.82984249,1.93907147,3.53642639,0.30188397,0.68932187,1.21881185
