FIPS,HR_UID,nameid,province,region,analysisTime,dates,pointprevalence_025,pointprevalence_50,pointprevalence_975,pointinfections_025,pointinfections_50,pointinfections_975,pointinfectious_025,pointinfectious_50,pointinfectious_975,pointinfectiousprevalence_05,pointinfectiousprevalence_50,pointinfectiousprevalence_95,infectrate_025,infectrate_50,infectrate_975
41065,0,USOregonWasco,Oregon,Wasco,2021-01-05 11:45:54.879093,2020-03-09 00:00:00.000000,0.00321639,0.01572929,0.05764947,0,4,15,0,2,8,0.00154555,0.00819890,0.03354107,0.38073132,0.53624577,0.74189233
41065,0,USOregonWasco,Oregon,Wasco,2021-01-05 11:45:54.879093,2020-03-10 00:00:00.000000,0.00358474,0.01684448,0.05874637,0,4,15,0,2,8,0.00161994,0.00806284,0.03035399,0.38073132,0.53624411,0.74151554
41065,0,USOregonWasco,Oregon,Wasco,2021-01-05 11:45:54.879093,2020-03-11 00:00:00.000000,0.00397990,0.01803826,0.06138874,1,4,16,0,2,7,0.00175081,0.00832414,0.02955901,0.38073131,0.53623875,0.74068544
41065,0,USOregonWasco,Oregon,Wasco,2021-01-05 11:45:54.879093,2020-03-12 00:00:00.000000,0.00441037,0.01932952,0.06610681,1,5,17,0,2,8,0.00191942,0.00876983,0.03039886,0.38073131,0.53621941,0.73886304
41065,0,USOregonWasco,Oregon,Wasco,2021-01-05 11:45:54.879093,2020-03-13 00:00:00.000000,0.00488289,0.02021661,0.07078908,1,5,18,0,2,8,0.00211729,0.00929803,0.03191037,0.38073129,0.53613775,0.73489424
41065,0,USOregonWasco,Oregon,Wasco,2021-01-05 11:45:54.879093,2020-03-14 00:00:00.000000,0.00540352,0.02184684,0.07496103,1,5,20,0,2,9,0.00234127,0.00989465,0.03383656,0.38073127,0.53572902,0.72640327
41065,0,USOregonWasco,Oregon,Wasco,2021-01-05 11:45:54.879093,2020-03-15 00:00:00.000000,0.00597826,0.02357344,0.07678798,1,6,20,0,2,9,0.00259110,0.01042283,0.03601673,0.38073119,0.53533580,0.72431895
41065,0,USOregonWasco,Oregon,Wasco,2021-01-05 11:45:54.879093,2020-03-16 00:00:00.000000,0.01036469,0.03244772,0.08417567,2,8,22,0,2,10,0.00286807,0.01091599,0.03834208,0.38073098,0.53234246,0.72422622
41065,0,USOregonWasco,Oregon,Wasco,2021-01-05 11:45:54.879093,2020-03-17 00:00:00.000000,0.01519926,0.03994776,0.09160233,4,10,24,1,3,10,0.00382617,0.01269411,0.04111947,0.35159273,0.52850414,0.72406542
41065,0,USOregonWasco,Oregon,Wasco,2021-01-05 11:45:54.879093,2020-03-18 00:00:00.000000,0.01911216,0.04845998,0.09937325,5,12,26,1,4,11,0.00599642,0.01609153,0.04426743,0.33430411,0.51673686,0.72377612
41065,0,USOregonWasco,Oregon,Wasco,2021-01-05 11:45:54.879093,2020-03-19 00:00:00.000000,0.02329673,0.05696790,0.10731772,6,15,28,1,5,12,0.00738402,0.01972095,0.04788418,0.30841317,0.50553502,0.72258871
41065,0,USOregonWasco,Oregon,Wasco,2021-01-05 11:45:54.879093,2020-03-20 00:00:00.000000,0.02776893,0.06557208,0.11497277,7,17,30,2,6,13,0.00954264,0.02379164,0.05176428,0.30379371,0.48943310,0.70185596
41065,0,USOregonWasco,Oregon,Wasco,2021-01-05 11:45:54.879093,2020-03-21 00:00:00.000000,0.03250361,0.07501089,0.12863675,8,20,34,3,7,14,0.01157608,0.02821658,0.05591378,0.28854997,0.46607537,0.67686310
41065,0,USOregonWasco,Oregon,Wasco,2021-01-05 11:45:54.879093,2020-03-22 00:00:00.000000,0.03738681,0.08444656,0.14992209,9,22,40,3,8,16,0.01376042,0.03198245,0.06289333,0.28444724,0.45588488,0.65091218
41065,0,USOregonWasco,Oregon,Wasco,2021-01-05 11:45:54.879093,2020-03-23 00:00:00.000000,0.04516235,0.09348785,0.15692960,12,24,41,4,9,18,0.01573912,0.03664028,0.06855342,0.28369594,0.44104550,0.62612139
41065,0,USOregonWasco,Oregon,Wasco,2021-01-05 11:45:54.879093,2020-03-24 00:00:00.000000,0.05266496,0.10142228,0.16338615,14,27,43,4,10,19,0.01794936,0.04057189,0.07255169,0.28351562,0.41794802,0.59554480
41065,0,USOregonWasco,Oregon,Wasco,2021-01-05 11:45:54.879093,2020-03-25 00:00:00.000000,0.05812401,0.10936582,0.17320201,15,29,46,5,11,20,0.02244545,0.04453223,0.07650938,0.28057345,0.40144539,0.54691952
41065,0,USOregonWasco,Oregon,Wasco,2021-01-05 11:45:54.879093,2020-03-26 00:00:00.000000,0.06311747,0.11926570,0.19664456,16,31,52,6,13,21,0.02594001,0.04887358,0.08199923,0.27666221,0.38188883,0.53629380
41065,0,USOregonWasco,Oregon,Wasco,2021-01-05 11:45:54.879093,2020-03-27 00:00:00.000000,0.06728114,0.12569165,0.20788029,17,33,55,7,14,23,0.02846682,0.05348384,0.08769577,0.26461054,0.35245190,0.52289883
41065,0,USOregonWasco,Oregon,Wasco,2021-01-05 11:45:54.879093,2020-03-28 00:00:00.000000,0.06993969,0.13168925,0.21842591,18,35,58,7,15,24,0.02965232,0.05780273,0.09143418,0.24028598,0.32864174,0.48845387
41065,0,USOregonWasco,Oregon,Wasco,2021-01-05 11:45:54.879093,2020-03-29 00:00:00.000000,0.07402959,0.14023168,0.22795266,19,37,60,8,16,26,0.03103330,0.06193930,0.09827664,0.22883162,0.31637046,0.46826014
41065,0,USOregonWasco,Oregon,Wasco,2021-01-05 11:45:54.879093,2020-03-30 00:00:00.000000,0.08032780,0.14730571,0.23306667,21,39,62,8,17,28,0.03366550,0.06647970,0.10591285,0.22946115,0.30496330,0.46016812
41065,0,USOregonWasco,Oregon,Wasco,2021-01-05 11:45:54.879093,2020-03-31 00:00:00.000000,0.08680173,0.15449522,0.23966364,23,41,63,9,18,30,0.03636309,0.07114860,0.11248303,0.23106225,0.29824672,0.44983699
41065,0,USOregonWasco,Oregon,Wasco,2021-01-05 11:45:54.879093,2020-04-01 00:00:00.000000,0.08877895,0.16840407,0.24777589,23,44,66,10,19,31,0.03900382,0.07479595,0.11846068,0.22028729,0.29610790,0.44849690
41065,0,USOregonWasco,Oregon,Wasco,2021-01-05 11:45:54.879093,2020-04-02 00:00:00.000000,0.09452328,0.17635596,0.25284025,25,47,67,11,20,33,0.04164598,0.07821135,0.12409490,0.20557157,0.29394730,0.44533688
41065,0,USOregonWasco,Oregon,Wasco,2021-01-05 11:45:54.879093,2020-04-03 00:00:00.000000,0.09654370,0.18162216,0.25723125,25,48,68,11,21,34,0.04399514,0.08155681,0.12949191,0.19898879,0.28941222,0.43718968
41065,0,USOregonWasco,Oregon,Wasco,2021-01-05 11:45:54.879093,2020-04-04 00:00:00.000000,0.09815031,0.18531829,0.27430208,26,49,73,11,22,36,0.04422041,0.08420765,0.13492657,0.19573230,0.28305503,0.43150440
41065,0,USOregonWasco,Oregon,Wasco,2021-01-05 11:45:54.879093,2020-04-05 00:00:00.000000,0.09987845,0.19025921,0.29207999,26,50,77,11,23,37,0.04440559,0.08767296,0.14228715,0.19296051,0.27774333,0.40336059
41065,0,USOregonWasco,Oregon,Wasco,2021-01-05 11:45:54.879093,2020-04-06 00:00:00.000000,0.10466409,0.19066872,0.30156102,27,50,80,11,23,40,0.04455383,0.08912445,0.15244172,0.18577869,0.27288982,0.36990170
41065,0,USOregonWasco,Oregon,Wasco,2021-01-05 11:45:54.879093,2020-04-07 00:00:00.000000,0.10616851,0.19433889,0.31082946,28,51,82,11,24,41,0.04468455,0.09191791,0.15512560,0.17280996,0.26308782,0.35186351
41065,0,USOregonWasco,Oregon,Wasco,2021-01-05 11:45:54.879093,2020-04-08 00:00:00.000000,0.10624208,0.19713285,0.31999833,28,52,85,11,25,41,0.04478267,0.09577823,0.15676975,0.16442260,0.25411442,0.34266464
41065,0,USOregonWasco,Oregon,Wasco,2021-01-05 11:45:54.879093,2020-04-09 00:00:00.000000,0.10961147,0.19876327,0.32794892,29,53,87,12,25,43,0.04523706,0.09696768,0.16385748,0.16270355,0.24865757,0.33637330
41065,0,USOregonWasco,Oregon,Wasco,2021-01-05 11:45:54.879093,2020-04-10 00:00:00.000000,0.11340244,0.19774598,0.33401224,30,52,89,12,25,46,0.04641519,0.09689151,0.17324465,0.16003551,0.23943447,0.32768915
41065,0,USOregonWasco,Oregon,Wasco,2021-01-05 11:45:54.879093,2020-04-11 00:00:00.000000,0.11705171,0.19981488,0.33970098,31,53,90,12,25,48,0.04808958,0.09714696,0.18248655,0.15529732,0.23889224,0.32052288
41065,0,USOregonWasco,Oregon,Wasco,2021-01-05 11:45:54.879093,2020-04-12 00:00:00.000000,0.11373263,0.20315933,0.35380295,30,54,94,13,26,49,0.04973526,0.09876661,0.18706132,0.14499919,0.23215335,0.32397636
41065,0,USOregonWasco,Oregon,Wasco,2021-01-05 11:45:54.879093,2020-04-13 00:00:00.000000,0.11421784,0.20619310,0.35389673,30,55,94,13,26,51,0.05133239,0.10056345,0.19133106,0.13820107,0.23047347,0.32104487
41065,0,USOregonWasco,Oregon,Wasco,2021-01-05 11:45:54.879093,2020-04-14 00:00:00.000000,0.11455182,0.21170082,0.35649271,30,56,95,14,26,53,0.05257628,0.10046240,0.19866645,0.13334570,0.22999869,0.32029628
41065,0,USOregonWasco,Oregon,Wasco,2021-01-05 11:45:54.879093,2020-04-15 00:00:00.000000,0.11492061,0.21231784,0.36336906,30,56,96,14,27,52,0.05358373,0.10151178,0.19718840,0.13339549,0.22933081,0.32269602
41065,0,USOregonWasco,Oregon,Wasco,2021-01-05 11:45:54.879093,2020-04-16 00:00:00.000000,0.11532729,0.21355423,0.37020532,30,56,98,14,27,53,0.05442962,0.10248409,0.20087934,0.13257138,0.22604510,0.32108344
41065,0,USOregonWasco,Oregon,Wasco,2021-01-05 11:45:54.879093,2020-04-17 00:00:00.000000,0.11611854,0.21560810,0.37697700,30,57,100,14,27,54,0.05516240,0.10454151,0.20458997,0.13052760,0.21670412,0.32082250
41065,0,USOregonWasco,Oregon,Wasco,2021-01-05 11:45:54.879093,2020-04-18 00:00:00.000000,0.11824665,0.21858517,0.38342700,31,58,102,14,27,55,0.05581401,0.10486544,0.20805229,0.13110560,0.21303252,0.33112854
41065,0,USOregonWasco,Oregon,Wasco,2021-01-05 11:45:54.879093,2020-04-19 00:00:00.000000,0.12080725,0.21760113,0.38817461,32,58,103,15,28,55,0.05640712,0.10665312,0.20792040,0.13007119,0.21157271,0.34018176
41065,0,USOregonWasco,Oregon,Wasco,2021-01-05 11:45:54.879093,2020-04-20 00:00:00.000000,0.11921596,0.21949961,0.40443548,31,58,107,15,29,55,0.05696202,0.10907179,0.20734371,0.12945933,0.21107223,0.32938048
41065,0,USOregonWasco,Oregon,Wasco,2021-01-05 11:45:54.879093,2020-04-21 00:00:00.000000,0.11659626,0.22241834,0.41523400,31,59,110,15,29,54,0.05626350,0.10914078,0.20608894,0.12930705,0.20759242,0.32998874
41065,0,USOregonWasco,Oregon,Wasco,2021-01-05 11:45:54.879093,2020-04-22 00:00:00.000000,0.11405600,0.22323275,0.40866193,30,59,109,14,29,54,0.05527063,0.11020078,0.20432474,0.12954089,0.20855735,0.32901442
41065,0,USOregonWasco,Oregon,Wasco,2021-01-05 11:45:54.879093,2020-04-23 00:00:00.000000,0.11163575,0.22274387,0.40584600,29,59,108,14,29,53,0.05446731,0.11095958,0.20213045,0.13073336,0.20873026,0.33231218
41065,0,USOregonWasco,Oregon,Wasco,2021-01-05 11:45:54.879093,2020-04-24 00:00:00.000000,0.11376888,0.22445484,0.40365020,30,59,107,14,29,54,0.05379564,0.11141740,0.20297304,0.13442834,0.21102872,0.33983601
41065,0,USOregonWasco,Oregon,Wasco,2021-01-05 11:45:54.879093,2020-04-25 00:00:00.000000,0.11711540,0.22431959,0.39830379,31,59,106,14,29,54,0.05285997,0.11119022,0.20522025,0.14048538,0.21250800,0.33493762
41065,0,USOregonWasco,Oregon,Wasco,2021-01-05 11:45:54.879093,2020-04-26 00:00:00.000000,0.11663966,0.22366518,0.39412733,31,59,105,13,30,56,0.05232410,0.11264037,0.21259863,0.14658649,0.21248072,0.32970312
41065,0,USOregonWasco,Oregon,Wasco,2021-01-05 11:45:54.879093,2020-04-27 00:00:00.000000,0.11616902,0.22360058,0.40189841,30,59,107,13,30,58,0.05214783,0.11301255,0.22046945,0.14658551,0.21272780,0.33758723
41065,0,USOregonWasco,Oregon,Wasco,2021-01-05 11:45:54.879093,2020-04-28 00:00:00.000000,0.12021365,0.22470040,0.40989958,32,59,109,13,30,60,0.05039856,0.11387090,0.22723898,0.14653964,0.21336321,0.33280305
41065,0,USOregonWasco,Oregon,Wasco,2021-01-05 11:45:54.879093,2020-04-29 00:00:00.000000,0.12271349,0.22240712,0.41787042,32,59,111,13,30,62,0.05050831,0.11256289,0.23240105,0.14659637,0.21413818,0.33363630
41065,0,USOregonWasco,Oregon,Wasco,2021-01-05 11:45:54.879093,2020-04-30 00:00:00.000000,0.12563280,0.22086161,0.42242132,33,58,112,13,29,61,0.05109662,0.11150760,0.23028461,0.14683705,0.21924161,0.33393334
41065,0,USOregonWasco,Oregon,Wasco,2021-01-05 11:45:54.879093,2020-05-01 00:00:00.000000,0.12883586,0.22629770,0.41920089,34,60,111,13,29,60,0.05224787,0.11182551,0.22821878,0.14771596,0.22677067,0.33378060
41065,0,USOregonWasco,Oregon,Wasco,2021-01-05 11:45:54.879093,2020-05-02 00:00:00.000000,0.12367827,0.22570401,0.42078077,32,60,112,14,30,60,0.05425610,0.11387736,0.22593240,0.14736779,0.22731089,0.33954663
41065,0,USOregonWasco,Oregon,Wasco,2021-01-05 11:45:54.879093,2020-05-03 00:00:00.000000,0.11896981,0.22544836,0.44097619,31,60,117,15,30,59,0.05636071,0.11373674,0.22297716,0.15478898,0.22784391,0.34372254
41065,0,USOregonWasco,Oregon,Wasco,2021-01-05 11:45:54.879093,2020-05-04 00:00:00.000000,0.11811754,0.23069914,0.44782629,31,61,119,15,30,58,0.05851827,0.11507375,0.21936587,0.15899410,0.23044840,0.34733019
41065,0,USOregonWasco,Oregon,Wasco,2021-01-05 11:45:54.879093,2020-05-05 00:00:00.000000,0.11859160,0.23090043,0.45272435,31,61,120,15,30,57,0.05897287,0.11454664,0.21599084,0.15988628,0.23132723,0.35199620
41065,0,USOregonWasco,Oregon,Wasco,2021-01-05 11:45:54.879093,2020-05-06 00:00:00.000000,0.12007783,0.23652164,0.45515561,32,63,121,15,30,56,0.05885160,0.11608365,0.21303397,0.16013484,0.23488665,0.35995522
41065,0,USOregonWasco,Oregon,Wasco,2021-01-05 11:45:54.879093,2020-05-07 00:00:00.000000,0.12196121,0.24322639,0.45597115,32,64,121,15,31,58,0.05931094,0.11848524,0.21855440,0.16093011,0.23841634,0.35490310
41065,0,USOregonWasco,Oregon,Wasco,2021-01-05 11:45:54.879093,2020-05-08 00:00:00.000000,0.12410083,0.24756059,0.46802445,33,66,124,16,32,60,0.06009095,0.12290470,0.22541742,0.16234026,0.24350764,0.35422058
41065,0,USOregonWasco,Oregon,Wasco,2021-01-05 11:45:54.879093,2020-05-09 00:00:00.000000,0.12643599,0.24915929,0.47184035,33,66,125,16,33,62,0.06078480,0.12640193,0.23249574,0.16344607,0.25002880,0.35202803
41065,0,USOregonWasco,Oregon,Wasco,2021-01-05 11:45:54.879093,2020-05-10 00:00:00.000000,0.12498113,0.25262258,0.47345803,33,67,126,15,34,63,0.05982271,0.12986011,0.23954505,0.16656018,0.25140882,0.35307884
41065,0,USOregonWasco,Oregon,Wasco,2021-01-05 11:45:54.879093,2020-05-11 00:00:00.000000,0.12505649,0.25819303,0.47941659,33,68,127,15,35,65,0.05903076,0.13364414,0.24639989,0.16786913,0.25580850,0.36671416
41065,0,USOregonWasco,Oregon,Wasco,2021-01-05 11:45:54.879093,2020-05-12 00:00:00.000000,0.12699270,0.26397774,0.48556393,33,70,129,15,35,67,0.05959854,0.13370840,0.25161053,0.16801655,0.25971468,0.38063373
41065,0,USOregonWasco,Oregon,Wasco,2021-01-05 11:45:54.879093,2020-05-13 00:00:00.000000,0.13457524,0.26751284,0.49177310,35,71,131,16,35,68,0.06117239,0.13152357,0.25572940,0.16842310,0.26319318,0.38604781
41065,0,USOregonWasco,Oregon,Wasco,2021-01-05 11:45:54.879093,2020-05-14 00:00:00.000000,0.14240342,0.26953475,0.49790295,37,71,132,16,35,69,0.06276623,0.13253859,0.25913064,0.16963605,0.26984512,0.39147303
41065,0,USOregonWasco,Oregon,Wasco,2021-01-05 11:45:54.879093,2020-05-15 00:00:00.000000,0.14245106,0.26861002,0.50391272,38,71,134,17,36,69,0.06525786,0.13569551,0.26206328,0.17452654,0.27725407,0.39551598
41065,0,USOregonWasco,Oregon,Wasco,2021-01-05 11:45:54.879093,2020-05-16 00:00:00.000000,0.14267292,0.26745374,0.50980475,38,71,136,18,37,70,0.06894450,0.13912058,0.26468263,0.17439754,0.27940080,0.40185102
41065,0,USOregonWasco,Oregon,Wasco,2021-01-05 11:45:54.879093,2020-05-17 00:00:00.000000,0.14377085,0.26799297,0.52045570,38,71,138,19,37,71,0.07271362,0.14131811,0.26706232,0.17797464,0.28190076,0.41378818
41065,0,USOregonWasco,Oregon,Wasco,2021-01-05 11:45:54.879093,2020-05-18 00:00:00.000000,0.14565419,0.27589967,0.53082589,38,73,141,20,38,71,0.07643632,0.14349067,0.26922769,0.17853567,0.28464507,0.45312621
41065,0,USOregonWasco,Oregon,Wasco,2021-01-05 11:45:54.879093,2020-05-19 00:00:00.000000,0.14829338,0.28557881,0.53352827,39,76,142,21,38,72,0.07896999,0.14573919,0.27103186,0.17865677,0.28705729,0.46783404
41065,0,USOregonWasco,Oregon,Wasco,2021-01-05 11:45:54.879093,2020-05-20 00:00:00.000000,0.15608730,0.30104327,0.53857250,41,80,143,21,39,73,0.08217660,0.14809000,0.27451007,0.17893645,0.28954078,0.47146374
41065,0,USOregonWasco,Oregon,Wasco,2021-01-05 11:45:54.879093,2020-05-21 00:00:00.000000,0.16401501,0.31351514,0.54642253,43,83,145,22,39,75,0.08348529,0.14901571,0.28198003,0.17971884,0.29590691,0.47179029
41065,0,USOregonWasco,Oregon,Wasco,2021-01-05 11:45:54.879093,2020-05-22 00:00:00.000000,0.16670296,0.33040209,0.55451952,44,88,147,22,40,77,0.08465644,0.15248428,0.28899719,0.18269275,0.31058315,0.47142320
41065,0,USOregonWasco,Oregon,Wasco,2021-01-05 11:45:54.879093,2020-05-23 00:00:00.000000,0.16608061,0.33840674,0.56255563,44,90,150,22,42,78,0.08601664,0.16008181,0.29546528,0.19472206,0.31436480,0.47107334
41065,0,USOregonWasco,Oregon,Wasco,2021-01-05 11:45:54.879093,2020-05-24 00:00:00.000000,0.16455470,0.34778392,0.58244537,43,92,155,23,44,80,0.08760710,0.16647743,0.30128433,0.19907292,0.32392548,0.47349360
41065,0,USOregonWasco,Oregon,Wasco,2021-01-05 11:45:54.879093,2020-05-25 00:00:00.000000,0.17540750,0.35628723,0.62003914,46,95,165,24,46,81,0.09037302,0.17337228,0.30650271,0.20549334,0.33263363,0.47966167
41065,0,USOregonWasco,Oregon,Wasco,2021-01-05 11:45:54.879093,2020-05-26 00:00:00.000000,0.17868800,0.36913926,0.66179401,47,98,176,25,48,84,0.09375097,0.18034180,0.31735924,0.21063189,0.34505662,0.48132418
41065,0,USOregonWasco,Oregon,Wasco,2021-01-05 11:45:54.879093,2020-05-27 00:00:00.000000,0.18366385,0.37840684,0.70714933,49,100,188,25,49,86,0.09699415,0.18520116,0.32438019,0.21390287,0.35324460,0.49646536
41065,0,USOregonWasco,Oregon,Wasco,2021-01-05 11:45:54.879093,2020-05-28 00:00:00.000000,0.19064567,0.39601015,0.75559316,50,105,201,26,50,87,0.09962699,0.19070170,0.32779534,0.21614918,0.36207508,0.49970720
41065,0,USOregonWasco,Oregon,Wasco,2021-01-05 11:45:54.879093,2020-05-29 00:00:00.000000,0.19797030,0.41425584,0.79881441,52,110,213,27,52,89,0.10211725,0.19743953,0.33719082,0.21973983,0.36375370,0.50256270
41065,0,USOregonWasco,Oregon,Wasco,2021-01-05 11:45:54.879093,2020-05-30 00:00:00.000000,0.20626721,0.43239538,0.82697363,55,115,220,27,54,94,0.10451435,0.20586999,0.35333155,0.23299976,0.36495948,0.50503298
41065,0,USOregonWasco,Oregon,Wasco,2021-01-05 11:45:54.879093,2020-05-31 00:00:00.000000,0.21717225,0.44919830,0.85487616,57,119,228,28,57,100,0.10686149,0.21560189,0.37689524,0.24611161,0.37021817,0.50726306
41065,0,USOregonWasco,Oregon,Wasco,2021-01-05 11:45:54.879093,2020-06-01 00:00:00.000000,0.22851249,0.45948197,0.88378901,60,122,235,29,59,106,0.10926619,0.22136066,0.39878967,0.25473696,0.38224353,0.50997694
41065,0,USOregonWasco,Oregon,Wasco,2021-01-05 11:45:54.879093,2020-06-02 00:00:00.000000,0.23748105,0.46965028,0.91316050,63,125,243,29,60,110,0.11193806,0.22795966,0.41290375,0.26226332,0.38891758,0.51313031
41065,0,USOregonWasco,Oregon,Wasco,2021-01-05 11:45:54.879093,2020-06-03 00:00:00.000000,0.24984460,0.48083871,0.94336656,66,128,251,30,62,113,0.11556147,0.23589677,0.42710510,0.27139618,0.40273187,0.55297557
41065,0,USOregonWasco,Oregon,Wasco,2021-01-05 11:45:54.879093,2020-06-04 00:00:00.000000,0.26451790,0.49805984,0.97517148,70,132,260,32,65,117,0.12132431,0.24601610,0.44150905,0.27464811,0.40258519,0.57056147
41065,0,USOregonWasco,Oregon,Wasco,2021-01-05 11:45:54.879093,2020-06-05 00:00:00.000000,0.28276641,0.52851574,1.00991209,75,141,269,34,67,121,0.12928297,0.25483948,0.45442810,0.27771948,0.40544692,0.58250481
41065,0,USOregonWasco,Oregon,Wasco,2021-01-05 11:45:54.879093,2020-06-06 00:00:00.000000,0.30438679,0.55530270,1.03648548,81,148,276,37,70,123,0.13877083,0.26250540,0.46300482,0.27955160,0.40891302,0.58495751
41065,0,USOregonWasco,Oregon,Wasco,2021-01-05 11:45:54.879093,2020-06-07 00:00:00.000000,0.31794705,0.58330756,1.05383736,84,155,281,38,72,125,0.14485725,0.26990675,0.47124755,0.28055235,0.40607423,0.58602471
41065,0,USOregonWasco,Oregon,Wasco,2021-01-05 11:45:54.879093,2020-06-08 00:00:00.000000,0.32478086,0.62282851,1.09091663,86,166,291,40,75,127,0.15280578,0.28385237,0.47939701,0.28054372,0.41868435,0.59252171
41065,0,USOregonWasco,Oregon,Wasco,2021-01-05 11:45:54.879093,2020-06-09 00:00:00.000000,0.33925253,0.65191442,1.14009534,90,173,304,41,79,133,0.15622747,0.29612361,0.49857631,0.28590000,0.42228270,0.61502239
41065,0,USOregonWasco,Oregon,Wasco,2021-01-05 11:45:54.879093,2020-06-10 00:00:00.000000,0.37475505,0.67722668,1.17548536,99,180,313,42,82,140,0.15910232,0.30958929,0.52807668,0.29176967,0.42973621,0.64238838
41065,0,USOregonWasco,Oregon,Wasco,2021-01-05 11:45:54.879093,2020-06-11 00:00:00.000000,0.40914027,0.70110613,1.22832356,109,187,327,43,86,149,0.16262522,0.32437457,0.56136557,0.29814220,0.43373328,0.66501722
41065,0,USOregonWasco,Oregon,Wasco,2021-01-05 11:45:54.879093,2020-06-12 00:00:00.000000,0.42369776,0.73272435,1.30781594,113,195,348,46,90,157,0.17345998,0.33949721,0.59193617,0.30538617,0.44523003,0.67644187
41065,0,USOregonWasco,Oregon,Wasco,2021-01-05 11:45:54.879093,2020-06-13 00:00:00.000000,0.43962019,0.78165856,1.37383645,117,208,366,50,94,164,0.19061133,0.35506149,0.61576713,0.31347116,0.45013774,0.68066152
41065,0,USOregonWasco,Oregon,Wasco,2021-01-05 11:45:54.879093,2020-06-14 00:00:00.000000,0.45703175,0.81651478,1.43046232,121,217,381,55,99,170,0.20690396,0.37113481,0.64039839,0.31722816,0.45282987,0.68188163
41065,0,USOregonWasco,Oregon,Wasco,2021-01-05 11:45:54.879093,2020-06-15 00:00:00.000000,0.50363093,0.85426756,1.49120302,134,227,397,56,102,177,0.21155478,0.38376384,0.66682594,0.31989005,0.44791293,0.64926726
41065,0,USOregonWasco,Oregon,Wasco,2021-01-05 11:45:54.879093,2020-06-16 00:00:00.000000,0.54174643,0.89306843,1.55201266,144,238,414,58,106,188,0.21866236,0.40042649,0.70615636,0.31973177,0.44410820,0.64424557
41065,0,USOregonWasco,Oregon,Wasco,2021-01-05 11:45:54.879093,2020-06-17 00:00:00.000000,0.57155102,0.92923215,1.63433706,152,247,436,61,112,198,0.23032824,0.42243926,0.74516456,0.32008991,0.44516021,0.63396390
41065,0,USOregonWasco,Oregon,Wasco,2021-01-05 11:45:54.879093,2020-06-18 00:00:00.000000,0.59097445,0.96882387,1.72575793,157,258,460,67,118,209,0.25462678,0.44542939,0.78413090,0.32594486,0.44784938,0.63200083
41065,0,USOregonWasco,Oregon,Wasco,2021-01-05 11:45:54.879093,2020-06-19 00:00:00.000000,0.61124720,1.01038120,1.79745711,163,269,479,70,124,219,0.26593479,0.46711756,0.82352761,0.33465232,0.44982598,0.63577478
41065,0,USOregonWasco,Oregon,Wasco,2021-01-05 11:45:54.879093,2020-06-20 00:00:00.000000,0.63277417,1.05149200,1.85905869,168,280,496,72,129,230,0.27343665,0.48635220,0.86335350,0.33477174,0.45050821,0.63561290
41065,0,USOregonWasco,Oregon,Wasco,2021-01-05 11:45:54.879093,2020-06-21 00:00:00.000000,0.65607542,1.10374880,1.92026700,175,294,512,75,135,236,0.28279792,0.50607972,0.88625627,0.33529745,0.45583308,0.62669208
41065,0,USOregonWasco,Oregon,Wasco,2021-01-05 11:45:54.879093,2020-06-22 00:00:00.000000,0.70108030,1.15569286,1.98235514,187,308,528,78,140,242,0.29566355,0.52773899,0.91044024,0.33729855,0.46520276,0.62422468
41065,0,USOregonWasco,Oregon,Wasco,2021-01-05 11:45:54.879093,2020-06-23 00:00:00.000000,0.76736809,1.21743774,2.05644038,204,324,548,84,147,255,0.31654464,0.55290174,0.95617998,0.33221182,0.46226703,0.61375511
41065,0,USOregonWasco,Oregon,Wasco,2021-01-05 11:45:54.879093,2020-06-24 00:00:00.000000,0.83332259,1.28347234,2.14323457,222,342,571,91,156,267,0.34433664,0.58546268,1.00211750,0.32985894,0.45667912,0.60814537
41065,0,USOregonWasco,Oregon,Wasco,2021-01-05 11:45:54.879093,2020-06-25 00:00:00.000000,0.87233306,1.32869392,2.22944610,232,354,594,100,163,279,0.37586569,0.61254084,1.04673006,0.32914959,0.44904665,0.62068039
41065,0,USOregonWasco,Oregon,Wasco,2021-01-05 11:45:54.879093,2020-06-26 00:00:00.000000,0.91114830,1.38104845,2.31807044,243,368,618,106,171,290,0.40079196,0.64149271,1.08891808,0.32450964,0.43916134,0.60629571
41065,0,USOregonWasco,Oregon,Wasco,2021-01-05 11:45:54.879093,2020-06-27 00:00:00.000000,0.94856656,1.44218345,2.42222609,253,384,646,111,177,301,0.41673943,0.66626557,1.13103341,0.32326317,0.42433769,0.60320959
41065,0,USOregonWasco,Oregon,Wasco,2021-01-05 11:45:54.879093,2020-06-28 00:00:00.000000,0.98292762,1.46911991,2.50305645,262,391,667,115,183,310,0.43327639,0.68831167,1.16341690,0.30402600,0.41392573,0.59840180
41065,0,USOregonWasco,Oregon,Wasco,2021-01-05 11:45:54.879093,2020-06-29 00:00:00.000000,1.02958763,1.50198439,2.51515104,274,400,671,120,190,324,0.45014869,0.71551948,1.21776299,0.28365907,0.40164395,0.59018478
41065,0,USOregonWasco,Oregon,Wasco,2021-01-05 11:45:54.879093,2020-06-30 00:00:00.000000,1.06967508,1.53707734,2.57031038,285,410,685,125,200,334,0.46880701,0.75036461,1.25215264,0.27346202,0.39135159,0.58083526
41065,0,USOregonWasco,Oregon,Wasco,2021-01-05 11:45:54.879093,2020-07-01 00:00:00.000000,1.08114678,1.57862957,2.62011930,288,421,699,130,206,336,0.48801312,0.77239514,1.26112018,0.27016087,0.38263919,0.56730561
41065,0,USOregonWasco,Oregon,Wasco,2021-01-05 11:45:54.879093,2020-07-02 00:00:00.000000,1.10942141,1.62994676,2.65999987,296,434,709,135,212,342,0.50673819,0.79460342,1.28260415,0.26886110,0.37718480,0.53263229
41065,0,USOregonWasco,Oregon,Wasco,2021-01-05 11:45:54.879093,2020-07-03 00:00:00.000000,1.15221142,1.67057707,2.68551625,307,445,716,139,216,350,0.52417378,0.80957997,1.31252138,0.26228155,0.36258346,0.51091395
41065,0,USOregonWasco,Oregon,Wasco,2021-01-05 11:45:54.879093,2020-07-04 00:00:00.000000,1.16126099,1.71403559,2.72506877,309,457,727,144,221,357,0.53989340,0.82846924,1.33815736,0.25923351,0.35313944,0.49313907
41065,0,USOregonWasco,Oregon,Wasco,2021-01-05 11:45:54.879093,2020-07-05 00:00:00.000000,1.16892816,1.72571875,2.79900966,311,460,746,147,225,362,0.55388187,0.84448683,1.35942426,0.24840251,0.34124218,0.48563741
41065,0,USOregonWasco,Oregon,Wasco,2021-01-05 11:45:54.879093,2020-07-06 00:00:00.000000,1.16855802,1.73986396,2.85088514,311,464,760,151,226,376,0.56635944,0.84804573,1.41211221,0.23939356,0.33186371,0.48576905
41065,0,USOregonWasco,Oregon,Wasco,2021-01-05 11:45:54.879093,2020-07-07 00:00:00.000000,1.16796352,1.79151498,2.88982500,311,478,771,152,229,388,0.57017746,0.86143015,1.45708085,0.23446973,0.32382612,0.48583225
41065,0,USOregonWasco,Oregon,Wasco,2021-01-05 11:45:54.879093,2020-07-08 00:00:00.000000,1.16600010,1.81028529,2.86633667,311,483,764,152,232,398,0.56993461,0.87011735,1.49252810,0.21407619,0.31766103,0.48543192
41065,0,USOregonWasco,Oregon,Wasco,2021-01-05 11:45:54.879093,2020-07-09 00:00:00.000000,1.16145054,1.80610671,2.82347928,309,481,753,149,233,405,0.56140331,0.87397502,1.52073849,0.21272257,0.31329740,0.48095362
41065,0,USOregonWasco,Oregon,Wasco,2021-01-05 11:45:54.879093,2020-07-10 00:00:00.000000,1.15183128,1.78791326,2.79814856,307,477,746,147,236,408,0.55209453,0.88545661,1.53105927,0.20480734,0.30482099,0.45103024
41065,0,USOregonWasco,Oregon,Wasco,2021-01-05 11:45:54.879093,2020-07-11 00:00:00.000000,1.14007898,1.78049852,2.78831241,304,475,743,144,241,403,0.54299385,0.90631390,1.51145399,0.19610429,0.28769713,0.42334533
41065,0,USOregonWasco,Oregon,Wasco,2021-01-05 11:45:54.879093,2020-07-12 00:00:00.000000,1.12604857,1.77488664,2.73305320,300,473,729,142,242,396,0.53531277,0.90848271,1.48676236,0.19445626,0.28845147,0.42106121
41065,0,USOregonWasco,Oregon,Wasco,2021-01-05 11:45:54.879093,2020-07-13 00:00:00.000000,1.11261004,1.76135264,2.67002004,296,469,712,141,242,391,0.52991224,0.90929192,1.46688081,0.19430358,0.28670271,0.41944563
41065,0,USOregonWasco,Oregon,Wasco,2021-01-05 11:45:54.879093,2020-07-14 00:00:00.000000,1.10167307,1.74793983,2.62287299,293,466,699,140,243,390,0.52535984,0.91430788,1.46306388,0.19388337,0.28260467,0.41609156
41065,0,USOregonWasco,Oregon,Wasco,2021-01-05 11:45:54.879093,2020-07-15 00:00:00.000000,1.10759575,1.72505860,2.56113425,295,460,683,140,242,383,0.52785918,0.91005998,1.43789962,0.19259942,0.28082688,0.40714960
41065,0,USOregonWasco,Oregon,Wasco,2021-01-05 11:45:54.879093,2020-07-16 00:00:00.000000,1.10604609,1.70889341,2.49954638,295,455,666,141,240,375,0.53059540,0.89956625,1.40874829,0.19225540,0.28078615,0.39310043
41065,0,USOregonWasco,Oregon,Wasco,2021-01-05 11:45:54.879093,2020-07-17 00:00:00.000000,1.09875923,1.68493235,2.46145434,293,449,656,142,237,367,0.53332304,0.89022754,1.37830626,0.18899066,0.28014234,0.39165747
41065,0,USOregonWasco,Oregon,Wasco,2021-01-05 11:45:54.879093,2020-07-18 00:00:00.000000,1.07765137,1.66534344,2.42976263,287,444,648,140,238,364,0.52680422,0.89416425,1.36692411,0.18808060,0.27826053,0.39071814
41065,0,USOregonWasco,Oregon,Wasco,2021-01-05 11:45:54.879093,2020-07-19 00:00:00.000000,1.05770305,1.65057167,2.35567195,282,440,628,137,237,366,0.51414249,0.89107516,1.37330941,0.18684847,0.27342393,0.39008714
41065,0,USOregonWasco,Oregon,Wasco,2021-01-05 11:45:54.879093,2020-07-20 00:00:00.000000,1.04805433,1.64169387,2.31241376,279,438,616,131,232,357,0.49236983,0.87281599,1.34017923,0.18171087,0.27251580,0.38039550
41065,0,USOregonWasco,Oregon,Wasco,2021-01-05 11:45:54.879093,2020-07-21 00:00:00.000000,1.02377155,1.64120612,2.28733803,273,437,610,128,230,348,0.48322591,0.86267282,1.30471103,0.17889156,0.27510777,0.37871140
41065,0,USOregonWasco,Oregon,Wasco,2021-01-05 11:45:54.879093,2020-07-22 00:00:00.000000,1.00573469,1.65137691,2.26707899,268,440,604,126,228,338,0.47416977,0.85747953,1.26779220,0.17757891,0.27394421,0.38181178
41065,0,USOregonWasco,Oregon,Wasco,2021-01-05 11:45:54.879093,2020-07-23 00:00:00.000000,0.98265706,1.62291633,2.24636262,262,433,599,124,227,335,0.46504321,0.85143844,1.25555998,0.17722686,0.26951858,0.37736519
41065,0,USOregonWasco,Oregon,Wasco,2021-01-05 11:45:54.879093,2020-07-24 00:00:00.000000,0.96413474,1.60196781,2.22029211,257,427,592,121,227,331,0.45571162,0.85353268,1.24303535,0.17735886,0.26224209,0.37043550
41065,0,USOregonWasco,Oregon,Wasco,2021-01-05 11:45:54.879093,2020-07-25 00:00:00.000000,0.94672366,1.57577645,2.21076607,252,420,589,118,223,327,0.44580905,0.83728893,1.22912581,0.18015953,0.26139605,0.36761932
41065,0,USOregonWasco,Oregon,Wasco,2021-01-05 11:45:54.879093,2020-07-26 00:00:00.000000,0.93059138,1.56804279,2.17863946,248,418,581,116,219,323,0.43495899,0.82335054,1.21416457,0.17810234,0.25974515,0.36254097
41065,0,USOregonWasco,Oregon,Wasco,2021-01-05 11:45:54.879093,2020-07-27 00:00:00.000000,0.90457045,1.54779519,2.13103044,241,412,568,112,216,319,0.42322988,0.81082986,1.19830009,0.17652112,0.26178603,0.36287806
41065,0,USOregonWasco,Oregon,Wasco,2021-01-05 11:45:54.879093,2020-07-28 00:00:00.000000,0.88484602,1.53513983,2.08140969,236,409,555,109,213,315,0.41041280,0.79990291,1.18413150,0.17470655,0.25512480,0.36141982
41065,0,USOregonWasco,Oregon,Wasco,2021-01-05 11:45:54.879093,2020-07-29 00:00:00.000000,0.86361972,1.52157443,2.02790783,230,405,541,107,210,312,0.40198876,0.78712426,1.17095905,0.16633158,0.25171804,0.36479828
41065,0,USOregonWasco,Oregon,Wasco,2021-01-05 11:45:54.879093,2020-07-30 00:00:00.000000,0.84532312,1.51351129,1.96921195,225,403,525,105,207,308,0.39684575,0.77878784,1.15753715,0.16698248,0.25282611,0.36454939
41065,0,USOregonWasco,Oregon,Wasco,2021-01-05 11:45:54.879093,2020-07-31 00:00:00.000000,0.82707599,1.49304794,1.93829861,220,398,517,104,206,304,0.39225549,0.77271394,1.14208253,0.16086262,0.25002009,0.36078649
41065,0,USOregonWasco,Oregon,Wasco,2021-01-05 11:45:54.879093,2020-08-01 00:00:00.000000,0.80954473,1.46868339,1.91950511,216,391,512,103,202,297,0.38797114,0.75849126,1.11463705,0.16095672,0.24498836,0.35333343
41065,0,USOregonWasco,Oregon,Wasco,2021-01-05 11:45:54.879093,2020-08-02 00:00:00.000000,0.79941418,1.45055816,1.88591422,213,387,503,102,197,288,0.38390058,0.73995034,1.08140324,0.16475053,0.24217055,0.35075472
41065,0,USOregonWasco,Oregon,Wasco,2021-01-05 11:45:54.879093,2020-08-03 00:00:00.000000,0.79013239,1.40739490,1.86709032,210,375,498,101,192,283,0.37999924,0.72215855,1.06122569,0.16286781,0.24118807,0.34589635
41065,0,USOregonWasco,Oregon,Wasco,2021-01-05 11:45:54.879093,2020-08-04 00:00:00.000000,0.78266690,1.38113483,1.83818509,208,368,490,100,189,281,0.37786181,0.71127909,1.05666619,0.15921200,0.23957334,0.34240885
41065,0,USOregonWasco,Oregon,Wasco,2021-01-05 11:45:54.879093,2020-08-05 00:00:00.000000,0.77620024,1.32461196,1.81405013,207,353,484,97,186,279,0.36405365,0.70002238,1.04637667,0.15802403,0.23704447,0.34038320
41065,0,USOregonWasco,Oregon,Wasco,2021-01-05 11:45:54.879093,2020-08-06 00:00:00.000000,0.76990643,1.28471402,1.78799285,205,342,477,93,182,273,0.34929909,0.68572533,1.02490993,0.15413235,0.23366466,0.33973428
41065,0,USOregonWasco,Oregon,Wasco,2021-01-05 11:45:54.879093,2020-08-07 00:00:00.000000,0.74394070,1.23706483,1.75859433,198,330,469,89,179,267,0.33634329,0.67116965,1.00324914,0.15179561,0.23585510,0.34107388
41065,0,USOregonWasco,Oregon,Wasco,2021-01-05 11:45:54.879093,2020-08-08 00:00:00.000000,0.71934566,1.21081691,1.72466122,191,323,460,86,175,260,0.32506747,0.65941097,0.97792982,0.15007350,0.23731000,0.35129083
41065,0,USOregonWasco,Oregon,Wasco,2021-01-05 11:45:54.879093,2020-08-09 00:00:00.000000,0.69642383,1.18810416,1.68957588,185,317,450,84,171,253,0.31502005,0.64402968,0.95060828,0.14816565,0.24463194,0.35477101
41065,0,USOregonWasco,Oregon,Wasco,2021-01-05 11:45:54.879093,2020-08-10 00:00:00.000000,0.68209005,1.17839839,1.64226794,181,314,438,81,169,246,0.30583184,0.63522735,0.92490560,0.14662664,0.24862263,0.35506605
41065,0,USOregonWasco,Oregon,Wasco,2021-01-05 11:45:54.879093,2020-08-11 00:00:00.000000,0.67025873,1.16234362,1.59546948,178,310,425,79,164,246,0.29779899,0.61811509,0.92473503,0.14590111,0.25005639,0.35330562
41065,0,USOregonWasco,Oregon,Wasco,2021-01-05 11:45:54.879093,2020-08-12 00:00:00.000000,0.66050015,1.13458881,1.61263849,176,302,430,77,160,241,0.29062978,0.60252360,0.90666586,0.14681322,0.25214724,0.35192118
41065,0,USOregonWasco,Oregon,Wasco,2021-01-05 11:45:54.879093,2020-08-13 00:00:00.000000,0.65212285,1.11647090,1.63835479,173,297,437,75,158,237,0.28411448,0.59496243,0.88840241,0.15138681,0.25596550,0.35115448
41065,0,USOregonWasco,Oregon,Wasco,2021-01-05 11:45:54.879093,2020-08-14 00:00:00.000000,0.64506697,1.09294366,1.64383712,172,291,438,74,156,232,0.27800260,0.58740739,0.87058719,0.16524597,0.26166180,0.38183073
41065,0,USOregonWasco,Oregon,Wasco,2021-01-05 11:45:54.879093,2020-08-15 00:00:00.000000,0.62763725,1.07955122,1.59049710,167,288,424,73,154,227,0.27715938,0.58070049,0.85348265,0.17360015,0.26557294,0.39658048
41065,0,USOregonWasco,Oregon,Wasco,2021-01-05 11:45:54.879093,2020-08-16 00:00:00.000000,0.60923730,1.07311967,1.54418333,162,286,412,74,153,223,0.27749452,0.57630921,0.83848828,0.18699330,0.27746458,0.42329659
41065,0,USOregonWasco,Oregon,Wasco,2021-01-05 11:45:54.879093,2020-08-17 00:00:00.000000,0.58841274,1.08445246,1.54942824,157,289,413,74,153,221,0.27785852,0.57392100,0.82850488,0.19092948,0.28240675,0.43468828
41065,0,USOregonWasco,Oregon,Wasco,2021-01-05 11:45:54.879093,2020-08-18 00:00:00.000000,0.56849374,1.08477247,1.57127340,151,289,419,74,152,222,0.27840365,0.57018364,0.83284074,0.20144380,0.29163252,0.43972023
41065,0,USOregonWasco,Oregon,Wasco,2021-01-05 11:45:54.879093,2020-08-19 00:00:00.000000,0.54890973,1.08904211,1.60527299,146,290,428,74,149,226,0.27912574,0.56123883,0.84943258,0.21258910,0.29690576,0.45371969
41065,0,USOregonWasco,Oregon,Wasco,2021-01-05 11:45:54.879093,2020-08-20 00:00:00.000000,0.53424326,1.09346716,1.63982855,142,291,437,74,148,231,0.27831329,0.55804416,0.86703558,0.21795196,0.30727518,0.46341620
41065,0,USOregonWasco,Oregon,Wasco,2021-01-05 11:45:54.879093,2020-08-21 00:00:00.000000,0.54017505,1.09409778,1.67483306,144,291,446,71,147,236,0.26891332,0.55214505,0.88503881,0.22167573,0.31751946,0.47027677
41065,0,USOregonWasco,Oregon,Wasco,2021-01-05 11:45:54.879093,2020-08-22 00:00:00.000000,0.54841439,1.10210427,1.71020697,146,294,456,69,150,241,0.26074264,0.56218971,0.90336131,0.22419298,0.33043364,0.48103789
41065,0,USOregonWasco,Oregon,Wasco,2021-01-05 11:45:54.879093,2020-08-23 00:00:00.000000,0.54182664,1.09877625,1.74588437,144,293,465,68,152,246,0.25852696,0.57090133,0.92203699,0.22971189,0.34696774,0.49129772
41065,0,USOregonWasco,Oregon,Wasco,2021-01-05 11:45:54.879093,2020-08-24 00:00:00.000000,0.55814295,1.09450645,1.77541001,148,292,473,69,151,251,0.26200001,0.56824396,0.94097120,0.24325291,0.35645866,0.49280584
41065,0,USOregonWasco,Oregon,Wasco,2021-01-05 11:45:54.879093,2020-08-25 00:00:00.000000,0.55854168,1.09853720,1.80483969,149,293,481,70,152,255,0.26587024,0.57270707,0.95857495,0.25962499,0.36475618,0.52567670
41065,0,USOregonWasco,Oregon,Wasco,2021-01-05 11:45:54.879093,2020-08-26 00:00:00.000000,0.55883249,1.10968642,1.83452365,149,296,489,73,153,260,0.27451551,0.57602345,0.97547951,0.26311192,0.37816822,0.55801931
41065,0,USOregonWasco,Oregon,Wasco,2021-01-05 11:45:54.879093,2020-08-27 00:00:00.000000,0.57940123,1.13072135,1.86687315,154,301,498,76,154,264,0.28569842,0.58054650,0.99222183,0.26702677,0.39245833,0.58726381
41065,0,USOregonWasco,Oregon,Wasco,2021-01-05 11:45:54.879093,2020-08-28 00:00:00.000000,0.60765091,1.16568330,1.90535230,162,311,508,79,155,269,0.29666868,0.58179752,1.00958093,0.26910101,0.40931476,0.63589279
41065,0,USOregonWasco,Oregon,Wasco,2021-01-05 11:45:54.879093,2020-08-29 00:00:00.000000,0.62447900,1.18528226,1.95205646,166,316,520,79,156,274,0.29701788,0.58587700,1.02884177,0.27014327,0.42660893,0.68878492
41065,0,USOregonWasco,Oregon,Wasco,2021-01-05 11:45:54.879093,2020-08-30 00:00:00.000000,0.65375346,1.20863481,2.00520302,174,322,535,83,160,280,0.31450687,0.60220161,1.05129034,0.28538405,0.44682990,0.73744624
41065,0,USOregonWasco,Oregon,Wasco,2021-01-05 11:45:54.879093,2020-08-31 00:00:00.000000,0.69502219,1.24407422,2.06625612,185,331,551,89,164,287,0.33701707,0.61675240,1.07725044,0.29815956,0.46566318,0.76181414
41065,0,USOregonWasco,Oregon,Wasco,2021-01-05 11:45:54.879093,2020-09-01 00:00:00.000000,0.74257301,1.29313999,2.12970693,198,345,568,94,167,295,0.35343681,0.62648541,1.10715266,0.29583744,0.47717316,0.77346450
41065,0,USOregonWasco,Oregon,Wasco,2021-01-05 11:45:54.879093,2020-09-02 00:00:00.000000,0.79379401,1.33731431,2.19534012,211,356,585,99,171,304,0.37322406,0.64294732,1.13991201,0.30033918,0.49140539,0.76957142
41065,0,USOregonWasco,Oregon,Wasco,2021-01-05 11:45:54.879093,2020-09-03 00:00:00.000000,0.84694751,1.44948903,2.30403286,225,386,614,105,178,313,0.39631756,0.66975876,1.17445048,0.30729000,0.49822587,0.76041420
41065,0,USOregonWasco,Oregon,Wasco,2021-01-05 11:45:54.879093,2020-09-04 00:00:00.000000,0.90042503,1.48959667,2.43027814,240,397,648,112,185,322,0.42163617,0.69608754,1.21018731,0.30644167,0.51242093,0.75912143
41065,0,USOregonWasco,Oregon,Wasco,2021-01-05 11:45:54.879093,2020-09-05 00:00:00.000000,0.95489933,1.54386265,2.46967512,254,411,658,119,194,332,0.44857264,0.73079916,1.24771094,0.31177108,0.52157858,0.76318180
41065,0,USOregonWasco,Oregon,Wasco,2021-01-05 11:45:54.879093,2020-09-06 00:00:00.000000,1.01170763,1.64725866,2.55752744,269,439,682,126,206,340,0.47538872,0.77387362,1.27443836,0.30875327,0.53157695,0.76823919
41065,0,USOregonWasco,Oregon,Wasco,2021-01-05 11:45:54.879093,2020-09-07 00:00:00.000000,1.06245588,1.75069120,2.67371251,283,467,713,132,218,344,0.49692025,0.81723966,1.28927589,0.30727061,0.53458079,0.77162656
41065,0,USOregonWasco,Oregon,Wasco,2021-01-05 11:45:54.879093,2020-09-08 00:00:00.000000,1.14079639,1.85104224,2.79136727,304,493,744,139,229,348,0.52427536,0.86028132,1.30514355,0.30669380,0.53509444,0.76249919
41065,0,USOregonWasco,Oregon,Wasco,2021-01-05 11:45:54.879093,2020-09-09 00:00:00.000000,1.22668653,1.93627537,2.91099639,327,516,776,149,237,355,0.55887983,0.89085827,1.33309933,0.30668862,0.53487702,0.74945488
41065,0,USOregonWasco,Oregon,Wasco,2021-01-05 11:45:54.879093,2020-09-10 00:00:00.000000,1.29593013,2.03847777,3.03317641,345,543,809,158,247,377,0.59300662,0.92858509,1.41593567,0.30807265,0.53295819,0.73697191
41065,0,USOregonWasco,Oregon,Wasco,2021-01-05 11:45:54.879093,2020-09-11 00:00:00.000000,1.37552518,2.12590267,3.15823968,367,567,842,167,259,401,0.62697078,0.97250137,1.50403089,0.31606118,0.53188676,0.76225889
41065,0,USOregonWasco,Oregon,Wasco,2021-01-05 11:45:54.879093,2020-09-12 00:00:00.000000,1.46699440,2.21862661,3.28624661,391,591,876,177,272,418,0.66523045,1.01948952,1.56699279,0.33485640,0.53173615,0.77431518
41065,0,USOregonWasco,Oregon,Wasco,2021-01-05 11:45:54.879093,2020-09-13 00:00:00.000000,1.56987051,2.33478050,3.41688973,418,622,911,188,281,427,0.70603157,1.05686642,1.60362313,0.34571545,0.53391194,0.77648113
41065,0,USOregonWasco,Oregon,Wasco,2021-01-05 11:45:54.879093,2020-09-14 00:00:00.000000,1.64942214,2.44209033,3.55385459,440,651,948,196,296,434,0.73718840,1.11190095,1.62924215,0.35729580,0.53201192,0.77266447
41065,0,USOregonWasco,Oregon,Wasco,2021-01-05 11:45:54.879093,2020-09-15 00:00:00.000000,1.74039617,2.54662553,3.68733169,464,679,983,204,306,448,0.76704461,1.14794885,1.68011818,0.35468878,0.52579296,0.75381283
41065,0,USOregonWasco,Oregon,Wasco,2021-01-05 11:45:54.879093,2020-09-16 00:00:00.000000,1.82619363,2.66294628,3.84129871,487,710,1024,219,322,465,0.82103028,1.20994328,1.74514685,0.36284750,0.50952503,0.70978203
41065,0,USOregonWasco,Oregon,Wasco,2021-01-05 11:45:54.879093,2020-09-17 00:00:00.000000,1.91161582,2.71821685,3.96844911,510,725,1058,232,342,482,0.87211205,1.28378738,1.80946074,0.34791944,0.49434940,0.69315521
41065,0,USOregonWasco,Oregon,Wasco,2021-01-05 11:45:54.879093,2020-09-18 00:00:00.000000,1.95832233,2.79193755,4.04054120,522,744,1078,242,360,492,0.91016596,1.34950075,1.84722142,0.32597800,0.46988155,0.69276840
41065,0,USOregonWasco,Oregon,Wasco,2021-01-05 11:45:54.879093,2020-09-19 00:00:00.000000,2.03579899,2.83122111,4.07521337,543,755,1087,253,372,505,0.94880289,1.39680395,1.89455844,0.29125066,0.42997142,0.67942773
41065,0,USOregonWasco,Oregon,Wasco,2021-01-05 11:45:54.879093,2020-09-20 00:00:00.000000,2.08107401,2.85287946,4.05559507,555,761,1082,263,384,520,0.98769380,1.44027937,1.95083242,0.27746568,0.39573821,0.62867591
41065,0,USOregonWasco,Oregon,Wasco,2021-01-05 11:45:54.879093,2020-09-21 00:00:00.000000,2.08458937,2.85265139,4.00056902,556,761,1067,263,390,526,0.98788507,1.46286203,1.97387310,0.26534015,0.37564460,0.58490020
41065,0,USOregonWasco,Oregon,Wasco,2021-01-05 11:45:54.879093,2020-09-22 00:00:00.000000,2.07645166,2.84574310,4.07763820,554,759,1087,259,399,526,0.97355793,1.49551987,1.97311414,0.25360432,0.35277574,0.55049285
41065,0,USOregonWasco,Oregon,Wasco,2021-01-05 11:45:54.879093,2020-09-23 00:00:00.000000,2.05940540,2.84778058,4.09925444,549,759,1093,254,407,534,0.95491111,1.52784675,2.00167415,0.24375801,0.33294179,0.50687600
41065,0,USOregonWasco,Oregon,Wasco,2021-01-05 11:45:54.879093,2020-09-24 00:00:00.000000,2.00848744,2.82798690,4.07220392,535,754,1086,249,409,553,0.93371084,1.53295599,2.07299169,0.22978498,0.31907668,0.47707249
41065,0,USOregonWasco,Oregon,Wasco,2021-01-05 11:45:54.879093,2020-09-25 00:00:00.000000,1.95392798,2.79553035,4.02574784,521,745,1074,243,406,563,0.91118337,1.52454716,2.11037557,0.21536368,0.29439534,0.45797292
41065,0,USOregonWasco,Oregon,Wasco,2021-01-05 11:45:54.879093,2020-09-26 00:00:00.000000,1.89953490,2.77028672,3.96398384,506,739,1057,239,402,560,0.89797163,1.50984401,2.10110581,0.20370202,0.28706467,0.43413567
41065,0,USOregonWasco,Oregon,Wasco,2021-01-05 11:45:54.879093,2020-09-27 00:00:00.000000,1.84410473,2.70920068,3.92001149,492,722,1045,236,393,554,0.88758966,1.47599924,2.07856522,0.19909193,0.27836992,0.41254150
41065,0,USOregonWasco,Oregon,Wasco,2021-01-05 11:45:54.879093,2020-09-28 00:00:00.000000,1.78076457,2.66118013,3.82738811,475,710,1021,233,390,553,0.87555978,1.46228472,2.07598870,0.19893506,0.27302084,0.40123174
41065,0,USOregonWasco,Oregon,Wasco,2021-01-05 11:45:54.879093,2020-09-29 00:00:00.000000,1.71868352,2.60462754,3.75965843,458,694,1003,229,384,552,0.85942241,1.44276947,2.07133836,0.19895927,0.26554687,0.37541041
41065,0,USOregonWasco,Oregon,Wasco,2021-01-05 11:45:54.879093,2020-09-30 00:00:00.000000,1.65855360,2.54342401,3.69031098,442,678,984,224,378,549,0.84067452,1.41885917,2.06066904,0.19907983,0.26329082,0.36991605
41065,0,USOregonWasco,Oregon,Wasco,2021-01-05 11:45:54.879093,2020-10-01 00:00:00.000000,1.60276919,2.47798865,3.61910263,427,661,965,218,369,545,0.82032402,1.38622277,2.04530619,0.19861846,0.25655979,0.36627983
41065,0,USOregonWasco,Oregon,Wasco,2021-01-05 11:45:54.879093,2020-10-02 00:00:00.000000,1.55506451,2.39583158,3.54372477,414,639,945,213,358,540,0.79903832,1.34189119,2.02586305,0.19788901,0.25662176,0.35859796
41065,0,USOregonWasco,Oregon,Wasco,2021-01-05 11:45:54.879093,2020-10-03 00:00:00.000000,1.51406268,2.33466645,3.46146383,403,622,923,207,347,534,0.77726362,1.30400031,2.00362837,0.19616603,0.25226419,0.34886346
41065,0,USOregonWasco,Oregon,Wasco,2021-01-05 11:45:54.879093,2020-10-04 00:00:00.000000,1.47632947,2.25446312,3.37424078,393,601,900,201,336,528,0.75529387,1.26267689,1.97980806,0.19633825,0.25081878,0.35044685
41065,0,USOregonWasco,Oregon,Wasco,2021-01-05 11:45:54.879093,2020-10-05 00:00:00.000000,1.44448432,2.19432424,3.29278434,385,585,878,195,326,521,0.73333922,1.22445312,1.95567354,0.19840516,0.25437760,0.34950688
41065,0,USOregonWasco,Oregon,Wasco,2021-01-05 11:45:54.879093,2020-10-06 00:00:00.000000,1.41431356,2.15019370,3.24581736,377,573,866,189,314,515,0.71140075,1.18032813,1.93348341,0.19932038,0.26411046,0.34888599
41065,0,USOregonWasco,Oregon,Wasco,2021-01-05 11:45:54.879093,2020-10-07 00:00:00.000000,1.38587565,2.09986426,3.20983230,369,560,856,184,305,511,0.68970019,1.14484465,1.91605429,0.19943539,0.26891696,0.34713352
41065,0,USOregonWasco,Oregon,Wasco,2021-01-05 11:45:54.879093,2020-10-08 00:00:00.000000,1.33735043,2.05457081,3.17685593,356,548,847,178,297,507,0.66843201,1.11371461,1.90367920,0.20208900,0.27315185,0.34812087
41065,0,USOregonWasco,Oregon,Wasco,2021-01-05 11:45:54.879093,2020-10-09 00:00:00.000000,1.26287171,1.99647155,3.14443747,336,532,838,172,289,505,0.64779709,1.08521089,1.89492145,0.21079312,0.27551003,0.36269134
41065,0,USOregonWasco,Oregon,Wasco,2021-01-05 11:45:54.879093,2020-10-10 00:00:00.000000,1.21328979,1.95466278,3.11203823,323,521,830,167,283,498,0.62805370,1.06200522,1.86968015,0.21527419,0.28112755,0.37641020
41065,0,USOregonWasco,Oregon,Wasco,2021-01-05 11:45:54.879093,2020-10-11 00:00:00.000000,1.19906198,1.91511398,3.08073698,319,510,822,162,277,487,0.60957613,1.03855811,1.82608301,0.21630644,0.28925073,0.38325545
41065,0,USOregonWasco,Oregon,Wasco,2021-01-05 11:45:54.879093,2020-10-12 00:00:00.000000,1.18984985,1.88420589,3.04424658,317,502,812,154,271,475,0.58048509,1.01901885,1.78366292,0.21292880,0.29302915,0.39052603
41065,0,USOregonWasco,Oregon,Wasco,2021-01-05 11:45:54.879093,2020-10-13 00:00:00.000000,1.18220033,1.85257454,3.00806053,315,494,802,152,266,464,0.57220643,1.00035544,1.74017633,0.21322296,0.29640249,0.39760408
41065,0,USOregonWasco,Oregon,Wasco,2021-01-05 11:45:54.879093,2020-10-14 00:00:00.000000,1.17594491,1.81777817,2.97164433,313,485,792,150,261,452,0.56575889,0.97980916,1.69645571,0.21254835,0.29918893,0.42787507
41065,0,USOregonWasco,Oregon,Wasco,2021-01-05 11:45:54.879093,2020-10-15 00:00:00.000000,1.16892258,1.77521557,2.90124599,311,473,774,147,254,440,0.55183769,0.95396439,1.65242655,0.21239585,0.30846460,0.43177799
41065,0,USOregonWasco,Oregon,Wasco,2021-01-05 11:45:54.879093,2020-10-16 00:00:00.000000,1.13999289,1.73519081,2.81209839,304,462,750,142,247,427,0.53298688,0.92765383,1.60181602,0.21391279,0.30969421,0.46323133
41065,0,USOregonWasco,Oregon,Wasco,2021-01-05 11:45:54.879093,2020-10-17 00:00:00.000000,1.11809728,1.72398653,2.74186951,298,459,731,138,244,414,0.51786963,0.91523615,1.55254858,0.21455527,0.31850248,0.49506443
41065,0,USOregonWasco,Oregon,Wasco,2021-01-05 11:45:54.879093,2020-10-18 00:00:00.000000,1.10153319,1.73628682,2.72407749,293,463,726,135,242,404,0.50611687,0.90846457,1.51640571,0.21975834,0.33290428,0.50009537
41065,0,USOregonWasco,Oregon,Wasco,2021-01-05 11:45:54.879093,2020-10-19 00:00:00.000000,1.09197598,1.72813174,2.71614501,291,461,724,135,238,398,0.50907289,0.89541155,1.49391978,0.22345662,0.33920155,0.51914458
41065,0,USOregonWasco,Oregon,Wasco,2021-01-05 11:45:54.879093,2020-10-20 00:00:00.000000,1.08483243,1.70580918,2.71228020,289,455,723,138,237,391,0.51799653,0.88830368,1.46761573,0.22519990,0.35326111,0.55510528
41065,0,USOregonWasco,Oregon,Wasco,2021-01-05 11:45:54.879093,2020-10-21 00:00:00.000000,1.07951906,1.71870221,2.69906051,288,458,720,140,234,386,0.52705590,0.87843262,1.44845176,0.23203445,0.36064096,0.56867442
41065,0,USOregonWasco,Oregon,Wasco,2021-01-05 11:45:54.879093,2020-10-22 00:00:00.000000,1.07574527,1.70633183,2.71272084,287,455,723,143,233,385,0.53623426,0.87601873,1.44665988,0.23919111,0.36635462,0.57244124
41065,0,USOregonWasco,Oregon,Wasco,2021-01-05 11:45:54.879093,2020-10-23 00:00:00.000000,1.07429332,1.71616843,2.74383068,286,457,732,144,232,387,0.54208949,0.87262007,1.45159683,0.25128094,0.37202522,0.57751892
41065,0,USOregonWasco,Oregon,Wasco,2021-01-05 11:45:54.879093,2020-10-24 00:00:00.000000,1.08866897,1.73210704,2.78850526,290,462,744,144,232,388,0.54151446,0.87059010,1.45736031,0.26835871,0.39292136,0.60949792
41065,0,USOregonWasco,Oregon,Wasco,2021-01-05 11:45:54.879093,2020-10-25 00:00:00.000000,1.11197836,1.75009442,2.80661639,296,466,748,145,232,390,0.54414045,0.86966888,1.46380309,0.27239191,0.41111986,0.62869666
41065,0,USOregonWasco,Oregon,Wasco,2021-01-05 11:45:54.879093,2020-10-26 00:00:00.000000,1.15326835,1.78364185,2.81506132,307,475,751,146,232,392,0.54890698,0.87111324,1.47076168,0.28534315,0.41902521,0.63721365
41065,0,USOregonWasco,Oregon,Wasco,2021-01-05 11:45:54.879093,2020-10-27 00:00:00.000000,1.20079866,1.82366273,2.84639770,320,486,759,149,234,394,0.55875413,0.87716885,1.47690200,0.29657380,0.42617456,0.64381084
41065,0,USOregonWasco,Oregon,Wasco,2021-01-05 11:45:54.879093,2020-10-28 00:00:00.000000,1.24487508,1.84348451,2.92654260,332,491,780,152,236,398,0.57160781,0.88565812,1.49447872,0.32071973,0.43987242,0.65532231
41065,0,USOregonWasco,Oregon,Wasco,2021-01-05 11:45:54.879093,2020-10-29 00:00:00.000000,1.26100329,1.87774734,3.06273591,336,501,817,156,238,411,0.58624816,0.89401158,1.54109020,0.34379009,0.46950838,0.66238287
41065,0,USOregonWasco,Oregon,Wasco,2021-01-05 11:45:54.879093,2020-10-30 00:00:00.000000,1.28256858,1.93353929,3.12374766,342,515,833,160,240,424,0.60197396,0.90127720,1.59080726,0.35344343,0.48920960,0.69335402
41065,0,USOregonWasco,Oregon,Wasco,2021-01-05 11:45:54.879093,2020-10-31 00:00:00.000000,1.31243971,1.99919673,3.18552475,350,533,849,165,247,438,0.61847948,0.92725886,1.64164816,0.35414465,0.50601794,0.76023033
41065,0,USOregonWasco,Oregon,Wasco,2021-01-05 11:45:54.879093,2020-11-01 00:00:00.000000,1.35422074,2.07545562,3.25120204,361,553,867,169,252,447,0.63657780,0.94718794,1.67847217,0.35806624,0.51994160,0.81042739
41065,0,USOregonWasco,Oregon,Wasco,2021-01-05 11:45:54.879093,2020-11-02 00:00:00.000000,1.41272067,2.15680801,3.32335279,376,575,886,176,259,462,0.66228947,0.97130392,1.73326302,0.37154621,0.53245027,0.82650368
41065,0,USOregonWasco,Oregon,Wasco,2021-01-05 11:45:54.879093,2020-11-03 00:00:00.000000,1.48375083,2.25337925,3.40280725,395,601,907,186,272,477,0.69873450,1.02111982,1.79044646,0.40347466,0.55714341,0.87721895
41065,0,USOregonWasco,Oregon,Wasco,2021-01-05 11:45:54.879093,2020-11-04 00:00:00.000000,1.56449494,2.33878504,3.48890394,417,624,930,198,281,488,0.74398760,1.05396714,1.83158425,0.41401767,0.57214588,0.89407882
41065,0,USOregonWasco,Oregon,Wasco,2021-01-05 11:45:54.879093,2020-11-05 00:00:00.000000,1.65259219,2.45079803,3.58221643,440,653,955,212,289,499,0.79581491,1.08506162,1.87237904,0.42650881,0.58519968,0.88608308
41065,0,USOregonWasco,Oregon,Wasco,2021-01-05 11:45:54.879093,2020-11-06 00:00:00.000000,1.73564800,2.53723421,3.74792189,463,676,1000,227,300,516,0.85343505,1.12622564,1.93648867,0.44983570,0.61463888,0.87468054
41065,0,USOregonWasco,Oregon,Wasco,2021-01-05 11:45:54.879093,2020-11-07 00:00:00.000000,1.82058928,2.68059866,3.91782292,485,715,1045,241,315,539,0.90632128,1.18317832,2.02040804,0.45280859,0.64552222,0.91109653
41065,0,USOregonWasco,Oregon,Wasco,2021-01-05 11:45:54.879093,2020-11-08 00:00:00.000000,1.92036835,2.84451308,4.17736931,512,758,1114,251,331,562,0.94084510,1.24137145,2.10675226,0.45821700,0.67743761,0.93950763
41065,0,USOregonWasco,Oregon,Wasco,2021-01-05 11:45:54.879093,2020-11-09 00:00:00.000000,2.02329393,2.98399155,4.46120633,539,796,1190,261,352,582,0.97980282,1.32271084,2.18473645,0.46611510,0.68409949,0.96309839
41065,0,USOregonWasco,Oregon,Wasco,2021-01-05 11:45:54.879093,2020-11-10 00:00:00.000000,2.09958759,3.16879568,4.76470181,560,845,1271,273,374,605,1.02437674,1.40202103,2.27039588,0.47455873,0.69100602,0.96371981
41065,0,USOregonWasco,Oregon,Wasco,2021-01-05 11:45:54.879093,2020-11-11 00:00:00.000000,2.17556345,3.34771151,5.08336707,580,893,1356,284,395,630,1.06778291,1.48109020,2.36462491,0.47448320,0.70490751,0.96374379
41065,0,USOregonWasco,Oregon,Wasco,2021-01-05 11:45:54.879093,2020-11-12 00:00:00.000000,2.26838569,3.52914041,5.41382301,605,941,1444,295,414,658,1.10676046,1.55521451,2.46767178,0.47684558,0.71143412,0.95527633
41065,0,USOregonWasco,Oregon,Wasco,2021-01-05 11:45:54.879093,2020-11-13 00:00:00.000000,2.37990631,3.73647739,5.68106209,635,996,1515,305,435,687,1.14667620,1.63050523,2.57728291,0.48529217,0.70798525,0.97178654
41065,0,USOregonWasco,Oregon,Wasco,2021-01-05 11:45:54.879093,2020-11-14 00:00:00.000000,2.49521817,3.97060773,5.93152450,665,1059,1582,316,462,718,1.18747939,1.73509626,2.69229702,0.51815440,0.72295450,1.00623402
41065,0,USOregonWasco,Oregon,Wasco,2021-01-05 11:45:54.879093,2020-11-15 00:00:00.000000,2.61464776,4.19318975,6.18782416,697,1118,1651,327,495,761,1.22918280,1.85758882,2.85380047,0.51156714,0.73369512,1.02705821
41065,0,USOregonWasco,Oregon,Wasco,2021-01-05 11:45:54.879093,2020-11-16 00:00:00.000000,2.73828296,4.40159447,6.51064588,730,1174,1737,339,526,807,1.27194040,1.97164476,3.02820483,0.50400013,0.71004686,1.04800251
41065,0,USOregonWasco,Oregon,Wasco,2021-01-05 11:45:54.879093,2020-11-17 00:00:00.000000,2.87477320,4.62365482,6.90358060,767,1233,1842,350,549,855,1.31307165,2.05771926,3.20781126,0.49871834,0.71619012,1.05511147
41065,0,USOregonWasco,Oregon,Wasco,2021-01-05 11:45:54.879093,2020-11-18 00:00:00.000000,3.02477228,4.85237512,7.31155766,807,1294,1950,361,580,904,1.35489435,2.17627429,3.39083984,0.49613477,0.72056523,1.05804832
41065,0,USOregonWasco,Oregon,Wasco,2021-01-05 11:45:54.879093,2020-11-19 00:00:00.000000,3.18209397,5.09513784,7.72094759,849,1359,2060,373,610,954,1.39909314,2.28859357,3.57806040,0.49507679,0.71179134,1.11929869
41065,0,USOregonWasco,Oregon,Wasco,2021-01-05 11:45:54.879093,2020-11-20 00:00:00.000000,3.34479058,5.36555668,8.10963462,892,1431,2163,385,638,1011,1.44655644,2.39375656,3.79032326,0.47982760,0.70303287,1.15816591
41065,0,USOregonWasco,Oregon,Wasco,2021-01-05 11:45:54.879093,2020-11-21 00:00:00.000000,3.51278175,5.59320045,8.51151917,937,1492,2271,399,668,1068,1.49617223,2.50495169,4.00356878,0.47933194,0.69214421,1.17384706
41065,0,USOregonWasco,Oregon,Wasco,2021-01-05 11:45:54.879093,2020-11-22 00:00:00.000000,3.68578879,5.86163281,8.83578939,983,1564,2357,423,702,1124,1.58598132,2.63317223,4.21470884,0.47885323,0.67688451,1.19980454
41065,0,USOregonWasco,Oregon,Wasco,2021-01-05 11:45:54.879093,2020-11-23 00:00:00.000000,3.86924123,6.11928785,9.08996109,1032,1632,2425,450,733,1180,1.68813762,2.74932015,4.42297436,0.47890984,0.65224460,1.23066302
41065,0,USOregonWasco,Oregon,Wasco,2021-01-05 11:45:54.879093,2020-11-24 00:00:00.000000,4.05688102,6.34894859,9.45518846,1082,1694,2522,480,765,1235,1.79932255,2.87046235,4.63026597,0.47972751,0.65989960,1.20706920
41065,0,USOregonWasco,Oregon,Wasco,2021-01-05 11:45:54.879093,2020-11-25 00:00:00.000000,4.27203769,6.53322456,9.84943690,1139,1743,2628,511,795,1290,1.91835596,2.98243949,4.83645771,0.47678769,0.65642227,1.18920921
41065,0,USOregonWasco,Oregon,Wasco,2021-01-05 11:45:54.879093,2020-11-26 00:00:00.000000,4.54501440,6.76736668,10.22886501,1212,1805,2729,545,827,1345,2.04418035,3.10055996,5.04121474,0.48342558,0.65276047,1.18283066
41065,0,USOregonWasco,Oregon,Wasco,2021-01-05 11:45:54.879093,2020-11-27 00:00:00.000000,4.82865601,6.96815149,10.57668754,1288,1859,2822,580,856,1399,2.17613727,3.21114658,5.24390331,0.48017641,0.64332215,1.18097953
41065,0,USOregonWasco,Oregon,Wasco,2021-01-05 11:45:54.879093,2020-11-28 00:00:00.000000,5.11924886,7.15995795,10.87351083,1365,1910,2901,611,884,1442,2.29045607,3.31622804,5.40501535,0.48006346,0.63059857,1.18107963
41065,0,USOregonWasco,Oregon,Wasco,2021-01-05 11:45:54.879093,2020-11-29 00:00:00.000000,5.37974530,7.34823688,11.11862859,1435,1960,2966,637,910,1463,2.38753351,3.41093221,5.48642448,0.45932861,0.62193630,1.18435364
41065,0,USOregonWasco,Oregon,Wasco,2021-01-05 11:45:54.879093,2020-11-30 00:00:00.000000,5.54568206,7.52332100,11.34603052,1479,2007,3027,663,939,1481,2.48580193,3.52276574,5.55189928,0.46024702,0.62277525,1.24360846
41065,0,USOregonWasco,Oregon,Wasco,2021-01-05 11:45:54.879093,2020-12-01 00:00:00.000000,5.68224290,7.80140483,11.54049494,1516,2081,3079,689,969,1518,2.58327950,3.63340633,5.69017565,0.45654197,0.62125132,1.33074334
41065,0,USOregonWasco,Oregon,Wasco,2021-01-05 11:45:54.879093,2020-12-02 00:00:00.000000,5.79876640,8.00580229,11.71009734,1547,2136,3124,714,1003,1552,2.67813055,3.75929798,5.81706773,0.45483486,0.62088229,1.34520379
41065,0,USOregonWasco,Oregon,Wasco,2021-01-05 11:45:54.879093,2020-12-03 00:00:00.000000,5.88823935,8.18005013,11.85765036,1571,2182,3163,738,1036,1581,2.76937325,3.88286409,5.92884421,0.45139012,0.62050993,1.35570975
41065,0,USOregonWasco,Oregon,Wasco,2021-01-05 11:45:54.879093,2020-12-04 00:00:00.000000,6.01680106,8.32320402,11.98223627,1605,2220,3197,762,1050,1621,2.85714197,3.93606293,6.07770260,0.44346021,0.61689250,1.36162902
41065,0,USOregonWasco,Oregon,Wasco,2021-01-05 11:45:54.879093,2020-12-05 00:00:00.000000,6.20088785,8.45180750,12.07546623,1654,2255,3221,781,1070,1659,2.92861029,4.01357775,6.22096026,0.43249245,0.60941363,1.36334907
41065,0,USOregonWasco,Oregon,Wasco,2021-01-05 11:45:54.879093,2020-12-06 00:00:00.000000,6.37942004,8.51854707,12.39340465,1702,2272,3306,788,1088,1688,2.95445433,4.08062147,6.32936090,0.42487276,0.60297759,1.36279061
41065,0,USOregonWasco,Oregon,Wasco,2021-01-05 11:45:54.879093,2020-12-07 00:00:00.000000,6.53889744,8.64449072,12.65837029,1744,2306,3377,792,1103,1717,2.97123451,4.13681095,6.43640400,0.42106924,0.59398435,1.33451925
41065,0,USOregonWasco,Oregon,Wasco,2021-01-05 11:45:54.879093,2020-12-08 00:00:00.000000,6.51287765,8.71660865,12.88966994,1737,2325,3439,795,1119,1745,2.98278594,4.19743243,6.54211461,0.41743192,0.59105917,1.30323290
41065,0,USOregonWasco,Oregon,Wasco,2021-01-05 11:45:54.879093,2020-12-09 00:00:00.000000,6.50421237,8.77025622,13.10040755,1735,2340,3495,797,1134,1774,2.98974151,4.25363610,6.64918037,0.40872457,0.58996991,1.28631469
41065,0,USOregonWasco,Oregon,Wasco,2021-01-05 11:45:54.879093,2020-12-10 00:00:00.000000,6.54022625,8.82396054,13.29349713,1745,2354,3546,808,1149,1802,3.02987014,4.30737458,6.75532628,0.41333097,0.59294786,1.27493758
41065,0,USOregonWasco,Oregon,Wasco,2021-01-05 11:45:54.879093,2020-12-11 00:00:00.000000,6.60666082,8.88287420,13.47589294,1762,2370,3595,828,1161,1829,3.10422814,4.35269225,6.85574890,0.40961692,0.59760170,1.26024768
41065,0,USOregonWasco,Oregon,Wasco,2021-01-05 11:45:54.879093,2020-12-12 00:00:00.000000,6.64121366,9.00563218,13.52192254,1772,2402,3607,843,1171,1852,3.15984288,4.39065944,6.94326251,0.41468195,0.60791899,1.23358456
41065,0,USOregonWasco,Oregon,Wasco,2021-01-05 11:45:54.879093,2020-12-13 00:00:00.000000,6.62982495,9.09669622,13.48361758,1768,2427,3597,848,1179,1870,3.17912749,4.42122937,7.01008861,0.40540671,0.61382216,1.19026690
41065,0,USOregonWasco,Oregon,Wasco,2021-01-05 11:45:54.879093,2020-12-14 00:00:00.000000,6.64067872,9.11956333,13.38089303,1771,2433,3570,853,1187,1881,3.19989019,4.45131404,7.05103764,0.39959891,0.61622103,1.13662180
41065,0,USOregonWasco,Oregon,Wasco,2021-01-05 11:45:54.879093,2020-12-15 00:00:00.000000,6.56877481,9.11782703,13.23139020,1752,2432,3530,859,1198,1884,3.22201088,4.49334669,7.06413803,0.39375587,0.61942581,1.08946077
41065,0,USOregonWasco,Oregon,Wasco,2021-01-05 11:45:54.879093,2020-12-16 00:00:00.000000,6.47710082,9.10850179,13.04167994,1728,2430,3479,866,1204,1881,3.24699506,4.51531249,7.05022852,0.39747231,0.61234517,1.13430910
41065,0,USOregonWasco,Oregon,Wasco,2021-01-05 11:45:54.879093,2020-12-17 00:00:00.000000,6.39110153,9.13664645,12.81919455,1705,2437,3420,873,1203,1870,3.27457657,4.50913754,7.01095700,0.40063507,0.62881870,1.25115158
41065,0,USOregonWasco,Oregon,Wasco,2021-01-05 11:45:54.879093,2020-12-18 00:00:00.000000,6.32353214,9.14080939,12.57297720,1687,2438,3354,881,1214,1854,3.30341183,4.55243149,6.94864236,0.40925788,0.62642617,1.28158337
41065,0,USOregonWasco,Oregon,Wasco,2021-01-05 11:45:54.879093,2020-12-19 00:00:00.000000,6.28858027,9.11725839,12.57399667,1677,2432,3354,889,1219,1832,3.33219962,4.57111253,6.86632230,0.43354696,0.61887007,1.32595621
41065,0,USOregonWasco,Oregon,Wasco,2021-01-05 11:45:54.879093,2020-12-20 00:00:00.000000,6.28516851,9.10720747,12.55400214,1677,2429,3349,884,1224,1805,3.31530250,4.58797565,6.76735467,0.43545829,0.62798526,1.37708510
41065,0,USOregonWasco,Oregon,Wasco,2021-01-05 11:45:54.879093,2020-12-21 00:00:00.000000,6.27019389,9.09604692,12.30691379,1673,2427,3283,871,1223,1775,3.26678725,4.58390843,6.65492525,0.43632095,0.62859820,1.42070167
41065,0,USOregonWasco,Oregon,Wasco,2021-01-05 11:45:54.879093,2020-12-22 00:00:00.000000,6.18031673,9.00532527,12.15119417,1649,2402,3242,855,1215,1742,3.20501716,4.55387538,6.53206333,0.43621086,0.63291423,1.44910328
41065,0,USOregonWasco,Oregon,Wasco,2021-01-05 11:45:54.879093,2020-12-23 00:00:00.000000,6.17274492,8.94298175,12.08942531,1647,2386,3225,839,1194,1735,3.14599202,4.47610696,6.50478239,0.43344597,0.63283298,1.46411824
41065,0,USOregonWasco,Oregon,Wasco,2021-01-05 11:45:54.879093,2020-12-24 00:00:00.000000,6.16040708,8.89536521,12.00554589,1643,2373,3203,843,1193,1686,3.15953789,4.47234827,6.32108797,0.42706293,0.63182435,1.46965988
41065,0,USOregonWasco,Oregon,Wasco,2021-01-05 11:45:54.879093,2020-12-25 00:00:00.000000,6.13907448,8.76214139,11.89373947,1638,2337,3173,846,1192,1635,3.17380005,4.47066369,6.12926379,0.41641602,0.62390603,1.46636481
41065,0,USOregonWasco,Oregon,Wasco,2021-01-05 11:45:54.879093,2020-12-26 00:00:00.000000,6.10398866,8.65426563,11.73686117,1628,2309,3131,850,1194,1622,3.18668723,4.47853690,6.07979099,0.40647515,0.60931067,1.45423328
41065,0,USOregonWasco,Oregon,Wasco,2021-01-05 11:45:54.879093,2020-12-27 00:00:00.000000,6.03391292,8.61779549,11.70808582,1609,2299,3123,834,1188,1632,3.12692180,4.45505817,6.11687604,0.41610069,0.62054704,1.44201037
41065,0,USOregonWasco,Oregon,Wasco,2021-01-05 11:45:54.879093,2020-12-28 00:00:00.000000,5.92260879,8.44877337,11.78221416,1580,2254,3143,812,1182,1653,3.04536589,4.43137409,6.19623356,0.40950548,0.62964109,1.43580412
41065,0,USOregonWasco,Oregon,Wasco,2021-01-05 11:45:54.879093,2020-12-29 00:00:00.000000,5.79290852,8.29631573,11.83293904,1545,2213,3157,793,1156,1662,2.97298592,4.33396755,6.23170683,0.40538875,0.64289247,1.43297174
41065,0,USOregonWasco,Oregon,Wasco,2021-01-05 11:45:54.879093,2020-12-30 00:00:00.000000,5.64467794,8.07962665,11.85629563,1506,2155,3163,777,1138,1673,2.91520491,4.26576959,6.27057077,0.38802612,0.64377907,1.43293367
41065,0,USOregonWasco,Oregon,Wasco,2021-01-05 11:45:54.879093,2020-12-31 00:00:00.000000,5.47870225,7.95188076,11.85214385,1461,2121,3162,759,1133,1679,2.84680583,4.24754759,6.29365504,0.38069386,0.65078784,1.43224611
41065,0,USOregonWasco,Oregon,Wasco,2021-01-05 11:45:54.879093,2021-01-01 00:00:00.000000,5.36882856,7.86471816,11.84939469,1432,2098,3161,738,1124,1681,2.76889212,4.21490070,6.30046869,0.37905955,0.65617076,1.42932976
41065,0,USOregonWasco,Oregon,Wasco,2021-01-05 11:45:54.879093,2021-01-02 00:00:00.000000,5.16189722,7.66096715,11.89337224,1377,2044,3173,715,1085,1678,2.68265777,4.06771432,6.29081901,0.36504978,0.67693348,1.41807218
41065,0,USOregonWasco,Oregon,Wasco,2021-01-05 11:45:54.879093,2021-01-03 00:00:00.000000,4.93587037,7.36282781,11.92456987,1316,1964,3181,690,1060,1671,2.58973407,3.97387088,6.26476202,0.35062127,0.67898250,1.43023819
41065,0,USOregonWasco,Oregon,Wasco,2021-01-05 11:45:54.879093,2021-01-04 00:00:00.000000,4.76485514,7.17671200,11.94683421,1271,1914,3187,668,1041,1666,2.50409628,3.90338970,6.24762187,0.33837211,0.67700091,1.46664312
41065,0,USOregonWasco,Oregon,Wasco,2021-01-05 11:45:54.879093,2021-01-05 00:00:00.000000,4.62102076,7.01206500,11.96431009,1232,1870,3192,642,1023,1672,2.40816298,3.83637051,6.26878613,0.32889569,0.68091191,1.49597132
41065,0,USOregonWasco,Oregon,Wasco,2021-01-05 11:45:54.879093,2021-01-06 00:00:00.000000,4.38153246,6.86997705,11.97449569,1169,1833,3195,611,995,1677,2.29007615,3.72944225,6.28583151,0.32215012,0.68158491,1.51737630
41065,0,USOregonWasco,Oregon,Wasco,2021-01-05 11:45:54.879093,2021-01-07 00:00:00.000000,4.14998705,6.71914187,11.95208011,1107,1792,3189,583,973,1680,2.18521572,3.64769039,6.29886355,0.31762722,0.68174947,1.53188938
41065,0,USOregonWasco,Oregon,Wasco,2021-01-05 11:45:54.879093,2021-01-08 00:00:00.000000,3.92676919,6.56076255,11.79523919,1047,1750,3147,556,946,1682,2.08398373,3.54774201,6.30681197,0.31471470,0.68178983,1.54123928
41065,0,USOregonWasco,Oregon,Wasco,2021-01-05 11:45:54.879093,2021-01-09 00:00:00.000000,3.71221564,6.42274987,11.61131914,990,1713,3098,536,922,1683,2.00943235,3.45920505,6.30821506,0.31288757,0.68018417,1.54706390
41065,0,USOregonWasco,Oregon,Wasco,2021-01-05 11:45:54.879093,2021-01-10 00:00:00.000000,3.50386895,6.27602587,11.40222272,934,1674,3042,510,896,1697,1.91225571,3.36056837,6.36013617,0.31176006,0.67671516,1.55061631
41065,0,USOregonWasco,Oregon,Wasco,2021-01-05 11:45:54.879093,2021-01-11 00:00:00.000000,3.30891782,6.06843040,11.17003816,882,1619,2980,484,871,1702,1.81552601,3.26640830,6.38042343,0.31107131,0.67659899,1.55275490
41065,0,USOregonWasco,Oregon,Wasco,2021-01-05 11:45:54.879093,2021-01-12 00:00:00.000000,3.12484141,5.82299745,10.94740715,833,1553,2920,455,849,1674,1.70585745,3.18256345,6.27545287,0.31065320,0.67659901,1.55403228
41065,0,USOregonWasco,Oregon,Wasco,2021-01-05 11:45:54.879093,2021-01-13 00:00:00.000000,2.95801641,5.70392888,10.93295230,789,1521,2917,431,821,1664,1.61813766,3.07711721,6.23685458,0.31040033,0.67659900,1.55479171
41065,0,USOregonWasco,Oregon,Wasco,2021-01-05 11:45:54.879093,2021-01-14 00:00:00.000000,2.79839356,5.49959594,10.88987679,746,1467,2905,409,802,1653,1.53393706,3.00707535,6.19686590,0.31024775,0.67659899,1.55524197
41065,0,USOregonWasco,Oregon,Wasco,2021-01-05 11:45:54.879093,2021-01-15 00:00:00.000000,2.64586318,5.29977856,10.81870082,705,1414,2886,387,780,1640,1.45363962,2.92407671,6.14715028,0.31015580,0.67659898,1.55550848
41065,0,USOregonWasco,Oregon,Wasco,2021-01-05 11:45:54.879093,2021-01-16 00:00:00.000000,2.50028911,5.13136066,10.72025511,667,1369,2860,367,756,1624,1.37669883,2.83544899,6.08789670,0.31010044,0.67659897,1.55566609
41065,0,USOregonWasco,Oregon,Wasco,2021-01-05 11:45:54.879093,2021-01-17 00:00:00.000000,2.36151359,4.97026254,10.59564959,630,1326,2827,347,733,1606,1.30307866,2.74776060,6.01940476,0.31006713,0.67659897,1.55575925
