FIPS,HR_UID,nameid,province,region,analysisTime,dates,pointprevalence_025,pointprevalence_50,pointprevalence_975,pointinfections_025,pointinfections_50,pointinfections_975,pointinfectious_025,pointinfectious_50,pointinfectious_975,pointinfectiousprevalence_05,pointinfectiousprevalence_50,pointinfectiousprevalence_95,infectrate_025,infectrate_50,infectrate_975
18149,0,USIndianaStarke,Indiana,Starke,2021-01-05 23:37:18.631138,2020-03-09 00:00:00.000000,0.00345323,0.01618211,0.05771383,0,3,13,0,1,7,0.00193828,0.00841019,0.03192996,0.41638621,0.52551546,0.72207644
18149,0,USIndianaStarke,Indiana,Starke,2021-01-05 23:37:18.631138,2020-03-10 00:00:00.000000,0.00369745,0.01802391,0.06345106,0,4,14,0,1,6,0.00196192,0.00851762,0.03000224,0.41638556,0.52544221,0.72207085
18149,0,USIndianaStarke,Indiana,Starke,2021-01-05 23:37:18.631138,2020-03-11 00:00:00.000000,0.00396811,0.01965087,0.06876575,0,4,15,0,2,6,0.00210830,0.00890673,0.02952168,0.41638414,0.52529231,0.72205650
18149,0,USIndianaStarke,Indiana,Starke,2021-01-05 23:37:18.631138,2020-03-12 00:00:00.000000,0.00426393,0.02141397,0.07390923,0,4,16,0,2,6,0.00231812,0.00966529,0.02994211,0.41638095,0.52509792,0.72201749
18149,0,USIndianaStarke,Indiana,Starke,2021-01-05 23:37:18.631138,2020-03-13 00:00:00.000000,0.00458479,0.02342529,0.07905040,1,5,18,0,2,7,0.00257222,0.01025534,0.03091633,0.41637374,0.52486429,0.72190678
18149,0,USIndianaStarke,Indiana,Starke,2021-01-05 23:37:18.631138,2020-03-14 00:00:00.000000,0.00492989,0.02550773,0.08429455,1,5,19,0,2,7,0.00283112,0.01089840,0.03222557,0.41635722,0.52411991,0.72158961
18149,0,USIndianaStarke,Indiana,Starke,2021-01-05 23:37:18.631138,2020-03-15 00:00:00.000000,0.00529555,0.02773052,0.08968947,1,6,20,0,2,7,0.00303942,0.01204592,0.03435410,0.41631882,0.52211836,0.70930727
18149,0,USIndianaStarke,Indiana,Starke,2021-01-05 23:37:18.631138,2020-03-16 00:00:00.000000,0.01116986,0.03574639,0.10918556,2,8,25,0,3,8,0.00326259,0.01322572,0.03668679,0.41622826,0.51697756,0.68798450
18149,0,USIndianaStarke,Indiana,Starke,2021-01-05 23:37:18.631138,2020-03-17 00:00:00.000000,0.01594587,0.04320478,0.12858416,3,9,29,0,3,9,0.00402420,0.01505388,0.04039061,0.40680698,0.50536299,0.68670083
18149,0,USIndianaStarke,Indiana,Starke,2021-01-05 23:37:18.631138,2020-03-18 00:00:00.000000,0.01970410,0.05122824,0.14592661,4,11,33,1,4,10,0.00574414,0.01774907,0.04495055,0.38451570,0.49959089,0.68442241
18149,0,USIndianaStarke,Indiana,Starke,2021-01-05 23:37:18.631138,2020-03-19 00:00:00.000000,0.02364464,0.05911118,0.15771689,5,13,36,1,4,11,0.00713188,0.02131902,0.05011855,0.34039536,0.48117664,0.68007855
18149,0,USIndianaStarke,Indiana,Starke,2021-01-05 23:37:18.631138,2020-03-20 00:00:00.000000,0.02778954,0.06767889,0.16977890,6,15,39,1,5,13,0.00859320,0.02519675,0.05747772,0.30196215,0.46205573,0.65952056
18149,0,USIndianaStarke,Indiana,Starke,2021-01-05 23:37:18.631138,2020-03-21 00:00:00.000000,0.03216763,0.07802667,0.18207571,7,17,41,2,6,15,0.01002194,0.02903768,0.06540695,0.29651573,0.44396225,0.61822380
18149,0,USIndianaStarke,Indiana,Starke,2021-01-05 23:37:18.631138,2020-03-22 00:00:00.000000,0.03684224,0.08850211,0.19460303,8,20,44,2,7,16,0.01184747,0.03342499,0.07333334,0.27925475,0.43260782,0.58181748
18149,0,USIndianaStarke,Indiana,Starke,2021-01-05 23:37:18.631138,2020-03-23 00:00:00.000000,0.04241429,0.09762143,0.20712680,9,22,47,3,8,18,0.01398138,0.03824112,0.07867987,0.27724468,0.41243820,0.55725577
18149,0,USIndianaStarke,Indiana,Starke,2021-01-05 23:37:18.631138,2020-03-24 00:00:00.000000,0.04839207,0.10971313,0.21991786,11,25,50,3,10,19,0.01662904,0.04365832,0.08635212,0.26989049,0.40022442,0.54536807
18149,0,USIndianaStarke,Indiana,Starke,2021-01-05 23:37:18.631138,2020-03-25 00:00:00.000000,0.05476466,0.12178869,0.23289132,12,28,53,4,11,21,0.01964077,0.04929834,0.09521523,0.24279816,0.38789038,0.53310357
18149,0,USIndianaStarke,Indiana,Starke,2021-01-05 23:37:18.631138,2020-03-26 00:00:00.000000,0.06150841,0.13166623,0.24571437,14,30,56,5,12,23,0.02293884,0.05466198,0.10391565,0.21117000,0.37640494,0.51755900
18149,0,USIndianaStarke,Indiana,Starke,2021-01-05 23:37:18.631138,2020-03-27 00:00:00.000000,0.06846182,0.14432907,0.25763510,15,33,59,6,13,25,0.02635096,0.05956620,0.11249525,0.19111768,0.36475201,0.51645912
18149,0,USIndianaStarke,Indiana,Starke,2021-01-05 23:37:18.631138,2020-03-28 00:00:00.000000,0.07525464,0.15625812,0.27201518,17,35,62,6,15,27,0.02974705,0.06663225,0.12097368,0.18462767,0.34594182,0.51501819
18149,0,USIndianaStarke,Indiana,Starke,2021-01-05 23:37:18.631138,2020-03-29 00:00:00.000000,0.08202824,0.16671584,0.28638336,18,38,65,7,16,29,0.03315063,0.07295067,0.12935516,0.18405580,0.33187712,0.49220510
18149,0,USIndianaStarke,Indiana,Starke,2021-01-05 23:37:18.631138,2020-03-30 00:00:00.000000,0.09540745,0.18112846,0.29929728,21,41,68,8,17,31,0.03658279,0.07816637,0.13770613,0.18396727,0.32260237,0.45808554
18149,0,USIndianaStarke,Indiana,Starke,2021-01-05 23:37:18.631138,2020-03-31 00:00:00.000000,0.10928483,0.19510085,0.31343533,25,44,72,9,19,33,0.04037830,0.08521213,0.14671766,0.18405195,0.31481059,0.43682035
18149,0,USIndianaStarke,Indiana,Starke,2021-01-05 23:37:18.631138,2020-04-01 00:00:00.000000,0.12267796,0.20939423,0.31746322,28,48,73,10,21,35,0.04500944,0.09157076,0.15615856,0.18249503,0.29934835,0.41296894
18149,0,USIndianaStarke,Indiana,Starke,2021-01-05 23:37:18.631138,2020-04-02 00:00:00.000000,0.13797862,0.22002673,0.34063327,31,50,78,11,22,36,0.05094161,0.09947078,0.15733116,0.17070783,0.29596949,0.39868730
18149,0,USIndianaStarke,Indiana,Starke,2021-01-05 23:37:18.631138,2020-04-03 00:00:00.000000,0.15292909,0.23350931,0.35347851,35,53,81,13,24,36,0.05783089,0.10675436,0.15729846,0.16361689,0.28863869,0.39067323
18149,0,USIndianaStarke,Indiana,Starke,2021-01-05 23:37:18.631138,2020-04-04 00:00:00.000000,0.16366554,0.24464678,0.36762182,37,56,84,15,25,39,0.06672210,0.11295131,0.17338721,0.15946277,0.27440240,0.38640064
18149,0,USIndianaStarke,Indiana,Starke,2021-01-05 23:37:18.631138,2020-04-05 00:00:00.000000,0.16794933,0.25594157,0.39578563,38,58,91,16,27,43,0.07127248,0.11937395,0.19047005,0.15477649,0.27089695,0.37160878
18149,0,USIndianaStarke,Indiana,Starke,2021-01-05 23:37:18.631138,2020-04-06 00:00:00.000000,0.17857554,0.26808214,0.41409821,41,61,95,16,29,47,0.07265791,0.12763879,0.20681065,0.15187064,0.25752117,0.36737861
18149,0,USIndianaStarke,Indiana,Starke,2021-01-05 23:37:18.631138,2020-04-07 00:00:00.000000,0.18189137,0.27817057,0.43342793,41,63,99,17,31,48,0.07450969,0.13654458,0.21275993,0.15040975,0.24586751,0.36037111
18149,0,USIndianaStarke,Indiana,Starke,2021-01-05 23:37:18.631138,2020-04-08 00:00:00.000000,0.18554283,0.29205298,0.45344786,42,67,104,17,33,51,0.07664856,0.14465408,0.22353166,0.14639414,0.23831788,0.34493058
18149,0,USIndianaStarke,Indiana,Starke,2021-01-05 23:37:18.631138,2020-04-09 00:00:00.000000,0.18746007,0.30810609,0.46352567,43,70,106,18,34,53,0.07981420,0.15166640,0.23349580,0.14310252,0.23702805,0.34428188
18149,0,USIndianaStarke,Indiana,Starke,2021-01-05 23:37:18.631138,2020-04-10 00:00:00.000000,0.18963460,0.31758294,0.47116726,43,73,108,19,36,55,0.08385091,0.15825813,0.24232231,0.14243695,0.23784846,0.31559614
18149,0,USIndianaStarke,Indiana,Starke,2021-01-05 23:37:18.631138,2020-04-11 00:00:00.000000,0.19143434,0.32259550,0.47788109,44,74,109,20,37,57,0.08792640,0.16308936,0.25095905,0.14370353,0.23541171,0.31549690
18149,0,USIndianaStarke,Indiana,Starke,2021-01-05 23:37:18.631138,2020-04-12 00:00:00.000000,0.19282087,0.32868675,0.48729797,44,75,112,21,38,59,0.09188114,0.16919493,0.25906709,0.14727578,0.23104179,0.32388968
18149,0,USIndianaStarke,Indiana,Starke,2021-01-05 23:37:18.631138,2020-04-13 00:00:00.000000,0.19902761,0.33446937,0.50258231,45,76,115,21,39,60,0.09561043,0.17358637,0.26455595,0.14783944,0.22208243,0.33113842
18149,0,USIndianaStarke,Indiana,Starke,2021-01-05 23:37:18.631138,2020-04-14 00:00:00.000000,0.19966873,0.34046492,0.51625924,45,78,118,22,40,61,0.09810362,0.17785520,0.26955111,0.14866402,0.22127878,0.30041646
18149,0,USIndianaStarke,Indiana,Starke,2021-01-05 23:37:18.631138,2020-04-15 00:00:00.000000,0.20125230,0.34541158,0.53229478,46,79,122,22,41,63,0.09980555,0.18261430,0.27416768,0.14503021,0.21704575,0.30279531
18149,0,USIndianaStarke,Indiana,Starke,2021-01-05 23:37:18.631138,2020-04-16 00:00:00.000000,0.20450216,0.35256145,0.54828191,47,81,126,23,42,64,0.10100549,0.18625847,0.27848968,0.13734402,0.21254876,0.29882535
18149,0,USIndianaStarke,Indiana,Starke,2021-01-05 23:37:18.631138,2020-04-17 00:00:00.000000,0.20774406,0.36018460,0.56383738,47,82,129,23,43,64,0.10191531,0.18990783,0.28258314,0.13464024,0.20958358,0.28623080
18149,0,USIndianaStarke,Indiana,Starke,2021-01-05 23:37:18.631138,2020-04-18 00:00:00.000000,0.21098459,0.36986187,0.57942581,48,85,133,23,44,66,0.10369373,0.19381505,0.29133182,0.13392130,0.20530875,0.28879615
18149,0,USIndianaStarke,Indiana,Starke,2021-01-05 23:37:18.631138,2020-04-19 00:00:00.000000,0.21422856,0.38161386,0.59458496,49,87,136,24,46,69,0.10650806,0.20072200,0.30032207,0.13377780,0.20227135,0.28236063
18149,0,USIndianaStarke,Indiana,Starke,2021-01-05 23:37:18.631138,2020-04-20 00:00:00.000000,0.21504839,0.39236748,0.60851362,49,90,139,25,46,71,0.10938658,0.20310985,0.30915579,0.13363081,0.20085129,0.27768320
18149,0,USIndianaStarke,Indiana,Starke,2021-01-05 23:37:18.631138,2020-04-21 00:00:00.000000,0.21591273,0.40689555,0.63050620,49,93,144,25,48,72,0.11245173,0.21214042,0.31730219,0.13254614,0.19966867,0.27565249
18149,0,USIndianaStarke,Indiana,Starke,2021-01-05 23:37:18.631138,2020-04-22 00:00:00.000000,0.21685567,0.41509608,0.63572453,49,95,146,26,50,73,0.11569627,0.21838226,0.32100390,0.11779131,0.19997765,0.27459339
18149,0,USIndianaStarke,Indiana,Starke,2021-01-05 23:37:18.631138,2020-04-23 00:00:00.000000,0.21946237,0.41925565,0.63544286,50,96,146,27,51,74,0.11782848,0.22586943,0.32367657,0.11101522,0.19564644,0.28481462
18149,0,USIndianaStarke,Indiana,Starke,2021-01-05 23:37:18.631138,2020-04-24 00:00:00.000000,0.22294772,0.42390161,0.63564786,51,97,146,27,52,74,0.11838362,0.22839459,0.32467655,0.11259344,0.19544848,0.27975070
18149,0,USIndianaStarke,Indiana,Starke,2021-01-05 23:37:18.631138,2020-04-25 00:00:00.000000,0.22608338,0.43077479,0.63657246,51,99,146,27,53,74,0.11871092,0.23240413,0.32405049,0.11738255,0.18971245,0.28149236
18149,0,USIndianaStarke,Indiana,Starke,2021-01-05 23:37:18.631138,2020-04-26 00:00:00.000000,0.22756335,0.43700181,0.63783226,52,100,146,27,53,76,0.11891562,0.23332754,0.33420730,0.12407436,0.18779451,0.27874613
18149,0,USIndianaStarke,Indiana,Starke,2021-01-05 23:37:18.631138,2020-04-27 00:00:00.000000,0.22710711,0.44319942,0.63841806,52,101,146,27,53,79,0.11903767,0.23401177,0.34622444,0.12386718,0.18510169,0.26759351
18149,0,USIndianaStarke,Indiana,Starke,2021-01-05 23:37:18.631138,2020-04-28 00:00:00.000000,0.23093084,0.44502169,0.64109415,53,102,147,27,54,82,0.11948136,0.23596764,0.35938596,0.12377212,0.18196941,0.26353513
18149,0,USIndianaStarke,Indiana,Starke,2021-01-05 23:37:18.631138,2020-04-29 00:00:00.000000,0.23483846,0.45808668,0.64892082,54,105,149,27,54,84,0.12026208,0.23748382,0.36924873,0.12219503,0.17970109,0.25637773
18149,0,USIndianaStarke,Indiana,Starke,2021-01-05 23:37:18.631138,2020-04-30 00:00:00.000000,0.23888447,0.46439848,0.66503719,54,106,152,27,55,86,0.12127418,0.24074996,0.37532896,0.12862511,0.18050835,0.25057975
18149,0,USIndianaStarke,Indiana,Starke,2021-01-05 23:37:18.631138,2020-05-01 00:00:00.000000,0.24323892,0.47089056,0.67779017,55,108,155,29,56,87,0.12706560,0.24470334,0.37856462,0.12497734,0.18117350,0.25349491
18149,0,USIndianaStarke,Indiana,Starke,2021-01-05 23:37:18.631138,2020-05-02 00:00:00.000000,0.24721338,0.47294993,0.67402527,56,108,154,29,57,87,0.13018725,0.24936510,0.38249602,0.12378994,0.18202342,0.26914626
18149,0,USIndianaStarke,Indiana,Starke,2021-01-05 23:37:18.631138,2020-05-03 00:00:00.000000,0.25123356,0.47656170,0.68547612,57,109,157,29,58,87,0.12899627,0.25443159,0.38123120,0.12355685,0.18492722,0.27368858
18149,0,USIndianaStarke,Indiana,Starke,2021-01-05 23:37:18.631138,2020-05-04 00:00:00.000000,0.25512347,0.47786178,0.69017743,58,109,158,29,59,88,0.12769534,0.25943758,0.38395608,0.12203138,0.18328586,0.27463246
18149,0,USIndianaStarke,Indiana,Starke,2021-01-05 23:37:18.631138,2020-05-05 00:00:00.000000,0.25929727,0.48003282,0.69675224,59,110,160,29,59,90,0.12789945,0.26027621,0.39553678,0.11955960,0.18401388,0.27274883
18149,0,USIndianaStarke,Indiana,Starke,2021-01-05 23:37:18.631138,2020-05-06 00:00:00.000000,0.26230266,0.49671178,0.70310779,60,114,161,30,59,94,0.13078154,0.25909912,0.41082567,0.11961880,0.18514258,0.27273734
18149,0,USIndianaStarke,Indiana,Starke,2021-01-05 23:37:18.631138,2020-05-07 00:00:00.000000,0.25428179,0.50528230,0.73115378,58,116,168,30,60,99,0.13406133,0.26233806,0.43110065,0.12143650,0.18871492,0.27267809
18149,0,USIndianaStarke,Indiana,Starke,2021-01-05 23:37:18.631138,2020-05-08 00:00:00.000000,0.24689546,0.51354245,0.76228601,56,118,175,31,61,103,0.13751031,0.26569242,0.44994132,0.12230300,0.18990547,0.27253405
18149,0,USIndianaStarke,Indiana,Starke,2021-01-05 23:37:18.631138,2020-05-09 00:00:00.000000,0.24041179,0.51517539,0.79271044,55,118,182,32,61,105,0.14086189,0.26647323,0.45868864,0.12354848,0.19001548,0.27388072
18149,0,USIndianaStarke,Indiana,Starke,2021-01-05 23:37:18.631138,2020-05-10 00:00:00.000000,0.23516369,0.51232998,0.82276542,54,117,189,31,61,106,0.13828735,0.26721635,0.46426025,0.12320487,0.19078341,0.27640915
18149,0,USIndianaStarke,Indiana,Starke,2021-01-05 23:37:18.631138,2020-05-11 00:00:00.000000,0.23112791,0.51737230,0.83412992,53,118,191,30,63,108,0.13474049,0.27491358,0.47072891,0.12447377,0.19350737,0.27914846
18149,0,USIndianaStarke,Indiana,Starke,2021-01-05 23:37:18.631138,2020-05-12 00:00:00.000000,0.23989369,0.51815187,0.84548345,55,119,194,30,64,109,0.13173176,0.27849408,0.47801928,0.12809649,0.19521391,0.27964219
18149,0,USIndianaStarke,Indiana,Starke,2021-01-05 23:37:18.631138,2020-05-13 00:00:00.000000,0.24931747,0.51972510,0.85664097,57,119,196,29,63,111,0.12938472,0.27796240,0.48596378,0.12743857,0.19888749,0.27890514
18149,0,USIndianaStarke,Indiana,Starke,2021-01-05 23:37:18.631138,2020-05-14 00:00:00.000000,0.24514210,0.51946427,0.86766860,56,119,199,32,64,113,0.13989746,0.27837029,0.49441572,0.12707738,0.20038432,0.27711871
18149,0,USIndianaStarke,Indiana,Starke,2021-01-05 23:37:18.631138,2020-05-15 00:00:00.000000,0.24177348,0.52272305,0.87853818,55,120,202,33,64,115,0.14703355,0.28180321,0.50322602,0.12713873,0.20107005,0.27516544
18149,0,USIndianaStarke,Indiana,Starke,2021-01-05 23:37:18.631138,2020-05-16 00:00:00.000000,0.24009043,0.52839129,0.89313181,55,121,205,33,65,117,0.14633447,0.28355938,0.51184148,0.12790979,0.20506098,0.27289106
18149,0,USIndianaStarke,Indiana,Starke,2021-01-05 23:37:18.631138,2020-05-17 00:00:00.000000,0.24613065,0.53458512,0.91414070,56,122,210,33,65,119,0.14571494,0.28598933,0.52014562,0.13692304,0.20458628,0.28408629
18149,0,USIndianaStarke,Indiana,Starke,2021-01-05 23:37:18.631138,2020-05-18 00:00:00.000000,0.26103466,0.54506719,0.91871818,60,125,211,33,66,121,0.14528841,0.28892518,0.52797235,0.14005503,0.20725034,0.29245075
18149,0,USIndianaStarke,Indiana,Starke,2021-01-05 23:37:18.631138,2020-05-19 00:00:00.000000,0.27591043,0.55546434,0.93062613,63,127,213,33,66,123,0.14431762,0.28999350,0.53654980,0.14202860,0.20837822,0.29590323
18149,0,USIndianaStarke,Indiana,Starke,2021-01-05 23:37:18.631138,2020-05-20 00:00:00.000000,0.28380694,0.56545937,0.94635502,65,130,217,32,67,125,0.14324526,0.29262463,0.54568877,0.14243530,0.20763767,0.29984170
18149,0,USIndianaStarke,Indiana,Starke,2021-01-05 23:37:18.631138,2020-05-21 00:00:00.000000,0.28164389,0.57876107,0.96796760,64,133,222,33,68,127,0.14713101,0.29820264,0.55525160,0.14290704,0.21044179,0.30649046
18149,0,USIndianaStarke,Indiana,Starke,2021-01-05 23:37:18.631138,2020-05-22 00:00:00.000000,0.29017709,0.59023184,1.01443962,66,135,233,34,70,129,0.15117925,0.30535815,0.56512876,0.14438928,0.21519386,0.30883338
18149,0,USIndianaStarke,Indiana,Starke,2021-01-05 23:37:18.631138,2020-05-23 00:00:00.000000,0.29984190,0.60443942,1.06009131,68,138,243,35,71,132,0.15531172,0.31001374,0.57522562,0.14782600,0.22334806,0.31349293
18149,0,USIndianaStarke,Indiana,Starke,2021-01-05 23:37:18.631138,2020-05-24 00:00:00.000000,0.30914839,0.61198431,1.09165258,71,140,251,36,71,134,0.15946594,0.31239622,0.58545458,0.14412172,0.22534824,0.32571663
18149,0,USIndianaStarke,Indiana,Starke,2021-01-05 23:37:18.631138,2020-05-25 00:00:00.000000,0.32625373,0.62167478,1.09837332,75,142,252,37,72,136,0.16359766,0.31716005,0.59572922,0.14218205,0.22354297,0.33381681
18149,0,USIndianaStarke,Indiana,Starke,2021-01-05 23:37:18.631138,2020-05-26 00:00:00.000000,0.36349539,0.63351457,1.09800317,83,145,252,38,75,139,0.16722116,0.32772984,0.60472649,0.14201842,0.22584504,0.33881142
18149,0,USIndianaStarke,Indiana,Starke,2021-01-05 23:37:18.631138,2020-05-27 00:00:00.000000,0.36395012,0.65375770,1.09671238,83,150,252,39,77,140,0.17045018,0.33838174,0.61266197,0.14340097,0.22756606,0.34224708
18149,0,USIndianaStarke,Indiana,Starke,2021-01-05 23:37:18.631138,2020-05-28 00:00:00.000000,0.35780000,0.67782609,1.09528504,82,155,251,40,79,142,0.17461713,0.34582526,0.61964699,0.14323807,0.23162973,0.34435591
18149,0,USIndianaStarke,Indiana,Starke,2021-01-05 23:37:18.631138,2020-05-29 00:00:00.000000,0.35167918,0.69919944,1.11131535,80,160,255,42,81,143,0.18525594,0.35390073,0.62459015,0.14696980,0.23255120,0.35085430
18149,0,USIndianaStarke,Indiana,Starke,2021-01-05 23:37:18.631138,2020-05-30 00:00:00.000000,0.34613634,0.71353633,1.13281638,79,164,260,42,83,142,0.18292749,0.36360320,0.61898317,0.15508394,0.23519564,0.36349702
18149,0,USIndianaStarke,Indiana,Starke,2021-01-05 23:37:18.631138,2020-05-31 00:00:00.000000,0.34242418,0.72458724,1.18097537,78,166,271,41,86,144,0.18040002,0.37548468,0.62796347,0.15641498,0.23789714,0.36723572
18149,0,USIndianaStarke,Indiana,Starke,2021-01-05 23:37:18.631138,2020-06-01 00:00:00.000000,0.34111037,0.74205969,1.20884677,78,170,277,41,88,145,0.18169442,0.38683387,0.63411934,0.15770813,0.24017597,0.37337489
18149,0,USIndianaStarke,Indiana,Starke,2021-01-05 23:37:18.631138,2020-06-02 00:00:00.000000,0.34262092,0.75319221,1.23628481,78,173,284,42,91,147,0.18371714,0.39767502,0.64331496,0.15744259,0.24039603,0.37778146
18149,0,USIndianaStarke,Indiana,Starke,2021-01-05 23:37:18.631138,2020-06-03 00:00:00.000000,0.34854082,0.76712284,1.26402018,80,176,290,42,93,151,0.18616354,0.40809557,0.65714300,0.15977840,0.24542981,0.37735189
18149,0,USIndianaStarke,Indiana,Starke,2021-01-05 23:37:18.631138,2020-06-04 00:00:00.000000,0.35713629,0.78763420,1.29170117,82,181,297,43,95,153,0.18919480,0.41529151,0.66851189,0.16705139,0.24621919,0.37342904
18149,0,USIndianaStarke,Indiana,Starke,2021-01-05 23:37:18.631138,2020-06-05 00:00:00.000000,0.36616557,0.81529826,1.31836985,84,187,303,44,97,156,0.19297875,0.42389312,0.68076735,0.17677237,0.24917065,0.36301057
18149,0,USIndianaStarke,Indiana,Starke,2021-01-05 23:37:18.631138,2020-06-06 00:00:00.000000,0.37572536,0.84396654,1.36620359,86,194,314,45,99,159,0.19758340,0.43274975,0.69381025,0.17850489,0.25165821,0.36904256
18149,0,USIndianaStarke,Indiana,Starke,2021-01-05 23:37:18.631138,2020-06-07 00:00:00.000000,0.38598555,0.86998456,1.42580827,88,200,327,46,101,162,0.20292223,0.44277006,0.70754364,0.18492337,0.26266862,0.38421762
18149,0,USIndianaStarke,Indiana,Starke,2021-01-05 23:37:18.631138,2020-06-08 00:00:00.000000,0.42990705,0.89031852,1.44023200,98,204,331,48,104,165,0.20885211,0.45420825,0.72188859,0.18556042,0.26928966,0.39027266
18149,0,USIndianaStarke,Indiana,Starke,2021-01-05 23:37:18.631138,2020-06-09 00:00:00.000000,0.45140649,0.90181115,1.44829020,103,207,333,49,107,169,0.21710248,0.46657424,0.73640730,0.18572586,0.26967467,0.38924857
18149,0,USIndianaStarke,Indiana,Starke,2021-01-05 23:37:18.631138,2020-06-10 00:00:00.000000,0.45533183,0.91767600,1.47899893,104,211,340,51,110,172,0.22502932,0.47928339,0.75114133,0.18697759,0.27560907,0.38749353
18149,0,USIndianaStarke,Indiana,Starke,2021-01-05 23:37:18.631138,2020-06-11 00:00:00.000000,0.47753072,0.93789069,1.52370788,109,215,350,53,113,176,0.23146578,0.49209180,0.76612602,0.19047856,0.27906878,0.38458148
18149,0,USIndianaStarke,Indiana,Starke,2021-01-05 23:37:18.631138,2020-06-12 00:00:00.000000,0.50386193,0.95462279,1.57043961,115,219,361,54,115,179,0.23891926,0.50410240,0.78139678,0.19490975,0.28447100,0.38975211
18149,0,USIndianaStarke,Indiana,Starke,2021-01-05 23:37:18.631138,2020-06-13 00:00:00.000000,0.52863961,0.98423005,1.61714116,121,226,371,56,118,183,0.24730904,0.51559798,0.79699796,0.20007171,0.29341947,0.40163439
18149,0,USIndianaStarke,Indiana,Starke,2021-01-05 23:37:18.631138,2020-06-14 00:00:00.000000,0.55070808,1.01894522,1.66382207,126,234,382,59,121,187,0.25741145,0.52763710,0.81501275,0.20140719,0.29927157,0.42648555
18149,0,USIndianaStarke,Indiana,Starke,2021-01-05 23:37:18.631138,2020-06-15 00:00:00.000000,0.58443032,1.05808755,1.69658250,134,243,390,61,124,194,0.26903885,0.54210295,0.84517191,0.20203755,0.30612998,0.44126823
18149,0,USIndianaStarke,Indiana,Starke,2021-01-05 23:37:18.631138,2020-06-16 00:00:00.000000,0.62201201,1.08859343,1.73359344,143,250,398,64,129,201,0.28099884,0.56121901,0.87446489,0.20679837,0.31097294,0.44585280
18149,0,USIndianaStarke,Indiana,Starke,2021-01-05 23:37:18.631138,2020-06-17 00:00:00.000000,0.66462964,1.13126006,1.79500761,152,260,412,68,133,207,0.29581208,0.57979516,0.90344942,0.20782906,0.31187630,0.45790237
18149,0,USIndianaStarke,Indiana,Starke,2021-01-05 23:37:18.631138,2020-06-18 00:00:00.000000,0.70663551,1.16943008,1.85799931,162,268,427,72,136,214,0.31325093,0.59555297,0.93269987,0.20939915,0.31551451,0.47114713
18149,0,USIndianaStarke,Indiana,Starke,2021-01-05 23:37:18.631138,2020-06-19 00:00:00.000000,0.74071293,1.21264875,1.92260989,170,278,442,76,141,221,0.33215723,0.61695266,0.96278620,0.20984697,0.31506257,0.47718932
18149,0,USIndianaStarke,Indiana,Starke,2021-01-05 23:37:18.631138,2020-06-20 00:00:00.000000,0.75823302,1.24772952,1.98884363,174,286,457,81,147,228,0.35265752,0.64016434,0.99407240,0.21104347,0.31870083,0.48815789
18149,0,USIndianaStarke,Indiana,Starke,2021-01-05 23:37:18.631138,2020-06-21 00:00:00.000000,0.78323922,1.29103115,2.05665691,180,296,472,83,153,236,0.36381886,0.66595144,1.02665645,0.21451123,0.32167864,0.49716477
18149,0,USIndianaStarke,Indiana,Starke,2021-01-05 23:37:18.631138,2020-06-22 00:00:00.000000,0.83454057,1.34686196,2.12081600,191,309,487,85,156,243,0.37280612,0.68119646,1.06047621,0.21962398,0.32080899,0.49250856
18149,0,USIndianaStarke,Indiana,Starke,2021-01-05 23:37:18.631138,2020-06-23 00:00:00.000000,0.88839447,1.39228086,2.19928015,204,320,505,88,164,251,0.38334110,0.71671140,1.09443743,0.22215057,0.32168840,0.48865083
18149,0,USIndianaStarke,Indiana,Starke,2021-01-05 23:37:18.631138,2020-06-24 00:00:00.000000,0.94435172,1.47406373,2.28601610,217,338,525,90,172,259,0.39521476,0.75170610,1.12853994,0.22460293,0.32143125,0.48342551
18149,0,USIndianaStarke,Indiana,Starke,2021-01-05 23:37:18.631138,2020-06-25 00:00:00.000000,1.00136663,1.52868913,2.37526629,230,351,546,93,180,267,0.40811216,0.78302678,1.16254398,0.22436934,0.32377418,0.48205839
18149,0,USIndianaStarke,Indiana,Starke,2021-01-05 23:37:18.631138,2020-06-26 00:00:00.000000,1.05453738,1.59133449,2.42694512,242,365,558,97,188,274,0.42375414,0.81913204,1.19588964,0.22305908,0.31992173,0.46620764
18149,0,USIndianaStarke,Indiana,Starke,2021-01-05 23:37:18.631138,2020-06-27 00:00:00.000000,1.10218771,1.64861598,2.46992799,253,379,567,101,196,282,0.44006440,0.85605921,1.22770331,0.22019316,0.31424491,0.46520961
18149,0,USIndianaStarke,Indiana,Starke,2021-01-05 23:37:18.631138,2020-06-28 00:00:00.000000,1.13858178,1.71113858,2.50491749,261,393,576,105,201,290,0.45680404,0.87453541,1.26226775,0.22384798,0.30765050,0.45379899
18149,0,USIndianaStarke,Indiana,Starke,2021-01-05 23:37:18.631138,2020-06-29 00:00:00.000000,1.17027190,1.74891408,2.53763495,269,402,583,108,207,301,0.47356584,0.90038360,1.31181323,0.21534633,0.30502991,0.45150834
18149,0,USIndianaStarke,Indiana,Starke,2021-01-05 23:37:18.631138,2020-06-30 00:00:00.000000,1.20200435,1.78448601,2.60479131,276,410,598,113,210,313,0.49341774,0.91501028,1.36343787,0.21340006,0.30479024,0.44569804
18149,0,USIndianaStarke,Indiana,Starke,2021-01-05 23:37:18.631138,2020-07-01 00:00:00.000000,1.23364936,1.83337013,2.67680225,283,421,615,118,215,325,0.51658105,0.93835265,1.41638529,0.20987205,0.29313322,0.43030367
18149,0,USIndianaStarke,Indiana,Starke,2021-01-05 23:37:18.631138,2020-07-02 00:00:00.000000,1.26543982,1.89364730,2.74780872,290,435,631,124,222,338,0.54076939,0.96584825,1.47056630,0.20825019,0.28295272,0.40910050
18149,0,USIndianaStarke,Indiana,Starke,2021-01-05 23:37:18.631138,2020-07-03 00:00:00.000000,1.29772994,1.93944760,2.81834341,298,445,648,129,230,350,0.56529557,1.00029607,1.52589526,0.20659480,0.27365038,0.40396891
18149,0,USIndianaStarke,Indiana,Starke,2021-01-05 23:37:18.631138,2020-07-04 00:00:00.000000,1.32954622,1.98125216,2.88517526,305,455,663,135,237,363,0.58983624,1.03275133,1.58200645,0.19888858,0.27057486,0.39895836
18149,0,USIndianaStarke,Indiana,Starke,2021-01-05 23:37:18.631138,2020-07-05 00:00:00.000000,1.35785544,2.01132115,2.94093047,312,462,676,141,241,376,0.61554126,1.05127727,1.63740312,0.19014272,0.26260884,0.39162483
18149,0,USIndianaStarke,Indiana,Starke,2021-01-05 23:37:18.631138,2020-07-06 00:00:00.000000,1.36960846,2.04047461,2.97201937,314,469,683,147,247,385,0.64238727,1.07794614,1.67552312,0.18328934,0.25855043,0.38187327
18149,0,USIndianaStarke,Indiana,Starke,2021-01-05 23:37:18.631138,2020-07-07 00:00:00.000000,1.37906923,2.05841860,2.99065081,317,473,687,153,255,392,0.66775337,1.10932176,1.70523402,0.17370996,0.25332589,0.37009827
18149,0,USIndianaStarke,Indiana,Starke,2021-01-05 23:37:18.631138,2020-07-08 00:00:00.000000,1.40206057,2.08391478,3.00281350,322,479,690,157,261,398,0.68395698,1.13672293,1.73205506,0.16608138,0.24574556,0.35739710
18149,0,USIndianaStarke,Indiana,Starke,2021-01-05 23:37:18.631138,2020-07-09 00:00:00.000000,1.42229519,2.10008933,3.01076854,327,482,692,162,266,410,0.70533378,1.15892695,1.78717912,0.16073635,0.24011433,0.34929747
18149,0,USIndianaStarke,Indiana,Starke,2021-01-05 23:37:18.631138,2020-07-10 00:00:00.000000,1.43822898,2.11175931,3.02861313,330,485,696,166,269,416,0.72482965,1.17131257,1.81117572,0.15663981,0.23328928,0.34209324
18149,0,USIndianaStarke,Indiana,Starke,2021-01-05 23:37:18.631138,2020-07-11 00:00:00.000000,1.44433723,2.12197227,3.06751785,332,487,705,170,270,419,0.74169901,1.17628027,1.82481165,0.14003228,0.22634376,0.33951923
18149,0,USIndianaStarke,Indiana,Starke,2021-01-05 23:37:18.631138,2020-07-12 00:00:00.000000,1.42568318,2.13002246,3.09778068,327,489,712,173,272,422,0.75531479,1.18641746,1.83690340,0.13698538,0.21257083,0.33320642
18149,0,USIndianaStarke,Indiana,Starke,2021-01-05 23:37:18.631138,2020-07-13 00:00:00.000000,1.42641589,2.13321573,3.12459247,328,490,718,175,272,424,0.76527765,1.18700384,1.84790922,0.13579405,0.21196566,0.32022143
18149,0,USIndianaStarke,Indiana,Starke,2021-01-05 23:37:18.631138,2020-07-14 00:00:00.000000,1.47874154,2.13407734,3.14459794,340,490,723,176,272,426,0.76710955,1.18452701,1.85615163,0.13557727,0.20600622,0.30018165
18149,0,USIndianaStarke,Indiana,Starke,2021-01-05 23:37:18.631138,2020-07-15 00:00:00.000000,1.46601579,2.11903688,3.15822396,337,487,726,175,271,428,0.76208698,1.18036576,1.86209615,0.13539686,0.20318186,0.30229465
18149,0,USIndianaStarke,Indiana,Starke,2021-01-05 23:37:18.631138,2020-07-16 00:00:00.000000,1.46252161,2.08736753,3.16300094,336,479,727,174,270,429,0.75851775,1.17750454,1.86609972,0.13355905,0.19619515,0.28844204
18149,0,USIndianaStarke,Indiana,Starke,2021-01-05 23:37:18.631138,2020-07-17 00:00:00.000000,1.43903822,2.06017033,3.15429874,330,473,725,175,268,429,0.76383637,1.16882122,1.86942261,0.13283857,0.19274718,0.27982026
18149,0,USIndianaStarke,Indiana,Starke,2021-01-05 23:37:18.631138,2020-07-18 00:00:00.000000,1.41196178,2.04136698,3.13209133,324,469,720,173,269,431,0.75508052,1.17008064,1.87504311,0.12718920,0.18717174,0.26448806
18149,0,USIndianaStarke,Indiana,Starke,2021-01-05 23:37:18.631138,2020-07-19 00:00:00.000000,1.39215460,2.01393946,3.10194904,320,463,713,171,266,431,0.74465120,1.15720989,1.87850304,0.12639208,0.17813967,0.26037300
18149,0,USIndianaStarke,Indiana,Starke,2021-01-05 23:37:18.631138,2020-07-20 00:00:00.000000,1.36635962,1.99770248,3.07605384,314,459,707,168,264,432,0.73315469,1.14945629,1.87901075,0.12610491,0.17335721,0.25528855
18149,0,USIndianaStarke,Indiana,Starke,2021-01-05 23:37:18.631138,2020-07-21 00:00:00.000000,1.34075102,1.97388894,3.10741464,308,453,714,165,258,431,0.72173627,1.12529618,1.87785551,0.12450919,0.17047640,0.24912773
18149,0,USIndianaStarke,Indiana,Starke,2021-01-05 23:37:18.631138,2020-07-22 00:00:00.000000,1.31532225,1.92859995,3.12776359,302,443,719,163,255,430,0.71045218,1.11256976,1.87338313,0.11746665,0.17021220,0.24831013
18149,0,USIndianaStarke,Indiana,Starke,2021-01-05 23:37:18.631138,2020-07-23 00:00:00.000000,1.29029619,1.89505907,3.13038562,296,435,719,160,251,428,0.69934387,1.09389494,1.86467193,0.11351217,0.16912266,0.24821062
18149,0,USIndianaStarke,Indiana,Starke,2021-01-05 23:37:18.631138,2020-07-24 00:00:00.000000,1.26590979,1.86365591,3.13712419,291,428,721,158,247,426,0.68844019,1.07559713,1.85636322,0.11198540,0.16855383,0.24794042
18149,0,USIndianaStarke,Indiana,Starke,2021-01-05 23:37:18.631138,2020-07-25 00:00:00.000000,1.24244741,1.83481890,3.14653094,285,421,723,155,242,426,0.67776123,1.05488313,1.85506618,0.11136146,0.16585780,0.24826942
18149,0,USIndianaStarke,Indiana,Starke,2021-01-05 23:37:18.631138,2020-07-26 00:00:00.000000,1.22016772,1.80752600,3.15708997,280,415,725,153,237,428,0.66732180,1.03268258,1.86264821,0.11009591,0.16497605,0.25158984
18149,0,USIndianaStarke,Indiana,Starke,2021-01-05 23:37:18.631138,2020-07-27 00:00:00.000000,1.19357940,1.77121838,3.16278398,274,407,727,151,234,427,0.65712731,1.02101855,1.85720826,0.10850779,0.15914572,0.25363091
18149,0,USIndianaStarke,Indiana,Starke,2021-01-05 23:37:18.631138,2020-07-28 00:00:00.000000,1.16245740,1.72865340,3.16799918,267,397,728,148,231,427,0.64652803,1.00491736,1.85962053,0.10811259,0.15691345,0.25665804
18149,0,USIndianaStarke,Indiana,Starke,2021-01-05 23:37:18.631138,2020-07-29 00:00:00.000000,1.13111573,1.69908434,3.17197971,260,390,729,146,227,428,0.63552187,0.98749045,1.86215555,0.10803332,0.15690922,0.25015366
18149,0,USIndianaStarke,Indiana,Starke,2021-01-05 23:37:18.631138,2020-07-30 00:00:00.000000,1.10960840,1.67363805,3.17409020,255,384,729,143,221,428,0.62435539,0.96280962,1.86463746,0.10802735,0.15753024,0.24256067
18149,0,USIndianaStarke,Indiana,Starke,2021-01-05 23:37:18.631138,2020-07-31 00:00:00.000000,1.08919769,1.63001235,3.17352942,250,374,729,141,214,429,0.61364767,0.93330679,1.86685577,0.10886895,0.15656487,0.23423423
18149,0,USIndianaStarke,Indiana,Starke,2021-01-05 23:37:18.631138,2020-08-01 00:00:00.000000,1.08214368,1.60214379,3.16921708,248,368,728,138,210,429,0.60394008,0.91365472,1.86855668,0.10978093,0.15821718,0.24116140
18149,0,USIndianaStarke,Indiana,Starke,2021-01-05 23:37:18.631138,2020-08-02 00:00:00.000000,1.07260004,1.57251501,3.16027531,246,361,726,137,206,429,0.59611449,0.89610774,1.86941412,0.11147704,0.15799443,0.23997945
18149,0,USIndianaStarke,Indiana,Starke,2021-01-05 23:37:18.631138,2020-08-03 00:00:00.000000,1.04202726,1.53811814,3.15276383,239,353,724,135,204,429,0.58773928,0.88803893,1.86906217,0.11166510,0.15888773,0.24141313
18149,0,USIndianaStarke,Indiana,Starke,2021-01-05 23:37:18.631138,2020-08-04 00:00:00.000000,1.01817561,1.52363460,3.13977817,234,350,721,133,201,429,0.57973271,0.87662453,1.86789933,0.11105959,0.15746398,0.24965729
18149,0,USIndianaStarke,Indiana,Starke,2021-01-05 23:37:18.631138,2020-08-05 00:00:00.000000,0.98460447,1.49708735,3.10103429,226,344,713,131,198,428,0.57173656,0.86151223,1.86546402,0.11093766,0.15891413,0.24993238
18149,0,USIndianaStarke,Indiana,Starke,2021-01-05 23:37:18.631138,2020-08-06 00:00:00.000000,0.94973216,1.46154960,3.06049998,218,336,703,129,194,427,0.56366986,0.84542225,1.86103816,0.10605807,0.16018294,0.25021605
18149,0,USIndianaStarke,Indiana,Starke,2021-01-05 23:37:18.631138,2020-08-07 00:00:00.000000,0.91458697,1.43206521,3.02030425,210,329,694,126,191,426,0.55092544,0.83366489,1.85363111,0.10808779,0.16083771,0.25182705
18149,0,USIndianaStarke,Indiana,Starke,2021-01-05 23:37:18.631138,2020-08-08 00:00:00.000000,0.88050299,1.40419011,2.98084697,202,322,685,122,189,423,0.53193821,0.82371298,1.84276032,0.11281828,0.16366020,0.27291802
18149,0,USIndianaStarke,Indiana,Starke,2021-01-05 23:37:18.631138,2020-08-09 00:00:00.000000,0.85236219,1.37591088,2.94210128,196,316,676,117,185,420,0.51308939,0.80884563,1.82865281,0.11459568,0.16690088,0.28347559
18149,0,USIndianaStarke,Indiana,Starke,2021-01-05 23:37:18.631138,2020-08-10 00:00:00.000000,0.84269861,1.34695332,2.89563148,193,309,665,113,181,416,0.49518574,0.78721183,1.81181027,0.11568595,0.17173303,0.28575301
18149,0,USIndianaStarke,Indiana,Starke,2021-01-05 23:37:18.631138,2020-08-11 00:00:00.000000,0.83644153,1.32815481,2.84411015,192,305,654,113,175,412,0.49182223,0.76529770,1.79234186,0.11577592,0.17332931,0.28694320
18149,0,USIndianaStarke,Indiana,Starke,2021-01-05 23:37:18.631138,2020-08-12 00:00:00.000000,0.83396252,1.31360418,2.79293753,191,302,642,112,171,407,0.48958439,0.74366961,1.77077709,0.11562542,0.17374211,0.28088865
18149,0,USIndianaStarke,Indiana,Starke,2021-01-05 23:37:18.631138,2020-08-13 00:00:00.000000,0.83344491,1.29053959,2.74243715,191,296,630,112,170,401,0.48818693,0.73967970,1.74756514,0.10741203,0.17692831,0.27115464
18149,0,USIndianaStarke,Indiana,Starke,2021-01-05 23:37:18.631138,2020-08-14 00:00:00.000000,0.83467477,1.28336872,2.69337213,191,295,619,112,170,396,0.48744355,0.73967373,1.72310333,0.10444520,0.18208954,0.27330425
18149,0,USIndianaStarke,Indiana,Starke,2021-01-05 23:37:18.631138,2020-08-15 00:00:00.000000,0.83748265,1.28264640,2.64779445,192,294,608,111,170,390,0.48407542,0.74002219,1.69779860,0.10380746,0.18725546,0.28327415
18149,0,USIndianaStarke,Indiana,Starke,2021-01-05 23:37:18.631138,2020-08-16 00:00:00.000000,0.84183088,1.28059911,2.60972554,193,294,600,108,168,384,0.47389205,0.73217315,1.67221303,0.10367005,0.19284342,0.29980204
18149,0,USIndianaStarke,Indiana,Starke,2021-01-05 23:37:18.631138,2020-08-17 00:00:00.000000,0.84638288,1.27047509,2.57999693,194,292,593,107,166,378,0.46585680,0.72577796,1.64725922,0.11112412,0.19254541,0.30371710
18149,0,USIndianaStarke,Indiana,Starke,2021-01-05 23:37:18.631138,2020-08-18 00:00:00.000000,0.84282436,1.27258288,2.53252225,193,292,582,106,164,373,0.46410670,0.71505585,1.62391542,0.11395413,0.19830692,0.30420450
18149,0,USIndianaStarke,Indiana,Starke,2021-01-05 23:37:18.631138,2020-08-19 00:00:00.000000,0.84999216,1.28087792,2.48694304,195,294,571,107,162,367,0.46653627,0.70558744,1.60014658,0.12064065,0.20389548,0.30438323
18149,0,USIndianaStarke,Indiana,Starke,2021-01-05 23:37:18.631138,2020-08-20 00:00:00.000000,0.86219439,1.29972047,2.44894264,198,298,563,107,161,361,0.46966089,0.70145676,1.57276338,0.12270228,0.21340565,0.30779773
18149,0,USIndianaStarke,Indiana,Starke,2021-01-05 23:37:18.631138,2020-08-21 00:00:00.000000,0.85227457,1.28102967,2.42259351,195,294,557,108,162,355,0.47340797,0.70767842,1.54636005,0.12308806,0.21890133,0.32548079
18149,0,USIndianaStarke,Indiana,Starke,2021-01-05 23:37:18.631138,2020-08-22 00:00:00.000000,0.86242850,1.28555836,2.39979375,198,295,551,108,165,350,0.47318332,0.71802225,1.52244432,0.13025134,0.21986796,0.33970432
18149,0,USIndianaStarke,Indiana,Starke,2021-01-05 23:37:18.631138,2020-08-23 00:00:00.000000,0.87820835,1.28478852,2.37758377,201,295,546,110,165,343,0.48077074,0.71918431,1.49594515,0.13209758,0.22574096,0.34644960
18149,0,USIndianaStarke,Indiana,Starke,2021-01-05 23:37:18.631138,2020-08-24 00:00:00.000000,0.90049021,1.29274480,2.35511408,207,297,541,111,165,338,0.48556646,0.71793817,1.47045388,0.13231358,0.22672267,0.34828615
18149,0,USIndianaStarke,Indiana,Starke,2021-01-05 23:37:18.631138,2020-08-25 00:00:00.000000,0.90721185,1.30999082,2.33321646,208,301,536,110,166,332,0.48218742,0.72552407,1.44556633,0.13297823,0.22724751,0.34906573
18149,0,USIndianaStarke,Indiana,Starke,2021-01-05 23:37:18.631138,2020-08-26 00:00:00.000000,0.90792102,1.33807559,2.32510129,208,307,534,110,167,326,0.47981480,0.72689049,1.42129262,0.13653766,0.22865279,0.34936985
18149,0,USIndianaStarke,Indiana,Starke,2021-01-05 23:37:18.631138,2020-08-27 00:00:00.000000,0.90989244,1.35862225,2.29286610,209,312,527,111,169,321,0.48682596,0.73509306,1.39760123,0.14182759,0.23485047,0.34934180
18149,0,USIndianaStarke,Indiana,Starke,2021-01-05 23:37:18.631138,2020-08-28 00:00:00.000000,0.91437841,1.36482254,2.27503366,210,313,523,112,169,316,0.48880405,0.73761034,1.37448549,0.14302051,0.23964386,0.36433284
18149,0,USIndianaStarke,Indiana,Starke,2021-01-05 23:37:18.631138,2020-08-29 00:00:00.000000,0.91779575,1.36399329,2.25947678,211,313,519,113,170,313,0.49259496,0.73940305,1.36168482,0.14611425,0.25078867,0.38154768
18149,0,USIndianaStarke,Indiana,Starke,2021-01-05 23:37:18.631138,2020-08-30 00:00:00.000000,0.91850099,1.37161537,2.24733613,211,315,516,112,170,312,0.48839358,0.74145591,1.35789597,0.15208494,0.25632851,0.38514038
18149,0,USIndianaStarke,Indiana,Starke,2021-01-05 23:37:18.631138,2020-08-31 00:00:00.000000,0.92091228,1.36971323,2.23826804,211,314,514,112,172,312,0.48750374,0.75094332,1.36025056,0.15866086,0.25710440,0.39227982
18149,0,USIndianaStarke,Indiana,Starke,2021-01-05 23:37:18.631138,2020-09-01 00:00:00.000000,0.92409659,1.37765671,2.27330022,212,316,522,110,175,314,0.48244732,0.76399389,1.36817004,0.16271897,0.25645003,0.40192954
18149,0,USIndianaStarke,Indiana,Starke,2021-01-05 23:37:18.631138,2020-09-02 00:00:00.000000,0.95041053,1.38781862,2.32746915,218,319,535,113,179,312,0.49222171,0.78102588,1.36008691,0.16447335,0.26197016,0.40695351
18149,0,USIndianaStarke,Indiana,Starke,2021-01-05 23:37:18.631138,2020-09-03 00:00:00.000000,0.95604188,1.40621959,2.38233667,219,323,547,113,179,311,0.49494556,0.78255932,1.35385366,0.16550990,0.26604104,0.41121428
18149,0,USIndianaStarke,Indiana,Starke,2021-01-05 23:37:18.631138,2020-09-04 00:00:00.000000,0.93782559,1.41824816,2.43799862,215,326,560,113,179,310,0.49571928,0.78274034,1.34940524,0.16770902,0.28147080,0.41551375
18149,0,USIndianaStarke,Indiana,Starke,2021-01-05 23:37:18.631138,2020-09-05 00:00:00.000000,0.94210460,1.46611194,2.46550894,216,337,566,114,179,309,0.49856964,0.77962151,1.34654712,0.17408558,0.29240813,0.41927944
18149,0,USIndianaStarke,Indiana,Starke,2021-01-05 23:37:18.631138,2020-09-06 00:00:00.000000,0.95027506,1.50788506,2.51212158,218,346,577,115,182,309,0.50388634,0.79393411,1.34505862,0.18559816,0.29738253,0.41245523
18149,0,USIndianaStarke,Indiana,Starke,2021-01-05 23:37:18.631138,2020-09-07 00:00:00.000000,0.97058843,1.54291343,2.54590662,223,354,585,117,185,311,0.51148790,0.80565479,1.35383428,0.18862084,0.30363231,0.41214063
18149,0,USIndianaStarke,Indiana,Starke,2021-01-05 23:37:18.631138,2020-09-08 00:00:00.000000,0.99386012,1.57522776,2.57928233,228,362,593,119,190,319,0.52168981,0.82879516,1.38819701,0.19055835,0.30848790,0.42320436
18149,0,USIndianaStarke,Indiana,Starke,2021-01-05 23:37:18.631138,2020-09-09 00:00:00.000000,1.02014021,1.61429328,2.64070144,234,371,607,122,194,328,0.53346811,0.84489766,1.42711221,0.19512634,0.30623109,0.42382340
18149,0,USIndianaStarke,Indiana,Starke,2021-01-05 23:37:18.631138,2020-09-10 00:00:00.000000,1.04748567,1.65384576,2.70312233,240,380,621,125,198,337,0.54606289,0.86320442,1.46941392,0.20071590,0.30771165,0.42414984
18149,0,USIndianaStarke,Indiana,Starke,2021-01-05 23:37:18.631138,2020-09-11 00:00:00.000000,1.08059860,1.69381682,2.76535119,248,389,635,128,205,342,0.55885624,0.89509944,1.48988658,0.20858396,0.31250235,0.44577404
18149,0,USIndianaStarke,Indiana,Starke,2021-01-05 23:37:18.631138,2020-09-12 00:00:00.000000,1.11596334,1.74157084,2.81877242,256,400,648,134,211,347,0.58298760,0.92126138,1.51087298,0.21780758,0.32169300,0.46183919
18149,0,USIndianaStarke,Indiana,Starke,2021-01-05 23:37:18.631138,2020-09-13 00:00:00.000000,1.15577199,1.79511418,2.85928986,265,412,657,138,216,352,0.60372084,0.94360616,1.53210848,0.22146185,0.32398432,0.44597116
18149,0,USIndianaStarke,Indiana,Starke,2021-01-05 23:37:18.631138,2020-09-14 00:00:00.000000,1.20503565,1.85333917,2.89806077,277,426,666,144,220,357,0.62894738,0.96029881,1.55395588,0.22593311,0.32752837,0.47234393
18149,0,USIndianaStarke,Indiana,Starke,2021-01-05 23:37:18.631138,2020-09-15 00:00:00.000000,1.25633299,1.89407029,2.94408951,288,435,676,150,226,362,0.65627997,0.98445767,1.57455658,0.22499568,0.33088534,0.48104533
18149,0,USIndianaStarke,Indiana,Starke,2021-01-05 23:37:18.631138,2020-09-16 00:00:00.000000,1.30928348,1.94163658,3.00581130,301,446,691,154,232,366,0.67253824,1.01254301,1.59463468,0.22253696,0.33618628,0.48880305
18149,0,USIndianaStarke,Indiana,Starke,2021-01-05 23:37:18.631138,2020-09-17 00:00:00.000000,1.36520803,2.00908856,3.06246225,313,461,704,157,237,373,0.68613529,1.03331668,1.62575664,0.22861908,0.33847590,0.46604089
18149,0,USIndianaStarke,Indiana,Starke,2021-01-05 23:37:18.631138,2020-09-18 00:00:00.000000,1.42156352,2.07827729,3.11086102,326,477,715,160,242,385,0.69969038,1.05530860,1.67461578,0.24085119,0.34137871,0.46189963
18149,0,USIndianaStarke,Indiana,Starke,2021-01-05 23:37:18.631138,2020-09-19 00:00:00.000000,1.46452054,2.15165362,3.15955727,336,494,726,164,250,396,0.71393279,1.08765162,1.72601459,0.24327924,0.34813174,0.49319230
18149,0,USIndianaStarke,Indiana,Starke,2021-01-05 23:37:18.631138,2020-09-20 00:00:00.000000,1.51391374,2.22941860,3.23953226,348,512,744,167,262,409,0.72862177,1.14065565,1.78064557,0.24059872,0.34419487,0.50318377
18149,0,USIndianaStarke,Indiana,Starke,2021-01-05 23:37:18.631138,2020-09-21 00:00:00.000000,1.60083198,2.29166421,3.37139837,368,526,775,171,270,421,0.74368973,1.17428998,1.83411593,0.24588942,0.35350540,0.49577207
18149,0,USIndianaStarke,Indiana,Starke,2021-01-05 23:37:18.631138,2020-09-22 00:00:00.000000,1.68534709,2.36920482,3.50897897,387,544,806,173,275,431,0.75576664,1.19721399,1.87744723,0.26474286,0.35466047,0.49160816
18149,0,USIndianaStarke,Indiana,Starke,2021-01-05 23:37:18.631138,2020-09-23 00:00:00.000000,1.71379828,2.44606066,3.64847393,394,562,838,184,282,443,0.80100919,1.22891423,1.92685643,0.27237527,0.35848062,0.48088947
18149,0,USIndianaStarke,Indiana,Starke,2021-01-05 23:37:18.631138,2020-09-24 00:00:00.000000,1.77243438,2.52576823,3.77834650,407,580,868,194,291,455,0.84757013,1.26680216,1.98204875,0.27272211,0.36321111,0.48324674
18149,0,USIndianaStarke,Indiana,Starke,2021-01-05 23:37:18.631138,2020-09-25 00:00:00.000000,1.85146799,2.63024027,3.88447057,425,604,893,202,302,472,0.88114613,1.31483150,2.05616013,0.28013049,0.37288296,0.48528736
18149,0,USIndianaStarke,Indiana,Starke,2021-01-05 23:37:18.631138,2020-09-26 00:00:00.000000,1.89050746,2.72945329,3.99022846,434,627,917,210,314,493,0.91328868,1.36676124,2.14697675,0.28876411,0.38149300,0.50381513
18149,0,USIndianaStarke,Indiana,Starke,2021-01-05 23:37:18.631138,2020-09-27 00:00:00.000000,1.93069827,2.81749927,4.09362761,443,647,941,215,326,512,0.93588947,1.41865822,2.22927120,0.29057213,0.39465228,0.51826931
18149,0,USIndianaStarke,Indiana,Starke,2021-01-05 23:37:18.631138,2020-09-28 00:00:00.000000,1.99010055,2.90292823,4.23404043,457,667,973,221,338,524,0.96162678,1.47060408,2.28236486,0.29178994,0.39883230,0.52905234
18149,0,USIndianaStarke,Indiana,Starke,2021-01-05 23:37:18.631138,2020-09-29 00:00:00.000000,2.05042930,2.99984315,4.37480641,471,689,1005,227,350,537,0.99047476,1.52622084,2.33743361,0.29281094,0.40603014,0.53570640
18149,0,USIndianaStarke,Indiana,Starke,2021-01-05 23:37:18.631138,2020-09-30 00:00:00.000000,2.11270703,3.12070504,4.51735559,485,717,1038,235,363,553,1.02353067,1.58134255,2.40682769,0.29451548,0.42372858,0.54088358
18149,0,USIndianaStarke,Indiana,Starke,2021-01-05 23:37:18.631138,2020-10-01 00:00:00.000000,2.17836418,3.29168064,4.66189354,500,756,1072,244,376,572,1.06157304,1.63830311,2.48834175,0.29915419,0.43076570,0.56373065
18149,0,USIndianaStarke,Indiana,Starke,2021-01-05 23:37:18.631138,2020-10-02 00:00:00.000000,2.29268010,3.42984393,4.88125847,527,788,1122,254,391,591,1.10511226,1.70399915,2.57286502,0.31047753,0.43483181,0.62323468
18149,0,USIndianaStarke,Indiana,Starke,2021-01-05 23:37:18.631138,2020-10-03 00:00:00.000000,2.38377034,3.53610033,5.04541456,548,813,1160,265,408,612,1.15447602,1.77662224,2.66161142,0.33216985,0.43374634,0.63802415
18149,0,USIndianaStarke,Indiana,Starke,2021-01-05 23:37:18.631138,2020-10-04 00:00:00.000000,2.45778306,3.66860679,5.26640027,565,843,1211,278,424,637,1.20989985,1.84749524,2.77279840,0.34148020,0.45235985,0.63196185
18149,0,USIndianaStarke,Indiana,Starke,2021-01-05 23:37:18.631138,2020-10-05 00:00:00.000000,2.56931931,3.83430439,5.47284527,590,881,1258,292,441,666,1.27155595,1.91785940,2.89649385,0.34457907,0.45757662,0.62794347
18149,0,USIndianaStarke,Indiana,Starke,2021-01-05 23:37:18.631138,2020-10-06 00:00:00.000000,2.77872185,4.00402781,5.68626173,638,920,1307,308,456,695,1.34040328,1.98394978,3.02673119,0.34020675,0.46672863,0.63281330
18149,0,USIndianaStarke,Indiana,Starke,2021-01-05 23:37:18.631138,2020-10-07 00:00:00.000000,2.96423992,4.20004713,5.90330762,681,965,1357,325,473,727,1.41565500,2.05857920,3.16279028,0.33536876,0.46709623,0.64250703
18149,0,USIndianaStarke,Indiana,Starke,2021-01-05 23:37:18.631138,2020-10-08 00:00:00.000000,3.11668549,4.36889484,6.12165639,716,1004,1407,343,490,759,1.49568364,2.13355711,3.30423802,0.33368147,0.46764757,0.63896667
18149,0,USIndianaStarke,Indiana,Starke,2021-01-05 23:37:18.631138,2020-10-09 00:00:00.000000,3.27665005,4.58478328,6.34514123,753,1054,1459,363,509,793,1.57877397,2.21493856,3.45082093,0.33335290,0.46501440,0.63245600
18149,0,USIndianaStarke,Indiana,Starke,2021-01-05 23:37:18.631138,2020-10-10 00:00:00.000000,3.44304459,4.79876083,6.57412697,791,1103,1511,378,529,830,1.64650413,2.30226372,3.61194247,0.33093238,0.46781778,0.62334050
18149,0,USIndianaStarke,Indiana,Starke,2021-01-05 23:37:18.631138,2020-10-11 00:00:00.000000,3.61736942,5.02122166,6.91349095,831,1154,1589,391,554,874,1.70406171,2.41278153,3.80410975,0.32939234,0.46639595,0.61246022
18149,0,USIndianaStarke,Indiana,Starke,2021-01-05 23:37:18.631138,2020-10-12 00:00:00.000000,3.79800713,5.22399233,7.26018367,873,1201,1669,413,575,921,1.79844900,2.50213277,4.00880405,0.33475756,0.46661144,0.61205677
18149,0,USIndianaStarke,Indiana,Starke,2021-01-05 23:37:18.631138,2020-10-13 00:00:00.000000,3.97987026,5.49056484,7.65797658,915,1262,1760,437,600,971,1.90166701,2.60932087,4.22434194,0.33746678,0.47332539,0.63425189
18149,0,USIndianaStarke,Indiana,Starke,2021-01-05 23:37:18.631138,2020-10-14 00:00:00.000000,4.18663475,5.79277653,8.15162380,962,1332,1874,455,627,1023,1.98195593,2.72742145,4.45056778,0.34246668,0.47534113,0.62303009
18149,0,USIndianaStarke,Indiana,Starke,2021-01-05 23:37:18.631138,2020-10-15 00:00:00.000000,4.39139132,6.07796518,8.41568415,1009,1397,1935,467,656,1072,2.03361717,2.85412009,4.66607897,0.34999383,0.48064225,0.62704098
18149,0,USIndianaStarke,Indiana,Starke,2021-01-05 23:37:18.631138,2020-10-16 00:00:00.000000,4.59769479,6.36107585,8.77053241,1057,1462,2016,490,688,1112,2.13207980,2.99626185,4.83711092,0.36656053,0.48956153,0.63040371
18149,0,USIndianaStarke,Indiana,Starke,2021-01-05 23:37:18.631138,2020-10-17 00:00:00.000000,4.74326946,6.62684356,9.18092193,1090,1523,2111,524,723,1154,2.28237691,3.14618341,5.02152881,0.35296273,0.49581194,0.63192825
18149,0,USIndianaStarke,Indiana,Starke,2021-01-05 23:37:18.631138,2020-10-18 00:00:00.000000,4.85668634,6.89702280,9.60445342,1116,1585,2208,558,764,1202,2.43022288,3.32275648,5.22774941,0.36014138,0.49188033,0.65095713
18149,0,USIndianaStarke,Indiana,Starke,2021-01-05 23:37:18.631138,2020-10-19 00:00:00.000000,5.07558107,7.22484188,10.04357988,1167,1661,2309,586,800,1249,2.54907885,3.47953805,5.43298190,0.37800360,0.49882728,0.65708983
18149,0,USIndianaStarke,Indiana,Starke,2021-01-05 23:37:18.631138,2020-10-20 00:00:00.000000,5.33214272,7.56832707,10.49916682,1226,1740,2414,614,839,1285,2.67371371,3.64884556,5.58864681,0.38498371,0.50171212,0.66446849
18149,0,USIndianaStarke,Indiana,Starke,2021-01-05 23:37:18.631138,2020-10-21 00:00:00.000000,5.60315084,7.87671483,10.96498739,1288,1811,2521,644,875,1325,2.80397410,3.80765901,5.76541930,0.38586431,0.50745562,0.66017893
18149,0,USIndianaStarke,Indiana,Starke,2021-01-05 23:37:18.631138,2020-10-22 00:00:00.000000,5.82290506,8.17406530,11.42688947,1338,1879,2627,676,914,1371,2.93989537,3.97779078,5.96428585,0.38937564,0.50901369,0.65644250
18149,0,USIndianaStarke,Indiana,Starke,2021-01-05 23:37:18.631138,2020-10-23 00:00:00.000000,6.04213627,8.49122694,11.86443917,1389,1952,2728,708,963,1420,3.08191946,4.19036096,6.17592692,0.39007900,0.51309846,0.65387064
18149,0,USIndianaStarke,Indiana,Starke,2021-01-05 23:37:18.631138,2020-10-24 00:00:00.000000,6.26529275,8.90376841,12.38390597,1440,2047,2847,743,1009,1468,3.23121984,4.39041636,6.38740698,0.38810745,0.51342177,0.64911237
18149,0,USIndianaStarke,Indiana,Starke,2021-01-05 23:37:18.631138,2020-10-25 00:00:00.000000,6.61038325,9.30597321,12.76345848,1520,2139,2934,779,1055,1515,3.38997928,4.58980447,6.58923294,0.38627462,0.50410742,0.65740890
18149,0,USIndianaStarke,Indiana,Starke,2021-01-05 23:37:18.631138,2020-10-26 00:00:00.000000,6.98014635,9.64112656,13.40860304,1605,2216,3083,818,1098,1565,3.56114514,4.77548562,6.80607031,0.35395547,0.49855920,0.69675000
18149,0,USIndianaStarke,Indiana,Starke,2021-01-05 23:37:18.631138,2020-10-27 00:00:00.000000,7.23123050,10.06373323,14.12911357,1662,2314,3248,847,1142,1641,3.68491451,4.96754936,7.13966145,0.36804440,0.49511762,0.71579126
18149,0,USIndianaStarke,Indiana,Starke,2021-01-05 23:37:18.631138,2020-10-28 00:00:00.000000,7.48168660,10.47490530,14.85522596,1720,2408,3415,875,1184,1719,3.80705014,5.15275940,7.47921703,0.36178417,0.48420055,0.71881042
18149,0,USIndianaStarke,Indiana,Starke,2021-01-05 23:37:18.631138,2020-10-29 00:00:00.000000,7.67068518,10.74439819,15.48430374,1763,2470,3560,904,1232,1798,3.93207773,5.35915328,7.81913678,0.36117329,0.48115049,0.70680846
18149,0,USIndianaStarke,Indiana,Starke,2021-01-05 23:37:18.631138,2020-10-30 00:00:00.000000,7.85120855,10.96563320,15.78520806,1805,2521,3629,933,1273,1874,4.05936391,5.53670415,8.15282833,0.35548836,0.48337190,0.65981328
18149,0,USIndianaStarke,Indiana,Starke,2021-01-05 23:37:18.631138,2020-10-31 00:00:00.000000,8.02487897,11.25649779,16.04412257,1845,2588,3689,963,1317,1948,4.18880548,5.72960200,8.47382459,0.35390374,0.48004753,0.62845738
18149,0,USIndianaStarke,Indiana,Starke,2021-01-05 23:37:18.631138,2020-11-01 00:00:00.000000,8.19183104,11.55785934,16.27909455,1883,2657,3743,994,1361,2018,4.32490569,5.91893644,8.77747989,0.35319012,0.47123769,0.60357331
18149,0,USIndianaStarke,Indiana,Starke,2021-01-05 23:37:18.631138,2020-11-02 00:00:00.000000,8.34264631,11.84581623,16.50086961,1918,2723,3794,1029,1405,2083,4.47607287,6.11341990,9.06180003,0.35307178,0.46270943,0.59776956
18149,0,USIndianaStarke,Indiana,Starke,2021-01-05 23:37:18.631138,2020-11-03 00:00:00.000000,8.48626691,12.14863850,16.90178376,1951,2793,3886,1057,1446,2144,4.59978677,6.29185548,9.32650581,0.35280134,0.45991591,0.59767931
18149,0,USIndianaStarke,Indiana,Starke,2021-01-05 23:37:18.631138,2020-11-04 00:00:00.000000,8.62237844,12.41397033,17.36675068,1982,2854,3993,1084,1487,2201,4.71638542,6.46888792,9.57294057,0.33922683,0.45380946,0.59726024
18149,0,USIndianaStarke,Indiana,Starke,2021-01-05 23:37:18.631138,2020-11-05 00:00:00.000000,8.75219818,12.67003895,17.81143449,2012,2913,4095,1100,1523,2254,4.78633665,6.62369763,9.80255087,0.32555137,0.45113425,0.58176389
18149,0,USIndianaStarke,Indiana,Starke,2021-01-05 23:37:18.631138,2020-11-06 00:00:00.000000,8.94924896,12.95710530,18.21987996,2057,2979,4189,1109,1550,2302,4.82554287,6.74081562,10.01360498,0.33416052,0.45108914,0.55809385
18149,0,USIndianaStarke,Indiana,Starke,2021-01-05 23:37:18.631138,2020-11-07 00:00:00.000000,9.14104516,13.20778605,18.51004376,2101,3037,4256,1124,1578,2347,4.89082700,6.86369925,10.20771731,0.34359793,0.45309341,0.55857765
18149,0,USIndianaStarke,Indiana,Starke,2021-01-05 23:37:18.631138,2020-11-08 00:00:00.000000,9.31923537,13.43435506,18.64576446,2142,3089,4287,1136,1605,2387,4.94337182,6.98002030,10.38425185,0.34760471,0.44991121,0.58760067
18149,0,USIndianaStarke,Indiana,Starke,2021-01-05 23:37:18.631138,2020-11-09 00:00:00.000000,9.48431336,13.63938304,18.71336902,2180,3136,4303,1146,1627,2424,4.98543704,7.07878153,10.54357250,0.33614337,0.45820813,0.58320749
18149,0,USIndianaStarke,Indiana,Starke,2021-01-05 23:37:18.631138,2020-11-10 00:00:00.000000,9.63783962,13.82642415,18.76082310,2216,3179,4314,1154,1650,2466,5.02234624,7.17705181,10.72495312,0.33595208,0.45315242,0.57774802
18149,0,USIndianaStarke,Indiana,Starke,2021-01-05 23:37:18.631138,2020-11-11 00:00:00.000000,9.74320347,14.00166207,18.80042702,2240,3219,4323,1162,1664,2515,5.05562387,7.23756321,10.94039355,0.32934829,0.45129883,0.57237918
18149,0,USIndianaStarke,Indiana,Starke,2021-01-05 23:37:18.631138,2020-11-12 00:00:00.000000,9.82013624,14.12037101,18.85348082,2258,3246,4335,1169,1674,2560,5.08781978,7.28405232,11.13372222,0.31095196,0.45751624,0.59457249
18149,0,USIndianaStarke,Indiana,Starke,2021-01-05 23:37:18.631138,2020-11-13 00:00:00.000000,9.94584683,14.18492137,18.96159189,2287,3261,4360,1177,1691,2597,5.12279628,7.35496040,11.29782231,0.32025626,0.46610788,0.62621917
18149,0,USIndianaStarke,Indiana,Starke,2021-01-05 23:37:18.631138,2020-11-14 00:00:00.000000,10.04465799,14.31682922,19.17184850,2309,3292,4408,1187,1723,2605,5.16329092,7.49656953,11.33181238,0.35296843,0.47103777,0.62432208
18149,0,USIndianaStarke,Indiana,Starke,2021-01-05 23:37:18.631138,2020-11-15 00:00:00.000000,10.09827503,14.41353891,19.48505391,2322,3314,4480,1197,1749,2602,5.20921204,7.60904723,11.31594611,0.35527821,0.48365212,0.62203551
18149,0,USIndianaStarke,Indiana,Starke,2021-01-05 23:37:18.631138,2020-11-16 00:00:00.000000,10.17396603,14.49796205,19.86325142,2339,3333,4567,1209,1787,2605,5.25982543,7.77269441,11.33153167,0.35546192,0.49234720,0.64134877
18149,0,USIndianaStarke,Indiana,Starke,2021-01-05 23:37:18.631138,2020-11-17 00:00:00.000000,10.24346822,14.58480165,20.24736477,2355,3353,4655,1233,1815,2618,5.36598921,7.89469637,11.38627228,0.35545141,0.49491552,0.64383526
18149,0,USIndianaStarke,Indiana,Starke,2021-01-05 23:37:18.631138,2020-11-18 00:00:00.000000,10.24771562,14.81521696,20.61299592,2356,3406,4739,1257,1828,2652,5.47061931,7.95042195,11.53299195,0.35547647,0.50257310,0.67710687
18149,0,USIndianaStarke,Indiana,Starke,2021-01-05 23:37:18.631138,2020-11-19 00:00:00.000000,10.24689625,15.00181914,20.95142170,2356,3449,4817,1281,1836,2681,5.57119002,7.98791754,11.66151916,0.35561913,0.51384072,0.70335518
18149,0,USIndianaStarke,Indiana,Starke,2021-01-05 23:37:18.631138,2020-11-20 00:00:00.000000,10.26216974,15.16236909,21.01467124,2359,3486,4832,1286,1844,2696,5.59347600,8.01918099,11.72553021,0.35640355,0.53478522,0.75235179
18149,0,USIndianaStarke,Indiana,Starke,2021-01-05 23:37:18.631138,2020-11-21 00:00:00.000000,10.32172352,15.29040072,21.07470850,2373,3516,4846,1284,1849,2731,5.58429471,8.04498678,11.87737540,0.36906230,0.56079070,0.80802361
18149,0,USIndianaStarke,Indiana,Starke,2021-01-05 23:37:18.631138,2020-11-22 00:00:00.000000,10.49365545,15.42897736,21.31593130,2413,3547,4901,1285,1863,2770,5.59042131,8.10444179,12.04793799,0.40525734,0.59786713,0.83219123
18149,0,USIndianaStarke,Indiana,Starke,2021-01-05 23:37:18.631138,2020-11-23 00:00:00.000000,10.71259824,15.59204565,21.76948145,2463,3585,5005,1294,1878,2815,5.62899993,8.16855802,12.24462108,0.40923004,0.64996220,0.87787203
18149,0,USIndianaStarke,Indiana,Starke,2021-01-05 23:37:18.631138,2020-11-24 00:00:00.000000,10.93702486,15.82621109,22.47877560,2514,3639,5168,1310,1899,2867,5.69822025,8.26119549,12.47127806,0.42897991,0.68285942,0.88201831
18149,0,USIndianaStarke,Indiana,Starke,2021-01-05 23:37:18.631138,2020-11-25 00:00:00.000000,11.16817296,16.04788327,22.74106743,2568,3690,5229,1330,1927,2927,5.78716912,8.38130947,12.72894491,0.48484031,0.70712428,0.91832739
18149,0,USIndianaStarke,Indiana,Starke,2021-01-05 23:37:18.631138,2020-11-26 00:00:00.000000,11.42504207,16.36943118,23.04420945,2627,3764,5299,1354,1954,2978,5.88953222,8.49812177,12.95168606,0.48740629,0.74230595,1.01553500
18149,0,USIndianaStarke,Indiana,Starke,2021-01-05 23:37:18.631138,2020-11-27 00:00:00.000000,11.72208218,16.63056722,23.27121057,2695,3824,5351,1380,1979,3033,6.00528583,8.60633436,13.19333135,0.51556709,0.76227766,1.10651800
18149,0,USIndianaStarke,Indiana,Starke,2021-01-05 23:37:18.631138,2020-11-28 00:00:00.000000,11.94965604,16.78377981,23.48721147,2747,3859,5400,1411,2009,3072,6.13750819,8.74077685,13.36329731,0.56384105,0.77857197,1.16463871
18149,0,USIndianaStarke,Indiana,Starke,2021-01-05 23:37:18.631138,2020-11-29 00:00:00.000000,12.09023409,17.06949883,23.72188842,2780,3925,5454,1436,2043,3110,6.24913980,8.88491963,13.52487224,0.60680521,0.80486973,1.19415286
18149,0,USIndianaStarke,Indiana,Starke,2021-01-05 23:37:18.631138,2020-11-30 00:00:00.000000,12.20921624,17.28000436,23.96456487,2807,3973,5510,1447,2067,3146,6.29563503,8.99000027,13.68254963,0.61385347,0.83005439,1.20740911
18149,0,USIndianaStarke,Indiana,Starke,2021-01-05 23:37:18.631138,2020-12-01 00:00:00.000000,12.31201320,17.44463368,24.16516395,2831,4011,5556,1461,2093,3181,6.35605121,9.10209017,13.83748425,0.61934105,0.84226364,1.21304087
18149,0,USIndianaStarke,Indiana,Starke,2021-01-05 23:37:18.631138,2020-12-02 00:00:00.000000,12.40522362,17.54770118,24.30112190,2852,4035,5588,1477,2128,3215,6.42506149,9.25814529,13.98526171,0.62435745,0.84265892,1.22325191
18149,0,USIndianaStarke,Indiana,Starke,2021-01-05 23:37:18.631138,2020-12-03 00:00:00.000000,12.49287514,17.57768251,24.39430793,2872,4041,5609,1493,2162,3273,6.49698922,9.40394484,14.23393993,0.63090186,0.83133833,1.23305117
18149,0,USIndianaStarke,Indiana,Starke,2021-01-05 23:37:18.631138,2020-12-04 00:00:00.000000,12.57614571,17.69173908,24.37869008,2891,4068,5605,1510,2190,3333,6.56730253,9.52497361,14.49650283,0.62366975,0.84420824,1.26186390
18149,0,USIndianaStarke,Indiana,Starke,2021-01-05 23:37:18.631138,2020-12-05 00:00:00.000000,12.53019720,17.74246206,24.31776243,2881,4079,5591,1525,2206,3381,6.63249331,9.59728503,14.70504001,0.60096802,0.84290734,1.28139146
18149,0,USIndianaStarke,Indiana,Starke,2021-01-05 23:37:18.631138,2020-12-06 00:00:00.000000,12.39716491,17.86234798,24.26043248,2850,4107,5578,1532,2218,3414,6.66430080,9.64847683,14.84845434,0.56811777,0.87025173,1.38794241
18149,0,USIndianaStarke,Indiana,Starke,2021-01-05 23:37:18.631138,2020-12-07 00:00:00.000000,12.47204683,17.81582647,24.28354772,2867,4096,5584,1523,2221,3431,6.62497717,9.66105455,14.92308774,0.53683646,0.87852232,1.46917021
18149,0,USIndianaStarke,Indiana,Starke,2021-01-05 23:37:18.631138,2020-12-08 00:00:00.000000,12.53806937,17.66465215,24.32094760,2883,4061,5592,1511,2218,3496,6.57278089,9.64911800,15.20427647,0.53154606,0.88165980,1.48888732
18149,0,USIndianaStarke,Indiana,Starke,2021-01-05 23:37:18.631138,2020-12-09 00:00:00.000000,12.56235356,17.44673922,24.02874222,2888,4011,5525,1496,2214,3551,6.50786540,9.63119318,15.44594577,0.52070365,0.88835703,1.49981047
18149,0,USIndianaStarke,Indiana,Starke,2021-01-05 23:37:18.631138,2020-12-10 00:00:00.000000,12.54292947,17.18342445,23.90433433,2884,3951,5496,1485,2202,3596,6.46156281,9.57797745,15.64160047,0.50083513,0.89622869,1.50568635
18149,0,USIndianaStarke,Indiana,Starke,2021-01-05 23:37:18.631138,2020-12-11 00:00:00.000000,12.47947771,16.87794876,23.77484567,2869,3881,5467,1485,2186,3559,6.46190694,9.50812953,15.48017542,0.50075376,0.89205891,1.50889315
18149,0,USIndianaStarke,Indiana,Starke,2021-01-05 23:37:18.631138,2020-12-12 00:00:00.000000,12.17553792,16.56096030,23.58802120,2799,3808,5424,1482,2163,3509,6.44814248,9.40916837,15.26257818,0.48220491,0.88360880,1.51109177
18149,0,USIndianaStarke,Indiana,Starke,2021-01-05 23:37:18.631138,2020-12-13 00:00:00.000000,11.71373510,16.23045168,23.34481632,2693,3732,5368,1476,2142,3448,6.41943570,9.31583945,14.99542648,0.46936872,0.88364849,1.51466731
18149,0,USIndianaStarke,Indiana,Starke,2021-01-05 23:37:18.631138,2020-12-14 00:00:00.000000,11.24170652,15.82911992,23.04402532,2585,3639,5298,1448,2109,3376,6.29779259,9.17350367,14.68364071,0.46371931,0.88298279,1.52668378
18149,0,USIndianaStarke,Indiana,Starke,2021-01-05 23:37:18.631138,2020-12-15 00:00:00.000000,10.76574044,15.39904767,22.69910711,2475,3541,5219,1396,2067,3295,6.07285526,8.99320020,14.33208065,0.46131682,0.88251706,1.55775602
18149,0,USIndianaStarke,Indiana,Starke,2021-01-05 23:37:18.631138,2020-12-16 00:00:00.000000,10.29335120,14.98965204,22.31337748,2366,3446,5130,1343,2021,3206,5.84065576,8.79014905,13.94633015,0.45954243,0.88154153,1.59327600
18149,0,USIndianaStarke,Indiana,Starke,2021-01-05 23:37:18.631138,2020-12-17 00:00:00.000000,9.82876253,14.54229738,21.88786964,2260,3344,5033,1288,1969,3111,5.60481595,8.56659618,13.53194037,0.45429221,0.85532661,1.62424810
18149,0,USIndianaStarke,Indiana,Starke,2021-01-05 23:37:18.631138,2020-12-18 00:00:00.000000,9.37463170,14.10769792,21.42105438,2155,3244,4925,1249,1919,3026,5.43195045,8.34707464,13.16200516,0.44153083,0.83857828,1.66950189
18149,0,USIndianaStarke,Indiana,Starke,2021-01-05 23:37:18.631138,2020-12-19 00:00:00.000000,8.97838484,13.66181745,20.91067674,2064,3141,4808,1212,1865,2966,5.27406925,8.11167036,12.90104070,0.43318669,0.82512540,1.68047712
18149,0,USIndianaStarke,Indiana,Starke,2021-01-05 23:37:18.631138,2020-12-20 00:00:00.000000,8.67125994,13.18777756,20.35993691,1993,3032,4681,1175,1808,2898,5.11257959,7.86412003,12.60698188,0.43125305,0.84596647,1.69263645
18149,0,USIndianaStarke,Indiana,Starke,2021-01-05 23:37:18.631138,2020-12-21 00:00:00.000000,8.36187759,12.69300150,19.77001187,1922,2918,4546,1137,1746,2828,4.94839739,7.59594370,12.29834598,0.42002344,0.81700008,1.73197906
18149,0,USIndianaStarke,Indiana,Starke,2021-01-05 23:37:18.631138,2020-12-22 00:00:00.000000,8.05295889,12.20894912,19.16255010,1851,2807,4406,1099,1685,2771,4.78116694,7.33072297,12.05360969,0.41537590,0.81062293,1.82618140
18149,0,USIndianaStarke,Indiana,Starke,2021-01-05 23:37:18.631138,2020-12-23 00:00:00.000000,7.74777968,11.68848260,18.54823863,1781,2687,4265,1060,1632,2710,4.61207205,7.09985838,11.78815802,0.41113714,0.80917773,1.85416320
18149,0,USIndianaStarke,Indiana,Starke,2021-01-05 23:37:18.631138,2020-12-24 00:00:00.000000,7.44791880,11.17152500,17.95933522,1712,2568,4129,1021,1582,2645,4.44215450,6.88319027,11.50562718,0.39005090,0.80537066,1.84683338
18149,0,USIndianaStarke,Indiana,Starke,2021-01-05 23:37:18.631138,2020-12-25 00:00:00.000000,7.15435085,10.66272657,17.44887531,1645,2451,4012,982,1532,2578,4.27233589,6.66374255,11.21275509,0.38111652,0.80857070,1.82889573
18149,0,USIndianaStarke,Indiana,Starke,2021-01-05 23:37:18.631138,2020-12-26 00:00:00.000000,6.85496895,10.16557072,16.93167195,1576,2337,3893,943,1477,2511,4.10342535,6.42431055,10.92123532,0.36895652,0.81040398,1.80082196
18149,0,USIndianaStarke,Indiana,Starke,2021-01-05 23:37:18.631138,2020-12-27 00:00:00.000000,6.39499166,9.68019366,16.31520789,1470,2225,3751,905,1411,2444,3.93612190,6.13770689,10.63239455,0.35924885,0.80645420,1.76325463
18149,0,USIndianaStarke,Indiana,Starke,2021-01-05 23:37:18.631138,2020-12-28 00:00:00.000000,5.94604322,9.17733611,15.69280353,1367,2110,3608,867,1343,2378,3.77102514,5.84451180,10.34474938,0.35059813,0.79604914,1.71131925
18149,0,USIndianaStarke,Indiana,Starke,2021-01-05 23:37:18.631138,2020-12-29 00:00:00.000000,5.52063883,8.68066006,15.08113983,1269,1996,3467,829,1279,2312,3.60807735,5.56577286,10.05625090,0.33628613,0.81385761,1.64232614
18149,0,USIndianaStarke,Indiana,Starke,2021-01-05 23:37:18.631138,2020-12-30 00:00:00.000000,5.11876260,8.22164620,14.48571837,1177,1890,3330,792,1216,2245,3.44789432,5.29069010,9.76661468,0.33196408,0.82365102,1.60754587
18149,0,USIndianaStarke,Indiana,Starke,2021-01-05 23:37:18.631138,2020-12-31 00:00:00.000000,4.74055373,7.78030268,13.90914760,1090,1789,3198,743,1154,2178,3.23451474,5.02128804,9.47594342,0.33091570,0.82006315,1.64997559
18149,0,USIndianaStarke,Indiana,Starke,2021-01-05 23:37:18.631138,2021-01-01 00:00:00.000000,4.39826843,7.30131464,13.34916205,1011,1678,3069,696,1094,2111,3.02712901,4.75967892,9.18457144,0.33107116,0.82750771,1.74353071
18149,0,USIndianaStarke,Indiana,Starke,2021-01-05 23:37:18.631138,2021-01-02 00:00:00.000000,4.04765731,6.84093598,12.80167258,930,1573,2943,644,1036,2044,2.80313262,4.50660462,8.89293414,0.33233191,0.81224812,1.79835757
18149,0,USIndianaStarke,Indiana,Starke,2021-01-05 23:37:18.631138,2021-01-03 00:00:00.000000,3.73126038,6.40790167,12.26417243,858,1473,2820,589,981,1977,2.56247243,4.26801883,8.60152917,0.33007074,0.81071027,1.82660669
18149,0,USIndianaStarke,Indiana,Starke,2021-01-05 23:37:18.631138,2021-01-04 00:00:00.000000,3.43254337,6.07856014,11.73625993,789,1397,2698,537,927,1911,2.33753576,4.03346139,8.31091344,0.29940555,0.81279129,1.84032717
18149,0,USIndianaStarke,Indiana,Starke,2021-01-05 23:37:18.631138,2021-01-05 00:00:00.000000,3.15419727,5.76593670,11.21880988,725,1325,2579,489,875,1844,2.12873625,3.80755343,8.02169249,0.30338397,0.81003429,1.84692222
18149,0,USIndianaStarke,Indiana,Starke,2021-01-05 23:37:18.631138,2021-01-06 00:00:00.000000,2.89608355,5.43936721,10.71311119,665,1250,2463,453,823,1778,1.97185153,3.58166483,7.73450096,0.31474323,0.80971081,1.85010952
18149,0,USIndianaStarke,Indiana,Starke,2021-01-05 23:37:18.631138,2021-01-07 00:00:00.000000,2.65727477,5.10161237,10.22036782,611,1173,2350,425,773,1713,1.85106329,3.36393766,7.44998085,0.32308576,0.80979228,1.85166098
18149,0,USIndianaStarke,Indiana,Starke,2021-01-05 23:37:18.631138,2021-01-08 00:00:00.000000,2.43672071,4.78337389,9.74083692,560,1099,2239,399,726,1648,1.73575896,3.16039825,7.16876191,0.32512677,0.80980417,1.85242235
18149,0,USIndianaStarke,Indiana,Starke,2021-01-05 23:37:18.631138,2021-01-09 00:00:00.000000,2.23406541,4.47277825,9.27530708,513,1028,2132,373,681,1584,1.62613392,2.96312097,6.89144614,0.32472720,0.80980533,1.85279908
18149,0,USIndianaStarke,Indiana,Starke,2021-01-05 23:37:18.631138,2021-01-10 00:00:00.000000,2.04835078,4.19783090,8.82510944,471,965,2029,344,638,1521,1.50020552,2.77523512,6.61859664,0.32458888,0.80980514,1.85298689
18149,0,USIndianaStarke,Indiana,Starke,2021-01-05 23:37:18.631138,2021-01-11 00:00:00.000000,1.87737870,3.94735831,8.39058117,431,907,1929,316,597,1460,1.37589484,2.59685550,6.35073001,0.32454150,0.80980493,1.85308110
18149,0,USIndianaStarke,Indiana,Starke,2021-01-05 23:37:18.631138,2021-01-12 00:00:00.000000,1.72011459,3.71044645,7.97192299,395,853,1833,290,558,1400,1.26120224,2.42795046,6.08831166,0.32452533,0.80980481,1.85312859
18149,0,USIndianaStarke,Indiana,Starke,2021-01-05 23:37:18.631138,2021-01-13 00:00:00.000000,1.57774688,3.48383728,7.56921931,362,801,1740,265,521,1341,1.15552687,2.26963731,5.83175337,0.32451981,0.80980475,1.85315262
18149,0,USIndianaStarke,Indiana,Starke,2021-01-05 23:37:18.631138,2021-01-14 00:00:00.000000,1.47907166,3.24536606,7.18245424,340,746,1651,243,489,1283,1.05827106,2.13062554,5.58141241,0.32451794,0.80980472,1.85316482
18149,0,USIndianaStarke,Indiana,Starke,2021-01-05 23:37:18.631138,2021-01-15 00:00:00.000000,1.38658300,3.03465793,6.81152509,318,697,1566,222,461,1227,0.96935070,2.00880511,5.33759213,0.32451730,0.80980471,1.85317101
18149,0,USIndianaStarke,Indiana,Starke,2021-01-05 23:37:18.631138,2021-01-16 00:00:00.000000,1.29985915,2.83641343,6.45625443,298,652,1484,204,434,1172,0.88784949,1.88913318,5.10054334,0.32451708,0.80980470,1.85317417
18149,0,USIndianaStarke,Indiana,Starke,2021-01-05 23:37:18.631138,2021-01-17 00:00:00.000000,1.21714570,2.65381688,6.11640085,279,610,1406,186,406,1119,0.81298384,1.76641145,4.87046654,0.32451700,0.80980470,1.85317578
