FIPS,HR_UID,nameid,province,region,analysisTime,dates,pointprevalence_025,pointprevalence_50,pointprevalence_975,pointinfections_025,pointinfections_50,pointinfections_975,pointinfectious_025,pointinfectious_50,pointinfectious_975,pointinfectiousprevalence_05,pointinfectiousprevalence_50,pointinfectiousprevalence_95,infectrate_025,infectrate_50,infectrate_975
48359,0,USTexasOldham,Texas,Oldham,2021-01-05 08:11:32.504014,2020-03-09 00:00:00.000000,0.04660199,0.15756770,0.51928407,0,3,10,0,1,5,0.01246675,0.06431699,0.27296253,0.34206886,0.44551583,0.60940559
48359,0,USTexasOldham,Texas,Oldham,2021-01-05 08:11:32.504014,2020-03-10 00:00:00.000000,0.07355221,0.21850384,0.57738192,1,4,12,0,1,5,0.01647094,0.07191398,0.27640694,0.34207015,0.44551514,0.60940549
48359,0,USTexasOldham,Texas,Oldham,2021-01-05 08:11:32.504014,2020-03-11 00:00:00.000000,0.09336553,0.27679627,0.63600621,1,5,13,0,1,6,0.02596847,0.09037720,0.28689655,0.34207233,0.44551355,0.60940525
48359,0,USTexasOldham,Texas,Oldham,2021-01-05 08:11:32.504014,2020-03-12 00:00:00.000000,0.11908501,0.33555320,0.73014805,2,7,15,0,2,6,0.03846298,0.11229255,0.30226388,0.34207584,0.44550977,0.60940466
48359,0,USTexasOldham,Texas,Oldham,2021-01-05 08:11:32.504014,2020-03-13 00:00:00.000000,0.14695076,0.38698836,0.83864369,3,8,17,1,2,6,0.05391787,0.13629422,0.32866938,0.34208055,0.44550034,0.60940323
48359,0,USTexasOldham,Texas,Oldham,2021-01-05 08:11:32.504014,2020-03-14 00:00:00.000000,0.17695948,0.43401926,0.95781500,3,9,20,1,3,7,0.06866364,0.16373122,0.37436377,0.34208198,0.44547549,0.60939963
48359,0,USTexasOldham,Texas,Oldham,2021-01-05 08:11:32.504014,2020-03-15 00:00:00.000000,0.20935145,0.48862497,1.08625620,4,10,22,1,4,8,0.08357314,0.19523130,0.42332080,0.33021987,0.44245071,0.60938980
48359,0,USTexasOldham,Texas,Oldham,2021-01-05 08:11:32.504014,2020-03-16 00:00:00.000000,0.26538443,0.57098125,1.20395930,5,12,25,2,4,10,0.09996788,0.22462815,0.49091562,0.32915954,0.43931995,0.60935845
48359,0,USTexasOldham,Texas,Oldham,2021-01-05 08:11:32.504014,2020-03-17 00:00:00.000000,0.29769422,0.66156879,1.33217495,6,13,28,2,5,11,0.12295400,0.26371016,0.55674336,0.32683966,0.43639519,0.60923302
48359,0,USTexasOldham,Texas,Oldham,2021-01-05 08:11:32.504014,2020-03-18 00:00:00.000000,0.33267893,0.73830747,1.46876858,7,15,31,3,6,13,0.14680728,0.30613300,0.62219499,0.29021370,0.42436021,0.60865382
48359,0,USTexasOldham,Texas,Oldham,2021-01-05 08:11:32.504014,2020-03-19 00:00:00.000000,0.37012408,0.84229055,1.61128211,7,17,34,3,7,14,0.17086462,0.35269998,0.68426648,0.25989446,0.40683710,0.56674184
48359,0,USTexasOldham,Texas,Oldham,2021-01-05 08:11:32.504014,2020-03-20 00:00:00.000000,0.41525692,0.91094725,1.74220095,8,19,36,4,8,15,0.19626693,0.39667805,0.75687388,0.21692345,0.38378666,0.55082152
48359,0,USTexasOldham,Texas,Oldham,2021-01-05 08:11:32.504014,2020-03-21 00:00:00.000000,0.47472907,0.98869044,1.91012436,10,20,40,4,9,17,0.22279961,0.44042285,0.82014162,0.21078105,0.34882942,0.48512773
48359,0,USTexasOldham,Texas,Oldham,2021-01-05 08:11:32.504014,2020-03-22 00:00:00.000000,0.51809411,1.08373436,2.05794740,10,22,43,5,10,18,0.25035148,0.48349713,0.87878799,0.19724280,0.31870644,0.46243600
48359,0,USTexasOldham,Texas,Oldham,2021-01-05 08:11:32.504014,2020-03-23 00:00:00.000000,0.58958785,1.17183019,2.12240829,12,24,44,5,11,19,0.27124651,0.53610307,0.93362009,0.19323371,0.30256099,0.43871327
48359,0,USTexasOldham,Texas,Oldham,2021-01-05 08:11:32.504014,2020-03-24 00:00:00.000000,0.64101210,1.24056659,2.21950865,13,26,46,6,12,21,0.28568170,0.57215312,1.00072662,0.19342913,0.28753885,0.43065487
48359,0,USTexasOldham,Texas,Oldham,2021-01-05 08:11:32.504014,2020-03-25 00:00:00.000000,0.69957669,1.31440013,2.31292531,14,27,48,6,12,23,0.30935816,0.60831836,1.09588521,0.19495200,0.27607181,0.41048152
48359,0,USTexasOldham,Texas,Oldham,2021-01-05 08:11:32.504014,2020-03-26 00:00:00.000000,0.74416009,1.38986271,2.40234432,15,29,50,7,13,25,0.33380068,0.65103939,1.19651391,0.18582448,0.26761432,0.40969527
48359,0,USTexasOldham,Texas,Oldham,2021-01-05 08:11:32.504014,2020-03-27 00:00:00.000000,0.79597299,1.44980329,2.47379296,16,30,52,7,14,26,0.35751990,0.70192128,1.23697648,0.17073782,0.25053007,0.39570593
48359,0,USTexasOldham,Texas,Oldham,2021-01-05 08:11:32.504014,2020-03-28 00:00:00.000000,0.84786595,1.51877354,2.57958298,17,32,54,8,15,27,0.38015433,0.74207145,1.32490669,0.16797807,0.23826268,0.37980501
48359,0,USTexasOldham,Texas,Oldham,2021-01-05 08:11:32.504014,2020-03-29 00:00:00.000000,0.89715084,1.57181853,2.65222375,18,33,56,8,16,29,0.41150215,0.77916533,1.40804041,0.16715213,0.22782360,0.35596386
48359,0,USTexasOldham,Texas,Oldham,2021-01-05 08:11:32.504014,2020-03-30 00:00:00.000000,0.97516199,1.65189728,2.66084920,20,34,56,9,17,30,0.45755663,0.83100319,1.43910345,0.16251880,0.21754811,0.31958175
48359,0,USTexasOldham,Texas,Oldham,2021-01-05 08:11:32.504014,2020-03-31 00:00:00.000000,1.05193870,1.71291536,2.69314081,22,36,56,10,18,30,0.48706067,0.88337033,1.45380186,0.16021602,0.20832358,0.31955039
48359,0,USTexasOldham,Texas,Oldham,2021-01-05 08:11:32.504014,2020-04-01 00:00:00.000000,1.10139385,1.80516925,2.75111967,23,38,58,10,19,31,0.50660733,0.92395842,1.47563212,0.14800250,0.20417285,0.31281247
48359,0,USTexasOldham,Texas,Oldham,2021-01-05 08:11:32.504014,2020-04-02 00:00:00.000000,1.11862934,1.86306362,2.80948123,23,39,59,11,20,32,0.52782367,0.97011035,1.54328124,0.14378105,0.19386819,0.30199130
48359,0,USTexasOldham,Texas,Oldham,2021-01-05 08:11:32.504014,2020-04-03 00:00:00.000000,1.12707860,1.93238836,2.86759211,23,40,60,11,21,33,0.54220464,1.01845000,1.60053257,0.13748446,0.18810259,0.28566070
48359,0,USTexasOldham,Texas,Oldham,2021-01-05 08:11:32.504014,2020-04-04 00:00:00.000000,1.13083935,1.98196498,2.92106312,23,41,61,11,22,34,0.55280539,1.04776591,1.64832955,0.12311195,0.18489842,0.27765893
48359,0,USTexasOldham,Texas,Oldham,2021-01-05 08:11:32.504014,2020-04-05 00:00:00.000000,1.18439252,2.01899275,2.94153351,25,42,62,12,22,35,0.58261787,1.06940552,1.68553208,0.11882966,0.17897236,0.27534536
48359,0,USTexasOldham,Texas,Oldham,2021-01-05 08:11:32.504014,2020-04-06 00:00:00.000000,1.15394444,1.99005512,2.91921038,24,42,61,12,22,36,0.58890805,1.08723118,1.71110958,0.11803916,0.16717683,0.26675012
48359,0,USTexasOldham,Texas,Oldham,2021-01-05 08:11:32.504014,2020-04-07 00:00:00.000000,1.11294617,1.96560738,2.88576152,23,41,60,12,23,36,0.58479000,1.09931383,1.72438315,0.11766636,0.16295021,0.24932371
48359,0,USTexasOldham,Texas,Oldham,2021-01-05 08:11:32.504014,2020-04-08 00:00:00.000000,1.05844091,1.91328363,2.80158914,22,40,59,11,23,36,0.56654063,1.10695100,1.72796742,0.11358376,0.15826772,0.23811939
48359,0,USTexasOldham,Texas,Oldham,2021-01-05 08:11:32.504014,2020-04-09 00:00:00.000000,0.99656362,1.86983403,2.70229287,21,39,57,11,23,36,0.53961812,1.09861298,1.72399114,0.10264262,0.15079356,0.22954228
48359,0,USTexasOldham,Texas,Oldham,2021-01-05 08:11:32.504014,2020-04-10 00:00:00.000000,0.93753261,1.82465999,2.59284983,19,38,54,10,22,36,0.51209181,1.08783379,1.71381028,0.09392590,0.14788356,0.20889534
48359,0,USTexasOldham,Texas,Oldham,2021-01-05 08:11:32.504014,2020-04-11 00:00:00.000000,0.88220592,1.77650009,2.53249653,18,37,53,10,22,35,0.49089466,1.05761215,1.68745116,0.09020074,0.14275684,0.20235879
48359,0,USTexasOldham,Texas,Oldham,2021-01-05 08:11:32.504014,2020-04-12 00:00:00.000000,0.83086602,1.71915846,2.48658528,17,36,52,9,21,34,0.46822835,1.02721397,1.65209323,0.08821385,0.13509184,0.19478396
48359,0,USTexasOldham,Texas,Oldham,2021-01-05 08:11:32.504014,2020-04-13 00:00:00.000000,0.78336779,1.64266442,2.43027975,16,34,51,9,21,34,0.44459469,1.00982551,1.61188091,0.08732725,0.13173807,0.19614681
48359,0,USTexasOldham,Texas,Oldham,2021-01-05 08:11:32.504014,2020-04-14 00:00:00.000000,0.73933844,1.57287980,2.36089280,15,33,49,8,20,33,0.42051252,0.97962292,1.56842449,0.08456238,0.13065895,0.19677048
48359,0,USTexasOldham,Texas,Oldham,2021-01-05 08:11:32.504014,2020-04-15 00:00:00.000000,0.69835104,1.52118869,2.28320425,14,32,48,8,19,32,0.39645727,0.94351869,1.52324429,0.08373223,0.12827258,0.18742652
48359,0,USTexasOldham,Texas,Oldham,2021-01-05 08:11:32.504014,2020-04-16 00:00:00.000000,0.66000278,1.47230725,2.21157586,13,31,46,7,19,31,0.37280941,0.90647917,1.47715243,0.08344910,0.12538776,0.18880392
48359,0,USTexasOldham,Texas,Oldham,2021-01-05 08:11:32.504014,2020-04-17 00:00:00.000000,0.62390419,1.40750100,2.13550861,13,29,45,7,18,30,0.34984689,0.87613628,1.43065894,0.08340449,0.12246324,0.18775529
48359,0,USTexasOldham,Texas,Oldham,2021-01-05 08:11:32.504014,2020-04-18 00:00:00.000000,0.58960969,1.34803175,2.08095888,12,28,43,6,17,29,0.32775976,0.84610314,1.40319134,0.07603951,0.11779480,0.18288283
48359,0,USTexasOldham,Texas,Oldham,2021-01-05 08:11:32.504014,2020-04-19 00:00:00.000000,0.55658571,1.29042328,2.04653278,11,27,43,6,17,28,0.30666638,0.81279805,1.35544246,0.06475130,0.11772297,0.18170823
48359,0,USTexasOldham,Texas,Oldham,2021-01-05 08:11:32.504014,2020-04-20 00:00:00.000000,0.52214168,1.22135171,2.00736235,11,25,42,6,16,28,0.28790454,0.77468346,1.33200246,0.06147872,0.11502060,0.18027881
48359,0,USTexasOldham,Texas,Oldham,2021-01-05 08:11:32.504014,2020-04-21 00:00:00.000000,0.48114363,1.15362528,1.96894988,10,24,41,5,15,28,0.27171506,0.73878871,1.32728812,0.06097902,0.11197197,0.18061771
48359,0,USTexasOldham,Texas,Oldham,2021-01-05 08:11:32.504014,2020-04-22 00:00:00.000000,0.44365087,1.08774499,1.94204028,9,22,41,5,14,27,0.25609872,0.70726583,1.30711658,0.06086659,0.11019455,0.18098390
48359,0,USTexasOldham,Texas,Oldham,2021-01-05 08:11:32.504014,2020-04-23 00:00:00.000000,0.40927643,1.02411512,1.90816012,8,21,40,5,14,26,0.24107819,0.67384673,1.25662708,0.06071259,0.10843688,0.18088809
48359,0,USTexasOldham,Texas,Oldham,2021-01-05 08:11:32.504014,2020-04-24 00:00:00.000000,0.37769235,0.96308439,1.87055321,7,20,39,4,13,26,0.22671028,0.63275402,1.23160360,0.06028590,0.10773363,0.18048112
48359,0,USTexasOldham,Texas,Oldham,2021-01-05 08:11:32.504014,2020-04-25 00:00:00.000000,0.34861791,0.90492454,1.83048326,7,19,38,4,12,25,0.21303936,0.59760010,1.20572982,0.05912919,0.10571598,0.17803576
48359,0,USTexasOldham,Texas,Oldham,2021-01-05 08:11:32.504014,2020-04-26 00:00:00.000000,0.32178781,0.84980606,1.75793478,6,17,37,4,11,24,0.19759765,0.56448423,1.17929990,0.05652354,0.10295407,0.17716652
48359,0,USTexasOldham,Texas,Oldham,2021-01-05 08:11:32.504014,2020-04-27 00:00:00.000000,0.35382481,0.85365021,1.81085150,7,18,38,3,11,24,0.18235238,0.53304979,1.15193120,0.05252351,0.10024312,0.17081876
48359,0,USTexasOldham,Texas,Oldham,2021-01-05 08:11:32.504014,2020-04-28 00:00:00.000000,0.36437753,0.91762384,1.83292193,7,19,38,3,11,24,0.17742367,0.52900309,1.16883542,0.04895028,0.10102250,0.17858786
48359,0,USTexasOldham,Texas,Oldham,2021-01-05 08:11:32.504014,2020-04-29 00:00:00.000000,0.37367312,0.94835967,1.86293108,7,20,39,3,10,25,0.17959933,0.51763998,1.21199726,0.04700256,0.09898010,0.17978315
48359,0,USTexasOldham,Texas,Oldham,2021-01-05 08:11:32.504014,2020-04-30 00:00:00.000000,0.38399977,0.96842443,1.94006965,8,20,40,3,11,26,0.18690478,0.53059796,1.26749689,0.04624961,0.09793111,0.17558656
48359,0,USTexasOldham,Texas,Oldham,2021-01-05 08:11:32.504014,2020-05-01 00:00:00.000000,0.40760928,1.00299143,2.01249281,8,21,42,3,11,26,0.18588183,0.53658436,1.27287013,0.04628412,0.09850501,0.17212095
48359,0,USTexasOldham,Texas,Oldham,2021-01-05 08:11:32.504014,2020-05-02 00:00:00.000000,0.41200900,1.00246400,2.18352789,8,21,46,4,11,27,0.19494491,0.54465637,1.28001736,0.04296634,0.09921126,0.17208219
48359,0,USTexasOldham,Texas,Oldham,2021-01-05 08:11:32.504014,2020-05-03 00:00:00.000000,0.42061803,0.99440591,2.19735793,8,21,46,4,11,27,0.19763463,0.55882992,1.28913623,0.04418028,0.09795970,0.16752112
48359,0,USTexasOldham,Texas,Oldham,2021-01-05 08:11:32.504014,2020-05-04 00:00:00.000000,0.44510994,1.06620870,2.23110583,9,22,47,4,12,27,0.19905807,0.58044280,1.29966404,0.04368250,0.09638939,0.15563168
48359,0,USTexasOldham,Texas,Oldham,2021-01-05 08:11:32.504014,2020-05-05 00:00:00.000000,0.47223955,1.08033288,2.27156485,9,22,47,4,12,27,0.20552792,0.58316204,1.31331382,0.04284357,0.09596710,0.15430747
48359,0,USTexasOldham,Texas,Oldham,2021-01-05 08:11:32.504014,2020-05-06 00:00:00.000000,0.49845022,1.11618296,2.33739872,10,23,49,4,12,27,0.21480315,0.59420294,1.32443911,0.04222751,0.09408154,0.15173963
48359,0,USTexasOldham,Texas,Oldham,2021-01-05 08:11:32.504014,2020-05-07 00:00:00.000000,0.52314741,1.15130784,2.31757038,11,24,48,4,12,28,0.22886081,0.60112444,1.33760235,0.04162074,0.09382415,0.14855504
48359,0,USTexasOldham,Texas,Oldham,2021-01-05 08:11:32.504014,2020-05-08 00:00:00.000000,0.54675149,1.17226977,2.32631602,11,24,49,4,13,28,0.23645022,0.61577079,1.35063724,0.04257067,0.09361580,0.14322653
48359,0,USTexasOldham,Texas,Oldham,2021-01-05 08:11:32.504014,2020-05-09 00:00:00.000000,0.56905873,1.21773244,2.29822477,12,25,48,5,13,28,0.24756801,0.63103102,1.36227331,0.04303330,0.09202214,0.13599990
48359,0,USTexasOldham,Texas,Oldham,2021-01-05 08:11:32.504014,2020-05-10 00:00:00.000000,0.58993690,1.24304623,2.26345306,12,26,47,5,13,28,0.25851998,0.64942646,1.37193572,0.04138244,0.08881767,0.14775642
48359,0,USTexasOldham,Texas,Oldham,2021-01-05 08:11:32.504014,2020-05-11 00:00:00.000000,0.56304065,1.19379418,2.16130108,11,25,45,5,14,28,0.26909820,0.67229803,1.35914001,0.04109723,0.08701343,0.15065662
48359,0,USTexasOldham,Texas,Oldham,2021-01-05 08:11:32.504014,2020-05-12 00:00:00.000000,0.53476669,1.13620693,2.07725180,11,23,43,5,14,28,0.27035292,0.66783072,1.35581019,0.04135850,0.08586853,0.14217806
48359,0,USTexasOldham,Texas,Oldham,2021-01-05 08:11:32.504014,2020-05-13 00:00:00.000000,0.50465172,1.06916229,1.98958325,10,22,42,5,13,27,0.26546157,0.64704396,1.32428072,0.04212633,0.08400010,0.14018118
48359,0,USTexasOldham,Texas,Oldham,2021-01-05 08:11:32.504014,2020-05-14 00:00:00.000000,0.47398803,1.00347129,1.90049880,10,21,40,5,13,26,0.25663426,0.61803343,1.26811439,0.04334030,0.08354215,0.14053020
48359,0,USTexasOldham,Texas,Oldham,2021-01-05 08:11:32.504014,2020-05-15 00:00:00.000000,0.43950684,0.94114924,1.81114938,9,19,38,5,12,25,0.24540067,0.59273113,1.20770867,0.04445932,0.08337902,0.14107246
48359,0,USTexasOldham,Texas,Oldham,2021-01-05 08:11:32.504014,2020-05-16 00:00:00.000000,0.40350017,0.88727468,1.74843367,8,18,36,4,11,24,0.23280611,0.56545426,1.14611149,0.04402026,0.08298359,0.14116947
48359,0,USTexasOldham,Texas,Oldham,2021-01-05 08:11:32.504014,2020-05-17 00:00:00.000000,0.36982156,0.83549657,1.68391772,7,17,35,4,11,22,0.21953922,0.53684359,1.08566464,0.04496856,0.08072247,0.14076439
48359,0,USTexasOldham,Texas,Oldham,2021-01-05 08:11:32.504014,2020-05-18 00:00:00.000000,0.40229347,0.84008699,1.62412709,8,17,34,4,10,21,0.20601391,0.50862778,1.03775264,0.04548603,0.07973912,0.13994671
48359,0,USTexasOldham,Texas,Oldham,2021-01-05 08:11:32.504014,2020-05-19 00:00:00.000000,0.44821463,0.90452161,1.57412867,9,19,33,4,10,21,0.23512345,0.49467287,1.00236871,0.04508294,0.07978122,0.13852835
48359,0,USTexasOldham,Texas,Oldham,2021-01-05 08:11:32.504014,2020-05-20 00:00:00.000000,0.50876240,0.90561444,1.61483226,10,19,34,5,10,20,0.23997373,0.48967634,0.97575771,0.04481683,0.07923284,0.13978820
48359,0,USTexasOldham,Texas,Oldham,2021-01-05 08:11:32.504014,2020-05-21 00:00:00.000000,0.55118981,0.89483141,1.59243559,11,18,33,5,10,20,0.24739931,0.49654543,0.97600295,0.04469350,0.07801049,0.14100453
48359,0,USTexasOldham,Texas,Oldham,2021-01-05 08:11:32.504014,2020-05-22 00:00:00.000000,0.58996651,0.92517139,1.57724984,12,19,33,5,10,20,0.25823586,0.49212476,0.98578019,0.04385913,0.07784375,0.14143361
48359,0,USTexasOldham,Texas,Oldham,2021-01-05 08:11:32.504014,2020-05-23 00:00:00.000000,0.60753849,0.94549487,1.68367321,12,19,35,5,10,20,0.27089649,0.50312697,0.99281336,0.04244432,0.07633029,0.14157768
48359,0,USTexasOldham,Texas,Oldham,2021-01-05 08:11:32.504014,2020-05-24 00:00:00.000000,0.61548098,0.95806526,1.79350862,12,20,37,5,10,20,0.28402249,0.51211723,0.96827466,0.04109167,0.07481295,0.14147636
48359,0,USTexasOldham,Texas,Oldham,2021-01-05 08:11:32.504014,2020-05-25 00:00:00.000000,0.63190975,1.00819459,1.78604594,13,21,37,6,11,19,0.29709697,0.52853038,0.94457499,0.03972652,0.07487189,0.14107808
48359,0,USTexasOldham,Texas,Oldham,2021-01-05 08:11:32.504014,2020-05-26 00:00:00.000000,0.63185885,1.06320985,1.81469302,13,22,38,6,11,20,0.30961134,0.53414334,0.95004883,0.03839212,0.07438188,0.13986254
48359,0,USTexasOldham,Texas,Oldham,2021-01-05 08:11:32.504014,2020-05-27 00:00:00.000000,0.61367096,1.08597284,1.89180470,12,22,39,6,11,21,0.32079893,0.54512303,1.01269205,0.03710799,0.07442001,0.13876366
48359,0,USTexasOldham,Texas,Oldham,2021-01-05 08:11:32.504014,2020-05-28 00:00:00.000000,0.61690909,1.09351421,1.95727068,13,23,41,7,11,22,0.33164254,0.55635785,1.06346727,0.03595215,0.07455871,0.14533270
48359,0,USTexasOldham,Texas,Oldham,2021-01-05 08:11:32.504014,2020-05-29 00:00:00.000000,0.62072102,1.14379679,2.01918380,13,24,42,6,11,22,0.32318838,0.56628500,1.06327029,0.03501590,0.07488702,0.14209379
48359,0,USTexasOldham,Texas,Oldham,2021-01-05 08:11:32.504014,2020-05-30 00:00:00.000000,0.61274298,1.17578575,2.07916652,12,24,43,6,12,23,0.31452610,0.58681064,1.10830605,0.03077914,0.07532745,0.14160347
48359,0,USTexasOldham,Texas,Oldham,2021-01-05 08:11:32.504014,2020-05-31 00:00:00.000000,0.60484757,1.17779673,2.13702669,12,24,45,6,12,24,0.31605978,0.60435045,1.17042101,0.03006385,0.07621204,0.14146439
48359,0,USTexasOldham,Texas,Oldham,2021-01-05 08:11:32.504014,2020-06-01 00:00:00.000000,0.56087347,1.12302396,2.04958293,11,23,43,6,13,24,0.30889378,0.62249037,1.17012915,0.02966390,0.07671326,0.14125540
48359,0,USTexasOldham,Texas,Oldham,2021-01-05 08:11:32.504014,2020-06-02 00:00:00.000000,0.51732553,1.07199021,1.95958988,10,22,41,6,12,24,0.29599713,0.61384888,1.15886458,0.02944111,0.07673607,0.14086075
48359,0,USTexasOldham,Texas,Oldham,2021-01-05 08:11:32.504014,2020-06-03 00:00:00.000000,0.47402744,1.02041213,1.83581923,10,21,38,5,12,24,0.27974583,0.60374338,1.13936583,0.02931848,0.07665651,0.15004245
48359,0,USTexasOldham,Texas,Oldham,2021-01-05 08:11:32.504014,2020-06-04 00:00:00.000000,0.43218766,0.96356049,1.69937903,9,20,35,5,12,23,0.26188758,0.58109902,1.11388888,0.02923106,0.07363796,0.15130999
48359,0,USTexasOldham,Texas,Oldham,2021-01-05 08:11:32.504014,2020-06-05 00:00:00.000000,0.39913418,0.89500608,1.56635867,8,18,33,5,11,22,0.24568334,0.55612527,1.07040104,0.02903717,0.07271630,0.14506934
48359,0,USTexasOldham,Texas,Oldham,2021-01-05 08:11:32.504014,2020-06-06 00:00:00.000000,0.37285509,0.82395765,1.43854111,7,17,30,4,11,21,0.23173708,0.52349349,1.00543012,0.02839288,0.07227689,0.13512273
48359,0,USTexasOldham,Texas,Oldham,2021-01-05 08:11:32.504014,2020-06-07 00:00:00.000000,0.33952573,0.76184278,1.31722145,7,16,27,4,10,19,0.21761619,0.49921187,0.93790580,0.02845137,0.07165482,0.13135728
48359,0,USTexasOldham,Texas,Oldham,2021-01-05 08:11:32.504014,2020-06-08 00:00:00.000000,0.30696963,0.71088068,1.26404558,6,15,26,4,10,18,0.19956859,0.47437714,0.88279885,0.02873138,0.07188698,0.13034737
48359,0,USTexasOldham,Texas,Oldham,2021-01-05 08:11:32.504014,2020-06-09 00:00:00.000000,0.27712578,0.66584725,1.21190859,5,14,25,3,9,17,0.18235821,0.44970783,0.84332056,0.02894818,0.07216590,0.13000364
48359,0,USTexasOldham,Texas,Oldham,2021-01-05 08:11:32.504014,2020-06-10 00:00:00.000000,0.24990567,0.62614863,1.16076420,5,13,24,3,8,16,0.16613053,0.41825210,0.80416279,0.02909327,0.07047775,0.12971855
48359,0,USTexasOldham,Texas,Oldham,2021-01-05 08:11:32.504014,2020-06-11 00:00:00.000000,0.22521557,0.58308572,1.11178403,4,12,23,3,8,16,0.15097005,0.39383583,0.76503698,0.02918721,0.07091595,0.12930553
48359,0,USTexasOldham,Texas,Oldham,2021-01-05 08:11:32.504014,2020-06-12 00:00:00.000000,0.20291451,0.54019010,1.06545934,4,11,22,2,7,15,0.13691912,0.36973269,0.72698675,0.02926688,0.06944679,0.12871827
48359,0,USTexasOldham,Texas,Oldham,2021-01-05 08:11:32.504014,2020-06-13 00:00:00.000000,0.18278398,0.49678288,1.02193373,3,10,21,2,7,14,0.12398442,0.34669506,0.69021416,0.02940382,0.06851909,0.12845458
48359,0,USTexasOldham,Texas,Oldham,2021-01-05 08:11:32.504014,2020-06-14 00:00:00.000000,0.16459855,0.45138858,0.98111080,3,9,20,2,6,13,0.11213648,0.32477842,0.65485917,0.02927793,0.06766697,0.12851381
48359,0,USTexasOldham,Texas,Oldham,2021-01-05 08:11:32.504014,2020-06-15 00:00:00.000000,0.14816838,0.40998525,0.94222413,3,8,19,2,6,13,0.10132046,0.30182834,0.62046186,0.02922602,0.06680096,0.12827412
48359,0,USTexasOldham,Texas,Oldham,2021-01-05 08:11:32.504014,2020-06-16 00:00:00.000000,0.13337939,0.37723409,0.88472269,2,7,18,1,5,12,0.09147013,0.27993268,0.57271296,0.02934387,0.06548223,0.12798446
48359,0,USTexasOldham,Texas,Oldham,2021-01-05 08:11:32.504014,2020-06-17 00:00:00.000000,0.12150076,0.34851703,0.81554954,2,7,17,1,5,11,0.08251618,0.25705344,0.52837924,0.02972032,0.06393721,0.12773483
48359,0,USTexasOldham,Texas,Oldham,2021-01-05 08:11:32.504014,2020-06-18 00:00:00.000000,0.11071763,0.32522367,0.75157600,2,6,15,1,4,10,0.07438998,0.23480790,0.48729920,0.02977529,0.06423452,0.13003607
48359,0,USTexasOldham,Texas,Oldham,2021-01-05 08:11:32.504014,2020-06-19 00:00:00.000000,0.10080017,0.30376930,0.69235257,2,6,14,1,4,9,0.06702525,0.21551742,0.44929540,0.02970719,0.06419416,0.12834867
48359,0,USTexasOldham,Texas,Oldham,2021-01-05 08:11:32.504014,2020-06-20 00:00:00.000000,0.09161954,0.28374202,0.63750624,1,5,13,1,4,8,0.06035891,0.20078099,0.42560765,0.02967823,0.06333355,0.12920004
48359,0,USTexasOldham,Texas,Oldham,2021-01-05 08:11:32.504014,2020-06-21 00:00:00.000000,0.08317844,0.26507621,0.59960411,1,5,12,1,3,8,0.05433152,0.18722797,0.40298440,0.02966460,0.06496518,0.13085199
48359,0,USTexasOldham,Texas,Oldham,2021-01-05 08:11:32.504014,2020-06-22 00:00:00.000000,0.14158597,0.32923967,0.68385913,2,6,14,1,3,8,0.04889213,0.17473584,0.38141489,0.02933995,0.06558275,0.13305553
48359,0,USTexasOldham,Texas,Oldham,2021-01-05 08:11:32.504014,2020-06-23 00:00:00.000000,0.17241547,0.40756114,0.80957448,3,8,17,1,3,7,0.07058019,0.17656782,0.37479977,0.02847422,0.06584954,0.13246537
48359,0,USTexasOldham,Texas,Oldham,2021-01-05 08:11:32.504014,2020-06-24 00:00:00.000000,0.20298321,0.47591189,0.92349793,4,10,19,1,4,8,0.07820843,0.19094796,0.41271377,0.02756649,0.06511546,0.13129538
48359,0,USTexasOldham,Texas,Oldham,2021-01-05 08:11:32.504014,2020-06-25 00:00:00.000000,0.23361718,0.53722931,1.01962126,4,11,21,2,4,9,0.10441599,0.21517354,0.44624694,0.02675691,0.06415874,0.13029874
48359,0,USTexasOldham,Texas,Oldham,2021-01-05 08:11:32.504014,2020-06-26 00:00:00.000000,0.26092984,0.62219557,1.16058645,5,13,24,2,5,10,0.10831371,0.24871567,0.49879051,0.02732401,0.06292993,0.12976677
48359,0,USTexasOldham,Texas,Oldham,2021-01-05 08:11:32.504014,2020-06-27 00:00:00.000000,0.27849692,0.67173291,1.29748067,5,14,27,2,6,11,0.11341850,0.29232021,0.55688482,0.02800293,0.06097211,0.13653184
48359,0,USTexasOldham,Texas,Oldham,2021-01-05 08:11:32.504014,2020-06-28 00:00:00.000000,0.29522528,0.73152371,1.42917586,6,15,30,2,6,13,0.12520316,0.32520909,0.63043935,0.02851122,0.05971626,0.13868952
48359,0,USTexasOldham,Texas,Oldham,2021-01-05 08:11:32.504014,2020-06-29 00:00:00.000000,0.34781541,0.77752031,1.42201187,7,16,30,2,7,14,0.13905789,0.36455400,0.70555514,0.02887719,0.06028591,0.13954533
48359,0,USTexasOldham,Texas,Oldham,2021-01-05 08:11:32.504014,2020-06-30 00:00:00.000000,0.38122677,0.80373894,1.59530417,8,16,33,3,8,16,0.15404076,0.39474712,0.76797191,0.02892828,0.06052567,0.14022650
48359,0,USTexasOldham,Texas,Oldham,2021-01-05 08:11:32.504014,2020-07-01 00:00:00.000000,0.42437983,0.84509993,1.78418465,8,17,37,3,8,17,0.18070495,0.42127822,0.80920234,0.02838982,0.06079061,0.14097289
48359,0,USTexasOldham,Texas,Oldham,2021-01-05 08:11:32.504014,2020-07-02 00:00:00.000000,0.44416645,0.88075410,1.86969092,9,18,39,4,9,17,0.19706064,0.43649074,0.83908824,0.02830864,0.06100119,0.14174105
48359,0,USTexasOldham,Texas,Oldham,2021-01-05 08:11:32.504014,2020-07-03 00:00:00.000000,0.45214984,0.91253737,2.03330782,9,19,42,4,9,18,0.21952833,0.45542182,0.89618964,0.02842531,0.06093532,0.14233796
48359,0,USTexasOldham,Texas,Oldham,2021-01-05 08:11:32.504014,2020-07-04 00:00:00.000000,0.45898409,0.97036179,2.20787508,9,20,46,4,10,21,0.23232335,0.47826100,1.02154170,0.02866169,0.06000833,0.14338989
48359,0,USTexasOldham,Texas,Oldham,2021-01-05 08:11:32.504014,2020-07-05 00:00:00.000000,0.46837892,1.01289209,2.36923164,9,21,50,5,10,23,0.24379812,0.49493711,1.10174807,0.02751518,0.06039497,0.14391018
48359,0,USTexasOldham,Texas,Oldham,2021-01-05 08:11:32.504014,2020-07-06 00:00:00.000000,0.51924425,1.04571796,2.40136058,10,22,50,5,11,25,0.25555585,0.53114313,1.20300996,0.02675816,0.06020325,0.14395319
48359,0,USTexasOldham,Texas,Oldham,2021-01-05 08:11:32.504014,2020-07-07 00:00:00.000000,0.59647783,1.16139433,2.36622057,12,24,49,5,11,26,0.27500061,0.55635643,1.27577176,0.02648854,0.06105163,0.14436318
48359,0,USTexasOldham,Texas,Oldham,2021-01-05 08:11:32.504014,2020-07-08 00:00:00.000000,0.63771993,1.22621980,2.56860085,13,25,54,6,12,28,0.29591117,0.60307156,1.32766457,0.02641077,0.06128499,0.14727613
48359,0,USTexasOldham,Texas,Oldham,2021-01-05 08:11:32.504014,2020-07-09 00:00:00.000000,0.67906697,1.21887449,2.76948593,14,25,58,6,13,28,0.31794953,0.62665226,1.36430544,0.02672397,0.06086316,0.14899428
48359,0,USTexasOldham,Texas,Oldham,2021-01-05 08:11:32.504014,2020-07-10 00:00:00.000000,0.67142022,1.22784781,2.82768494,14,25,59,7,14,28,0.33482468,0.66534806,1.36022133,0.02637075,0.06071666,0.14987773
48359,0,USTexasOldham,Texas,Oldham,2021-01-05 08:11:32.504014,2020-07-11 00:00:00.000000,0.67225266,1.28324952,2.88114379,14,27,60,7,14,29,0.34496278,0.67922176,1.38973551,0.02633445,0.06086119,0.14832481
48359,0,USTexasOldham,Texas,Oldham,2021-01-05 08:11:32.504014,2020-07-12 00:00:00.000000,0.70062322,1.29185427,2.93012674,14,27,61,7,14,30,0.35455519,0.69662673,1.44140356,0.02625278,0.06057313,0.14846035
48359,0,USTexasOldham,Texas,Oldham,2021-01-05 08:11:32.504014,2020-07-13 00:00:00.000000,0.76912021,1.32691610,2.88763726,16,28,60,7,14,31,0.35841676,0.70735447,1.49262000,0.02571547,0.06020438,0.14326611
48359,0,USTexasOldham,Texas,Oldham,2021-01-05 08:11:32.504014,2020-07-14 00:00:00.000000,0.77434574,1.35906992,2.83810709,16,28,59,7,15,32,0.37113604,0.74028225,1.53891936,0.02496571,0.05997991,0.13689619
48359,0,USTexasOldham,Texas,Oldham,2021-01-05 08:11:32.504014,2020-07-15 00:00:00.000000,0.77980433,1.41841105,2.85238059,16,29,60,8,15,33,0.38505602,0.74926066,1.57953182,0.02489766,0.05987892,0.13621963
48359,0,USTexasOldham,Texas,Oldham,2021-01-05 08:11:32.504014,2020-07-16 00:00:00.000000,0.77014314,1.46261180,2.89208820,16,30,61,8,16,34,0.39735646,0.76314683,1.61547216,0.02486825,0.06060053,0.13102080
48359,0,USTexasOldham,Texas,Oldham,2021-01-05 08:11:32.504014,2020-07-17 00:00:00.000000,0.73967762,1.50067252,2.92830830,15,31,61,8,16,34,0.39690668,0.79440786,1.64773277,0.02486983,0.05966686,0.12885072
48359,0,USTexasOldham,Texas,Oldham,2021-01-05 08:11:32.504014,2020-07-18 00:00:00.000000,0.73506744,1.52532271,2.96132877,15,32,62,8,17,35,0.38391824,0.81714172,1.67684425,0.02488012,0.05968738,0.12821546
48359,0,USTexasOldham,Texas,Oldham,2021-01-05 08:11:32.504014,2020-07-19 00:00:00.000000,0.75385960,1.55509961,2.99135598,15,32,63,7,17,35,0.37200610,0.83868515,1.70321093,0.02489853,0.05973025,0.12150632
48359,0,USTexasOldham,Texas,Oldham,2021-01-05 08:11:32.504014,2020-07-20 00:00:00.000000,0.78460863,1.58561106,2.97302080,16,33,62,7,18,36,0.37055861,0.85434830,1.72713965,0.02501961,0.05975000,0.12004001
48359,0,USTexasOldham,Texas,Oldham,2021-01-05 08:11:32.504014,2020-07-21 00:00:00.000000,0.81892848,1.57350078,2.95197817,17,33,62,7,18,36,0.37795092,0.87373595,1.74045628,0.02514701,0.05859426,0.11258796
48359,0,USTexasOldham,Texas,Oldham,2021-01-05 08:11:32.504014,2020-07-22 00:00:00.000000,0.84099462,1.54458139,2.92812494,17,32,61,8,18,36,0.39048169,0.87497779,1.74596619,0.02551729,0.05843898,0.10835722
48359,0,USTexasOldham,Texas,Oldham,2021-01-05 08:11:32.504014,2020-07-23 00:00:00.000000,0.86756029,1.49220336,2.90247200,18,31,61,8,18,36,0.39862522,0.88293464,1.74566319,0.02649494,0.05870953,0.11517122
48359,0,USTexasOldham,Texas,Oldham,2021-01-05 08:11:32.504014,2020-07-24 00:00:00.000000,0.88843208,1.46831484,2.87593642,18,31,60,8,18,36,0.41858551,0.88958135,1.72803616,0.02736327,0.05927584,0.11149704
48359,0,USTexasOldham,Texas,Oldham,2021-01-05 08:11:32.504014,2020-07-25 00:00:00.000000,0.91534264,1.43554399,2.84954180,19,30,60,9,18,35,0.43638623,0.89720407,1.68400069,0.02793303,0.05743919,0.10923214
48359,0,USTexasOldham,Texas,Oldham,2021-01-05 08:11:32.504014,2020-07-26 00:00:00.000000,0.91447165,1.40312290,2.82434750,19,29,59,9,18,34,0.45148540,0.88049914,1.63919238,0.02856086,0.05821001,0.10755754
48359,0,USTexasOldham,Texas,Oldham,2021-01-05 08:11:32.504014,2020-07-27 00:00:00.000000,0.90134731,1.40820091,2.73247928,19,29,57,9,18,33,0.46591104,0.86183283,1.59474579,0.02910534,0.05993798,0.10563441
48359,0,USTexasOldham,Texas,Oldham,2021-01-05 08:11:32.504014,2020-07-28 00:00:00.000000,0.90022452,1.42495166,2.64168175,19,30,55,9,17,32,0.46782186,0.84090911,1.55917875,0.02946394,0.05969776,0.10414048
48359,0,USTexasOldham,Texas,Oldham,2021-01-05 08:11:32.504014,2020-07-29 00:00:00.000000,0.88868770,1.40124161,2.55113364,18,29,53,9,17,32,0.46168809,0.82997726,1.53048871,0.02985583,0.05904080,0.10575849
48359,0,USTexasOldham,Texas,Oldham,2021-01-05 08:11:32.504014,2020-07-30 00:00:00.000000,0.88786337,1.36289736,2.62481722,18,28,55,9,17,31,0.45058984,0.82098767,1.49576606,0.02914396,0.05998429,0.10767699
48359,0,USTexasOldham,Texas,Oldham,2021-01-05 08:11:32.504014,2020-07-31 00:00:00.000000,0.85204744,1.36627803,2.55445596,17,28,53,9,16,30,0.43663427,0.80224338,1.46180052,0.02860483,0.06118813,0.10373418
48359,0,USTexasOldham,Texas,Oldham,2021-01-05 08:11:32.504014,2020-08-01 00:00:00.000000,0.83793027,1.37443824,2.48129747,17,29,52,8,16,30,0.42124845,0.78961507,1.46321790,0.02689510,0.06171344,0.10517480
48359,0,USTexasOldham,Texas,Oldham,2021-01-05 08:11:32.504014,2020-08-02 00:00:00.000000,0.82763363,1.38800610,2.40665082,17,29,50,8,16,31,0.40538862,0.80188423,1.48326743,0.02670942,0.06134132,0.10764698
48359,0,USTexasOldham,Texas,Oldham,2021-01-05 08:11:32.504014,2020-08-03 00:00:00.000000,0.85699928,1.36783674,2.47636972,18,28,52,8,16,30,0.38969094,0.80411979,1.43811228,0.02699557,0.06071540,0.11137868
48359,0,USTexasOldham,Texas,Oldham,2021-01-05 08:11:32.504014,2020-08-04 00:00:00.000000,0.89863608,1.36888878,2.55580549,18,28,53,8,16,29,0.39071115,0.79948734,1.40708159,0.02741730,0.06026951,0.11226149
48359,0,USTexasOldham,Texas,Oldham,2021-01-05 08:11:32.504014,2020-08-05 00:00:00.000000,0.93717133,1.36760145,2.62927967,19,28,55,8,16,29,0.40243555,0.78563083,1.38921405,0.02686910,0.06080411,0.11285922
48359,0,USTexasOldham,Texas,Oldham,2021-01-05 08:11:32.504014,2020-08-06 00:00:00.000000,0.93502825,1.38143977,2.57473046,19,29,54,9,16,30,0.43599713,0.77088529,1.43174492,0.02648225,0.06189465,0.11390524
48359,0,USTexasOldham,Texas,Oldham,2021-01-05 08:11:32.504014,2020-08-07 00:00:00.000000,0.91246509,1.41867396,2.57185368,19,29,54,9,16,31,0.44616329,0.77471714,1.47429930,0.02749351,0.06311172,0.11605968
48359,0,USTexasOldham,Texas,Oldham,2021-01-05 08:11:32.504014,2020-08-08 00:00:00.000000,0.87382361,1.41431776,2.61041480,18,29,55,9,16,32,0.46498242,0.77645707,1.51633981,0.02759787,0.06290202,0.12109061
48359,0,USTexasOldham,Texas,Oldham,2021-01-05 08:11:32.504014,2020-08-09 00:00:00.000000,0.83716296,1.40933058,2.58998272,17,29,54,10,16,32,0.47495432,0.78599609,1.55757030,0.02781196,0.06291383,0.12454791
48359,0,USTexasOldham,Texas,Oldham,2021-01-05 08:11:32.504014,2020-08-10 00:00:00.000000,0.83774790,1.43569217,2.51876348,17,30,53,9,16,32,0.46269970,0.78735798,1.54851057,0.02815229,0.06205150,0.12459266
48359,0,USTexasOldham,Texas,Oldham,2021-01-05 08:11:32.504014,2020-08-11 00:00:00.000000,0.80197389,1.39918904,2.39037576,16,29,50,9,16,32,0.47090823,0.79664512,1.52704221,0.02810000,0.06287249,0.12496908
48359,0,USTexasOldham,Texas,Oldham,2021-01-05 08:11:32.504014,2020-08-12 00:00:00.000000,0.79828345,1.38729796,2.45734362,16,29,51,10,16,31,0.49009396,0.79428457,1.47370069,0.02801872,0.06285499,0.12603403
48359,0,USTexasOldham,Texas,Oldham,2021-01-05 08:11:32.504014,2020-08-13 00:00:00.000000,0.78516118,1.39765324,2.52001947,16,29,53,10,16,30,0.49342666,0.78878774,1.44605289,0.02790422,0.06325691,0.12835900
48359,0,USTexasOldham,Texas,Oldham,2021-01-05 08:11:32.504014,2020-08-14 00:00:00.000000,0.79490969,1.37941420,2.53092458,16,29,53,10,16,30,0.47692035,0.78739791,1.44453874,0.02781245,0.06385953,0.12896652
48359,0,USTexasOldham,Texas,Oldham,2021-01-05 08:11:32.504014,2020-08-15 00:00:00.000000,0.80482019,1.33828115,2.45422172,16,28,51,9,16,30,0.45993662,0.77783816,1.46359270,0.02774703,0.06581476,0.12867523
48359,0,USTexasOldham,Texas,Oldham,2021-01-05 08:11:32.504014,2020-08-16 00:00:00.000000,0.78131308,1.32619792,2.38144164,16,28,50,9,16,31,0.44423452,0.76044582,1.48323794,0.02770578,0.06767589,0.12852566
48359,0,USTexasOldham,Texas,Oldham,2021-01-05 08:11:32.504014,2020-08-17 00:00:00.000000,0.79783851,1.39599335,2.35655598,16,29,49,9,15,30,0.43510468,0.75012809,1.44376192,0.02768273,0.06766223,0.12616055
48359,0,USTexasOldham,Texas,Oldham,2021-01-05 08:11:32.504014,2020-08-18 00:00:00.000000,0.79087569,1.44031479,2.35847930,16,30,49,9,15,29,0.44418176,0.75666980,1.40081776,0.02767093,0.06764778,0.12110505
48359,0,USTexasOldham,Texas,Oldham,2021-01-05 08:11:32.504014,2020-08-19 00:00:00.000000,0.78007392,1.42982765,2.35584062,16,30,49,9,16,29,0.45611741,0.76033271,1.37626115,0.02766579,0.06742264,0.12723869
48359,0,USTexasOldham,Texas,Oldham,2021-01-05 08:11:32.504014,2020-08-20 00:00:00.000000,0.78469184,1.41141316,2.35008044,16,29,49,9,16,29,0.46969079,0.77710716,1.38235184,0.02767916,0.06746675,0.12712985
48359,0,USTexasOldham,Texas,Oldham,2021-01-05 08:11:32.504014,2020-08-21 00:00:00.000000,0.76279170,1.39571910,2.34222983,16,29,49,9,16,29,0.46468815,0.77567654,1.39349451,0.02773708,0.06722765,0.12929210
48359,0,USTexasOldham,Texas,Oldham,2021-01-05 08:11:32.504014,2020-08-22 00:00:00.000000,0.77212885,1.39291404,2.38688667,16,29,50,9,16,29,0.46046839,0.78141777,1.39912256,0.02796384,0.06782027,0.13657356
48359,0,USTexasOldham,Texas,Oldham,2021-01-05 08:11:32.504014,2020-08-23 00:00:00.000000,0.75366648,1.39794904,2.50773652,15,29,52,9,16,29,0.44939481,0.78252333,1.40100923,0.02909531,0.06766713,0.14254487
48359,0,USTexasOldham,Texas,Oldham,2021-01-05 08:11:32.504014,2020-08-24 00:00:00.000000,0.75176915,1.39630054,2.51305029,15,29,53,9,16,29,0.45632233,0.78085390,1.39825517,0.03227756,0.06857103,0.14608172
48359,0,USTexasOldham,Texas,Oldham,2021-01-05 08:11:32.504014,2020-08-25 00:00:00.000000,0.75564347,1.40131231,2.46721710,15,29,52,9,16,28,0.44959349,0.77696841,1.36298510,0.03261675,0.07056190,0.14714266
48359,0,USTexasOldham,Texas,Oldham,2021-01-05 08:11:32.504014,2020-08-26 00:00:00.000000,0.77180677,1.41754857,2.46053485,16,29,51,9,16,29,0.44454152,0.76933653,1.38663361,0.03296260,0.07120456,0.13284269
48359,0,USTexasOldham,Texas,Oldham,2021-01-05 08:11:32.504014,2020-08-27 00:00:00.000000,0.75286100,1.40346480,2.50578687,15,29,52,9,16,29,0.44455848,0.76932972,1.41626602,0.03376551,0.07150044,0.12893760
48359,0,USTexasOldham,Texas,Oldham,2021-01-05 08:11:32.504014,2020-08-28 00:00:00.000000,0.75251095,1.38498596,2.54724745,15,29,53,9,16,30,0.45069891,0.76266242,1.46700641,0.03364025,0.07385885,0.13652543
48359,0,USTexasOldham,Texas,Oldham,2021-01-05 08:11:32.504014,2020-08-29 00:00:00.000000,0.75389941,1.39567471,2.58006799,15,29,54,9,15,31,0.44574740,0.75738441,1.49226554,0.03420463,0.07567255,0.14494190
48359,0,USTexasOldham,Texas,Oldham,2021-01-05 08:11:32.504014,2020-08-30 00:00:00.000000,0.74914033,1.39461266,2.59416262,15,29,54,9,16,32,0.44044820,0.77334918,1.51542722,0.03607011,0.07526981,0.14085576
48359,0,USTexasOldham,Texas,Oldham,2021-01-05 08:11:32.504014,2020-08-31 00:00:00.000000,0.70614592,1.33411292,2.47854367,14,28,52,9,16,32,0.43798480,0.78283838,1.53680305,0.03642303,0.07488163,0.13491136
48359,0,USTexasOldham,Texas,Oldham,2021-01-05 08:11:32.504014,2020-09-01 00:00:00.000000,0.66406025,1.26914878,2.36394290,14,26,49,8,16,32,0.42236239,0.77760111,1.53126553,0.03667494,0.07609467,0.13134290
48359,0,USTexasOldham,Texas,Oldham,2021-01-05 08:11:32.504014,2020-09-02 00:00:00.000000,0.62028544,1.20137479,2.24992729,13,25,47,8,15,31,0.40217921,0.75241306,1.50694983,0.03682681,0.07766493,0.13128873
48359,0,USTexasOldham,Texas,Oldham,2021-01-05 08:11:32.504014,2020-09-03 00:00:00.000000,0.57795952,1.13676585,2.13733804,12,24,45,7,15,31,0.37696485,0.72322178,1.46983171,0.03692493,0.07861114,0.13104411
48359,0,USTexasOldham,Texas,Oldham,2021-01-05 08:11:32.504014,2020-09-04 00:00:00.000000,0.53757496,1.06693377,2.02708118,11,22,42,7,14,30,0.35087757,0.69339514,1.42433763,0.03743808,0.07908395,0.13565390
48359,0,USTexasOldham,Texas,Oldham,2021-01-05 08:11:32.504014,2020-09-05 00:00:00.000000,0.49947950,0.99280912,1.92005580,10,20,40,6,13,29,0.32476100,0.66005656,1.37381486,0.03787779,0.07990952,0.14090302
48359,0,USTexasOldham,Texas,Oldham,2021-01-05 08:11:32.504014,2020-09-06 00:00:00.000000,0.46383492,0.92541422,1.81689161,9,19,38,6,13,27,0.30103377,0.62384669,1.32081414,0.03674889,0.08285120,0.14215307
48359,0,USTexasOldham,Texas,Oldham,2021-01-05 08:11:32.504014,2020-09-07 00:00:00.000000,0.47965759,0.96337546,1.75761534,10,20,37,5,12,26,0.27950932,0.58419859,1.26714471,0.03811030,0.08435565,0.14338009
48359,0,USTexasOldham,Texas,Oldham,2021-01-05 08:11:32.504014,2020-09-08 00:00:00.000000,0.50876110,0.97081626,1.72248655,10,20,36,6,11,25,0.28663722,0.55561101,1.22219962,0.03873823,0.08628943,0.14407928
48359,0,USTexasOldham,Texas,Oldham,2021-01-05 08:11:32.504014,2020-09-09 00:00:00.000000,0.52335335,1.00862476,1.69172368,11,21,35,6,11,25,0.29611423,0.53973909,1.18401441,0.03895305,0.08695167,0.14474077
48359,0,USTexasOldham,Texas,Oldham,2021-01-05 08:11:32.504014,2020-09-10 00:00:00.000000,0.54004244,1.03633035,1.72531715,11,21,36,6,11,24,0.30116711,0.53755061,1.15120546,0.03957279,0.08700668,0.14505048
48359,0,USTexasOldham,Texas,Oldham,2021-01-05 08:11:32.504014,2020-09-11 00:00:00.000000,0.55776131,1.04365697,1.73388882,11,22,36,6,11,24,0.31546592,0.53984966,1.15875299,0.04051983,0.08816554,0.14453887
48359,0,USTexasOldham,Texas,Oldham,2021-01-05 08:11:32.504014,2020-09-12 00:00:00.000000,0.57614928,1.04546002,1.76619413,12,22,37,6,11,24,0.31133778,0.56039002,1.13844996,0.04542389,0.08789378,0.14403609
48359,0,USTexasOldham,Texas,Oldham,2021-01-05 08:11:32.504014,2020-09-13 00:00:00.000000,0.59563158,1.07511866,1.80797752,12,22,38,6,11,23,0.30567815,0.56717637,1.12046195,0.04839902,0.08718994,0.14367499
48359,0,USTexasOldham,Texas,Oldham,2021-01-05 08:11:32.504014,2020-09-14 00:00:00.000000,0.64796084,1.13156791,1.85715664,13,23,39,6,12,23,0.30120878,0.58925393,1.10415288,0.04864138,0.08795907,0.14643275
48359,0,USTexasOldham,Texas,Oldham,2021-01-05 08:11:32.504014,2020-09-15 00:00:00.000000,0.69989132,1.17887950,1.90439819,14,24,40,6,12,23,0.30088860,0.60572422,1.10045042,0.05037443,0.08943720,0.14793183
48359,0,USTexasOldham,Texas,Oldham,2021-01-05 08:11:32.504014,2020-09-16 00:00:00.000000,0.71553788,1.23552241,1.94265419,15,26,41,6,13,23,0.31017611,0.62525664,1.10457752,0.05026812,0.09033549,0.14857380
48359,0,USTexasOldham,Texas,Oldham,2021-01-05 08:11:32.504014,2020-09-17 00:00:00.000000,0.69986912,1.23878565,1.99358833,14,26,42,7,13,23,0.33218219,0.65727779,1.11341892,0.04997399,0.09029222,0.14885568
48359,0,USTexasOldham,Texas,Oldham,2021-01-05 08:11:32.504014,2020-09-18 00:00:00.000000,0.72687483,1.27641560,2.04206520,15,26,43,7,14,23,0.35359318,0.69298736,1.12488720,0.04950762,0.09148625,0.14899701
48359,0,USTexasOldham,Texas,Oldham,2021-01-05 08:11:32.504014,2020-09-19 00:00:00.000000,0.71482440,1.31454913,2.09001649,15,27,44,7,15,24,0.37559365,0.71999993,1.13747391,0.04896706,0.09307154,0.15559148
48359,0,USTexasOldham,Texas,Oldham,2021-01-05 08:11:32.504014,2020-09-20 00:00:00.000000,0.70468340,1.36040389,2.24186095,14,28,47,8,15,24,0.39725025,0.72189722,1.15254204,0.04851237,0.09494824,0.16026075
48359,0,USTexasOldham,Texas,Oldham,2021-01-05 08:11:32.504014,2020-09-21 00:00:00.000000,0.78574296,1.35937633,2.27187183,16,28,47,8,15,25,0.38914526,0.72754267,1.20398264,0.04823164,0.09717192,0.16454544
48359,0,USTexasOldham,Texas,Oldham,2021-01-05 08:11:32.504014,2020-09-22 00:00:00.000000,0.81830856,1.37310387,2.29972114,17,28,48,8,15,27,0.39273061,0.73208878,1.29482763,0.04812713,0.09847263,0.17074895
48359,0,USTexasOldham,Texas,Oldham,2021-01-05 08:11:32.504014,2020-09-23 00:00:00.000000,0.82853581,1.36995509,2.37929836,17,28,50,8,15,28,0.40390263,0.73688544,1.35874246,0.04906664,0.09916200,0.17700019
48359,0,USTexasOldham,Texas,Oldham,2021-01-05 08:11:32.504014,2020-09-24 00:00:00.000000,0.82562998,1.37375943,2.55689211,17,29,54,9,16,29,0.43773195,0.76039361,1.40326459,0.05012313,0.10103112,0.18265861
48359,0,USTexasOldham,Texas,Oldham,2021-01-05 08:11:32.504014,2020-09-25 00:00:00.000000,0.84688850,1.41371458,2.72994169,17,29,57,9,16,30,0.43889891,0.75942508,1.43392528,0.05165068,0.10269512,0.18355449
48359,0,USTexasOldham,Texas,Oldham,2021-01-05 08:11:32.504014,2020-09-26 00:00:00.000000,0.85684031,1.43580020,2.94040289,18,30,62,9,16,30,0.44912200,0.77381858,1.45470194,0.05286560,0.10528239,0.19203045
48359,0,USTexasOldham,Texas,Oldham,2021-01-05 08:11:32.504014,2020-09-27 00:00:00.000000,0.86641134,1.46600878,3.06342325,18,30,64,9,16,31,0.44686933,0.79877431,1.46842546,0.05335240,0.10587679,0.19193814
48359,0,USTexasOldham,Texas,Oldham,2021-01-05 08:11:32.504014,2020-09-28 00:00:00.000000,0.93414529,1.48891856,3.06814961,19,31,64,9,17,31,0.44496251,0.81593516,1.47711404,0.05349362,0.10798530,0.19869555
48359,0,USTexasOldham,Texas,Oldham,2021-01-05 08:11:32.504014,2020-09-29 00:00:00.000000,0.94303375,1.56581721,3.06592896,19,33,64,9,17,31,0.44771430,0.82343934,1.48870897,0.05353504,0.10927585,0.19954354
48359,0,USTexasOldham,Texas,Oldham,2021-01-05 08:11:32.504014,2020-09-30 00:00:00.000000,0.95115991,1.59041671,3.05843270,20,33,64,9,17,32,0.45589789,0.82419132,1.52688412,0.05355698,0.11238653,0.21213220
48359,0,USTexasOldham,Texas,Oldham,2021-01-05 08:11:32.504014,2020-10-01 00:00:00.000000,0.96185202,1.58714625,3.08234622,20,33,65,9,17,32,0.46595416,0.84650681,1.55083646,0.05397985,0.11323930,0.22449003
48359,0,USTexasOldham,Texas,Oldham,2021-01-05 08:11:32.504014,2020-10-02 00:00:00.000000,0.95084232,1.61189690,3.39850120,20,34,71,10,18,33,0.47572517,0.85337814,1.56672535,0.05667159,0.11605496,0.22944870
48359,0,USTexasOldham,Texas,Oldham,2021-01-05 08:11:32.504014,2020-10-03 00:00:00.000000,0.93624991,1.62415560,3.49529720,19,34,73,10,18,35,0.48475260,0.89292245,1.66616657,0.06241102,0.11929078,0.23005620
48359,0,USTexasOldham,Texas,Oldham,2021-01-05 08:11:32.504014,2020-10-04 00:00:00.000000,0.96320934,1.67009625,3.53390294,20,35,74,10,19,38,0.49352568,0.92654183,1.84022225,0.07061730,0.12420513,0.23005223
48359,0,USTexasOldham,Texas,Oldham,2021-01-05 08:11:32.504014,2020-10-05 00:00:00.000000,0.99414478,1.75045431,3.50991239,20,36,74,10,19,42,0.50210135,0.93165261,2.01378290,0.07214831,0.12790393,0.23142288
48359,0,USTexasOldham,Texas,Oldham,2021-01-05 08:11:32.504014,2020-10-06 00:00:00.000000,0.98739852,1.85277201,3.48925970,20,39,73,11,19,44,0.52341850,0.94160234,2.11205270,0.07387808,0.12982439,0.22930436
48359,0,USTexasOldham,Texas,Oldham,2021-01-05 08:11:32.504014,2020-10-07 00:00:00.000000,0.99821150,1.91184807,3.46822710,21,40,73,11,20,45,0.52554071,0.96560522,2.15537163,0.07432803,0.13031211,0.22889527
48359,0,USTexasOldham,Texas,Oldham,2021-01-05 08:11:32.504014,2020-10-08 00:00:00.000000,1.02505049,1.92592953,3.67556287,21,40,77,11,20,45,0.52487517,0.98994684,2.16769463,0.07394309,0.13056803,0.23528614
48359,0,USTexasOldham,Texas,Oldham,2021-01-05 08:11:32.504014,2020-10-09 00:00:00.000000,1.02342043,1.94695015,3.58036429,21,41,75,11,21,45,0.52274547,1.00129269,2.16100207,0.07483960,0.13435722,0.24499026
48359,0,USTexasOldham,Texas,Oldham,2021-01-05 08:11:32.504014,2020-10-10 00:00:00.000000,0.99615423,2.00841000,3.47912863,21,42,73,11,21,45,0.52580126,1.01820127,2.14521923,0.08031374,0.13934530,0.24739140
48359,0,USTexasOldham,Texas,Oldham,2021-01-05 08:11:32.504014,2020-10-11 00:00:00.000000,1.01896816,2.04404943,3.40317540,21,43,71,11,21,44,0.53611972,1.03418668,2.11552741,0.07974419,0.14676159,0.25367056
48359,0,USTexasOldham,Texas,Oldham,2021-01-05 08:11:32.504014,2020-10-12 00:00:00.000000,1.10937298,2.11158234,3.45494070,23,44,72,11,22,43,0.53175693,1.05881466,2.07982966,0.07922293,0.14882449,0.25514674
48359,0,USTexasOldham,Texas,Oldham,2021-01-05 08:11:32.504014,2020-10-13 00:00:00.000000,1.15518053,2.13763468,3.51063338,24,45,74,12,22,44,0.57815226,1.07953501,2.08501273,0.07964064,0.14987591,0.25537486
48359,0,USTexasOldham,Texas,Oldham,2021-01-05 08:11:32.504014,2020-10-14 00:00:00.000000,1.18800816,2.13402214,3.68004020,25,45,77,13,23,44,0.61776496,1.09985307,2.11846912,0.08557248,0.15050736,0.25532789
48359,0,USTexasOldham,Texas,Oldham,2021-01-05 08:11:32.504014,2020-10-15 00:00:00.000000,1.21552860,2.12671873,4.00530586,25,44,84,13,23,45,0.65094180,1.12871063,2.17113314,0.08806667,0.15230693,0.25499450
48359,0,USTexasOldham,Texas,Oldham,2021-01-05 08:11:32.504014,2020-10-16 00:00:00.000000,1.24491880,2.10991414,4.32544869,26,44,91,13,24,47,0.66201864,1.14463049,2.23654213,0.09105653,0.15302539,0.26247487
48359,0,USTexasOldham,Texas,Oldham,2021-01-05 08:11:32.504014,2020-10-17 00:00:00.000000,1.28165626,2.15767774,4.57797363,27,45,96,14,24,48,0.67477322,1.14745072,2.31019673,0.09265521,0.15649035,0.26697349
48359,0,USTexasOldham,Texas,Oldham,2021-01-05 08:11:32.504014,2020-10-18 00:00:00.000000,1.31970205,2.18895797,4.74149804,27,46,100,14,24,50,0.70593290,1.16732845,2.38907749,0.09569221,0.16280198,0.26895627
48359,0,USTexasOldham,Texas,Oldham,2021-01-05 08:11:32.504014,2020-10-19 00:00:00.000000,1.42479733,2.33292064,4.67443613,30,49,98,14,24,52,0.69855572,1.18019780,2.47108826,0.09972198,0.16690113,0.26978186
48359,0,USTexasOldham,Texas,Oldham,2021-01-05 08:11:32.504014,2020-10-20 00:00:00.000000,1.45273008,2.50324308,4.60270520,30,52,97,15,25,53,0.72025114,1.22528742,2.51277090,0.10469070,0.16868162,0.27811181
48359,0,USTexasOldham,Texas,Oldham,2021-01-05 08:11:32.504014,2020-10-21 00:00:00.000000,1.48116719,2.55826580,4.52274023,31,54,95,15,26,53,0.74991995,1.27727256,2.52612274,0.10518938,0.17198729,0.27949375
48359,0,USTexasOldham,Texas,Oldham,2021-01-05 08:11:32.504014,2020-10-22 00:00:00.000000,1.50983553,2.61365061,4.43809111,31,55,93,17,27,53,0.80726396,1.29603724,2.54823413,0.10677506,0.17593657,0.29544312
48359,0,USTexasOldham,Texas,Oldham,2021-01-05 08:11:32.504014,2020-10-23 00:00:00.000000,1.53881367,2.63903928,4.35399325,32,55,91,18,28,54,0.87432738,1.36424470,2.56539521,0.10976660,0.18289493,0.30933482
48359,0,USTexasOldham,Texas,Oldham,2021-01-05 08:11:32.504014,2020-10-24 00:00:00.000000,1.59770757,2.73265489,4.36735115,33,57,92,19,29,54,0.91879664,1.40496347,2.56944443,0.11042951,0.18655743,0.30980531
48359,0,USTexasOldham,Texas,Oldham,2021-01-05 08:11:32.504014,2020-10-25 00:00:00.000000,1.65066291,2.83959688,4.76378088,34,59,100,19,30,54,0.93610024,1.45707107,2.56516218,0.11334220,0.19536515,0.29990604
48359,0,USTexasOldham,Texas,Oldham,2021-01-05 08:11:32.504014,2020-10-26 00:00:00.000000,1.70515624,2.92284073,4.75691378,36,61,100,19,31,58,0.93646332,1.49884550,2.76321224,0.12023062,0.20536078,0.30838713
48359,0,USTexasOldham,Texas,Oldham,2021-01-05 08:11:32.504014,2020-10-27 00:00:00.000000,1.89452667,3.06851491,4.83227199,40,64,102,20,32,61,0.97593471,1.53003148,2.91981884,0.12404158,0.21088154,0.31023411
48359,0,USTexasOldham,Texas,Oldham,2021-01-05 08:11:32.504014,2020-10-28 00:00:00.000000,1.94748869,3.23819525,4.88906822,41,68,103,20,33,63,0.99196447,1.56761782,3.00956050,0.12587025,0.21329247,0.33053489
48359,0,USTexasOldham,Texas,Oldham,2021-01-05 08:11:32.504014,2020-10-29 00:00:00.000000,1.96270999,3.34503610,5.07112777,41,70,107,21,34,64,1.02771997,1.64279336,3.05639227,0.13488854,0.22276253,0.33885518
48359,0,USTexasOldham,Texas,Oldham,2021-01-05 08:11:32.504014,2020-10-30 00:00:00.000000,1.99964015,3.48447290,5.37031254,42,73,113,22,35,64,1.05463722,1.70348544,3.07571309,0.14249368,0.22392845,0.34213850
48359,0,USTexasOldham,Texas,Oldham,2021-01-05 08:11:32.504014,2020-10-31 00:00:00.000000,2.09167038,3.67018219,5.66016011,44,77,119,22,37,65,1.08169759,1.77942706,3.07769466,0.14585070,0.22902771,0.34408485
48359,0,USTexasOldham,Texas,Oldham,2021-01-05 08:11:32.504014,2020-11-01 00:00:00.000000,2.11239012,3.75717808,6.01994321,44,79,127,23,38,64,1.10952228,1.84602633,3.07064522,0.14490886,0.23896740,0.34464715
48359,0,USTexasOldham,Texas,Oldham,2021-01-05 08:11:32.504014,2020-11-02 00:00:00.000000,2.18540746,3.79691426,6.10057587,46,80,128,24,40,64,1.14002915,1.93586543,3.06498283,0.14388523,0.24184880,0.34484546
48359,0,USTexasOldham,Texas,Oldham,2021-01-05 08:11:32.504014,2020-11-03 00:00:00.000000,2.25659066,3.85523608,6.24449178,47,81,131,24,41,66,1.17051854,1.96976046,3.17220797,0.14370083,0.24505109,0.35837688
48359,0,USTexasOldham,Texas,Oldham,2021-01-05 08:11:32.504014,2020-11-04 00:00:00.000000,2.33795157,3.95046697,6.32631881,49,83,133,25,42,69,1.19972554,2.01546126,3.28095270,0.14372780,0.25014971,0.36605169
48359,0,USTexasOldham,Texas,Oldham,2021-01-05 08:11:32.504014,2020-11-05 00:00:00.000000,2.42902943,4.07582578,6.41922070,51,86,135,26,43,71,1.25090425,2.05918600,3.38504606,0.14389783,0.25679561,0.37621038
48359,0,USTexasOldham,Texas,Oldham,2021-01-05 08:11:32.504014,2020-11-06 00:00:00.000000,2.46414807,4.16207258,6.45550619,52,87,136,27,44,73,1.31253531,2.11378723,3.48528975,0.14923263,0.27086709,0.39120490
48359,0,USTexasOldham,Texas,Oldham,2021-01-05 08:11:32.504014,2020-11-07 00:00:00.000000,2.52851975,4.24889651,6.53964889,53,89,138,29,45,75,1.38321550,2.17357610,3.58090034,0.15322950,0.28053479,0.40306985
48359,0,USTexasOldham,Texas,Oldham,2021-01-05 08:11:32.504014,2020-11-08 00:00:00.000000,2.52662709,4.34792375,6.64400022,53,91,140,30,46,77,1.44407146,2.21030537,3.67007790,0.16540411,0.28955226,0.41908663
48359,0,USTexasOldham,Texas,Oldham,2021-01-05 08:11:32.504014,2020-11-09 00:00:00.000000,2.68820375,4.57638894,6.88893157,56,96,145,31,46,79,1.49686866,2.22294445,3.75093116,0.18065117,0.29727756,0.43847549
48359,0,USTexasOldham,Texas,Oldham,2021-01-05 08:11:32.504014,2020-11-10 00:00:00.000000,2.87714860,4.65927278,7.14389654,60,98,150,32,48,80,1.53467464,2.29557729,3.83406587,0.19360461,0.30099679,0.46121558
48359,0,USTexasOldham,Texas,Oldham,2021-01-05 08:11:32.504014,2020-11-11 00:00:00.000000,3.08495043,4.96445931,7.32261141,65,104,154,33,51,82,1.60599517,2.42898285,3.91775390,0.21200527,0.31802520,0.47717253
48359,0,USTexasOldham,Texas,Oldham,2021-01-05 08:11:32.504014,2020-11-12 00:00:00.000000,3.31262209,5.17274657,7.53206670,69,109,159,35,53,84,1.65741797,2.53655076,4.00459142,0.22686392,0.33334442,0.47866254
48359,0,USTexasOldham,Texas,Oldham,2021-01-05 08:11:32.504014,2020-11-13 00:00:00.000000,3.52308401,5.46803243,7.82696575,74,115,165,37,56,86,1.75880930,2.67860500,4.10333189,0.23208334,0.35415531,0.50496762
48359,0,USTexasOldham,Texas,Oldham,2021-01-05 08:11:32.504014,2020-11-14 00:00:00.000000,3.72106089,5.76301821,8.26916191,78,121,174,38,60,89,1.81131451,2.86708381,4.22330594,0.24159455,0.37174443,0.56380261
48359,0,USTexasOldham,Texas,Oldham,2021-01-05 08:11:32.504014,2020-11-15 00:00:00.000000,3.94910042,6.00799859,8.60983256,83,126,181,39,63,92,1.85912801,3.02335490,4.36497546,0.26242483,0.38080146,0.57150948
48359,0,USTexasOldham,Texas,Oldham,2021-01-05 08:11:32.504014,2020-11-16 00:00:00.000000,4.37976839,6.38157160,8.94922780,92,134,189,40,65,95,1.93129737,3.12014743,4.52356269,0.27533608,0.39231492,0.57408358
48359,0,USTexasOldham,Texas,Oldham,2021-01-05 08:11:32.504014,2020-11-17 00:00:00.000000,4.73616018,6.75522634,9.17494891,100,142,193,42,69,99,2.03561575,3.29865064,4.69281463,0.29214567,0.40350513,0.57483109
48359,0,USTexasOldham,Texas,Oldham,2021-01-05 08:11:32.504014,2020-11-18 00:00:00.000000,4.91289387,7.19385817,9.66927917,103,151,204,45,73,102,2.15694608,3.48875305,4.86917372,0.30540042,0.42143226,0.58906486
48359,0,USTexasOldham,Texas,Oldham,2021-01-05 08:11:32.504014,2020-11-19 00:00:00.000000,5.30227419,7.54779361,10.09331637,111,159,213,48,78,106,2.30883998,3.70682161,5.05021522,0.31460461,0.43387124,0.61206802
48359,0,USTexasOldham,Texas,Oldham,2021-01-05 08:11:32.504014,2020-11-20 00:00:00.000000,5.57168717,7.92894942,10.77006252,117,167,227,52,80,110,2.47529831,3.82382694,5.23499189,0.31555812,0.44976433,0.60010726
48359,0,USTexasOldham,Texas,Oldham,2021-01-05 08:11:32.504014,2020-11-21 00:00:00.000000,5.85298066,8.45111472,11.28172491,123,178,238,56,85,117,2.65161625,4.04357450,5.58077856,0.34026875,0.45913833,0.63845994
48359,0,USTexasOldham,Texas,Oldham,2021-01-05 08:11:32.504014,2020-11-22 00:00:00.000000,6.16564491,8.99071015,12.03122451,130,189,254,59,91,127,2.82076974,4.34002380,6.04383243,0.34110725,0.48230795,0.68398019
48359,0,USTexasOldham,Texas,Oldham,2021-01-05 08:11:32.504014,2020-11-23 00:00:00.000000,6.70058211,9.56671935,12.65427345,141,202,267,63,96,138,3.01498933,4.55630334,6.53904343,0.34592255,0.49450774,0.74943342
48359,0,USTexasOldham,Texas,Oldham,2021-01-05 08:11:32.504014,2020-11-24 00:00:00.000000,7.27362856,10.08576714,13.27984209,153,213,280,67,101,147,3.20436560,4.81342804,6.97819771,0.35611775,0.50645557,0.76240501
48359,0,USTexasOldham,Texas,Oldham,2021-01-05 08:11:32.504014,2020-11-25 00:00:00.000000,7.95644553,10.75035100,13.92525643,168,227,294,73,108,155,3.46778162,5.13452406,7.38541990,0.36359861,0.51776524,0.77705628
48359,0,USTexasOldham,Texas,Oldham,2021-01-05 08:11:32.504014,2020-11-26 00:00:00.000000,8.51522406,11.46018360,14.79065802,179,242,312,77,115,164,3.67203609,5.44670198,7.77514126,0.36969849,0.53142462,0.79467915
48359,0,USTexasOldham,Texas,Oldham,2021-01-05 08:11:32.504014,2020-11-27 00:00:00.000000,9.10114621,12.05972642,15.84423363,192,254,334,82,122,172,3.89236466,5.78737068,8.15721865,0.41248189,0.54088522,0.80176271
48359,0,USTexasOldham,Texas,Oldham,2021-01-05 08:11:32.504014,2020-11-28 00:00:00.000000,9.89015216,12.87781027,16.92744860,208,271,357,87,128,180,4.12816910,6.09644974,8.54190516,0.42754620,0.55495359,0.83694824
48359,0,USTexasOldham,Texas,Oldham,2021-01-05 08:11:32.504014,2020-11-29 00:00:00.000000,10.49080797,13.94094829,18.04695350,221,294,381,93,137,189,4.40836060,6.51052936,8.96393821,0.42780329,0.56423189,0.85664337
48359,0,USTexasOldham,Texas,Oldham,2021-01-05 08:11:32.504014,2020-11-30 00:00:00.000000,11.28402783,14.75953837,18.82634602,238,311,397,98,147,201,4.65094511,6.96562267,9.55373037,0.45640764,0.58580530,0.88179494
48359,0,USTexasOldham,Texas,Oldham,2021-01-05 08:11:32.504014,2020-12-01 00:00:00.000000,12.12095157,15.56149576,20.13031682,255,328,425,103,156,214,4.92167213,7.43212042,10.14666072,0.47133315,0.59432004,0.90531452
48359,0,USTexasOldham,Texas,Oldham,2021-01-05 08:11:32.504014,2020-12-02 00:00:00.000000,13.01960690,16.46724515,21.44250747,274,347,452,110,166,226,5.21479246,7.87580344,10.74335366,0.46875581,0.59530760,0.92163031
48359,0,USTexasOldham,Texas,Oldham,2021-01-05 08:11:32.504014,2020-12-03 00:00:00.000000,13.90703971,17.30950529,23.02698047,293,365,486,116,175,239,5.52069036,8.29457815,11.34332161,0.46304859,0.61555311,0.93260107
48359,0,USTexasOldham,Texas,Oldham,2021-01-05 08:11:32.504014,2020-12-04 00:00:00.000000,14.58153659,18.22898569,24.68282075,307,384,521,123,186,252,5.83931283,8.81648121,11.94724971,0.49049880,0.62759498,0.93948370
48359,0,USTexasOldham,Texas,Oldham,2021-01-05 08:11:32.504014,2020-12-05 00:00:00.000000,15.25743248,19.24678038,26.35065061,322,406,556,130,198,265,6.17501055,9.41467317,12.55775382,0.50210753,0.64142587,0.94263563
48359,0,USTexasOldham,Texas,Oldham,2021-01-05 08:11:32.504014,2020-12-06 00:00:00.000000,15.93046596,20.30604624,28.01785523,336,428,591,137,209,280,6.53162074,9.93907306,13.28852985,0.49947537,0.66388341,0.95700314
48359,0,USTexasOldham,Texas,Oldham,2021-01-05 08:11:32.504014,2020-12-07 00:00:00.000000,16.67897701,21.36170374,29.58050423,352,451,624,145,223,296,6.91254200,10.57334584,14.03594385,0.49729269,0.69266519,0.96771197
48359,0,USTexasOldham,Texas,Oldham,2021-01-05 08:11:32.504014,2020-12-08 00:00:00.000000,17.41513208,22.40991369,30.96065902,367,473,653,154,236,316,7.30917218,11.19189032,14.97313949,0.51333488,0.71004626,0.97776191
48359,0,USTexasOldham,Texas,Oldham,2021-01-05 08:11:32.504014,2020-12-09 00:00:00.000000,18.03707125,23.47555097,32.47743711,380,495,685,163,249,336,7.72026960,11.79300741,15.90955337,0.51845958,0.73080130,1.04855453
48359,0,USTexasOldham,Texas,Oldham,2021-01-05 08:11:32.504014,2020-12-10 00:00:00.000000,18.83732288,24.56557800,34.04494757,397,518,719,171,262,353,8.14138991,12.43357086,16.76008739,0.52074042,0.74467129,1.18112513
48359,0,USTexasOldham,Texas,Oldham,2021-01-05 08:11:32.504014,2020-12-11 00:00:00.000000,19.52826144,25.51351704,35.32634301,412,538,746,180,273,371,8.56737978,12.93095713,17.58398108,0.52880788,0.77577163,1.42018168
48359,0,USTexasOldham,Texas,Oldham,2021-01-05 08:11:32.504014,2020-12-12 00:00:00.000000,20.23335507,26.68672259,36.05106858,427,563,761,190,284,391,8.99856821,13.49121962,18.55479625,0.56203788,0.80638994,1.57330492
48359,0,USTexasOldham,Texas,Oldham,2021-01-05 08:11:32.504014,2020-12-13 00:00:00.000000,20.99510141,28.00838726,36.61437268,443,591,773,199,297,416,9.46523330,14.08046376,19.72425953,0.60106852,0.84136847,1.45840234
48359,0,USTexasOldham,Texas,Oldham,2021-01-05 08:11:32.504014,2020-12-14 00:00:00.000000,21.91897108,29.04824335,36.85466718,462,613,778,210,311,435,9.98831577,14.76937656,20.63454021,0.61558480,0.87352444,1.39628734
48359,0,USTexasOldham,Texas,Oldham,2021-01-05 08:11:32.504014,2020-12-15 00:00:00.000000,22.81206742,29.96348199,36.92096371,481,632,779,221,324,453,10.51133552,15.35836361,21.48306959,0.63491476,0.88698594,1.45717871
48359,0,USTexasOldham,Texas,Oldham,2021-01-05 08:11:32.504014,2020-12-16 00:00:00.000000,23.78750625,30.66728232,37.38526294,502,647,789,232,335,469,11.02012512,15.87559509,22.23436248,0.64035895,0.88830804,1.56619393
48359,0,USTexasOldham,Texas,Oldham,2021-01-05 08:11:32.504014,2020-12-17 00:00:00.000000,24.65557311,31.36301578,37.68469353,520,662,795,242,345,482,11.49820853,16.37733506,22.86200690,0.63707371,0.90107037,1.65516114
48359,0,USTexasOldham,Texas,Oldham,2021-01-05 08:11:32.504014,2020-12-18 00:00:00.000000,25.32667165,31.83322890,38.32117810,534,672,809,252,354,493,11.93753186,16.79671639,23.34698887,0.61982700,0.91377550,1.68678013
48359,0,USTexasOldham,Texas,Oldham,2021-01-05 08:11:32.504014,2020-12-19 00:00:00.000000,25.41526078,32.08397679,39.11036686,536,677,826,260,361,500,12.33119529,17.13408790,23.67633361,0.61597382,0.91720597,1.72071702
48359,0,USTexasOldham,Texas,Oldham,2021-01-05 08:11:32.504014,2020-12-20 00:00:00.000000,25.36445927,32.13189794,39.30483483,535,678,830,267,367,503,12.64914841,17.40599684,23.83949443,0.58908939,0.92571110,1.75180563
48359,0,USTexasOldham,Texas,Oldham,2021-01-05 08:11:32.504014,2020-12-21 00:00:00.000000,25.02306545,32.01968901,38.79038854,528,676,819,267,368,503,12.65469394,17.46120341,23.81783236,0.58087545,0.93944409,1.77791836
48359,0,USTexasOldham,Texas,Oldham,2021-01-05 08:11:32.504014,2020-12-22 00:00:00.000000,24.48448349,31.75853985,38.49544153,517,670,813,262,367,505,12.41110812,17.38925488,23.94409141,0.56427603,0.93804254,1.79751252
48359,0,USTexasOldham,Texas,Oldham,2021-01-05 08:11:32.504014,2020-12-23 00:00:00.000000,23.81295379,31.04040023,38.17944629,502,655,806,259,364,510,12.27229547,17.24883125,24.15375649,0.51661783,0.93312123,1.82272166
48359,0,USTexasOldham,Texas,Oldham,2021-01-05 08:11:32.504014,2020-12-24 00:00:00.000000,23.25817141,30.26138963,37.58885356,491,639,793,257,362,511,12.20833163,17.17536848,24.21442550,0.49184407,0.94983057,1.82815359
48359,0,USTexasOldham,Texas,Oldham,2021-01-05 08:11:32.504014,2020-12-25 00:00:00.000000,22.26991490,29.31705548,36.75837857,470,619,776,254,357,509,12.06558784,16.94958536,24.12296244,0.42785451,0.95420011,1.83126127
48359,0,USTexasOldham,Texas,Oldham,2021-01-05 08:11:32.504014,2020-12-26 00:00:00.000000,21.39853511,28.21703633,35.71946943,451,595,754,250,349,509,11.84862411,16.55601202,24.11461036,0.41559840,0.95688912,1.83664082
48359,0,USTexasOldham,Texas,Oldham,2021-01-05 08:11:32.504014,2020-12-27 00:00:00.000000,20.12726668,27.08912555,34.50628833,425,572,728,242,339,509,11.46380794,16.08492807,24.11401699,0.41512144,0.94907447,1.84808942
48359,0,USTexasOldham,Texas,Oldham,2021-01-05 08:11:32.504014,2020-12-28 00:00:00.000000,18.85526406,25.60974755,33.06055731,398,540,698,232,329,506,11.00820604,15.58830234,23.99061574,0.40495397,0.95549954,1.88028246
48359,0,USTexasOldham,Texas,Oldham,2021-01-05 08:11:32.504014,2020-12-29 00:00:00.000000,17.63371894,24.14540655,31.50981625,372,509,665,218,317,486,10.35942679,15.04073361,23.04111642,0.39342712,0.95070756,1.90489909
48359,0,USTexasOldham,Texas,Oldham,2021-01-05 08:11:32.504014,2020-12-30 00:00:00.000000,16.45445786,22.60393395,29.88547819,347,477,631,204,302,464,9.69184295,14.32225225,21.98068612,0.38708997,0.94847954,1.89199636
48359,0,USTexasOldham,Texas,Oldham,2021-01-05 08:11:32.504014,2020-12-31 00:00:00.000000,15.31203281,21.19751845,28.21909419,323,447,595,190,286,440,9.02075988,13.56914300,20.84745818,0.38239201,0.94724450,1.84822775
48359,0,USTexasOldham,Texas,Oldham,2021-01-05 08:11:32.504014,2021-01-01 00:00:00.000000,14.20826183,19.81606587,26.53828193,300,418,560,176,270,421,8.37960664,12.81646926,19.96405342,0.37357845,0.93862489,1.79359396
48359,0,USTexasOldham,Texas,Oldham,2021-01-05 08:11:32.504014,2021-01-02 00:00:00.000000,13.14791904,18.52826502,25.00198861,277,391,528,166,258,403,7.87521861,12.22850225,19.09948988,0.34945692,0.92899148,1.75702749
48359,0,USTexasOldham,Texas,Oldham,2021-01-05 08:11:32.504014,2021-01-03 00:00:00.000000,12.13519089,17.19116806,23.58377619,256,363,498,155,244,383,7.37413648,11.55563575,18.17404338,0.32491084,0.90518569,1.75039341
48359,0,USTexasOldham,Texas,Oldham,2021-01-05 08:11:32.504014,2021-01-04 00:00:00.000000,11.17322931,15.91491283,22.57248724,235,336,476,145,227,363,6.88166107,10.76518260,17.21307725,0.31151067,0.91161600,1.76357199
48359,0,USTexasOldham,Texas,Oldham,2021-01-05 08:11:32.504014,2021-01-05 00:00:00.000000,10.26416356,14.79634763,21.22182953,216,312,448,134,211,342,6.35814240,10.00167230,16.23420312,0.30771517,0.89740894,1.75756123
48359,0,USTexasOldham,Texas,Oldham,2021-01-05 08:11:32.504014,2021-01-06 00:00:00.000000,9.39579162,13.75484758,19.92955907,198,290,420,122,195,322,5.79917342,9.27527020,15.25266534,0.30669321,0.89747598,1.75656698
48359,0,USTexasOldham,Texas,Oldham,2021-01-05 08:11:32.504014,2021-01-07 00:00:00.000000,8.49542209,12.69240285,18.69722129,179,268,394,111,183,301,5.27600384,8.67077067,14.26958917,0.30647440,0.89763213,1.75681239
48359,0,USTexasOldham,Texas,Oldham,2021-01-05 08:11:32.504014,2021-01-08 00:00:00.000000,7.66827670,11.64344630,17.52541453,161,245,370,101,168,280,4.78911881,7.99932353,13.29889227,0.30642097,0.89662710,1.75689477
48359,0,USTexasOldham,Texas,Oldham,2021-01-05 08:11:32.504014,2021-01-09 00:00:00.000000,6.90959579,10.75574770,16.41397249,145,227,346,91,155,260,4.33824858,7.37625161,12.35465159,0.30640719,0.89497316,1.75692395
48359,0,USTexasOldham,Texas,Oldham,2021-01-05 08:11:32.504014,2021-01-10 00:00:00.000000,6.21653801,9.88010819,15.36211999,131,208,324,82,145,241,3.92255113,6.86616498,11.44676699,0.30640339,0.89374336,1.75693482
48359,0,USTexasOldham,Texas,Oldham,2021-01-05 08:11:32.504014,2021-01-11 00:00:00.000000,5.58594026,9.04140158,14.36146854,117,190,303,74,133,230,3.54076237,6.34420720,10.89430056,0.30640229,0.89286018,1.75693906
48359,0,USTexasOldham,Texas,Oldham,2021-01-05 08:11:32.504014,2021-01-12 00:00:00.000000,5.01362542,8.33589824,13.41763773,105,176,283,67,123,219,3.19131877,5.87075396,10.37120527,0.30640196,0.89224137,1.75694079
48359,0,USTexasOldham,Texas,Oldham,2021-01-05 08:11:32.504014,2021-01-13 00:00:00.000000,4.49538115,7.67180615,12.53023434,94,162,264,60,113,207,2.87245711,5.37133081,9.84182204,0.30640187,0.89181519,1.75694152
48359,0,USTexasOldham,Texas,Oldham,2021-01-05 08:11:32.504014,2021-01-14 00:00:00.000000,4.02704743,7.02389076,11.69695283,85,148,247,54,103,196,2.58229437,4.88827319,9.30966873,0.30640186,0.89152511,1.75694184
48359,0,USTexasOldham,Texas,Oldham,2021-01-05 08:11:32.504014,2021-01-15 00:00:00.000000,3.60458204,6.42569553,10.91536781,76,135,230,48,93,185,2.31889120,4.44310662,8.78031438,0.30640187,0.89132927,1.75694198
48359,0,USTexasOldham,Texas,Oldham,2021-01-05 08:11:32.504014,2021-01-16 00:00:00.000000,3.22410771,5.90047898,10.18298906,68,124,215,44,85,174,2.08842587,4.06791766,8.25840300,0.30640188,0.89119775,1.75694205
48359,0,USTexasOldham,Texas,Oldham,2021-01-05 08:11:32.504014,2021-01-17 00:00:00.000000,2.88225530,5.43456054,9.49730537,60,114,200,39,78,163,1.88928063,3.73526567,7.74753061,0.30640190,0.89110977,1.75694208
