FIPS,HR_UID,nameid,province,region,analysisTime,dates,pointprevalence_025,pointprevalence_50,pointprevalence_975,pointinfections_025,pointinfections_50,pointinfections_975,pointinfectious_025,pointinfectious_50,pointinfectious_975,pointinfectiousprevalence_05,pointinfectiousprevalence_50,pointinfectiousprevalence_95,infectrate_025,infectrate_50,infectrate_975
42093,0,USPennsylvaniaMontour,Pennsylvania,Montour,2021-01-05 11:33:24.508009,2020-03-09 00:00:00.000000,0.01305763,0.03453480,0.08566471,2,6,15,0,3,9,0.00454020,0.01652940,0.04950737,0.34746754,0.46953256,0.67601174
42093,0,USPennsylvaniaMontour,Pennsylvania,Montour,2021-01-05 11:33:24.508009,2020-03-10 00:00:00.000000,0.01726246,0.04508673,0.09726979,3,8,17,1,3,9,0.00605777,0.01754460,0.05006156,0.34746776,0.46953053,0.67601150
42093,0,USPennsylvaniaMontour,Pennsylvania,Montour,2021-01-05 11:33:24.508009,2020-03-11 00:00:00.000000,0.02144068,0.05515856,0.10940138,3,10,19,1,3,9,0.00736528,0.02047663,0.05392112,0.34746794,0.46952607,0.67601049
42093,0,USPennsylvaniaMontour,Pennsylvania,Montour,2021-01-05 11:33:24.508009,2020-03-12 00:00:00.000000,0.02594919,0.06465884,0.12287867,4,11,22,1,4,10,0.00967304,0.02503485,0.05980462,0.34746782,0.46951527,0.67600584
42093,0,USPennsylvaniaMontour,Pennsylvania,Montour,2021-01-05 11:33:24.508009,2020-03-13 00:00:00.000000,0.03087423,0.07771232,0.14273269,5,14,26,2,5,12,0.01220959,0.02940913,0.06686376,0.34746665,0.46948674,0.67598279
42093,0,USPennsylvaniaMontour,Pennsylvania,Montour,2021-01-05 11:33:24.508009,2020-03-14 00:00:00.000000,0.03628482,0.09136969,0.16175536,6,16,29,2,6,13,0.01473981,0.03572634,0.07387928,0.34746236,0.46940614,0.67586191
42093,0,USPennsylvaniaMontour,Pennsylvania,Montour,2021-01-05 11:33:24.508009,2020-03-15 00:00:00.000000,0.04223955,0.10469076,0.18291854,7,19,33,3,7,14,0.01734386,0.04179977,0.08196752,0.34744954,0.46916671,0.67520064
42093,0,USPennsylvaniaMontour,Pennsylvania,Montour,2021-01-05 11:33:24.508009,2020-03-16 00:00:00.000000,0.05372248,0.12172987,0.19829946,9,22,36,3,9,16,0.02024985,0.04941877,0.09043270,0.34406962,0.46504570,0.66823980
42093,0,USPennsylvaniaMontour,Pennsylvania,Montour,2021-01-05 11:33:24.508009,2020-03-17 00:00:00.000000,0.06582548,0.13901638,0.22097095,11,25,40,4,10,18,0.02475865,0.05733343,0.09984188,0.33335739,0.46098989,0.65197668
42093,0,USPennsylvaniaMontour,Pennsylvania,Montour,2021-01-05 11:33:24.508009,2020-03-18 00:00:00.000000,0.07704555,0.15806864,0.24921293,14,28,45,5,12,20,0.02943985,0.06775181,0.11118715,0.32492485,0.45282090,0.63512275
42093,0,USPennsylvaniaMontour,Pennsylvania,Montour,2021-01-05 11:33:24.508009,2020-03-19 00:00:00.000000,0.08705537,0.18508994,0.28016301,15,33,51,6,14,23,0.03379197,0.07684730,0.12656216,0.30662762,0.42697709,0.63477407
42093,0,USPennsylvaniaMontour,Pennsylvania,Montour,2021-01-05 11:33:24.508009,2020-03-20 00:00:00.000000,0.09701132,0.20226698,0.31275649,17,36,57,7,15,26,0.03841648,0.08768082,0.14287254,0.27661758,0.40629621,0.61489352
42093,0,USPennsylvaniaMontour,Pennsylvania,Montour,2021-01-05 11:33:24.508009,2020-03-21 00:00:00.000000,0.10676610,0.22023315,0.34214239,19,40,62,7,17,29,0.04329020,0.09807064,0.16175939,0.24226296,0.37709169,0.60894512
42093,0,USPennsylvaniaMontour,Pennsylvania,Montour,2021-01-05 11:33:24.508009,2020-03-22 00:00:00.000000,0.11448781,0.24100544,0.37329266,20,43,68,8,19,32,0.04837780,0.10969530,0.17744625,0.21497056,0.35568766,0.60854841
42093,0,USPennsylvaniaMontour,Pennsylvania,Montour,2021-01-05 11:33:24.508009,2020-03-23 00:00:00.000000,0.13007267,0.26649101,0.40892659,23,48,74,9,21,34,0.05363044,0.11961272,0.19185089,0.20069876,0.33376416,0.58996401
42093,0,USPennsylvaniaMontour,Pennsylvania,Montour,2021-01-05 11:33:24.508009,2020-03-24 00:00:00.000000,0.14584252,0.28931000,0.43121869,26,52,78,11,24,38,0.06131589,0.13179038,0.20875423,0.19136903,0.32487876,0.54876728
42093,0,USPennsylvaniaMontour,Pennsylvania,Montour,2021-01-05 11:33:24.508009,2020-03-25 00:00:00.000000,0.16210545,0.31095857,0.47071348,29,56,85,12,26,43,0.06998389,0.14650171,0.23678244,0.18411431,0.30754175,0.52136985
42093,0,USPennsylvaniaMontour,Pennsylvania,Montour,2021-01-05 11:33:24.508009,2020-03-26 00:00:00.000000,0.17866554,0.32680818,0.49678370,32,59,90,14,28,46,0.07970113,0.15823720,0.25436392,0.18154702,0.28871032,0.49963503
42093,0,USPennsylvaniaMontour,Pennsylvania,Montour,2021-01-05 11:33:24.508009,2020-03-27 00:00:00.000000,0.19395856,0.34069413,0.52823404,35,62,96,16,31,48,0.09005274,0.17162894,0.26872190,0.17060724,0.27329135,0.47233285
42093,0,USPennsylvaniaMontour,Pennsylvania,Montour,2021-01-05 11:33:24.508009,2020-03-28 00:00:00.000000,0.20394263,0.35860527,0.56077485,37,65,102,18,32,50,0.10089125,0.18067848,0.27961464,0.16088785,0.24880827,0.45978309
42093,0,USPennsylvaniaMontour,Pennsylvania,Montour,2021-01-05 11:33:24.508009,2020-03-29 00:00:00.000000,0.21338878,0.36760626,0.59054492,38,67,107,20,34,54,0.11208704,0.19110212,0.29942492,0.16026302,0.23994157,0.43886349
42093,0,USPennsylvaniaMontour,Pennsylvania,Montour,2021-01-05 11:33:24.508009,2020-03-30 00:00:00.000000,0.22937647,0.38518145,0.61479093,41,70,112,21,36,58,0.11811783,0.19776454,0.32131517,0.15294680,0.23270861,0.42063027
42093,0,USPennsylvaniaMontour,Pennsylvania,Montour,2021-01-05 11:33:24.508009,2020-03-31 00:00:00.000000,0.24446826,0.39144622,0.63745619,44,71,116,22,36,62,0.12392020,0.20147020,0.34180315,0.14914600,0.21913693,0.39514700
42093,0,USPennsylvaniaMontour,Pennsylvania,Montour,2021-01-05 11:33:24.508009,2020-04-01 00:00:00.000000,0.25857207,0.39859901,0.66069532,47,72,120,23,38,65,0.13016673,0.21029110,0.36057991,0.14730272,0.20644609,0.34533058
42093,0,USPennsylvaniaMontour,Pennsylvania,Montour,2021-01-05 11:33:24.508009,2020-04-02 00:00:00.000000,0.26197462,0.41244891,0.68032279,47,75,124,24,39,68,0.13313093,0.21729210,0.37651037,0.14088235,0.20033238,0.32754534
42093,0,USPennsylvaniaMontour,Pennsylvania,Montour,2021-01-05 11:33:24.508009,2020-04-03 00:00:00.000000,0.26444216,0.42229324,0.70126472,48,76,127,24,40,70,0.13682937,0.22338317,0.38839563,0.11891711,0.19096562,0.30574545
42093,0,USPennsylvaniaMontour,Pennsylvania,Montour,2021-01-05 11:33:24.508009,2020-04-04 00:00:00.000000,0.26633195,0.43577932,0.71421817,48,79,130,26,42,72,0.14511798,0.23109562,0.39611884,0.11164684,0.17995111,0.28478290
42093,0,USPennsylvaniaMontour,Pennsylvania,Montour,2021-01-05 11:33:24.508009,2020-04-05 00:00:00.000000,0.26792933,0.43629046,0.71900856,48,79,131,26,43,72,0.14610138,0.23816692,0.40036723,0.10758583,0.16985266,0.27133239
42093,0,USPennsylvaniaMontour,Pennsylvania,Montour,2021-01-05 11:33:24.508009,2020-04-06 00:00:00.000000,0.26690709,0.43790492,0.72837891,48,79,132,26,44,73,0.14810327,0.24372046,0.40197191,0.10574740,0.16525976,0.26525138
42093,0,USPennsylvaniaMontour,Pennsylvania,Montour,2021-01-05 11:33:24.508009,2020-04-07 00:00:00.000000,0.25714293,0.44462930,0.73605163,46,81,134,27,45,74,0.15053920,0.24906160,0.40689965,0.10298470,0.16202792,0.26490117
42093,0,USPennsylvaniaMontour,Pennsylvania,Montour,2021-01-05 11:33:24.508009,2020-04-08 00:00:00.000000,0.24712298,0.44200744,0.74121683,45,80,135,27,45,75,0.15195199,0.25009419,0.41254123,0.09612706,0.15634860,0.26127852
42093,0,USPennsylvaniaMontour,Pennsylvania,Montour,2021-01-05 11:33:24.508009,2020-04-09 00:00:00.000000,0.23862661,0.44623921,0.73107258,43,81,133,27,45,75,0.15333378,0.25143494,0.41476118,0.09104456,0.14809774,0.25110584
42093,0,USPennsylvaniaMontour,Pennsylvania,Montour,2021-01-05 11:33:24.508009,2020-04-10 00:00:00.000000,0.24038237,0.44614978,0.71588273,43,81,130,28,46,75,0.15446836,0.25455249,0.41433694,0.08462967,0.14009185,0.23322570
42093,0,USPennsylvaniaMontour,Pennsylvania,Montour,2021-01-05 11:33:24.508009,2020-04-11 00:00:00.000000,0.24141527,0.44154852,0.70053948,44,80,127,27,46,75,0.15220814,0.25607217,0.41198259,0.07876770,0.12924837,0.21547552
42093,0,USPennsylvaniaMontour,Pennsylvania,Montour,2021-01-05 11:33:24.508009,2020-04-12 00:00:00.000000,0.24059257,0.43356133,0.68591688,43,79,125,27,46,74,0.14857446,0.25281366,0.40802979,0.07559599,0.12197078,0.21316078
42093,0,USPennsylvaniaMontour,Pennsylvania,Montour,2021-01-05 11:33:24.508009,2020-04-13 00:00:00.000000,0.23181186,0.42511230,0.67016590,42,77,122,26,45,73,0.14494854,0.25152730,0.40076641,0.07121729,0.11404183,0.21247884
42093,0,USPennsylvaniaMontour,Pennsylvania,Montour,2021-01-05 11:33:24.508009,2020-04-14 00:00:00.000000,0.22331217,0.42163066,0.66071015,40,76,120,25,45,71,0.14061636,0.24848466,0.39094984,0.06844361,0.11251401,0.21190272
42093,0,USPennsylvaniaMontour,Pennsylvania,Montour,2021-01-05 11:33:24.508009,2020-04-15 00:00:00.000000,0.21762211,0.41737823,0.64884509,39,76,118,24,44,69,0.13595196,0.24536402,0.38326828,0.06466841,0.10989199,0.20475760
42093,0,USPennsylvaniaMontour,Pennsylvania,Montour,2021-01-05 11:33:24.508009,2020-04-16 00:00:00.000000,0.21783918,0.41538280,0.65770032,39,75,119,23,43,67,0.13119416,0.24047648,0.37299018,0.05838978,0.10542701,0.20258007
42093,0,USPennsylvaniaMontour,Pennsylvania,Montour,2021-01-05 11:33:24.508009,2020-04-17 00:00:00.000000,0.21463258,0.40522681,0.65204655,39,73,118,23,43,66,0.12649181,0.23716226,0.36458485,0.05462050,0.10345978,0.19712909
42093,0,USPennsylvaniaMontour,Pennsylvania,Montour,2021-01-05 11:33:24.508009,2020-04-18 00:00:00.000000,0.20503610,0.39996301,0.63815769,37,72,116,22,43,64,0.12381198,0.23610876,0.35610693,0.05334521,0.09856896,0.18451084
42093,0,USPennsylvaniaMontour,Pennsylvania,Montour,2021-01-05 11:33:24.508009,2020-04-19 00:00:00.000000,0.20509927,0.39659367,0.62446777,37,72,113,22,42,63,0.12122765,0.23311720,0.35017253,0.05280045,0.09640558,0.18466654
42093,0,USPennsylvaniaMontour,Pennsylvania,Montour,2021-01-05 11:33:24.508009,2020-04-20 00:00:00.000000,0.19962415,0.38720950,0.61013260,36,70,111,21,41,63,0.11700607,0.22808432,0.34658520,0.05257000,0.09383793,0.18504196
42093,0,USPennsylvaniaMontour,Pennsylvania,Montour,2021-01-05 11:33:24.508009,2020-04-21 00:00:00.000000,0.19362673,0.37941241,0.59624324,35,69,108,21,41,62,0.11558377,0.22620352,0.34453451,0.05148880,0.09296949,0.18538256
42093,0,USPennsylvaniaMontour,Pennsylvania,Montour,2021-01-05 11:33:24.508009,2020-04-22 00:00:00.000000,0.18681561,0.37133222,0.58279847,34,67,106,20,40,62,0.11327613,0.22179840,0.34137200,0.04750712,0.09038588,0.18579442
42093,0,USPennsylvaniaMontour,Pennsylvania,Montour,2021-01-05 11:33:24.508009,2020-04-23 00:00:00.000000,0.17985753,0.35956725,0.56984154,32,65,103,20,39,61,0.11028788,0.21655146,0.33734571,0.04708324,0.08751083,0.18632316
42093,0,USPennsylvaniaMontour,Pennsylvania,Montour,2021-01-05 11:33:24.508009,2020-04-24 00:00:00.000000,0.17300771,0.34607582,0.55739723,31,63,101,19,38,60,0.10686481,0.21278893,0.33280628,0.04694291,0.08608432,0.18379098
42093,0,USPennsylvaniaMontour,Pennsylvania,Montour,2021-01-05 11:33:24.508009,2020-04-25 00:00:00.000000,0.16632021,0.33321345,0.54545687,30,60,99,18,37,59,0.10322279,0.20606557,0.32798623,0.04673728,0.08415855,0.17308723
42093,0,USPennsylvaniaMontour,Pennsylvania,Montour,2021-01-05 11:33:24.508009,2020-04-26 00:00:00.000000,0.15983693,0.32257320,0.53394556,29,58,97,18,36,58,0.09950246,0.19995005,0.32285480,0.04759358,0.08251834,0.15878449
42093,0,USPennsylvaniaMontour,Pennsylvania,Montour,2021-01-05 11:33:24.508009,2020-04-27 00:00:00.000000,0.15638559,0.30901276,0.53129219,28,56,96,17,35,57,0.09579244,0.19363680,0.31752195,0.04708489,0.08003327,0.14427471
42093,0,USPennsylvaniaMontour,Pennsylvania,Montour,2021-01-05 11:33:24.508009,2020-04-28 00:00:00.000000,0.15319848,0.30162725,0.52842383,27,54,96,16,33,56,0.09283465,0.18636581,0.31144382,0.04633112,0.07995389,0.13985302
42093,0,USPennsylvaniaMontour,Pennsylvania,Montour,2021-01-05 11:33:24.508009,2020-04-29 00:00:00.000000,0.15030488,0.29642752,0.52472554,27,54,95,16,33,55,0.09039594,0.18247464,0.30484376,0.04607129,0.07990731,0.13746815
42093,0,USPennsylvaniaMontour,Pennsylvania,Montour,2021-01-05 11:33:24.508009,2020-04-30 00:00:00.000000,0.14753036,0.29149343,0.51880143,26,53,94,16,32,54,0.08904963,0.17989595,0.29780504,0.04532297,0.07980501,0.13179942
42093,0,USPennsylvaniaMontour,Pennsylvania,Montour,2021-01-05 11:33:24.508009,2020-05-01 00:00:00.000000,0.14444262,0.28901821,0.50688212,26,52,92,16,32,52,0.08828285,0.17708318,0.29026662,0.04602458,0.07891754,0.12748171
42093,0,USPennsylvaniaMontour,Pennsylvania,Montour,2021-01-05 11:33:24.508009,2020-05-02 00:00:00.000000,0.14166643,0.28494795,0.48863133,25,51,89,15,31,51,0.08552569,0.17175172,0.28215308,0.04559130,0.07869571,0.12242964
42093,0,USPennsylvaniaMontour,Pennsylvania,Montour,2021-01-05 11:33:24.508009,2020-05-03 00:00:00.000000,0.14009872,0.27659321,0.47038998,25,50,85,15,30,50,0.08316329,0.16765470,0.27475740,0.04360621,0.07801767,0.11889250
42093,0,USPennsylvaniaMontour,Pennsylvania,Montour,2021-01-05 11:33:24.508009,2020-05-04 00:00:00.000000,0.13519147,0.26729696,0.44958687,24,48,81,14,29,48,0.08169004,0.16376935,0.26865961,0.04243810,0.07427458,0.11643131
42093,0,USPennsylvaniaMontour,Pennsylvania,Montour,2021-01-05 11:33:24.508009,2020-05-05 00:00:00.000000,0.12770387,0.26008562,0.42937735,23,47,78,14,29,47,0.07995950,0.16073127,0.25997933,0.04208536,0.07067485,0.11368253
42093,0,USPennsylvaniaMontour,Pennsylvania,Montour,2021-01-05 11:33:24.508009,2020-05-06 00:00:00.000000,0.12089150,0.25403905,0.40977795,22,46,74,14,28,46,0.07841577,0.15772950,0.25663613,0.04150447,0.06906702,0.11050362
42093,0,USPennsylvaniaMontour,Pennsylvania,Montour,2021-01-05 11:33:24.508009,2020-05-07 00:00:00.000000,0.11518391,0.25284893,0.39218750,20,46,71,13,27,45,0.07608066,0.15155480,0.25218173,0.04118732,0.06883259,0.11526608
42093,0,USPennsylvaniaMontour,Pennsylvania,Montour,2021-01-05 11:33:24.508009,2020-05-08 00:00:00.000000,0.11206231,0.24568729,0.38896972,20,44,70,13,26,45,0.07410461,0.14743066,0.24692791,0.03565674,0.06864310,0.11150201
42093,0,USPennsylvaniaMontour,Pennsylvania,Montour,2021-01-05 11:33:24.508009,2020-05-09 00:00:00.000000,0.10888841,0.23768063,0.38549614,19,43,70,13,26,43,0.07222614,0.14730249,0.24132846,0.03127081,0.06949780,0.11161071
42093,0,USPennsylvaniaMontour,Pennsylvania,Montour,2021-01-05 11:33:24.508009,2020-05-10 00:00:00.000000,0.10582429,0.23253781,0.39230624,19,42,71,12,25,43,0.07046675,0.14250645,0.23690677,0.02951089,0.06669379,0.11180306
42093,0,USPennsylvaniaMontour,Pennsylvania,Montour,2021-01-05 11:33:24.508009,2020-05-11 00:00:00.000000,0.11542205,0.23047707,0.37825784,21,42,68,12,24,42,0.06863269,0.13625532,0.23242481,0.02892031,0.06622805,0.11680099
42093,0,USPennsylvaniaMontour,Pennsylvania,Montour,2021-01-05 11:33:24.508009,2020-05-12 00:00:00.000000,0.11389732,0.22809728,0.37123459,20,41,67,12,24,41,0.06748966,0.13314005,0.22970867,0.02859989,0.06591293,0.12181400
42093,0,USPennsylvaniaMontour,Pennsylvania,Montour,2021-01-05 11:33:24.508009,2020-05-13 00:00:00.000000,0.11259135,0.22556243,0.36650714,20,41,66,12,23,41,0.06636518,0.13152151,0.22688070,0.02858182,0.06507151,0.12454693
42093,0,USPennsylvaniaMontour,Pennsylvania,Montour,2021-01-05 11:33:24.508009,2020-05-14 00:00:00.000000,0.11145011,0.22462639,0.36196844,20,40,65,11,23,40,0.06540614,0.13122172,0.22103858,0.02902852,0.06480546,0.12255908
42093,0,USPennsylvaniaMontour,Pennsylvania,Montour,2021-01-05 11:33:24.508009,2020-05-15 00:00:00.000000,0.11105857,0.22411433,0.35753491,20,40,65,11,23,39,0.06457598,0.13065503,0.21400368,0.02973021,0.06354045,0.12314092
42093,0,USPennsylvaniaMontour,Pennsylvania,Montour,2021-01-05 11:33:24.508009,2020-05-16 00:00:00.000000,0.10994345,0.22164011,0.34712277,20,40,63,11,23,37,0.06384932,0.12944354,0.20767867,0.03011071,0.06340631,0.12631681
42093,0,USPennsylvaniaMontour,Pennsylvania,Montour,2021-01-05 11:33:24.508009,2020-05-17 00:00:00.000000,0.11200073,0.21609002,0.34344265,20,39,62,11,23,37,0.06327638,0.12952161,0.20400221,0.03023287,0.06270850,0.12750208
42093,0,USPennsylvaniaMontour,Pennsylvania,Montour,2021-01-05 11:33:24.508009,2020-05-18 00:00:00.000000,0.10884116,0.21621723,0.33153058,19,39,60,11,23,36,0.06356122,0.12907135,0.20051934,0.03026557,0.05974171,0.12786520
42093,0,USPennsylvaniaMontour,Pennsylvania,Montour,2021-01-05 11:33:24.508009,2020-05-19 00:00:00.000000,0.10696516,0.21298161,0.32437875,19,38,59,11,23,35,0.06348564,0.12772839,0.19716392,0.03028960,0.06082525,0.12783636
42093,0,USPennsylvaniaMontour,Pennsylvania,Montour,2021-01-05 11:33:24.508009,2020-05-20 00:00:00.000000,0.10553791,0.20890074,0.31571698,19,38,57,11,23,36,0.06232579,0.12805569,0.19753848,0.03035029,0.06015280,0.12193866
42093,0,USPennsylvaniaMontour,Pennsylvania,Montour,2021-01-05 11:33:24.508009,2020-05-21 00:00:00.000000,0.10571780,0.20591431,0.31253270,19,37,56,11,22,36,0.06114033,0.12501343,0.19936051,0.03051131,0.06000841,0.12288796
42093,0,USPennsylvaniaMontour,Pennsylvania,Montour,2021-01-05 11:33:24.508009,2020-05-22 00:00:00.000000,0.10137816,0.20303105,0.31518485,18,37,57,10,22,35,0.05963586,0.12247329,0.19378754,0.03080751,0.05949399,0.12356575
42093,0,USPennsylvaniaMontour,Pennsylvania,Montour,2021-01-05 11:33:24.508009,2020-05-23 00:00:00.000000,0.09450448,0.20013496,0.31880300,17,36,58,10,22,34,0.05860742,0.12114659,0.18776405,0.03014829,0.05864353,0.12400901
42093,0,USPennsylvaniaMontour,Pennsylvania,Montour,2021-01-05 11:33:24.508009,2020-05-24 00:00:00.000000,0.08824056,0.19927970,0.32944713,16,36,60,10,21,33,0.05888719,0.12009489,0.18314914,0.02864273,0.05784040,0.12138246
42093,0,USPennsylvaniaMontour,Pennsylvania,Montour,2021-01-05 11:33:24.508009,2020-05-25 00:00:00.000000,0.09276944,0.19441931,0.32237852,16,35,58,10,21,34,0.05601269,0.12051818,0.18992880,0.02835277,0.05747901,0.11867409
42093,0,USPennsylvaniaMontour,Pennsylvania,Montour,2021-01-05 11:33:24.508009,2020-05-26 00:00:00.000000,0.09802650,0.18990249,0.31478810,17,34,57,10,21,35,0.05510220,0.11919969,0.19408894,0.02825381,0.05745736,0.11748281
42093,0,USPennsylvaniaMontour,Pennsylvania,Montour,2021-01-05 11:33:24.508009,2020-05-27 00:00:00.000000,0.10402375,0.19017266,0.30870477,18,34,56,10,21,35,0.05612953,0.11658173,0.19369685,0.02823329,0.05727755,0.11736196
42093,0,USPennsylvaniaMontour,Pennsylvania,Montour,2021-01-05 11:33:24.508009,2020-05-28 00:00:00.000000,0.11028246,0.19062255,0.30478657,20,34,55,10,20,34,0.05835867,0.11398873,0.19133943,0.02814118,0.05701239,0.11786327
42093,0,USPennsylvaniaMontour,Pennsylvania,Montour,2021-01-05 11:33:24.508009,2020-05-29 00:00:00.000000,0.11040241,0.19089835,0.30676274,20,34,55,11,20,34,0.06130160,0.11124626,0.19060258,0.02803008,0.05732274,0.11854420
42093,0,USPennsylvaniaMontour,Pennsylvania,Montour,2021-01-05 11:33:24.508009,2020-05-30 00:00:00.000000,0.11453584,0.18786246,0.31084690,20,34,56,11,20,34,0.06463470,0.11062964,0.18733151,0.02791923,0.05737334,0.11500645
42093,0,USPennsylvaniaMontour,Pennsylvania,Montour,2021-01-05 11:33:24.508009,2020-05-31 00:00:00.000000,0.11872600,0.18627646,0.31353953,21,33,57,12,19,33,0.06809739,0.10738410,0.18557898,0.02825038,0.05731845,0.11481408
42093,0,USPennsylvaniaMontour,Pennsylvania,Montour,2021-01-05 11:33:24.508009,2020-06-01 00:00:00.000000,0.11586422,0.18913203,0.30648782,21,34,55,12,20,33,0.06875961,0.11042392,0.18396968,0.02948369,0.05679664,0.11381131
42093,0,USPennsylvaniaMontour,Pennsylvania,Montour,2021-01-05 11:33:24.508009,2020-06-02 00:00:00.000000,0.11267870,0.19000850,0.29906859,20,34,54,12,19,33,0.06802358,0.10858826,0.18333856,0.02880074,0.05804654,0.11262508
42093,0,USPennsylvaniaMontour,Pennsylvania,Montour,2021-01-05 11:33:24.508009,2020-06-03 00:00:00.000000,0.10911136,0.18892851,0.29694969,19,34,54,11,19,33,0.06576871,0.10865140,0.18323924,0.02842161,0.05830991,0.11212798
42093,0,USPennsylvaniaMontour,Pennsylvania,Montour,2021-01-05 11:33:24.508009,2020-06-04 00:00:00.000000,0.10548870,0.19082372,0.30298862,19,34,55,11,19,33,0.06346924,0.10929938,0.18362267,0.02837675,0.05816638,0.11127817
42093,0,USPennsylvaniaMontour,Pennsylvania,Montour,2021-01-05 11:33:24.508009,2020-06-05 00:00:00.000000,0.10207855,0.19055774,0.31497138,18,34,57,11,19,33,0.06121828,0.10783192,0.18431683,0.02841031,0.05795864,0.11268455
42093,0,USPennsylvaniaMontour,Pennsylvania,Montour,2021-01-05 11:33:24.508009,2020-06-06 00:00:00.000000,0.09888507,0.18607411,0.30891358,18,33,56,10,19,33,0.05951697,0.10543207,0.18580032,0.02839635,0.05728317,0.11515792
42093,0,USPennsylvaniaMontour,Pennsylvania,Montour,2021-01-05 11:33:24.508009,2020-06-07 00:00:00.000000,0.09741136,0.18204874,0.31141487,17,33,56,10,19,35,0.05877196,0.10831376,0.19669475,0.02836637,0.05719846,0.11628207
42093,0,USPennsylvaniaMontour,Pennsylvania,Montour,2021-01-05 11:33:24.508009,2020-06-08 00:00:00.000000,0.09604713,0.18196145,0.31235296,17,33,56,10,19,36,0.05800551,0.10863426,0.19995336,0.02834006,0.05700349,0.11181402
42093,0,USPennsylvaniaMontour,Pennsylvania,Montour,2021-01-05 11:33:24.508009,2020-06-09 00:00:00.000000,0.09725680,0.18168775,0.31216016,17,33,56,10,19,35,0.05623778,0.10508925,0.19424459,0.02835715,0.05627061,0.11192411
42093,0,USPennsylvaniaMontour,Pennsylvania,Montour,2021-01-05 11:33:24.508009,2020-06-10 00:00:00.000000,0.09875008,0.18259304,0.31076662,18,33,56,9,18,34,0.05424424,0.10256187,0.18896004,0.02838011,0.05581936,0.10984539
42093,0,USPennsylvaniaMontour,Pennsylvania,Montour,2021-01-05 11:33:24.508009,2020-06-11 00:00:00.000000,0.10036595,0.18354474,0.30676616,18,33,55,9,18,34,0.05454409,0.10220971,0.18887940,0.02836468,0.05576824,0.10356648
42093,0,USPennsylvaniaMontour,Pennsylvania,Montour,2021-01-05 11:33:24.508009,2020-06-12 00:00:00.000000,0.09840300,0.18239479,0.31150416,17,33,56,10,18,34,0.05512288,0.10242702,0.18847223,0.02738149,0.05563106,0.09782254
42093,0,USPennsylvaniaMontour,Pennsylvania,Montour,2021-01-05 11:33:24.508009,2020-06-13 00:00:00.000000,0.09648726,0.18249666,0.32250297,17,33,58,10,18,34,0.05584907,0.10261510,0.18782692,0.02760158,0.05572442,0.09752999
42093,0,USPennsylvaniaMontour,Pennsylvania,Montour,2021-01-05 11:33:24.508009,2020-06-14 00:00:00.000000,0.09471815,0.17975275,0.32962864,17,32,60,10,19,33,0.05664539,0.10478506,0.18639228,0.02706055,0.05640938,0.09744403
42093,0,USPennsylvaniaMontour,Pennsylvania,Montour,2021-01-05 11:33:24.508009,2020-06-15 00:00:00.000000,0.09839358,0.18054077,0.31102666,17,32,56,10,19,34,0.05619708,0.10463488,0.18659391,0.02722541,0.05711769,0.09739280
42093,0,USPennsylvaniaMontour,Pennsylvania,Montour,2021-01-05 11:33:24.508009,2020-06-16 00:00:00.000000,0.09814657,0.17505207,0.29939298,17,31,54,10,19,33,0.05668204,0.10451822,0.18580968,0.02871543,0.05706224,0.09832405
42093,0,USPennsylvaniaMontour,Pennsylvania,Montour,2021-01-05 11:33:24.508009,2020-06-17 00:00:00.000000,0.10047869,0.17878419,0.29787033,18,32,54,10,18,33,0.05834768,0.10209781,0.18473047,0.02870778,0.05695880,0.10068882
42093,0,USPennsylvaniaMontour,Pennsylvania,Montour,2021-01-05 11:33:24.508009,2020-06-18 00:00:00.000000,0.09868229,0.18058587,0.29666900,17,32,54,10,18,33,0.05840413,0.10328463,0.18358292,0.02855797,0.05746395,0.10374135
42093,0,USPennsylvaniaMontour,Pennsylvania,Montour,2021-01-05 11:33:24.508009,2020-06-19 00:00:00.000000,0.09756176,0.18160063,0.29571954,17,33,53,10,18,31,0.05720672,0.10299633,0.17385831,0.02850199,0.05716407,0.10582783
42093,0,USPennsylvaniaMontour,Pennsylvania,Montour,2021-01-05 11:33:24.508009,2020-06-20 00:00:00.000000,0.09741334,0.18096082,0.29497471,17,32,53,10,18,30,0.05755902,0.10417320,0.16880389,0.02907086,0.05763083,0.10940223
42093,0,USPennsylvaniaMontour,Pennsylvania,Montour,2021-01-05 11:33:24.508009,2020-06-21 00:00:00.000000,0.09164748,0.17707610,0.29463173,16,32,53,10,19,32,0.05628734,0.10546306,0.17793711,0.02993120,0.05885853,0.11207058
42093,0,USPennsylvaniaMontour,Pennsylvania,Montour,2021-01-05 11:33:24.508009,2020-06-22 00:00:00.000000,0.09598257,0.17436834,0.29469347,17,31,53,9,19,32,0.05475867,0.10512938,0.18052050,0.03064248,0.05901187,0.11502028
42093,0,USPennsylvaniaMontour,Pennsylvania,Montour,2021-01-05 11:33:24.508009,2020-06-23 00:00:00.000000,0.09587538,0.17732501,0.29308371,17,32,53,9,19,31,0.05316129,0.10594765,0.17369624,0.03057300,0.05920182,0.10844435
42093,0,USPennsylvaniaMontour,Pennsylvania,Montour,2021-01-05 11:33:24.508009,2020-06-24 00:00:00.000000,0.09401549,0.17543113,0.29162333,17,31,53,10,19,31,0.05507263,0.10577810,0.17362079,0.03045849,0.05931798,0.10816918
42093,0,USPennsylvaniaMontour,Pennsylvania,Montour,2021-01-05 11:33:24.508009,2020-06-25 00:00:00.000000,0.09400307,0.17149956,0.30344388,17,31,55,9,19,31,0.05470545,0.10491140,0.17370173,0.03020462,0.06009593,0.10821074
42093,0,USPennsylvaniaMontour,Pennsylvania,Montour,2021-01-05 11:33:24.508009,2020-06-26 00:00:00.000000,0.09307794,0.16896550,0.31054044,16,30,56,9,19,31,0.05459091,0.10676905,0.17346931,0.02978570,0.06057222,0.10935658
42093,0,USPennsylvaniaMontour,Pennsylvania,Montour,2021-01-05 11:33:24.508009,2020-06-27 00:00:00.000000,0.09204717,0.16707371,0.32470248,16,30,59,9,18,33,0.05364085,0.10332011,0.18514792,0.03028116,0.05987622,0.10846732
42093,0,USPennsylvaniaMontour,Pennsylvania,Montour,2021-01-05 11:33:24.508009,2020-06-28 00:00:00.000000,0.09116332,0.16816356,0.33823883,16,30,61,9,18,34,0.05271856,0.10232444,0.18960400,0.03138027,0.06166128,0.10862421
42093,0,USPennsylvaniaMontour,Pennsylvania,Montour,2021-01-05 11:33:24.508009,2020-06-29 00:00:00.000000,0.09218959,0.16715953,0.33550565,16,30,61,9,18,36,0.05198888,0.10135210,0.19802051,0.03196392,0.06160806,0.10870816
42093,0,USPennsylvaniaMontour,Pennsylvania,Montour,2021-01-05 11:33:24.508009,2020-06-30 00:00:00.000000,0.09140582,0.16647926,0.33264581,16,30,60,9,18,36,0.05133826,0.09983145,0.20104726,0.03089030,0.06151175,0.10880799
42093,0,USPennsylvaniaMontour,Pennsylvania,Montour,2021-01-05 11:33:24.508009,2020-07-01 00:00:00.000000,0.08932853,0.16479127,0.32926645,16,30,60,9,18,36,0.05091209,0.09887637,0.20049259,0.03033740,0.06120772,0.10910967
42093,0,USPennsylvaniaMontour,Pennsylvania,Montour,2021-01-05 11:33:24.508009,2020-07-02 00:00:00.000000,0.08772510,0.16394145,0.32534471,15,29,59,9,17,36,0.05051415,0.09805288,0.19761471,0.03008357,0.06097121,0.11007365
42093,0,USPennsylvaniaMontour,Pennsylvania,Montour,2021-01-05 11:33:24.508009,2020-07-03 00:00:00.000000,0.08767618,0.16352464,0.31450418,15,29,57,9,17,35,0.05036908,0.09653969,0.19329315,0.02930845,0.06111401,0.11211580
42093,0,USPennsylvaniaMontour,Pennsylvania,Montour,2021-01-05 11:33:24.508009,2020-07-04 00:00:00.000000,0.08770249,0.16402731,0.30209256,15,29,55,9,17,34,0.05021441,0.09615416,0.18814503,0.02899484,0.06167194,0.11327580
42093,0,USPennsylvaniaMontour,Pennsylvania,Montour,2021-01-05 11:33:24.508009,2020-07-05 00:00:00.000000,0.08777701,0.16280640,0.29752677,16,29,54,9,17,33,0.05012342,0.09652109,0.18260288,0.02890829,0.06209025,0.11459967
42093,0,USPennsylvaniaMontour,Pennsylvania,Montour,2021-01-05 11:33:24.508009,2020-07-06 00:00:00.000000,0.09087120,0.16376943,0.29074931,16,29,53,9,17,32,0.05008271,0.09650502,0.17685382,0.02853947,0.06273513,0.11179129
42093,0,USPennsylvaniaMontour,Pennsylvania,Montour,2021-01-05 11:33:24.508009,2020-07-07 00:00:00.000000,0.09384407,0.16303282,0.27712728,17,29,50,9,17,31,0.05069951,0.09692928,0.17169165,0.02892412,0.06220804,0.11575975
42093,0,USPennsylvaniaMontour,Pennsylvania,Montour,2021-01-05 11:33:24.508009,2020-07-08 00:00:00.000000,0.09671985,0.16080190,0.27845981,17,29,50,9,17,30,0.05057984,0.09599493,0.16968769,0.02900802,0.06184510,0.11567399
42093,0,USPennsylvaniaMontour,Pennsylvania,Montour,2021-01-05 11:33:24.508009,2020-07-09 00:00:00.000000,0.09958278,0.16006811,0.28024510,18,29,51,9,17,30,0.05181618,0.09548169,0.16750708,0.02892449,0.06099146,0.11380401
42093,0,USPennsylvaniaMontour,Pennsylvania,Montour,2021-01-05 11:33:24.508009,2020-07-10 00:00:00.000000,0.09997295,0.15893601,0.28062003,18,28,51,9,17,30,0.05207526,0.09443174,0.16540022,0.02918239,0.06037681,0.11265563
42093,0,USPennsylvaniaMontour,Pennsylvania,Montour,2021-01-05 11:33:24.508009,2020-07-11 00:00:00.000000,0.09695482,0.16170377,0.28235557,17,29,51,9,17,30,0.05247629,0.09576257,0.16633071,0.02945007,0.06020488,0.10938773
42093,0,USPennsylvaniaMontour,Pennsylvania,Montour,2021-01-05 11:33:24.508009,2020-07-12 00:00:00.000000,0.09352107,0.16207227,0.28412897,17,29,51,9,17,30,0.05295514,0.09619234,0.16700679,0.02959315,0.05980509,0.10713576
42093,0,USPennsylvaniaMontour,Pennsylvania,Montour,2021-01-05 11:33:24.508009,2020-07-13 00:00:00.000000,0.09968664,0.16054480,0.28383233,18,29,51,9,17,30,0.05348255,0.09423999,0.16782032,0.02958989,0.05991931,0.11124585
42093,0,USPennsylvaniaMontour,Pennsylvania,Montour,2021-01-05 11:33:24.508009,2020-07-14 00:00:00.000000,0.09848211,0.15944402,0.27935088,17,29,50,9,17,30,0.05404086,0.09397547,0.16895462,0.02938400,0.06174218,0.11455465
42093,0,USPennsylvaniaMontour,Pennsylvania,Montour,2021-01-05 11:33:24.508009,2020-07-15 00:00:00.000000,0.09573807,0.16012260,0.27743488,17,29,50,9,17,31,0.05442599,0.09335909,0.17027586,0.02878227,0.06267929,0.11596461
42093,0,USPennsylvaniaMontour,Pennsylvania,Montour,2021-01-05 11:33:24.508009,2020-07-16 00:00:00.000000,0.09686406,0.15958767,0.28092712,17,29,51,9,16,31,0.05475103,0.09213057,0.17066648,0.02746556,0.06167190,0.11782687
42093,0,USPennsylvaniaMontour,Pennsylvania,Montour,2021-01-05 11:33:24.508009,2020-07-17 00:00:00.000000,0.09866143,0.15792768,0.27435196,17,28,50,10,16,30,0.05524986,0.09150283,0.16997999,0.02625666,0.06475947,0.11748593
42093,0,USPennsylvaniaMontour,Pennsylvania,Montour,2021-01-05 11:33:24.508009,2020-07-18 00:00:00.000000,0.09733952,0.15914544,0.27891415,17,29,50,10,16,30,0.05534315,0.09176909,0.16859364,0.02618231,0.06373064,0.12296599
42093,0,USPennsylvaniaMontour,Pennsylvania,Montour,2021-01-05 11:33:24.508009,2020-07-19 00:00:00.000000,0.09329635,0.15951065,0.30213985,17,29,55,9,16,30,0.05482609,0.08967789,0.16514185,0.02572913,0.06413646,0.11615380
42093,0,USPennsylvaniaMontour,Pennsylvania,Montour,2021-01-05 11:33:24.508009,2020-07-20 00:00:00.000000,0.09598678,0.15931608,0.29885138,17,29,54,9,16,31,0.05481463,0.08887479,0.17208821,0.02534957,0.06462604,0.11507004
42093,0,USPennsylvaniaMontour,Pennsylvania,Montour,2021-01-05 11:33:24.508009,2020-07-21 00:00:00.000000,0.09841698,0.16019995,0.30519458,17,29,55,10,16,32,0.05641837,0.08856004,0.18011531,0.02511479,0.06600982,0.11556283
42093,0,USPennsylvaniaMontour,Pennsylvania,Montour,2021-01-05 11:33:24.508009,2020-07-22 00:00:00.000000,0.10144144,0.16094887,0.31472349,18,29,57,10,16,33,0.05754906,0.08869019,0.18364193,0.02499353,0.06716149,0.11765449
42093,0,USPennsylvaniaMontour,Pennsylvania,Montour,2021-01-05 11:33:24.508009,2020-07-23 00:00:00.000000,0.10116174,0.16277979,0.31375751,18,29,57,10,16,33,0.05765610,0.08996201,0.18421695,0.02485378,0.06945933,0.12410158
42093,0,USPennsylvaniaMontour,Pennsylvania,Montour,2021-01-05 11:33:24.508009,2020-07-24 00:00:00.000000,0.10461007,0.16304208,0.30718149,19,29,55,10,16,33,0.05915195,0.09100625,0.18585737,0.02451496,0.07175994,0.13259821
42093,0,USPennsylvaniaMontour,Pennsylvania,Montour,2021-01-05 11:33:24.508009,2020-07-25 00:00:00.000000,0.10762863,0.16495352,0.31144511,19,30,56,10,16,33,0.05848021,0.09227839,0.18620161,0.02417365,0.07198269,0.13360669
42093,0,USPennsylvaniaMontour,Pennsylvania,Montour,2021-01-05 11:33:24.508009,2020-07-26 00:00:00.000000,0.10301064,0.16315929,0.31022972,18,29,56,10,17,33,0.06021128,0.09479190,0.18605119,0.02451351,0.07291285,0.13453597
42093,0,USPennsylvaniaMontour,Pennsylvania,Montour,2021-01-05 11:33:24.508009,2020-07-27 00:00:00.000000,0.10204945,0.16683951,0.31543387,18,30,57,10,17,33,0.05724642,0.09658731,0.18218489,0.02550260,0.07296461,0.13563022
42093,0,USPennsylvaniaMontour,Pennsylvania,Montour,2021-01-05 11:33:24.508009,2020-07-28 00:00:00.000000,0.10385772,0.17061583,0.31417978,18,31,57,10,17,32,0.05734085,0.09766262,0.17602198,0.02677878,0.07226601,0.13607413
42093,0,USPennsylvaniaMontour,Pennsylvania,Montour,2021-01-05 11:33:24.508009,2020-07-29 00:00:00.000000,0.11101266,0.17000312,0.31626001,20,30,57,10,18,33,0.05805883,0.09976149,0.18286567,0.02805715,0.07331689,0.13626091
42093,0,USPennsylvaniaMontour,Pennsylvania,Montour,2021-01-05 11:33:24.508009,2020-07-30 00:00:00.000000,0.11128381,0.17275120,0.31809845,20,31,57,10,18,34,0.05884222,0.09937602,0.18686115,0.02911907,0.07420926,0.13660441
42093,0,USPennsylvaniaMontour,Pennsylvania,Montour,2021-01-05 11:33:24.508009,2020-07-31 00:00:00.000000,0.11126386,0.17301422,0.32012314,20,31,58,10,18,34,0.05975007,0.10059217,0.18784885,0.02854308,0.07520092,0.13752344
42093,0,USPennsylvaniaMontour,Pennsylvania,Montour,2021-01-05 11:33:24.508009,2020-08-01 00:00:00.000000,0.11135698,0.17612245,0.32001826,20,32,58,11,18,34,0.06072136,0.10071339,0.18872657,0.02990246,0.07698422,0.13964011
42093,0,USPennsylvaniaMontour,Pennsylvania,Montour,2021-01-05 11:33:24.508009,2020-08-02 00:00:00.000000,0.11258617,0.17688111,0.33694395,20,32,61,11,18,34,0.06172306,0.09929913,0.18969769,0.03095303,0.07668129,0.14268255
42093,0,USPennsylvaniaMontour,Pennsylvania,Montour,2021-01-05 11:33:24.508009,2020-08-03 00:00:00.000000,0.11201496,0.17832899,0.33709118,20,32,61,11,18,34,0.06276703,0.10030859,0.18970298,0.03162219,0.07613276,0.14221980
42093,0,USPennsylvaniaMontour,Pennsylvania,Montour,2021-01-05 11:33:24.508009,2020-08-04 00:00:00.000000,0.11081511,0.17792121,0.34630243,20,32,63,11,18,33,0.06189912,0.10194468,0.18541606,0.03200874,0.07675871,0.13274445
42093,0,USPennsylvaniaMontour,Pennsylvania,Montour,2021-01-05 11:33:24.508009,2020-08-05 00:00:00.000000,0.10907849,0.17866371,0.34542001,19,32,62,11,18,33,0.06229492,0.10326509,0.18237926,0.03223264,0.07836693,0.13280967
42093,0,USPennsylvaniaMontour,Pennsylvania,Montour,2021-01-05 11:33:24.508009,2020-08-06 00:00:00.000000,0.10531876,0.17788055,0.34336519,19,32,62,10,18,33,0.05994858,0.10390120,0.18551613,0.03239331,0.07957126,0.13213052
42093,0,USPennsylvaniaMontour,Pennsylvania,Montour,2021-01-05 11:33:24.508009,2020-08-07 00:00:00.000000,0.10161172,0.18146955,0.34019445,18,33,62,10,18,34,0.05856677,0.10325028,0.18690124,0.03258301,0.08260292,0.12986969
42093,0,USPennsylvaniaMontour,Pennsylvania,Montour,2021-01-05 11:33:24.508009,2020-08-08 00:00:00.000000,0.09807734,0.18335522,0.34145556,17,33,62,10,19,34,0.05816266,0.10473082,0.18711530,0.03285787,0.08322953,0.13001074
42093,0,USPennsylvaniaMontour,Pennsylvania,Montour,2021-01-05 11:33:24.508009,2020-08-09 00:00:00.000000,0.09474812,0.18307447,0.34183386,17,33,62,10,18,33,0.05598738,0.10395783,0.18631152,0.03314872,0.08437619,0.13343329
42093,0,USPennsylvaniaMontour,Pennsylvania,Montour,2021-01-05 11:33:24.508009,2020-08-10 00:00:00.000000,0.09591875,0.18233172,0.34297713,17,33,62,9,19,34,0.05400198,0.10582485,0.19104958,0.03343530,0.08490588,0.13556018
42093,0,USPennsylvaniaMontour,Pennsylvania,Montour,2021-01-05 11:33:24.508009,2020-08-11 00:00:00.000000,0.09627994,0.18550974,0.35316036,17,33,64,9,19,36,0.05362740,0.10619300,0.19961940,0.03404227,0.08575705,0.13625995
42093,0,USPennsylvaniaMontour,Pennsylvania,Montour,2021-01-05 11:33:24.508009,2020-08-12 00:00:00.000000,0.09431299,0.18862373,0.37782957,17,34,68,9,19,36,0.05426481,0.10490081,0.19776633,0.03464630,0.08585802,0.13646037
42093,0,USPennsylvaniaMontour,Pennsylvania,Montour,2021-01-05 11:33:24.508009,2020-08-13 00:00:00.000000,0.09078873,0.19103575,0.39269311,16,34,71,10,18,35,0.05517237,0.10421422,0.19654339,0.03522544,0.08577463,0.13680757
42093,0,USPennsylvaniaMontour,Pennsylvania,Montour,2021-01-05 11:33:24.508009,2020-08-14 00:00:00.000000,0.08817943,0.19264270,0.39082332,16,35,71,9,19,35,0.05370505,0.10452258,0.19719652,0.03580333,0.08578357,0.14020627
42093,0,USPennsylvaniaMontour,Pennsylvania,Montour,2021-01-05 11:33:24.508009,2020-08-15 00:00:00.000000,0.08572279,0.19440911,0.40280216,15,35,73,9,19,36,0.05226361,0.10491620,0.20072288,0.03642133,0.08534617,0.15834965
42093,0,USPennsylvaniaMontour,Pennsylvania,Montour,2021-01-05 11:33:24.508009,2020-08-16 00:00:00.000000,0.08340954,0.19388316,0.41448937,15,35,75,9,19,38,0.05134055,0.10568212,0.21258197,0.03744703,0.08559953,0.15836321
42093,0,USPennsylvaniaMontour,Pennsylvania,Montour,2021-01-05 11:33:24.508009,2020-08-17 00:00:00.000000,0.09035014,0.21117512,0.41107075,16,38,74,9,19,41,0.05140501,0.10632571,0.22615908,0.03751217,0.08676946,0.16023772
42093,0,USPennsylvaniaMontour,Pennsylvania,Montour,2021-01-05 11:33:24.508009,2020-08-18 00:00:00.000000,0.09744519,0.20679170,0.40397979,17,37,73,9,19,41,0.05053671,0.10791006,0.22861115,0.03967379,0.08768053,0.16725359
42093,0,USPennsylvaniaMontour,Pennsylvania,Montour,2021-01-05 11:33:24.508009,2020-08-19 00:00:00.000000,0.10480258,0.21173781,0.39665522,19,38,72,9,20,41,0.05228335,0.11268557,0.22581212,0.04120162,0.08774496,0.16973608
42093,0,USPennsylvaniaMontour,Pennsylvania,Montour,2021-01-05 11:33:24.508009,2020-08-20 00:00:00.000000,0.11222210,0.21191041,0.38966325,20,38,71,10,20,41,0.05520450,0.11390965,0.22550622,0.04122619,0.08805080,0.17392100
42093,0,USPennsylvaniaMontour,Pennsylvania,Montour,2021-01-05 11:33:24.508009,2020-08-21 00:00:00.000000,0.11959665,0.20719834,0.42231682,21,37,76,10,21,41,0.05867905,0.11554872,0.22499405,0.04166899,0.09167679,0.18573092
42093,0,USPennsylvaniaMontour,Pennsylvania,Montour,2021-01-05 11:33:24.508009,2020-08-22 00:00:00.000000,0.12687332,0.20538319,0.45407340,23,37,82,11,22,40,0.06244266,0.12268121,0.22202740,0.04279383,0.09432467,0.18857168
42093,0,USPennsylvaniaMontour,Pennsylvania,Montour,2021-01-05 11:33:24.508009,2020-08-23 00:00:00.000000,0.12884124,0.20648031,0.48056185,23,37,87,12,22,41,0.06635226,0.12468194,0.22494826,0.04316296,0.09683183,0.19583237
42093,0,USPennsylvaniaMontour,Pennsylvania,Montour,2021-01-05 11:33:24.508009,2020-08-24 00:00:00.000000,0.12674816,0.21310744,0.47924006,23,38,87,12,22,43,0.07031532,0.12114539,0.23702392,0.04490940,0.09858687,0.19863468
42093,0,USPennsylvaniaMontour,Pennsylvania,Montour,2021-01-05 11:33:24.508009,2020-08-25 00:00:00.000000,0.12636012,0.21808832,0.47775017,23,39,87,12,22,45,0.07101839,0.12129740,0.25032767,0.04564805,0.10183369,0.19655056
42093,0,USPennsylvaniaMontour,Pennsylvania,Montour,2021-01-05 11:33:24.508009,2020-08-26 00:00:00.000000,0.12231421,0.22259617,0.47601129,22,40,86,12,22,45,0.07108007,0.12219901,0.25033465,0.04572996,0.10605322,0.19086824
42093,0,USPennsylvaniaMontour,Pennsylvania,Montour,2021-01-05 11:33:24.508009,2020-08-27 00:00:00.000000,0.11985619,0.21899640,0.47382245,21,39,86,13,22,45,0.07277000,0.12587708,0.25005120,0.04586771,0.10444977,0.19795978
42093,0,USPennsylvaniaMontour,Pennsylvania,Montour,2021-01-05 11:33:24.508009,2020-08-28 00:00:00.000000,0.11716657,0.21785358,0.47443240,21,39,86,13,22,46,0.07341570,0.12612670,0.25243198,0.04644587,0.10711815,0.20758727
42093,0,USPennsylvaniaMontour,Pennsylvania,Montour,2021-01-05 11:33:24.508009,2020-08-29 00:00:00.000000,0.11566032,0.22149420,0.46766722,21,40,85,13,23,46,0.07294415,0.12621000,0.25550967,0.04644267,0.10866931,0.21119483
42093,0,USPennsylvaniaMontour,Pennsylvania,Montour,2021-01-05 11:33:24.508009,2020-08-30 00:00:00.000000,0.11898676,0.22269054,0.46391600,21,40,84,13,23,47,0.07318819,0.12694018,0.25814347,0.04785344,0.10948982,0.21191882
42093,0,USPennsylvaniaMontour,Pennsylvania,Montour,2021-01-05 11:33:24.508009,2020-08-31 00:00:00.000000,0.12107639,0.22678475,0.46441182,22,41,84,13,23,47,0.07154878,0.12660656,0.26113814,0.05079535,0.11128393,0.22237413
42093,0,USPennsylvaniaMontour,Pennsylvania,Montour,2021-01-05 11:33:24.508009,2020-09-01 00:00:00.000000,0.12047363,0.23462682,0.46622997,21,42,84,13,23,47,0.07154797,0.12767478,0.26188744,0.05254915,0.11413430,0.22503483
42093,0,USPennsylvaniaMontour,Pennsylvania,Montour,2021-01-05 11:33:24.508009,2020-09-02 00:00:00.000000,0.11953882,0.23669516,0.46599799,21,43,84,13,23,47,0.07168254,0.13061446,0.25906651,0.05371468,0.11599064,0.22045090
42093,0,USPennsylvaniaMontour,Pennsylvania,Montour,2021-01-05 11:33:24.508009,2020-09-03 00:00:00.000000,0.12161153,0.23636921,0.46708717,22,43,85,13,24,48,0.07239581,0.13363098,0.26378739,0.05554072,0.11802425,0.20540888
42093,0,USPennsylvaniaMontour,Pennsylvania,Montour,2021-01-05 11:33:24.508009,2020-09-04 00:00:00.000000,0.12543220,0.24677083,0.46820593,22,44,85,13,24,48,0.07362218,0.13512503,0.26808634,0.05688963,0.12037079,0.19823328
42093,0,USPennsylvaniaMontour,Pennsylvania,Montour,2021-01-05 11:33:24.508009,2020-09-05 00:00:00.000000,0.12932016,0.25359755,0.46928467,23,46,85,13,25,49,0.07481001,0.13779877,0.27205729,0.05724855,0.12088305,0.20146819
42093,0,USPennsylvaniaMontour,Pennsylvania,Montour,2021-01-05 11:33:24.508009,2020-09-06 00:00:00.000000,0.13262200,0.25496225,0.46997890,24,46,85,13,25,50,0.07598254,0.13957465,0.27505459,0.05760929,0.12284142,0.20488689
42093,0,USPennsylvaniaMontour,Pennsylvania,Montour,2021-01-05 11:33:24.508009,2020-09-07 00:00:00.000000,0.14023642,0.25651562,0.46644783,25,46,85,14,26,50,0.07714870,0.14315212,0.27763165,0.05791653,0.12597779,0.20628556
42093,0,USPennsylvaniaMontour,Pennsylvania,Montour,2021-01-05 11:33:24.508009,2020-09-08 00:00:00.000000,0.14679943,0.26365446,0.46461179,26,48,84,14,26,50,0.08001753,0.14536110,0.27939171,0.05817223,0.12859126,0.20836653
42093,0,USPennsylvaniaMontour,Pennsylvania,Montour,2021-01-05 11:33:24.508009,2020-09-09 00:00:00.000000,0.14524302,0.26655266,0.45869663,26,48,83,15,26,50,0.08398120,0.14524060,0.27649361,0.05841974,0.13181655,0.21354714
42093,0,USPennsylvaniaMontour,Pennsylvania,Montour,2021-01-05 11:33:24.508009,2020-09-10 00:00:00.000000,0.14390537,0.28196155,0.46305814,26,51,84,15,26,49,0.08404893,0.14460019,0.26996912,0.05873197,0.13568821,0.22018377
42093,0,USPennsylvaniaMontour,Pennsylvania,Montour,2021-01-05 11:33:24.508009,2020-09-11 00:00:00.000000,0.14591931,0.28696160,0.46276208,26,52,84,15,26,48,0.08304514,0.14611732,0.26823158,0.05923279,0.13838658,0.22336649
42093,0,USPennsylvaniaMontour,Pennsylvania,Montour,2021-01-05 11:33:24.508009,2020-09-12 00:00:00.000000,0.15010327,0.28857676,0.47730600,27,52,87,14,27,48,0.08220491,0.14971859,0.26665717,0.06190396,0.14191915,0.22313045
42093,0,USPennsylvaniaMontour,Pennsylvania,Montour,2021-01-05 11:33:24.508009,2020-09-13 00:00:00.000000,0.14936713,0.28694436,0.49711948,27,52,90,14,27,50,0.08169065,0.15260519,0.27793380,0.06338437,0.14267687,0.22414620
42093,0,USPennsylvaniaMontour,Pennsylvania,Montour,2021-01-05 11:33:24.508009,2020-09-14 00:00:00.000000,0.16705134,0.29604071,0.52357431,30,53,95,15,28,53,0.08377291,0.15862565,0.29184570,0.06377917,0.14634312,0.22961650
42093,0,USPennsylvaniaMontour,Pennsylvania,Montour,2021-01-05 11:33:24.508009,2020-09-15 00:00:00.000000,0.17594180,0.30292303,0.55035948,32,55,100,15,29,55,0.08623698,0.16182334,0.30533159,0.06561564,0.15121652,0.23272212
42093,0,USPennsylvaniaMontour,Pennsylvania,Montour,2021-01-05 11:33:24.508009,2020-09-16 00:00:00.000000,0.18070288,0.31967673,0.57738271,32,58,105,17,30,56,0.09447791,0.16757229,0.31234212,0.06797773,0.15117122,0.23289829
42093,0,USPennsylvaniaMontour,Pennsylvania,Montour,2021-01-05 11:33:24.508009,2020-09-17 00:00:00.000000,0.17869830,0.32637332,0.60317189,32,59,109,18,31,57,0.09965921,0.17159435,0.31511667,0.06996121,0.15151274,0.23175929
42093,0,USPennsylvaniaMontour,Pennsylvania,Montour,2021-01-05 11:33:24.508009,2020-09-18 00:00:00.000000,0.17567761,0.33061553,0.62852897,32,60,114,18,31,62,0.10250677,0.17516183,0.34102565,0.07146953,0.15265832,0.23707720
42093,0,USPennsylvaniaMontour,Pennsylvania,Montour,2021-01-05 11:33:24.508009,2020-09-19 00:00:00.000000,0.17291149,0.33707424,0.65499948,31,61,119,19,32,64,0.10830538,0.17810627,0.35560510,0.07294157,0.15662663,0.24224925
42093,0,USPennsylvaniaMontour,Pennsylvania,Montour,2021-01-05 11:33:24.508009,2020-09-20 00:00:00.000000,0.17003359,0.34380935,0.70381268,30,62,128,19,33,67,0.10777474,0.18150545,0.36783041,0.07978356,0.16190448,0.24402326
42093,0,USPennsylvaniaMontour,Pennsylvania,Montour,2021-01-05 11:33:24.508009,2020-09-21 00:00:00.000000,0.20115408,0.37121733,0.71732121,36,67,130,19,34,69,0.10743958,0.18781211,0.37950241,0.08890078,0.16321741,0.24670920
42093,0,USPennsylvaniaMontour,Pennsylvania,Montour,2021-01-05 11:33:24.508009,2020-09-22 00:00:00.000000,0.22717629,0.38421632,0.73079958,41,70,133,20,35,71,0.11255080,0.19595886,0.38963722,0.09272965,0.16589225,0.25728855
42093,0,USPennsylvaniaMontour,Pennsylvania,Montour,2021-01-05 11:33:24.508009,2020-09-23 00:00:00.000000,0.24216655,0.41099551,0.74406602,44,74,135,22,38,72,0.12400781,0.20867795,0.39876657,0.09339048,0.16803376,0.27665102
42093,0,USPennsylvaniaMontour,Pennsylvania,Montour,2021-01-05 11:33:24.508009,2020-09-24 00:00:00.000000,0.25714150,0.43300388,0.75714590,46,78,138,24,38,74,0.13342815,0.21391247,0.40722884,0.09308987,0.17006830,0.28699571
42093,0,USPennsylvaniaMontour,Pennsylvania,Montour,2021-01-05 11:33:24.508009,2020-09-25 00:00:00.000000,0.26885642,0.45929588,0.77002936,49,83,140,25,40,76,0.14211770,0.22242495,0.41946888,0.09195872,0.17286466,0.29020838
42093,0,USPennsylvaniaMontour,Pennsylvania,Montour,2021-01-05 11:33:24.508009,2020-09-26 00:00:00.000000,0.28047449,0.48096749,0.78266467,51,87,142,26,43,79,0.14380426,0.24034323,0.43382977,0.09103093,0.17423194,0.28928215
42093,0,USPennsylvaniaMontour,Pennsylvania,Montour,2021-01-05 11:33:24.508009,2020-09-27 00:00:00.000000,0.29121270,0.51058395,0.79493635,53,93,144,27,45,81,0.14977148,0.25130532,0.44734237,0.09084623,0.18237686,0.28373995
42093,0,USPennsylvaniaMontour,Pennsylvania,Montour,2021-01-05 11:33:24.508009,2020-09-28 00:00:00.000000,0.29685680,0.52277297,0.81189103,54,95,148,28,48,83,0.15790533,0.26499843,0.45990164,0.08986534,0.18383483,0.27422184
42093,0,USPennsylvaniaMontour,Pennsylvania,Montour,2021-01-05 11:33:24.508009,2020-09-29 00:00:00.000000,0.30193881,0.52728049,0.83088731,55,96,151,30,50,85,0.16596797,0.27810002,0.47054996,0.08984599,0.18451797,0.27050101
42093,0,USPennsylvaniaMontour,Pennsylvania,Montour,2021-01-05 11:33:24.508009,2020-09-30 00:00:00.000000,0.31066438,0.54439573,0.85049573,56,99,155,30,52,87,0.16626113,0.28696370,0.47944143,0.09189426,0.18779433,0.27138275
42093,0,USPennsylvaniaMontour,Pennsylvania,Montour,2021-01-05 11:33:24.508009,2020-10-01 00:00:00.000000,0.31937228,0.56101168,0.86998470,58,102,158,30,54,88,0.16669614,0.29678431,0.48692859,0.10031160,0.18892252,0.27225914
42093,0,USPennsylvaniaMontour,Pennsylvania,Montour,2021-01-05 11:33:24.508009,2020-10-02 00:00:00.000000,0.32672734,0.56031578,0.88013467,59,102,160,31,55,89,0.17237268,0.30309382,0.49308113,0.11537383,0.18951964,0.27299465
42093,0,USPennsylvaniaMontour,Pennsylvania,Montour,2021-01-05 11:33:24.508009,2020-10-03 00:00:00.000000,0.33421232,0.56177457,0.89752097,60,102,163,32,56,90,0.17933141,0.30936005,0.49829271,0.12366871,0.19014627,0.27319164
42093,0,USPennsylvaniaMontour,Pennsylvania,Montour,2021-01-05 11:33:24.508009,2020-10-04 00:00:00.000000,0.34164182,0.56963336,0.91311558,62,103,166,34,56,91,0.18686749,0.31248232,0.50291179,0.12457518,0.18885447,0.27240464
42093,0,USPennsylvaniaMontour,Pennsylvania,Montour,2021-01-05 11:33:24.508009,2020-10-05 00:00:00.000000,0.35833402,0.57999592,0.90805105,65,105,165,35,58,92,0.19501124,0.32093071,0.50714350,0.12486499,0.18889351,0.27138974
42093,0,USPennsylvaniaMontour,Pennsylvania,Montour,2021-01-05 11:33:24.508009,2020-10-06 00:00:00.000000,0.36571326,0.59034503,0.92262719,66,107,168,36,58,92,0.20219979,0.32287752,0.50752861,0.12517665,0.18936713,0.26804991
42093,0,USPennsylvaniaMontour,Pennsylvania,Montour,2021-01-05 11:33:24.508009,2020-10-07 00:00:00.000000,0.37236592,0.59539455,0.94719195,67,108,172,38,60,93,0.20886282,0.33437235,0.51090619,0.12583244,0.18960997,0.26566014
42093,0,USPennsylvaniaMontour,Pennsylvania,Montour,2021-01-05 11:33:24.508009,2020-10-08 00:00:00.000000,0.37856852,0.60607892,0.97580494,69,110,177,39,61,97,0.21433349,0.33535325,0.53265573,0.12737904,0.18770535,0.26308074
42093,0,USPennsylvaniaMontour,Pennsylvania,Montour,2021-01-05 11:33:24.508009,2020-10-09 00:00:00.000000,0.38496976,0.61626705,1.00144256,70,112,182,39,61,100,0.21817890,0.33488419,0.54885663,0.12817455,0.18958410,0.26025172
42093,0,USPennsylvaniaMontour,Pennsylvania,Montour,2021-01-05 11:33:24.508009,2020-10-10 00:00:00.000000,0.38587905,0.61962189,1.01700228,70,112,185,39,62,102,0.21779602,0.34105245,0.56295203,0.12897230,0.19059621,0.26968734
42093,0,USPennsylvaniaMontour,Pennsylvania,Montour,2021-01-05 11:33:24.508009,2020-10-11 00:00:00.000000,0.39380068,0.62171747,1.03227168,71,113,188,39,63,105,0.21615675,0.34696701,0.57647768,0.12849247,0.19558558,0.28838349
42093,0,USPennsylvaniaMontour,Pennsylvania,Montour,2021-01-05 11:33:24.508009,2020-10-12 00:00:00.000000,0.39778670,0.63976039,1.04266791,72,116,190,40,64,106,0.22305051,0.35434309,0.58633207,0.12914224,0.20590862,0.29799276
42093,0,USPennsylvaniaMontour,Pennsylvania,Montour,2021-01-05 11:33:24.508009,2020-10-13 00:00:00.000000,0.40132882,0.65241016,1.03503248,73,118,188,41,65,106,0.23029432,0.35883784,0.58394128,0.13200724,0.20861072,0.30141881
42093,0,USPennsylvaniaMontour,Pennsylvania,Montour,2021-01-05 11:33:24.508009,2020-10-14 00:00:00.000000,0.40467523,0.65030492,1.02902925,73,118,187,42,66,106,0.23167145,0.36391053,0.58185933,0.13305850,0.20968195,0.29919815
42093,0,USPennsylvaniaMontour,Pennsylvania,Montour,2021-01-05 11:33:24.508009,2020-10-15 00:00:00.000000,0.40790288,0.66061660,1.04388895,74,120,190,42,67,105,0.23129282,0.36900193,0.57973459,0.13320478,0.21243862,0.30136317
42093,0,USPennsylvaniaMontour,Pennsylvania,Montour,2021-01-05 11:33:24.508009,2020-10-16 00:00:00.000000,0.41111432,0.67386532,1.05842519,74,122,192,42,68,107,0.23055852,0.37496822,0.59087120,0.13350561,0.21578866,0.31896417
42093,0,USPennsylvaniaMontour,Pennsylvania,Montour,2021-01-05 11:33:24.508009,2020-10-17 00:00:00.000000,0.41483048,0.67729577,1.07700406,75,123,196,42,68,110,0.23129887,0.37834601,0.60447647,0.13402311,0.21660961,0.33882752
42093,0,USPennsylvaniaMontour,Pennsylvania,Montour,2021-01-05 11:33:24.508009,2020-10-18 00:00:00.000000,0.41905357,0.70238373,1.12849430,76,128,205,43,69,110,0.23631217,0.38213618,0.60480613,0.13486788,0.21920818,0.34084798
42093,0,USPennsylvaniaMontour,Pennsylvania,Montour,2021-01-05 11:33:24.508009,2020-10-19 00:00:00.000000,0.43557128,0.70253976,1.16154852,79,128,211,44,69,111,0.24305468,0.38395061,0.61171887,0.13635194,0.22334825,0.35389054
42093,0,USPennsylvaniaMontour,Pennsylvania,Montour,2021-01-05 11:33:24.508009,2020-10-20 00:00:00.000000,0.45292643,0.71565897,1.18862848,82,130,216,44,71,114,0.24343307,0.39034658,0.62776849,0.15059710,0.22281275,0.35987947
42093,0,USPennsylvaniaMontour,Pennsylvania,Montour,2021-01-05 11:33:24.508009,2020-10-21 00:00:00.000000,0.47143026,0.73478664,1.21762129,85,133,221,45,72,117,0.25148439,0.39552530,0.64366992,0.16101160,0.22887590,0.36190453
42093,0,USPennsylvaniaMontour,Pennsylvania,Montour,2021-01-05 11:33:24.508009,2020-10-22 00:00:00.000000,0.48270391,0.74651764,1.24652181,87,136,227,47,73,120,0.26088811,0.40124741,0.65940107,0.16629960,0.23614772,0.36139260
42093,0,USPennsylvaniaMontour,Pennsylvania,Montour,2021-01-05 11:33:24.508009,2020-10-23 00:00:00.000000,0.48649953,0.77203406,1.27584286,88,140,232,48,75,122,0.26781827,0.41496030,0.67292235,0.16869536,0.24053976,0.35904043
42093,0,USPennsylvaniaMontour,Pennsylvania,Montour,2021-01-05 11:33:24.508009,2020-10-24 00:00:00.000000,0.49492871,0.79072067,1.30544430,90,144,237,49,77,124,0.26996014,0.42416133,0.68269049,0.17487339,0.25395091,0.37552918
42093,0,USPennsylvaniaMontour,Pennsylvania,Montour,2021-01-05 11:33:24.508009,2020-10-25 00:00:00.000000,0.50261709,0.82186051,1.34502991,91,149,245,49,80,126,0.27361080,0.43892937,0.69293326,0.18315175,0.26131767,0.39716475
42093,0,USPennsylvaniaMontour,Pennsylvania,Montour,2021-01-05 11:33:24.508009,2020-10-26 00:00:00.000000,0.52192046,0.83704113,1.38375678,95,152,252,51,82,128,0.28175824,0.45152916,0.70427100,0.18755315,0.26509372,0.40422364
42093,0,USPennsylvaniaMontour,Pennsylvania,Montour,2021-01-05 11:33:24.508009,2020-10-27 00:00:00.000000,0.52606817,0.87664732,1.41493447,95,159,257,52,84,130,0.28894428,0.46491971,0.71650692,0.19280095,0.27495390,0.42533113
42093,0,USPennsylvaniaMontour,Pennsylvania,Montour,2021-01-05 11:33:24.508009,2020-10-28 00:00:00.000000,0.54750567,0.90967795,1.44982237,99,165,264,53,86,133,0.29558892,0.47529262,0.72998682,0.19167017,0.28298807,0.45438634
42093,0,USPennsylvaniaMontour,Pennsylvania,Montour,2021-01-05 11:33:24.508009,2020-10-29 00:00:00.000000,0.55876937,0.95025139,1.48403484,101,173,270,55,88,139,0.30195051,0.48720922,0.76257594,0.19215058,0.29181379,0.46883003
42093,0,USPennsylvaniaMontour,Pennsylvania,Montour,2021-01-05 11:33:24.508009,2020-10-30 00:00:00.000000,0.57118001,0.97929984,1.52390502,104,178,277,56,93,142,0.30831337,0.51216462,0.78226343,0.20505507,0.30220553,0.47483130
42093,0,USPennsylvaniaMontour,Pennsylvania,Montour,2021-01-05 11:33:24.508009,2020-10-31 00:00:00.000000,0.59921280,1.01635053,1.57302068,109,185,286,59,97,145,0.32528947,0.53528817,0.79863314,0.21896861,0.32206946,0.50554476
42093,0,USPennsylvaniaMontour,Pennsylvania,Montour,2021-01-05 11:33:24.508009,2020-11-01 00:00:00.000000,0.63946905,1.05582733,1.62538226,116,192,296,60,101,151,0.33057546,0.55710131,0.83227978,0.23019147,0.33471019,0.54257325
42093,0,USPennsylvaniaMontour,Pennsylvania,Montour,2021-01-05 11:33:24.508009,2020-11-02 00:00:00.000000,0.68934632,1.10028498,1.71805598,125,200,313,62,105,160,0.34255445,0.57759253,0.88000300,0.23941810,0.35369159,0.54870110
42093,0,USPennsylvaniaMontour,Pennsylvania,Montour,2021-01-05 11:33:24.508009,2020-11-03 00:00:00.000000,0.73188743,1.16088000,1.84221817,133,211,335,66,109,170,0.36642344,0.60203166,0.93793509,0.24433024,0.37152062,0.55053208
42093,0,USPennsylvaniaMontour,Pennsylvania,Montour,2021-01-05 11:33:24.508009,2020-11-04 00:00:00.000000,0.77842795,1.23001463,1.93638355,141,224,353,71,115,182,0.39222943,0.63551747,1.00269276,0.24809894,0.39011860,0.55101051
42093,0,USPennsylvaniaMontour,Pennsylvania,Montour,2021-01-05 11:33:24.508009,2020-11-05 00:00:00.000000,0.82994417,1.30968538,2.06334752,151,238,376,75,122,193,0.41673424,0.67006756,1.06123863,0.25075861,0.41450954,0.56791191
42093,0,USPennsylvaniaMontour,Pennsylvania,Montour,2021-01-05 11:33:24.508009,2020-11-06 00:00:00.000000,0.88804954,1.40710281,2.23274433,161,256,407,80,129,202,0.44403400,0.70895644,1.10898578,0.27233984,0.44016513,0.58681961
42093,0,USPennsylvaniaMontour,Pennsylvania,Montour,2021-01-05 11:33:24.508009,2020-11-07 00:00:00.000000,0.93943525,1.52101261,2.38591189,171,277,434,86,136,210,0.47680717,0.75042070,1.15712382,0.28557748,0.46314889,0.61857712
42093,0,USPennsylvaniaMontour,Pennsylvania,Montour,2021-01-05 11:33:24.508009,2020-11-08 00:00:00.000000,0.98409105,1.66184590,2.60144705,179,302,474,94,145,219,0.52092293,0.80065709,1.20593341,0.28596508,0.47446412,0.66635643
42093,0,USPennsylvaniaMontour,Pennsylvania,Montour,2021-01-05 11:33:24.508009,2020-11-09 00:00:00.000000,1.05866213,1.80598179,2.74616367,192,329,500,100,155,232,0.55041188,0.85423399,1.27683912,0.28773344,0.49590761,0.71566202
42093,0,USPennsylvaniaMontour,Pennsylvania,Montour,2021-01-05 11:33:24.508009,2020-11-10 00:00:00.000000,1.14502392,1.96490536,3.00425763,208,358,547,105,168,247,0.57671202,0.92315697,1.35905602,0.33085047,0.51032877,0.74450619
42093,0,USPennsylvaniaMontour,Pennsylvania,Montour,2021-01-05 11:33:24.508009,2020-11-11 00:00:00.000000,1.18316336,2.12447333,3.31765286,215,387,604,110,182,273,0.60742219,0.99835796,1.50243941,0.34073238,0.52059440,0.79279339
42093,0,USPennsylvaniaMontour,Pennsylvania,Montour,2021-01-05 11:33:24.508009,2020-11-12 00:00:00.000000,1.25404632,2.32708626,3.74125569,228,424,682,119,197,303,0.65445781,1.08526666,1.66667108,0.35672277,0.54701935,0.81959911
42093,0,USPennsylvaniaMontour,Pennsylvania,Montour,2021-01-05 11:33:24.508009,2020-11-13 00:00:00.000000,1.36875655,2.56305030,4.11163852,249,467,749,132,213,324,0.72861725,1.17318645,1.77960122,0.37947613,0.59127283,0.83493767
42093,0,USPennsylvaniaMontour,Pennsylvania,Montour,2021-01-05 11:33:24.508009,2020-11-14 00:00:00.000000,1.52571614,2.85758639,4.53121962,278,520,826,144,232,352,0.79321529,1.27572274,1.93112972,0.42132554,0.63005299,0.85035865
42093,0,USPennsylvaniaMontour,Pennsylvania,Montour,2021-01-05 11:33:24.508009,2020-11-15 00:00:00.000000,1.74381950,3.21502065,5.01773729,317,586,914,157,256,387,0.86500670,1.40450403,2.12754534,0.45577513,0.66526821,0.89801565
42093,0,USPennsylvaniaMontour,Pennsylvania,Montour,2021-01-05 11:33:24.508009,2020-11-16 00:00:00.000000,2.05163133,3.62681889,5.69362848,374,661,1037,178,283,428,0.97849561,1.55669755,2.35056246,0.48186648,0.69329257,0.91101947
42093,0,USPennsylvaniaMontour,Pennsylvania,Montour,2021-01-05 11:33:24.508009,2020-11-17 00:00:00.000000,2.40416343,4.05130172,6.47941262,438,738,1181,206,316,474,1.13043325,1.73768227,2.60479572,0.54402251,0.72258280,0.91373045
42093,0,USPennsylvaniaMontour,Pennsylvania,Montour,2021-01-05 11:33:24.508009,2020-11-18 00:00:00.000000,2.81738832,4.56326482,7.36187863,513,831,1342,239,357,528,1.31633563,1.95953836,2.89728196,0.55861380,0.74027096,0.91489617
42093,0,USPennsylvaniaMontour,Pennsylvania,Montour,2021-01-05 11:33:24.508009,2020-11-19 00:00:00.000000,3.31047421,5.17951900,8.34954135,603,944,1522,278,398,592,1.52571285,2.18437191,3.24856479,0.57513729,0.77297238,0.95580442
42093,0,USPennsylvaniaMontour,Pennsylvania,Montour,2021-01-05 11:33:24.508009,2020-11-20 00:00:00.000000,3.76092337,5.86317965,9.40452978,685,1068,1714,319,448,663,1.75086984,2.46254673,3.63891077,0.59885461,0.81314482,1.00311022
42093,0,USPennsylvaniaMontour,Pennsylvania,Montour,2021-01-05 11:33:24.508009,2020-11-21 00:00:00.000000,4.23457064,6.65993978,10.66480883,771,1214,1944,356,509,742,1.95788306,2.79507472,4.07260228,0.61321471,0.85163143,1.02940745
42093,0,USPennsylvaniaMontour,Pennsylvania,Montour,2021-01-05 11:33:24.508009,2020-11-22 00:00:00.000000,4.82288558,7.64399807,12.03783125,879,1393,2194,394,582,831,2.16426232,3.19486241,4.55957819,0.67265391,0.87193679,1.04615003
42093,0,USPennsylvaniaMontour,Pennsylvania,Montour,2021-01-05 11:33:24.508009,2020-11-23 00:00:00.000000,5.57398637,8.70446116,13.53526573,1016,1586,2467,455,668,946,2.49761134,3.66702941,5.19294798,0.70425650,0.89231510,1.22296837
42093,0,USPennsylvaniaMontour,Pennsylvania,Montour,2021-01-05 11:33:24.508009,2020-11-24 00:00:00.000000,6.53710299,9.88611945,15.16935018,1191,1802,2765,528,760,1101,2.89825220,4.17023550,6.03975834,0.70558331,0.89990117,1.22323615
42093,0,USPennsylvaniaMontour,Pennsylvania,Montour,2021-01-05 11:33:24.508009,2020-11-25 00:00:00.000000,7.63049484,11.22225536,16.93933589,1391,2045,3088,612,863,1277,3.35865570,4.73574682,7.00992894,0.73883895,0.90450625,1.23681842
42093,0,USPennsylvaniaMontour,Pennsylvania,Montour,2021-01-05 11:33:24.508009,2020-11-26 00:00:00.000000,8.86526375,12.70516535,18.84010609,1616,2316,3434,712,974,1467,3.90728180,5.34700717,8.05217290,0.78126700,0.90634889,1.24759671
42093,0,USPennsylvaniaMontour,Pennsylvania,Montour,2021-01-05 11:33:24.508009,2020-11-27 00:00:00.000000,10.16308334,14.34829711,20.89155855,1852,2615,3808,824,1113,1644,4.52021927,6.11027257,9.01891203,0.81210002,0.91532590,1.25978976
42093,0,USPennsylvaniaMontour,Pennsylvania,Montour,2021-01-05 11:33:24.508009,2020-11-28 00:00:00.000000,11.43996307,16.27870717,23.76869120,2085,2967,4333,916,1266,1834,5.02488928,6.94951220,10.06330683,0.81778135,0.93983442,1.29235482
42093,0,USPennsylvaniaMontour,Pennsylvania,Montour,2021-01-05 11:33:24.508009,2020-11-29 00:00:00.000000,12.81408576,18.22947328,26.87260213,2336,3323,4898,1040,1440,2037,5.70595952,7.90059839,11.17811667,0.80340849,0.93388761,1.36035497
42093,0,USPennsylvaniaMontour,Pennsylvania,Montour,2021-01-05 11:33:24.508009,2020-11-30 00:00:00.000000,14.29814048,20.36034781,29.95576947,2606,3711,5460,1171,1626,2251,6.42561839,8.92213581,12.34852022,0.78219048,0.93193970,1.39140674
42093,0,USPennsylvaniaMontour,Pennsylvania,Montour,2021-01-05 11:33:24.508009,2020-12-01 00:00:00.000000,15.92706003,22.51264632,32.37473687,2903,4104,5901,1287,1841,2471,7.06519391,10.10129155,13.55946938,0.71139601,0.92832190,1.41686692
42093,0,USPennsylvaniaMontour,Pennsylvania,Montour,2021-01-05 11:33:24.508009,2020-12-02 00:00:00.000000,18.13144625,24.87213393,34.71957202,3305,4534,6329,1412,2050,2754,7.74559169,11.24534742,15.10921246,0.67846143,0.92138431,1.42285292
42093,0,USPennsylvaniaMontour,Pennsylvania,Montour,2021-01-05 11:33:24.508009,2020-12-03 00:00:00.000000,19.83190061,26.95346181,36.94384033,3615,4913,6734,1542,2267,3055,8.46120273,12.44009581,16.75981280,0.66104150,0.92846356,1.42808447
42093,0,USPennsylvaniaMontour,Pennsylvania,Montour,2021-01-05 11:33:24.508009,2020-12-04 00:00:00.000000,21.40697982,29.24084941,38.99380836,3902,5330,7108,1677,2485,3361,9.20413377,13.63677025,18.43874805,0.64732695,0.91151005,1.44315193
42093,0,USPennsylvaniaMontour,Pennsylvania,Montour,2021-01-05 11:33:24.508009,2020-12-05 00:00:00.000000,23.21620728,31.36877656,40.81317883,4232,5718,7440,1816,2736,3667,9.96270416,15.01033329,20.11590964,0.63187252,0.90009522,1.49540536
42093,0,USPennsylvaniaMontour,Pennsylvania,Montour,2021-01-05 11:33:24.508009,2020-12-06 00:00:00.000000,24.48129253,33.13289822,42.78175045,4462,6040,7799,1954,2960,3965,10.72230231,16.23973905,21.75423789,0.61798989,0.88604032,1.48186982
42093,0,USPennsylvaniaMontour,Pennsylvania,Montour,2021-01-05 11:33:24.508009,2020-12-07 00:00:00.000000,25.91015441,35.02059411,44.83549331,4723,6384,8173,2117,3174,4216,11.61703064,17.41240418,23.13115142,0.61770416,0.87292540,1.52433196
42093,0,USPennsylvaniaMontour,Pennsylvania,Montour,2021-01-05 11:33:24.508009,2020-12-08 00:00:00.000000,27.20180566,36.80320338,46.17501587,4958,6709,8417,2314,3378,4369,12.69340642,18.53124322,23.96771330,0.61360264,0.85374809,1.53851150
42093,0,USPennsylvaniaMontour,Pennsylvania,Montour,2021-01-05 11:33:24.508009,2020-12-09 00:00:00.000000,27.74395823,38.06914890,47.49767749,5057,6940,8658,2498,3578,4646,13.70609219,19.62808990,25.48815109,0.61243710,0.85030087,1.54031568
42093,0,USPennsylvaniaMontour,Pennsylvania,Montour,2021-01-05 11:33:24.508009,2020-12-10 00:00:00.000000,28.18684267,38.95022439,48.13829123,5138,7100,8775,2597,3716,4943,14.24614364,20.38427169,27.11770737,0.61344144,0.85044125,1.53750679
42093,0,USPennsylvaniaMontour,Pennsylvania,Montour,2021-01-05 11:33:24.508009,2020-12-11 00:00:00.000000,28.58518918,40.13031060,49.20363714,5211,7315,8969,2622,3848,5099,14.38706387,21.11022741,27.97391989,0.60441530,0.85351386,1.56272151
42093,0,USPennsylvaniaMontour,Pennsylvania,Montour,2021-01-05 11:33:24.508009,2020-12-12 00:00:00.000000,29.05423629,40.94864383,49.85688669,5296,7464,9088,2634,3939,5244,14.44900622,21.60798833,28.77069448,0.60914491,0.86693240,1.61478356
42093,0,USPennsylvaniaMontour,Pennsylvania,Montour,2021-01-05 11:33:24.508009,2020-12-13 00:00:00.000000,29.54576805,40.75749908,50.24055760,5386,7430,9158,2698,4041,5385,14.80502230,22.16757098,29.54223828,0.60849228,0.88076290,1.63019750
42093,0,USPennsylvaniaMontour,Pennsylvania,Montour,2021-01-05 11:33:24.508009,2020-12-14 00:00:00.000000,29.91683348,40.03912153,49.73148705,5453,7299,9066,2754,4112,5482,15.11164387,22.55812370,30.07409669,0.60829746,0.89297019,1.56185741
42093,0,USPennsylvaniaMontour,Pennsylvania,Montour,2021-01-05 11:33:24.508009,2020-12-15 00:00:00.000000,30.14388580,39.55570384,48.51257367,5495,7211,8843,2796,4143,5490,15.33817055,22.72972618,30.11563793,0.60830723,0.90063381,1.56596462
42093,0,USPennsylvaniaMontour,Pennsylvania,Montour,2021-01-05 11:33:24.508009,2020-12-16 00:00:00.000000,30.14560269,38.71007288,47.50604366,5495,7056,8660,2814,4153,5503,15.44013042,22.78409517,30.18877762,0.60845199,0.90411683,1.55391043
42093,0,USPennsylvaniaMontour,Pennsylvania,Montour,2021-01-05 11:33:24.508009,2020-12-17 00:00:00.000000,28.56534470,37.81770987,47.08120083,5207,6894,8582,2796,4110,5544,15.34069105,22.54581328,30.41522949,0.60875586,0.90049740,1.56428713
42093,0,USPennsylvaniaMontour,Pennsylvania,Montour,2021-01-05 11:33:24.508009,2020-12-18 00:00:00.000000,26.85517969,36.08623435,46.33060485,4895,6578,8446,2767,4052,5522,15.18017097,22.23110714,30.29573347,0.60855702,0.90422489,1.53388427
42093,0,USPennsylvaniaMontour,Pennsylvania,Montour,2021-01-05 11:33:24.508009,2020-12-19 00:00:00.000000,25.07660450,34.67132981,45.29157149,4571,6320,8256,2718,3940,5462,14.91125981,21.61581048,29.96669878,0.60095498,0.92948233,1.44859303
42093,0,USPennsylvaniaMontour,Pennsylvania,Montour,2021-01-05 11:33:24.508009,2020-12-20 00:00:00.000000,23.27097258,33.34879953,44.00588567,4242,6079,8022,2649,3831,5365,14.53348676,21.01856864,29.43013185,0.61139049,0.94434175,1.46068951
42093,0,USPennsylvaniaMontour,Pennsylvania,Montour,2021-01-05 11:33:24.508009,2020-12-21 00:00:00.000000,21.81167096,31.61782573,42.51786083,3976,5763,7751,2538,3688,5246,13.92597228,20.23369985,28.77728878,0.61286831,0.94863414,1.46976030
42093,0,USPennsylvaniaMontour,Pennsylvania,Montour,2021-01-05 11:33:24.508009,2020-12-22 00:00:00.000000,20.69747536,30.01912991,40.55230080,3773,5472,7392,2417,3561,5099,13.26229705,19.53818756,27.97490066,0.61582544,0.96454815,1.47437173
42093,0,USPennsylvaniaMontour,Pennsylvania,Montour,2021-01-05 11:33:24.508009,2020-12-23 00:00:00.000000,18.99728850,28.27094845,38.45618388,3463,5153,7010,2289,3445,4931,12.55791906,18.90054282,27.05166935,0.61003795,0.97465024,1.48469877
42093,0,USPennsylvaniaMontour,Pennsylvania,Montour,2021-01-05 11:33:24.508009,2020-12-24 00:00:00.000000,17.69750539,26.39359036,36.30078992,3226,4811,6617,2156,3271,4746,11.82924637,17.94831523,26.03518096,0.59257320,0.97383628,1.49668533
42093,0,USPennsylvaniaMontour,Pennsylvania,Montour,2021-01-05 11:33:24.508009,2020-12-25 00:00:00.000000,16.41337314,24.54646433,34.12708952,2992,4474,6221,2004,3076,4548,10.99665410,16.87604600,24.95046178,0.59055858,0.96451969,1.51598427
42093,0,USPennsylvaniaMontour,Pennsylvania,Montour,2021-01-05 11:33:24.508009,2020-12-26 00:00:00.000000,15.15979111,22.97303349,31.97140234,2763,4187,5828,1840,2892,4342,10.09843418,15.86849282,23.81937457,0.59144488,0.97696411,1.53067161
42093,0,USPennsylvaniaMontour,Pennsylvania,Montour,2021-01-05 11:33:24.508009,2020-12-27 00:00:00.000000,13.94938640,21.35213803,29.86312870,2542,3892,5444,1712,2701,4131,9.39608929,14.81998882,22.66058193,0.56208063,0.98045017,1.53602741
42093,0,USPennsylvaniaMontour,Pennsylvania,Montour,2021-01-05 11:33:24.508009,2020-12-28 00:00:00.000000,12.78422909,19.65992773,27.81408534,2330,3584,5070,1551,2497,3911,8.50860892,13.70224298,21.45870429,0.54097217,0.96114536,1.53721265
42093,0,USPennsylvaniaMontour,Pennsylvania,Montour,2021-01-05 11:33:24.508009,2020-12-29 00:00:00.000000,11.67984476,18.01245634,25.84652954,2129,3283,4711,1406,2298,3683,7.71435633,12.60682663,20.20557906,0.53840832,0.95663171,1.59413058
42093,0,USPennsylvaniaMontour,Pennsylvania,Montour,2021-01-05 11:33:24.508009,2020-12-30 00:00:00.000000,10.64097428,16.46705623,23.96892184,1939,3001,4369,1292,2117,3457,7.09144437,11.61631134,18.96591087,0.53819586,0.94240232,1.59328938
42093,0,USPennsylvaniaMontour,Pennsylvania,Montour,2021-01-05 11:33:24.508009,2020-12-31 00:00:00.000000,9.67095659,15.00049404,22.18742767,1763,2734,4044,1184,1958,3259,6.49828816,10.74191414,17.88181417,0.53816556,0.93042333,1.54857680
42093,0,USPennsylvaniaMontour,Pennsylvania,Montour,2021-01-05 11:33:24.508009,2021-01-01 00:00:00.000000,8.77133741,13.64085478,20.50652645,1599,2486,3738,1082,1806,3054,5.93773060,9.90832195,16.75746149,0.53814699,0.93028235,1.54569772
42093,0,USPennsylvaniaMontour,Pennsylvania,Montour,2021-01-05 11:33:24.508009,2021-01-02 00:00:00.000000,7.94125336,12.38500424,18.92843830,1447,2257,3450,986,1654,2855,5.41145048,9.07611458,15.66137873,0.53806045,0.94424301,1.61657924
42093,0,USPennsylvaniaMontour,Pennsylvania,Montour,2021-01-05 11:33:24.508009,2021-01-03 00:00:00.000000,7.17791706,11.23312899,17.45289478,1308,2047,3181,896,1511,2663,4.92018733,8.28878708,14.60961666,0.53747603,0.94019270,1.70973413
42093,0,USPennsylvaniaMontour,Pennsylvania,Montour,2021-01-05 11:33:24.508009,2021-01-04 00:00:00.000000,6.47809520,10.16430887,16.10654836,1180,1852,2936,813,1380,2480,4.46393342,7.57271884,13.60611802,0.53275433,0.92022183,1.84226716
42093,0,USPennsylvaniaMontour,Pennsylvania,Montour,2021-01-05 11:33:24.508009,2021-01-05 00:00:00.000000,5.83840465,9.17339845,14.88913095,1064,1672,2714,736,1260,2306,4.04209700,6.91305612,12.65351008,0.52165063,0.91197164,1.86723938
42093,0,USPennsylvaniaMontour,Pennsylvania,Montour,2021-01-05 11:33:24.508009,2021-01-06 00:00:00.000000,5.25529897,8.26612441,13.75402810,958,1506,2507,666,1148,2142,3.65364142,6.30260665,11.75279875,0.51104612,0.92824357,1.86840438
42093,0,USPennsylvaniaMontour,Pennsylvania,Montour,2021-01-05 11:33:24.508009,2021-01-07 00:00:00.000000,4.72510534,7.45279123,12.69775137,861,1358,2314,601,1046,1987,3.29720587,5.73937761,10.90409008,0.50141668,0.92672079,1.86855623
42093,0,USPennsylvaniaMontour,Pennsylvania,Montour,2021-01-05 11:33:24.508009,2021-01-08 00:00:00.000000,4.24410637,6.73951447,11.71648793,773,1228,2135,541,951,1842,2.97120103,5.21865045,10.10677766,0.49312351,0.92591449,1.86858647
42093,0,USPennsylvaniaMontour,Pennsylvania,Montour,2021-01-05 11:33:24.508009,2021-01-09 00:00:00.000000,3.74639525,6.05870182,10.80623671,682,1104,1969,487,859,1706,2.67388823,4.71612871,9.35970357,0.48631281,0.92548389,1.86859287
42093,0,USPennsylvaniaMontour,Pennsylvania,Montour,2021-01-05 11:33:24.508009,2021-01-10 00:00:00.000000,3.29033920,5.44811101,9.96291541,599,993,1816,438,777,1578,2.40344455,4.26443404,8.66129487,0.48093614,0.92525396,1.86859423
42093,0,USPennsylvaniaMontour,Pennsylvania,Montour,2021-01-05 11:33:24.508009,2021-01-11 00:00:00.000000,2.88808380,4.91712294,9.18244297,526,896,1673,393,698,1460,2.15801486,3.83313002,8.00967737,0.47682244,0.92513144,1.86859452
42093,0,USPennsylvaniaMontour,Pennsylvania,Montour,2021-01-05 11:33:24.508009,2021-01-12 00:00:00.000000,2.53369477,4.43058241,8.46080217,461,807,1542,352,629,1349,1.93575249,3.45438976,7.40276955,0.47374981,0.92506629,1.86859458
42093,0,USPennsylvaniaMontour,Pennsylvania,Montour,2021-01-05 11:33:24.508009,2021-01-13 00:00:00.000000,2.22179194,3.98081327,7.79408580,405,725,1420,316,569,1246,1.73485039,3.12482652,6.83835885,0.47149572,0.92503169,1.86859459
42093,0,USPennsylvaniaMontour,Pennsylvania,Montour,2021-01-05 11:33:24.508009,2021-01-14 00:00:00.000000,1.94752335,3.57624033,7.17852979,355,651,1308,280,512,1151,1.53718831,2.81074772,6.31416283,0.46986384,0.92501334,1.86859460
42093,0,USPennsylvaniaMontour,Pennsylvania,Montour,2021-01-05 11:33:24.508009,2021-01-15 00:00:00.000000,1.70653275,3.21413131,6.61053580,311,585,1205,245,460,1062,1.34848918,2.52631169,5.82787768,0.46869369,0.92500361,1.86859460
42093,0,USPennsylvaniaMontour,Pennsylvania,Montour,2021-01-05 11:33:24.508009,2021-01-16 00:00:00.000000,1.49492358,2.88763265,6.08668553,272,526,1109,215,413,980,1.18244738,2.26909180,5.37721578,0.46786038,0.92499845,1.86859460
42093,0,USPennsylvaniaMontour,Pennsylvania,Montour,2021-01-05 11:33:24.508009,2021-01-17 00:00:00.000000,1.30922149,2.59345454,5.60374857,238,472,1021,188,371,904,1.03646513,2.03678650,4.95984464,0.46726986,0.92499572,1.86859460
