FIPS,HR_UID,nameid,province,region,analysisTime,dates,pointprevalence_025,pointprevalence_50,pointprevalence_975,pointinfections_025,pointinfections_50,pointinfections_975,pointinfectious_025,pointinfectious_50,pointinfectious_975,pointinfectiousprevalence_05,pointinfectiousprevalence_50,pointinfectiousprevalence_95,infectrate_025,infectrate_50,infectrate_975
47065,0,USTennesseeHamilton,Tennessee,Hamilton,2021-01-05 10:48:50.875885,2020-03-09 00:00:00.000000,0.00040154,0.00148191,0.00283933,1,5,10,0,1,5,0.00008350,0.00053822,0.00146967,0.38206858,0.59644441,0.76350442
47065,0,USTennesseeHamilton,Tennessee,Hamilton,2021-01-05 10:48:50.875885,2020-03-10 00:00:00.000000,0.00063001,0.00193241,0.00358885,2,7,13,0,2,5,0.00012235,0.00062251,0.00149460,0.38206858,0.59644250,0.76349689
47065,0,USTennesseeHamilton,Tennessee,Hamilton,2021-01-05 10:48:50.875885,2020-03-11 00:00:00.000000,0.00086441,0.00251695,0.00439395,3,9,16,0,2,6,0.00017955,0.00074609,0.00167224,0.38206858,0.59635800,0.76348398
47065,0,USTennesseeHamilton,Tennessee,Hamilton,2021-01-05 10:48:50.875885,2020-03-12 00:00:00.000000,0.00113453,0.00299178,0.00525264,4,11,19,0,3,6,0.00026072,0.00095203,0.00188975,0.38206858,0.59407298,0.76346068
47065,0,USTennesseeHamilton,Tennessee,Hamilton,2021-01-05 10:48:50.875885,2020-03-13 00:00:00.000000,0.00143117,0.00354725,0.00616519,5,13,22,1,4,7,0.00036091,0.00118052,0.00214824,0.38206860,0.59406557,0.76341530
47065,0,USTennesseeHamilton,Tennessee,Hamilton,2021-01-05 10:48:50.875885,2020-03-14 00:00:00.000000,0.00176028,0.00414888,0.00753300,6,15,27,1,5,9,0.00045967,0.00141174,0.00251502,0.38206866,0.59230098,0.76331810
47065,0,USTennesseeHamilton,Tennessee,Hamilton,2021-01-05 10:48:50.875885,2020-03-15 00:00:00.000000,0.00212757,0.00478854,0.00905728,7,17,33,2,6,10,0.00058338,0.00168494,0.00294024,0.38206896,0.59234390,0.76308815
47065,0,USTennesseeHamilton,Tennessee,Hamilton,2021-01-05 10:48:50.875885,2020-03-16 00:00:00.000000,0.00292271,0.00587414,0.01007295,10,21,37,2,7,13,0.00073082,0.00197105,0.00357336,0.38207022,0.59241152,0.76249619
47065,0,USTennesseeHamilton,Tennessee,Hamilton,2021-01-05 10:48:50.875885,2020-03-17 00:00:00.000000,0.00360831,0.00699070,0.01223846,13,25,45,3,8,16,0.00094262,0.00229735,0.00442046,0.38207564,0.59251840,0.76088212
47065,0,USTennesseeHamilton,Tennessee,Hamilton,2021-01-05 10:48:50.875885,2020-03-18 00:00:00.000000,0.00409502,0.00817886,0.01346942,15,30,49,4,9,18,0.00118112,0.00270393,0.00514998,0.38209769,0.59188779,0.75637696
47065,0,USTennesseeHamilton,Tennessee,Hamilton,2021-01-05 10:48:50.875885,2020-03-19 00:00:00.000000,0.00445699,0.00931328,0.01585974,16,34,58,5,11,21,0.00145862,0.00318740,0.00598137,0.37944952,0.58728853,0.74778602
47065,0,USTennesseeHamilton,Tennessee,Hamilton,2021-01-05 10:48:50.875885,2020-03-20 00:00:00.000000,0.00486089,0.01062141,0.01847994,17,39,67,6,13,25,0.00177499,0.00374348,0.00690390,0.35051462,0.57168085,0.72680126
47065,0,USTennesseeHamilton,Tennessee,Hamilton,2021-01-05 10:48:50.875885,2020-03-21 00:00:00.000000,0.00530755,0.01193101,0.02131349,19,43,78,7,16,29,0.00202863,0.00436611,0.00790990,0.35971127,0.55309216,0.69961242
47065,0,USTennesseeHamilton,Tennessee,Hamilton,2021-01-05 10:48:50.875885,2020-03-22 00:00:00.000000,0.00573294,0.01315698,0.02426861,21,48,89,8,18,33,0.00227845,0.00503775,0.00897911,0.34915626,0.52859981,0.68236135
47065,0,USTennesseeHamilton,Tennessee,Hamilton,2021-01-05 10:48:50.875885,2020-03-23 00:00:00.000000,0.00646624,0.01464643,0.02656614,23,53,97,9,20,37,0.00254617,0.00569341,0.01031331,0.33600907,0.50317000,0.65992467
47065,0,USTennesseeHamilton,Tennessee,Hamilton,2021-01-05 10:48:50.875885,2020-03-24 00:00:00.000000,0.00716790,0.01610541,0.02874708,26,59,105,10,23,43,0.00286759,0.00635169,0.01171619,0.32775567,0.49018084,0.63479702
47065,0,USTennesseeHamilton,Tennessee,Hamilton,2021-01-05 10:48:50.875885,2020-03-25 00:00:00.000000,0.00792182,0.01773323,0.03088200,29,65,113,11,25,48,0.00317294,0.00706529,0.01308173,0.32734815,0.46056098,0.60084702
47065,0,USTennesseeHamilton,Tennessee,Hamilton,2021-01-05 10:48:50.875885,2020-03-26 00:00:00.000000,0.00891491,0.01931945,0.03306378,32,71,121,12,28,53,0.00350529,0.00781810,0.01441258,0.31879379,0.43443178,0.59348084
47065,0,USTennesseeHamilton,Tennessee,Hamilton,2021-01-05 10:48:50.875885,2020-03-27 00:00:00.000000,0.01009834,0.02098054,0.03533917,37,77,129,14,31,57,0.00386341,0.00852056,0.01572602,0.31012508,0.41274239,0.55556804
47065,0,USTennesseeHamilton,Tennessee,Hamilton,2021-01-05 10:48:50.875885,2020-03-28 00:00:00.000000,0.01081273,0.02258553,0.03772875,39,83,138,15,34,62,0.00429532,0.00935867,0.01704254,0.30360870,0.40076654,0.53508764
47065,0,USTennesseeHamilton,Tennessee,Hamilton,2021-01-05 10:48:50.875885,2020-03-29 00:00:00.000000,0.01147690,0.02390751,0.04023630,42,87,147,18,37,67,0.00489991,0.01010546,0.01838024,0.29911425,0.38077346,0.51361622
47065,0,USTennesseeHamilton,Tennessee,Hamilton,2021-01-05 10:48:50.875885,2020-03-30 00:00:00.000000,0.01228404,0.02510647,0.04400410,45,92,161,19,40,72,0.00535786,0.01090939,0.01975255,0.29480639,0.36911552,0.50498858
47065,0,USTennesseeHamilton,Tennessee,Hamilton,2021-01-05 10:48:50.875885,2020-03-31 00:00:00.000000,0.01312730,0.02655131,0.04757577,48,97,174,21,43,78,0.00576544,0.01176929,0.02134872,0.28209001,0.36649697,0.49208256
47065,0,USTennesseeHamilton,Tennessee,Hamilton,2021-01-05 10:48:50.875885,2020-04-01 00:00:00.000000,0.01400989,0.02790410,0.05071506,51,102,186,22,46,84,0.00616336,0.01258627,0.02307786,0.25718565,0.35692484,0.47322156
47065,0,USTennesseeHamilton,Tennessee,Hamilton,2021-01-05 10:48:50.875885,2020-04-02 00:00:00.000000,0.01493671,0.02977289,0.05371940,54,109,197,24,49,91,0.00655780,0.01349088,0.02483566,0.24162952,0.35377774,0.46822252
47065,0,USTennesseeHamilton,Tennessee,Hamilton,2021-01-05 10:48:50.875885,2020-04-03 00:00:00.000000,0.01591388,0.03133600,0.05675811,58,115,208,25,53,97,0.00695328,0.01452151,0.02659186,0.23532363,0.34490135,0.46994902
47065,0,USTennesseeHamilton,Tennessee,Hamilton,2021-01-05 10:48:50.875885,2020-04-04 00:00:00.000000,0.01695262,0.03306157,0.06090935,62,121,224,27,56,104,0.00735341,0.01527489,0.02835226,0.23532549,0.34740354,0.47191276
47065,0,USTennesseeHamilton,Tennessee,Hamilton,2021-01-05 10:48:50.875885,2020-04-05 00:00:00.000000,0.01732631,0.03450024,0.06519483,63,126,239,28,59,110,0.00776127,0.01623039,0.03012667,0.23489384,0.34642143,0.47311224
47065,0,USTennesseeHamilton,Tennessee,Hamilton,2021-01-05 10:48:50.875885,2020-04-06 00:00:00.000000,0.01763904,0.03662624,0.06966060,64,134,256,29,62,119,0.00812478,0.01699808,0.03247732,0.23379472,0.33897681,0.51139084
47065,0,USTennesseeHamilton,Tennessee,Hamilton,2021-01-05 10:48:50.875885,2020-04-07 00:00:00.000000,0.01858716,0.03826231,0.07331310,68,140,269,31,65,128,0.00853833,0.01789898,0.03494144,0.23094449,0.33368657,0.54645589
47065,0,USTennesseeHamilton,Tennessee,Hamilton,2021-01-05 10:48:50.875885,2020-04-08 00:00:00.000000,0.01956873,0.04025862,0.07546850,71,148,277,33,68,137,0.00898309,0.01866480,0.03743048,0.22834976,0.33454176,0.53518869
47065,0,USTennesseeHamilton,Tennessee,Hamilton,2021-01-05 10:48:50.875885,2020-04-09 00:00:00.000000,0.02024015,0.04234695,0.07786660,74,155,286,34,71,146,0.00948180,0.01955815,0.03993891,0.21914185,0.33368669,0.51626261
47065,0,USTennesseeHamilton,Tennessee,Hamilton,2021-01-05 10:48:50.875885,2020-04-10 00:00:00.000000,0.02097749,0.04518583,0.08142266,77,166,299,36,76,156,0.00995284,0.02067496,0.04248523,0.20858775,0.33420039,0.54103389
47065,0,USTennesseeHamilton,Tennessee,Hamilton,2021-01-05 10:48:50.875885,2020-04-11 00:00:00.000000,0.02232048,0.04816888,0.08372375,82,177,307,38,79,161,0.01039891,0.02166617,0.04394527,0.20473316,0.34029446,0.54437615
47065,0,USTennesseeHamilton,Tennessee,Hamilton,2021-01-05 10:48:50.875885,2020-04-12 00:00:00.000000,0.02374215,0.05027229,0.08645725,87,184,317,40,84,167,0.01091485,0.02292756,0.04546458,0.20321480,0.34271452,0.56627568
47065,0,USTennesseeHamilton,Tennessee,Hamilton,2021-01-05 10:48:50.875885,2020-04-13 00:00:00.000000,0.02565171,0.05262630,0.09108792,94,193,335,42,89,172,0.01147409,0.02427879,0.04702581,0.20271936,0.34627415,0.60574042
47065,0,USTennesseeHamilton,Tennessee,Hamilton,2021-01-05 10:48:50.875885,2020-04-14 00:00:00.000000,0.02765491,0.05566949,0.09816929,101,204,361,44,93,179,0.01208334,0.02538909,0.04870535,0.20266812,0.35212057,0.63108013
47065,0,USTennesseeHamilton,Tennessee,Hamilton,2021-01-05 10:48:50.875885,2020-04-15 00:00:00.000000,0.02979192,0.05934583,0.10355151,109,218,380,46,99,185,0.01277027,0.02695053,0.05049205,0.20292417,0.35026734,0.63882886
47065,0,USTennesseeHamilton,Tennessee,Hamilton,2021-01-05 10:48:50.875885,2020-04-16 00:00:00.000000,0.03214374,0.06247915,0.11114636,118,229,408,49,105,192,0.01353103,0.02876363,0.05239081,0.20363121,0.35548163,0.65746991
47065,0,USTennesseeHamilton,Tennessee,Hamilton,2021-01-05 10:48:50.875885,2020-04-17 00:00:00.000000,0.03485571,0.06614218,0.11869954,128,243,436,52,112,200,0.01435995,0.03051723,0.05438637,0.20525734,0.37051120,0.65062511
47065,0,USTennesseeHamilton,Tennessee,Hamilton,2021-01-05 10:48:50.875885,2020-04-18 00:00:00.000000,0.03795377,0.07011971,0.12854451,139,257,472,56,117,207,0.01525196,0.03198816,0.05645561,0.20881108,0.37706549,0.63689833
47065,0,USTennesseeHamilton,Tennessee,Hamilton,2021-01-05 10:48:50.875885,2020-04-19 00:00:00.000000,0.04110130,0.07445398,0.13774290,151,273,506,59,123,215,0.01620352,0.03352374,0.05859418,0.21608663,0.38223065,0.62231040
47065,0,USTennesseeHamilton,Tennessee,Hamilton,2021-01-05 10:48:50.875885,2020-04-20 00:00:00.000000,0.04392837,0.07725903,0.14812002,161,284,544,63,129,227,0.01721275,0.03533738,0.06194210,0.22924285,0.38836724,0.60291585
47065,0,USTennesseeHamilton,Tennessee,Hamilton,2021-01-05 10:48:50.875885,2020-04-21 00:00:00.000000,0.04726842,0.08182795,0.15908373,173,300,585,67,138,244,0.01832584,0.03755474,0.06653978,0.24718230,0.38794733,0.58692838
47065,0,USTennesseeHamilton,Tennessee,Hamilton,2021-01-05 10:48:50.875885,2020-04-22 00:00:00.000000,0.05161606,0.08818432,0.17067264,189,324,627,72,146,266,0.01958593,0.03974805,0.07245814,0.24296386,0.39012952,0.62275893
47065,0,USTennesseeHamilton,Tennessee,Hamilton,2021-01-05 10:48:50.875885,2020-04-23 00:00:00.000000,0.05616849,0.09331898,0.18292722,206,343,672,77,154,285,0.02110295,0.04204088,0.07751401,0.24877717,0.39007547,0.61797982
47065,0,USTennesseeHamilton,Tennessee,Hamilton,2021-01-05 10:48:50.875885,2020-04-24 00:00:00.000000,0.06059446,0.09717396,0.19589675,222,357,720,83,163,303,0.02282307,0.04455822,0.08261372,0.26180963,0.39859768,0.60823756
47065,0,USTennesseeHamilton,Tennessee,Hamilton,2021-01-05 10:48:50.875885,2020-04-25 00:00:00.000000,0.06498523,0.10094131,0.20963524,239,371,771,90,173,324,0.02465395,0.04721357,0.08809654,0.27444331,0.40694022,0.63256694
47065,0,USTennesseeHamilton,Tennessee,Hamilton,2021-01-05 10:48:50.875885,2020-04-26 00:00:00.000000,0.06948998,0.10592666,0.22419484,255,389,824,97,182,345,0.02654816,0.04949484,0.09395980,0.28499919,0.41431621,0.68863504
47065,0,USTennesseeHamilton,Tennessee,Hamilton,2021-01-05 10:48:50.875885,2020-04-27 00:00:00.000000,0.07405586,0.11238864,0.23742863,272,413,873,104,193,368,0.02849974,0.05247377,0.10020775,0.28299583,0.42111216,0.70379598
47065,0,USTennesseeHamilton,Tennessee,Hamilton,2021-01-05 10:48:50.875885,2020-04-28 00:00:00.000000,0.07888704,0.12074720,0.24940194,290,444,917,112,204,392,0.03050108,0.05559243,0.10674455,0.28499520,0.43556196,0.71058693
47065,0,USTennesseeHamilton,Tennessee,Hamilton,2021-01-05 10:48:50.875885,2020-04-29 00:00:00.000000,0.08404917,0.12670114,0.26174194,309,466,962,119,216,417,0.03259506,0.05886228,0.11360210,0.28805169,0.43745377,0.71329878
47065,0,USTennesseeHamilton,Tennessee,Hamilton,2021-01-05 10:48:50.875885,2020-04-30 00:00:00.000000,0.08979788,0.13668084,0.27464137,330,502,1010,127,228,444,0.03479119,0.06210588,0.12080620,0.29954697,0.45041708,0.71404465
47065,0,USTennesseeHamilton,Tennessee,Hamilton,2021-01-05 10:48:50.875885,2020-05-01 00:00:00.000000,0.09637943,0.14943106,0.28927866,354,549,1063,136,243,472,0.03714838,0.06619275,0.12842603,0.32225462,0.46402717,0.70183607
47065,0,USTennesseeHamilton,Tennessee,Hamilton,2021-01-05 10:48:50.875885,2020-05-02 00:00:00.000000,0.10355371,0.16268682,0.30693031,380,598,1128,146,262,496,0.03974523,0.07148085,0.13511424,0.35226896,0.47035324,0.66542680
47065,0,USTennesseeHamilton,Tennessee,Hamilton,2021-01-05 10:48:50.875885,2020-05-03 00:00:00.000000,0.11123775,0.17814492,0.32631017,409,655,1200,156,280,524,0.04259697,0.07637068,0.14256185,0.36524516,0.47827692,0.66782285
47065,0,USTennesseeHamilton,Tennessee,Hamilton,2021-01-05 10:48:50.875885,2020-05-04 00:00:00.000000,0.11913194,0.19511831,0.35090833,438,717,1290,168,301,554,0.04570263,0.08206739,0.15083358,0.37468791,0.48966450,0.68019971
47065,0,USTennesseeHamilton,Tennessee,Hamilton,2021-01-05 10:48:50.875885,2020-05-05 00:00:00.000000,0.12759872,0.21173658,0.38192677,469,778,1404,180,325,588,0.04900680,0.08855701,0.15991130,0.38143046,0.49384609,0.69577077
47065,0,USTennesseeHamilton,Tennessee,Hamilton,2021-01-05 10:48:50.875885,2020-05-06 00:00:00.000000,0.13666379,0.22672721,0.40795424,502,833,1500,193,348,624,0.05253234,0.09472854,0.16977686,0.38934766,0.50118558,0.70604897
47065,0,USTennesseeHamilton,Tennessee,Hamilton,2021-01-05 10:48:50.875885,2020-05-07 00:00:00.000000,0.14636978,0.24575047,0.43953063,538,903,1616,207,381,673,0.05630226,0.10381849,0.18309898,0.38959824,0.50349340,0.72407501
47065,0,USTennesseeHamilton,Tennessee,Hamilton,2021-01-05 10:48:50.875885,2020-05-08 00:00:00.000000,0.15676920,0.26472872,0.47412051,576,973,1743,221,417,743,0.06034189,0.11355489,0.20226734,0.39033263,0.50905438,0.73630515
47065,0,USTennesseeHamilton,Tennessee,Hamilton,2021-01-05 10:48:50.875885,2020-05-09 00:00:00.000000,0.16795241,0.28461594,0.51165383,617,1046,1881,237,451,819,0.06467803,0.12267500,0.22270097,0.39313762,0.51118896,0.74073341
47065,0,USTennesseeHamilton,Tennessee,Hamilton,2021-01-05 10:48:50.875885,2020-05-10 00:00:00.000000,0.17996385,0.30491198,0.55259681,661,1121,2032,255,485,896,0.06934121,0.13201285,0.24381544,0.39828980,0.52018363,0.74448307
47065,0,USTennesseeHamilton,Tennessee,Hamilton,2021-01-05 10:48:50.875885,2020-05-11 00:00:00.000000,0.19400265,0.32987604,0.59798845,713,1213,2199,280,522,967,0.07629665,0.14208852,0.26310320,0.39752309,0.52885251,0.73500844
47065,0,USTennesseeHamilton,Tennessee,Hamilton,2021-01-05 10:48:50.875885,2020-05-12 00:00:00.000000,0.20896674,0.35659316,0.64071656,768,1311,2356,317,565,1044,0.08645600,0.15363073,0.28404558,0.40118329,0.53209168,0.74417282
47065,0,USTennesseeHamilton,Tennessee,Hamilton,2021-01-05 10:48:50.875885,2020-05-13 00:00:00.000000,0.22526070,0.38803002,0.68282868,828,1427,2511,345,608,1128,0.09394461,0.16548616,0.30685658,0.42533443,0.53301086,0.75531707
47065,0,USTennesseeHamilton,Tennessee,Hamilton,2021-01-05 10:48:50.875885,2020-05-14 00:00:00.000000,0.24472861,0.42389758,0.72600554,900,1559,2670,376,655,1219,0.10249780,0.17830325,0.33155635,0.42560773,0.52778631,0.75604690
47065,0,USTennesseeHamilton,Tennessee,Hamilton,2021-01-05 10:48:50.875885,2020-05-15 00:00:00.000000,0.27820125,0.46536420,0.78502352,1023,1711,2887,412,708,1316,0.11222639,0.19257830,0.35805703,0.41538225,0.52759567,0.75624272
47065,0,USTennesseeHamilton,Tennessee,Hamilton,2021-01-05 10:48:50.875885,2020-05-16 00:00:00.000000,0.31621070,0.50535258,0.85360225,1163,1858,3139,453,767,1414,0.12319544,0.20867656,0.38463926,0.40578854,0.52081111,0.77943516
47065,0,USTennesseeHamilton,Tennessee,Hamilton,2021-01-05 10:48:50.875885,2020-05-17 00:00:00.000000,0.35828116,0.54458255,0.92765138,1317,2002,3411,498,833,1514,0.13546587,0.22665173,0.41185479,0.40551117,0.51899452,0.80998243
47065,0,USTennesseeHamilton,Tennessee,Hamilton,2021-01-05 10:48:50.875885,2020-05-18 00:00:00.000000,0.39901032,0.58923463,1.00713909,1467,2167,3704,548,908,1616,0.14912508,0.24710212,0.43963272,0.39577408,0.52357244,0.81079621
47065,0,USTennesseeHamilton,Tennessee,Hamilton,2021-01-05 10:48:50.875885,2020-05-19 00:00:00.000000,0.43486217,0.63635069,1.08316931,1599,2340,3983,603,989,1722,0.16417351,0.26904875,0.46821868,0.39606372,0.52091357,0.80816545
47065,0,USTennesseeHamilton,Tennessee,Hamilton,2021-01-05 10:48:50.875885,2020-05-20 00:00:00.000000,0.47077416,0.69301799,1.15225753,1731,2548,4238,664,1072,1830,0.18070862,0.29167474,0.49781169,0.39663736,0.51596016,0.80347219
47065,0,USTennesseeHamilton,Tennessee,Hamilton,2021-01-05 10:48:50.875885,2020-05-21 00:00:00.000000,0.50636197,0.74292019,1.22527809,1862,2732,4506,731,1157,1944,0.19882442,0.31465018,0.52863062,0.39074221,0.50906078,0.79532473
47065,0,USTennesseeHamilton,Tennessee,Hamilton,2021-01-05 10:48:50.875885,2020-05-22 00:00:00.000000,0.55531680,0.80369710,1.30261921,2042,2956,4791,795,1263,2062,0.21616072,0.34345834,0.56085676,0.39152812,0.50949544,0.78126478
47065,0,USTennesseeHamilton,Tennessee,Hamilton,2021-01-05 10:48:50.875885,2020-05-23 00:00:00.000000,0.61395848,0.87389059,1.40170793,2258,3214,5155,849,1376,2187,0.23094651,0.37435208,0.59463713,0.38308518,0.48841879,0.75547987
47065,0,USTennesseeHamilton,Tennessee,Hamilton,2021-01-05 10:48:50.875885,2020-05-24 00:00:00.000000,0.67409370,0.94143236,1.50181688,2479,3462,5523,936,1489,2357,0.25463766,0.40506648,0.64098869,0.36926627,0.47564380,0.72935810
47065,0,USTennesseeHamilton,Tennessee,Hamilton,2021-01-05 10:48:50.875885,2020-05-25 00:00:00.000000,0.72128114,1.00323638,1.59245368,2652,3689,5857,1035,1593,2566,0.28156010,0.43334221,0.69778572,0.35054411,0.46197247,0.66349947
47065,0,USTennesseeHamilton,Tennessee,Hamilton,2021-01-05 10:48:50.875885,2020-05-26 00:00:00.000000,0.76658402,1.05548253,1.66501002,2819,3882,6123,1137,1716,2810,0.30928498,0.46658338,0.76422982,0.33873910,0.46169485,0.61247031
47065,0,USTennesseeHamilton,Tennessee,Hamilton,2021-01-05 10:48:50.875885,2020-05-27 00:00:00.000000,0.81387529,1.12517175,1.73868840,2993,4138,6394,1227,1827,3064,0.33371507,0.49698555,0.83329044,0.33130512,0.45096431,0.58362590
47065,0,USTennesseeHamilton,Tennessee,Hamilton,2021-01-05 10:48:50.875885,2020-05-28 00:00:00.000000,0.86317064,1.18710319,1.85559482,3174,4366,6824,1313,1936,3236,0.35716105,0.52650618,0.87982226,0.32237115,0.44810857,0.56021771
47065,0,USTennesseeHamilton,Tennessee,Hamilton,2021-01-05 10:48:50.875885,2020-05-29 00:00:00.000000,0.91466008,1.27124965,1.94356977,3364,4675,7148,1410,2079,3405,0.38362738,0.56526809,0.92594081,0.31674894,0.44042819,0.54238246
47065,0,USTennesseeHamilton,Tennessee,Hamilton,2021-01-05 10:48:50.875885,2020-05-30 00:00:00.000000,0.96872052,1.35218775,2.03330307,3562,4973,7478,1499,2229,3576,0.40777366,0.60618640,0.97237487,0.30800874,0.42628849,0.53226559
47065,0,USTennesseeHamilton,Tennessee,Hamilton,2021-01-05 10:48:50.875885,2020-05-31 00:00:00.000000,1.01855628,1.42144450,2.12359878,3746,5228,7810,1585,2369,3748,0.43102239,0.64435538,1.01923899,0.29633142,0.41784845,0.53340077
47065,0,USTennesseeHamilton,Tennessee,Hamilton,2021-01-05 10:48:50.875885,2020-06-01 00:00:00.000000,1.05454565,1.49230566,2.20941673,3878,5488,8126,1670,2527,3922,0.45413513,0.68725350,1.06648330,0.29029795,0.40965941,0.52309636
47065,0,USTennesseeHamilton,Tennessee,Hamilton,2021-01-05 10:48:50.875885,2020-06-02 00:00:00.000000,1.08970541,1.56616107,2.28986834,4007,5760,8422,1755,2680,4097,0.47721808,0.72887830,1.11401287,0.28640164,0.38848637,0.52129640
47065,0,USTennesseeHamilton,Tennessee,Hamilton,2021-01-05 10:48:50.875885,2020-06-03 00:00:00.000000,1.16168710,1.64918392,2.36794375,4272,6065,8709,1820,2848,4384,0.49492131,0.77458926,1.19210415,0.28444430,0.38193220,0.49941815
47065,0,USTennesseeHamilton,Tennessee,Hamilton,2021-01-05 10:48:50.875885,2020-06-04 00:00:00.000000,1.23814722,1.72428896,2.44175067,4553,6342,8980,1880,3013,4570,0.51136249,0.81924223,1.24253465,0.27773979,0.37273214,0.49583979
47065,0,USTennesseeHamilton,Tennessee,Hamilton,2021-01-05 10:48:50.875885,2020-06-05 00:00:00.000000,1.31882624,1.79892211,2.50724128,4850,6616,9221,1957,3142,4757,0.53213579,0.85443537,1.29352003,0.27653694,0.36252371,0.49336165
47065,0,USTennesseeHamilton,Tennessee,Hamilton,2021-01-05 10:48:50.875885,2020-06-06 00:00:00.000000,1.37064190,1.87255630,2.56917188,5041,6887,9449,2085,3303,4948,0.56705411,0.89825378,1.34531569,0.26686563,0.33790088,0.48927587
47065,0,USTennesseeHamilton,Tennessee,Hamilton,2021-01-05 10:48:50.875885,2020-06-07 00:00:00.000000,1.39829448,1.93245082,2.71028379,5142,7107,9968,2198,3464,5141,0.59777134,0.94189402,1.39797470,0.24053239,0.31880158,0.47928748
47065,0,USTennesseeHamilton,Tennessee,Hamilton,2021-01-05 10:48:50.875885,2020-06-08 00:00:00.000000,1.42319690,2.00032929,2.80377794,5234,7357,10312,2294,3576,5360,0.62392242,0.97241136,1.45731657,0.22834661,0.30418136,0.46014086
47065,0,USTennesseeHamilton,Tennessee,Hamilton,2021-01-05 10:48:50.875885,2020-06-09 00:00:00.000000,1.44530523,2.06322553,2.88158255,5315,7588,10598,2392,3686,5579,0.65061564,1.00238319,1.51705544,0.22739826,0.29613180,0.42129482
47065,0,USTennesseeHamilton,Tennessee,Hamilton,2021-01-05 10:48:50.875885,2020-06-10 00:00:00.000000,1.46442008,2.11690863,2.92276645,5386,7786,10750,2489,3867,5790,0.67677295,1.05146943,1.57435962,0.21522566,0.28609344,0.39662619
47065,0,USTennesseeHamilton,Tennessee,Hamilton,2021-01-05 10:48:50.875885,2020-06-11 00:00:00.000000,1.48068002,2.16183930,2.99167474,5446,7951,11003,2561,4019,5991,0.69655363,1.09279457,1.62909792,0.19508646,0.28137794,0.38806000
47065,0,USTennesseeHamilton,Tennessee,Hamilton,2021-01-05 10:48:50.875885,2020-06-12 00:00:00.000000,1.49411922,2.19957250,3.05535597,5495,8090,11237,2620,4120,6187,0.71258559,1.12035152,1.68218163,0.19230131,0.27463666,0.38029711
47065,0,USTennesseeHamilton,Tennessee,Hamilton,2021-01-05 10:48:50.875885,2020-06-13 00:00:00.000000,1.50491948,2.23467413,3.13914139,5535,8219,11545,2662,4258,6376,0.72401087,1.15774380,1.73378764,0.18542692,0.26949172,0.37667115
47065,0,USTennesseeHamilton,Tennessee,Hamilton,2021-01-05 10:48:50.875885,2020-06-14 00:00:00.000000,1.51377546,2.27026715,3.20920104,5567,8350,11803,2687,4371,6559,0.73066337,1.18844754,1.78332480,0.18286558,0.26190558,0.36498218
47065,0,USTennesseeHamilton,Tennessee,Hamilton,2021-01-05 10:48:50.875885,2020-06-15 00:00:00.000000,1.52283467,2.30476563,3.26758432,5601,8477,12018,2698,4447,6733,0.73356194,1.20915738,1.83077027,0.18202301,0.25356459,0.38182001
47065,0,USTennesseeHamilton,Tennessee,Hamilton,2021-01-05 10:48:50.875885,2020-06-16 00:00:00.000000,1.50883428,2.32299117,3.32266058,5549,8544,12220,2718,4519,6902,0.73917638,1.22877953,1.87661876,0.18467444,0.24336533,0.38165741
47065,0,USTennesseeHamilton,Tennessee,Hamilton,2021-01-05 10:48:50.875885,2020-06-17 00:00:00.000000,1.48995667,2.35256647,3.35533604,5480,8652,12341,2695,4595,7067,0.73288953,1.24936413,1.92142947,0.18457129,0.23759260,0.37920705
47065,0,USTennesseeHamilton,Tennessee,Hamilton,2021-01-05 10:48:50.875885,2020-06-18 00:00:00.000000,1.47362418,2.38391310,3.42554717,5420,8768,12599,2680,4660,7228,0.72866684,1.26706783,1.96539577,0.18088975,0.23596066,0.37409629
47065,0,USTennesseeHamilton,Tennessee,Hamilton,2021-01-05 10:48:50.875885,2020-06-19 00:00:00.000000,1.47153537,2.41274577,3.48757488,5412,8874,12827,2668,4694,7383,0.72543416,1.27645184,2.00739001,0.17707525,0.23607665,0.36469038
47065,0,USTennesseeHamilton,Tennessee,Hamilton,2021-01-05 10:48:50.875885,2020-06-20 00:00:00.000000,1.48606585,2.44224707,3.54397610,5465,8982,13034,2658,4704,7513,0.72290780,1.27903753,2.04288284,0.16877869,0.23675448,0.34762765
47065,0,USTennesseeHamilton,Tennessee,Hamilton,2021-01-05 10:48:50.875885,2020-06-21 00:00:00.000000,1.50483065,2.47231019,3.60076399,5534,9093,13243,2658,4751,7641,0.72269805,1.29189703,2.07763255,0.16870711,0.23761747,0.33878965
47065,0,USTennesseeHamilton,Tennessee,Hamilton,2021-01-05 10:48:50.875885,2020-06-22 00:00:00.000000,1.52573374,2.50200306,3.66085343,5611,9202,13464,2671,4802,7777,0.72641933,1.30580780,2.11466372,0.17097850,0.23831505,0.33318374
47065,0,USTennesseeHamilton,Tennessee,Hamilton,2021-01-05 10:48:50.875885,2020-06-23 00:00:00.000000,1.54873606,2.51492990,3.72796874,5696,9250,13711,2701,4869,7856,0.73454173,1.32403551,2.13598622,0.17376313,0.24694367,0.33852222
47065,0,USTennesseeHamilton,Tennessee,Hamilton,2021-01-05 10:48:50.875885,2020-06-24 00:00:00.000000,1.57517916,2.54871425,3.78847102,5793,9374,13934,2744,4899,7901,0.74612434,1.33200154,2.14827019,0.17509539,0.25356571,0.33985646
47065,0,USTennesseeHamilton,Tennessee,Hamilton,2021-01-05 10:48:50.875885,2020-06-25 00:00:00.000000,1.60671211,2.59152266,3.81949426,5909,9531,14048,2795,4948,7918,0.76006176,1.34528790,2.15286324,0.17824062,0.25457845,0.34214868
47065,0,USTennesseeHamilton,Tennessee,Hamilton,2021-01-05 10:48:50.875885,2020-06-26 00:00:00.000000,1.62407947,2.62718655,3.87458366,5973,9662,14250,2798,5023,7934,0.76079843,1.36583206,2.15729799,0.18055729,0.25614344,0.33717062
47065,0,USTennesseeHamilton,Tennessee,Hamilton,2021-01-05 10:48:50.875885,2020-06-27 00:00:00.000000,1.62667632,2.66121959,3.91689145,5982,9788,14406,2802,5077,7953,0.76182558,1.38052924,2.16251084,0.18626914,0.25717318,0.33266215
47065,0,USTennesseeHamilton,Tennessee,Hamilton,2021-01-05 10:48:50.875885,2020-06-28 00:00:00.000000,1.65031830,2.69642578,3.94604484,6069,9917,14513,2858,5125,7978,0.77730606,1.39348639,2.16928513,0.18863658,0.26238175,0.33627396
47065,0,USTennesseeHamilton,Tennessee,Hamilton,2021-01-05 10:48:50.875885,2020-06-29 00:00:00.000000,1.68174634,2.71898833,3.97075140,6185,10000,14604,2923,5173,8010,0.79474600,1.40668089,2.17786242,0.19226035,0.26149535,0.34272810
47065,0,USTennesseeHamilton,Tennessee,Hamilton,2021-01-05 10:48:50.875885,2020-06-30 00:00:00.000000,1.71420119,2.74279107,4.04065055,6304,10088,14861,2993,5203,8095,0.81390804,1.41462547,2.20107120,0.19410879,0.26398714,0.34950168
47065,0,USTennesseeHamilton,Tennessee,Hamilton,2021-01-05 10:48:50.875885,2020-07-01 00:00:00.000000,1.74674943,2.76790712,4.12814636,6424,10180,15183,3068,5265,8273,0.83441089,1.43160428,2.24950987,0.19608294,0.26819390,0.36527490
47065,0,USTennesseeHamilton,Tennessee,Hamilton,2021-01-05 10:48:50.875885,2020-07-02 00:00:00.000000,1.77896955,2.79643291,4.21669292,6543,10285,15509,3148,5329,8455,0.85597865,1.44897636,2.29878279,0.20225957,0.26797981,0.37135431
47065,0,USTennesseeHamilton,Tennessee,Hamilton,2021-01-05 10:48:50.875885,2020-07-03 00:00:00.000000,1.81060825,2.82784723,4.30573114,6659,10400,15836,3224,5426,8639,0.87676613,1.47538908,2.34883871,0.20796785,0.26916731,0.36895300
47065,0,USTennesseeHamilton,Tennessee,Hamilton,2021-01-05 10:48:50.875885,2020-07-04 00:00:00.000000,1.84162786,2.87699274,4.39304657,6773,10581,16157,3264,5548,8825,0.88749854,1.50850212,2.39958331,0.20701899,0.27394388,0.36662469
47065,0,USTennesseeHamilton,Tennessee,Hamilton,2021-01-05 10:48:50.875885,2020-07-05 00:00:00.000000,1.87213635,2.93682878,4.46810897,6885,10801,16433,3300,5624,9013,0.89728875,1.52911094,2.45063309,0.20545747,0.27761610,0.37048184
47065,0,USTennesseeHamilton,Tennessee,Hamilton,2021-01-05 10:48:50.875885,2020-07-06 00:00:00.000000,1.90349137,2.97635908,4.51526312,7001,10947,16607,3332,5700,9195,0.90612132,1.54975560,2.50020932,0.20305122,0.27603951,0.38378962
47065,0,USTennesseeHamilton,Tennessee,Hamilton,2021-01-05 10:48:50.875885,2020-07-07 00:00:00.000000,1.93519350,3.01260407,4.54716341,7117,11080,16724,3362,5793,9359,0.91424503,1.57502450,2.54476196,0.19815560,0.27582875,0.38480394
47065,0,USTennesseeHamilton,Tennessee,Hamilton,2021-01-05 10:48:50.875885,2020-07-08 00:00:00.000000,1.96591067,3.04810913,4.57515910,7230,11211,16827,3390,5874,9501,0.92176757,1.59709702,2.58333364,0.19699258,0.27454134,0.38376249
47065,0,USTennesseeHamilton,Tennessee,Hamilton,2021-01-05 10:48:50.875885,2020-07-09 00:00:00.000000,1.99429958,3.10854270,4.60161918,7335,11433,16924,3416,5950,9624,0.92897740,1.61792023,2.61680426,0.19695050,0.27025630,0.38043784
47065,0,USTennesseeHamilton,Tennessee,Hamilton,2021-01-05 10:48:50.875885,2020-07-10 00:00:00.000000,2.02003050,3.14802270,4.62669746,7429,11578,17017,3444,6030,9732,0.93640473,1.63966383,2.64618793,0.19422690,0.26186632,0.36862721
47065,0,USTennesseeHamilton,Tennessee,Hamilton,2021-01-05 10:48:50.875885,2020-07-11 00:00:00.000000,2.04386826,3.17723944,4.64984154,7517,11686,17102,3475,6111,9828,0.94488272,1.66164500,2.67227301,0.19235393,0.25688770,0.36002269
47065,0,USTennesseeHamilton,Tennessee,Hamilton,2021-01-05 10:48:50.875885,2020-07-12 00:00:00.000000,2.06657015,3.22229173,4.66981267,7600,11851,17175,3513,6201,9914,0.95536296,1.68619531,2.69557580,0.18763070,0.25377213,0.34404152
47065,0,USTennesseeHamilton,Tennessee,Hamilton,2021-01-05 10:48:50.875885,2020-07-13 00:00:00.000000,2.08697593,3.27677797,4.68524238,7675,12052,17232,3561,6291,9990,0.96840206,1.71046881,2.71631137,0.18646954,0.24609651,0.34066694
47065,0,USTennesseeHamilton,Tennessee,Hamilton,2021-01-05 10:48:50.875885,2020-07-14 00:00:00.000000,2.10638235,3.30638554,4.69547166,7747,12161,17270,3617,6361,10057,0.98357409,1.72957826,2.73444849,0.18543682,0.24347817,0.33948301
47065,0,USTennesseeHamilton,Tennessee,Hamilton,2021-01-05 10:48:50.875885,2020-07-15 00:00:00.000000,2.12359910,3.31584558,4.70049081,7810,12195,17288,3679,6453,10114,1.00051214,1.75463259,2.74986858,0.18492208,0.23945951,0.33584643
47065,0,USTennesseeHamilton,Tennessee,Hamilton,2021-01-05 10:48:50.875885,2020-07-16 00:00:00.000000,2.13603214,3.32465530,4.70021711,7856,12228,17287,3746,6546,10160,1.01872886,1.77976301,2.76247892,0.18327653,0.23645594,0.33538949
47065,0,USTennesseeHamilton,Tennessee,Hamilton,2021-01-05 10:48:50.875885,2020-07-17 00:00:00.000000,2.12634342,3.34273078,4.69487863,7820,12294,17267,3817,6643,10196,1.03780402,1.80636496,2.77219749,0.17514555,0.22473340,0.33259801
47065,0,USTennesseeHamilton,Tennessee,Hamilton,2021-01-05 10:48:50.875885,2020-07-18 00:00:00.000000,2.11070402,3.35393806,4.74538906,7763,12335,17453,3889,6681,10314,1.05751901,1.81665047,2.80427914,0.17117636,0.22165225,0.32971447
47065,0,USTennesseeHamilton,Tennessee,Hamilton,2021-01-05 10:48:50.875885,2020-07-19 00:00:00.000000,2.09416073,3.36117009,4.81789686,7702,12362,17720,3967,6728,10489,1.07864984,1.82947410,2.85179830,0.16868571,0.22030109,0.32402343
47065,0,USTennesseeHamilton,Tennessee,Hamilton,2021-01-05 10:48:50.875885,2020-07-20 00:00:00.000000,2.07864978,3.36034307,4.87877857,7645,12359,17944,4049,6738,10661,1.10096255,1.83221899,2.89875092,0.15904143,0.21833705,0.31494872
47065,0,USTennesseeHamilton,Tennessee,Hamilton,2021-01-05 10:48:50.875885,2020-07-21 00:00:00.000000,2.06289193,3.34917057,4.90704891,7587,12318,18048,4074,6741,10825,1.10769302,1.83291568,2.94321387,0.15978406,0.21569234,0.30347688
47065,0,USTennesseeHamilton,Tennessee,Hamilton,2021-01-05 10:48:50.875885,2020-07-22 00:00:00.000000,2.04677265,3.32776691,4.89602129,7528,12239,18007,4045,6765,10960,1.09985004,1.83952089,2.98001063,0.15908878,0.21334289,0.29455258
47065,0,USTennesseeHamilton,Tennessee,Hamilton,2021-01-05 10:48:50.875885,2020-07-23 00:00:00.000000,2.03522835,3.29396077,4.86528029,7485,12115,17894,4015,6783,11049,1.09162487,1.84437176,3.00420707,0.15382506,0.21342625,0.28882052
47065,0,USTennesseeHamilton,Tennessee,Hamilton,2021-01-05 10:48:50.875885,2020-07-24 00:00:00.000000,2.02978023,3.26355706,4.82738418,7465,12003,17755,3983,6733,11092,1.08311029,1.83066836,3.01582641,0.15058052,0.20956186,0.28159138
47065,0,USTennesseeHamilton,Tennessee,Hamilton,2021-01-05 10:48:50.875885,2020-07-25 00:00:00.000000,2.00787874,3.25400255,4.78623411,7385,11968,17603,3951,6688,11097,1.07436713,1.81859294,3.01722890,0.15043380,0.20616328,0.27886600
47065,0,USTennesseeHamilton,Tennessee,Hamilton,2021-01-05 10:48:50.875885,2020-07-26 00:00:00.000000,1.97546518,3.22670638,4.74303503,7265,11867,17445,3918,6671,11073,1.06537911,1.81376774,3.01082860,0.14804362,0.20591298,0.28640998
47065,0,USTennesseeHamilton,Tennessee,Hamilton,2021-01-05 10:48:50.875885,2020-07-27 00:00:00.000000,1.94610112,3.20458277,4.69862066,7157,11786,17281,3883,6677,11028,1.05580877,1.81545452,2.99854920,0.14581407,0.20618334,0.28970497
47065,0,USTennesseeHamilton,Tennessee,Hamilton,2021-01-05 10:48:50.875885,2020-07-28 00:00:00.000000,1.91452893,3.18532198,4.65311468,7041,11715,17114,3842,6644,10967,1.04469633,1.80639841,2.98189070,0.14257311,0.20656564,0.28501013
47065,0,USTennesseeHamilton,Tennessee,Hamilton,2021-01-05 10:48:50.875885,2020-07-29 00:00:00.000000,1.88267122,3.16918854,4.60678820,6924,11656,16943,3795,6601,10894,1.03188225,1.79496231,2.96192971,0.14063525,0.20779291,0.27758399
47065,0,USTennesseeHamilton,Tennessee,Hamilton,2021-01-05 10:48:50.875885,2020-07-30 00:00:00.000000,1.85766570,3.14836313,4.61589773,6832,11579,16977,3737,6553,10811,1.01614076,1.78184105,2.93947155,0.13972502,0.20857819,0.27282833
47065,0,USTennesseeHamilton,Tennessee,Hamilton,2021-01-05 10:48:50.875885,2020-07-31 00:00:00.000000,1.87239841,3.12927444,4.63966385,6886,11509,17064,3676,6501,10721,0.99953799,1.76759898,2.91511933,0.13975323,0.21080939,0.27407614
47065,0,USTennesseeHamilton,Tennessee,Hamilton,2021-01-05 10:48:50.875885,2020-08-01 00:00:00.000000,1.88853055,3.10921707,4.65193215,6946,11435,17109,3616,6446,10751,0.98317369,1.75268722,2.92324318,0.14136490,0.21216959,0.27680055
47065,0,USTennesseeHamilton,Tennessee,Hamilton,2021-01-05 10:48:50.875885,2020-08-02 00:00:00.000000,1.90517976,3.07757137,4.65314080,7007,11319,17114,3556,6394,10812,0.96689446,1.73851553,2.93985819,0.14615116,0.21152693,0.28083279
47065,0,USTennesseeHamilton,Tennessee,Hamilton,2021-01-05 10:48:50.875885,2020-08-03 00:00:00.000000,1.89289179,3.05579952,4.65565585,6962,11239,17123,3495,6328,10880,0.95025703,1.72070668,2.95822196,0.14527452,0.21016224,0.28266512
47065,0,USTennesseeHamilton,Tennessee,Hamilton,2021-01-05 10:48:50.875885,2020-08-04 00:00:00.000000,1.85151759,3.01592385,4.67519990,6809,11092,17195,3430,6249,10951,0.93279886,1.69925370,2.97759849,0.14499977,0.20923661,0.28330646
47065,0,USTennesseeHamilton,Tennessee,Hamilton,2021-01-05 10:48:50.875885,2020-08-05 00:00:00.000000,1.81018652,2.97812767,4.69407688,6657,10953,17265,3363,6195,11025,0.91457512,1.68434130,2.99765448,0.14601261,0.20840372,0.28436247
47065,0,USTennesseeHamilton,Tennessee,Hamilton,2021-01-05 10:48:50.875885,2020-08-06 00:00:00.000000,1.76935042,2.97393244,4.71213936,6507,10938,17331,3295,6164,11100,0.89587404,1.67593215,3.01803257,0.14324153,0.20774969,0.28803630
47065,0,USTennesseeHamilton,Tennessee,Hamilton,2021-01-05 10:48:50.875885,2020-08-07 00:00:00.000000,1.72930566,2.94149399,4.72860654,6360,10818,17392,3225,6118,11175,0.87696953,1.66361797,3.03846395,0.14156828,0.20840251,0.29020013
47065,0,USTennesseeHamilton,Tennessee,Hamilton,2021-01-05 10:48:50.875885,2020-08-08 00:00:00.000000,1.69058716,2.91285215,4.74117603,6218,10713,17438,3189,6037,11249,0.86706156,1.64162538,3.05863591,0.13557877,0.20636199,0.28983576
47065,0,USTennesseeHamilton,Tennessee,Hamilton,2021-01-05 10:48:50.875885,2020-08-09 00:00:00.000000,1.65400919,2.89075251,4.73662666,6083,10632,17421,3174,5961,11320,0.86311752,1.62077259,3.07797356,0.13476737,0.20547668,0.29066372
47065,0,USTennesseeHamilton,Tennessee,Hamilton,2021-01-05 10:48:50.875885,2020-08-10 00:00:00.000000,1.61968127,2.86839249,4.70224073,5957,10550,17295,3169,5896,11251,0.86174107,1.60304612,3.05916977,0.13471796,0.20453534,0.29197473
47065,0,USTennesseeHamilton,Tennessee,Hamilton,2021-01-05 10:48:50.875885,2020-08-11 00:00:00.000000,1.58637933,2.84574675,4.65767708,5834,10466,17131,3173,5844,11150,0.86268793,1.58892093,3.03175098,0.13460325,0.20189817,0.29590554
47065,0,USTennesseeHamilton,Tennessee,Hamilton,2021-01-05 10:48:50.875885,2020-08-12 00:00:00.000000,1.56979378,2.82301817,4.61002362,5773,10383,16955,3182,5820,11127,0.86514889,1.58259125,3.02552287,0.13438387,0.19953707,0.29448564
47065,0,USTennesseeHamilton,Tennessee,Hamilton,2021-01-05 10:48:50.875885,2020-08-13 00:00:00.000000,1.55627539,2.80053609,4.55505095,5724,10300,16753,3192,5787,11064,0.86804402,1.57345185,3.00814162,0.13405738,0.20108150,0.29024045
47065,0,USTennesseeHamilton,Tennessee,Hamilton,2021-01-05 10:48:50.875885,2020-08-14 00:00:00.000000,1.54174039,2.77891180,4.48387919,5670,10220,16491,3197,5756,10964,0.86935309,1.56506464,2.98115214,0.13365937,0.20110359,0.28270690
47065,0,USTennesseeHamilton,Tennessee,Hamilton,2021-01-05 10:48:50.875885,2020-08-15 00:00:00.000000,1.52494526,2.75524030,4.42063564,5608,10133,16259,3126,5695,10861,0.85010593,1.54863482,2.95293633,0.13161870,0.20191618,0.27893505
47065,0,USTennesseeHamilton,Tennessee,Hamilton,2021-01-05 10:48:50.875885,2020-08-16 00:00:00.000000,1.50473745,2.71931063,4.36246118,5534,10001,16045,3058,5655,10752,0.83159127,1.53761819,2.92354532,0.12954387,0.20249649,0.27898997
47065,0,USTennesseeHamilton,Tennessee,Hamilton,2021-01-05 10:48:50.875885,2020-08-17 00:00:00.000000,1.48203368,2.70174920,4.30494849,5450,9937,15833,2993,5641,10638,0.81399100,1.53387855,2.89244916,0.12870669,0.20114604,0.27675997
47065,0,USTennesseeHamilton,Tennessee,Hamilton,2021-01-05 10:48:50.875885,2020-08-18 00:00:00.000000,1.45831653,2.69558278,4.24747465,5363,9914,15622,2932,5603,10519,0.79739072,1.52347891,2.86015593,0.12802724,0.19720865,0.27427249
47065,0,USTennesseeHamilton,Tennessee,Hamilton,2021-01-05 10:48:50.875885,2020-08-19 00:00:00.000000,1.43478364,2.68705897,4.18994376,5277,9883,15410,2875,5576,10397,0.78183516,1.51623387,2.82698563,0.12749403,0.19689855,0.26420419
47065,0,USTennesseeHamilton,Tennessee,Hamilton,2021-01-05 10:48:50.875885,2020-08-20 00:00:00.000000,1.41243478,2.66708544,4.13164330,5194,9809,15196,2821,5549,10273,0.76704377,1.50875378,2.79310580,0.12756982,0.19432717,0.26356424
47065,0,USTennesseeHamilton,Tennessee,Hamilton,2021-01-05 10:48:50.875885,2020-08-21 00:00:00.000000,1.39187312,2.61983424,4.07157668,5119,9635,14975,2769,5520,10146,0.75288563,1.50088663,2.75864235,0.12972494,0.19401950,0.26441155
47065,0,USTennesseeHamilton,Tennessee,Hamilton,2021-01-05 10:48:50.875885,2020-08-22 00:00:00.000000,1.37302620,2.59265686,4.00895797,5050,9535,14745,2719,5469,10017,0.73925495,1.48719729,2.72365627,0.12698100,0.19459925,0.26700820
47065,0,USTennesseeHamilton,Tennessee,Hamilton,2021-01-05 10:48:50.875885,2020-08-23 00:00:00.000000,1.35526976,2.56364003,3.94893463,4984,9429,14524,2670,5404,9887,0.72609167,1.46949478,2.68816265,0.12541498,0.19256018,0.26696253
47065,0,USTennesseeHamilton,Tennessee,Hamilton,2021-01-05 10:48:50.875885,2020-08-24 00:00:00.000000,1.33868461,2.52919207,3.88735006,4923,9302,14297,2624,5336,9754,0.71342946,1.45082840,2.65220402,0.12591703,0.18811866,0.26640678
47065,0,USTennesseeHamilton,Tennessee,Hamilton,2021-01-05 10:48:50.875885,2020-08-25 00:00:00.000000,1.32166346,2.51070123,3.82464643,4861,9234,14067,2579,5264,9565,0.70142898,1.43125603,2.60058821,0.12641051,0.19115445,0.26573382
47065,0,USTennesseeHamilton,Tennessee,Hamilton,2021-01-05 10:48:50.875885,2020-08-26 00:00:00.000000,1.30354494,2.48174183,3.76166397,4794,9127,13835,2538,5189,9370,0.69028364,1.41101675,2.54760068,0.12708313,0.19090471,0.26512100
47065,0,USTennesseeHamilton,Tennessee,Hamilton,2021-01-05 10:48:50.875885,2020-08-27 00:00:00.000000,1.28384066,2.45353945,3.69869040,4722,9024,13603,2501,5131,9180,0.68003775,1.39504455,2.49611141,0.13040575,0.19266228,0.26350485
47065,0,USTennesseeHamilton,Tennessee,Hamilton,2021-01-05 10:48:50.875885,2020-08-28 00:00:00.000000,1.26257954,2.42741767,3.63816809,4643,8928,13381,2466,5074,8996,0.67067559,1.37971155,2.44592202,0.13246562,0.19212417,0.26630152
47065,0,USTennesseeHamilton,Tennessee,Hamilton,2021-01-05 10:48:50.875885,2020-08-29 00:00:00.000000,1.24042430,2.39655533,3.56750229,4562,8814,13121,2436,4997,8835,0.66236206,1.35869911,2.40209502,0.13346326,0.19607983,0.28498212
47065,0,USTennesseeHamilton,Tennessee,Hamilton,2021-01-05 10:48:50.875885,2020-08-30 00:00:00.000000,1.21843676,2.36490819,3.48906663,4481,8698,12832,2411,4947,8712,0.65557520,1.34522098,2.36887742,0.13636484,0.19567833,0.28362725
47065,0,USTennesseeHamilton,Tennessee,Hamilton,2021-01-05 10:48:50.875885,2020-08-31 00:00:00.000000,1.19657276,2.34192975,3.41652464,4401,8613,12566,2393,4905,8601,0.65071507,1.33379735,2.33861141,0.13404773,0.19681205,0.28056226
47065,0,USTennesseeHamilton,Tennessee,Hamilton,2021-01-05 10:48:50.875885,2020-09-01 00:00:00.000000,1.17666557,2.30818326,3.34557933,4327,8489,12305,2353,4870,8498,0.63976383,1.32427206,2.31062775,0.13415418,0.19749146,0.27891603
47065,0,USTennesseeHamilton,Tennessee,Hamilton,2021-01-05 10:48:50.875885,2020-09-02 00:00:00.000000,1.15898532,2.27884647,3.27619891,4262,8381,12049,2282,4841,8403,0.62056700,1.31632115,2.28473443,0.13434927,0.19603197,0.27771287
47065,0,USTennesseeHamilton,Tennessee,Hamilton,2021-01-05 10:48:50.875885,2020-09-03 00:00:00.000000,1.14351387,2.22234071,3.20866776,4205,8173,11801,2213,4816,8315,0.60171080,1.30960961,2.26081058,0.13491368,0.19624630,0.27627531
47065,0,USTennesseeHamilton,Tennessee,Hamilton,2021-01-05 10:48:50.875885,2020-09-04 00:00:00.000000,1.12957776,2.19575766,3.14375835,4154,8076,11562,2145,4772,8222,0.58327859,1.29753974,2.23557652,0.13635863,0.19818781,0.28148222
47065,0,USTennesseeHamilton,Tennessee,Hamilton,2021-01-05 10:48:50.875885,2020-09-05 00:00:00.000000,1.11676996,2.18308234,3.08243842,4107,8029,11337,2079,4705,8054,0.56533266,1.27932165,2.18975576,0.13902578,0.20354346,0.27868273
47065,0,USTennesseeHamilton,Tennessee,Hamilton,2021-01-05 10:48:50.875885,2020-09-06 00:00:00.000000,1.08437350,2.17002540,3.02462656,3988,7981,11124,2015,4644,7891,0.54797337,1.26286741,2.14550719,0.13972024,0.20651515,0.27098993
47065,0,USTennesseeHamilton,Tennessee,Hamilton,2021-01-05 10:48:50.875885,2020-09-07 00:00:00.000000,1.05778155,2.14590736,2.96888425,3890,7892,10919,1954,4591,7735,0.53150057,1.24822552,2.10305354,0.13863644,0.20735075,0.28142788
47065,0,USTennesseeHamilton,Tennessee,Hamilton,2021-01-05 10:48:50.875885,2020-09-08 00:00:00.000000,1.03963770,2.11666122,2.91473181,3823,7785,10720,1899,4536,7585,0.51648841,1.23344378,2.06226166,0.14050241,0.21018530,0.28342552
47065,0,USTennesseeHamilton,Tennessee,Hamilton,2021-01-05 10:48:50.875885,2020-09-09 00:00:00.000000,1.02824626,2.07886535,2.87721487,3781,7646,10582,1852,4456,7440,0.50379147,1.21170773,2.02293970,0.14425692,0.21101491,0.29128393
47065,0,USTennesseeHamilton,Tennessee,Hamilton,2021-01-05 10:48:50.875885,2020-09-10 00:00:00.000000,1.02006336,2.06530540,2.84201146,3751,7596,10453,1815,4404,7300,0.49370587,1.19741484,1.98489393,0.14647574,0.21200302,0.30006900
47065,0,USTennesseeHamilton,Tennessee,Hamilton,2021-01-05 10:48:50.875885,2020-09-11 00:00:00.000000,1.01341305,2.04191335,2.82776285,3727,7510,10400,1786,4334,7165,0.48584891,1.17853239,1.94827629,0.14696390,0.21825286,0.30687345
47065,0,USTennesseeHamilton,Tennessee,Hamilton,2021-01-05 10:48:50.875885,2020-09-12 00:00:00.000000,1.00878363,2.02275591,2.82391753,3710,7439,10386,1764,4289,7049,0.47968681,1.16626746,1.91661984,0.15610187,0.22474404,0.31379047
47065,0,USTennesseeHamilton,Tennessee,Hamilton,2021-01-05 10:48:50.875885,2020-09-13 00:00:00.000000,1.01015005,2.02053560,2.82098431,3715,7431,10375,1746,4251,6974,0.47494394,1.15580329,1.89619416,0.15196590,0.23161692,0.32688901
47065,0,USTennesseeHamilton,Tennessee,Hamilton,2021-01-05 10:48:50.875885,2020-09-14 00:00:00.000000,1.01781217,2.01065768,2.82317743,3743,7395,10383,1736,4206,6933,0.47207795,1.14379291,1.88518330,0.14727642,0.23820045,0.33837210
47065,0,USTennesseeHamilton,Tennessee,Hamilton,2021-01-05 10:48:50.875885,2020-09-15 00:00:00.000000,1.02738974,1.99760565,2.84060575,3778,7347,10447,1734,4160,6918,0.47145522,1.13122209,1.88089700,0.14639342,0.24235175,0.34612607
47065,0,USTennesseeHamilton,Tennessee,Hamilton,2021-01-05 10:48:50.875885,2020-09-16 00:00:00.000000,1.03758220,1.98537944,2.85825518,3816,7302,10512,1738,4133,6919,0.47261799,1.12395359,1.88133779,0.15736918,0.24476381,0.34758754
47065,0,USTennesseeHamilton,Tennessee,Hamilton,2021-01-05 10:48:50.875885,2020-09-17 00:00:00.000000,1.04758024,1.98202249,2.87616404,3853,7289,10578,1747,4086,6933,0.47503858,1.11093660,1.88509748,0.16841108,0.24797945,0.36193604
47065,0,USTennesseeHamilton,Tennessee,Hamilton,2021-01-05 10:48:50.875885,2020-09-18 00:00:00.000000,1.05288948,1.98287391,2.89485747,3872,7293,10647,1759,4023,6955,0.47832657,1.09400270,1.89121430,0.18363637,0.25289778,0.37422321
47065,0,USTennesseeHamilton,Tennessee,Hamilton,2021-01-05 10:48:50.875885,2020-09-19 00:00:00.000000,1.06117148,1.98113885,2.91595413,3903,7286,10724,1773,3969,6985,0.48221609,1.07913696,1.89913036,0.18610724,0.25590146,0.37946207
47065,0,USTennesseeHamilton,Tennessee,Hamilton,2021-01-05 10:48:50.875885,2020-09-20 00:00:00.000000,1.07160483,1.96766886,2.94135239,3941,7237,10818,1789,3960,7020,0.48653656,1.07692498,1.90878500,0.17670815,0.26705795,0.39791134
47065,0,USTennesseeHamilton,Tennessee,Hamilton,2021-01-05 10:48:50.875885,2020-09-21 00:00:00.000000,1.08344924,1.95165170,2.97057076,3984,7178,10925,1806,3962,7063,0.49119522,1.07733769,1.92052062,0.17792483,0.27166908,0.41118915
47065,0,USTennesseeHamilton,Tennessee,Hamilton,2021-01-05 10:48:50.875885,2020-09-22 00:00:00.000000,1.09656756,1.94964263,3.00115046,4033,7170,11038,1825,3964,7115,0.49620024,1.07783076,1.93448366,0.18380687,0.27693119,0.43779981
47065,0,USTennesseeHamilton,Tennessee,Hamilton,2021-01-05 10:48:50.875885,2020-09-23 00:00:00.000000,1.11126067,1.98858906,3.03213688,4087,7314,11152,1844,3942,7173,0.50152574,1.07192109,1.95028437,0.18818927,0.27619846,0.44632241
47065,0,USTennesseeHamilton,Tennessee,Hamilton,2021-01-05 10:48:50.875885,2020-09-24 00:00:00.000000,1.12828254,1.99822678,3.06329719,4149,7349,11266,1865,3910,7236,0.50714109,1.06310366,1.96745153,0.19104196,0.28390942,0.44497668
47065,0,USTennesseeHamilton,Tennessee,Hamilton,2021-01-05 10:48:50.875885,2020-09-25 00:00:00.000000,1.14800240,2.02531729,3.09482734,4222,7449,11382,1886,3895,7303,0.51302827,1.05924214,1.98560861,0.20045165,0.28721171,0.44134772
47065,0,USTennesseeHamilton,Tennessee,Hamilton,2021-01-05 10:48:50.875885,2020-09-26 00:00:00.000000,1.16972428,2.05316499,3.12767897,4302,7551,11503,1909,3887,7372,0.51920154,1.05701302,2.00453236,0.20649675,0.29338202,0.43505392
47065,0,USTennesseeHamilton,Tennessee,Hamilton,2021-01-05 10:48:50.875885,2020-09-27 00:00:00.000000,1.19289876,2.05964335,3.16435559,4387,7575,11638,1962,3923,7445,0.53368887,1.06670767,2.02425251,0.21589030,0.29286133,0.42533287
47065,0,USTennesseeHamilton,Tennessee,Hamilton,2021-01-05 10:48:50.875885,2020-09-28 00:00:00.000000,1.21766028,2.07382167,3.20885024,4478,7627,11802,2027,3966,7522,0.55137908,1.07835125,2.04528222,0.21620939,0.29464226,0.43139096
47065,0,USTennesseeHamilton,Tennessee,Hamilton,2021-01-05 10:48:50.875885,2020-09-29 00:00:00.000000,1.24306930,2.09025020,3.26375433,4572,7688,12004,2087,4014,7609,0.56753301,1.09142132,2.06879233,0.21479003,0.29782104,0.45088249
47065,0,USTennesseeHamilton,Tennessee,Hamilton,2021-01-05 10:48:50.875885,2020-09-30 00:00:00.000000,1.26900293,2.10120497,3.32930929,4667,7728,12245,2142,4061,7709,0.58254090,1.10425474,2.09612896,0.21371601,0.30202479,0.44432635
47065,0,USTennesseeHamilton,Tennessee,Hamilton,2021-01-05 10:48:50.875885,2020-10-01 00:00:00.000000,1.29545562,2.13385540,3.40621606,4764,7848,12528,2195,4089,7827,0.59682900,1.11173494,2.12827717,0.20990988,0.30789595,0.45028275
47065,0,USTennesseeHamilton,Tennessee,Hamilton,2021-01-05 10:48:50.875885,2020-10-02 00:00:00.000000,1.32281732,2.17237126,3.49427990,4865,7990,12852,2246,4133,7966,0.61070083,1.12385797,2.16604934,0.21262754,0.31108070,0.44287093
47065,0,USTennesseeHamilton,Tennessee,Hamilton,2021-01-05 10:48:50.875885,2020-10-03 00:00:00.000000,1.35276426,2.20351150,3.59086120,4975,8104,13207,2297,4189,8128,0.62454689,1.13910380,2.20996576,0.21780682,0.31435886,0.44555063
47065,0,USTennesseeHamilton,Tennessee,Hamilton,2021-01-05 10:48:50.875885,2020-10-04 00:00:00.000000,1.38508544,2.22820558,3.69282025,5094,8195,13582,2347,4246,8257,0.63812389,1.15469040,2.24503845,0.22379131,0.31687722,0.45211417
47065,0,USTennesseeHamilton,Tennessee,Hamilton,2021-01-05 10:48:50.875885,2020-10-05 00:00:00.000000,1.41799151,2.27902910,3.79796594,5215,8382,13969,2395,4320,8362,0.65119318,1.17474432,2.27368194,0.22284349,0.31662844,0.45915388
47065,0,USTennesseeHamilton,Tennessee,Hamilton,2021-01-05 10:48:50.875885,2020-10-06 00:00:00.000000,1.45133462,2.32121152,3.90336327,5338,8537,14356,2440,4373,8480,0.66343853,1.18904562,2.30565900,0.22991767,0.31767647,0.46218208
47065,0,USTennesseeHamilton,Tennessee,Hamilton,2021-01-05 10:48:50.875885,2020-10-07 00:00:00.000000,1.47705151,2.33874609,4.00205342,5432,8602,14719,2481,4450,8660,0.67473748,1.21008545,2.35456604,0.23119975,0.31792917,0.46296236
47065,0,USTennesseeHamilton,Tennessee,Hamilton,2021-01-05 10:48:50.875885,2020-10-08 00:00:00.000000,1.49691093,2.38267310,4.07648071,5505,8763,14993,2520,4515,8854,0.68523202,1.22761852,2.40746085,0.23365834,0.31963819,0.46270913
47065,0,USTennesseeHamilton,Tennessee,Hamilton,2021-01-05 10:48:50.875885,2020-10-09 00:00:00.000000,1.52060647,2.42168646,4.12184804,5592,8907,15160,2557,4588,9043,0.69533289,1.24759790,2.45878819,0.23566143,0.31808798,0.46032032
47065,0,USTennesseeHamilton,Tennessee,Hamilton,2021-01-05 10:48:50.875885,2020-10-10 00:00:00.000000,1.54722812,2.46353574,4.14043386,5690,9060,15228,2595,4636,9215,0.70578602,1.26071386,2.50562157,0.24083242,0.32370260,0.44978966
47065,0,USTennesseeHamilton,Tennessee,Hamilton,2021-01-05 10:48:50.875885,2020-10-11 00:00:00.000000,1.57483998,2.49963355,4.14934061,5792,9193,15261,2636,4704,9358,0.71694665,1.27909556,2.54453118,0.23982651,0.33109285,0.44026855
47065,0,USTennesseeHamilton,Tennessee,Hamilton,2021-01-05 10:48:50.875885,2020-10-12 00:00:00.000000,1.60432285,2.53940385,4.15423197,5900,9340,15279,2680,4796,9470,0.72871139,1.30421406,2.57477068,0.25252082,0.34061591,0.43566698
47065,0,USTennesseeHamilton,Tennessee,Hamilton,2021-01-05 10:48:50.875885,2020-10-13 00:00:00.000000,1.63428616,2.61377168,4.15852138,6010,9613,15295,2725,4876,9554,0.74115436,1.32578978,2.59765879,0.26538990,0.34550084,0.44159526
47065,0,USTennesseeHamilton,Tennessee,Hamilton,2021-01-05 10:48:50.875885,2020-10-14 00:00:00.000000,1.66473111,2.67765417,4.16428449,6122,9848,15316,2774,4954,9715,0.75441571,1.34693651,2.64152590,0.26549491,0.34839239,0.44229221
47065,0,USTennesseeHamilton,Tennessee,Hamilton,2021-01-05 10:48:50.875885,2020-10-15 00:00:00.000000,1.69557042,2.74281295,4.17389825,6236,10088,15351,2825,5041,9894,0.76813772,1.37081111,2.69024650,0.26598996,0.35654375,0.45418737
47065,0,USTennesseeHamilton,Tennessee,Hamilton,2021-01-05 10:48:50.875885,2020-10-16 00:00:00.000000,1.72668337,2.82230996,4.18963882,6350,10380,15409,2876,5167,10057,0.78220494,1.40496467,2.73460489,0.26004034,0.36022473,0.46245247
47065,0,USTennesseeHamilton,Tennessee,Hamilton,2021-01-05 10:48:50.875885,2020-10-17 00:00:00.000000,1.75791589,2.89497445,4.21238942,6465,10647,15493,2929,5304,10096,0.79653854,1.44215142,2.74498353,0.24944809,0.35805017,0.48950445
47065,0,USTennesseeHamilton,Tennessee,Hamilton,2021-01-05 10:48:50.875885,2020-10-18 00:00:00.000000,1.78899833,2.96945281,4.24395947,6580,10921,15609,2983,5439,10139,0.81106222,1.47903976,2.75689529,0.25602099,0.36368047,0.49081194
47065,0,USTennesseeHamilton,Tennessee,Hamilton,2021-01-05 10:48:50.875885,2020-10-19 00:00:00.000000,1.81870032,3.06616176,4.33736953,6689,11277,15953,3036,5627,10192,0.82568118,1.52992484,2.77105661,0.26048118,0.36351976,0.51432888
47065,0,USTennesseeHamilton,Tennessee,Hamilton,2021-01-05 10:48:50.875885,2020-10-20 00:00:00.000000,1.84736304,3.14853631,4.43298455,6794,11580,16304,3090,5794,10264,0.84012577,1.57549799,2.79080498,0.26341225,0.36564061,0.51498735
47065,0,USTennesseeHamilton,Tennessee,Hamilton,2021-01-05 10:48:50.875885,2020-10-21 00:00:00.000000,1.87504936,3.20283554,4.53107269,6896,11780,16665,3142,5925,10431,0.85427493,1.61106691,2.83609923,0.27075167,0.36679487,0.53297350
47065,0,USTennesseeHamilton,Tennessee,Hamilton,2021-01-05 10:48:50.875885,2020-10-22 00:00:00.000000,1.90227110,3.30420200,4.63110519,6996,12152,17033,3192,6093,10606,0.86806490,1.65665767,2.88362844,0.27380131,0.37186374,0.53117671
47065,0,USTennesseeHamilton,Tennessee,Hamilton,2021-01-05 10:48:50.875885,2020-10-23 00:00:00.000000,1.95948592,3.37939217,4.79960927,7207,12429,17653,3242,6254,10786,0.88154166,1.70040986,2.93272039,0.27865747,0.37720986,0.53119758
47065,0,USTennesseeHamilton,Tennessee,Hamilton,2021-01-05 10:48:50.875885,2020-10-24 00:00:00.000000,2.03470111,3.46380535,4.97562200,7483,12740,18300,3291,6415,10970,0.89480470,1.74427782,2.98262398,0.28542912,0.39134516,0.53334451
47065,0,USTennesseeHamilton,Tennessee,Hamilton,2021-01-05 10:48:50.875885,2020-10-25 00:00:00.000000,2.11273733,3.55017900,5.15223466,7770,13057,18950,3339,6551,11152,0.90796212,1.78127777,3.03228613,0.29224229,0.39730284,0.53329852
47065,0,USTennesseeHamilton,Tennessee,Hamilton,2021-01-05 10:48:50.875885,2020-10-26 00:00:00.000000,2.19371163,3.62782777,5.33033217,8068,13343,19605,3388,6720,11329,0.92120300,1.82710312,3.08032532,0.28887898,0.40218693,0.53242616
47065,0,USTennesseeHamilton,Tennessee,Hamilton,2021-01-05 10:48:50.875885,2020-10-27 00:00:00.000000,2.27735059,3.72435051,5.51148941,8376,13698,20271,3496,6870,11497,0.95053263,1.86808295,3.12604954,0.29028262,0.40418303,0.53337652
47065,0,USTennesseeHamilton,Tennessee,Hamilton,2021-01-05 10:48:50.875885,2020-10-28 00:00:00.000000,2.36365417,3.85860786,5.69597775,8693,14192,20950,3627,7079,11720,0.98630672,1.92477559,3.18659311,0.29468742,0.40416663,0.54345819
47065,0,USTennesseeHamilton,Tennessee,Hamilton,2021-01-05 10:48:50.875885,2020-10-29 00:00:00.000000,2.45264066,3.99469574,5.83213626,9020,14692,21450,3764,7296,12011,1.02352003,1.98389359,3.26584979,0.30378444,0.40704823,0.54817027
47065,0,USTennesseeHamilton,Tennessee,Hamilton,2021-01-05 10:48:50.875885,2020-10-30 00:00:00.000000,2.54443574,4.09049761,5.95737061,9358,15045,21911,3906,7528,12319,1.06210139,2.04674714,3.34943190,0.31713068,0.41239230,0.56416645
47065,0,USTennesseeHamilton,Tennessee,Hamilton,2021-01-05 10:48:50.875885,2020-10-31 00:00:00.000000,2.63921984,4.18189295,6.07723419,9707,15381,22352,4053,7754,12642,1.10202605,2.10844089,3.43717280,0.32070920,0.42383901,0.57338654
47065,0,USTennesseeHamilton,Tennessee,Hamilton,2021-01-05 10:48:50.875885,2020-11-01 00:00:00.000000,2.73735351,4.31148941,6.18953579,10068,15857,22765,4205,7918,12978,1.14330814,2.15291034,3.52858414,0.32111721,0.42623880,0.57604247
47065,0,USTennesseeHamilton,Tennessee,Hamilton,2021-01-05 10:48:50.875885,2020-11-02 00:00:00.000000,2.84066641,4.43918353,6.29784374,10448,16327,23163,4362,8179,13288,1.18601391,2.22380080,3.61290376,0.32130504,0.41487556,0.56164830
47065,0,USTennesseeHamilton,Tennessee,Hamilton,2021-01-05 10:48:50.875885,2020-11-03 00:00:00.000000,2.95418601,4.57863413,6.40642850,10865,16840,23563,4525,8382,13549,1.23047787,2.27897515,3.68400827,0.32137757,0.41712209,0.56131649
47065,0,USTennesseeHamilton,Tennessee,Hamilton,2021-01-05 10:48:50.875885,2020-11-04 00:00:00.000000,3.08237508,4.71563097,6.51636408,11337,17344,23967,4699,8639,13807,1.27772435,2.34888517,3.75407480,0.32143537,0.41868713,0.59024532
47065,0,USTennesseeHamilton,Tennessee,Hamilton,2021-01-05 10:48:50.875885,2020-11-05 00:00:00.000000,3.16908147,4.81019677,6.62914691,11656,17692,24382,4888,8956,14062,1.32915091,2.43515351,3.82344457,0.32136445,0.41756622,0.60690053
47065,0,USTennesseeHamilton,Tennessee,Hamilton,2021-01-05 10:48:50.875885,2020-11-06 00:00:00.000000,3.25386520,4.89440380,6.74674483,11967,18001,24814,5094,9217,14318,1.38506960,2.50600693,3.89300060,0.32234287,0.42853509,0.59768238
47065,0,USTennesseeHamilton,Tennessee,Hamilton,2021-01-05 10:48:50.875885,2020-11-07 00:00:00.000000,3.34358704,4.98985562,6.89084509,12297,18352,25344,5314,9437,14577,1.44493401,2.56588597,3.96338873,0.32460957,0.42578679,0.59292158
47065,0,USTennesseeHamilton,Tennessee,Hamilton,2021-01-05 10:48:50.875885,2020-11-08 00:00:00.000000,3.43778821,5.11149562,7.13575368,12644,18800,26245,5546,9680,14842,1.50800111,2.63191955,4.03531102,0.32922329,0.42749955,0.58916363
47065,0,USTennesseeHamilton,Tennessee,Hamilton,2021-01-05 10:48:50.875885,2020-11-09 00:00:00.000000,3.53451531,5.25062691,7.38543139,13000,19312,27163,5786,9912,15114,1.57337507,2.69494631,4.10927312,0.31933024,0.42878201,0.58065730
47065,0,USTennesseeHamilton,Tennessee,Hamilton,2021-01-05 10:48:50.875885,2020-11-10 00:00:00.000000,3.63306510,5.39361529,7.63480779,13362,19837,28081,6030,10141,15394,1.63965466,2.75742259,4.18541048,0.31644639,0.43283970,0.58296973
47065,0,USTennesseeHamilton,Tennessee,Hamilton,2021-01-05 10:48:50.875885,2020-11-11 00:00:00.000000,3.73333394,5.59817446,7.88393357,13731,20590,28997,6270,10538,15681,1.70479354,2.86512188,4.26352804,0.31616999,0.43647264,0.58094647
47065,0,USTennesseeHamilton,Tennessee,Hamilton,2021-01-05 10:48:50.875885,2020-11-12 00:00:00.000000,3.83666861,5.74593761,8.13162888,14111,21133,29908,6435,10820,15974,1.74980264,2.94183808,4.34320396,0.31337590,0.43593821,0.57847680
47065,0,USTennesseeHamilton,Tennessee,Hamilton,2021-01-05 10:48:50.875885,2020-11-13 00:00:00.000000,3.94810666,5.91073678,8.36808496,14521,21739,30778,6587,11102,16270,1.79111672,3.01861313,4.42382176,0.30760877,0.43192534,0.57507032
47065,0,USTennesseeHamilton,Tennessee,Hamilton,2021-01-05 10:48:50.875885,2020-11-14 00:00:00.000000,4.07321173,6.07937048,8.49426612,14981,22360,31242,6760,11341,16567,1.83807780,3.08359508,4.50451356,0.30212422,0.42719191,0.57219180
47065,0,USTennesseeHamilton,Tennessee,Hamilton,2021-01-05 10:48:50.875885,2020-11-15 00:00:00.000000,4.15169086,6.23256721,8.63111135,15270,22923,31745,6962,11568,16861,1.89302769,3.14538188,4.58424112,0.29903857,0.43006871,0.57013188
47065,0,USTennesseeHamilton,Tennessee,Hamilton,2021-01-05 10:48:50.875885,2020-11-16 00:00:00.000000,4.17745973,6.36887973,8.86661304,15364,23424,32611,7181,11780,17147,1.95256858,3.20294993,4.66224010,0.30271465,0.43268472,0.56883425
47065,0,USTennesseeHamilton,Tennessee,Hamilton,2021-01-05 10:48:50.875885,2020-11-17 00:00:00.000000,4.20182402,6.50313316,9.09922062,15454,23918,33467,7301,11930,17583,1.98525489,3.24383298,4.78054591,0.29976782,0.43537800,0.56816785
47065,0,USTennesseeHamilton,Tennessee,Hamilton,2021-01-05 10:48:50.875885,2020-11-18 00:00:00.000000,4.22813571,6.65634160,9.32693010,15551,24482,34304,7410,12226,18192,2.01479337,3.32413043,4.94618069,0.30885228,0.43810732,0.57921237
47065,0,USTennesseeHamilton,Tennessee,Hamilton,2021-01-05 10:48:50.875885,2020-11-19 00:00:00.000000,4.26047952,6.85199613,9.55189666,15670,25201,35132,7512,12570,18796,2.04248148,3.41761308,5.11041119,0.32073284,0.44577865,0.58212541
47065,0,USTennesseeHamilton,Tennessee,Hamilton,2021-01-05 10:48:50.875885,2020-11-20 00:00:00.000000,4.30304604,7.04247589,9.77550148,15826,25902,35954,7612,12898,19072,2.06976345,3.50701566,5.18559712,0.34110755,0.45542467,0.62279079
47065,0,USTennesseeHamilton,Tennessee,Hamilton,2021-01-05 10:48:50.875885,2020-11-21 00:00:00.000000,4.35855444,7.20059878,10.00073972,16030,26484,36783,7718,13240,19353,2.09853841,3.59993636,5.26201979,0.35966234,0.46264969,0.66392912
47065,0,USTennesseeHamilton,Tennessee,Hamilton,2021-01-05 10:48:50.875885,2020-11-22 00:00:00.000000,4.42716933,7.41427584,10.22390869,16283,27270,37603,7839,13556,19660,2.13129929,3.68565978,5.34544193,0.36154454,0.48052018,0.66902662
47065,0,USTennesseeHamilton,Tennessee,Hamilton,2021-01-05 10:48:50.875885,2020-11-23 00:00:00.000000,4.50809549,7.66402540,10.51238755,16580,28188,38664,7983,13969,20017,2.17067950,3.79804074,5.44253279,0.36858672,0.50270520,0.67255788
47065,0,USTennesseeHamilton,Tennessee,Hamilton,2021-01-05 10:48:50.875885,2020-11-24 00:00:00.000000,4.60806424,7.88599091,10.84784021,16948,29004,39898,8159,14421,20440,2.21851182,3.92089488,5.55752515,0.37999808,0.51553972,0.67311078
47065,0,USTennesseeHamilton,Tennessee,Hamilton,2021-01-05 10:48:50.875885,2020-11-25 00:00:00.000000,4.74576453,8.12225463,11.24097800,17455,29873,41344,8368,14879,20934,2.27522442,4.04541292,5.69188976,0.38712583,0.52710101,0.69597507
47065,0,USTennesseeHamilton,Tennessee,Hamilton,2021-01-05 10:48:50.875885,2020-11-26 00:00:00.000000,4.92378737,8.30934983,11.63329382,18109,30562,42787,8607,15418,21501,2.34029677,4.19209108,5.84592963,0.39959500,0.53301876,0.73377876
47065,0,USTennesseeHamilton,Tennessee,Hamilton,2021-01-05 10:48:50.875885,2020-11-27 00:00:00.000000,5.12154722,8.55330325,12.02182637,18837,31459,44216,8875,15905,22154,2.41304536,4.32438901,6.02346078,0.41941178,0.54432800,0.76437775
47065,0,USTennesseeHamilton,Tennessee,Hamilton,2021-01-05 10:48:50.875885,2020-11-28 00:00:00.000000,5.32774517,8.82458134,12.42708605,19595,32457,45707,9169,16402,22921,2.49308446,4.45963813,6.23210356,0.44281424,0.55700271,0.78933461
47065,0,USTennesseeHamilton,Tennessee,Hamilton,2021-01-05 10:48:50.875885,2020-11-29 00:00:00.000000,5.53845950,9.15854327,13.16923521,20370,33685,48436,9489,16971,23955,2.58016921,4.61427539,6.51308740,0.44359205,0.57608908,0.80333734
47065,0,USTennesseeHamilton,Tennessee,Hamilton,2021-01-05 10:48:50.875885,2020-11-30 00:00:00.000000,5.75142617,9.52025512,13.70640634,21153,35015,50412,9834,17591,25137,2.67378318,4.78276205,6.83440459,0.44790575,0.59356006,0.81025281
47065,0,USTennesseeHamilton,Tennessee,Hamilton,2021-01-05 10:48:50.875885,2020-12-01 00:00:00.000000,5.96505912,9.87679747,14.22549533,21939,36327,52321,10199,18098,26470,2.77303543,4.92069723,7.19681083,0.44179019,0.60924464,0.81350019
47065,0,USTennesseeHamilton,Tennessee,Hamilton,2021-01-05 10:48:50.875885,2020-12-02 00:00:00.000000,6.17756827,10.26986675,14.76062368,22721,37772,54290,10581,18717,27926,2.87697169,5.08889031,7.59290089,0.43854165,0.62096387,0.82085710
47065,0,USTennesseeHamilton,Tennessee,Hamilton,2021-01-05 10:48:50.875885,2020-12-03 00:00:00.000000,6.38708878,10.69549919,15.39711044,23491,39338,56631,10978,19301,29485,2.98476511,5.24786322,8.01666437,0.44502931,0.63138172,0.82470562
47065,0,USTennesseeHamilton,Tennessee,Hamilton,2021-01-05 10:48:50.875885,2020-12-04 00:00:00.000000,6.59178718,11.12053949,16.02904180,24244,40901,58955,11386,19967,31128,3.09586845,5.42882813,8.46323084,0.46550732,0.64449435,0.82968175
47065,0,USTennesseeHamilton,Tennessee,Hamilton,2021-01-05 10:48:50.875885,2020-12-05 00:00:00.000000,6.79013310,11.57175362,16.67592404,24974,42561,61334,11807,20662,32830,3.21013473,5.61782770,8.92602017,0.48735984,0.65913644,0.83645404
47065,0,USTennesseeHamilton,Tennessee,Hamilton,2021-01-05 10:48:50.875885,2020-12-06 00:00:00.000000,6.98115186,12.11400886,17.34782517,25676,44555,63805,12240,21362,34586,3.32795999,5.80801539,9.40344509,0.51057556,0.66208547,0.88883060
47065,0,USTennesseeHamilton,Tennessee,Hamilton,2021-01-05 10:48:50.875885,2020-12-07 00:00:00.000000,7.16637902,12.56021973,17.99164158,26358,46196,66173,12690,22174,36386,3.45042008,6.02886124,9.89292436,0.52058697,0.66637304,0.90125764
47065,0,USTennesseeHamilton,Tennessee,Hamilton,2021-01-05 10:48:50.875885,2020-12-08 00:00:00.000000,7.34399737,13.04903485,18.60248069,27011,47994,68420,13164,22934,38111,3.57922105,6.23562061,10.36182443,0.52182617,0.67707343,0.91350833
47065,0,USTennesseeHamilton,Tennessee,Hamilton,2021-01-05 10:48:50.875885,2020-12-09 00:00:00.000000,7.51475168,13.44334198,19.17402000,27639,49445,70522,13668,23887,39587,3.71617968,6.49463024,10.76321692,0.52223833,0.68552795,0.99251372
47065,0,USTennesseeHamilton,Tennessee,Hamilton,2021-01-05 10:48:50.875885,2020-12-10 00:00:00.000000,7.68041537,13.82772619,19.70194168,28248,50858,72464,14205,24919,41024,3.86229752,6.77529436,11.15382788,0.52221515,0.68438036,0.99309927
47065,0,USTennesseeHamilton,Tennessee,Hamilton,2021-01-05 10:48:50.875885,2020-12-11 00:00:00.000000,7.84547346,14.25768805,20.18439491,28855,52440,74239,14774,25896,42404,4.01695911,7.04096632,11.52907683,0.52148113,0.68634491,0.97319855
47065,0,USTennesseeHamilton,Tennessee,Hamilton,2021-01-05 10:48:50.875885,2020-12-12 00:00:00.000000,8.01901413,14.60500783,20.61996152,29494,53717,75841,15365,26901,43714,4.17758372,7.31403381,11.88523459,0.51314857,0.68230812,0.96000419
47065,0,USTennesseeHamilton,Tennessee,Hamilton,2021-01-05 10:48:50.875885,2020-12-13 00:00:00.000000,8.21195332,14.98424044,21.03552850,30203,55112,77369,15960,27989,44943,4.33945182,7.60978732,12.21934440,0.48737511,0.68332165,0.97196102
47065,0,USTennesseeHamilton,Tennessee,Hamilton,2021-01-05 10:48:50.875885,2020-12-14 00:00:00.000000,8.42382648,15.34314534,21.44363182,30983,56432,78870,16535,28978,46084,4.49563908,7.87884378,12.52963906,0.46484900,0.67843367,0.95265725
47065,0,USTennesseeHamilton,Tennessee,Hamilton,2021-01-05 10:48:50.875885,2020-12-15 00:00:00.000000,8.64457617,15.63894648,21.80906784,31795,57520,80214,17058,29828,47138,4.63793610,8.10977096,12.81614912,0.44309266,0.68135489,0.97249714
47065,0,USTennesseeHamilton,Tennessee,Hamilton,2021-01-05 10:48:50.875885,2020-12-16 00:00:00.000000,8.85955536,15.99222130,22.12891267,32585,58820,81391,17505,30602,48110,4.75945857,8.32030360,13.08040023,0.43766800,0.67975706,0.99511331
47065,0,USTennesseeHamilton,Tennessee,Hamilton,2021-01-05 10:48:50.875885,2020-12-17 00:00:00.000000,9.05559590,16.33381047,22.40067175,33306,60076,82390,17865,31404,49014,4.85727284,8.53827890,13.32637207,0.43261597,0.68264821,0.99496428
47065,0,USTennesseeHamilton,Tennessee,Hamilton,2021-01-05 10:48:50.875885,2020-12-18 00:00:00.000000,9.22119266,16.66447129,22.62233606,33915,61292,83205,18142,32102,49876,4.93266322,8.72809013,13.56067217,0.42640039,0.67368946,0.98874895
47065,0,USTennesseeHamilton,Tennessee,Hamilton,2021-01-05 10:48:50.875885,2020-12-19 00:00:00.000000,9.35081926,16.88699131,22.79238513,34392,62111,83831,18352,32713,50708,4.98965229,8.89435935,13.78669385,0.41128094,0.65692891,0.98975672
47065,0,USTennesseeHamilton,Tennessee,Hamilton,2021-01-05 10:48:50.875885,2020-12-20 00:00:00.000000,9.44736103,17.06787875,22.88465794,34747,62776,84170,18513,33276,51625,5.03343947,9.04728983,14.03623469,0.40810324,0.65200036,0.98716077
47065,0,USTennesseeHamilton,Tennessee,Hamilton,2021-01-05 10:48:50.875885,2020-12-21 00:00:00.000000,9.59966183,17.23853666,22.90260485,35307,63404,84236,18644,33614,52355,5.06917050,9.13929539,14.23473934,0.41003418,0.65275337,0.99368120
47065,0,USTennesseeHamilton,Tennessee,Hamilton,2021-01-05 10:48:50.875885,2020-12-22 00:00:00.000000,9.73886176,17.37137852,23.08885119,35819,63892,84921,18761,34268,52897,5.10084234,9.31695068,14.38185337,0.40681089,0.65019608,0.99867482
47065,0,USTennesseeHamilton,Tennessee,Hamilton,2021-01-05 10:48:50.875885,2020-12-23 00:00:00.000000,9.86511292,17.30884378,23.28936187,36284,63662,85659,18869,34649,53254,5.13037241,9.42051293,14.47915442,0.40774289,0.65261869,1.00569834
47065,0,USTennesseeHamilton,Tennessee,Hamilton,2021-01-05 10:48:50.875885,2020-12-24 00:00:00.000000,9.97804925,17.22995502,23.40682869,36699,63372,86091,18969,34764,53440,5.15753704,9.45181381,14.52966615,0.43504728,0.65386760,1.01792987
47065,0,USTennesseeHamilton,Tennessee,Hamilton,2021-01-05 10:48:50.875885,2020-12-25 00:00:00.000000,10.07768660,17.23789032,23.44584160,37066,63401,86234,19053,34628,53463,5.18042180,9.41491213,14.53579554,0.47448890,0.64673770,1.02471289
47065,0,USTennesseeHamilton,Tennessee,Hamilton,2021-01-05 10:48:50.875885,2020-12-26 00:00:00.000000,10.17308856,17.05591019,23.41368947,37417,62732,86116,19111,34950,53324,5.19612592,9.50252758,14.49807057,0.49187211,0.64767180,1.06129383
47065,0,USTennesseeHamilton,Tennessee,Hamilton,2021-01-05 10:48:50.875885,2020-12-27 00:00:00.000000,10.29749009,16.90438055,23.31708744,37874,62174,85761,19132,35103,53024,5.20177018,9.54420373,14.41643012,0.49201506,0.63993359,1.12513427
47065,0,USTennesseeHamilton,Tennessee,Hamilton,2021-01-05 10:48:50.875885,2020-12-28 00:00:00.000000,10.43153108,16.62553880,23.16058757,38367,61149,85185,19109,34970,52564,5.19564865,9.50801341,14.29138733,0.46887527,0.63975296,1.17499311
47065,0,USTennesseeHamilton,Tennessee,Hamilton,2021-01-05 10:48:50.875885,2020-12-29 00:00:00.000000,10.54254079,16.35553042,22.94922570,38775,60156,84408,19042,34864,51949,5.17732341,9.47916691,14.12417069,0.43679136,0.63778343,1.20663137
47065,0,USTennesseeHamilton,Tennessee,Hamilton,2021-01-05 10:48:50.875885,2020-12-30 00:00:00.000000,10.62007430,16.20418154,22.68675200,39061,59599,83442,18932,34680,51187,5.14741507,9.42896301,13.91696600,0.44198496,0.63763645,1.22444352
47065,0,USTennesseeHamilton,Tennessee,Hamilton,2021-01-05 10:48:50.875885,2020-12-31 00:00:00.000000,10.65878800,15.88845450,22.21783013,39203,58438,81718,18783,34180,50287,5.10703667,9.29318212,13.67249778,0.42714603,0.63854465,1.23457049
47065,0,USTennesseeHamilton,Tennessee,Hamilton,2021-01-05 10:48:50.875885,2021-01-01 00:00:00.000000,10.53603766,15.75545337,21.58826254,38751,57949,79402,18601,33788,49972,5.05741943,9.18664747,13.58662228,0.41421390,0.65180292,1.24439329
47065,0,USTennesseeHamilton,Tennessee,Hamilton,2021-01-05 10:48:50.875885,2021-01-02 00:00:00.000000,10.37887248,15.54898715,20.92904284,38173,57189,76977,18586,33259,49597,5.05345205,9.04285694,13.48462938,0.41206300,0.66604039,1.28075104
47065,0,USTennesseeHamilton,Tennessee,Hamilton,2021-01-05 10:48:50.875885,2021-01-03 00:00:00.000000,10.21365221,15.51064280,20.58832756,37566,57048,75724,18406,32764,49108,5.00440383,8.90812208,13.35186350,0.38936634,0.66200765,1.45215565
47065,0,USTennesseeHamilton,Tennessee,Hamilton,2021-01-05 10:48:50.875885,2021-01-04 00:00:00.000000,10.04023987,15.34095715,20.20778536,36928,56424,74325,17936,32249,48501,4.87665213,8.76817179,13.18676792,0.37384382,0.64923146,1.61099068
47065,0,USTennesseeHamilton,Tennessee,Hamilton,2021-01-05 10:48:50.875885,2021-01-05 00:00:00.000000,9.85926311,15.10126204,19.56807269,36262,55543,71972,17594,31860,47771,4.78365911,8.66223609,12.98829040,0.37350293,0.66463906,1.65499299
47065,0,USTennesseeHamilton,Tennessee,Hamilton,2021-01-05 10:48:50.875885,2021-01-06 00:00:00.000000,9.75971967,14.74681629,18.99585895,35896,54239,69867,17291,31178,46926,4.70124742,8.47700444,12.75850633,0.37349579,0.65930614,1.66106167
47065,0,USTennesseeHamilton,Tennessee,Hamilton,2021-01-05 10:48:50.875885,2021-01-07 00:00:00.000000,9.44224494,14.26349679,18.62989804,34728,52461,68521,16987,30384,45987,4.61855214,8.26094832,12.50321468,0.37349312,0.66069455,1.66188356
47065,0,USTennesseeHamilton,Tennessee,Hamilton,2021-01-05 10:48:50.875885,2021-01-08 00:00:00.000000,8.94525568,13.73473799,18.21895435,32901,50516,67010,17350,29506,45028,4.71727007,8.02227384,12.24240505,0.37349212,0.66306815,1.66202901
47065,0,USTennesseeHamilton,Tennessee,Hamilton,2021-01-05 10:48:50.875885,2021-01-09 00:00:00.000000,8.54452211,13.34678504,17.76370870,31427,49090,65335,17026,28637,43906,4.62936630,7.78612472,11.93737425,0.37349175,0.66460709,1.66207139
47065,0,USTennesseeHamilton,Tennessee,Hamilton,2021-01-05 10:48:50.875885,2021-01-10 00:00:00.000000,8.16037926,13.00851464,17.16222173,30014,47845,63123,16698,27792,42777,4.54002987,7.55621663,11.63042523,0.37349161,0.66391742,1.66208988
47065,0,USTennesseeHamilton,Tennessee,Hamilton,2021-01-05 10:48:50.875885,2021-01-11 00:00:00.000000,7.78859856,12.49661988,16.55772778,28646,45963,60899,16364,27073,41574,4.44921906,7.36092419,11.30343816,0.37349155,0.66367905,1.66209943
47065,0,USTennesseeHamilton,Tennessee,Hamilton,2021-01-05 10:48:50.875885,2021-01-12 00:00:00.000000,7.42937430,11.92695045,15.95466321,27325,43867,58681,15776,26188,40402,4.28937018,7.12013164,10.98466560,0.37349153,0.66359737,1.66210467
47065,0,USTennesseeHamilton,Tennessee,Hamilton,2021-01-05 10:48:50.875885,2021-01-13 00:00:00.000000,7.08279780,11.57231410,15.41317462,26050,42563,56690,14938,25286,39179,4.06162773,6.87488399,10.65221246,0.37349152,0.66356949,1.66210760
47065,0,USTennesseeHamilton,Tennessee,Hamilton,2021-01-05 10:48:50.875885,2021-01-14 00:00:00.000000,6.74887539,11.23252676,14.78484948,24822,41313,54379,14498,24374,37937,3.94193209,6.62693204,10.31462283,0.37349152,0.66355999,1.66210928
47065,0,USTennesseeHamilton,Tennessee,Hamilton,2021-01-05 10:48:50.875885,2021-01-15 00:00:00.000000,6.42754287,10.76760564,14.34682808,23640,39603,52768,14108,23458,36703,3.83581669,6.37787597,9.97913517,0.37349152,0.66355677,1.66211024
47065,0,USTennesseeHamilton,Tennessee,Hamilton,2021-01-05 10:48:50.875885,2021-01-16 00:00:00.000000,6.11867757,10.37688420,13.97620642,22504,38166,51405,13716,22596,35512,3.72921048,6.14369482,9.65518573,0.37349152,0.66355568,1.66211080
47065,0,USTennesseeHamilton,Tennessee,Hamilton,2021-01-05 10:48:50.875885,2021-01-17 00:00:00.000000,5.74494139,9.96095760,13.48348404,21130,36636,49592,13323,21724,34286,3.62241057,5.90655330,9.32198558,0.37349152,0.66355531,1.66211112
