FIPS,HR_UID,nameid,province,region,analysisTime,dates,pointprevalence_025,pointprevalence_50,pointprevalence_975,pointinfections_025,pointinfections_50,pointinfections_975,pointinfectious_025,pointinfectious_50,pointinfectious_975,pointinfectiousprevalence_05,pointinfectiousprevalence_50,pointinfectiousprevalence_95,infectrate_025,infectrate_50,infectrate_975
12077,0,USFloridaLiberty,Florida,Liberty,2021-01-06 02:24:32.235842,2020-03-09 00:00:00.000000,0.00158800,0.01376174,0.07065179,0,1,5,0,0,3,0.00072812,0.00699763,0.03969398,0.42128593,0.59938388,0.79605953
12077,0,USFloridaLiberty,Florida,Liberty,2021-01-06 02:24:32.235842,2020-03-10 00:00:00.000000,0.00182578,0.01489623,0.07333566,0,1,6,0,0,3,0.00077200,0.00753334,0.03825948,0.42128580,0.59934037,0.79445797
12077,0,USFloridaLiberty,Florida,Liberty,2021-01-06 02:24:32.235842,2020-03-11 00:00:00.000000,0.00201244,0.01618108,0.07486422,0,1,6,0,0,3,0.00087142,0.00853222,0.04135875,0.42128509,0.59925201,0.79202004
12077,0,USFloridaLiberty,Florida,Liberty,2021-01-06 02:24:32.235842,2020-03-12 00:00:00.000000,0.00220447,0.01756085,0.08267522,0,1,6,0,0,3,0.00101769,0.00937401,0.04592317,0.42128245,0.59907282,0.78835136
12077,0,USFloridaLiberty,Florida,Liberty,2021-01-06 02:24:32.235842,2020-03-13 00:00:00.000000,0.00243788,0.01902662,0.09141051,0,1,7,0,0,4,0.00116776,0.01027604,0.05088053,0.42127388,0.59871046,0.78292455
12077,0,USFloridaLiberty,Florida,Liberty,2021-01-06 02:24:32.235842,2020-03-14 00:00:00.000000,0.00270511,0.02113740,0.10102558,0,1,8,0,0,4,0.00127999,0.01137306,0.05631078,0.42124775,0.59798172,0.78154271
12077,0,USFloridaLiberty,Florida,Liberty,2021-01-06 02:24:32.235842,2020-03-15 00:00:00.000000,0.00299859,0.02375568,0.11161400,0,1,9,0,1,5,0.00140325,0.01261876,0.06227684,0.42117074,0.59653259,0.78144544
12077,0,USFloridaLiberty,Florida,Liberty,2021-01-06 02:24:32.235842,2020-03-16 00:00:00.000000,0.00331954,0.02583414,0.12326249,0,2,10,0,1,5,0.00153786,0.01419504,0.06883876,0.42094883,0.59632743,0.78113537
12077,0,USFloridaLiberty,Florida,Liberty,2021-01-06 02:24:32.235842,2020-03-17 00:00:00.000000,0.00366683,0.02814237,0.13602635,0,2,11,0,1,6,0.00168468,0.01545761,0.07605375,0.42133582,0.58937938,0.78001970
12077,0,USFloridaLiberty,Florida,Liberty,2021-01-06 02:24:32.235842,2020-03-18 00:00:00.000000,0.00403478,0.03071575,0.14985310,0,2,12,0,1,7,0.00184478,0.01670443,0.08396392,0.42278885,0.58264818,0.76624606
12077,0,USFloridaLiberty,Florida,Liberty,2021-01-06 02:24:32.235842,2020-03-19 00:00:00.000000,0.00441225,0.03516091,0.16443536,0,2,13,0,1,7,0.00202113,0.01831371,0.09255749,0.42500449,0.56715369,0.73559510
12077,0,USFloridaLiberty,Florida,Liberty,2021-01-06 02:24:32.235842,2020-03-20 00:00:00.000000,0.00478766,0.04003809,0.17922745,0,3,14,0,1,8,0.00222036,0.02042585,0.10164393,0.41616411,0.55488009,0.70982705
12077,0,USFloridaLiberty,Florida,Liberty,2021-01-06 02:24:32.235842,2020-03-21 00:00:00.000000,0.00515799,0.04497011,0.19388795,0,3,16,0,1,8,0.00242318,0.02297372,0.10605008,0.38739295,0.54338378,0.71367629
12077,0,USFloridaLiberty,Florida,Liberty,2021-01-06 02:24:32.235842,2020-03-22 00:00:00.000000,0.00552945,0.04922277,0.20288155,0,4,16,0,2,9,0.00264162,0.02555822,0.10923624,0.36122993,0.52852820,0.72085481
12077,0,USFloridaLiberty,Florida,Liberty,2021-01-06 02:24:32.235842,2020-03-23 00:00:00.000000,0.01567929,0.06148307,0.22080319,1,5,18,0,2,9,0.00288249,0.02858806,0.11185628,0.34618752,0.51673796,0.71197273
12077,0,USFloridaLiberty,Florida,Liberty,2021-01-06 02:24:32.235842,2020-03-24 00:00:00.000000,0.02399493,0.07366186,0.25419608,2,6,21,0,2,10,0.00654947,0.03432692,0.12119215,0.34162150,0.51604322,0.70071722
12077,0,USFloridaLiberty,Florida,Liberty,2021-01-06 02:24:32.235842,2020-03-25 00:00:00.000000,0.02927374,0.09261432,0.28633451,2,7,23,0,3,11,0.01077650,0.04222983,0.13779913,0.33348453,0.50352260,0.68971329
12077,0,USFloridaLiberty,Florida,Liberty,2021-01-06 02:24:32.235842,2020-03-26 00:00:00.000000,0.03518791,0.11306708,0.31369200,2,9,26,1,4,12,0.01521229,0.05270097,0.15414324,0.33291377,0.50014645,0.69079103
12077,0,USFloridaLiberty,Florida,Liberty,2021-01-06 02:24:32.235842,2020-03-27 00:00:00.000000,0.04405870,0.13125721,0.34200767,3,10,28,1,5,13,0.02101028,0.06366240,0.16620473,0.33288854,0.49492655,0.68153345
12077,0,USFloridaLiberty,Florida,Liberty,2021-01-06 02:24:32.235842,2020-03-28 00:00:00.000000,0.05443670,0.15592622,0.37142058,4,13,31,2,6,15,0.02507381,0.07586205,0.18246094,0.33389056,0.49047365,0.68087828
12077,0,USFloridaLiberty,Florida,Liberty,2021-01-06 02:24:32.235842,2020-03-29 00:00:00.000000,0.06538490,0.18160935,0.40200167,5,15,33,2,7,16,0.02966358,0.08891806,0.20118293,0.31851478,0.48419238,0.67697211
12077,0,USFloridaLiberty,Florida,Liberty,2021-01-06 02:24:32.235842,2020-03-30 00:00:00.000000,0.08705181,0.20832356,0.43254603,7,17,36,2,8,18,0.03493307,0.10376540,0.22104638,0.32539083,0.48035770,0.66177642
12077,0,USFloridaLiberty,Florida,Liberty,2021-01-06 02:24:32.235842,2020-03-31 00:00:00.000000,0.10623404,0.23466689,0.46398739,8,19,38,3,9,20,0.04418803,0.11937620,0.24021278,0.32966004,0.48203714,0.65387960
12077,0,USFloridaLiberty,Florida,Liberty,2021-01-06 02:24:32.235842,2020-04-01 00:00:00.000000,0.12327095,0.26690680,0.50905627,10,22,42,4,11,22,0.05589778,0.13703884,0.26383516,0.33421906,0.48301507,0.64283229
12077,0,USFloridaLiberty,Florida,Liberty,2021-01-06 02:24:32.235842,2020-04-02 00:00:00.000000,0.14542141,0.30275544,0.56512708,12,25,47,5,12,25,0.06874461,0.15374649,0.29990100,0.33721839,0.48988200,0.64560339
12077,0,USFloridaLiberty,Florida,Liberty,2021-01-06 02:24:32.235842,2020-04-03 00:00:00.000000,0.16613583,0.34113561,0.62333733,13,28,52,6,14,27,0.07845512,0.17454932,0.32934094,0.34389517,0.49783076,0.66022082
12077,0,USFloridaLiberty,Florida,Liberty,2021-01-06 02:24:32.235842,2020-04-04 00:00:00.000000,0.18685545,0.37969133,0.69320908,15,31,57,7,16,30,0.08954578,0.19845974,0.36083530,0.36075824,0.50318230,0.66906392
12077,0,USFloridaLiberty,Florida,Liberty,2021-01-06 02:24:32.235842,2020-04-05 00:00:00.000000,0.21644477,0.41971287,0.76642860,18,35,64,8,18,34,0.10296039,0.22127841,0.40993757,0.37457637,0.50893086,0.69819223
12077,0,USFloridaLiberty,Florida,Liberty,2021-01-06 02:24:32.235842,2020-04-06 00:00:00.000000,0.26403080,0.47941033,0.86688892,22,40,72,9,20,38,0.11770146,0.24545403,0.46408904,0.37360690,0.52125356,0.75238748
12077,0,USFloridaLiberty,Florida,Liberty,2021-01-06 02:24:32.235842,2020-04-07 00:00:00.000000,0.30367119,0.54653497,0.97664302,25,45,81,11,23,43,0.14180885,0.27744231,0.52492259,0.39617583,0.52813722,0.79450046
12077,0,USFloridaLiberty,Florida,Liberty,2021-01-06 02:24:32.235842,2020-04-08 00:00:00.000000,0.33624157,0.61022409,1.09190843,28,50,91,14,26,49,0.16806505,0.31483538,0.58742588,0.39291164,0.53693820,0.81519360
12077,0,USFloridaLiberty,Florida,Liberty,2021-01-06 02:24:32.235842,2020-04-09 00:00:00.000000,0.37121874,0.68271568,1.20729291,31,57,100,16,29,54,0.19587213,0.35093756,0.64927562,0.39115652,0.55453042,0.82142711
12077,0,USFloridaLiberty,Florida,Liberty,2021-01-06 02:24:32.235842,2020-04-10 00:00:00.000000,0.41140126,0.75819568,1.33696424,34,63,111,18,32,58,0.22096025,0.38925540,0.70435850,0.42075422,0.55813728,0.82378786
12077,0,USFloridaLiberty,Florida,Liberty,2021-01-06 02:24:32.235842,2020-04-11 00:00:00.000000,0.44797619,0.84374793,1.44890043,37,70,121,20,36,63,0.24342735,0.43597429,0.76171307,0.42129224,0.57896496,0.82469356
12077,0,USFloridaLiberty,Florida,Liberty,2021-01-06 02:24:32.235842,2020-04-12 00:00:00.000000,0.49039730,0.96364019,1.55805364,40,80,130,22,40,68,0.26989091,0.48686883,0.82163418,0.42424853,0.59971998,0.84101711
12077,0,USFloridaLiberty,Florida,Liberty,2021-01-06 02:24:32.235842,2020-04-13 00:00:00.000000,0.57555059,1.10233543,1.71773186,48,92,143,24,45,73,0.29247184,0.55053819,0.88459707,0.44353724,0.61244965,0.84107420
12077,0,USFloridaLiberty,Florida,Liberty,2021-01-06 02:24:32.235842,2020-04-14 00:00:00.000000,0.66848764,1.25417702,1.96850031,55,104,164,27,51,81,0.33037189,0.61753699,0.97864863,0.45846902,0.62722845,0.84095174
12077,0,USFloridaLiberty,Florida,Liberty,2021-01-06 02:24:32.235842,2020-04-15 00:00:00.000000,0.74586519,1.39778532,2.25219115,62,116,188,31,58,93,0.37938578,0.69936650,1.12201429,0.47328843,0.63998452,0.84705513
12077,0,USFloridaLiberty,Florida,Liberty,2021-01-06 02:24:32.235842,2020-04-16 00:00:00.000000,0.84269220,1.62966603,2.54468542,70,136,212,36,65,107,0.43398192,0.78832515,1.28298833,0.50327398,0.65233172,0.86726780
12077,0,USFloridaLiberty,Florida,Liberty,2021-01-06 02:24:32.235842,2020-04-17 00:00:00.000000,0.96735130,1.84332080,2.88338040,80,153,240,40,74,122,0.49018688,0.89670835,1.46219968,0.51868538,0.67934097,0.87626587
12077,0,USFloridaLiberty,Florida,Liberty,2021-01-06 02:24:32.235842,2020-04-18 00:00:00.000000,1.12438689,2.11998122,3.27341279,93,177,273,46,86,138,0.55878449,1.03097923,1.65905100,0.54609006,0.70845725,0.89429903
12077,0,USFloridaLiberty,Florida,Liberty,2021-01-06 02:24:32.235842,2020-04-19 00:00:00.000000,1.33423794,2.42835486,3.71251778,111,202,310,53,98,156,0.64560742,1.18143956,1.86974137,0.56059502,0.74178015,0.90972518
12077,0,USFloridaLiberty,Florida,Liberty,2021-01-06 02:24:32.235842,2020-04-20 00:00:00.000000,1.59548805,2.80602612,4.24481946,133,234,354,62,112,174,0.75241075,1.34349381,2.08903526,0.56900645,0.74770448,0.93616280
12077,0,USFloridaLiberty,Florida,Liberty,2021-01-06 02:24:32.235842,2020-04-21 00:00:00.000000,1.91352400,3.22302449,4.91398972,159,269,410,75,127,197,0.90086535,1.53133288,2.36517032,0.57158103,0.77564132,0.97403262
12077,0,USFloridaLiberty,Florida,Liberty,2021-01-06 02:24:32.235842,2020-04-22 00:00:00.000000,2.26481931,3.64752087,5.61559206,189,304,469,90,148,231,1.08112519,1.77661178,2.76783702,0.57713328,0.77759760,0.98391005
12077,0,USFloridaLiberty,Florida,Liberty,2021-01-06 02:24:32.235842,2020-04-23 00:00:00.000000,2.56377969,4.19991606,6.43985565,214,350,537,108,168,264,1.29330211,2.02288474,3.16538709,0.58508881,0.78134134,0.97366590
12077,0,USFloridaLiberty,Florida,Liberty,2021-01-06 02:24:32.235842,2020-04-24 00:00:00.000000,2.95401033,4.88618982,7.26555480,246,408,606,128,197,304,1.54066878,2.36245357,3.64161464,0.58831265,0.78956448,0.97397643
12077,0,USFloridaLiberty,Florida,Liberty,2021-01-06 02:24:32.235842,2020-04-25 00:00:00.000000,3.43476310,5.59228216,8.17032686,286,467,682,147,225,363,1.76848197,2.70302990,4.35217229,0.61331682,0.78337403,0.97333251
12077,0,USFloridaLiberty,Florida,Liberty,2021-01-06 02:24:32.235842,2020-04-26 00:00:00.000000,3.98637443,6.39548168,9.15295240,333,534,764,167,260,414,2.01074074,3.12329653,4.95820760,0.59682378,0.77672806,0.97093743
12077,0,USFloridaLiberty,Florida,Liberty,2021-01-06 02:24:32.235842,2020-04-27 00:00:00.000000,4.70091590,7.21323807,10.99187256,392,602,918,191,298,464,2.28859698,3.56939233,5.56555691,0.59527685,0.77149419,0.96369788
12077,0,USFloridaLiberty,Florida,Liberty,2021-01-06 02:24:32.235842,2020-04-28 00:00:00.000000,5.50348945,8.13794283,12.61604988,459,679,1053,218,338,530,2.61527105,4.05671530,6.34854217,0.59537085,0.76452958,0.94698129
12077,0,USFloridaLiberty,Florida,Liberty,2021-01-06 02:24:32.235842,2020-04-29 00:00:00.000000,6.33184677,9.10954601,14.06332740,528,761,1174,250,381,600,2.99311447,4.56405019,7.18617709,0.58766113,0.74783218,0.93095367
12077,0,USFloridaLiberty,Florida,Liberty,2021-01-06 02:24:32.235842,2020-04-30 00:00:00.000000,7.09740365,9.94252982,15.47268250,592,830,1292,283,424,673,3.38919595,5.08052081,8.05958313,0.55731172,0.71975133,0.91417732
12077,0,USFloridaLiberty,Florida,Liberty,2021-01-06 02:24:32.235842,2020-05-01 00:00:00.000000,7.92563434,10.92376841,15.97127765,662,912,1334,325,475,746,3.90182087,5.68597121,8.94142011,0.46992872,0.67148692,0.89480881
12077,0,USFloridaLiberty,Florida,Liberty,2021-01-06 02:24:32.235842,2020-05-02 00:00:00.000000,8.73610975,12.04702918,16.49811494,729,1006,1378,370,531,813,4.43629057,6.35624474,9.74122227,0.38454412,0.64771693,0.87436292
12077,0,USFloridaLiberty,Florida,Liberty,2021-01-06 02:24:32.235842,2020-05-03 00:00:00.000000,9.49088511,12.58008692,17.42696717,792,1050,1455,412,577,856,4.93693817,6.91733097,10.25496921,0.29051915,0.58943607,0.83137443
12077,0,USFloridaLiberty,Florida,Liberty,2021-01-06 02:24:32.235842,2020-05-04 00:00:00.000000,10.21112572,13.28480054,18.25290729,853,1109,1524,440,619,911,5.27207270,7.41150735,10.90569017,0.25183805,0.48978499,0.75980511
12077,0,USFloridaLiberty,Florida,Liberty,2021-01-06 02:24:32.235842,2020-05-05 00:00:00.000000,10.62819054,13.50318560,17.79787503,887,1128,1486,483,649,943,5.78277646,7.77810033,11.29800062,0.20363707,0.37652284,0.61322303
12077,0,USFloridaLiberty,Florida,Liberty,2021-01-06 02:24:32.235842,2020-05-06 00:00:00.000000,10.25116425,13.20478336,17.18384607,856,1103,1435,500,684,939,5.98851738,8.19544422,11.24669080,0.16038609,0.28623479,0.47583591
12077,0,USFloridaLiberty,Florida,Liberty,2021-01-06 02:24:32.235842,2020-05-07 00:00:00.000000,9.64767507,12.83114731,16.75464116,805,1071,1399,494,683,903,5.92129813,8.18609981,10.81081266,0.12525641,0.21970411,0.37664097
12077,0,USFloridaLiberty,Florida,Liberty,2021-01-06 02:24:32.235842,2020-05-08 00:00:00.000000,8.96983648,12.14473242,16.26517688,749,1014,1358,482,666,884,5.78086796,7.97617182,10.58410208,0.11520767,0.19523429,0.28830962
12077,0,USFloridaLiberty,Florida,Liberty,2021-01-06 02:24:32.235842,2020-05-09 00:00:00.000000,8.28262610,11.49322971,15.51706237,691,960,1296,453,639,877,5.42711856,7.65771134,10.50049554,0.11273964,0.17718381,0.25270560
12077,0,USFloridaLiberty,Florida,Liberty,2021-01-06 02:24:32.235842,2020-05-10 00:00:00.000000,7.61783015,10.65960666,14.66055737,636,890,1224,418,601,855,5.00709399,7.20043339,10.24332598,0.11088982,0.16920527,0.22841599
12077,0,USFloridaLiberty,Florida,Liberty,2021-01-06 02:24:32.235842,2020-05-11 00:00:00.000000,6.98526119,9.80711505,13.79211835,583,819,1152,381,567,824,4.56957942,6.79077919,9.86603841,0.10698793,0.16452262,0.21894011
12077,0,USFloridaLiberty,Florida,Liberty,2021-01-06 02:24:32.235842,2020-05-12 00:00:00.000000,6.39647029,9.13593330,12.98219849,534,763,1084,348,524,786,4.17243676,6.27573848,9.40899442,0.10669951,0.15643031,0.21650701
12077,0,USFloridaLiberty,Florida,Liberty,2021-01-06 02:24:32.235842,2020-05-13 00:00:00.000000,5.85256953,8.41692740,12.25363549,488,703,1023,319,493,744,3.82812116,5.90517655,8.90969484,0.10257317,0.15225598,0.21260552
12077,0,USFloridaLiberty,Florida,Liberty,2021-01-06 02:24:32.235842,2020-05-14 00:00:00.000000,5.25123551,7.72410028,11.70982428,438,645,978,292,461,701,3.50724379,5.52527864,8.39669429,0.09474319,0.14724041,0.20307732
12077,0,USFloridaLiberty,Florida,Liberty,2021-01-06 02:24:32.235842,2020-05-15 00:00:00.000000,4.67972847,7.13017554,10.98245628,390,595,917,263,427,658,3.15360525,5.11939551,7.88635357,0.08667664,0.14084829,0.20124615
12077,0,USFloridaLiberty,Florida,Liberty,2021-01-06 02:24:32.235842,2020-05-16 00:00:00.000000,4.14921041,6.55853138,10.08633669,346,547,842,234,392,617,2.80811219,4.70242096,7.38946185,0.08252070,0.13666601,0.19161627
12077,0,USFloridaLiberty,Florida,Liberty,2021-01-06 02:24:32.235842,2020-05-17 00:00:00.000000,3.67793442,6.04820957,9.31198387,307,505,777,208,358,576,2.49497108,4.29190108,6.90473785,0.08218864,0.13094883,0.18922232
12077,0,USFloridaLiberty,Florida,Liberty,2021-01-06 02:24:32.235842,2020-05-18 00:00:00.000000,3.26336903,5.51559279,8.72578123,272,460,728,185,327,541,2.21460460,3.91768277,6.48246272,0.08219550,0.12761255,0.18701015
12077,0,USFloridaLiberty,Florida,Liberty,2021-01-06 02:24:32.235842,2020-05-19 00:00:00.000000,2.89884845,5.02517431,8.10939822,242,419,677,164,299,508,1.96686046,3.58980740,6.08782427,0.08234591,0.12640651,0.18382533
12077,0,USFloridaLiberty,Florida,Liberty,2021-01-06 02:24:32.235842,2020-05-20 00:00:00.000000,2.57901554,4.55567182,7.51867297,215,380,628,146,274,473,1.75512524,3.28132183,5.66313462,0.08279949,0.12618502,0.18026249
12077,0,USFloridaLiberty,Florida,Liberty,2021-01-06 02:24:32.235842,2020-05-21 00:00:00.000000,2.29849343,4.11979666,6.98338031,192,344,583,129,249,438,1.55543833,2.98985135,5.25255951,0.08348914,0.12516390,0.18588550
12077,0,USFloridaLiberty,Florida,Liberty,2021-01-06 02:24:32.235842,2020-05-22 00:00:00.000000,2.05384523,3.75522555,6.46938692,171,313,540,115,226,407,1.38559340,2.71589834,4.87346045,0.08381040,0.12194813,0.18706517
12077,0,USFloridaLiberty,Florida,Liberty,2021-01-06 02:24:32.235842,2020-05-23 00:00:00.000000,1.88504946,3.43317559,6.00533308,157,286,501,103,205,377,1.23636179,2.45700510,4.52339837,0.08089619,0.12450897,0.18365234
12077,0,USFloridaLiberty,Florida,Liberty,2021-01-06 02:24:32.235842,2020-05-24 00:00:00.000000,1.64822998,3.10818289,5.57575969,137,259,465,92,186,350,1.10583303,2.23236337,4.19954310,0.07883925,0.12276572,0.17621006
12077,0,USFloridaLiberty,Florida,Liberty,2021-01-06 02:24:32.235842,2020-05-25 00:00:00.000000,1.45783555,2.81337032,5.15662286,121,235,430,84,170,325,1.01227330,2.04576242,3.89969167,0.07977596,0.12115142,0.18291311
12077,0,USFloridaLiberty,Florida,Liberty,2021-01-06 02:24:32.235842,2020-05-26 00:00:00.000000,1.29014763,2.58327502,4.76577851,107,215,398,73,157,301,0.88131170,1.88598613,3.61430905,0.08017286,0.11976054,0.20451542
12077,0,USFloridaLiberty,Florida,Liberty,2021-01-06 02:24:32.235842,2020-05-27 00:00:00.000000,1.16991957,2.38767198,4.40212694,97,199,367,65,145,279,0.78192229,1.73761687,3.34495679,0.08229411,0.12054670,0.21629635
12077,0,USFloridaLiberty,Florida,Liberty,2021-01-06 02:24:32.235842,2020-05-28 00:00:00.000000,1.07928583,2.20495128,4.06468503,90,184,339,59,133,258,0.71570152,1.59849663,3.09283090,0.08233390,0.12115720,0.22026766
12077,0,USFloridaLiberty,Florida,Liberty,2021-01-06 02:24:32.235842,2020-05-29 00:00:00.000000,1.00262982,2.03425131,3.75090037,83,169,313,55,123,238,0.65995466,1.47285067,2.85792920,0.08605427,0.12160639,0.22164914
12077,0,USFloridaLiberty,Florida,Liberty,2021-01-06 02:24:32.235842,2020-05-30 00:00:00.000000,0.92959350,1.86908941,3.45830192,77,156,288,51,113,220,0.61288799,1.36139496,2.63929673,0.08825557,0.12223086,0.23002499
12077,0,USFloridaLiberty,Florida,Liberty,2021-01-06 02:24:32.235842,2020-05-31 00:00:00.000000,0.84424605,1.72217127,3.18665231,70,143,266,47,105,203,0.57223189,1.25721232,2.43557662,0.09097481,0.12598606,0.22884597
12077,0,USFloridaLiberty,Florida,Liberty,2021-01-06 02:24:32.235842,2020-06-01 00:00:00.000000,0.78399897,1.61701124,2.97027419,65,135,248,43,96,189,0.52598413,1.15728440,2.27373474,0.08922377,0.13143235,0.22219071
12077,0,USFloridaLiberty,Florida,Liberty,2021-01-06 02:24:32.235842,2020-06-02 00:00:00.000000,0.72966704,1.51785783,2.78565849,60,126,232,40,88,177,0.47978188,1.06320789,2.13005616,0.09153026,0.13975415,0.22235189
12077,0,USFloridaLiberty,Florida,Liberty,2021-01-06 02:24:32.235842,2020-06-03 00:00:00.000000,0.69769015,1.43369638,2.62163525,58,119,219,37,82,166,0.44584337,0.99331951,1.99630988,0.09130113,0.14779449,0.23020977
12077,0,USFloridaLiberty,Florida,Liberty,2021-01-06 02:24:32.235842,2020-06-04 00:00:00.000000,0.67274051,1.36038288,2.47943443,56,113,207,33,77,156,0.40461275,0.92374193,1.87441016,0.09115923,0.15069470,0.25436460
12077,0,USFloridaLiberty,Florida,Liberty,2021-01-06 02:24:32.235842,2020-06-05 00:00:00.000000,0.63019744,1.28884668,2.35630886,52,107,196,32,71,147,0.39294529,0.86041738,1.76565584,0.09133100,0.15741596,0.25830312
12077,0,USFloridaLiberty,Florida,Liberty,2021-01-06 02:24:32.235842,2020-06-06 00:00:00.000000,0.57634951,1.20265012,2.24728955,48,100,187,30,67,139,0.36033237,0.80376267,1.66977515,0.09199830,0.16415755,0.26242986
12077,0,USFloridaLiberty,Florida,Liberty,2021-01-06 02:24:32.235842,2020-06-07 00:00:00.000000,0.52896878,1.13744059,2.14820818,44,95,179,27,64,132,0.33202498,0.76930916,1.58498378,0.09476099,0.16756586,0.26628969
12077,0,USFloridaLiberty,Florida,Liberty,2021-01-06 02:24:32.235842,2020-06-08 00:00:00.000000,0.48602052,1.08467128,2.05624759,40,90,171,25,61,126,0.30743404,0.73183128,1.50901316,0.10114597,0.17028033,0.26646397
12077,0,USFloridaLiberty,Florida,Liberty,2021-01-06 02:24:32.235842,2020-06-09 00:00:00.000000,0.44794749,1.02986218,1.94920857,37,86,162,24,58,120,0.29347384,0.70082047,1.43982869,0.10665858,0.17997571,0.27216647
12077,0,USFloridaLiberty,Florida,Liberty,2021-01-06 02:24:32.235842,2020-06-10 00:00:00.000000,0.41413098,0.98129044,1.82422245,34,81,152,23,55,114,0.28365832,0.66267996,1.37603928,0.11675128,0.18401472,0.27839225
12077,0,USFloridaLiberty,Florida,Liberty,2021-01-06 02:24:32.235842,2020-06-11 00:00:00.000000,0.38412813,0.93912371,1.70850638,32,78,142,21,51,107,0.26189268,0.62041022,1.28707246,0.11932879,0.18368551,0.28588284
12077,0,USFloridaLiberty,Florida,Liberty,2021-01-06 02:24:32.235842,2020-06-12 00:00:00.000000,0.35754013,0.89494919,1.60128567,29,74,133,20,48,100,0.24256156,0.58626892,1.20429730,0.12440121,0.19173310,0.31003153
12077,0,USFloridaLiberty,Florida,Liberty,2021-01-06 02:24:32.235842,2020-06-13 00:00:00.000000,0.33401401,0.86064579,1.50191235,27,71,125,18,46,94,0.22541807,0.56210973,1.12771300,0.13190362,0.20262890,0.32189133
12077,0,USFloridaLiberty,Florida,Liberty,2021-01-06 02:24:32.235842,2020-06-14 00:00:00.000000,0.31711874,0.83252131,1.44059926,26,69,120,17,45,88,0.21023715,0.54219782,1.05678617,0.13328543,0.21793910,0.32753947
12077,0,USFloridaLiberty,Florida,Liberty,2021-01-06 02:24:32.235842,2020-06-15 00:00:00.000000,0.33940282,0.80795295,1.42784878,28,67,119,16,43,82,0.19683755,0.52294131,0.99107752,0.13367309,0.22114871,0.34322453
12077,0,USFloridaLiberty,Florida,Liberty,2021-01-06 02:24:32.235842,2020-06-16 00:00:00.000000,0.36842171,0.80356449,1.43554425,30,67,119,16,42,79,0.20267261,0.51154144,0.95009997,0.14150306,0.23016571,0.36083380
12077,0,USFloridaLiberty,Florida,Liberty,2021-01-06 02:24:32.235842,2020-06-17 00:00:00.000000,0.35667276,0.80456801,1.44679226,29,67,120,18,42,79,0.21761701,0.51101902,0.95002630,0.14758325,0.24169184,0.38041403
12077,0,USFloridaLiberty,Florida,Liberty,2021-01-06 02:24:32.235842,2020-06-18 00:00:00.000000,0.36337241,0.81660709,1.44544612,30,68,120,18,42,79,0.22351346,0.50304475,0.95539212,0.15121238,0.26784034,0.41092925
12077,0,USFloridaLiberty,Florida,Liberty,2021-01-06 02:24:32.235842,2020-06-19 00:00:00.000000,0.34790587,0.82800509,1.48177691,29,69,123,18,41,80,0.22028700,0.49552041,0.96313369,0.15926939,0.27783968,0.43065317
12077,0,USFloridaLiberty,Florida,Liberty,2021-01-06 02:24:32.235842,2020-06-20 00:00:00.000000,0.34616469,0.84378512,1.52893617,28,70,127,18,41,81,0.21655205,0.50112973,0.97601673,0.16508910,0.29192405,0.45566436
12077,0,USFloridaLiberty,Florida,Liberty,2021-01-06 02:24:32.235842,2020-06-21 00:00:00.000000,0.34920913,0.84613633,1.58509822,29,70,132,17,42,83,0.21292554,0.51015706,1.00017269,0.17847439,0.29406556,0.47476701
12077,0,USFloridaLiberty,Florida,Liberty,2021-01-06 02:24:32.235842,2020-06-22 00:00:00.000000,0.36040871,0.85272293,1.59444433,30,71,133,17,42,85,0.20525343,0.50822100,1.02899168,0.18736007,0.30843369,0.49377420
12077,0,USFloridaLiberty,Florida,Liberty,2021-01-06 02:24:32.235842,2020-06-23 00:00:00.000000,0.37362405,0.87363005,1.60448530,31,72,134,17,42,87,0.21490219,0.51069592,1.04938883,0.18985788,0.32766112,0.49962950
12077,0,USFloridaLiberty,Florida,Liberty,2021-01-06 02:24:32.235842,2020-06-24 00:00:00.000000,0.41309666,0.89658439,1.63187675,34,74,136,19,42,89,0.23081163,0.51226924,1.06565418,0.19922579,0.34775947,0.50873014
12077,0,USFloridaLiberty,Florida,Liberty,2021-01-06 02:24:32.235842,2020-06-25 00:00:00.000000,0.41484439,0.91268475,1.70237628,34,76,142,19,43,89,0.23927965,0.51991739,1.07186083,0.20129479,0.35924340,0.51489289
12077,0,USFloridaLiberty,Florida,Liberty,2021-01-06 02:24:32.235842,2020-06-26 00:00:00.000000,0.41521850,0.93264573,1.69901233,34,77,141,20,45,89,0.24564563,0.54278497,1.07584304,0.21774698,0.37670706,0.54804451
12077,0,USFloridaLiberty,Florida,Liberty,2021-01-06 02:24:32.235842,2020-06-27 00:00:00.000000,0.44803836,0.96606812,1.72374734,37,80,144,21,47,90,0.25290277,0.56868550,1.08126441,0.23052025,0.39192174,0.58160504
12077,0,USFloridaLiberty,Florida,Liberty,2021-01-06 02:24:32.235842,2020-06-28 00:00:00.000000,0.47360323,1.01014200,1.78658363,39,84,149,21,49,94,0.26173463,0.58700350,1.12568218,0.26759985,0.41792445,0.62877506
12077,0,USFloridaLiberty,Florida,Liberty,2021-01-06 02:24:32.235842,2020-06-29 00:00:00.000000,0.57311503,1.08970019,1.86896169,47,91,156,24,50,97,0.29109856,0.60819682,1.16823753,0.27723070,0.43487490,0.63902663
12077,0,USFloridaLiberty,Florida,Liberty,2021-01-06 02:24:32.235842,2020-06-30 00:00:00.000000,0.67336443,1.16606552,1.96236383,56,97,163,27,54,99,0.32949049,0.65662201,1.18869313,0.27893613,0.45240501,0.65887953
12077,0,USFloridaLiberty,Florida,Liberty,2021-01-06 02:24:32.235842,2020-07-01 00:00:00.000000,0.77909895,1.23160690,2.06909689,65,102,172,33,58,100,0.40575222,0.70310546,1.20018981,0.28044876,0.46771307,0.69313284
12077,0,USFloridaLiberty,Florida,Liberty,2021-01-06 02:24:32.235842,2020-07-02 00:00:00.000000,0.86516038,1.32203578,2.14235697,72,110,178,37,61,103,0.44794400,0.73513164,1.23751693,0.28477132,0.48333576,0.70795457
12077,0,USFloridaLiberty,Florida,Liberty,2021-01-06 02:24:32.235842,2020-07-03 00:00:00.000000,0.92194811,1.41878061,2.25529649,77,118,188,42,65,108,0.50453323,0.78540945,1.29421899,0.29745124,0.50895681,0.70740431
12077,0,USFloridaLiberty,Florida,Liberty,2021-01-06 02:24:32.235842,2020-07-04 00:00:00.000000,0.94079414,1.52709463,2.38860919,78,127,199,44,70,113,0.53260747,0.84210704,1.35389225,0.32395638,0.52238759,0.71326825
12077,0,USFloridaLiberty,Florida,Liberty,2021-01-06 02:24:32.235842,2020-07-05 00:00:00.000000,1.01530321,1.62664846,2.55550314,84,135,213,48,75,118,0.57841385,0.90710698,1.41588521,0.34291806,0.52950500,0.74419201
12077,0,USFloridaLiberty,Florida,Liberty,2021-01-06 02:24:32.235842,2020-07-06 00:00:00.000000,1.10161833,1.72992175,2.63801872,92,144,220,52,80,124,0.62598787,0.96275550,1.48791865,0.34423850,0.54691433,0.74434939
12077,0,USFloridaLiberty,Florida,Liberty,2021-01-06 02:24:32.235842,2020-07-07 00:00:00.000000,1.20881846,1.80352585,2.77554504,100,150,231,56,85,133,0.68208357,1.02105827,1.59207782,0.34624290,0.55658228,0.74388012
12077,0,USFloridaLiberty,Florida,Liberty,2021-01-06 02:24:32.235842,2020-07-08 00:00:00.000000,1.32841015,1.89812758,2.94467294,110,158,245,61,89,141,0.73584643,1.06729988,1.69880486,0.35010330,0.56392063,0.74103303
12077,0,USFloridaLiberty,Florida,Liberty,2021-01-06 02:24:32.235842,2020-07-09 00:00:00.000000,1.44922005,1.99883411,3.12101576,121,166,260,65,95,148,0.78238985,1.13899561,1.77973580,0.37862897,0.56197369,0.73995272
12077,0,USFloridaLiberty,Florida,Liberty,2021-01-06 02:24:32.235842,2020-07-10 00:00:00.000000,1.50552185,2.11417801,3.29572867,125,176,275,70,98,159,0.84831021,1.17514000,1.91016051,0.37910659,0.55945992,0.73501767
12077,0,USFloridaLiberty,Florida,Liberty,2021-01-06 02:24:32.235842,2020-07-11 00:00:00.000000,1.58579460,2.20571400,3.47211002,132,184,290,76,103,169,0.91099821,1.23835992,2.03179018,0.38201266,0.56283077,0.74481671
12077,0,USFloridaLiberty,Florida,Liberty,2021-01-06 02:24:32.235842,2020-07-12 00:00:00.000000,1.67923778,2.32740611,3.64641268,140,194,304,80,109,179,0.96638911,1.31273549,2.14531369,0.39364474,0.57196238,0.74548633
12077,0,USFloridaLiberty,Florida,Liberty,2021-01-06 02:24:32.235842,2020-07-13 00:00:00.000000,1.79644270,2.49024707,3.72993339,150,208,311,86,115,188,1.04045374,1.38564440,2.25892357,0.40649795,0.57589316,0.75053207
12077,0,USFloridaLiberty,Florida,Liberty,2021-01-06 02:24:32.235842,2020-07-14 00:00:00.000000,1.90352227,2.60331609,3.82179875,159,217,319,91,122,195,1.09321143,1.46782175,2.34373418,0.41855481,0.57864887,0.75262105
12077,0,USFloridaLiberty,Florida,Liberty,2021-01-06 02:24:32.235842,2020-07-15 00:00:00.000000,2.00232941,2.71390316,4.05588530,167,226,338,95,126,201,1.14248087,1.51238578,2.41311877,0.42424638,0.58747578,0.76380370
12077,0,USFloridaLiberty,Florida,Liberty,2021-01-06 02:24:32.235842,2020-07-16 00:00:00.000000,2.09223656,2.85549879,4.26247009,174,238,356,100,131,210,1.20725872,1.57579414,2.52306218,0.43824829,0.59219733,0.76025976
12077,0,USFloridaLiberty,Florida,Liberty,2021-01-06 02:24:32.235842,2020-07-17 00:00:00.000000,2.19887825,2.93806620,4.43468140,183,245,370,105,135,221,1.25885398,1.62591335,2.64771455,0.44019945,0.59175494,0.75162024
12077,0,USFloridaLiberty,Florida,Liberty,2021-01-06 02:24:32.235842,2020-07-18 00:00:00.000000,2.28356471,3.05990718,4.58150105,190,255,382,109,145,231,1.31273744,1.73838640,2.76846822,0.44985033,0.59165013,0.74037277
12077,0,USFloridaLiberty,Florida,Liberty,2021-01-06 02:24:32.235842,2020-07-19 00:00:00.000000,2.36475629,3.19855635,4.71342259,197,267,393,113,153,240,1.35767080,1.83586482,2.87453166,0.45632573,0.59787796,0.72754524
12077,0,USFloridaLiberty,Florida,Liberty,2021-01-06 02:24:32.235842,2020-07-20 00:00:00.000000,2.50467256,3.33070340,4.89680009,209,278,409,115,160,246,1.38413137,1.91844283,2.95394190,0.45369221,0.59441583,0.72966808
12077,0,USFloridaLiberty,Florida,Liberty,2021-01-06 02:24:32.235842,2020-07-21 00:00:00.000000,2.57675765,3.47225828,5.06702186,215,290,423,119,167,253,1.42577851,2.00736932,3.03982745,0.44194701,0.58105872,0.72896992
12077,0,USFloridaLiberty,Florida,Liberty,2021-01-06 02:24:32.235842,2020-07-22 00:00:00.000000,2.65109734,3.56841408,5.21299929,221,298,435,123,171,264,1.47960348,2.04981766,3.17161096,0.43262148,0.57086379,0.72733626
12077,0,USFloridaLiberty,Florida,Liberty,2021-01-06 02:24:32.235842,2020-07-23 00:00:00.000000,2.72777447,3.64018259,5.32835564,227,304,445,128,177,274,1.54268002,2.12987417,3.28502485,0.42265983,0.55777101,0.71010854
12077,0,USFloridaLiberty,Florida,Liberty,2021-01-06 02:24:32.235842,2020-07-24 00:00:00.000000,2.81632568,3.76394055,5.43475113,235,314,454,133,185,282,1.59265514,2.21749375,3.37803320,0.41227966,0.54433655,0.70013763
12077,0,USFloridaLiberty,Florida,Liberty,2021-01-06 02:24:32.235842,2020-07-25 00:00:00.000000,2.93161794,3.90203684,5.53407781,244,325,462,136,192,288,1.63951983,2.30410310,3.45535897,0.39721137,0.53584599,0.69256051
12077,0,USFloridaLiberty,Florida,Liberty,2021-01-06 02:24:32.235842,2020-07-26 00:00:00.000000,2.98172865,3.98512363,5.61704750,249,332,469,141,198,294,1.68792227,2.37479432,3.52206400,0.38984076,0.52466464,0.68870590
12077,0,USFloridaLiberty,Florida,Liberty,2021-01-06 02:24:32.235842,2020-07-27 00:00:00.000000,3.04108797,4.09510913,5.64835551,254,342,471,144,204,300,1.72885698,2.45048405,3.59928772,0.38859595,0.50924601,0.67489612
12077,0,USFloridaLiberty,Florida,Liberty,2021-01-06 02:24:32.235842,2020-07-28 00:00:00.000000,3.06121427,4.16546165,5.71036512,255,347,477,145,212,304,1.73957429,2.54088878,3.64919160,0.37105773,0.49374456,0.65417406
12077,0,USFloridaLiberty,Florida,Liberty,2021-01-06 02:24:32.235842,2020-07-29 00:00:00.000000,3.04327620,4.21973873,5.76215248,254,352,481,145,218,307,1.73775240,2.61492398,3.68188550,0.35968258,0.46905907,0.61524123
12077,0,USFloridaLiberty,Florida,Liberty,2021-01-06 02:24:32.235842,2020-07-30 00:00:00.000000,3.01813441,4.23508851,5.79122056,252,353,483,144,222,311,1.72923386,2.66180545,3.72332055,0.33440676,0.43611773,0.57294609
12077,0,USFloridaLiberty,Florida,Liberty,2021-01-06 02:24:32.235842,2020-07-31 00:00:00.000000,2.98541891,4.22696477,5.77722375,249,353,482,143,221,313,1.71683438,2.65025538,3.75435041,0.33613497,0.42031728,0.54651611
12077,0,USFloridaLiberty,Florida,Liberty,2021-01-06 02:24:32.235842,2020-08-01 00:00:00.000000,2.92484777,4.20671366,5.72241722,244,351,478,142,216,314,1.70150043,2.59738255,3.76619855,0.30991660,0.39696696,0.51696706
12077,0,USFloridaLiberty,Florida,Liberty,2021-01-06 02:24:32.235842,2020-08-02 00:00:00.000000,2.82232520,4.11628266,5.64361516,235,343,471,139,214,311,1.66721783,2.56590123,3.72730418,0.29504604,0.38007798,0.49028445
12077,0,USFloridaLiberty,Florida,Liberty,2021-01-06 02:24:32.235842,2020-08-03 00:00:00.000000,2.70006399,4.00781657,5.50321633,225,334,459,135,213,307,1.61709368,2.55871218,3.67529584,0.28545178,0.36140919,0.47840289
12077,0,USFloridaLiberty,Florida,Liberty,2021-01-06 02:24:32.235842,2020-08-04 00:00:00.000000,2.57345227,3.94811461,5.35947214,214,329,447,129,207,303,1.55444127,2.48835491,3.63691814,0.28213816,0.35475839,0.47195578
12077,0,USFloridaLiberty,Florida,Liberty,2021-01-06 02:24:32.235842,2020-08-05 00:00:00.000000,2.44517660,3.80163105,5.28986792,204,317,441,124,200,294,1.48500970,2.40036121,3.52161880,0.27921766,0.35237213,0.48429243
12077,0,USFloridaLiberty,Florida,Liberty,2021-01-06 02:24:32.235842,2020-08-06 00:00:00.000000,2.31765896,3.69321411,5.23849530,193,308,437,118,199,291,1.41314636,2.38218770,3.49208353,0.27837631,0.34596083,0.47873039
12077,0,USFloridaLiberty,Florida,Liberty,2021-01-06 02:24:32.235842,2020-08-07 00:00:00.000000,2.18199428,3.57468030,5.21770624,182,298,435,112,194,290,1.34097960,2.32817080,3.47762142,0.26845333,0.34029875,0.46227912
12077,0,USFloridaLiberty,Florida,Liberty,2021-01-06 02:24:32.235842,2020-08-08 00:00:00.000000,2.05287177,3.44006423,5.12507651,171,287,428,106,188,288,1.27001389,2.25420987,3.45495671,0.25299591,0.33007694,0.46058178
12077,0,USFloridaLiberty,Florida,Liberty,2021-01-06 02:24:32.235842,2020-08-09 00:00:00.000000,1.93735593,3.29767419,5.02907675,161,275,420,100,180,286,1.20103042,2.15895692,3.42500112,0.24708135,0.32229249,0.43684737
12077,0,USFloridaLiberty,Florida,Liberty,2021-01-06 02:24:32.235842,2020-08-10 00:00:00.000000,1.84719573,3.18172742,4.92154214,154,265,411,94,171,281,1.13447898,2.05763782,3.36588492,0.24271712,0.31837196,0.45085163
12077,0,USFloridaLiberty,Florida,Liberty,2021-01-06 02:24:32.235842,2020-08-11 00:00:00.000000,1.74603996,3.08653112,4.81325107,145,257,402,89,163,275,1.07194672,1.95973815,3.30151519,0.24089734,0.30618578,0.43397026
12077,0,USFloridaLiberty,Florida,Liberty,2021-01-06 02:24:32.235842,2020-08-12 00:00:00.000000,1.62949960,2.93216877,4.70454163,136,244,393,84,156,270,1.01324601,1.87425870,3.23413022,0.22006391,0.30476928,0.41127066
12077,0,USFloridaLiberty,Florida,Liberty,2021-01-06 02:24:32.235842,2020-08-13 00:00:00.000000,1.52306393,2.76925623,4.59610500,127,231,383,80,149,264,0.95885532,1.79286379,3.16514124,0.22036249,0.30529770,0.42832881
12077,0,USFloridaLiberty,Florida,Liberty,2021-01-06 02:24:32.235842,2020-08-14 00:00:00.000000,1.42758181,2.63567219,4.48813168,119,220,374,75,142,258,0.90823043,1.70526328,3.09542133,0.22329457,0.30425060,0.42945856
12077,0,USFloridaLiberty,Florida,Liberty,2021-01-06 02:24:32.235842,2020-08-15 00:00:00.000000,1.34070881,2.52875276,4.37833696,112,211,365,71,137,252,0.85898388,1.64172308,3.02544507,0.22441969,0.30616607,0.44926727
12077,0,USFloridaLiberty,Florida,Liberty,2021-01-06 02:24:32.235842,2020-08-16 00:00:00.000000,1.28024526,2.45897247,4.25435287,106,205,355,67,132,246,0.80382697,1.58991070,2.95477800,0.22464347,0.30785115,0.43591862
12077,0,USFloridaLiberty,Florida,Liberty,2021-01-06 02:24:32.235842,2020-08-17 00:00:00.000000,1.19926556,2.37737994,4.13804356,100,198,345,63,128,240,0.76395398,1.53499789,2.87916298,0.22977510,0.31054975,0.44202455
12077,0,USFloridaLiberty,Florida,Liberty,2021-01-06 02:24:32.235842,2020-08-18 00:00:00.000000,1.13131272,2.26321864,4.02053063,94,189,335,60,123,234,0.71958080,1.47734840,2.80321005,0.24792239,0.31342738,0.45278902
12077,0,USFloridaLiberty,Florida,Liberty,2021-01-06 02:24:32.235842,2020-08-19 00:00:00.000000,1.08061778,2.15866072,3.90593616,90,180,326,57,119,227,0.68578351,1.42795126,2.72686760,0.24447610,0.31512438,0.45775284
12077,0,USFloridaLiberty,Florida,Liberty,2021-01-06 02:24:32.235842,2020-08-20 00:00:00.000000,1.03569821,2.09364604,3.79495033,86,174,317,54,115,221,0.65230141,1.38001513,2.65122231,0.23923492,0.31560733,0.45942846
12077,0,USFloridaLiberty,Florida,Liberty,2021-01-06 02:24:32.235842,2020-08-21 00:00:00.000000,0.99734018,2.03202344,3.68823166,83,169,308,52,111,215,0.62487025,1.33343001,2.57710990,0.23632203,0.31778816,0.46818142
12077,0,USFloridaLiberty,Florida,Liberty,2021-01-06 02:24:32.235842,2020-08-22 00:00:00.000000,0.96962893,2.02220788,3.58560135,81,168,299,50,108,209,0.60114390,1.29781985,2.50516588,0.23454621,0.31884992,0.46585969
12077,0,USFloridaLiberty,Florida,Liberty,2021-01-06 02:24:32.235842,2020-08-23 00:00:00.000000,0.95659025,1.94402567,3.48675431,79,162,291,48,105,203,0.58315159,1.25988567,2.43564569,0.23397532,0.32435970,0.47714882
12077,0,USFloridaLiberty,Florida,Liberty,2021-01-06 02:24:32.235842,2020-08-24 00:00:00.000000,0.95909366,1.87104989,3.36815330,80,156,281,47,101,197,0.57339659,1.21585420,2.36855712,0.23210609,0.32694156,0.48970172
12077,0,USFloridaLiberty,Florida,Liberty,2021-01-06 02:24:32.235842,2020-08-25 00:00:00.000000,0.95397365,1.79262006,3.25779600,79,149,272,47,97,191,0.57301951,1.16905941,2.29636798,0.22847992,0.33162352,0.49546059
12077,0,USFloridaLiberty,Florida,Liberty,2021-01-06 02:24:32.235842,2020-08-26 00:00:00.000000,0.90305866,1.73499760,3.15756275,75,144,263,48,94,185,0.57739595,1.12853138,2.22398050,0.22588563,0.33371135,0.51580833
12077,0,USFloridaLiberty,Florida,Liberty,2021-01-06 02:24:32.235842,2020-08-27 00:00:00.000000,0.86544674,1.69746461,3.06381737,72,141,255,46,91,180,0.55817563,1.09043971,2.15494504,0.22942210,0.33885846,0.54548454
12077,0,USFloridaLiberty,Florida,Liberty,2021-01-06 02:24:32.235842,2020-08-28 00:00:00.000000,0.89043153,1.64079107,2.97371085,74,137,248,44,88,174,0.52867075,1.05987177,2.08959541,0.23026388,0.34055666,0.54404694
12077,0,USFloridaLiberty,Florida,Liberty,2021-01-06 02:24:32.235842,2020-08-29 00:00:00.000000,0.90276899,1.63763345,2.88624754,75,136,241,45,85,169,0.54179154,1.01891107,2.02724612,0.23963722,0.34631293,0.54409471
12077,0,USFloridaLiberty,Florida,Liberty,2021-01-06 02:24:32.235842,2020-08-30 00:00:00.000000,0.86146664,1.63324632,2.80077003,71,136,233,46,82,164,0.55318638,0.98902244,1.96723932,0.23753608,0.35263901,0.54222198
12077,0,USFloridaLiberty,Florida,Liberty,2021-01-06 02:24:32.235842,2020-08-31 00:00:00.000000,0.91825791,1.59496818,2.73039915,76,133,228,45,81,159,0.54561569,0.97039355,1.90902132,0.24370374,0.35076391,0.54881302
12077,0,USFloridaLiberty,Florida,Liberty,2021-01-06 02:24:32.235842,2020-09-01 00:00:00.000000,0.94469026,1.59091715,2.66029581,78,132,222,46,80,155,0.55246196,0.96348974,1.85652281,0.24399350,0.35657111,0.54943788
12077,0,USFloridaLiberty,Florida,Liberty,2021-01-06 02:24:32.235842,2020-09-02 00:00:00.000000,0.97385403,1.58047218,2.62144187,81,132,218,47,81,150,0.57386748,0.96960452,1.80713950,0.24455528,0.35653522,0.54973949
12077,0,USFloridaLiberty,Florida,Liberty,2021-01-06 02:24:32.235842,2020-09-03 00:00:00.000000,1.00320408,1.59401996,2.63147357,83,133,219,49,81,146,0.59276444,0.97800324,1.75929028,0.24458993,0.35578799,0.54999477
12077,0,USFloridaLiberty,Florida,Liberty,2021-01-06 02:24:32.235842,2020-09-04 00:00:00.000000,1.03155156,1.58242805,2.64040114,86,132,220,49,83,146,0.58896343,0.99618635,1.75581592,0.24446045,0.35649974,0.55039768
12077,0,USFloridaLiberty,Florida,Liberty,2021-01-06 02:24:32.235842,2020-09-05 00:00:00.000000,1.02294982,1.60194242,2.64570493,85,133,221,48,83,147,0.58429663,1.00456208,1.76074559,0.24325518,0.34912231,0.55114296
12077,0,USFloridaLiberty,Florida,Liberty,2021-01-06 02:24:32.235842,2020-09-06 00:00:00.000000,1.01160948,1.60284902,2.60651881,84,133,217,48,83,147,0.57900563,1.00201884,1.76431477,0.24283130,0.34630299,0.55093031
12077,0,USFloridaLiberty,Florida,Liberty,2021-01-06 02:24:32.235842,2020-09-07 00:00:00.000000,0.99562253,1.59292785,2.57128913,83,133,214,47,83,147,0.57338319,0.99846966,1.76364287,0.24259355,0.34994369,0.54723633
12077,0,USFloridaLiberty,Florida,Liberty,2021-01-06 02:24:32.235842,2020-09-08 00:00:00.000000,0.96058383,1.61174195,2.53804737,80,134,212,47,82,145,0.56580961,0.99063865,1.74484948,0.24219522,0.35070850,0.52761388
12077,0,USFloridaLiberty,Florida,Liberty,2021-01-06 02:24:32.235842,2020-09-09 00:00:00.000000,0.93049409,1.60403212,2.48671480,77,134,207,45,82,143,0.54922315,0.98253933,1.71496937,0.24130229,0.35082233,0.52795224
12077,0,USFloridaLiberty,Florida,Liberty,2021-01-06 02:24:32.235842,2020-09-10 00:00:00.000000,0.93232050,1.56760601,2.42829453,77,130,202,44,79,140,0.53280748,0.95567758,1.67963187,0.24006873,0.34811742,0.52753073
12077,0,USFloridaLiberty,Florida,Liberty,2021-01-06 02:24:32.235842,2020-09-11 00:00:00.000000,0.88571349,1.52679483,2.37046977,73,127,198,44,80,137,0.53498340,0.96220196,1.64225442,0.23924409,0.33736260,0.52798375
12077,0,USFloridaLiberty,Florida,Liberty,2021-01-06 02:24:32.235842,2020-09-12 00:00:00.000000,0.84812566,1.50364252,2.31340073,70,125,193,42,79,134,0.50878198,0.95434216,1.60448373,0.23880980,0.32733417,0.53253363
12077,0,USFloridaLiberty,Florida,Liberty,2021-01-06 02:24:32.235842,2020-09-13 00:00:00.000000,0.82149329,1.48004376,2.25693505,68,123,188,40,79,130,0.48553830,0.94589644,1.56688113,0.22773350,0.32787285,0.53737373
12077,0,USFloridaLiberty,Florida,Liberty,2021-01-06 02:24:32.235842,2020-09-14 00:00:00.000000,0.79167865,1.45805277,2.22083787,66,121,185,39,77,127,0.47085716,0.92531553,1.52953825,0.22114966,0.32084946,0.54213164
12077,0,USFloridaLiberty,Florida,Liberty,2021-01-06 02:24:32.235842,2020-09-15 00:00:00.000000,0.75834007,1.41155008,2.21184976,63,117,184,37,74,123,0.45445697,0.89661904,1.47457823,0.21908409,0.31701133,0.54629071
12077,0,USFloridaLiberty,Florida,Liberty,2021-01-06 02:24:32.235842,2020-09-16 00:00:00.000000,0.70607882,1.35525982,2.10982433,58,113,176,36,72,118,0.43782255,0.86268498,1.41250054,0.21661811,0.30845974,0.48717358
12077,0,USFloridaLiberty,Florida,Liberty,2021-01-06 02:24:32.235842,2020-09-17 00:00:00.000000,0.67220965,1.33749874,2.00167413,56,111,167,34,69,116,0.41013337,0.82772927,1.39402471,0.20749909,0.30399483,0.45843683
12077,0,USFloridaLiberty,Florida,Liberty,2021-01-06 02:24:32.235842,2020-09-18 00:00:00.000000,0.64613206,1.29713274,1.94580329,53,108,162,32,67,116,0.38385456,0.80325857,1.39455289,0.20135477,0.30012580,0.44731128
12077,0,USFloridaLiberty,Florida,Liberty,2021-01-06 02:24:32.235842,2020-09-19 00:00:00.000000,0.62214904,1.23779656,1.89111343,51,103,157,30,66,110,0.36855607,0.79027010,1.32528972,0.20185245,0.28857002,0.42382254
12077,0,USFloridaLiberty,Florida,Liberty,2021-01-06 02:24:32.235842,2020-09-20 00:00:00.000000,0.58658304,1.18742723,1.85549709,49,99,155,29,64,105,0.35445959,0.77011368,1.26151902,0.20152068,0.28273852,0.41454569
12077,0,USFloridaLiberty,Florida,Liberty,2021-01-06 02:24:32.235842,2020-09-21 00:00:00.000000,0.56066279,1.13338705,1.76809991,46,94,147,28,61,102,0.34135942,0.74067505,1.22523502,0.19936931,0.27884896,0.40735632
12077,0,USFloridaLiberty,Florida,Liberty,2021-01-06 02:24:32.235842,2020-09-22 00:00:00.000000,0.55046874,1.07984270,1.68573385,45,90,140,26,60,100,0.32271738,0.71946446,1.20448391,0.19485443,0.27462923,0.39243387
12077,0,USFloridaLiberty,Florida,Liberty,2021-01-06 02:24:32.235842,2020-09-23 00:00:00.000000,0.52725542,1.02653545,1.60898763,44,85,134,26,57,96,0.31326910,0.68777634,1.15541354,0.19360254,0.26868060,0.39021700
12077,0,USFloridaLiberty,Florida,Liberty,2021-01-06 02:24:32.235842,2020-09-24 00:00:00.000000,0.50485912,0.98443125,1.53572486,42,82,128,25,54,92,0.30125911,0.65656180,1.10224587,0.19444335,0.26913368,0.39154460
12077,0,USFloridaLiberty,Florida,Liberty,2021-01-06 02:24:32.235842,2020-09-25 00:00:00.000000,0.48343911,0.94436401,1.50568946,40,78,125,24,53,87,0.29478447,0.63470759,1.05220771,0.19267300,0.26888637,0.39161691
12077,0,USFloridaLiberty,Florida,Liberty,2021-01-06 02:24:32.235842,2020-09-26 00:00:00.000000,0.46351932,0.90782218,1.55948064,38,75,130,23,51,83,0.28378687,0.62033552,1.00512345,0.19010994,0.27087546,0.38933162
12077,0,USFloridaLiberty,Florida,Liberty,2021-01-06 02:24:32.235842,2020-09-27 00:00:00.000000,0.44501242,0.87746530,1.59910369,37,73,133,22,50,81,0.26752077,0.60285538,0.97450459,0.19027054,0.27210485,0.38029985
12077,0,USFloridaLiberty,Florida,Liberty,2021-01-06 02:24:32.235842,2020-09-28 00:00:00.000000,0.43717123,0.84442786,1.52573721,36,70,127,21,48,80,0.25550607,0.58327865,0.95814536,0.18960106,0.27162405,0.36988716
12077,0,USFloridaLiberty,Florida,Liberty,2021-01-06 02:24:32.235842,2020-09-29 00:00:00.000000,0.41544034,0.82507484,1.44990034,34,68,121,20,46,78,0.24823664,0.55811302,0.93789057,0.18939502,0.27214850,0.37697777
12077,0,USFloridaLiberty,Florida,Liberty,2021-01-06 02:24:32.235842,2020-09-30 00:00:00.000000,0.39598248,0.81322622,1.37348143,33,67,114,20,45,76,0.24466815,0.54194778,0.91603731,0.18938462,0.26995289,0.38100140
12077,0,USFloridaLiberty,Florida,Liberty,2021-01-06 02:24:32.235842,2020-10-01 00:00:00.000000,0.37883364,0.78314007,1.29842754,31,65,108,19,43,74,0.23588348,0.51779641,0.89371867,0.18731895,0.27112518,0.38343131
12077,0,USFloridaLiberty,Florida,Liberty,2021-01-06 02:24:32.235842,2020-10-02 00:00:00.000000,0.37091693,0.75745468,1.26108514,30,63,105,19,40,71,0.23079939,0.48789910,0.85506776,0.18603068,0.26633554,0.40023747
12077,0,USFloridaLiberty,Florida,Liberty,2021-01-06 02:24:32.235842,2020-10-03 00:00:00.000000,0.36304292,0.72624543,1.22933086,30,60,102,18,39,67,0.22596446,0.47429746,0.80940347,0.18643767,0.26594413,0.41194796
12077,0,USFloridaLiberty,Florida,Liberty,2021-01-06 02:24:32.235842,2020-10-04 00:00:00.000000,0.35485420,0.69429972,1.18487845,29,58,98,18,38,64,0.22116933,0.46049948,0.76792965,0.18513557,0.26512672,0.41249868
12077,0,USFloridaLiberty,Florida,Liberty,2021-01-06 02:24:32.235842,2020-10-05 00:00:00.000000,0.34715629,0.67077333,1.11771609,29,56,93,18,37,61,0.21619879,0.44587927,0.73274968,0.18073788,0.26638604,0.42793915
12077,0,USFloridaLiberty,Florida,Liberty,2021-01-06 02:24:32.235842,2020-10-06 00:00:00.000000,0.34010399,0.64145729,1.06030560,28,53,88,17,36,58,0.21153465,0.43163830,0.69809728,0.17952349,0.26610285,0.44091412
12077,0,USFloridaLiberty,Florida,Liberty,2021-01-06 02:24:32.235842,2020-10-07 00:00:00.000000,0.32985868,0.62614901,1.04613089,27,52,87,16,34,56,0.20053728,0.41222551,0.68162815,0.17774704,0.26738248,0.44558810
12077,0,USFloridaLiberty,Florida,Liberty,2021-01-06 02:24:32.235842,2020-10-08 00:00:00.000000,0.30655779,0.61198500,0.99846296,25,51,83,16,33,56,0.20190724,0.40303887,0.67085849,0.17795563,0.26924835,0.44706993
12077,0,USFloridaLiberty,Florida,Liberty,2021-01-06 02:24:32.235842,2020-10-09 00:00:00.000000,0.28577894,0.59762957,0.95295376,23,49,79,16,33,55,0.19718936,0.39529824,0.66359194,0.18123479,0.27327843,0.44746366
12077,0,USFloridaLiberty,Florida,Liberty,2021-01-06 02:24:32.235842,2020-10-10 00:00:00.000000,0.27274294,0.58884264,0.95502407,22,49,79,15,31,54,0.18694335,0.38287992,0.65377463,0.18190703,0.27211953,0.44743464
12077,0,USFloridaLiberty,Florida,Liberty,2021-01-06 02:24:32.235842,2020-10-11 00:00:00.000000,0.26405210,0.58362503,0.96849982,22,48,80,14,31,52,0.17487547,0.37335495,0.62444582,0.17951679,0.27977361,0.44700875
12077,0,USFloridaLiberty,Florida,Liberty,2021-01-06 02:24:32.235842,2020-10-12 00:00:00.000000,0.28726569,0.57606883,0.95883483,23,48,80,13,30,51,0.16451910,0.36293394,0.61262652,0.17752408,0.28704214,0.44491283
12077,0,USFloridaLiberty,Florida,Liberty,2021-01-06 02:24:32.235842,2020-10-13 00:00:00.000000,0.29135959,0.57522321,0.94502048,24,48,78,14,30,51,0.16841331,0.36321012,0.61308288,0.17640475,0.29860577,0.44836460
12077,0,USFloridaLiberty,Florida,Liberty,2021-01-06 02:24:32.235842,2020-10-14 00:00:00.000000,0.28975364,0.57043099,0.89965972,24,47,75,14,30,51,0.17338548,0.36266935,0.61099829,0.18161525,0.30247396,0.46414153
12077,0,USFloridaLiberty,Florida,Liberty,2021-01-06 02:24:32.235842,2020-10-15 00:00:00.000000,0.28928620,0.56245187,0.87978957,24,46,73,14,29,49,0.17207605,0.35119769,0.58724994,0.19140719,0.30824229,0.47628463
12077,0,USFloridaLiberty,Florida,Liberty,2021-01-06 02:24:32.235842,2020-10-16 00:00:00.000000,0.28821465,0.54627089,0.88200464,24,45,73,14,28,48,0.17112873,0.34370636,0.58052173,0.19187989,0.31893686,0.47793366
12077,0,USFloridaLiberty,Florida,Liberty,2021-01-06 02:24:32.235842,2020-10-17 00:00:00.000000,0.29358925,0.53300129,0.88866800,24,44,74,14,28,48,0.17418720,0.34601788,0.58292895,0.18878277,0.32959295,0.47828680
12077,0,USFloridaLiberty,Florida,Liberty,2021-01-06 02:24:32.235842,2020-10-18 00:00:00.000000,0.30207734,0.52532077,0.89812826,25,43,75,14,28,48,0.17807846,0.34643096,0.58546061,0.18428173,0.33182788,0.49975922
12077,0,USFloridaLiberty,Florida,Liberty,2021-01-06 02:24:32.235842,2020-10-19 00:00:00.000000,0.29963598,0.53391637,0.90534358,25,44,75,15,28,49,0.18088300,0.34247696,0.58768608,0.18103764,0.33174160,0.51531980
12077,0,USFloridaLiberty,Florida,Liberty,2021-01-06 02:24:32.235842,2020-10-20 00:00:00.000000,0.29466343,0.52805446,0.91289145,24,44,76,15,29,47,0.18216770,0.34731735,0.57280395,0.18040073,0.33299221,0.51777743
12077,0,USFloridaLiberty,Florida,Liberty,2021-01-06 02:24:32.235842,2020-10-21 00:00:00.000000,0.29070318,0.53412752,0.92284246,24,44,77,15,28,48,0.18320233,0.34664448,0.57653496,0.18260336,0.34194780,0.51760349
12077,0,USFloridaLiberty,Florida,Liberty,2021-01-06 02:24:32.235842,2020-10-22 00:00:00.000000,0.28747427,0.54529016,0.92834119,24,45,77,15,27,48,0.18050732,0.33460545,0.58124644,0.19009550,0.34828661,0.52860758
12077,0,USFloridaLiberty,Florida,Liberty,2021-01-06 02:24:32.235842,2020-10-23 00:00:00.000000,0.28514624,0.52823372,0.93597288,23,44,78,14,27,48,0.17832010,0.33016169,0.58583893,0.19915472,0.35169068,0.55077551
12077,0,USFloridaLiberty,Florida,Liberty,2021-01-06 02:24:32.235842,2020-10-24 00:00:00.000000,0.28439051,0.52062818,0.94330404,23,43,78,14,27,48,0.17679931,0.33483617,0.58282335,0.20382356,0.36005004,0.56077931
12077,0,USFloridaLiberty,Florida,Liberty,2021-01-06 02:24:32.235842,2020-10-25 00:00:00.000000,0.28526639,0.52905121,0.95034350,23,44,79,14,27,49,0.17590696,0.32966828,0.58729427,0.20859487,0.37245023,0.57396100
12077,0,USFloridaLiberty,Florida,Liberty,2021-01-06 02:24:32.235842,2020-10-26 00:00:00.000000,0.29967807,0.53652108,0.98084348,25,44,81,14,27,50,0.17595362,0.32750961,0.59956837,0.21331747,0.37930415,0.60589502
12077,0,USFloridaLiberty,Florida,Liberty,2021-01-06 02:24:32.235842,2020-10-27 00:00:00.000000,0.31460795,0.52975856,0.99829681,26,44,83,15,26,51,0.18207065,0.32259793,0.61087479,0.21768989,0.38637649,0.62271855
12077,0,USFloridaLiberty,Florida,Liberty,2021-01-06 02:24:32.235842,2020-10-28 00:00:00.000000,0.32787779,0.53520930,1.02444542,27,44,85,15,26,52,0.18598766,0.32042318,0.62515792,0.21820710,0.38923968,0.63355477
12077,0,USFloridaLiberty,Florida,Liberty,2021-01-06 02:24:32.235842,2020-10-29 00:00:00.000000,0.32848593,0.53946275,1.05286021,27,45,87,15,26,53,0.18730794,0.31649828,0.64091154,0.21850189,0.39339861,0.65629050
12077,0,USFloridaLiberty,Florida,Liberty,2021-01-06 02:24:32.235842,2020-10-30 00:00:00.000000,0.32300335,0.54541389,1.08550097,26,45,90,15,27,54,0.18737224,0.33104816,0.65802778,0.21932263,0.41422248,0.66709690
12077,0,USFloridaLiberty,Florida,Liberty,2021-01-06 02:24:32.235842,2020-10-31 00:00:00.000000,0.31670848,0.55549254,1.12050412,26,46,93,15,27,56,0.18788329,0.33383984,0.67729963,0.22189793,0.43666266,0.72812571
12077,0,USFloridaLiberty,Florida,Liberty,2021-01-06 02:24:32.235842,2020-11-01 00:00:00.000000,0.31126976,0.56227174,1.15555541,26,46,96,15,28,58,0.18886273,0.34194727,0.69867386,0.22982913,0.44398525,0.74732090
12077,0,USFloridaLiberty,Florida,Liberty,2021-01-06 02:24:32.235842,2020-11-02 00:00:00.000000,0.31854726,0.57241836,1.15302238,26,47,96,15,28,60,0.18778980,0.34554456,0.72014188,0.25030326,0.45588449,0.74932476
12077,0,USFloridaLiberty,Florida,Liberty,2021-01-06 02:24:32.235842,2020-11-03 00:00:00.000000,0.32800990,0.58446899,1.15018805,27,48,96,15,29,60,0.18794479,0.34904482,0.72792573,0.28431819,0.46600254,0.74934004
12077,0,USFloridaLiberty,Florida,Liberty,2021-01-06 02:24:32.235842,2020-11-04 00:00:00.000000,0.34036832,0.60129714,1.14481924,28,50,95,16,29,60,0.19265580,0.35474583,0.72927606,0.28865465,0.47799795,0.74870963
12077,0,USFloridaLiberty,Florida,Liberty,2021-01-06 02:24:32.235842,2020-11-05 00:00:00.000000,0.35420319,0.60794957,1.13835852,29,50,95,16,30,60,0.19936079,0.36203912,0.72756222,0.28911666,0.47845743,0.74674125
12077,0,USFloridaLiberty,Florida,Liberty,2021-01-06 02:24:32.235842,2020-11-06 00:00:00.000000,0.36384110,0.62419848,1.13164540,30,52,94,17,31,60,0.20718556,0.37727686,0.72440376,0.28933754,0.48593505,0.74221947
12077,0,USFloridaLiberty,Florida,Liberty,2021-01-06 02:24:32.235842,2020-11-07 00:00:00.000000,0.36459997,0.64982213,1.17302454,30,54,97,17,31,60,0.20944431,0.37849392,0.72064533,0.28938010,0.49290701,0.79960520
12077,0,USFloridaLiberty,Florida,Liberty,2021-01-06 02:24:32.235842,2020-11-08 00:00:00.000000,0.37140571,0.67256343,1.21759613,31,56,101,17,31,59,0.21507945,0.37927658,0.71681015,0.28953403,0.51413309,0.86842447
12077,0,USFloridaLiberty,Florida,Liberty,2021-01-06 02:24:32.235842,2020-11-09 00:00:00.000000,0.37554285,0.69914100,1.24023913,31,58,103,18,32,60,0.22249407,0.39437047,0.71846700,0.29040667,0.54098890,0.89418563
12077,0,USFloridaLiberty,Florida,Liberty,2021-01-06 02:24:32.235842,2020-11-10 00:00:00.000000,0.36933190,0.72188484,1.26389997,30,60,105,18,34,61,0.22069638,0.40823792,0.73796080,0.30150161,0.56506285,0.91966581
12077,0,USFloridaLiberty,Florida,Liberty,2021-01-06 02:24:32.235842,2020-11-11 00:00:00.000000,0.36698693,0.76629212,1.28723025,30,64,107,18,35,64,0.21629764,0.42247689,0.77663129,0.32803720,0.57388260,0.92192512
12077,0,USFloridaLiberty,Florida,Liberty,2021-01-06 02:24:32.235842,2020-11-12 00:00:00.000000,0.36688933,0.79822795,1.31111012,30,66,109,17,36,69,0.21329517,0.43848056,0.82759683,0.36891165,0.58684449,0.92462951
12077,0,USFloridaLiberty,Florida,Liberty,2021-01-06 02:24:32.235842,2020-11-13 00:00:00.000000,0.36895156,0.82154820,1.35288535,30,68,113,17,38,73,0.21300428,0.45669476,0.88257112,0.37250958,0.61780834,0.98979452
12077,0,USFloridaLiberty,Florida,Liberty,2021-01-06 02:24:32.235842,2020-11-14 00:00:00.000000,0.37242512,0.87624033,1.48064189,31,73,123,17,40,78,0.21330084,0.48646078,0.94042007,0.38790569,0.65079239,1.03091436
12077,0,USFloridaLiberty,Florida,Liberty,2021-01-06 02:24:32.235842,2020-11-15 00:00:00.000000,0.37942528,0.92032059,1.62173067,31,76,135,17,42,83,0.21453133,0.50853403,1.00094218,0.40290960,0.68943652,1.06250540
12077,0,USFloridaLiberty,Florida,Liberty,2021-01-06 02:24:32.235842,2020-11-16 00:00:00.000000,0.49059526,0.98683418,1.67350268,40,82,139,18,44,88,0.21679736,0.53327744,1.06412766,0.42416467,0.72046033,1.10823577
12077,0,USFloridaLiberty,Florida,Liberty,2021-01-06 02:24:32.235842,2020-11-17 00:00:00.000000,0.57644896,1.04918458,1.74145153,48,87,145,21,46,94,0.25644858,0.55895702,1.12780162,0.43586331,0.73385940,1.16559552
12077,0,USFloridaLiberty,Florida,Liberty,2021-01-06 02:24:32.235842,2020-11-18 00:00:00.000000,0.62629257,1.10723663,1.82219457,52,92,152,26,49,99,0.31353307,0.59570712,1.19353406,0.44525278,0.76586836,1.27577089
12077,0,USFloridaLiberty,Florida,Liberty,2021-01-06 02:24:32.235842,2020-11-19 00:00:00.000000,0.67775582,1.18980926,1.91005763,56,99,159,31,53,105,0.37323426,0.64039746,1.26157182,0.45969587,0.78830307,1.35588453
12077,0,USFloridaLiberty,Florida,Liberty,2021-01-06 02:24:32.235842,2020-11-20 00:00:00.000000,0.73145522,1.26359634,1.99924596,61,105,167,33,58,111,0.40404835,0.69512518,1.33184295,0.46971964,0.78533417,1.38117014
12077,0,USFloridaLiberty,Florida,Liberty,2021-01-06 02:24:32.235842,2020-11-21 00:00:00.000000,0.78992530,1.33907397,2.11929518,65,111,177,36,61,117,0.43327088,0.73950699,1.40187845,0.47316241,0.79963536,1.34498694
12077,0,USFloridaLiberty,Florida,Liberty,2021-01-06 02:24:32.235842,2020-11-22 00:00:00.000000,0.82767354,1.42135826,2.27866077,69,118,190,38,65,121,0.46624132,0.78361323,1.45982837,0.49651072,0.82000492,1.26294708
12077,0,USFloridaLiberty,Florida,Liberty,2021-01-06 02:24:32.235842,2020-11-23 00:00:00.000000,0.88057428,1.51318638,2.36600059,73,126,197,41,70,125,0.49665798,0.83827270,1.49897690,0.54040927,0.81453756,1.29521753
12077,0,USFloridaLiberty,Florida,Liberty,2021-01-06 02:24:32.235842,2020-11-24 00:00:00.000000,0.95117563,1.57260690,2.45575975,79,131,205,43,74,129,0.51923222,0.89525255,1.55601013,0.57070079,0.80554254,1.34754445
12077,0,USFloridaLiberty,Florida,Liberty,2021-01-06 02:24:32.235842,2020-11-25 00:00:00.000000,0.98841406,1.67639999,2.56946929,82,140,214,44,77,135,0.53659604,0.92291952,1.62134053,0.57521379,0.80548944,1.41296137
12077,0,USFloridaLiberty,Florida,Liberty,2021-01-06 02:24:32.235842,2020-11-26 00:00:00.000000,1.02394530,1.80284101,2.69486304,85,150,225,47,79,141,0.56622065,0.95570376,1.68993630,0.60851532,0.80539167,1.43937162
12077,0,USFloridaLiberty,Florida,Liberty,2021-01-06 02:24:32.235842,2020-11-27 00:00:00.000000,1.07368320,1.89737222,2.82180993,89,158,235,50,85,145,0.60340428,1.02393441,1.74121876,0.61895365,0.82304978,1.43820213
12077,0,USFloridaLiberty,Florida,Liberty,2021-01-06 02:24:32.235842,2020-11-28 00:00:00.000000,1.11850720,2.00225239,2.93528136,93,167,245,52,90,149,0.62469373,1.08344005,1.79166851,0.62197678,0.84718312,1.47140906
12077,0,USFloridaLiberty,Florida,Liberty,2021-01-06 02:24:32.235842,2020-11-29 00:00:00.000000,1.14803683,2.10122715,3.04175135,95,175,254,52,95,153,0.63057519,1.14354026,1.84150741,0.62310008,0.85361501,1.45780483
12077,0,USFloridaLiberty,Florida,Liberty,2021-01-06 02:24:32.235842,2020-11-30 00:00:00.000000,1.21966594,2.19798615,3.16973719,101,183,264,55,101,158,0.66410778,1.20966439,1.89216449,0.62371206,0.88237918,1.45228925
12077,0,USFloridaLiberty,Florida,Liberty,2021-01-06 02:24:32.235842,2020-12-01 00:00:00.000000,1.29292888,2.29365178,3.23626114,108,191,270,59,106,164,0.70777415,1.26964553,1.97110434,0.62413068,0.88500725,1.50318707
12077,0,USFloridaLiberty,Florida,Liberty,2021-01-06 02:24:32.235842,2020-12-02 00:00:00.000000,1.37033140,2.37047511,3.35170402,114,198,280,62,110,172,0.74981529,1.32225749,2.06262432,0.62602895,0.88141337,1.51574101
12077,0,USFloridaLiberty,Florida,Liberty,2021-01-06 02:24:32.235842,2020-12-03 00:00:00.000000,1.41209949,2.43684587,3.44373733,117,203,287,66,114,176,0.79051315,1.36937708,2.11788347,0.63119771,0.88105496,1.51586140
12077,0,USFloridaLiberty,Florida,Liberty,2021-01-06 02:24:32.235842,2020-12-04 00:00:00.000000,1.46296695,2.52056747,3.57828985,122,210,298,67,119,184,0.80969212,1.42660583,2.20296505,0.64315860,0.88773066,1.54649028
12077,0,USFloridaLiberty,Florida,Liberty,2021-01-06 02:24:32.235842,2020-12-05 00:00:00.000000,1.51524490,2.61130043,3.70442458,126,218,309,70,123,189,0.84771981,1.48201710,2.26818324,0.66966844,0.89329491,1.58994187
12077,0,USFloridaLiberty,Florida,Liberty,2021-01-06 02:24:32.235842,2020-12-06 00:00:00.000000,1.56900310,2.70458782,3.89811046,131,225,325,73,128,197,0.87442844,1.54017349,2.35892000,0.67095165,0.90686502,1.53761759
12077,0,USFloridaLiberty,Florida,Liberty,2021-01-06 02:24:32.235842,2020-12-07 00:00:00.000000,1.64941949,2.76943807,4.07171904,137,231,340,74,132,207,0.89508251,1.59102478,2.48455561,0.67117336,0.92786936,1.53595422
12077,0,USFloridaLiberty,Florida,Liberty,2021-01-06 02:24:32.235842,2020-12-08 00:00:00.000000,1.70546437,2.84232795,4.23409794,142,237,353,76,136,217,0.91899838,1.63585178,2.60395677,0.67316127,0.96276092,1.53632271
12077,0,USFloridaLiberty,Florida,Liberty,2021-01-06 02:24:32.235842,2020-12-09 00:00:00.000000,1.75628010,2.91587731,4.39352086,146,243,367,78,140,227,0.94461938,1.68104070,2.72108469,0.68564221,0.96708603,1.68066460
12077,0,USFloridaLiberty,Florida,Liberty,2021-01-06 02:24:32.235842,2020-12-10 00:00:00.000000,1.80805798,2.99548775,4.55036715,151,250,380,82,144,235,0.98175237,1.72689347,2.81722322,0.69831445,0.95354645,1.76886815
12077,0,USFloridaLiberty,Florida,Liberty,2021-01-06 02:24:32.235842,2020-12-11 00:00:00.000000,1.86092714,3.08378155,4.70349944,155,257,392,87,148,242,1.04288330,1.77189447,2.90081281,0.71084584,0.95818844,1.77650606
12077,0,USFloridaLiberty,Florida,Liberty,2021-01-06 02:24:32.235842,2020-12-12 00:00:00.000000,1.96757655,3.18876773,4.85257791,164,266,405,90,150,249,1.07789885,1.80683534,2.98099935,0.70714572,0.95972200,1.76529098
12077,0,USFloridaLiberty,Florida,Liberty,2021-01-06 02:24:32.235842,2020-12-13 00:00:00.000000,2.01671780,3.26066557,4.99653354,168,272,417,93,156,255,1.11404369,1.87667488,3.05734594,0.71507382,0.96886484,1.80728437
12077,0,USFloridaLiberty,Florida,Liberty,2021-01-06 02:24:32.235842,2020-12-14 00:00:00.000000,2.15263846,3.37809009,5.11901962,179,282,427,96,162,261,1.15193907,1.94563618,3.12937970,0.71311344,0.97044848,1.82465251
12077,0,USFloridaLiberty,Florida,Liberty,2021-01-06 02:24:32.235842,2020-12-15 00:00:00.000000,2.27148824,3.50658262,5.22866127,189,292,436,100,167,266,1.20566685,2.00635223,3.18704677,0.72764432,0.97735417,1.83044034
12077,0,USFloridaLiberty,Florida,Liberty,2021-01-06 02:24:32.235842,2020-12-16 00:00:00.000000,2.41049449,3.63211590,5.34274497,201,303,446,106,173,270,1.26918467,2.07795579,3.23692594,0.73746071,0.99466003,1.82831982
12077,0,USFloridaLiberty,Florida,Liberty,2021-01-06 02:24:32.235842,2020-12-17 00:00:00.000000,2.54072327,3.77534808,5.44385411,212,315,454,112,179,277,1.34253624,2.14513905,3.31825464,0.74768566,1.01395411,1.80619293
12077,0,USFloridaLiberty,Florida,Liberty,2021-01-06 02:24:32.235842,2020-12-18 00:00:00.000000,2.66900292,3.90427893,5.53582698,222,326,462,119,184,286,1.43323006,2.21267977,3.42362670,0.78384232,1.01373200,1.72880019
12077,0,USFloridaLiberty,Florida,Liberty,2021-01-06 02:24:32.235842,2020-12-19 00:00:00.000000,2.73821537,4.01240182,5.61812200,228,335,469,128,189,294,1.53907760,2.26294214,3.52534809,0.78710185,1.02869548,1.63146268
12077,0,USFloridaLiberty,Florida,Liberty,2021-01-06 02:24:32.235842,2020-12-20 00:00:00.000000,2.78419295,4.06786810,5.69017252,232,339,475,133,195,304,1.59776500,2.33552956,3.63921308,0.77852715,1.02378650,1.59002831
12077,0,USFloridaLiberty,Florida,Liberty,2021-01-06 02:24:32.235842,2020-12-21 00:00:00.000000,2.81815898,4.18008126,5.75674212,235,349,480,134,202,311,1.61573102,2.42491376,3.73055121,0.75842690,1.04049260,1.57952184
12077,0,USFloridaLiberty,Florida,Liberty,2021-01-06 02:24:32.235842,2020-12-22 00:00:00.000000,2.85074927,4.36943815,5.81215034,238,365,485,136,207,315,1.63481711,2.48380703,3.77808091,0.75841151,1.03777648,1.61836385
12077,0,USFloridaLiberty,Florida,Liberty,2021-01-06 02:24:32.235842,2020-12-23 00:00:00.000000,2.87780359,4.43820366,5.88888768,240,370,491,138,212,319,1.65368251,2.53849541,3.81939454,0.76442337,1.03304229,1.72521987
12077,0,USFloridaLiberty,Florida,Liberty,2021-01-06 02:24:32.235842,2020-12-24 00:00:00.000000,2.90070515,4.54568993,5.99886527,242,379,501,139,216,323,1.67164752,2.59739577,3.86869758,0.75657479,1.02178557,1.77190939
12077,0,USFloridaLiberty,Florida,Liberty,2021-01-06 02:24:32.235842,2020-12-25 00:00:00.000000,2.92017441,4.60781013,6.09960242,243,384,509,142,223,328,1.70535407,2.67035855,3.92975520,0.75150975,1.03549409,1.79982799
12077,0,USFloridaLiberty,Florida,Liberty,2021-01-06 02:24:32.235842,2020-12-26 00:00:00.000000,2.97251113,4.68493712,6.19011748,248,391,517,146,230,332,1.75580902,2.75466760,3.98436195,0.75061860,1.02745010,1.83337328
12077,0,USFloridaLiberty,Florida,Liberty,2021-01-06 02:24:32.235842,2020-12-27 00:00:00.000000,3.05022541,4.74602590,6.28974776,254,396,525,150,235,336,1.80495299,2.81341712,4.03219610,0.74014868,1.02946744,1.86965593
12077,0,USFloridaLiberty,Florida,Liberty,2021-01-06 02:24:32.235842,2020-12-28 00:00:00.000000,2.98338823,4.73789255,6.31554092,249,395,527,154,238,340,1.85243865,2.85344345,4.07300244,0.72220575,1.03178962,1.90134690
12077,0,USFloridaLiberty,Florida,Liberty,2021-01-06 02:24:32.235842,2020-12-29 00:00:00.000000,2.95291249,4.76481737,6.34852584,246,398,530,157,240,342,1.88776000,2.88376752,4.09701949,0.73389367,1.03762262,1.95783054
12077,0,USFloridaLiberty,Florida,Liberty,2021-01-06 02:24:32.235842,2020-12-30 00:00:00.000000,2.94983429,4.79632327,6.41962601,246,400,536,159,240,343,1.91374992,2.87697213,4.10857152,0.73941820,1.04094659,2.02059835
12077,0,USFloridaLiberty,Florida,Liberty,2021-01-06 02:24:32.235842,2020-12-31 00:00:00.000000,2.94386748,4.78763035,6.52155437,245,399,544,155,243,343,1.85896417,2.91275011,4.10987104,0.73258665,1.04334749,2.02168432
12077,0,USFloridaLiberty,Florida,Liberty,2021-01-06 02:24:32.235842,2021-01-01 00:00:00.000000,2.93514943,4.84275442,6.52437470,245,404,545,150,245,346,1.80280387,2.93524251,4.15165293,0.72690532,1.06053778,2.01151135
12077,0,USFloridaLiberty,Florida,Liberty,2021-01-06 02:24:32.235842,2021-01-02 00:00:00.000000,2.92368038,4.78194131,6.56988713,244,399,548,145,245,350,1.74609179,2.93661423,4.19737353,0.71679823,1.05859200,2.03315646
12077,0,USFloridaLiberty,Florida,Liberty,2021-01-06 02:24:32.235842,2021-01-03 00:00:00.000000,2.90960631,4.77034973,6.61365409,243,398,552,141,243,355,1.68923682,2.91571037,4.25849615,0.68317509,1.06300709,2.08821231
12077,0,USFloridaLiberty,Florida,Liberty,2021-01-06 02:24:32.235842,2021-01-04 00:00:00.000000,2.89302359,4.70165878,6.64509364,241,392,555,137,243,354,1.65074070,2.91860604,4.24705095,0.66801411,1.06295537,2.12640985
12077,0,USFloridaLiberty,Florida,Liberty,2021-01-06 02:24:32.235842,2021-01-05 00:00:00.000000,2.82807727,4.60944578,6.66297137,236,385,556,136,242,356,1.62893390,2.90393126,4.26818494,0.66640153,1.07162654,2.15264602
12077,0,USFloridaLiberty,Florida,Liberty,2021-01-06 02:24:32.235842,2021-01-06 00:00:00.000000,2.75257594,4.49890711,6.68391050,229,375,558,134,240,358,1.60636364,2.87526401,4.28872201,0.65006499,1.07025749,2.17032858
12077,0,USFloridaLiberty,Florida,Liberty,2021-01-06 02:24:32.235842,2021-01-07 00:00:00.000000,2.67861018,4.42057481,6.73073177,223,369,562,132,236,359,1.58249313,2.82895224,4.30841695,0.63018316,1.06925497,2.17256508
12077,0,USFloridaLiberty,Florida,Liberty,2021-01-06 02:24:32.235842,2021-01-08 00:00:00.000000,2.59562528,4.33754785,6.76047128,216,362,564,130,233,360,1.56339551,2.79740985,4.31735215,0.61770399,1.06859179,2.17323135
12077,0,USFloridaLiberty,Florida,Liberty,2021-01-06 02:24:32.235842,2021-01-09 00:00:00.000000,2.51516357,4.24029355,6.77285446,210,354,565,129,229,360,1.55047472,2.74194765,4.31642493,0.61059324,1.06817547,2.17358971
12077,0,USFloridaLiberty,Florida,Liberty,2021-01-06 02:24:32.235842,2021-01-10 00:00:00.000000,2.45959381,4.12446897,6.77683542,205,344,566,128,223,359,1.53635129,2.67573113,4.30613939,0.60676772,1.06792164,2.17378407
12077,0,USFloridaLiberty,Florida,Liberty,2021-01-06 02:24:32.235842,2021-01-11 00:00:00.000000,2.38726607,4.00548091,6.80253573,199,334,568,125,217,358,1.49948347,2.60934899,4.28685162,0.60477685,1.06776950,2.17389049
12077,0,USFloridaLiberty,Florida,Liberty,2021-01-06 02:24:32.235842,2021-01-12 00:00:00.000000,2.28770091,3.89203885,6.81150228,191,325,569,121,211,355,1.45688924,2.52960125,4.25888276,0.60376108,1.06767925,2.17394938
12077,0,USFloridaLiberty,Florida,Liberty,2021-01-06 02:24:32.235842,2021-01-13 00:00:00.000000,2.16815466,3.78993149,6.78534368,181,316,566,118,204,355,1.41448073,2.44930399,4.25850945,0.60324963,1.06767831,2.17398233
12077,0,USFloridaLiberty,Florida,Liberty,2021-01-06 02:24:32.235842,2021-01-14 00:00:00.000000,2.05366762,3.68595604,6.69535893,171,307,559,114,198,355,1.37188461,2.37304015,4.26056270,0.60299481,1.06768103,2.17400097
12077,0,USFloridaLiberty,Florida,Liberty,2021-01-06 02:24:32.235842,2021-01-15 00:00:00.000000,1.94416312,3.58054379,6.59121949,162,299,550,110,192,355,1.32050524,2.30133143,4.25227794,0.60286920,1.06768240,2.17401164
12077,0,USFloridaLiberty,Florida,Liberty,2021-01-06 02:24:32.235842,2021-01-16 00:00:00.000000,1.83954740,3.47410944,6.54091090,153,290,546,104,186,353,1.25055046,2.22930599,4.23382316,0.60280803,1.06768310,2.17401781
12077,0,USFloridaLiberty,Florida,Liberty,2021-01-06 02:24:32.235842,2021-01-17 00:00:00.000000,1.73971241,3.36704878,6.49260496,145,281,542,98,181,349,1.18366559,2.17076923,4.18312309,0.60277872,1.06768345,2.17402141
