FIPS,HR_UID,nameid,province,region,analysisTime,dates,pointprevalence_025,pointprevalence_50,pointprevalence_975,pointinfections_025,pointinfections_50,pointinfections_975,pointinfectious_025,pointinfectious_50,pointinfectious_975,pointinfectiousprevalence_05,pointinfectiousprevalence_50,pointinfectiousprevalence_95,infectrate_025,infectrate_50,infectrate_975
13163,0,USGeorgiaJefferson,Georgia,Jefferson,2021-01-06 01:37:07.977859,2020-03-09 00:00:00.000000,0.00201456,0.01551771,0.04865129,0,2,7,0,1,4,0.00132829,0.00861939,0.03069138,0.36958686,0.49642640,0.64337637
13163,0,USGeorgiaJefferson,Georgia,Jefferson,2021-01-06 01:37:07.977859,2020-03-10 00:00:00.000000,0.00216346,0.01717512,0.05353731,0,2,8,0,1,4,0.00129207,0.00875421,0.02899610,0.36957463,0.49612224,0.64337463
13163,0,USGeorgiaJefferson,Georgia,Jefferson,2021-01-06 01:37:07.977859,2020-03-11 00:00:00.000000,0.00233257,0.01859173,0.05852329,0,2,8,0,1,4,0.00132903,0.00908621,0.02916323,0.36953903,0.49581229,0.64337066
13163,0,USGeorgiaJefferson,Georgia,Jefferson,2021-01-06 01:37:07.977859,2020-03-12 00:00:00.000000,0.00252036,0.01970535,0.06358298,0,3,9,0,1,4,0.00140393,0.00921503,0.03082327,0.36943542,0.49580219,0.64336158
13163,0,USGeorgiaJefferson,Georgia,Jefferson,2021-01-06 01:37:07.977859,2020-03-13 00:00:00.000000,0.00272680,0.02119650,0.06871607,0,3,10,0,1,5,0.00150161,0.00939840,0.03294175,0.36922042,0.49558417,0.64334069
13163,0,USGeorgiaJefferson,Georgia,Jefferson,2021-01-06 01:37:07.977859,2020-03-14 00:00:00.000000,0.00295264,0.02304530,0.07393601,0,3,11,0,1,5,0.00161578,0.00967641,0.03537552,0.36889408,0.49489104,0.64329244
13163,0,USGeorgiaJefferson,Georgia,Jefferson,2021-01-06 01:37:07.977859,2020-03-15 00:00:00.000000,0.00319895,0.02462584,0.07926304,0,3,12,0,1,5,0.00174403,0.00994499,0.03808877,0.36801931,0.49433220,0.64151381
13163,0,USGeorgiaJefferson,Georgia,Jefferson,2021-01-06 01:37:07.977859,2020-03-16 00:00:00.000000,0.00819989,0.03535795,0.09274699,1,5,14,0,1,6,0.00188572,0.01091868,0.04105316,0.36574588,0.49370060,0.63326303
13163,0,USGeorgiaJefferson,Georgia,Jefferson,2021-01-06 01:37:07.977859,2020-03-17 00:00:00.000000,0.01227255,0.04515530,0.10695724,1,6,16,0,1,6,0.00337125,0.01297164,0.04527220,0.34601235,0.49165398,0.61657062
13163,0,USGeorgiaJefferson,Georgia,Jefferson,2021-01-06 01:37:07.977859,2020-03-18 00:00:00.000000,0.01667945,0.05512213,0.12762996,2,8,19,0,2,7,0.00555090,0.01778367,0.05033002,0.31492258,0.48308554,0.61063432
13163,0,USGeorgiaJefferson,Georgia,Jefferson,2021-01-06 01:37:07.977859,2020-03-19 00:00:00.000000,0.02167919,0.06599072,0.14296917,3,10,21,1,3,8,0.00815407,0.02342577,0.05598480,0.29466327,0.45882398,0.61039655
13163,0,USGeorgiaJefferson,Georgia,Jefferson,2021-01-06 01:37:07.977859,2020-03-20 00:00:00.000000,0.02708120,0.07734336,0.15640280,4,11,24,1,4,9,0.01108083,0.02793976,0.06462357,0.28814409,0.44680295,0.60877579
13163,0,USGeorgiaJefferson,Georgia,Jefferson,2021-01-06 01:37:07.977859,2020-03-21 00:00:00.000000,0.03255404,0.08916030,0.18030191,5,13,27,2,4,11,0.01387589,0.03237753,0.07579065,0.27312456,0.42814197,0.58225868
13163,0,USGeorgiaJefferson,Georgia,Jefferson,2021-01-06 01:37:07.977859,2020-03-22 00:00:00.000000,0.03733348,0.10228397,0.21287156,5,15,32,2,5,13,0.01591346,0.03796274,0.08741850,0.26877445,0.39196344,0.53809520
13163,0,USGeorgiaJefferson,Georgia,Jefferson,2021-01-06 01:37:07.977859,2020-03-23 00:00:00.000000,0.04527779,0.11177596,0.22838081,6,17,35,2,6,15,0.01899129,0.04342081,0.09886341,0.25893742,0.35892802,0.51078561
13163,0,USGeorgiaJefferson,Georgia,Jefferson,2021-01-06 01:37:07.977859,2020-03-24 00:00:00.000000,0.05288580,0.12297896,0.23642275,8,18,36,3,7,16,0.02288173,0.05009667,0.10810535,0.24770600,0.35400826,0.49352371
13163,0,USGeorgiaJefferson,Georgia,Jefferson,2021-01-06 01:37:07.977859,2020-03-25 00:00:00.000000,0.06039635,0.13704719,0.24675591,9,21,37,4,8,17,0.02712505,0.05708176,0.11526980,0.23806720,0.33400623,0.48687974
13163,0,USGeorgiaJefferson,Georgia,Jefferson,2021-01-06 01:37:07.977859,2020-03-26 00:00:00.000000,0.06561654,0.15270066,0.26916514,10,23,41,4,10,18,0.03096182,0.06509766,0.12296750,0.21833575,0.31473592,0.47919543
13163,0,USGeorgiaJefferson,Georgia,Jefferson,2021-01-06 01:37:07.977859,2020-03-27 00:00:00.000000,0.07076949,0.16750666,0.29203327,10,25,44,5,10,20,0.03467894,0.07122351,0.13531662,0.19657383,0.30302171,0.44951964
13163,0,USGeorgiaJefferson,Georgia,Jefferson,2021-01-06 01:37:07.977859,2020-03-28 00:00:00.000000,0.07771092,0.18107396,0.31509007,11,27,48,5,12,22,0.03849737,0.07878611,0.14801318,0.18834655,0.28175853,0.43393160
13163,0,USGeorgiaJefferson,Georgia,Jefferson,2021-01-06 01:37:07.977859,2020-03-29 00:00:00.000000,0.08894091,0.18919191,0.33772533,13,29,51,6,12,24,0.04239179,0.08429583,0.16096994,0.17862535,0.27030868,0.41795297
13163,0,USGeorgiaJefferson,Georgia,Jefferson,2021-01-06 01:37:07.977859,2020-03-30 00:00:00.000000,0.09388304,0.20055850,0.35469519,14,30,54,7,13,26,0.04635252,0.09025008,0.17400138,0.17699865,0.25808194,0.40058700
13163,0,USGeorgiaJefferson,Georgia,Jefferson,2021-01-06 01:37:07.977859,2020-03-31 00:00:00.000000,0.09864334,0.21120156,0.36975933,15,32,56,7,14,28,0.05003710,0.09637050,0.18587879,0.16941495,0.24925829,0.38779371
13163,0,USGeorgiaJefferson,Georgia,Jefferson,2021-01-06 01:37:07.977859,2020-04-01 00:00:00.000000,0.10318403,0.22352693,0.38284121,15,34,58,8,15,30,0.05311563,0.10339455,0.19659232,0.15985598,0.24800034,0.38161559
13163,0,USGeorgiaJefferson,Georgia,Jefferson,2021-01-06 01:37:07.977859,2020-04-02 00:00:00.000000,0.10934412,0.23409806,0.39429817,16,35,60,8,16,31,0.05788636,0.11060376,0.20615195,0.14993624,0.24138787,0.37682167
13163,0,USGeorgiaJefferson,Georgia,Jefferson,2021-01-06 01:37:07.977859,2020-04-03 00:00:00.000000,0.11649173,0.24598633,0.40431367,17,37,62,9,17,32,0.06055478,0.11629458,0.21463909,0.14162484,0.23368206,0.37151932
13163,0,USGeorgiaJefferson,Georgia,Jefferson,2021-01-06 01:37:07.977859,2020-04-04 00:00:00.000000,0.12368289,0.25154761,0.42586956,19,38,65,9,18,34,0.06308482,0.12177022,0.22214508,0.13157286,0.22846817,0.34480554
13163,0,USGeorgiaJefferson,Georgia,Jefferson,2021-01-06 01:37:07.977859,2020-04-05 00:00:00.000000,0.13090748,0.25659415,0.45127637,20,39,69,10,19,35,0.06560051,0.12845972,0.23164833,0.12801285,0.22205677,0.33208578
13163,0,USGeorgiaJefferson,Georgia,Jefferson,2021-01-06 01:37:07.977859,2020-04-06 00:00:00.000000,0.13980030,0.26892780,0.45820573,21,41,70,10,20,37,0.06976168,0.13464437,0.24717969,0.12826153,0.20906986,0.33117043
13163,0,USGeorgiaJefferson,Georgia,Jefferson,2021-01-06 01:37:07.977859,2020-04-07 00:00:00.000000,0.14871386,0.27752917,0.46446709,22,42,71,11,21,39,0.07431794,0.13993077,0.25776586,0.12869334,0.20040596,0.32922103
13163,0,USGeorgiaJefferson,Georgia,Jefferson,2021-01-06 01:37:07.977859,2020-04-08 00:00:00.000000,0.15657593,0.28819925,0.46958439,24,44,72,12,22,40,0.07825178,0.14348042,0.26519995,0.12877669,0.19672918,0.32390422
13163,0,USGeorgiaJefferson,Georgia,Jefferson,2021-01-06 01:37:07.977859,2020-04-09 00:00:00.000000,0.15618226,0.29616784,0.49335893,23,45,75,12,22,41,0.07987822,0.14817553,0.27060742,0.12988415,0.19296161,0.31772907
13163,0,USGeorgiaJefferson,Georgia,Jefferson,2021-01-06 01:37:07.977859,2020-04-10 00:00:00.000000,0.15602683,0.30496238,0.52780845,23,46,81,12,23,42,0.08446687,0.15377529,0.27460343,0.12963223,0.18744680,0.30433961
13163,0,USGeorgiaJefferson,Georgia,Jefferson,2021-01-06 01:37:07.977859,2020-04-11 00:00:00.000000,0.15656556,0.31116563,0.54403995,24,47,83,13,24,42,0.08936489,0.15993775,0.27723089,0.12699962,0.18059133,0.30233137
13163,0,USGeorgiaJefferson,Georgia,Jefferson,2021-01-06 01:37:07.977859,2020-04-12 00:00:00.000000,0.16327961,0.31652114,0.53904430,25,48,82,14,25,42,0.09308387,0.16616161,0.27828957,0.12090344,0.17758085,0.29070804
13163,0,USGeorgiaJefferson,Georgia,Jefferson,2021-01-06 01:37:07.977859,2020-04-13 00:00:00.000000,0.19133521,0.32732245,0.54207188,29,50,83,14,26,42,0.09546821,0.16974456,0.27805497,0.11093545,0.17464854,0.27881022
13163,0,USGeorgiaJefferson,Georgia,Jefferson,2021-01-06 01:37:07.977859,2020-04-14 00:00:00.000000,0.20719994,0.33653368,0.56330101,31,51,86,15,26,43,0.09878283,0.17406830,0.28305478,0.10686301,0.17082099,0.27640131
13163,0,USGeorgiaJefferson,Georgia,Jefferson,2021-01-06 01:37:07.977859,2020-04-15 00:00:00.000000,0.22016574,0.34559096,0.58126928,33,53,89,15,27,45,0.10208037,0.17863288,0.29418933,0.10594901,0.16702293,0.26970701
13163,0,USGeorgiaJefferson,Georgia,Jefferson,2021-01-06 01:37:07.977859,2020-04-16 00:00:00.000000,0.22158056,0.34899338,0.59603483,34,53,91,16,27,46,0.10561340,0.18029003,0.30305333,0.10564589,0.16244223,0.26161110
13163,0,USGeorgiaJefferson,Georgia,Jefferson,2021-01-06 01:37:07.977859,2020-04-17 00:00:00.000000,0.22230341,0.35281964,0.60872664,34,54,93,16,28,47,0.10564391,0.18452361,0.30997714,0.10594620,0.16136394,0.26191598
13163,0,USGeorgiaJefferson,Georgia,Jefferson,2021-01-06 01:37:07.977859,2020-04-18 00:00:00.000000,0.22138623,0.35621792,0.61433070,34,54,94,16,28,48,0.11015023,0.18811350,0.31512005,0.10736054,0.15930545,0.26683533
13163,0,USGeorgiaJefferson,Georgia,Jefferson,2021-01-06 01:37:07.977859,2020-04-19 00:00:00.000000,0.21813094,0.35773448,0.62120006,33,54,95,17,29,49,0.11414058,0.19003518,0.31908222,0.10221618,0.15764283,0.25336483
13163,0,USGeorgiaJefferson,Georgia,Jefferson,2021-01-06 01:37:07.977859,2020-04-20 00:00:00.000000,0.21556468,0.35461536,0.62570794,33,54,96,17,29,49,0.11439874,0.19178808,0.31899027,0.09840867,0.15739693,0.24430721
13163,0,USGeorgiaJefferson,Georgia,Jefferson,2021-01-06 01:37:07.977859,2020-04-21 00:00:00.000000,0.21317915,0.35566243,0.62591019,32,54,96,17,29,48,0.11494519,0.19509792,0.31497523,0.09838061,0.15524112,0.23538125
13163,0,USGeorgiaJefferson,Georgia,Jefferson,2021-01-06 01:37:07.977859,2020-04-22 00:00:00.000000,0.21097827,0.36382932,0.62591595,32,55,96,17,30,48,0.11563489,0.19942120,0.31616413,0.09980998,0.15664619,0.23143537
13163,0,USGeorgiaJefferson,Georgia,Jefferson,2021-01-06 01:37:07.977859,2020-04-23 00:00:00.000000,0.20899575,0.36227305,0.62662312,32,55,96,17,30,48,0.11641335,0.19796437,0.31892383,0.09515842,0.15516431,0.23039118
13163,0,USGeorgiaJefferson,Georgia,Jefferson,2021-01-06 01:37:07.977859,2020-04-24 00:00:00.000000,0.20731800,0.36495401,0.63261756,31,56,97,17,30,49,0.11715901,0.19764483,0.32154027,0.09904260,0.15457587,0.22660066
13163,0,USGeorgiaJefferson,Georgia,Jefferson,2021-01-06 01:37:07.977859,2020-04-25 00:00:00.000000,0.20596341,0.36353487,0.63277284,31,55,97,17,30,49,0.11662655,0.20118280,0.32383982,0.10407235,0.15412006,0.23796253
13163,0,USGeorgiaJefferson,Georgia,Jefferson,2021-01-06 01:37:07.977859,2020-04-26 00:00:00.000000,0.20227583,0.37022548,0.63637025,31,56,97,17,31,49,0.11437690,0.20314047,0.32540230,0.10877365,0.15345327,0.24486097
13163,0,USGeorgiaJefferson,Georgia,Jefferson,2021-01-06 01:37:07.977859,2020-04-27 00:00:00.000000,0.20344683,0.37613339,0.64814694,31,57,99,17,31,50,0.11209857,0.20193639,0.32613713,0.10539908,0.15268410,0.24593228
13163,0,USGeorgiaJefferson,Georgia,Jefferson,2021-01-06 01:37:07.977859,2020-04-28 00:00:00.000000,0.20299204,0.38174303,0.65985735,31,58,101,17,31,50,0.11105401,0.20626567,0.32957482,0.10387797,0.15364162,0.24602672
13163,0,USGeorgiaJefferson,Georgia,Jefferson,2021-01-06 01:37:07.977859,2020-04-29 00:00:00.000000,0.20209383,0.38530040,0.66284969,31,59,101,17,32,51,0.11079769,0.20922920,0.33494879,0.10517328,0.15295648,0.24461229
13163,0,USGeorgiaJefferson,Georgia,Jefferson,2021-01-06 01:37:07.977859,2020-04-30 00:00:00.000000,0.20123965,0.38772209,0.65846845,30,59,101,17,32,52,0.11103903,0.21025824,0.34169233,0.10363552,0.15266456,0.23812320
13163,0,USGeorgiaJefferson,Georgia,Jefferson,2021-01-06 01:37:07.977859,2020-05-01 00:00:00.000000,0.20047298,0.39675851,0.65261784,30,60,100,17,32,53,0.11158919,0.21065484,0.34784451,0.10285974,0.15353048,0.23503666
13163,0,USGeorgiaJefferson,Georgia,Jefferson,2021-01-06 01:37:07.977859,2020-05-02 00:00:00.000000,0.19984593,0.40343808,0.65600902,30,61,100,17,32,54,0.11174912,0.21099671,0.35329258,0.10321823,0.15290327,0.23201016
13163,0,USGeorgiaJefferson,Georgia,Jefferson,2021-01-06 01:37:07.977859,2020-05-03 00:00:00.000000,0.19943372,0.39992425,0.67178911,30,61,103,16,33,55,0.11014610,0.21565914,0.35897868,0.10738779,0.15756140,0.22882504
13163,0,USGeorgiaJefferson,Georgia,Jefferson,2021-01-06 01:37:07.977859,2020-05-04 00:00:00.000000,0.20136940,0.40392554,0.68368269,30,62,105,16,33,56,0.10868076,0.21839878,0.36479461,0.10681332,0.16010264,0.22572662
13163,0,USGeorgiaJefferson,Georgia,Jefferson,2021-01-06 01:37:07.977859,2020-05-05 00:00:00.000000,0.19647048,0.40300989,0.69500502,30,61,106,16,33,57,0.10678828,0.21778423,0.37193160,0.10664560,0.15997931,0.23983362
13163,0,USGeorgiaJefferson,Georgia,Jefferson,2021-01-06 01:37:07.977859,2020-05-06 00:00:00.000000,0.19162339,0.41115617,0.70587453,29,63,108,16,33,58,0.10463900,0.21717412,0.37998542,0.10691743,0.15994055,0.23974935
13163,0,USGeorgiaJefferson,Georgia,Jefferson,2021-01-06 01:37:07.977859,2020-05-07 00:00:00.000000,0.18688035,0.41831983,0.71637360,28,64,110,16,33,59,0.10622987,0.21848209,0.38864442,0.10864473,0.16290232,0.24315960
13163,0,USGeorgiaJefferson,Georgia,Jefferson,2021-01-06 01:37:07.977859,2020-05-08 00:00:00.000000,0.18227862,0.42085680,0.72677628,28,64,111,16,34,61,0.10895852,0.22193513,0.39767114,0.11030422,0.16431421,0.24795873
13163,0,USGeorgiaJefferson,Georgia,Jefferson,2021-01-06 01:37:07.977859,2020-05-09 00:00:00.000000,0.17784948,0.42353890,0.73816456,27,65,113,16,34,62,0.10774686,0.22494973,0.40688065,0.12019504,0.16796825,0.28344330
13163,0,USGeorgiaJefferson,Georgia,Jefferson,2021-01-06 01:37:07.977859,2020-05-10 00:00:00.000000,0.17415303,0.42557455,0.75089704,26,65,115,16,34,63,0.10643077,0.22335994,0.41610704,0.12042786,0.17454122,0.28371173
13163,0,USGeorgiaJefferson,Georgia,Jefferson,2021-01-06 01:37:07.977859,2020-05-11 00:00:00.000000,0.18763943,0.43071776,0.76358102,28,66,117,16,34,65,0.10502950,0.22523895,0.42518550,0.12084577,0.17624038,0.28209512
13163,0,USGeorgiaJefferson,Georgia,Jefferson,2021-01-06 01:37:07.977859,2020-05-12 00:00:00.000000,0.19946058,0.43212207,0.77575263,30,66,119,17,35,66,0.11113771,0.22985648,0.43073947,0.12050065,0.17757908,0.27901957
13163,0,USGeorgiaJefferson,Georgia,Jefferson,2021-01-06 01:37:07.977859,2020-05-13 00:00:00.000000,0.21338747,0.44054133,0.78759116,32,67,120,16,36,66,0.10954601,0.23594269,0.43358781,0.11987745,0.17982044,0.28231866
13163,0,USGeorgiaJefferson,Georgia,Jefferson,2021-01-06 01:37:07.977859,2020-05-14 00:00:00.000000,0.22671355,0.44039550,0.79940507,34,67,122,16,37,67,0.10755550,0.24097383,0.43832038,0.12106323,0.18214348,0.28584040
13163,0,USGeorgiaJefferson,Georgia,Jefferson,2021-01-06 01:37:07.977859,2020-05-15 00:00:00.000000,0.22388201,0.45384299,0.80656199,34,69,123,16,37,68,0.10974389,0.24289653,0.44786406,0.12210007,0.18635416,0.28775966
13163,0,USGeorgiaJefferson,Georgia,Jefferson,2021-01-06 01:37:07.977859,2020-05-16 00:00:00.000000,0.22123333,0.46364112,0.81514334,33,71,125,17,37,70,0.11563251,0.24435244,0.45701707,0.12713850,0.19376825,0.28864282
13163,0,USGeorgiaJefferson,Georgia,Jefferson,2021-01-06 01:37:07.977859,2020-05-17 00:00:00.000000,0.21876906,0.46858596,0.83818671,33,71,128,18,37,71,0.12328384,0.24572096,0.46592489,0.13227655,0.19586085,0.28892892
13163,0,USGeorgiaJefferson,Georgia,Jefferson,2021-01-06 01:37:07.977859,2020-05-18 00:00:00.000000,0.22901162,0.48675311,0.84011523,35,74,129,20,38,72,0.13130188,0.24970428,0.47464903,0.13511671,0.19804914,0.28900207
13163,0,USGeorgiaJefferson,Georgia,Jefferson,2021-01-06 01:37:07.977859,2020-05-19 00:00:00.000000,0.24880609,0.49516685,0.84275499,38,76,129,21,39,74,0.13789633,0.25556846,0.48349165,0.14045742,0.20068248,0.28924681
13163,0,USGeorgiaJefferson,Georgia,Jefferson,2021-01-06 01:37:07.977859,2020-05-20 00:00:00.000000,0.26933251,0.51284111,0.84670765,41,78,130,21,40,74,0.13953481,0.26193776,0.48808303,0.14207970,0.20264020,0.29422923
13163,0,USGeorgiaJefferson,Georgia,Jefferson,2021-01-06 01:37:07.977859,2020-05-21 00:00:00.000000,0.27768109,0.52595711,0.85147484,42,80,130,21,41,75,0.13794295,0.27326395,0.49189168,0.14599597,0.20567394,0.29818612
13163,0,USGeorgiaJefferson,Georgia,Jefferson,2021-01-06 01:37:07.977859,2020-05-22 00:00:00.000000,0.28621448,0.54158951,0.85697082,43,83,131,21,43,76,0.13859166,0.28197635,0.49542583,0.15484241,0.20987415,0.31872767
13163,0,USGeorgiaJefferson,Georgia,Jefferson,2021-01-06 01:37:07.977859,2020-05-23 00:00:00.000000,0.29567624,0.55255775,0.86947223,45,84,133,21,44,77,0.13986190,0.28853808,0.50292268,0.16208653,0.21073542,0.33781384
13163,0,USGeorgiaJefferson,Georgia,Jefferson,2021-01-06 01:37:07.977859,2020-05-24 00:00:00.000000,0.30585168,0.56696959,0.90384396,46,87,138,21,44,79,0.14172845,0.29219888,0.51604734,0.16979477,0.21179962,0.34771507
13163,0,USGeorgiaJefferson,Georgia,Jefferson,2021-01-06 01:37:07.977859,2020-05-25 00:00:00.000000,0.30830084,0.58829349,0.93218924,47,90,143,22,45,81,0.14406183,0.29573307,0.53004476,0.17034596,0.21836049,0.35152173
13163,0,USGeorgiaJefferson,Georgia,Jefferson,2021-01-06 01:37:07.977859,2020-05-26 00:00:00.000000,0.31104799,0.61052311,0.95861881,47,93,147,23,46,84,0.15375333,0.30590520,0.54705223,0.17078372,0.22231649,0.35368528
13163,0,USGeorgiaJefferson,Georgia,Jefferson,2021-01-06 01:37:07.977859,2020-05-27 00:00:00.000000,0.31490238,0.62793389,0.97793725,48,96,150,25,48,86,0.16735280,0.31834436,0.56517148,0.17208392,0.22629754,0.35490114
13163,0,USGeorgiaJefferson,Georgia,Jefferson,2021-01-06 01:37:07.977859,2020-05-28 00:00:00.000000,0.34276404,0.63781892,0.99799304,52,97,153,27,49,88,0.17814274,0.32225944,0.57895468,0.17507973,0.22984986,0.35574285
13163,0,USGeorgiaJefferson,Georgia,Jefferson,2021-01-06 01:37:07.977859,2020-05-29 00:00:00.000000,0.35181614,0.65251166,1.02227138,54,100,157,27,51,91,0.17988098,0.33403523,0.59276659,0.16991588,0.23338483,0.35930293
13163,0,USGeorgiaJefferson,Georgia,Jefferson,2021-01-06 01:37:07.977859,2020-05-30 00:00:00.000000,0.35287770,0.66934207,1.06777772,54,102,164,27,52,93,0.18163358,0.34389419,0.60611747,0.16718249,0.24110434,0.37095240
13163,0,USGeorgiaJefferson,Georgia,Jefferson,2021-01-06 01:37:07.977859,2020-05-31 00:00:00.000000,0.35603075,0.69149443,1.11958710,54,106,171,28,54,95,0.18341179,0.35678464,0.61866831,0.17551681,0.25080530,0.39941927
13163,0,USGeorgiaJefferson,Georgia,Jefferson,2021-01-06 01:37:07.977859,2020-06-01 00:00:00.000000,0.36073895,0.72091574,1.17411148,55,110,180,29,56,96,0.18964027,0.36651890,0.63031379,0.18215645,0.25801098,0.40830467
13163,0,USGeorgiaJefferson,Georgia,Jefferson,2021-01-06 01:37:07.977859,2020-06-02 00:00:00.000000,0.36805582,0.75020595,1.23620877,56,115,189,30,57,98,0.19815938,0.37257004,0.63834912,0.19062356,0.26835726,0.42866166
13163,0,USGeorgiaJefferson,Georgia,Jefferson,2021-01-06 01:37:07.977859,2020-06-03 00:00:00.000000,0.37749887,0.78743920,1.30134196,57,120,199,31,58,98,0.20486461,0.38072350,0.64389241,0.20195321,0.27395946,0.43801024
13163,0,USGeorgiaJefferson,Georgia,Jefferson,2021-01-06 01:37:07.977859,2020-06-04 00:00:00.000000,0.38874522,0.82447431,1.35339061,59,126,207,32,59,99,0.21090656,0.38978735,0.64775157,0.20785053,0.28082477,0.43569524
13163,0,USGeorgiaJefferson,Georgia,Jefferson,2021-01-06 01:37:07.977859,2020-06-05 00:00:00.000000,0.40498896,0.85710347,1.41257622,62,131,216,33,62,103,0.21692121,0.40683497,0.67206549,0.22049438,0.29223879,0.44470525
13163,0,USGeorgiaJefferson,Georgia,Jefferson,2021-01-06 01:37:07.977859,2020-06-06 00:00:00.000000,0.42488946,0.88907438,1.47790340,65,136,227,34,66,108,0.22341680,0.43529743,0.70404732,0.23940230,0.30213612,0.44642129
13163,0,USGeorgiaJefferson,Georgia,Jefferson,2021-01-06 01:37:07.977859,2020-06-07 00:00:00.000000,0.45200004,0.93809615,1.54877780,69,144,237,35,70,113,0.23290599,0.46065749,0.73888914,0.24117255,0.31670181,0.45811186
13163,0,USGeorgiaJefferson,Georgia,Jefferson,2021-01-06 01:37:07.977859,2020-06-08 00:00:00.000000,0.50420027,0.98165145,1.62992641,77,150,250,37,73,119,0.24514706,0.47870418,0.77658159,0.24501628,0.33694302,0.48006682
13163,0,USGeorgiaJefferson,Georgia,Jefferson,2021-01-06 01:37:07.977859,2020-06-09 00:00:00.000000,0.56915597,1.01723546,1.71530108,87,156,263,40,77,124,0.26320292,0.50239270,0.81243149,0.25060591,0.34948481,0.49953547
13163,0,USGeorgiaJefferson,Georgia,Jefferson,2021-01-06 01:37:07.977859,2020-06-10 00:00:00.000000,0.60198903,1.06882096,1.80485014,92,164,277,44,80,130,0.28731557,0.52210411,0.84811463,0.25556410,0.36746357,0.52120755
13163,0,USGeorgiaJefferson,Georgia,Jefferson,2021-01-06 01:37:07.977859,2020-06-11 00:00:00.000000,0.67818258,1.13013501,1.89321242,104,173,290,48,83,135,0.31773149,0.54598416,0.88496977,0.26441912,0.38531356,0.54395686
13163,0,USGeorgiaJefferson,Georgia,Jefferson,2021-01-06 01:37:07.977859,2020-06-12 00:00:00.000000,0.76550577,1.20248647,1.98777450,117,184,305,54,88,141,0.35522098,0.57583481,0.92397189,0.26917740,0.39424256,0.55575591
13163,0,USGeorgiaJefferson,Georgia,Jefferson,2021-01-06 01:37:07.977859,2020-06-13 00:00:00.000000,0.83337183,1.27793064,2.09750772,128,196,322,59,92,148,0.38627650,0.60022207,0.96575315,0.29860342,0.40476908,0.59266474
13163,0,USGeorgiaJefferson,Georgia,Jefferson,2021-01-06 01:37:07.977859,2020-06-14 00:00:00.000000,0.89417738,1.36510954,2.21005241,137,209,339,64,96,155,0.42151309,0.62505579,1.01038632,0.30328032,0.41409289,0.60725567
13163,0,USGeorgiaJefferson,Georgia,Jefferson,2021-01-06 01:37:07.977859,2020-06-15 00:00:00.000000,0.96288626,1.45226165,2.33443565,147,223,358,69,102,162,0.45027684,0.66908811,1.05770222,0.30826444,0.42461630,0.62111440
13163,0,USGeorgiaJefferson,Georgia,Jefferson,2021-01-06 01:37:07.977859,2020-06-16 00:00:00.000000,1.03837734,1.54272331,2.49207804,159,236,382,74,109,173,0.48714341,0.71361316,1.12828827,0.32623277,0.42712586,0.62275171
13163,0,USGeorgiaJefferson,Georgia,Jefferson,2021-01-06 01:37:07.977859,2020-06-17 00:00:00.000000,1.12536129,1.66131152,2.63993611,172,255,405,80,117,185,0.52525650,0.76300282,1.20787800,0.32692307,0.43113756,0.62779194
13163,0,USGeorgiaJefferson,Georgia,Jefferson,2021-01-06 01:37:07.977859,2020-06-18 00:00:00.000000,1.18208437,1.75787323,2.79391896,181,270,429,86,125,198,0.56228967,0.81542800,1.29313773,0.32720059,0.44235187,0.68067383
13163,0,USGeorgiaJefferson,Georgia,Jefferson,2021-01-06 01:37:07.977859,2020-06-19 00:00:00.000000,1.22106245,1.88855585,2.95653912,187,290,454,91,132,212,0.59550938,0.86373149,1.38517945,0.33023654,0.45117576,0.68524428
13163,0,USGeorgiaJefferson,Georgia,Jefferson,2021-01-06 01:37:07.977859,2020-06-20 00:00:00.000000,1.27233525,2.03604257,3.14215977,195,312,482,97,142,228,0.63445146,0.92463041,1.48432389,0.34407375,0.46700786,0.68682952
13163,0,USGeorgiaJefferson,Georgia,Jefferson,2021-01-06 01:37:07.977859,2020-06-21 00:00:00.000000,1.37614416,2.19013711,3.34454151,211,336,513,104,150,244,0.68104164,0.98020088,1.58999630,0.34616835,0.48422730,0.67838701
13163,0,USGeorgiaJefferson,Georgia,Jefferson,2021-01-06 01:37:07.977859,2020-06-22 00:00:00.000000,1.51259299,2.35840323,3.56590466,232,362,547,113,161,261,0.73659520,1.05372483,1.70232380,0.36228694,0.50036021,0.68535350
13163,0,USGeorgiaJefferson,Georgia,Jefferson,2021-01-06 01:37:07.977859,2020-06-23 00:00:00.000000,1.67762652,2.56036510,3.80572875,257,393,584,122,175,280,0.80039591,1.14144516,1.82770287,0.36603066,0.50261055,0.70237121
13163,0,USGeorgiaJefferson,Georgia,Jefferson,2021-01-06 01:37:07.977859,2020-06-24 00:00:00.000000,1.81341104,2.75165184,4.06378841,278,422,624,130,189,301,0.85120842,1.23146521,1.96460240,0.36653910,0.50330076,0.70843062
13163,0,USGeorgiaJefferson,Georgia,Jefferson,2021-01-06 01:37:07.977859,2020-06-25 00:00:00.000000,1.89475463,2.96193627,4.33985532,291,455,666,138,205,324,0.90020447,1.33671578,2.11207186,0.36828061,0.51045598,0.70843455
13163,0,USGeorgiaJefferson,Georgia,Jefferson,2021-01-06 01:37:07.977859,2020-06-26 00:00:00.000000,2.02102123,3.18927293,4.63371224,310,489,711,146,223,348,0.95233883,1.45597699,2.26945261,0.37118502,0.51120770,0.70160590
13163,0,USGeorgiaJefferson,Georgia,Jefferson,2021-01-06 01:37:07.977859,2020-06-27 00:00:00.000000,2.18126206,3.40172734,4.94527993,335,522,759,154,239,369,1.00849434,1.56212376,2.40308795,0.38556824,0.50615811,0.68701603
13163,0,USGeorgiaJefferson,Georgia,Jefferson,2021-01-06 01:37:07.977859,2020-06-28 00:00:00.000000,2.32810098,3.63063800,5.28778791,357,557,812,164,256,390,1.06935670,1.66953968,2.54044688,0.39322344,0.50528769,0.66289812
13163,0,USGeorgiaJefferson,Georgia,Jefferson,2021-01-06 01:37:07.977859,2020-06-29 00:00:00.000000,2.49891366,3.87467495,5.67437363,383,595,871,174,273,413,1.13530694,1.78143289,2.69120889,0.39221554,0.50026199,0.65446603
13163,0,USGeorgiaJefferson,Georgia,Jefferson,2021-01-06 01:37:07.977859,2020-06-30 00:00:00.000000,2.68141958,4.17832450,6.08608958,411,641,934,186,294,441,1.21093683,1.91620633,2.87521179,0.38799832,0.49614437,0.65368064
13163,0,USGeorgiaJefferson,Georgia,Jefferson,2021-01-06 01:37:07.977859,2020-07-01 00:00:00.000000,2.93374598,4.52601311,6.50780563,450,695,999,198,320,474,1.29473742,2.08586864,3.08785367,0.37499058,0.48816134,0.65349461
13163,0,USGeorgiaJefferson,Georgia,Jefferson,2021-01-06 01:37:07.977859,2020-07-02 00:00:00.000000,3.20973600,4.81140949,6.91118106,493,739,1061,212,346,508,1.38590975,2.25400583,3.31143586,0.36656031,0.47194896,0.64137458
13163,0,USGeorgiaJefferson,Georgia,Jefferson,2021-01-06 01:37:07.977859,2020-07-03 00:00:00.000000,3.49757436,5.09157872,7.20465828,537,782,1106,227,370,541,1.48412227,2.40860554,3.52291362,0.34939866,0.47168981,0.63416728
13163,0,USGeorgiaJefferson,Georgia,Jefferson,2021-01-06 01:37:07.977859,2020-07-04 00:00:00.000000,3.78389018,5.36169361,7.44914857,581,823,1144,244,393,568,1.58940066,2.55894914,3.69746014,0.33862381,0.46083254,0.60149658
13163,0,USGeorgiaJefferson,Georgia,Jefferson,2021-01-06 01:37:07.977859,2020-07-05 00:00:00.000000,3.97610238,5.65487944,7.72778878,610,868,1187,261,418,598,1.70212203,2.72417206,3.89566411,0.33595920,0.44626044,0.60042170
13163,0,USGeorgiaJefferson,Georgia,Jefferson,2021-01-06 01:37:07.977859,2020-07-06 00:00:00.000000,4.15663429,5.88757824,8.25900113,638,904,1268,276,442,645,1.79956593,2.88225567,4.20016657,0.32158264,0.44253726,0.61222655
13163,0,USGeorgiaJefferson,Georgia,Jefferson,2021-01-06 01:37:07.977859,2020-07-07 00:00:00.000000,4.33041797,6.24685075,8.74893757,665,959,1344,287,462,688,1.87307460,3.01348306,4.48109000,0.31848989,0.42501904,0.62006016
13163,0,USGeorgiaJefferson,Georgia,Jefferson,2021-01-06 01:37:07.977859,2020-07-08 00:00:00.000000,4.53520376,6.59958362,9.09321501,696,1013,1396,299,488,727,1.94676450,3.18301452,4.73408201,0.31435337,0.41225203,0.60509154
13163,0,USGeorgiaJefferson,Georgia,Jefferson,2021-01-06 01:37:07.977859,2020-07-09 00:00:00.000000,4.80627579,6.81304621,9.42689770,738,1046,1448,310,511,748,2.02113569,3.33000712,4.87126886,0.29284160,0.39625392,0.58525711
13163,0,USGeorgiaJefferson,Georgia,Jefferson,2021-01-06 01:37:07.977859,2020-07-10 00:00:00.000000,4.97880985,6.97687534,9.74094826,764,1071,1496,322,535,768,2.09646108,3.48711253,5.00001358,0.27865823,0.37903482,0.55498885
13163,0,USGeorgiaJefferson,Georgia,Jefferson,2021-01-06 01:37:07.977859,2020-07-11 00:00:00.000000,5.08968248,7.12985073,10.02644106,781,1095,1540,333,554,786,2.17286320,3.60706501,5.12072505,0.27522978,0.36024796,0.51804346
13163,0,USGeorgiaJefferson,Georgia,Jefferson,2021-01-06 01:37:07.977859,2020-07-12 00:00:00.000000,5.19961622,7.24588002,10.18742839,798,1113,1564,345,574,808,2.25042552,3.73786011,5.26466166,0.26295228,0.34620270,0.49153653
13163,0,USGeorgiaJefferson,Georgia,Jefferson,2021-01-06 01:37:07.977859,2020-07-13 00:00:00.000000,5.30938616,7.46602840,10.29356637,815,1146,1581,357,593,828,2.33016334,3.86604062,5.39542805,0.25966621,0.33634880,0.46504778
13163,0,USGeorgiaJefferson,Georgia,Jefferson,2021-01-06 01:37:07.977859,2020-07-14 00:00:00.000000,5.42834229,7.59172335,10.38338188,833,1166,1595,373,610,852,2.42849265,3.97611125,5.55039544,0.25638267,0.32437753,0.45871716
13163,0,USGeorgiaJefferson,Georgia,Jefferson,2021-01-06 01:37:07.977859,2020-07-15 00:00:00.000000,5.58220544,7.69117226,10.44884053,857,1181,1605,388,625,882,2.52581678,4.06971864,5.74453237,0.24707666,0.31856347,0.45414991
13163,0,USGeorgiaJefferson,Georgia,Jefferson,2021-01-06 01:37:07.977859,2020-07-16 00:00:00.000000,5.67540325,7.74237509,10.51426627,871,1189,1615,401,636,912,2.61165388,4.14433948,5.93696998,0.23293613,0.30818132,0.44999633
13163,0,USGeorgiaJefferson,Georgia,Jefferson,2021-01-06 01:37:07.977859,2020-07-17 00:00:00.000000,5.77230311,7.82613226,10.67732014,886,1202,1640,411,640,940,2.68129342,4.17042601,6.12487289,0.21851752,0.29586647,0.44595049
13163,0,USGeorgiaJefferson,Georgia,Jefferson,2021-01-06 01:37:07.977859,2020-07-18 00:00:00.000000,5.84165663,7.91189831,10.73196295,897,1215,1648,422,645,968,2.74894816,4.19870648,6.30307517,0.21609647,0.29029359,0.44125262
13163,0,USGeorgiaJefferson,Georgia,Jefferson,2021-01-06 01:37:07.977859,2020-07-19 00:00:00.000000,5.85492824,7.96051336,10.95994822,899,1222,1683,430,652,993,2.80011211,4.24988780,6.46449595,0.21444193,0.27951818,0.43229770
13163,0,USGeorgiaJefferson,Georgia,Jefferson,2021-01-06 01:37:07.977859,2020-07-20 00:00:00.000000,5.88948228,8.04108729,11.15169311,904,1235,1713,433,666,1008,2.82186002,4.33560869,6.56430132,0.21292124,0.27761392,0.41316428
13163,0,USGeorgiaJefferson,Georgia,Jefferson,2021-01-06 01:37:07.977859,2020-07-21 00:00:00.000000,5.78796233,8.06331160,11.19150642,889,1238,1719,439,674,1016,2.86382025,4.39082679,6.61451717,0.21082093,0.27314529,0.38823912
13163,0,USGeorgiaJefferson,Georgia,Jefferson,2021-01-06 01:37:07.977859,2020-07-22 00:00:00.000000,5.65008546,8.11916051,11.20527264,867,1247,1721,444,675,1018,2.89494559,4.40033611,6.63151241,0.20685320,0.27126527,0.35459074
13163,0,USGeorgiaJefferson,Georgia,Jefferson,2021-01-06 01:37:07.977859,2020-07-23 00:00:00.000000,5.56907944,8.17525803,11.20226209,855,1255,1720,447,679,1022,2.91596154,4.42259560,6.65714591,0.19997052,0.26795323,0.33604181
13163,0,USGeorgiaJefferson,Georgia,Jefferson,2021-01-06 01:37:07.977859,2020-07-24 00:00:00.000000,5.47271794,8.21844686,11.18667696,840,1262,1718,451,681,1033,2.94008851,4.43784812,6.72988271,0.19660891,0.26542599,0.33535227
13163,0,USGeorgiaJefferson,Georgia,Jefferson,2021-01-06 01:37:07.977859,2020-07-25 00:00:00.000000,5.38920909,8.16578982,11.16001957,827,1254,1714,452,684,1041,2.94252426,4.45307732,6.77807002,0.19497595,0.26236949,0.33634190
13163,0,USGeorgiaJefferson,Georgia,Jefferson,2021-01-06 01:37:07.977859,2020-07-26 00:00:00.000000,5.36809020,8.06624795,11.12348100,824,1239,1708,449,687,1045,2.92375389,4.47464579,6.80441144,0.18751537,0.25650685,0.34048585
13163,0,USGeorgiaJefferson,Georgia,Jefferson,2021-01-06 01:37:07.977859,2020-07-27 00:00:00.000000,5.34071917,8.00314141,11.09852851,820,1229,1704,446,685,1046,2.90695804,4.46498551,6.81095151,0.18689969,0.25239987,0.33857861
13163,0,USGeorgiaJefferson,Georgia,Jefferson,2021-01-06 01:37:07.977859,2020-07-28 00:00:00.000000,5.31148033,7.93141349,11.08058966,815,1218,1702,442,682,1044,2.88028163,4.44277758,6.80113097,0.18775895,0.24972472,0.33669188
13163,0,USGeorgiaJefferson,Georgia,Jefferson,2021-01-06 01:37:07.977859,2020-07-29 00:00:00.000000,5.28362831,7.85880153,10.96853435,811,1207,1684,432,677,1041,2.81242830,4.41330291,6.77649092,0.18727826,0.24754597,0.33332286
13163,0,USGeorgiaJefferson,Georgia,Jefferson,2021-01-06 01:37:07.977859,2020-07-30 00:00:00.000000,5.25494288,7.74532833,10.82547374,807,1189,1663,421,672,1034,2.74158926,4.37734608,6.73735003,0.18703529,0.25285021,0.33144903
13163,0,USGeorgiaJefferson,Georgia,Jefferson,2021-01-06 01:37:07.977859,2020-07-31 00:00:00.000000,5.19768339,7.63555298,10.66270559,798,1172,1638,410,667,1026,2.66947583,4.34297721,6.68374451,0.18301840,0.24919566,0.33269105
13163,0,USGeorgiaJefferson,Georgia,Jefferson,2021-01-06 01:37:07.977859,2020-08-01 00:00:00.000000,5.14670846,7.51996091,10.48676319,790,1155,1610,399,659,1016,2.59738414,4.29465121,6.61510055,0.17696616,0.24604678,0.33202026
13163,0,USGeorgiaJefferson,Georgia,Jefferson,2021-01-06 01:37:07.977859,2020-08-02 00:00:00.000000,5.14296543,7.42685221,10.30187835,790,1140,1582,388,651,1003,2.52622930,4.23804506,6.53387971,0.17333638,0.24066979,0.33355367
13163,0,USGeorgiaJefferson,Georgia,Jefferson,2021-01-06 01:37:07.977859,2020-08-03 00:00:00.000000,5.10922788,7.26223979,10.10025627,784,1115,1551,378,645,989,2.46603058,4.20343944,6.44269678,0.17242892,0.23931930,0.34656316
13163,0,USGeorgiaJefferson,Georgia,Jefferson,2021-01-06 01:37:07.977859,2020-08-04 00:00:00.000000,5.08855620,7.13518890,9.94403197,781,1096,1527,370,636,974,2.41301742,4.14115498,6.34220445,0.17228561,0.24321970,0.35319293
13163,0,USGeorgiaJefferson,Georgia,Jefferson,2021-01-06 01:37:07.977859,2020-08-05 00:00:00.000000,5.06831199,6.92383581,9.84277732,778,1063,1512,362,628,957,2.36003858,4.09079932,6.23479613,0.17247658,0.23782362,0.35453665
13163,0,USGeorgiaJefferson,Georgia,Jefferson,2021-01-06 01:37:07.977859,2020-08-06 00:00:00.000000,5.04010005,6.74000774,9.79791951,774,1035,1505,354,618,940,2.30619979,4.02612167,6.12231281,0.17301440,0.23607368,0.35545187
13163,0,USGeorgiaJefferson,Georgia,Jefferson,2021-01-06 01:37:07.977859,2020-08-07 00:00:00.000000,5.01333354,6.56443073,9.78010303,770,1008,1502,347,606,922,2.26175878,3.94715186,6.00605831,0.17064050,0.23602524,0.37639663
13163,0,USGeorgiaJefferson,Georgia,Jefferson,2021-01-06 01:37:07.977859,2020-08-08 00:00:00.000000,4.93392638,6.38022534,9.74485135,757,980,1497,346,593,904,2.25874779,3.86078341,5.88681003,0.16994915,0.23664277,0.36747585
13163,0,USGeorgiaJefferson,Georgia,Jefferson,2021-01-06 01:37:07.977859,2020-08-09 00:00:00.000000,4.80659298,6.21826488,9.68864481,738,955,1488,345,577,885,2.24953108,3.75858865,5.76497464,0.16615567,0.23546074,0.35976955
13163,0,USGeorgiaJefferson,Georgia,Jefferson,2021-01-06 01:37:07.977859,2020-08-10 00:00:00.000000,4.68335722,6.07122849,9.61764148,719,932,1477,342,565,866,2.23192774,3.68058650,5.64098615,0.16513189,0.23483870,0.35483503
13163,0,USGeorgiaJefferson,Georgia,Jefferson,2021-01-06 01:37:07.977859,2020-08-11 00:00:00.000000,4.57115679,5.93018135,9.53079642,702,910,1464,338,556,847,2.20193158,3.62245037,5.52002192,0.16236487,0.23395191,0.35555565
13163,0,USGeorgiaJefferson,Georgia,Jefferson,2021-01-06 01:37:07.977859,2020-08-12 00:00:00.000000,4.52099811,5.79221222,9.43041238,694,889,1448,331,545,829,2.16039183,3.55297653,5.40145971,0.16175018,0.23871546,0.35564218
13163,0,USGeorgiaJefferson,Georgia,Jefferson,2021-01-06 01:37:07.977859,2020-08-13 00:00:00.000000,4.47208322,5.75329601,9.31491598,687,883,1430,324,534,820,2.11149736,3.48223113,5.34269521,0.16054363,0.24033055,0.36824702
13163,0,USGeorgiaJefferson,Georgia,Jefferson,2021-01-06 01:37:07.977859,2020-08-14 00:00:00.000000,4.30272149,5.67110176,9.17952435,660,871,1410,316,526,814,2.05739245,3.42534915,5.30284873,0.16438047,0.24172435,0.35414789
13163,0,USGeorgiaJefferson,Georgia,Jefferson,2021-01-06 01:37:07.977859,2020-08-15 00:00:00.000000,4.20420846,5.53190739,9.01990969,645,849,1385,307,519,808,2.00353490,3.38210124,5.26159066,0.17885941,0.24172170,0.35192865
13163,0,USGeorgiaJefferson,Georgia,Jefferson,2021-01-06 01:37:07.977859,2020-08-16 00:00:00.000000,4.11820130,5.45907276,8.83713199,632,838,1357,307,507,800,1.99869632,3.30455700,5.21369132,0.17364766,0.24268935,0.35293763
13163,0,USGeorgiaJefferson,Georgia,Jefferson,2021-01-06 01:37:07.977859,2020-08-17 00:00:00.000000,4.05264218,5.41224808,8.65606488,622,831,1329,301,497,791,1.96566576,3.23584541,5.15295454,0.17038816,0.24211525,0.35332224
13163,0,USGeorgiaJefferson,Georgia,Jefferson,2021-01-06 01:37:07.977859,2020-08-18 00:00:00.000000,3.95545935,5.35852907,8.46617511,607,823,1300,295,492,779,1.92498104,3.20593549,5.07606670,0.16875938,0.23899178,0.35169225
13163,0,USGeorgiaJefferson,Georgia,Jefferson,2021-01-06 01:37:07.977859,2020-08-19 00:00:00.000000,3.86248145,5.28690816,8.24459415,593,812,1266,289,484,766,1.88530778,3.15073759,4.98710239,0.16143453,0.24372655,0.34979733
13163,0,USGeorgiaJefferson,Georgia,Jefferson,2021-01-06 01:37:07.977859,2020-08-20 00:00:00.000000,3.77437748,5.19964404,7.97027575,579,798,1224,283,477,751,1.84579525,3.11141210,4.88951850,0.16173463,0.24459624,0.33960989
13163,0,USGeorgiaJefferson,Georgia,Jefferson,2021-01-06 01:37:07.977859,2020-08-21 00:00:00.000000,3.72462290,5.09137241,7.69098356,572,782,1181,277,469,735,1.80561549,3.05922417,4.78598081,0.15945254,0.24849783,0.35410656
13163,0,USGeorgiaJefferson,Georgia,Jefferson,2021-01-06 01:37:07.977859,2020-08-22 00:00:00.000000,3.71973892,4.98781102,7.41073561,571,766,1138,271,463,721,1.76425878,3.01819127,4.69834014,0.15026066,0.24648182,0.35981171
13163,0,USGeorgiaJefferson,Georgia,Jefferson,2021-01-06 01:37:07.977859,2020-08-23 00:00:00.000000,3.65519452,4.90277312,7.21742476,561,753,1108,264,455,713,1.72171610,2.96785070,4.64683472,0.15026020,0.25053651,0.35991613
13163,0,USGeorgiaJefferson,Georgia,Jefferson,2021-01-06 01:37:07.977859,2020-08-24 00:00:00.000000,3.51203521,4.83104276,7.06725030,539,742,1085,257,449,704,1.67841056,2.92295271,4.58679899,0.15025116,0.24766663,0.35985883
13163,0,USGeorgiaJefferson,Georgia,Jefferson,2021-01-06 01:37:07.977859,2020-08-25 00:00:00.000000,3.40451343,4.77495857,6.96992963,523,733,1070,251,442,680,1.63630402,2.87753072,4.42907580,0.15023107,0.24449207,0.35966597
13163,0,USGeorgiaJefferson,Georgia,Jefferson,2021-01-06 01:37:07.977859,2020-08-26 00:00:00.000000,3.34158084,4.71323221,6.87016212,513,724,1055,245,433,656,1.59594095,2.82450258,4.27030788,0.15021749,0.24479840,0.35916464
13163,0,USGeorgiaJefferson,Georgia,Jefferson,2021-01-06 01:37:07.977859,2020-08-27 00:00:00.000000,3.28101974,4.64952632,6.76011570,504,714,1038,239,426,637,1.55700058,2.77792711,4.14980693,0.15022063,0.24170874,0.35791489
13163,0,USGeorgiaJefferson,Georgia,Jefferson,2021-01-06 01:37:07.977859,2020-08-28 00:00:00.000000,3.22036939,4.53326467,6.57692735,494,696,1010,233,419,622,1.51952530,2.73251346,4.05147726,0.14867717,0.24271330,0.35481633
13163,0,USGeorgiaJefferson,Georgia,Jefferson,2021-01-06 01:37:07.977859,2020-08-29 00:00:00.000000,3.15808235,4.43829318,6.39802569,485,681,982,230,411,607,1.50036445,2.67992790,3.95513007,0.14628317,0.23069921,0.34858487
13163,0,USGeorgiaJefferson,Georgia,Jefferson,2021-01-06 01:37:07.977859,2020-08-30 00:00:00.000000,3.09330515,4.31177827,6.22450702,475,662,956,227,404,593,1.48188507,2.63610334,3.86060157,0.14398563,0.22746391,0.34373343
13163,0,USGeorgiaJefferson,Georgia,Jefferson,2021-01-06 01:37:07.977859,2020-08-31 00:00:00.000000,3.02414445,4.20573202,6.08383667,464,646,934,219,396,578,1.42872953,2.57805169,3.76775331,0.14174238,0.22507290,0.34133298
13163,0,USGeorgiaJefferson,Georgia,Jefferson,2021-01-06 01:37:07.977859,2020-09-01 00:00:00.000000,2.95080251,4.10059762,5.94693272,453,629,913,211,387,564,1.37784020,2.52099364,3.67635548,0.13914058,0.22594690,0.33888117
13163,0,USGeorgiaJefferson,Georgia,Jefferson,2021-01-06 01:37:07.977859,2020-09-02 00:00:00.000000,2.86810613,3.99319409,5.81405803,440,613,893,205,375,550,1.34031127,2.44666937,3.58643630,0.13853319,0.21934823,0.34204723
13163,0,USGeorgiaJefferson,Georgia,Jefferson,2021-01-06 01:37:07.977859,2020-09-03 00:00:00.000000,2.77079467,3.89541013,5.68510339,425,598,873,200,364,537,1.30243039,2.37391582,3.49806038,0.14197462,0.21897718,0.34114808
13163,0,USGeorgiaJefferson,Georgia,Jefferson,2021-01-06 01:37:07.977859,2020-09-04 00:00:00.000000,2.66086949,3.79921243,5.55989184,408,583,854,194,352,528,1.26553981,2.29624691,3.43853535,0.14980024,0.21929297,0.33358457
13163,0,USGeorgiaJefferson,Georgia,Jefferson,2021-01-06 01:37:07.977859,2020-09-05 00:00:00.000000,2.54557982,3.71162605,5.43335476,391,570,834,188,343,518,1.22917986,2.23523498,3.37524238,0.14927658,0.22180538,0.32415618
13163,0,USGeorgiaJefferson,Georgia,Jefferson,2021-01-06 01:37:07.977859,2020-09-06 00:00:00.000000,2.43015743,3.59313081,5.30193938,373,551,814,183,334,507,1.19539815,2.17980774,3.30669063,0.14744457,0.22082920,0.32424009
13163,0,USGeorgiaJefferson,Georgia,Jefferson,2021-01-06 01:37:07.977859,2020-09-07 00:00:00.000000,2.31895695,3.49862266,5.16941605,356,537,794,178,326,496,1.16320514,2.12862428,3.23388005,0.14668202,0.21396487,0.31377377
13163,0,USGeorgiaJefferson,Georgia,Jefferson,2021-01-06 01:37:07.977859,2020-09-08 00:00:00.000000,2.21154594,3.42211578,5.02053964,339,525,771,174,318,484,1.13441713,2.07415842,3.15532633,0.14409270,0.21231386,0.31379239
13163,0,USGeorgiaJefferson,Georgia,Jefferson,2021-01-06 01:37:07.977859,2020-09-09 00:00:00.000000,2.10876961,3.34437010,4.84737931,323,513,744,170,311,472,1.10776999,2.02840090,3.07318199,0.14234240,0.21277951,0.31337044
13163,0,USGeorgiaJefferson,Georgia,Jefferson,2021-01-06 01:37:07.977859,2020-09-10 00:00:00.000000,2.01234630,3.25499292,4.67966931,309,500,718,166,304,459,1.08155524,1.98378522,2.98904607,0.14385942,0.21232360,0.31256973
13163,0,USGeorgiaJefferson,Georgia,Jefferson,2021-01-06 01:37:07.977859,2020-09-11 00:00:00.000000,1.96260659,3.15060316,4.52207754,301,483,694,161,296,446,1.05397388,1.92993025,2.90401311,0.13860145,0.21239894,0.30766020
13163,0,USGeorgiaJefferson,Georgia,Jefferson,2021-01-06 01:37:07.977859,2020-09-12 00:00:00.000000,1.91500734,3.04542810,4.37729552,294,467,672,157,289,433,1.02498306,1.88313933,2.81874825,0.12762591,0.21082404,0.30807896
13163,0,USGeorgiaJefferson,Georgia,Jefferson,2021-01-06 01:37:07.977859,2020-09-13 00:00:00.000000,1.86976841,2.94442041,4.30885027,287,452,661,152,282,419,0.99495464,1.84098649,2.73299574,0.13093932,0.21874559,0.31073686
13163,0,USGeorgiaJefferson,Georgia,Jefferson,2021-01-06 01:37:07.977859,2020-09-14 00:00:00.000000,1.82936982,2.84390399,4.23865702,281,436,651,148,275,406,0.96455036,1.79443038,2.64724732,0.13438190,0.22131738,0.31309873
13163,0,USGeorgiaJefferson,Georgia,Jefferson,2021-01-06 01:37:07.977859,2020-09-15 00:00:00.000000,1.81738160,2.75537667,4.17081826,279,423,640,143,266,393,0.93636718,1.73617518,2.56235686,0.13571414,0.22443022,0.32810377
13163,0,USGeorgiaJefferson,Georgia,Jefferson,2021-01-06 01:37:07.977859,2020-09-16 00:00:00.000000,1.80280145,2.67352602,4.10335736,276,410,630,139,256,380,0.90975330,1.67270178,2.47799109,0.13628084,0.22395644,0.32430912
13163,0,USGeorgiaJefferson,Georgia,Jefferson,2021-01-06 01:37:07.977859,2020-09-17 00:00:00.000000,1.78394691,2.61337418,4.03601202,274,401,620,135,249,367,0.88417373,1.62439487,2.39407415,0.13682977,0.22937992,0.32466265
13163,0,USGeorgiaJefferson,Georgia,Jefferson,2021-01-06 01:37:07.977859,2020-09-18 00:00:00.000000,1.71772989,2.55843472,3.96858532,263,393,609,131,244,354,0.85921256,1.59149796,2.31080671,0.13522893,0.23529704,0.32382155
13163,0,USGeorgiaJefferson,Georgia,Jefferson,2021-01-06 01:37:07.977859,2020-09-19 00:00:00.000000,1.65082753,2.50734399,3.90110617,253,385,599,128,237,344,0.83462185,1.54479365,2.24072688,0.13808644,0.23513584,0.33304967
13163,0,USGeorgiaJefferson,Georgia,Jefferson,2021-01-06 01:37:07.977859,2020-09-20 00:00:00.000000,1.59454302,2.44890505,3.83365855,244,376,588,124,230,339,0.81034545,1.49812160,2.20682154,0.14688803,0.24012908,0.33970099
13163,0,USGeorgiaJefferson,Georgia,Jefferson,2021-01-06 01:37:07.977859,2020-09-21 00:00:00.000000,1.54278903,2.39927606,3.76344301,237,368,578,120,224,334,0.78648023,1.46322810,2.17533737,0.14827127,0.24329750,0.34516679
13163,0,USGeorgiaJefferson,Georgia,Jefferson,2021-01-06 01:37:07.977859,2020-09-22 00:00:00.000000,1.49503934,2.35754003,3.68757333,229,362,566,116,219,329,0.75834159,1.43002049,2.14561946,0.15183943,0.24677855,0.35109505
13163,0,USGeorgiaJefferson,Georgia,Jefferson,2021-01-06 01:37:07.977859,2020-09-23 00:00:00.000000,1.45077633,2.28775786,3.60235977,222,351,553,111,214,325,0.72802939,1.39826625,2.11734074,0.15405674,0.24785955,0.35728285
13163,0,USGeorgiaJefferson,Georgia,Jefferson,2021-01-06 01:37:07.977859,2020-09-24 00:00:00.000000,1.40901418,2.22560332,3.51707080,216,341,540,107,210,321,0.69951467,1.36727391,2.09024651,0.15642965,0.24694287,0.36371542
13163,0,USGeorgiaJefferson,Georgia,Jefferson,2021-01-06 01:37:07.977859,2020-09-25 00:00:00.000000,1.36974213,2.16194401,3.43110217,210,332,527,104,202,317,0.68240539,1.32135440,2.06414946,0.15883288,0.25491888,0.36652230
13163,0,USGeorgiaJefferson,Georgia,Jefferson,2021-01-06 01:37:07.977859,2020-09-26 00:00:00.000000,1.33360029,2.10481721,3.34434815,204,323,513,102,195,313,0.66698830,1.27526944,2.03892357,0.16020901,0.26056701,0.37564500
13163,0,USGeorgiaJefferson,Georgia,Jefferson,2021-01-06 01:37:07.977859,2020-09-27 00:00:00.000000,1.32067619,2.07390634,3.25735478,202,318,500,100,189,309,0.65586482,1.23094373,2.01449825,0.16380182,0.26105256,0.38100218
13163,0,USGeorgiaJefferson,Georgia,Jefferson,2021-01-06 01:37:07.977859,2020-09-28 00:00:00.000000,1.29484056,2.02010321,3.16364614,198,310,485,100,184,305,0.65117016,1.19827209,1.99082706,0.16857881,0.26558520,0.38578499
13163,0,USGeorgiaJefferson,Georgia,Jefferson,2021-01-06 01:37:07.977859,2020-09-29 00:00:00.000000,1.29278347,1.97846387,3.07141740,198,303,471,100,181,302,0.65359283,1.17827124,1.97128269,0.16913517,0.26928652,0.39396017
13163,0,USGeorgiaJefferson,Georgia,Jefferson,2021-01-06 01:37:07.977859,2020-09-30 00:00:00.000000,1.29551575,1.93685650,2.98125837,199,297,457,101,178,299,0.66142992,1.15906569,1.94957372,0.17321648,0.27361098,0.40048075
13163,0,USGeorgiaJefferson,Georgia,Jefferson,2021-01-06 01:37:07.977859,2020-10-01 00:00:00.000000,1.30197152,1.90563942,2.92607682,200,292,449,100,175,293,0.65113029,1.14211507,1.91066782,0.18374265,0.27969076,0.40407635
13163,0,USGeorgiaJefferson,Georgia,Jefferson,2021-01-06 01:37:07.977859,2020-10-02 00:00:00.000000,1.31152338,1.88200482,2.92025558,201,289,448,98,172,287,0.63802079,1.11997780,1.87245689,0.19179279,0.29109924,0.41204549
13163,0,USGeorgiaJefferson,Georgia,Jefferson,2021-01-06 01:37:07.977859,2020-10-03 00:00:00.000000,1.30770629,1.87117782,2.90885603,200,287,446,96,169,282,0.62504862,1.10092540,1.83618424,0.19960487,0.30446173,0.41983968
13163,0,USGeorgiaJefferson,Georgia,Jefferson,2021-01-06 01:37:07.977859,2020-10-04 00:00:00.000000,1.26106904,1.85498752,2.89502452,193,284,444,94,165,277,0.61230368,1.07995161,1.80708597,0.20847494,0.31674428,0.42603436
13163,0,USGeorgiaJefferson,Georgia,Jefferson,2021-01-06 01:37:07.977859,2020-10-05 00:00:00.000000,1.21420329,1.83981378,2.85990793,186,282,439,92,163,273,0.59991367,1.06121202,1.77856431,0.22499547,0.32872246,0.46700067
13163,0,USGeorgiaJefferson,Georgia,Jefferson,2021-01-06 01:37:07.977859,2020-10-06 00:00:00.000000,1.17150182,1.84341095,2.87879125,179,283,442,90,160,266,0.59218815,1.04772014,1.73638797,0.23002875,0.33571025,0.49830533
13163,0,USGeorgiaJefferson,Georgia,Jefferson,2021-01-06 01:37:07.977859,2020-10-07 00:00:00.000000,1.16501635,1.86388170,2.86827317,178,286,440,90,159,262,0.58812594,1.04073051,1.71022831,0.23210581,0.35153369,0.52815250
13163,0,USGeorgiaJefferson,Georgia,Jefferson,2021-01-06 01:37:07.977859,2020-10-08 00:00:00.000000,1.18067597,1.87771800,2.92118122,181,288,448,90,158,260,0.58731028,1.03134239,1.69251209,0.24030691,0.36648076,0.52241120
13163,0,USGeorgiaJefferson,Georgia,Jefferson,2021-01-06 01:37:07.977859,2020-10-09 00:00:00.000000,1.20434049,1.88922403,2.98263251,185,290,458,90,158,259,0.58972378,1.03482658,1.68820635,0.25341327,0.37211729,0.59495623
13163,0,USGeorgiaJefferson,Georgia,Jefferson,2021-01-06 01:37:07.977859,2020-10-10 00:00:00.000000,1.23575333,1.92369474,3.05367786,189,295,469,91,158,260,0.59563781,1.03496306,1.69416729,0.25556782,0.38914251,0.59460607
13163,0,USGeorgiaJefferson,Georgia,Jefferson,2021-01-06 01:37:07.977859,2020-10-11 00:00:00.000000,1.24882912,1.96092297,3.13194181,191,301,481,93,161,261,0.60545086,1.04955097,1.70067882,0.26801676,0.40990932,0.60444844
13163,0,USGeorgiaJefferson,Georgia,Jefferson,2021-01-06 01:37:07.977859,2020-10-12 00:00:00.000000,1.25164177,2.00501666,3.15626311,192,308,484,92,163,264,0.60240789,1.06609634,1.72245955,0.26740005,0.41875493,0.64047552
13163,0,USGeorgiaJefferson,Georgia,Jefferson,2021-01-06 01:37:07.977859,2020-10-13 00:00:00.000000,1.26762344,2.05089238,3.18234404,194,315,488,93,165,268,0.61101427,1.07556512,1.74953543,0.28208014,0.43365876,0.70833375
13163,0,USGeorgiaJefferson,Georgia,Jefferson,2021-01-06 01:37:07.977859,2020-10-14 00:00:00.000000,1.29603742,2.10644128,3.20774917,199,323,492,96,167,272,0.62881257,1.08881301,1.77254108,0.29849718,0.45523633,0.72617224
13163,0,USGeorgiaJefferson,Georgia,Jefferson,2021-01-06 01:37:07.977859,2020-10-15 00:00:00.000000,1.33183920,2.15040761,3.23233395,204,330,496,100,170,275,0.65264812,1.11136617,1.79270269,0.30187075,0.47617402,0.73255518
13163,0,USGeorgiaJefferson,Georgia,Jefferson,2021-01-06 01:37:07.977859,2020-10-16 00:00:00.000000,1.37635609,2.21807275,3.25669782,211,340,500,102,175,278,0.66995093,1.14083101,1.81082043,0.30453563,0.49514811,0.74581470
13163,0,USGeorgiaJefferson,Georgia,Jefferson,2021-01-06 01:37:07.977859,2020-10-17 00:00:00.000000,1.42552002,2.30076976,3.28408451,218,353,504,105,179,280,0.68490938,1.16834706,1.82754632,0.30591062,0.51752940,0.75143421
13163,0,USGeorgiaJefferson,Georgia,Jefferson,2021-01-06 01:37:07.977859,2020-10-18 00:00:00.000000,1.49417716,2.36795559,3.35376987,229,363,515,108,185,283,0.70341810,1.20430466,1.84391828,0.33094367,0.54637001,0.78687752
13163,0,USGeorgiaJefferson,Georgia,Jefferson,2021-01-06 01:37:07.977859,2020-10-19 00:00:00.000000,1.57953400,2.49577731,3.52269794,242,383,541,111,189,286,0.72731075,1.23676797,1.86224883,0.37274805,0.57233537,0.84481576
13163,0,USGeorgiaJefferson,Georgia,Jefferson,2021-01-06 01:37:07.977859,2020-10-20 00:00:00.000000,1.67536366,2.58636270,3.65974488,257,397,562,116,195,293,0.75882925,1.27576365,1.90833720,0.38910266,0.59366517,0.87278725
13163,0,USGeorgiaJefferson,Georgia,Jefferson,2021-01-06 01:37:07.977859,2020-10-21 00:00:00.000000,1.76374093,2.68247245,3.77174030,270,412,579,122,202,304,0.79683433,1.31935619,1.98004353,0.39478692,0.59654703,0.85838753
13163,0,USGeorgiaJefferson,Georgia,Jefferson,2021-01-06 01:37:07.977859,2020-10-22 00:00:00.000000,1.85467967,2.78805964,3.96454965,284,428,609,129,212,318,0.84009489,1.38361254,2.07356455,0.40607607,0.60799874,0.83391998
13163,0,USGeorgiaJefferson,Georgia,Jefferson,2021-01-06 01:37:07.977859,2020-10-23 00:00:00.000000,1.91741577,2.91317137,4.15952930,294,447,638,134,223,332,0.87624859,1.45766123,2.16719084,0.42834091,0.61130851,0.83444607
13163,0,USGeorgiaJefferson,Georgia,Jefferson,2021-01-06 01:37:07.977859,2020-10-24 00:00:00.000000,1.98977789,3.03796077,4.35612650,305,466,669,140,234,336,0.91476776,1.52921295,2.19020302,0.43286024,0.61941850,0.86541153
13163,0,USGeorgiaJefferson,Georgia,Jefferson,2021-01-06 01:37:07.977859,2020-10-25 00:00:00.000000,2.10119083,3.14223806,4.55299722,322,482,699,147,245,344,0.95791078,1.59693934,2.24399863,0.43254230,0.61709001,0.88963340
13163,0,USGeorgiaJefferson,Georgia,Jefferson,2021-01-06 01:37:07.977859,2020-10-26 00:00:00.000000,2.23316092,3.24691525,4.62682298,343,498,710,154,258,355,1.00709102,1.68119279,2.31521022,0.44919573,0.61653193,0.88965596
13163,0,USGeorgiaJefferson,Georgia,Jefferson,2021-01-06 01:37:07.977859,2020-10-27 00:00:00.000000,2.37055077,3.37044552,4.66926380,364,517,717,163,272,371,1.06619417,1.77272402,2.41567687,0.44927100,0.61932041,0.88918814
13163,0,USGeorgiaJefferson,Georgia,Jefferson,2021-01-06 01:37:07.977859,2020-10-28 00:00:00.000000,2.51297763,3.51851492,4.76258103,386,540,731,174,284,378,1.13299387,1.85513156,2.46205131,0.44345749,0.61602310,0.88771051
13163,0,USGeorgiaJefferson,Georgia,Jefferson,2021-01-06 01:37:07.977859,2020-10-29 00:00:00.000000,2.60184195,3.67696368,4.87923661,399,564,749,185,298,391,1.20524025,1.94095356,2.54553864,0.43205637,0.60303015,0.88287774
13163,0,USGeorgiaJefferson,Georgia,Jefferson,2021-01-06 01:37:07.977859,2020-10-30 00:00:00.000000,2.71747507,3.84757240,5.04523360,417,591,775,196,307,402,1.28171922,2.00111216,2.62311898,0.41609297,0.57982981,0.86736952
13163,0,USGeorgiaJefferson,Georgia,Jefferson,2021-01-06 01:37:07.977859,2020-10-31 00:00:00.000000,2.87266691,3.94073586,5.26257191,441,605,808,208,318,413,1.35791307,2.07035217,2.68948670,0.38702575,0.56452221,0.82445258
13163,0,USGeorgiaJefferson,Georgia,Jefferson,2021-01-06 01:37:07.977859,2020-11-01 00:00:00.000000,2.96657110,4.04496949,5.32091397,455,621,817,218,326,425,1.42052929,2.12351878,2.76718001,0.37636969,0.53237625,0.74099136
13163,0,USGeorgiaJefferson,Georgia,Jefferson,2021-01-06 01:37:07.977859,2020-11-02 00:00:00.000000,2.94000458,4.09830729,5.34318354,451,629,820,225,335,443,1.47063076,2.18527354,2.88622782,0.34710949,0.50607542,0.68854128
13163,0,USGeorgiaJefferson,Georgia,Jefferson,2021-01-06 01:37:07.977859,2020-11-03 00:00:00.000000,2.99783625,4.14074442,5.35321116,460,636,822,232,342,460,1.51332759,2.22882855,2.99733647,0.31808633,0.49104694,0.65733220
13163,0,USGeorgiaJefferson,Georgia,Jefferson,2021-01-06 01:37:07.977859,2020-11-04 00:00:00.000000,3.07623792,4.15573300,5.39595954,472,638,828,238,345,475,1.55044825,2.24841936,3.09206475,0.31505005,0.47925372,0.64149090
13163,0,USGeorgiaJefferson,Georgia,Jefferson,2021-01-06 01:37:07.977859,2020-11-05 00:00:00.000000,3.13593910,4.21325469,5.45439664,481,647,837,242,349,486,1.57838681,2.27462924,3.16776577,0.30739150,0.45657884,0.61129700
13163,0,USGeorgiaJefferson,Georgia,Jefferson,2021-01-06 01:37:07.977859,2020-11-06 00:00:00.000000,3.13091043,4.23323131,5.49944975,480,650,844,242,355,495,1.57867198,2.31336135,3.22693161,0.29643306,0.44139816,0.59823733
13163,0,USGeorgiaJefferson,Georgia,Jefferson,2021-01-06 01:37:07.977859,2020-11-07 00:00:00.000000,3.08593638,4.25346417,5.63804535,474,653,866,242,359,502,1.57537984,2.34131770,3.27312089,0.28181510,0.42351877,0.58100859
13163,0,USGeorgiaJefferson,Georgia,Jefferson,2021-01-06 01:37:07.977859,2020-11-08 00:00:00.000000,3.02845729,4.24330715,5.75780554,465,651,884,241,360,504,1.56912630,2.34497867,3.28179047,0.27488612,0.40815133,0.57599676
13163,0,USGeorgiaJefferson,Georgia,Jefferson,2021-01-06 01:37:07.977859,2020-11-09 00:00:00.000000,2.96147260,4.24247288,5.80736060,454,651,892,239,364,505,1.56038738,2.37338512,3.29129036,0.27281742,0.40372349,0.57049710
13163,0,USGeorgiaJefferson,Georgia,Jefferson,2021-01-06 01:37:07.977859,2020-11-10 00:00:00.000000,2.88767356,4.23133496,5.84763080,443,650,898,237,364,516,1.54873573,2.37359312,3.36348584,0.27208068,0.39658573,0.56377418
13163,0,USGeorgiaJefferson,Georgia,Jefferson,2021-01-06 01:37:07.977859,2020-11-11 00:00:00.000000,2.81291277,4.22738789,5.87365155,432,649,902,235,363,526,1.53411839,2.36740929,3.42653161,0.27635120,0.39890984,0.54827644
13163,0,USGeorgiaJefferson,Georgia,Jefferson,2021-01-06 01:37:07.977859,2020-11-12 00:00:00.000000,2.74133407,4.19387209,5.84766465,421,644,898,233,360,535,1.51754527,2.34544412,3.48388680,0.28313993,0.40942511,0.54177532
13163,0,USGeorgiaJefferson,Georgia,Jefferson,2021-01-06 01:37:07.977859,2020-11-13 00:00:00.000000,2.67735124,4.16795426,5.83361843,411,640,896,230,358,541,1.50071477,2.33563469,3.52411867,0.28974068,0.43023540,0.54516502
13163,0,USGeorgiaJefferson,Georgia,Jefferson,2021-01-06 01:37:07.977859,2020-11-14 00:00:00.000000,2.62613216,4.17168870,5.88014934,403,640,903,228,357,545,1.48471966,2.33037484,3.54972156,0.28841415,0.43054401,0.56718776
13163,0,USGeorgiaJefferson,Georgia,Jefferson,2021-01-06 01:37:07.977859,2020-11-15 00:00:00.000000,2.59160946,4.18287943,5.88738112,398,642,904,225,357,544,1.46974707,2.32807071,3.54158416,0.30460823,0.43213497,0.57674655
13163,0,USGeorgiaJefferson,Georgia,Jefferson,2021-01-06 01:37:07.977859,2020-11-16 00:00:00.000000,2.61735768,4.16944897,5.86452670,402,640,900,223,357,543,1.45567161,2.32807411,3.53706261,0.30549603,0.43600768,0.58692938
13163,0,USGeorgiaJefferson,Georgia,Jefferson,2021-01-06 01:37:07.977859,2020-11-17 00:00:00.000000,2.65616014,4.15476673,5.88442960,408,638,903,221,357,543,1.44211879,2.32723156,3.53864539,0.31477868,0.44685811,0.58931195
13163,0,USGeorgiaJefferson,Georgia,Jefferson,2021-01-06 01:37:07.977859,2020-11-18 00:00:00.000000,2.70491749,4.13245681,5.89754625,415,634,905,219,357,544,1.42939641,2.32466264,3.54764493,0.31576656,0.45257994,0.59567239
13163,0,USGeorgiaJefferson,Georgia,Jefferson,2021-01-06 01:37:07.977859,2020-11-19 00:00:00.000000,2.75846030,4.11450393,5.93848962,423,632,912,219,356,547,1.42900410,2.31917457,3.56423588,0.31722317,0.46208947,0.60872656
13163,0,USGeorgiaJefferson,Georgia,Jefferson,2021-01-06 01:37:07.977859,2020-11-20 00:00:00.000000,2.81420440,4.15338039,6.02208110,432,638,925,225,355,551,1.46909498,2.31379888,3.58916463,0.32027190,0.47958501,0.63829914
13163,0,USGeorgiaJefferson,Georgia,Jefferson,2021-01-06 01:37:07.977859,2020-11-21 00:00:00.000000,2.88798051,4.17690364,6.10084602,443,641,937,232,356,556,1.51411584,2.32152019,3.62099007,0.32612888,0.49425242,0.66515866
13163,0,USGeorgiaJefferson,Georgia,Jefferson,2021-01-06 01:37:07.977859,2020-11-22 00:00:00.000000,2.99389976,4.21951460,6.17545662,459,648,948,235,356,562,1.53480977,2.31869258,3.65980431,0.33865840,0.50759165,0.69056608
13163,0,USGeorgiaJefferson,Georgia,Jefferson,2021-01-06 01:37:07.977859,2020-11-23 00:00:00.000000,3.01721416,4.27416448,6.24801780,463,656,959,236,356,568,1.53749756,2.32038319,3.69914144,0.36152585,0.51798391,0.72601130
13163,0,USGeorgiaJefferson,Georgia,Jefferson,2021-01-06 01:37:07.977859,2020-11-24 00:00:00.000000,3.00800318,4.32161306,6.31722352,462,663,970,236,359,569,1.54096624,2.34167189,3.70826009,0.37867925,0.53195350,0.74235538
13163,0,USGeorgiaJefferson,Georgia,Jefferson,2021-01-06 01:37:07.977859,2020-11-25 00:00:00.000000,3.02048534,4.40548932,6.38421418,464,676,980,236,365,571,1.54080763,2.38018431,3.71987494,0.38154222,0.53615246,0.78879109
13163,0,USGeorgiaJefferson,Georgia,Jefferson,2021-01-06 01:37:07.977859,2020-11-26 00:00:00.000000,3.06087909,4.52327360,6.45104513,470,694,991,234,370,573,1.52726723,2.41433063,3.73525572,0.39116132,0.56201040,0.83374678
13163,0,USGeorgiaJefferson,Georgia,Jefferson,2021-01-06 01:37:07.977859,2020-11-27 00:00:00.000000,3.11523953,4.61433159,6.52090339,478,708,1001,232,376,577,1.51604512,2.44824994,3.75880375,0.40771041,0.58972112,0.88266759
13163,0,USGeorgiaJefferson,Georgia,Jefferson,2021-01-06 01:37:07.977859,2020-11-28 00:00:00.000000,3.21177973,4.71123155,6.59724053,493,723,1013,232,382,583,1.51421470,2.49058848,3.79861481,0.41393461,0.61876965,0.92708822
13163,0,USGeorgiaJefferson,Georgia,Jefferson,2021-01-06 01:37:07.977859,2020-11-29 00:00:00.000000,3.30647047,4.83745775,6.68170040,507,743,1026,240,392,592,1.56454445,2.55175960,3.86000093,0.43522385,0.64612008,0.98432414
13163,0,USGeorgiaJefferson,Georgia,Jefferson,2021-01-06 01:37:07.977859,2020-11-30 00:00:00.000000,3.40201910,4.95650103,6.81794194,522,761,1047,244,406,605,1.59353106,2.64698212,3.94010226,0.44517478,0.68137332,1.01634235
13163,0,USGeorgiaJefferson,Georgia,Jefferson,2021-01-06 01:37:07.977859,2020-12-01 00:00:00.000000,3.50438727,5.07630470,6.93863072,538,779,1065,248,419,619,1.61833814,2.73380844,4.03207241,0.46450981,0.69566489,1.01882808
13163,0,USGeorgiaJefferson,Georgia,Jefferson,2021-01-06 01:37:07.977859,2020-12-02 00:00:00.000000,3.61338433,5.18740253,7.12936663,555,796,1095,253,427,634,1.64905614,2.78084316,4.13228439,0.46488044,0.71368759,1.05059203
13163,0,USGeorgiaJefferson,Georgia,Jefferson,2021-01-06 01:37:07.977859,2020-12-03 00:00:00.000000,3.73294947,5.28243628,7.31953386,573,811,1124,258,431,651,1.68423805,2.80885803,4.23806310,0.47242703,0.73309938,1.04999661
13163,0,USGeorgiaJefferson,Georgia,Jefferson,2021-01-06 01:37:07.977859,2020-12-04 00:00:00.000000,3.86744043,5.42002389,7.51606798,594,832,1154,264,439,667,1.72307027,2.85809488,4.34754178,0.51621705,0.73773601,1.05206339
13163,0,USGeorgiaJefferson,Georgia,Jefferson,2021-01-06 01:37:07.977859,2020-12-05 00:00:00.000000,4.01711199,5.60323840,7.75614461,617,860,1191,271,446,682,1.76531333,2.90460749,4.44076927,0.52041623,0.77431876,1.14189458
13163,0,USGeorgiaJefferson,Georgia,Jefferson,2021-01-06 01:37:07.977859,2020-12-06 00:00:00.000000,4.17796664,5.81792508,7.95023557,641,893,1221,278,457,694,1.81117283,2.97992594,4.51879591,0.55827530,0.80115418,1.17412052
13163,0,USGeorgiaJefferson,Georgia,Jefferson,2021-01-06 01:37:07.977859,2020-12-07 00:00:00.000000,4.34961845,5.99280664,8.09638131,668,920,1243,285,470,707,1.86114300,3.06274789,4.60754217,0.55911912,0.80670752,1.17685406
13163,0,USGeorgiaJefferson,Georgia,Jefferson,2021-01-06 01:37:07.977859,2020-12-08 00:00:00.000000,4.49558159,6.16437965,8.35631490,690,946,1283,294,484,723,1.91718763,3.15358421,4.70694807,0.55986094,0.82199755,1.17073994
13163,0,USGeorgiaJefferson,Georgia,Jefferson,2021-01-06 01:37:07.977859,2020-12-09 00:00:00.000000,4.56474898,6.28428005,8.64775038,701,965,1328,304,499,737,1.98281671,3.25337875,4.80213661,0.56078635,0.82190438,1.15807944
13163,0,USGeorgiaJefferson,Georgia,Jefferson,2021-01-06 01:37:07.977859,2020-12-10 00:00:00.000000,4.63214277,6.43431781,8.91338115,711,988,1369,314,518,749,2.04908883,3.37786895,4.87766386,0.56568524,0.82988830,1.15447227
13163,0,USGeorgiaJefferson,Georgia,Jefferson,2021-01-06 01:37:07.977859,2020-12-11 00:00:00.000000,4.75790362,6.61959126,9.12110675,730,1016,1401,325,534,766,2.11642459,3.47930674,4.99012685,0.56947202,0.82974838,1.13073786
13163,0,USGeorgiaJefferson,Georgia,Jefferson,2021-01-06 01:37:07.977859,2020-12-12 00:00:00.000000,4.87599007,6.82155954,9.33186531,749,1047,1433,336,549,786,2.18782445,3.57934081,5.12171017,0.56467190,0.82605373,1.15767496
13163,0,USGeorgiaJefferson,Georgia,Jefferson,2021-01-06 01:37:07.977859,2020-12-13 00:00:00.000000,4.98286276,7.02186145,9.63726633,765,1078,1480,347,567,807,2.25990654,3.69533100,5.25630963,0.54765749,0.81531938,1.20342812
13163,0,USGeorgiaJefferson,Georgia,Jefferson,2021-01-06 01:37:07.977859,2020-12-14 00:00:00.000000,5.07933891,7.21585103,9.93645642,780,1108,1526,358,584,819,2.33203530,3.80179152,5.33466830,0.53808108,0.82044625,1.24549360
13163,0,USGeorgiaJefferson,Georgia,Jefferson,2021-01-06 01:37:07.977859,2020-12-15 00:00:00.000000,5.16279889,7.42427400,10.22630274,793,1140,1570,368,597,836,2.40014739,3.89074120,5.44487106,0.53867950,0.81519594,1.29174566
13163,0,USGeorgiaJefferson,Georgia,Jefferson,2021-01-06 01:37:07.977859,2020-12-16 00:00:00.000000,5.23564097,7.62428772,10.49000752,804,1171,1611,378,613,858,2.46513613,3.99599215,5.59101243,0.54294480,0.81913431,1.30280336
13163,0,USGeorgiaJefferson,Georgia,Jefferson,2021-01-06 01:37:07.977859,2020-12-17 00:00:00.000000,5.30036180,7.82625070,10.74172862,814,1202,1650,388,627,882,2.52746467,4.08642031,5.74418009,0.53648687,0.82052930,1.30498350
13163,0,USGeorgiaJefferson,Georgia,Jefferson,2021-01-06 01:37:07.977859,2020-12-18 00:00:00.000000,5.35928446,7.97484364,10.98030877,823,1225,1686,397,638,907,2.58733409,4.15634061,5.90932818,0.55141925,0.82568529,1.32179012
13163,0,USGeorgiaJefferson,Georgia,Jefferson,2021-01-06 01:37:07.977859,2020-12-19 00:00:00.000000,5.41548977,8.10033401,11.21534453,831,1244,1722,406,646,934,2.64478426,4.21136202,6.08352224,0.54102667,0.82433003,1.31169690
13163,0,USGeorgiaJefferson,Georgia,Jefferson,2021-01-06 01:37:07.977859,2020-12-20 00:00:00.000000,5.47437426,8.20766426,11.44632830,840,1260,1758,414,658,951,2.69976061,4.28776902,6.19709366,0.54379739,0.83389340,1.49549443
13163,0,USGeorgiaJefferson,Georgia,Jefferson,2021-01-06 01:37:07.977859,2020-12-21 00:00:00.000000,5.54487916,8.24126107,11.64296131,851,1266,1788,422,672,969,2.75216363,4.37599915,6.31082479,0.54752103,0.83466817,1.62655693
13163,0,USGeorgiaJefferson,Georgia,Jefferson,2021-01-06 01:37:07.977859,2020-12-22 00:00:00.000000,5.58843389,8.37921732,11.80717373,858,1287,1813,430,686,989,2.80412012,4.47024372,6.44063939,0.54591873,0.84413194,1.63185274
13163,0,USGeorgiaJefferson,Georgia,Jefferson,2021-01-06 01:37:07.977859,2020-12-23 00:00:00.000000,5.62539241,8.50677471,11.94436522,864,1306,1834,438,697,1008,2.85466252,4.53903774,6.56312627,0.54889415,0.85390789,1.62968550
13163,0,USGeorgiaJefferson,Georgia,Jefferson,2021-01-06 01:37:07.977859,2020-12-24 00:00:00.000000,5.68138793,8.58098279,12.05521545,872,1318,1851,445,704,1025,2.90309773,4.58472003,6.67729046,0.54978505,0.85810800,1.60258493
13163,0,USGeorgiaJefferson,Georgia,Jefferson,2021-01-06 01:37:07.977859,2020-12-25 00:00:00.000000,5.76617316,8.55125416,12.13582904,885,1313,1864,452,712,1042,2.94582159,4.63647936,6.78348891,0.55284095,0.86093607,1.46578843
13163,0,USGeorgiaJefferson,Georgia,Jefferson,2021-01-06 01:37:07.977859,2020-12-26 00:00:00.000000,5.87747588,8.57514993,12.18827762,902,1317,1872,457,719,1057,2.97636924,4.68085649,6.88485700,0.55328712,0.86967558,1.48627129
13163,0,USGeorgiaJefferson,Georgia,Jefferson,2021-01-06 01:37:07.977859,2020-12-27 00:00:00.000000,6.00461199,8.52656056,12.27797842,922,1309,1886,462,723,1073,3.01125516,4.71266008,6.98783676,0.55322018,0.88261425,1.52961117
13163,0,USGeorgiaJefferson,Georgia,Jefferson,2021-01-06 01:37:07.977859,2020-12-28 00:00:00.000000,6.12891467,8.47096427,12.23833101,941,1301,1880,465,727,1090,3.03187076,4.73660423,7.09703430,0.55317415,0.88558654,1.53693124
13163,0,USGeorgiaJefferson,Georgia,Jefferson,2021-01-06 01:37:07.977859,2020-12-29 00:00:00.000000,6.25498933,8.46062885,12.17670118,960,1299,1870,466,729,1095,3.03822420,4.75033107,7.12822769,0.55316778,0.88136367,1.53813325
13163,0,USGeorgiaJefferson,Georgia,Jefferson,2021-01-06 01:37:07.977859,2020-12-30 00:00:00.000000,6.29388859,8.34273038,12.12182406,966,1281,1862,463,727,1091,3.01593724,4.73388849,7.10550774,0.55318633,0.88356022,1.53648934
13163,0,USGeorgiaJefferson,Georgia,Jefferson,2021-01-06 01:37:07.977859,2020-12-31 00:00:00.000000,6.19722936,8.27093991,12.18514314,952,1270,1871,458,727,1083,2.98659435,4.73547614,7.05114734,0.55339353,0.87831892,1.53842454
13163,0,USGeorgiaJefferson,Georgia,Jefferson,2021-01-06 01:37:07.977859,2021-01-01 00:00:00.000000,6.09734568,8.18311862,12.22499495,936,1257,1878,461,720,1083,3.00143452,4.69054207,7.05339635,0.52238434,0.86718406,1.54819525
13163,0,USGeorgiaJefferson,Georgia,Jefferson,2021-01-06 01:37:07.977859,2021-01-02 00:00:00.000000,5.99674131,8.08700059,12.24130771,921,1242,1880,463,718,1091,3.01966454,4.67671179,7.10509347,0.50696429,0.87110772,1.60142401
13163,0,USGeorgiaJefferson,Georgia,Jefferson,2021-01-06 01:37:07.977859,2021-01-03 00:00:00.000000,5.87681633,7.98332706,12.17560909,902,1226,1870,457,711,1095,2.97692581,4.62860954,7.13069824,0.50245681,0.88025056,1.69888081
13163,0,USGeorgiaJefferson,Georgia,Jefferson,2021-01-06 01:37:07.977859,2021-01-04 00:00:00.000000,5.74629899,7.93330692,12.00401296,882,1218,1844,450,704,1095,2.93223739,4.58733870,7.13259059,0.49410401,0.90179081,1.73389437
13163,0,USGeorgiaJefferson,Georgia,Jefferson,2021-01-06 01:37:07.977859,2021-01-05 00:00:00.000000,5.60930038,7.82570279,11.95673220,861,1202,1836,443,698,1092,2.88600504,4.54777876,7.11340543,0.49183950,0.90630083,1.73898752
13163,0,USGeorgiaJefferson,Georgia,Jefferson,2021-01-06 01:37:07.977859,2021-01-06 00:00:00.000000,5.47682775,7.70055169,12.08915268,841,1182,1857,436,698,1087,2.83848247,4.54851375,7.07747862,0.48709545,0.91371416,1.73961207
13163,0,USGeorgiaJefferson,Georgia,Jefferson,2021-01-06 01:37:07.977859,2021-01-07 00:00:00.000000,5.38721242,7.57854414,12.00134129,827,1164,1843,428,689,1079,2.78993678,4.48967226,7.02673048,0.48469841,0.91560168,1.73969319
13163,0,USGeorgiaJefferson,Georgia,Jefferson,2021-01-06 01:37:07.977859,2021-01-08 00:00:00.000000,5.29593605,7.44828568,11.89219099,813,1144,1826,420,675,1069,2.74045963,4.39868505,6.96269012,0.48356498,0.91581861,1.73970665
13163,0,USGeorgiaJefferson,Georgia,Jefferson,2021-01-06 01:37:07.977859,2021-01-09 00:00:00.000000,5.20310920,7.30988350,11.80317526,799,1122,1813,413,665,1076,2.69013823,4.33185073,7.00620368,0.48304438,0.91558356,1.73971019
13163,0,USGeorgiaJefferson,Georgia,Jefferson,2021-01-06 01:37:07.977859,2021-01-10 00:00:00.000000,5.07468643,7.16437717,11.89366178,779,1100,1827,405,658,1079,2.63906877,4.28501912,7.02746874,0.48280677,0.91549344,1.73971160
13163,0,USGeorgiaJefferson,Georgia,Jefferson,2021-01-06 01:37:07.977859,2021-01-11 00:00:00.000000,4.87937406,6.99613119,11.96656062,749,1074,1838,397,645,1062,2.58735246,4.19927197,6.91375383,0.48269724,0.91546492,1.73971229
13163,0,USGeorgiaJefferson,Georgia,Jefferson,2021-01-06 01:37:07.977859,2021-01-12 00:00:00.000000,4.68178083,6.80211300,12.02022991,719,1044,1846,389,626,1042,2.53509248,4.07596943,6.78926680,0.48264683,0.91545589,1.73971264
13163,0,USGeorgiaJefferson,Georgia,Jefferson,2021-01-06 01:37:07.977859,2021-01-13 00:00:00.000000,4.48742041,6.64344105,12.05364719,689,1020,1851,381,609,1024,2.48239189,3.96544640,6.66708064,0.48262365,0.91545304,1.73971283
13163,0,USGeorgiaJefferson,Georgia,Jefferson,2021-01-06 01:37:07.977859,2021-01-14 00:00:00.000000,4.29679888,6.47969804,12.06623187,660,995,1853,373,593,1018,2.42935226,3.86150300,6.63096374,0.48261299,0.91545214,1.73971293
13163,0,USGeorgiaJefferson,Georgia,Jefferson,2021-01-06 01:37:07.977859,2021-01-15 00:00:00.000000,4.11033864,6.29779341,12.05773140,631,967,1852,365,576,1010,2.37607265,3.75527397,6.58082430,0.48260809,0.91545185,1.73971299
13163,0,USGeorgiaJefferson,Georgia,Jefferson,2021-01-06 01:37:07.977859,2021-01-16 00:00:00.000000,3.92839047,6.10355851,12.02703116,603,937,1847,356,560,999,2.32264897,3.64724823,6.50840903,0.48260584,0.91545176,1.73971302
13163,0,USGeorgiaJefferson,Georgia,Jefferson,2021-01-06 01:37:07.977859,2021-01-17 00:00:00.000000,3.75124237,5.91407716,11.97480875,576,908,1839,348,544,990,2.26917352,3.54562756,6.44777071,0.48260481,0.91545173,1.73971303
