FIPS,HR_UID,nameid,province,region,analysisTime,dates,pointprevalence_025,pointprevalence_50,pointprevalence_975,pointinfections_025,pointinfections_50,pointinfections_975,pointinfectious_025,pointinfectious_50,pointinfectious_975,pointinfectiousprevalence_05,pointinfectiousprevalence_50,pointinfectiousprevalence_95,infectrate_025,infectrate_50,infectrate_975
56025,0,USWyomingNatrona,Wyoming,Natrona,2021-01-05 05:44:01.701624,2020-03-09 00:00:00.000000,0.00101470,0.00651099,0.02036383,0,5,16,0,2,8,0.00015205,0.00261890,0.01043808,0.36460852,0.51321527,0.71527102
56025,0,USWyomingNatrona,Wyoming,Natrona,2021-01-05 05:44:01.701624,2020-03-10 00:00:00.000000,0.00161991,0.00868254,0.02257768,1,6,18,0,2,7,0.00028923,0.00313742,0.00998938,0.36460844,0.51307925,0.71527102
56025,0,USWyomingNatrona,Wyoming,Natrona,2021-01-05 05:44:01.701624,2020-03-11 00:00:00.000000,0.00210342,0.01097708,0.02665279,1,8,21,0,2,8,0.00054438,0.00362732,0.01062804,0.36460819,0.51280838,0.71527102
56025,0,USWyomingNatrona,Wyoming,Natrona,2021-01-05 05:44:01.701624,2020-03-12 00:00:00.000000,0.00275023,0.01331946,0.03097781,2,10,24,0,3,9,0.00081205,0.00440234,0.01170295,0.36460739,0.51277601,0.71527102
56025,0,USWyomingNatrona,Wyoming,Natrona,2021-01-05 05:44:01.701624,2020-03-13 00:00:00.000000,0.00344605,0.01557941,0.03469223,2,12,27,0,4,10,0.00098756,0.00534797,0.01330678,0.36460482,0.51274978,0.71527100
56025,0,USWyomingNatrona,Wyoming,Natrona,2021-01-05 05:44:01.701624,2020-03-14 00:00:00.000000,0.00420071,0.01808660,0.03853389,3,14,30,0,4,11,0.00118221,0.00620518,0.01478725,0.36459653,0.51268277,0.71527093
56025,0,USWyomingNatrona,Wyoming,Natrona,2021-01-05 05:44:01.701624,2020-03-15 00:00:00.000000,0.00502550,0.02082407,0.04241993,4,16,33,1,5,13,0.00151536,0.00732809,0.01636510,0.36456970,0.50662114,0.71527052
56025,0,USWyomingNatrona,Wyoming,Natrona,2021-01-05 05:44:01.701624,2020-03-16 00:00:00.000000,0.00657759,0.02444239,0.04757485,5,19,37,1,6,14,0.00188611,0.00860862,0.01807679,0.35702711,0.50390965,0.71526806
56025,0,USWyomingNatrona,Wyoming,Natrona,2021-01-05 05:44:01.701624,2020-03-17 00:00:00.000000,0.00821269,0.02845071,0.05204438,6,22,41,1,8,16,0.00248015,0.01017422,0.02007826,0.33293581,0.49305114,0.71525262
56025,0,USWyomingNatrona,Wyoming,Natrona,2021-01-05 05:44:01.701624,2020-03-18 00:00:00.000000,0.00997271,0.03241303,0.05592217,7,25,44,2,9,17,0.00326230,0.01206448,0.02216607,0.32041082,0.47300166,0.71515181
56025,0,USWyomingNatrona,Wyoming,Natrona,2021-01-05 05:44:01.701624,2020-03-19 00:00:00.000000,0.01187878,0.03659320,0.05949415,9,29,47,3,11,19,0.00417780,0.01399659,0.02422207,0.30446401,0.45534344,0.71447890
56025,0,USWyomingNatrona,Wyoming,Natrona,2021-01-05 05:44:01.701624,2020-03-20 00:00:00.000000,0.01394836,0.04028257,0.06290855,11,32,50,4,12,21,0.00519113,0.01591142,0.02706389,0.27955258,0.44062513,0.71001140
56025,0,USWyomingNatrona,Wyoming,Natrona,2021-01-05 05:44:01.701624,2020-03-21 00:00:00.000000,0.01619971,0.04383829,0.06714797,12,35,53,4,14,23,0.00625737,0.01791411,0.02916728,0.26887499,0.40478665,0.68213887
56025,0,USWyomingNatrona,Wyoming,Natrona,2021-01-05 05:44:01.701624,2020-03-22 00:00:00.000000,0.01863682,0.04832571,0.07253895,14,38,57,5,16,25,0.00736183,0.02005254,0.03207775,0.26170197,0.38247053,0.60954909
56025,0,USWyomingNatrona,Wyoming,Natrona,2021-01-05 05:44:01.701624,2020-03-23 00:00:00.000000,0.02158058,0.05322907,0.07808947,17,42,62,6,17,28,0.00850320,0.02238770,0.03544600,0.24941975,0.35976484,0.56483864
56025,0,USWyomingNatrona,Wyoming,Natrona,2021-01-05 05:44:01.701624,2020-03-24 00:00:00.000000,0.02454373,0.05685464,0.08266315,19,45,66,7,19,30,0.00968432,0.02457524,0.03829110,0.24089519,0.34500637,0.50914203
56025,0,USWyomingNatrona,Wyoming,Natrona,2021-01-05 05:44:01.701624,2020-03-25 00:00:00.000000,0.02753246,0.06047847,0.09034873,21,48,72,8,21,33,0.01090124,0.02684312,0.04197211,0.23642109,0.33988074,0.48302182
56025,0,USWyomingNatrona,Wyoming,Natrona,2021-01-05 05:44:01.701624,2020-03-26 00:00:00.000000,0.02982060,0.06408941,0.09657220,23,51,77,9,23,36,0.01214794,0.02908505,0.04544656,0.22526542,0.32597117,0.46763168
56025,0,USWyomingNatrona,Wyoming,Natrona,2021-01-05 05:44:01.701624,2020-03-27 00:00:00.000000,0.03151560,0.06718641,0.10283695,25,53,82,10,25,39,0.01341604,0.03162856,0.04894909,0.21707443,0.31010420,0.44030453
56025,0,USWyomingNatrona,Wyoming,Natrona,2021-01-05 05:44:01.701624,2020-03-28 00:00:00.000000,0.03314873,0.06989174,0.10857900,26,55,86,11,27,41,0.01495543,0.03396792,0.05238169,0.20202887,0.29104149,0.43661610
56025,0,USWyomingNatrona,Wyoming,Natrona,2021-01-05 05:44:01.701624,2020-03-29 00:00:00.000000,0.03463614,0.07288221,0.11334359,27,58,90,13,28,44,0.01661825,0.03587745,0.05583287,0.19256413,0.27159323,0.39370027
56025,0,USWyomingNatrona,Wyoming,Natrona,2021-01-05 05:44:01.701624,2020-03-30 00:00:00.000000,0.03630203,0.07593579,0.11870559,28,60,94,14,29,47,0.01768489,0.03686987,0.05915287,0.18725848,0.26028636,0.36293664
56025,0,USWyomingNatrona,Wyoming,Natrona,2021-01-05 05:44:01.701624,2020-03-31 00:00:00.000000,0.03757719,0.07957284,0.12399576,30,63,99,14,30,50,0.01871861,0.03810080,0.06263245,0.18160666,0.25190761,0.35954085
56025,0,USWyomingNatrona,Wyoming,Natrona,2021-01-05 05:44:01.701624,2020-04-01 00:00:00.000000,0.03867058,0.08283163,0.12929306,30,66,103,15,31,52,0.01976658,0.03946797,0.06621314,0.17495328,0.24539873,0.35334575
56025,0,USWyomingNatrona,Wyoming,Natrona,2021-01-05 05:44:01.701624,2020-04-02 00:00:00.000000,0.03968572,0.08494897,0.13460188,31,67,107,16,32,55,0.02083431,0.04129954,0.06986186,0.15634719,0.23642052,0.34166502
56025,0,USWyomingNatrona,Wyoming,Natrona,2021-01-05 05:44:01.701624,2020-04-03 00:00:00.000000,0.04065460,0.08629013,0.13991554,32,68,111,17,34,58,0.02168412,0.04325728,0.07353856,0.15083004,0.22876354,0.33346126
56025,0,USWyomingNatrona,Wyoming,Natrona,2021-01-05 05:44:01.701624,2020-04-04 00:00:00.000000,0.04159025,0.08827986,0.14521057,33,70,115,17,36,61,0.02239986,0.04517588,0.07717834,0.14960885,0.22316621,0.29882562
56025,0,USWyomingNatrona,Wyoming,Natrona,2021-01-05 05:44:01.701624,2020-04-05 00:00:00.000000,0.04331430,0.09000009,0.15034932,34,71,120,18,36,64,0.02307027,0.04627924,0.08070973,0.14894623,0.21562357,0.29050391
56025,0,USWyomingNatrona,Wyoming,Natrona,2021-01-05 05:44:01.701624,2020-04-06 00:00:00.000000,0.04430767,0.09249036,0.15569669,35,73,124,18,37,67,0.02370416,0.04725673,0.08409630,0.14864441,0.20660830,0.29279356
56025,0,USWyomingNatrona,Wyoming,Natrona,2021-01-05 05:44:01.701624,2020-04-07 00:00:00.000000,0.04507972,0.09446011,0.15783512,35,75,126,19,38,69,0.02423052,0.04789079,0.08714904,0.14819736,0.19910400,0.29506138
56025,0,USWyomingNatrona,Wyoming,Natrona,2021-01-05 05:44:01.701624,2020-04-08 00:00:00.000000,0.04574054,0.09585814,0.15980405,36,76,127,19,39,71,0.02467694,0.04910969,0.08991342,0.14723813,0.19538026,0.29622516
56025,0,USWyomingNatrona,Wyoming,Natrona,2021-01-05 05:44:01.701624,2020-04-09 00:00:00.000000,0.04634920,0.09675480,0.16133448,37,77,128,20,39,73,0.02506483,0.04998237,0.09241129,0.13857018,0.18841558,0.29528029
56025,0,USWyomingNatrona,Wyoming,Natrona,2021-01-05 05:44:01.701624,2020-04-10 00:00:00.000000,0.04692746,0.09787728,0.16516692,37,78,131,20,40,75,0.02547955,0.05104039,0.09457861,0.11867891,0.18576515,0.28072217
56025,0,USWyomingNatrona,Wyoming,Natrona,2021-01-05 05:44:01.701624,2020-04-11 00:00:00.000000,0.04751190,0.10154400,0.16933235,37,81,135,20,41,76,0.02602436,0.05184853,0.09582485,0.11613119,0.17538422,0.27364622
56025,0,USWyomingNatrona,Wyoming,Natrona,2021-01-05 05:44:01.701624,2020-04-12 00:00:00.000000,0.04808892,0.10337042,0.17331706,38,82,138,21,42,76,0.02655458,0.05317437,0.09641812,0.11594481,0.16999129,0.26782947
56025,0,USWyomingNatrona,Wyoming,Natrona,2021-01-05 05:44:01.701624,2020-04-13 00:00:00.000000,0.05065552,0.10480214,0.17701432,40,83,141,21,43,78,0.02650089,0.05431773,0.09852291,0.11359914,0.16616187,0.26669418
56025,0,USWyomingNatrona,Wyoming,Natrona,2021-01-05 05:44:01.701624,2020-04-14 00:00:00.000000,0.05320869,0.10845955,0.18095813,42,86,144,21,43,80,0.02673021,0.05459605,0.10046858,0.11285363,0.16461199,0.26556939
56025,0,USWyomingNatrona,Wyoming,Natrona,2021-01-05 05:44:01.701624,2020-04-15 00:00:00.000000,0.05578810,0.10715316,0.18475705,44,85,147,21,44,81,0.02738962,0.05570223,0.10215697,0.11012346,0.16121793,0.26396040
56025,0,USWyomingNatrona,Wyoming,Natrona,2021-01-05 05:44:01.701624,2020-04-16 00:00:00.000000,0.05635372,0.10716253,0.18843012,45,85,150,22,45,82,0.02827054,0.05705792,0.10356954,0.10649459,0.15449093,0.25443405
56025,0,USWyomingNatrona,Wyoming,Natrona,2021-01-05 05:44:01.701624,2020-04-17 00:00:00.000000,0.05563088,0.10829468,0.19193209,44,86,153,22,45,83,0.02859260,0.05753307,0.10478351,0.10187122,0.15272081,0.24847191
56025,0,USWyomingNatrona,Wyoming,Natrona,2021-01-05 05:44:01.701624,2020-04-18 00:00:00.000000,0.05662722,0.10936118,0.19385300,45,87,154,23,46,84,0.02888812,0.05880992,0.10584941,0.09307834,0.14897394,0.23929110
56025,0,USWyomingNatrona,Wyoming,Natrona,2021-01-05 05:44:01.701624,2020-04-19 00:00:00.000000,0.05801353,0.10924803,0.19459424,46,87,155,23,47,85,0.02902973,0.05922184,0.10677946,0.09496707,0.14472533,0.22356854
56025,0,USWyomingNatrona,Wyoming,Natrona,2021-01-05 05:44:01.701624,2020-04-20 00:00:00.000000,0.05797192,0.10720590,0.19057329,46,85,152,23,47,86,0.02897260,0.05932034,0.10780531,0.09591783,0.13725686,0.21227827
56025,0,USWyomingNatrona,Wyoming,Natrona,2021-01-05 05:44:01.701624,2020-04-21 00:00:00.000000,0.05573388,0.10423691,0.18606348,44,83,148,23,47,86,0.02907834,0.05976755,0.10880717,0.09518987,0.13681726,0.21177934
56025,0,USWyomingNatrona,Wyoming,Natrona,2021-01-05 05:44:01.701624,2020-04-22 00:00:00.000000,0.05346731,0.10115277,0.18489887,42,80,147,23,47,86,0.02904844,0.05933512,0.10887527,0.09156245,0.13584264,0.21033987
56025,0,USWyomingNatrona,Wyoming,Natrona,2021-01-05 05:44:01.701624,2020-04-23 00:00:00.000000,0.05122016,0.09855907,0.18146009,40,78,144,23,46,86,0.02891812,0.05826687,0.10820712,0.09088737,0.13935630,0.20634911
56025,0,USWyomingNatrona,Wyoming,Natrona,2021-01-05 05:44:01.701624,2020-04-24 00:00:00.000000,0.04900444,0.09601852,0.17634572,39,76,140,22,45,85,0.02871274,0.05670449,0.10703132,0.08722046,0.13800793,0.20460055
56025,0,USWyomingNatrona,Wyoming,Natrona,2021-01-05 05:44:01.701624,2020-04-25 00:00:00.000000,0.04685321,0.09343635,0.17113410,37,74,136,22,43,84,0.02838429,0.05504593,0.10549505,0.08124587,0.13587276,0.20466841
56025,0,USWyomingNatrona,Wyoming,Natrona,2021-01-05 05:44:01.701624,2020-04-26 00:00:00.000000,0.04479349,0.08994140,0.16592649,35,71,132,22,42,82,0.02797777,0.05355254,0.10367015,0.07877847,0.13216073,0.20421906
56025,0,USWyomingNatrona,Wyoming,Natrona,2021-01-05 05:44:01.701624,2020-04-27 00:00:00.000000,0.04546193,0.08818934,0.16303160,36,70,130,21,42,81,0.02695194,0.05276601,0.10155812,0.07781081,0.13308183,0.20170896
56025,0,USWyomingNatrona,Wyoming,Natrona,2021-01-05 05:44:01.701624,2020-04-28 00:00:00.000000,0.04624405,0.08753242,0.16022435,36,69,127,20,41,79,0.02550339,0.05221898,0.09968986,0.07695695,0.13240087,0.20013612
56025,0,USWyomingNatrona,Wyoming,Natrona,2021-01-05 05:44:01.701624,2020-04-29 00:00:00.000000,0.04713166,0.08711389,0.15757056,37,69,125,19,41,78,0.02401910,0.05140163,0.09821598,0.07598760,0.13062514,0.19110981
56025,0,USWyomingNatrona,Wyoming,Natrona,2021-01-05 05:44:01.701624,2020-04-30 00:00:00.000000,0.04678384,0.08795702,0.15656804,37,70,125,18,40,77,0.02277459,0.05031474,0.09695809,0.07591122,0.12973873,0.19203058
56025,0,USWyomingNatrona,Wyoming,Natrona,2021-01-05 05:44:01.701624,2020-05-01 00:00:00.000000,0.04504517,0.08923021,0.15821102,35,71,126,17,39,76,0.02192629,0.04984418,0.09572514,0.07269745,0.12502223,0.19161480
56025,0,USWyomingNatrona,Wyoming,Natrona,2021-01-05 05:44:01.701624,2020-05-02 00:00:00.000000,0.04536372,0.08983189,0.15886103,36,71,126,17,39,75,0.02225773,0.04973897,0.09444981,0.06989034,0.12472167,0.19112491
56025,0,USWyomingNatrona,Wyoming,Natrona,2021-01-05 05:44:01.701624,2020-05-03 00:00:00.000000,0.04650663,0.09053171,0.15859570,37,72,126,18,39,74,0.02268983,0.04959728,0.09342807,0.06396771,0.12234704,0.19410528
56025,0,USWyomingNatrona,Wyoming,Natrona,2021-01-05 05:44:01.701624,2020-05-04 00:00:00.000000,0.04615247,0.09029692,0.15842346,36,72,126,18,39,74,0.02318268,0.04939754,0.09266714,0.06120435,0.12108165,0.18887990
56025,0,USWyomingNatrona,Wyoming,Natrona,2021-01-05 05:44:01.701624,2020-05-05 00:00:00.000000,0.04582695,0.09063894,0.15813349,36,72,126,18,39,73,0.02344219,0.04925270,0.09205291,0.06122376,0.12007496,0.19603205
56025,0,USWyomingNatrona,Wyoming,Natrona,2021-01-05 05:44:01.701624,2020-05-06 00:00:00.000000,0.04382816,0.08953908,0.15780559,35,71,126,18,38,73,0.02354809,0.04876777,0.09146506,0.06314358,0.11861556,0.20110065
56025,0,USWyomingNatrona,Wyoming,Natrona,2021-01-05 05:44:01.701624,2020-05-07 00:00:00.000000,0.04336837,0.08865311,0.15744867,34,70,125,18,39,72,0.02354986,0.04907677,0.09085847,0.06690572,0.11657779,0.20209264
56025,0,USWyomingNatrona,Wyoming,Natrona,2021-01-05 05:44:01.701624,2020-05-08 00:00:00.000000,0.04298621,0.08773550,0.15773213,34,70,125,18,39,72,0.02348230,0.04994035,0.09075775,0.06699333,0.11709397,0.19703645
56025,0,USWyomingNatrona,Wyoming,Natrona,2021-01-05 05:44:01.701624,2020-05-09 00:00:00.000000,0.04265703,0.08666698,0.16104930,34,69,128,18,39,71,0.02337145,0.04916248,0.08976468,0.06677916,0.11551921,0.18476949
56025,0,USWyomingNatrona,Wyoming,Natrona,2021-01-05 05:44:01.701624,2020-05-10 00:00:00.000000,0.04188482,0.08636561,0.16437758,33,68,131,18,38,71,0.02289885,0.04803880,0.08978669,0.06665233,0.11529590,0.18442846
56025,0,USWyomingNatrona,Wyoming,Natrona,2021-01-05 05:44:01.701624,2020-05-11 00:00:00.000000,0.04079186,0.08625819,0.16794493,32,68,134,17,37,72,0.02208100,0.04710246,0.09053617,0.06660461,0.11483638,0.18725119
56025,0,USWyomingNatrona,Wyoming,Natrona,2021-01-05 05:44:01.701624,2020-05-12 00:00:00.000000,0.03979688,0.08568086,0.17469016,31,68,139,17,37,72,0.02173467,0.04708573,0.09122347,0.06661546,0.11510824,0.19165910
56025,0,USWyomingNatrona,Wyoming,Natrona,2021-01-05 05:44:01.701624,2020-05-13 00:00:00.000000,0.03890400,0.08577146,0.18018754,31,68,143,16,38,75,0.02082553,0.04782169,0.09410727,0.06667906,0.11600879,0.19377385
56025,0,USWyomingNatrona,Wyoming,Natrona,2021-01-05 05:44:01.701624,2020-05-14 00:00:00.000000,0.03810020,0.08470746,0.18573892,30,67,148,16,38,77,0.02016446,0.04877014,0.09735841,0.06677554,0.11692759,0.18467914
56025,0,USWyomingNatrona,Wyoming,Natrona,2021-01-05 05:44:01.701624,2020-05-15 00:00:00.000000,0.03737579,0.08487276,0.19130655,29,67,152,15,38,80,0.01966294,0.04819587,0.10087624,0.06697059,0.11562136,0.18515582
56025,0,USWyomingNatrona,Wyoming,Natrona,2021-01-05 05:44:01.701624,2020-05-16 00:00:00.000000,0.03673482,0.08289886,0.19685539,29,66,157,15,37,83,0.01921588,0.04754162,0.10458758,0.06742192,0.11500177,0.18696370
56025,0,USWyomingNatrona,Wyoming,Natrona,2021-01-05 05:44:01.701624,2020-05-17 00:00:00.000000,0.03620439,0.08447713,0.20230185,28,67,161,15,38,86,0.01881804,0.04776289,0.10796361,0.06781273,0.11619187,0.18919503
56025,0,USWyomingNatrona,Wyoming,Natrona,2021-01-05 05:44:01.701624,2020-05-18 00:00:00.000000,0.03528997,0.08386195,0.20516958,28,66,163,14,38,88,0.01847101,0.04809301,0.11106623,0.06745528,0.11841886,0.18619897
56025,0,USWyomingNatrona,Wyoming,Natrona,2021-01-05 05:44:01.701624,2020-05-19 00:00:00.000000,0.03442534,0.08442197,0.20723262,27,67,165,14,38,90,0.01808890,0.04790594,0.11373245,0.06705816,0.11864314,0.18144451
56025,0,USWyomingNatrona,Wyoming,Natrona,2021-01-05 05:44:01.701624,2020-05-20 00:00:00.000000,0.03359935,0.08632911,0.20807034,26,68,166,14,38,92,0.01769141,0.04796557,0.11594352,0.06734796,0.11907334,0.17671333
56025,0,USWyomingNatrona,Wyoming,Natrona,2021-01-05 05:44:01.701624,2020-05-21 00:00:00.000000,0.03281816,0.09035023,0.20780953,26,72,165,13,37,93,0.01729200,0.04717927,0.11762030,0.06812818,0.12169179,0.18004350
56025,0,USWyomingNatrona,Wyoming,Natrona,2021-01-05 05:44:01.701624,2020-05-22 00:00:00.000000,0.03208625,0.08987260,0.20647961,25,71,164,13,39,94,0.01689990,0.04898182,0.11872926,0.06866249,0.11836004,0.18439667
56025,0,USWyomingNatrona,Wyoming,Natrona,2021-01-05 05:44:01.701624,2020-05-23 00:00:00.000000,0.03140860,0.08810573,0.20398144,25,70,162,13,40,95,0.01652154,0.05078697,0.11925316,0.06956427,0.11781240,0.18735326
56025,0,USWyomingNatrona,Wyoming,Natrona,2021-01-05 05:44:01.701624,2020-05-24 00:00:00.000000,0.03079413,0.08897692,0.20075986,24,71,160,13,40,95,0.01639259,0.05079903,0.11916269,0.07110753,0.11651598,0.20376641
56025,0,USWyomingNatrona,Wyoming,Natrona,2021-01-05 05:44:01.701624,2020-05-25 00:00:00.000000,0.03127568,0.09044344,0.19792404,24,72,158,13,40,94,0.01640357,0.05058532,0.11860160,0.07431234,0.11760150,0.22315658
56025,0,USWyomingNatrona,Wyoming,Natrona,2021-01-05 05:44:01.701624,2020-05-26 00:00:00.000000,0.03185646,0.09049413,0.19501688,25,72,155,12,40,95,0.01618248,0.05088269,0.11939192,0.07470705,0.11979975,0.23034275
56025,0,USWyomingNatrona,Wyoming,Natrona,2021-01-05 05:44:01.701624,2020-05-27 00:00:00.000000,0.03255594,0.09052749,0.19213124,25,72,153,12,40,95,0.01581816,0.05118976,0.11972569,0.07437979,0.12078897,0.23180875
56025,0,USWyomingNatrona,Wyoming,Natrona,2021-01-05 05:44:01.701624,2020-05-28 00:00:00.000000,0.03284149,0.09117663,0.18931253,26,72,151,12,41,95,0.01588341,0.05159209,0.11974428,0.07436919,0.11969054,0.23162493
56025,0,USWyomingNatrona,Wyoming,Natrona,2021-01-05 05:44:01.701624,2020-05-29 00:00:00.000000,0.03240901,0.09119649,0.18660111,25,72,149,12,41,95,0.01612403,0.05189308,0.11954788,0.07510260,0.12119244,0.23011289
56025,0,USWyomingNatrona,Wyoming,Natrona,2021-01-05 05:44:01.701624,2020-05-30 00:00:00.000000,0.03199315,0.09003976,0.18404078,25,71,146,13,41,95,0.01643443,0.05223499,0.11920739,0.07680470,0.12221639,0.22583401
56025,0,USWyomingNatrona,Wyoming,Natrona,2021-01-05 05:44:01.701624,2020-05-31 00:00:00.000000,0.03161158,0.08787997,0.18459678,25,70,147,13,41,94,0.01679869,0.05204566,0.11855117,0.07944915,0.12417821,0.22147525
56025,0,USWyomingNatrona,Wyoming,Natrona,2021-01-05 05:44:01.701624,2020-06-01 00:00:00.000000,0.03143939,0.08653665,0.18401444,25,69,146,13,40,93,0.01720229,0.05095903,0.11649050,0.07812738,0.12529320,0.21951438
56025,0,USWyomingNatrona,Wyoming,Natrona,2021-01-05 05:44:01.701624,2020-06-02 00:00:00.000000,0.03128403,0.08730517,0.18609268,24,69,148,14,40,91,0.01776508,0.05032180,0.11492703,0.07573968,0.12930862,0.21871836
56025,0,USWyomingNatrona,Wyoming,Natrona,2021-01-05 05:44:01.701624,2020-06-03 00:00:00.000000,0.03113761,0.08855485,0.18866125,24,70,150,14,40,90,0.01842883,0.05035632,0.11376149,0.07403792,0.12962169,0.21784292
56025,0,USWyomingNatrona,Wyoming,Natrona,2021-01-05 05:44:01.701624,2020-06-04 00:00:00.000000,0.03272104,0.09006430,0.19130333,26,71,152,15,40,89,0.01883191,0.05071754,0.11225253,0.07439050,0.12953993,0.21545792
56025,0,USWyomingNatrona,Wyoming,Natrona,2021-01-05 05:44:01.701624,2020-06-05 00:00:00.000000,0.03462288,0.09026078,0.19288126,27,72,154,14,40,87,0.01867784,0.05069695,0.11014765,0.07743795,0.13072463,0.22719196
56025,0,USWyomingNatrona,Wyoming,Natrona,2021-01-05 05:44:01.701624,2020-06-06 00:00:00.000000,0.03426926,0.09132835,0.19260797,27,72,153,14,40,88,0.01851905,0.05058661,0.11077070,0.08122931,0.13628347,0.23009928
56025,0,USWyomingNatrona,Wyoming,Natrona,2021-01-05 05:44:01.701624,2020-06-07 00:00:00.000000,0.03394534,0.09226387,0.19204442,27,73,153,14,40,89,0.01798017,0.05040418,0.11166027,0.08349071,0.14681425,0.22355462
56025,0,USWyomingNatrona,Wyoming,Natrona,2021-01-05 05:44:01.701624,2020-06-08 00:00:00.000000,0.03386834,0.09262675,0.18807383,27,73,150,13,40,88,0.01744591,0.05053165,0.11135910,0.08399672,0.14523722,0.22627821
56025,0,USWyomingNatrona,Wyoming,Natrona,2021-01-05 05:44:01.701624,2020-06-09 00:00:00.000000,0.03404115,0.09323561,0.18409003,27,74,147,14,40,88,0.01771939,0.05071355,0.11046626,0.08384207,0.14498046,0.23723827
56025,0,USWyomingNatrona,Wyoming,Natrona,2021-01-05 05:44:01.701624,2020-06-10 00:00:00.000000,0.03613161,0.09361747,0.18190351,28,74,145,15,40,87,0.01888372,0.05111360,0.10914541,0.08391875,0.14612653,0.23411210
56025,0,USWyomingNatrona,Wyoming,Natrona,2021-01-05 05:44:01.701624,2020-06-11 00:00:00.000000,0.03828812,0.09446335,0.18665539,30,75,149,16,41,85,0.02003610,0.05169391,0.10752434,0.08401055,0.14723270,0.23098421
56025,0,USWyomingNatrona,Wyoming,Natrona,2021-01-05 05:44:01.701624,2020-06-12 00:00:00.000000,0.04048157,0.09580033,0.18413646,32,76,147,16,41,84,0.02105198,0.05241860,0.10570018,0.08449046,0.14639777,0.23791238
56025,0,USWyomingNatrona,Wyoming,Natrona,2021-01-05 05:44:01.701624,2020-06-13 00:00:00.000000,0.04050724,0.09866603,0.18220681,32,78,145,17,42,82,0.02218495,0.05261493,0.10374630,0.08503227,0.14599874,0.24084442
56025,0,USWyomingNatrona,Wyoming,Natrona,2021-01-05 05:44:01.701624,2020-06-14 00:00:00.000000,0.04001618,0.10110704,0.18069465,31,80,144,18,42,81,0.02339368,0.05264043,0.10171898,0.08829324,0.14346775,0.24182364
56025,0,USWyomingNatrona,Wyoming,Natrona,2021-01-05 05:44:01.701624,2020-06-15 00:00:00.000000,0.04904363,0.10206373,0.17686334,39,81,141,18,43,79,0.02305817,0.05428032,0.09983220,0.09262400,0.14545293,0.24213248
56025,0,USWyomingNatrona,Wyoming,Natrona,2021-01-05 05:44:01.701624,2020-06-16 00:00:00.000000,0.05313988,0.10174015,0.17311283,42,81,138,19,44,80,0.02499890,0.05539659,0.10135098,0.09989453,0.14684262,0.24227114
56025,0,USWyomingNatrona,Wyoming,Natrona,2021-01-05 05:44:01.701624,2020-06-17 00:00:00.000000,0.05630773,0.10281514,0.17264734,44,82,137,21,45,81,0.02662925,0.05693091,0.10226227,0.10185509,0.14912134,0.24478965
56025,0,USWyomingNatrona,Wyoming,Natrona,2021-01-05 05:44:01.701624,2020-06-18 00:00:00.000000,0.05652933,0.10449495,0.17527791,45,83,139,21,45,81,0.02748657,0.05719686,0.10229383,0.10342531,0.15300560,0.26166814
56025,0,USWyomingNatrona,Wyoming,Natrona,2021-01-05 05:44:01.701624,2020-06-19 00:00:00.000000,0.05574925,0.10632572,0.18146496,44,84,144,22,45,80,0.02832454,0.05707320,0.10097852,0.10306220,0.15318413,0.27562778
56025,0,USWyomingNatrona,Wyoming,Natrona,2021-01-05 05:44:01.701624,2020-06-20 00:00:00.000000,0.05515672,0.10794860,0.18683189,44,86,149,23,46,80,0.02912617,0.05761656,0.10129157,0.10075194,0.15196477,0.28325127
56025,0,USWyomingNatrona,Wyoming,Natrona,2021-01-05 05:44:01.701624,2020-06-21 00:00:00.000000,0.05469240,0.10889021,0.19119721,43,86,152,22,46,81,0.02859625,0.05822127,0.10241955,0.09996488,0.15166658,0.28542079
56025,0,USWyomingNatrona,Wyoming,Natrona,2021-01-05 05:44:01.701624,2020-06-22 00:00:00.000000,0.05806513,0.11312157,0.19185653,46,90,153,22,46,83,0.02814292,0.05822162,0.10455270,0.09780239,0.15004130,0.28601350
56025,0,USWyomingNatrona,Wyoming,Natrona,2021-01-05 05:44:01.701624,2020-06-23 00:00:00.000000,0.06046321,0.11682051,0.19548643,48,93,156,22,46,85,0.02813120,0.05882924,0.10662808,0.09970418,0.15028667,0.28615150
56025,0,USWyomingNatrona,Wyoming,Natrona,2021-01-05 05:44:01.701624,2020-06-24 00:00:00.000000,0.06152795,0.12045532,0.20068075,49,96,160,23,48,86,0.02988488,0.06059544,0.10797274,0.09969458,0.15215082,0.28613050
56025,0,USWyomingNatrona,Wyoming,Natrona,2021-01-05 05:44:01.701624,2020-06-25 00:00:00.000000,0.06270303,0.12248069,0.20467574,50,97,163,24,50,87,0.03031776,0.06309587,0.10894704,0.09970302,0.15385058,0.28644108
56025,0,USWyomingNatrona,Wyoming,Natrona,2021-01-05 05:44:01.701624,2020-06-26 00:00:00.000000,0.06411397,0.12668500,0.20667721,51,101,165,24,52,88,0.03063526,0.06604935,0.11140541,0.10026932,0.16002894,0.28651512
56025,0,USWyomingNatrona,Wyoming,Natrona,2021-01-05 05:44:01.701624,2020-06-27 00:00:00.000000,0.06583735,0.12817874,0.21046097,52,102,168,24,54,90,0.03106584,0.06825148,0.11372043,0.10759114,0.16736001,0.28547629
56025,0,USWyomingNatrona,Wyoming,Natrona,2021-01-05 05:44:01.701624,2020-06-28 00:00:00.000000,0.06823627,0.13276235,0.21517295,54,106,171,26,56,92,0.03294009,0.07033657,0.11594016,0.11131442,0.16779621,0.28211550
56025,0,USWyomingNatrona,Wyoming,Natrona,2021-01-05 05:44:01.701624,2020-06-29 00:00:00.000000,0.06973563,0.13327167,0.21258030,55,106,169,28,57,94,0.03572303,0.07202406,0.11809544,0.11251689,0.17058253,0.27522046
56025,0,USWyomingNatrona,Wyoming,Natrona,2021-01-05 05:44:01.701624,2020-06-30 00:00:00.000000,0.07104535,0.13452391,0.21141198,56,107,168,30,58,96,0.03777566,0.07354636,0.12029993,0.11367665,0.17499562,0.27349308
56025,0,USWyomingNatrona,Wyoming,Natrona,2021-01-05 05:44:01.701624,2020-07-01 00:00:00.000000,0.07217107,0.13862287,0.21540079,57,110,172,31,60,97,0.03932375,0.07574718,0.12254077,0.11420401,0.18315598,0.27303414
56025,0,USWyomingNatrona,Wyoming,Natrona,2021-01-05 05:44:01.701624,2020-07-02 00:00:00.000000,0.07315464,0.14069990,0.22397864,58,112,178,32,61,97,0.04014059,0.07728435,0.12244507,0.11511569,0.18445465,0.27457142
56025,0,USWyomingNatrona,Wyoming,Natrona,2021-01-05 05:44:01.701624,2020-07-03 00:00:00.000000,0.07407651,0.13981291,0.23570645,59,111,188,31,62,97,0.03984060,0.07782604,0.12201466,0.11757225,0.18538008,0.27587395
56025,0,USWyomingNatrona,Wyoming,Natrona,2021-01-05 05:44:01.701624,2020-07-04 00:00:00.000000,0.07507218,0.14168575,0.24748004,59,113,197,31,63,97,0.03991165,0.07911399,0.12150080,0.11937750,0.18350685,0.27673460
56025,0,USWyomingNatrona,Wyoming,Natrona,2021-01-05 05:44:01.701624,2020-07-05 00:00:00.000000,0.07613625,0.14511230,0.25940095,60,115,207,31,63,98,0.03945196,0.07942877,0.12285803,0.11807906,0.18370816,0.27886133
56025,0,USWyomingNatrona,Wyoming,Natrona,2021-01-05 05:44:01.701624,2020-07-06 00:00:00.000000,0.08314488,0.14590413,0.26602340,66,116,212,31,63,103,0.03894347,0.07976169,0.12964361,0.11798324,0.18385784,0.28381718
56025,0,USWyomingNatrona,Wyoming,Natrona,2021-01-05 05:44:01.701624,2020-07-07 00:00:00.000000,0.08700019,0.14674010,0.27349849,69,117,218,31,64,107,0.03945587,0.08067441,0.13506280,0.12046721,0.18512595,0.29279676
56025,0,USWyomingNatrona,Wyoming,Natrona,2021-01-05 05:44:01.701624,2020-07-08 00:00:00.000000,0.08692922,0.14707341,0.27906377,69,117,222,32,65,109,0.04060059,0.08188018,0.13723541,0.11939160,0.18359281,0.30296577
56025,0,USWyomingNatrona,Wyoming,Natrona,2021-01-05 05:44:01.701624,2020-07-09 00:00:00.000000,0.08692934,0.14751707,0.28368317,69,117,226,33,65,110,0.04212188,0.08212783,0.13821461,0.11773065,0.18593112,0.30836299
56025,0,USWyomingNatrona,Wyoming,Natrona,2021-01-05 05:44:01.701624,2020-07-10 00:00:00.000000,0.08692603,0.14902114,0.28844193,69,119,230,35,65,111,0.04386616,0.08157308,0.13906724,0.11798716,0.18756713,0.30734055
56025,0,USWyomingNatrona,Wyoming,Natrona,2021-01-05 05:44:01.701624,2020-07-11 00:00:00.000000,0.08924414,0.15327654,0.29308517,71,122,234,36,65,111,0.04573127,0.08170054,0.13986162,0.11910530,0.19195833,0.30581893
56025,0,USWyomingNatrona,Wyoming,Natrona,2021-01-05 05:44:01.701624,2020-07-12 00:00:00.000000,0.09296461,0.15606256,0.29621731,74,124,236,38,66,112,0.04765018,0.08299500,0.14060927,0.12224763,0.19866492,0.30464340
56025,0,USWyomingNatrona,Wyoming,Natrona,2021-01-05 05:44:01.701624,2020-07-13 00:00:00.000000,0.09283569,0.15866454,0.30745114,74,126,245,39,67,112,0.04959476,0.08510034,0.14131850,0.12716657,0.20387962,0.30509608
56025,0,USWyomingNatrona,Wyoming,Natrona,2021-01-05 05:44:01.701624,2020-07-14 00:00:00.000000,0.09139624,0.15990006,0.31883698,72,127,254,40,69,113,0.05118584,0.08647344,0.14249038,0.13131960,0.20567117,0.30464975
56025,0,USWyomingNatrona,Wyoming,Natrona,2021-01-05 05:44:01.701624,2020-07-15 00:00:00.000000,0.09443689,0.16267970,0.32499087,75,129,259,40,69,115,0.05047482,0.08736712,0.14400915,0.13312108,0.20483027,0.30241968
56025,0,USWyomingNatrona,Wyoming,Natrona,2021-01-05 05:44:01.701624,2020-07-16 00:00:00.000000,0.09873815,0.16542410,0.32641719,78,132,260,39,70,116,0.04973296,0.08848459,0.14580650,0.13282444,0.20985868,0.30742617
56025,0,USWyomingNatrona,Wyoming,Natrona,2021-01-05 05:44:01.701624,2020-07-17 00:00:00.000000,0.10080282,0.16882847,0.32807078,80,134,261,39,71,118,0.04898505,0.08956394,0.14785442,0.13421960,0.21621076,0.30799145
56025,0,USWyomingNatrona,Wyoming,Natrona,2021-01-05 05:44:01.701624,2020-07-18 00:00:00.000000,0.10304017,0.17178555,0.32972492,82,137,263,38,72,119,0.04824917,0.09057535,0.15015662,0.13759604,0.21814810,0.30230276
56025,0,USWyomingNatrona,Wyoming,Natrona,2021-01-05 05:44:01.701624,2020-07-19 00:00:00.000000,0.10539971,0.17326709,0.33154259,84,138,264,40,73,121,0.05043566,0.09153362,0.15271992,0.14390610,0.22263990,0.31955051
56025,0,USWyomingNatrona,Wyoming,Natrona,2021-01-05 05:44:01.701624,2020-07-20 00:00:00.000000,0.11013197,0.17741631,0.33499218,87,141,267,42,74,124,0.05337889,0.09280392,0.15552979,0.14719012,0.22422609,0.33182239
56025,0,USWyomingNatrona,Wyoming,Natrona,2021-01-05 05:44:01.701624,2020-07-21 00:00:00.000000,0.11496572,0.17957202,0.33868752,91,143,270,45,75,127,0.05649466,0.09479164,0.15978051,0.14575569,0.22638129,0.33167217
56025,0,USWyomingNatrona,Wyoming,Natrona,2021-01-05 05:44:01.701624,2020-07-22 00:00:00.000000,0.11999654,0.18134189,0.34274063,95,144,273,47,77,132,0.05981336,0.09654474,0.16534878,0.14543668,0.22744448,0.33117305
56025,0,USWyomingNatrona,Wyoming,Natrona,2021-01-05 05:44:01.701624,2020-07-23 00:00:00.000000,0.12314618,0.18631616,0.34737030,98,148,277,50,79,136,0.06336084,0.10008063,0.17089673,0.14552484,0.23079830,0.33014639
56025,0,USWyomingNatrona,Wyoming,Natrona,2021-01-05 05:44:01.701624,2020-07-24 00:00:00.000000,0.12397876,0.18990953,0.35298906,99,151,281,51,82,139,0.06511434,0.10343962,0.17510016,0.14597827,0.23253969,0.32430987
56025,0,USWyomingNatrona,Wyoming,Natrona,2021-01-05 05:44:01.701624,2020-07-25 00:00:00.000000,0.12486725,0.19611880,0.35998736,99,156,287,52,83,144,0.06584312,0.10479974,0.18103459,0.14732033,0.23540714,0.32766730
56025,0,USWyomingNatrona,Wyoming,Natrona,2021-01-05 05:44:01.701624,2020-07-26 00:00:00.000000,0.12578639,0.20145184,0.36828588,100,160,294,53,86,149,0.06656304,0.10771257,0.18732361,0.15090256,0.24105407,0.33997598
56025,0,USWyomingNatrona,Wyoming,Natrona,2021-01-05 05:44:01.701624,2020-07-27 00:00:00.000000,0.12728568,0.20630479,0.37609231,101,164,300,53,88,155,0.06730926,0.11096074,0.19423196,0.15748415,0.25360983,0.34585352
56025,0,USWyomingNatrona,Wyoming,Natrona,2021-01-05 05:44:01.701624,2020-07-28 00:00:00.000000,0.12879343,0.21179111,0.38444086,102,169,307,54,89,160,0.06789974,0.11261347,0.20118040,0.16414290,0.25891038,0.37177840
56025,0,USWyomingNatrona,Wyoming,Natrona,2021-01-05 05:44:01.701624,2020-07-29 00:00:00.000000,0.13032267,0.21704892,0.39318312,104,173,313,54,91,166,0.06845998,0.11435609,0.20796433,0.16823379,0.26044630,0.39523998
56025,0,USWyomingNatrona,Wyoming,Natrona,2021-01-05 05:44:01.701624,2020-07-30 00:00:00.000000,0.13193939,0.22461195,0.40244485,105,179,321,55,92,171,0.06902332,0.11618371,0.21471658,0.17213728,0.27374196,0.40305884
56025,0,USWyomingNatrona,Wyoming,Natrona,2021-01-05 05:44:01.701624,2020-07-31 00:00:00.000000,0.13370503,0.23272398,0.41591258,106,185,332,55,95,177,0.06959714,0.11970264,0.22174738,0.17585430,0.28000371,0.40551506
56025,0,USWyomingNatrona,Wyoming,Natrona,2021-01-05 05:44:01.701624,2020-08-01 00:00:00.000000,0.13564352,0.24459534,0.43406407,108,195,346,56,97,183,0.07018838,0.12270108,0.22965939,0.18305923,0.27946118,0.41188141
56025,0,USWyomingNatrona,Wyoming,Natrona,2021-01-05 05:44:01.701624,2020-08-02 00:00:00.000000,0.13797279,0.25133294,0.45280373,110,200,361,56,99,190,0.07081290,0.12516787,0.23842688,0.18995523,0.28184998,0.41153975
56025,0,USWyomingNatrona,Wyoming,Natrona,2021-01-05 05:44:01.701624,2020-08-03 00:00:00.000000,0.13925120,0.25532705,0.47807449,111,203,381,57,102,197,0.07150413,0.12848365,0.24760306,0.19330128,0.28445480,0.41129588
56025,0,USWyomingNatrona,Wyoming,Natrona,2021-01-05 05:44:01.701624,2020-08-04 00:00:00.000000,0.14085189,0.26217366,0.51218951,112,209,409,57,105,206,0.07255957,0.13183827,0.25813413,0.19627636,0.29482249,0.41779587
56025,0,USWyomingNatrona,Wyoming,Natrona,2021-01-05 05:44:01.701624,2020-08-05 00:00:00.000000,0.14628885,0.27341587,0.55307749,116,218,441,59,108,214,0.07397462,0.13549755,0.26910691,0.20232708,0.30513346,0.43869497
56025,0,USWyomingNatrona,Wyoming,Natrona,2021-01-05 05:44:01.701624,2020-08-06 00:00:00.000000,0.15209981,0.28813529,0.59752568,121,230,477,60,113,224,0.07577811,0.14159713,0.28063195,0.20610134,0.31840936,0.45608915
56025,0,USWyomingNatrona,Wyoming,Natrona,2021-01-05 05:44:01.701624,2020-08-07 00:00:00.000000,0.15817637,0.30135727,0.62865844,126,240,502,62,118,233,0.07803437,0.14860470,0.29272383,0.20746482,0.32608381,0.46709684
56025,0,USWyomingNatrona,Wyoming,Natrona,2021-01-05 05:44:01.701624,2020-08-08 00:00:00.000000,0.16457787,0.31708488,0.65187916,131,253,520,64,123,243,0.08085847,0.15453525,0.30533062,0.21749262,0.33565528,0.48481600
56025,0,USWyomingNatrona,Wyoming,Natrona,2021-01-05 05:44:01.701624,2020-08-09 00:00:00.000000,0.17203410,0.33515755,0.67689883,137,267,540,66,129,254,0.08333453,0.16245635,0.31838886,0.22470867,0.33695341,0.48778203
56025,0,USWyomingNatrona,Wyoming,Natrona,2021-01-05 05:44:01.701624,2020-08-10 00:00:00.000000,0.18474627,0.35044569,0.70260025,147,279,561,68,134,264,0.08616149,0.16836149,0.33183523,0.23382539,0.33953114,0.50061937
56025,0,USWyomingNatrona,Wyoming,Natrona,2021-01-05 05:44:01.701624,2020-08-11 00:00:00.000000,0.19819867,0.36930417,0.72977107,158,294,582,73,140,275,0.09224276,0.17649482,0.34552747,0.23963569,0.35292074,0.51248485
56025,0,USWyomingNatrona,Wyoming,Natrona,2021-01-05 05:44:01.701624,2020-08-12 00:00:00.000000,0.21314990,0.39131661,0.75816378,170,312,605,78,148,287,0.09885316,0.18627822,0.35948497,0.24130673,0.35725389,0.54122782
56025,0,USWyomingNatrona,Wyoming,Natrona,2021-01-05 05:44:01.701624,2020-08-13 00:00:00.000000,0.23297705,0.41274229,0.78765768,186,329,629,84,157,298,0.10611182,0.19716675,0.37374535,0.24410383,0.35761492,0.56037057
56025,0,USWyomingNatrona,Wyoming,Natrona,2021-01-05 05:44:01.701624,2020-08-14 00:00:00.000000,0.24238419,0.43559354,0.81810864,193,347,653,91,166,310,0.11409965,0.20888369,0.38835293,0.24749464,0.36923276,0.58398901
56025,0,USWyomingNatrona,Wyoming,Natrona,2021-01-05 05:44:01.701624,2020-08-15 00:00:00.000000,0.25502707,0.45783592,0.84863930,203,365,677,98,175,322,0.12276812,0.22030662,0.40335116,0.25312892,0.37944632,0.59155806
56025,0,USWyomingNatrona,Wyoming,Natrona,2021-01-05 05:44:01.701624,2020-08-16 00:00:00.000000,0.26952583,0.47969109,0.87884931,215,383,701,105,185,334,0.13270912,0.23245146,0.41877954,0.25890249,0.37962391,0.59182777
56025,0,USWyomingNatrona,Wyoming,Natrona,2021-01-05 05:44:01.701624,2020-08-17 00:00:00.000000,0.28512487,0.50753497,0.91042949,227,405,727,114,195,351,0.14363800,0.24447141,0.44062538,0.26612710,0.37861026,0.59561754
56025,0,USWyomingNatrona,Wyoming,Natrona,2021-01-05 05:44:01.701624,2020-08-18 00:00:00.000000,0.30423737,0.53933758,0.95710776,242,430,764,120,203,372,0.15098796,0.25484345,0.46604903,0.27092154,0.38078320,0.59171258
56025,0,USWyomingNatrona,Wyoming,Natrona,2021-01-05 05:44:01.701624,2020-08-19 00:00:00.000000,0.33023423,0.56759236,1.00648047,263,453,803,127,211,390,0.15913244,0.26543912,0.48848988,0.28744545,0.38493463,0.59145689
56025,0,USWyomingNatrona,Wyoming,Natrona,2021-01-05 05:44:01.701624,2020-08-20 00:00:00.000000,0.35198354,0.59219712,1.05858930,281,472,845,134,222,401,0.16792685,0.27838614,0.50330743,0.29242292,0.38514513,0.59095429
56025,0,USWyomingNatrona,Wyoming,Natrona,2021-01-05 05:44:01.701624,2020-08-21 00:00:00.000000,0.36545098,0.61886569,1.11316482,291,494,888,141,237,413,0.17730194,0.29731160,0.51820510,0.28803456,0.38322793,0.59020902
56025,0,USWyomingNatrona,Wyoming,Natrona,2021-01-05 05:44:01.701624,2020-08-22 00:00:00.000000,0.37990335,0.64946630,1.17016315,303,518,934,149,252,426,0.18724323,0.31631263,0.53363516,0.29150115,0.38793553,0.59605122
56025,0,USWyomingNatrona,Wyoming,Natrona,2021-01-05 05:44:01.701624,2020-08-23 00:00:00.000000,0.39854224,0.68368291,1.22946569,318,545,981,158,266,442,0.19785610,0.33313238,0.55471450,0.30149832,0.39957793,0.60476107
56025,0,USWyomingNatrona,Wyoming,Natrona,2021-01-05 05:44:01.701624,2020-08-24 00:00:00.000000,0.42487873,0.71524508,1.29352839,339,571,1032,167,280,465,0.20955364,0.35143004,0.58336108,0.30779133,0.40370142,0.60429063
56025,0,USWyomingNatrona,Wyoming,Natrona,2021-01-05 05:44:01.701624,2020-08-25 00:00:00.000000,0.45283795,0.74825584,1.35917245,361,597,1085,175,292,490,0.21967647,0.36593666,0.61363318,0.30539207,0.40652065,0.58934072
56025,0,USWyomingNatrona,Wyoming,Natrona,2021-01-05 05:44:01.701624,2020-08-26 00:00:00.000000,0.48251816,0.78501369,1.42594852,385,626,1138,185,305,516,0.23289041,0.38285604,0.64632138,0.29965318,0.41122932,0.57771148
56025,0,USWyomingNatrona,Wyoming,Natrona,2021-01-05 05:44:01.701624,2020-08-27 00:00:00.000000,0.51417553,0.83365688,1.49303699,410,665,1192,200,321,544,0.25082753,0.40313011,0.68235090,0.29205277,0.40811553,0.56545970
56025,0,USWyomingNatrona,Wyoming,Natrona,2021-01-05 05:44:01.701624,2020-08-28 00:00:00.000000,0.54826723,0.87973882,1.55917184,437,702,1245,214,337,575,0.26856102,0.42295046,0.72051622,0.28675876,0.40008766,0.56654947
56025,0,USWyomingNatrona,Wyoming,Natrona,2021-01-05 05:44:01.701624,2020-08-29 00:00:00.000000,0.58556780,0.92291535,1.62315697,467,737,1296,228,356,607,0.28638027,0.44608022,0.76060881,0.28407196,0.39030365,0.56532962
56025,0,USWyomingNatrona,Wyoming,Natrona,2021-01-05 05:44:01.701624,2020-08-30 00:00:00.000000,0.62649832,0.98232574,1.68509796,500,784,1345,244,377,640,0.30597842,0.47288459,0.80227498,0.27110686,0.38679237,0.56031064
56025,0,USWyomingNatrona,Wyoming,Natrona,2021-01-05 05:44:01.701624,2020-08-31 00:00:00.000000,0.66155264,1.04063850,1.77142810,528,831,1414,260,397,675,0.32643884,0.49727821,0.84537882,0.26173011,0.38193195,0.55956436
56025,0,USWyomingNatrona,Wyoming,Natrona,2021-01-05 05:44:01.701624,2020-09-01 00:00:00.000000,0.68498486,1.09170618,1.83682648,547,871,1466,278,416,711,0.34874728,0.52194657,0.89033296,0.25813609,0.37763202,0.56017248
56025,0,USWyomingNatrona,Wyoming,Natrona,2021-01-05 05:44:01.701624,2020-09-02 00:00:00.000000,0.71440569,1.13831014,1.85102723,570,909,1478,293,436,748,0.36734726,0.54672713,0.93718387,0.25634455,0.37145730,0.55690506
56025,0,USWyomingNatrona,Wyoming,Natrona,2021-01-05 05:44:01.701624,2020-09-03 00:00:00.000000,0.75598283,1.17599500,1.90751856,603,939,1523,303,459,787,0.38059411,0.57554434,0.98597420,0.25683919,0.36877765,0.54801675
56025,0,USWyomingNatrona,Wyoming,Natrona,2021-01-05 05:44:01.701624,2020-09-04 00:00:00.000000,0.80010226,1.20944921,1.97122797,638,965,1574,315,483,827,0.39454799,0.60521955,1.03665501,0.24945755,0.36169456,0.52913940
56025,0,USWyomingNatrona,Wyoming,Natrona,2021-01-05 05:44:01.701624,2020-09-05 00:00:00.000000,0.84566700,1.25561347,2.05642789,675,1002,1642,327,512,869,0.40953680,0.64135203,1.08888436,0.22560825,0.35762545,0.50989713
56025,0,USWyomingNatrona,Wyoming,Natrona,2021-01-05 05:44:01.701624,2020-09-06 00:00:00.000000,0.89412137,1.31215659,2.14029439,714,1047,1709,343,532,906,0.43055108,0.66730814,1.13564672,0.22055150,0.35636965,0.49302425
56025,0,USWyomingNatrona,Wyoming,Natrona,2021-01-05 05:44:01.701624,2020-09-07 00:00:00.000000,0.94351296,1.36275943,2.22387692,753,1088,1775,366,555,922,0.45871957,0.69544755,1.15523664,0.21987384,0.34957668,0.48143333
56025,0,USWyomingNatrona,Wyoming,Natrona,2021-01-05 05:44:01.701624,2020-09-08 00:00:00.000000,0.98584005,1.40996188,2.30690544,787,1125,1842,388,578,935,0.48678618,0.72481521,1.17195140,0.22032923,0.34867680,0.47700618
56025,0,USWyomingNatrona,Wyoming,Natrona,2021-01-05 05:44:01.701624,2020-09-09 00:00:00.000000,1.02608119,1.47041291,2.39081803,819,1174,1909,409,599,940,0.51332645,0.75058402,1.17819679,0.22175467,0.34347376,0.47691326
56025,0,USWyomingNatrona,Wyoming,Natrona,2021-01-05 05:44:01.701624,2020-09-10 00:00:00.000000,1.03607880,1.51842249,2.47555693,827,1212,1976,423,618,946,0.52998778,0.77403951,1.18505783,0.22177152,0.33628635,0.47648546
56025,0,USWyomingNatrona,Wyoming,Natrona,2021-01-05 05:44:01.701624,2020-09-11 00:00:00.000000,1.05182904,1.55375370,2.56163743,839,1240,2045,434,637,971,0.54451899,0.79785269,1.21629384,0.23095734,0.33715350,0.47619645
56025,0,USWyomingNatrona,Wyoming,Natrona,2021-01-05 05:44:01.701624,2020-09-12 00:00:00.000000,1.08428439,1.60256628,2.64904112,865,1279,2115,446,657,999,0.55869326,0.82277257,1.25111691,0.24322438,0.33643750,0.46747791
56025,0,USWyomingNatrona,Wyoming,Natrona,2021-01-05 05:44:01.701624,2020-09-13 00:00:00.000000,1.13380959,1.65800515,2.73699375,905,1324,2185,457,685,1035,0.57267992,0.85829531,1.29687086,0.23418070,0.33673477,0.45787802
56025,0,USWyomingNatrona,Wyoming,Natrona,2021-01-05 05:44:01.701624,2020-09-14 00:00:00.000000,1.19245925,1.71709621,2.82621067,952,1371,2256,468,712,1072,0.58661111,0.89228419,1.34317501,0.23743982,0.32565447,0.45743509
56025,0,USWyomingNatrona,Wyoming,Natrona,2021-01-05 05:44:01.701624,2020-09-15 00:00:00.000000,1.25240907,1.77808161,2.91169759,1000,1419,2325,482,736,1109,0.60428416,0.92247337,1.38926179,0.24270903,0.32487295,0.45709205
56025,0,USWyomingNatrona,Wyoming,Natrona,2021-01-05 05:44:01.701624,2020-09-16 00:00:00.000000,1.28022925,1.83301564,2.99067683,1022,1463,2388,501,756,1145,0.62799839,0.94739074,1.43450262,0.25009147,0.31882870,0.45669930
56025,0,USWyomingNatrona,Wyoming,Natrona,2021-01-05 05:44:01.701624,2020-09-17 00:00:00.000000,1.30750302,1.88631519,3.05946984,1044,1506,2443,521,779,1180,0.65270908,0.97643156,1.47849602,0.24582480,0.31664913,0.45618828
56025,0,USWyomingNatrona,Wyoming,Natrona,2021-01-05 05:44:01.701624,2020-09-18 00:00:00.000000,1.33896877,1.94001698,3.10668440,1069,1549,2480,541,803,1214,0.67856210,1.00676999,1.52113853,0.24177166,0.31795535,0.45566184
56025,0,USWyomingNatrona,Wyoming,Natrona,2021-01-05 05:44:01.701624,2020-09-19 00:00:00.000000,1.37342676,1.99707528,3.16836822,1096,1594,2530,566,828,1247,0.70954072,1.03740247,1.56246023,0.23184275,0.32023568,0.45538353
56025,0,USWyomingNatrona,Wyoming,Natrona,2021-01-05 05:44:01.701624,2020-09-20 00:00:00.000000,1.41158170,2.04944950,3.23412582,1127,1636,2582,592,848,1280,0.74241920,1.06293312,1.60334553,0.22732562,0.32174315,0.45622471
56025,0,USWyomingNatrona,Wyoming,Natrona,2021-01-05 05:44:01.701624,2020-09-21 00:00:00.000000,1.44458502,2.10576638,3.30210791,1153,1681,2636,611,880,1311,0.76570095,1.10223687,1.64270998,0.22403079,0.32224754,0.45890061
56025,0,USWyomingNatrona,Wyoming,Natrona,2021-01-05 05:44:01.701624,2020-09-22 00:00:00.000000,1.48110536,2.16353790,3.37117061,1182,1727,2692,627,903,1343,0.78561954,1.13117197,1.68231713,0.21949603,0.32143066,0.46629736
56025,0,USWyomingNatrona,Wyoming,Natrona,2021-01-05 05:44:01.701624,2020-09-23 00:00:00.000000,1.52048498,2.23052711,3.44206086,1214,1781,2748,643,930,1375,0.80542056,1.16499419,1.72185550,0.21877326,0.32107142,0.47383108
56025,0,USWyomingNatrona,Wyoming,Natrona,2021-01-05 05:44:01.701624,2020-09-24 00:00:00.000000,1.58038688,2.30917819,3.48775985,1262,1844,2785,659,958,1406,0.82564607,1.20016106,1.76109901,0.21977231,0.32517055,0.48124953
56025,0,USWyomingNatrona,Wyoming,Natrona,2021-01-05 05:44:01.701624,2020-09-25 00:00:00.000000,1.64258544,2.37792937,3.59509087,1311,1898,2870,675,981,1446,0.84645424,1.22859155,1.81113039,0.23230590,0.32775702,0.49101021
56025,0,USWyomingNatrona,Wyoming,Natrona,2021-01-05 05:44:01.701624,2020-09-26 00:00:00.000000,1.70812145,2.46560517,3.67788118,1364,1968,2937,691,1016,1500,0.86641404,1.27345051,1.87847148,0.23585278,0.33542463,0.49567793
56025,0,USWyomingNatrona,Wyoming,Natrona,2021-01-05 05:44:01.701624,2020-09-27 00:00:00.000000,1.74687186,2.53899222,3.76737927,1395,2027,3008,705,1052,1553,0.88359442,1.31851274,1.94587199,0.23327370,0.34291279,0.50220181
56025,0,USWyomingNatrona,Wyoming,Natrona,2021-01-05 05:44:01.701624,2020-09-28 00:00:00.000000,1.80077607,2.64052876,3.87490077,1438,2108,3094,719,1094,1592,0.90132333,1.37028440,1.99452745,0.23535790,0.34481786,0.50776134
56025,0,USWyomingNatrona,Wyoming,Natrona,2021-01-05 05:44:01.701624,2020-09-29 00:00:00.000000,1.87583376,2.72691338,3.98917160,1498,2177,3185,734,1128,1611,0.91960654,1.41259002,2.01733959,0.23914309,0.34753255,0.51193727
56025,0,USWyomingNatrona,Wyoming,Natrona,2021-01-05 05:44:01.701624,2020-09-30 00:00:00.000000,1.93240928,2.81034507,4.11627670,1543,2244,3287,749,1164,1631,0.93855838,1.45850810,2.04271235,0.24918801,0.34998666,0.53339823
56025,0,USWyomingNatrona,Wyoming,Natrona,2021-01-05 05:44:01.701624,2020-10-01 00:00:00.000000,2.01293389,2.89800510,4.24643539,1607,2314,3391,775,1194,1654,0.97168555,1.49553230,2.07148396,0.25732285,0.35255587,0.53449466
56025,0,USWyomingNatrona,Wyoming,Natrona,2021-01-05 05:44:01.701624,2020-10-02 00:00:00.000000,2.04790638,3.01190790,4.38065455,1635,2405,3498,790,1230,1690,0.98983312,1.54070627,2.11635240,0.26615836,0.35682337,0.53805651
56025,0,USWyomingNatrona,Wyoming,Natrona,2021-01-05 05:44:01.701624,2020-10-03 00:00:00.000000,2.09292874,3.12163226,4.52032623,1671,2492,3609,819,1256,1739,1.02559626,1.57373118,2.17860868,0.26656301,0.36585073,0.56266253
56025,0,USWyomingNatrona,Wyoming,Natrona,2021-01-05 05:44:01.701624,2020-10-04 00:00:00.000000,2.14441519,3.24935873,4.66623094,1712,2594,3726,857,1295,1798,1.07362423,1.62218756,2.25156244,0.26675474,0.37380037,0.56804333
56025,0,USWyomingNatrona,Wyoming,Natrona,2021-01-05 05:44:01.701624,2020-10-05 00:00:00.000000,2.25160311,3.38411793,4.82189661,1798,2702,3850,897,1350,1861,1.12418213,1.69164640,2.33121552,0.28058718,0.38378604,0.56865723
56025,0,USWyomingNatrona,Wyoming,Natrona,2021-01-05 05:44:01.701624,2020-10-06 00:00:00.000000,2.37251996,3.51256963,4.98731422,1894,2805,3982,940,1425,1928,1.17718081,1.78507531,2.41534963,0.29095844,0.39633142,0.56869315
56025,0,USWyomingNatrona,Wyoming,Natrona,2021-01-05 05:44:01.701624,2020-10-07 00:00:00.000000,2.50242424,3.67073448,5.19593212,1998,2931,4149,984,1504,1999,1.23255244,1.88420168,2.50350331,0.29347854,0.40554825,0.56859043
56025,0,USWyomingNatrona,Wyoming,Natrona,2021-01-05 05:44:01.701624,2020-10-08 00:00:00.000000,2.64097025,3.84063026,5.40861364,2109,3067,4319,1022,1588,2072,1.28025344,1.98898985,2.59540426,0.29609579,0.41735237,0.56827142
56025,0,USWyomingNatrona,Wyoming,Natrona,2021-01-05 05:44:01.701624,2020-10-09 00:00:00.000000,2.79270944,4.04011304,5.62642633,2230,3226,4493,1067,1666,2148,1.33711250,2.08649987,2.69098374,0.31572501,0.42470439,0.57126983
56025,0,USWyomingNatrona,Wyoming,Natrona,2021-01-05 05:44:01.701624,2020-10-10 00:00:00.000000,2.97506801,4.26845478,5.91566099,2375,3408,4724,1119,1750,2228,1.40163233,2.19179117,2.79038890,0.31197245,0.43123791,0.59453944
56025,0,USWyomingNatrona,Wyoming,Natrona,2021-01-05 05:44:01.701624,2020-10-11 00:00:00.000000,3.17633227,4.51445253,6.26773821,2536,3605,5005,1161,1822,2311,1.45470388,2.28158521,2.89480117,0.33165652,0.44078691,0.60955207
56025,0,USWyomingNatrona,Wyoming,Natrona,2021-01-05 05:44:01.701624,2020-10-12 00:00:00.000000,3.29477120,4.76488962,6.63910198,2631,3805,5301,1210,1899,2446,1.51616892,2.37908550,3.06385156,0.35926143,0.44767596,0.61728432
56025,0,USWyomingNatrona,Wyoming,Natrona,2021-01-05 05:44:01.701624,2020-10-13 00:00:00.000000,3.42969025,5.03394176,7.02897695,2738,4020,5613,1278,1993,2588,1.60136786,2.49618864,3.24179914,0.36329686,0.45739093,0.61761768
56025,0,USWyomingNatrona,Wyoming,Natrona,2021-01-05 05:44:01.701624,2020-10-14 00:00:00.000000,3.64747368,5.28162744,7.43704825,2912,4217,5939,1354,2100,2689,1.69573372,2.63090164,3.36742272,0.36276270,0.46419656,0.61911671
56025,0,USWyomingNatrona,Wyoming,Natrona,2021-01-05 05:44:01.701624,2020-10-15 00:00:00.000000,3.78678932,5.62576099,7.86827390,3024,4492,6283,1417,2211,2803,1.77489181,2.76946610,3.51031980,0.36264685,0.47018043,0.62002505
56025,0,USWyomingNatrona,Wyoming,Natrona,2021-01-05 05:44:01.701624,2020-10-16 00:00:00.000000,3.93092292,5.88195631,8.35202268,3139,4697,6669,1483,2321,2939,1.85729434,2.90754157,3.68072640,0.36242862,0.47609900,0.62096655
56025,0,USWyomingNatrona,Wyoming,Natrona,2021-01-05 05:44:01.701624,2020-10-17 00:00:00.000000,4.08302779,6.22094972,8.92710963,3260,4967,7129,1561,2436,3098,1.95518868,3.05159586,3.87942346,0.36034598,0.48056303,0.63690446
56025,0,USWyomingNatrona,Wyoming,Natrona,2021-01-05 05:44:01.701624,2020-10-18 00:00:00.000000,4.25727434,6.62741502,9.55838713,3399,5292,7633,1656,2577,3270,2.07388891,3.22806776,4.09588185,0.36228101,0.50309777,0.65987321
56025,0,USWyomingNatrona,Wyoming,Natrona,2021-01-05 05:44:01.701624,2020-10-19 00:00:00.000000,4.47323519,7.03558808,10.22712574,3572,5618,8167,1747,2732,3458,2.18882042,3.42161650,4.33123146,0.35458769,0.51452595,0.68908330
56025,0,USWyomingNatrona,Wyoming,Natrona,2021-01-05 05:44:01.701624,2020-10-20 00:00:00.000000,4.83135061,7.41777286,10.93370961,3858,5923,8731,1822,2895,3651,2.28223316,3.62519157,4.57275387,0.35213407,0.52514448,0.69383916
56025,0,USWyomingNatrona,Wyoming,Natrona,2021-01-05 05:44:01.701624,2020-10-21 00:00:00.000000,5.14851478,7.85967934,11.67980404,4111,6276,9327,1906,3046,3824,2.38770561,3.81430952,4.78878306,0.36332073,0.53155292,0.69701462
56025,0,USWyomingNatrona,Wyoming,Natrona,2021-01-05 05:44:01.701624,2020-10-22 00:00:00.000000,5.31160356,8.38856562,12.45225816,4241,6698,9944,1997,3193,4064,2.50136011,3.99834928,5.08972494,0.37404401,0.54458727,0.69916882
56025,0,USWyomingNatrona,Wyoming,Natrona,2021-01-05 05:44:01.701624,2020-10-23 00:00:00.000000,5.53728512,8.96525050,13.26070710,4421,7159,10589,2097,3382,4309,2.62691216,4.23582412,5.39670530,0.38534708,0.56179747,0.69900702
56025,0,USWyomingNatrona,Wyoming,Natrona,2021-01-05 05:44:01.701624,2020-10-24 00:00:00.000000,5.86622622,9.52858390,14.10433049,4684,7609,11263,2213,3583,4584,2.77139361,4.48771718,5.74123721,0.38447472,0.57140936,0.71049384
56025,0,USWyomingNatrona,Wyoming,Natrona,2021-01-05 05:44:01.701624,2020-10-25 00:00:00.000000,6.23448754,10.13802292,14.98014404,4978,8096,11962,2353,3811,4888,2.94663135,4.77322927,6.12204632,0.38186268,0.57957512,0.76076029
56025,0,USWyomingNatrona,Wyoming,Natrona,2021-01-05 05:44:01.701624,2020-10-26 00:00:00.000000,6.71085216,10.77866294,15.88018292,5359,8607,12681,2519,4088,5216,3.15525686,5.11958914,6.53196366,0.42615222,0.59169507,0.84512807
56025,0,USWyomingNatrona,Wyoming,Natrona,2021-01-05 05:44:01.701624,2020-10-27 00:00:00.000000,7.25887440,11.49981405,16.80099289,5796,9183,13416,2710,4367,5559,3.39388377,5.46853792,6.96188150,0.45777894,0.60944028,0.86787460
56025,0,USWyomingNatrona,Wyoming,Natrona,2021-01-05 05:44:01.701624,2020-10-28 00:00:00.000000,7.85623198,12.27990274,17.73892163,6273,9806,14165,2921,4670,5919,3.65852484,5.84867168,7.41192211,0.48357652,0.62036867,0.87487047
56025,0,USWyomingNatrona,Wyoming,Natrona,2021-01-05 05:44:01.701624,2020-10-29 00:00:00.000000,8.53652822,13.19603198,18.69292749,6817,10538,14927,3119,4986,6295,3.90585018,6.24440034,7.88369647,0.48216182,0.64569263,0.88377971
56025,0,USWyomingNatrona,Wyoming,Natrona,2021-01-05 05:44:01.701624,2020-10-30 00:00:00.000000,9.28469526,14.23053938,20.35685573,7414,11364,16256,3356,5308,6693,4.20279890,6.64692202,8.38176540,0.49190247,0.66004740,0.89533436
56025,0,USWyomingNatrona,Wyoming,Natrona,2021-01-05 05:44:01.701624,2020-10-31 00:00:00.000000,10.11954152,15.32841470,22.10559036,8081,12240,17653,3644,5683,7181,4.56331765,7.11712583,8.99313545,0.50654981,0.67330360,0.92000057
56025,0,USWyomingNatrona,Wyoming,Natrona,2021-01-05 05:44:01.701624,2020-11-01 00:00:00.000000,11.04631129,16.33242284,23.48366610,8821,13042,18753,3956,6107,7840,4.95463502,7.64737923,9.81789654,0.50626025,0.68698096,0.97544169
56025,0,USWyomingNatrona,Wyoming,Natrona,2021-01-05 05:44:01.701624,2020-11-02 00:00:00.000000,12.04053783,17.41281490,24.58308918,9615,13905,19631,4273,6513,8386,5.35119371,8.15658995,10.50198724,0.51173008,0.68554472,1.02952436
56025,0,USWyomingNatrona,Wyoming,Natrona,2021-01-05 05:44:01.701624,2020-11-03 00:00:00.000000,13.09710549,18.49627078,25.62237820,10459,14770,20461,4619,6975,8822,5.78465329,8.73458063,11.04720027,0.51692943,0.68682768,1.04468032
56025,0,USWyomingNatrona,Wyoming,Natrona,2021-01-05 05:44:01.701624,2020-11-04 00:00:00.000000,14.23061346,19.70557006,26.62397805,11364,15736,21261,4992,7427,9398,6.25135821,9.30067388,11.76881154,0.52182116,0.68121331,1.02142646
56025,0,USWyomingNatrona,Wyoming,Natrona,2021-01-05 05:44:01.701624,2020-11-05 00:00:00.000000,15.17518482,20.87436328,27.57716524,12118,16669,22022,5387,7883,10038,6.74630534,9.87160285,12.57042227,0.52768874,0.68051354,0.98140655
56025,0,USWyomingNatrona,Wyoming,Natrona,2021-01-05 05:44:01.701624,2020-11-06 00:00:00.000000,15.98342224,21.87822266,28.46837270,12764,17471,22734,5758,8340,10616,7.21067962,10.44462542,13.29449602,0.53122236,0.67345026,0.96148762
56025,0,USWyomingNatrona,Wyoming,Natrona,2021-01-05 05:44:01.701624,2020-11-07 00:00:00.000000,16.73410168,22.71197532,29.37133520,13363,18137,23455,6127,8710,11135,7.67315953,10.90772333,13.94457251,0.51336786,0.65398642,0.94752729
56025,0,USWyomingNatrona,Wyoming,Natrona,2021-01-05 05:44:01.701624,2020-11-08 00:00:00.000000,17.42605661,23.61354350,30.28546292,13916,18857,24185,6492,9165,11766,8.12967451,11.47691727,14.73436072,0.48287481,0.63321989,0.89010758
56025,0,USWyomingNatrona,Wyoming,Natrona,2021-01-05 05:44:01.701624,2020-11-09 00:00:00.000000,18.06879734,24.49404866,31.08350299,14429,19560,24822,6916,9565,12411,8.66085336,11.97851858,15.54213671,0.46531367,0.61671608,0.84904755
56025,0,USWyomingNatrona,Wyoming,Natrona,2021-01-05 05:44:01.701624,2020-11-10 00:00:00.000000,18.65876337,25.17279082,31.75787407,14900,20102,25361,7172,9954,12892,8.98142070,12.46519770,16.14489039,0.45408566,0.60090994,0.79388322
56025,0,USWyomingNatrona,Wyoming,Natrona,2021-01-05 05:44:01.701624,2020-11-11 00:00:00.000000,19.19700535,25.89835796,32.29078099,15330,20681,25786,7435,10331,13342,9.31144193,12.93742984,16.70838855,0.43301224,0.58527521,0.77262837
56025,0,USWyomingNatrona,Wyoming,Natrona,2021-01-05 05:44:01.701624,2020-11-12 00:00:00.000000,19.21974676,26.23363567,32.64227274,15348,20949,26067,7641,10614,13706,9.56904363,13.29194348,17.16366095,0.42162226,0.56181092,0.73753299
56025,0,USWyomingNatrona,Wyoming,Natrona,2021-01-05 05:44:01.701624,2020-11-13 00:00:00.000000,19.15446280,26.63706355,33.29749957,15296,21271,26590,7806,10856,13989,9.77549059,13.59528397,17.51791628,0.41965558,0.53967453,0.73609546
56025,0,USWyomingNatrona,Wyoming,Natrona,2021-01-05 05:44:01.701624,2020-11-14 00:00:00.000000,19.03185193,26.98893633,33.65277428,15198,21552,26874,7920,11063,14209,9.91760837,13.85400007,17.79370497,0.40155141,0.52631709,0.71115535
56025,0,USWyomingNatrona,Wyoming,Natrona,2021-01-05 05:44:01.701624,2020-11-15 00:00:00.000000,18.95593225,26.97019944,33.65936420,15137,21537,26879,7971,11204,14446,9.98177240,14.03004316,18.09010400,0.36349317,0.50422405,0.66722111
56025,0,USWyomingNatrona,Wyoming,Natrona,2021-01-05 05:44:01.701624,2020-11-16 00:00:00.000000,18.79513426,26.74423221,33.43494388,15009,21357,26700,7958,11483,14593,9.96568798,14.38041687,18.27436500,0.33823065,0.48096956,0.64944850
56025,0,USWyomingNatrona,Wyoming,Natrona,2021-01-05 05:44:01.701624,2020-11-17 00:00:00.000000,18.34492747,26.26576033,33.09868939,14649,20975,26431,7889,11567,14795,9.87964928,14.48546183,18.52664279,0.31982454,0.46856392,0.63802045
56025,0,USWyomingNatrona,Wyoming,Natrona,2021-01-05 05:44:01.701624,2020-11-18 00:00:00.000000,18.01614529,25.88759976,32.62362356,14387,20673,26052,7776,11572,14932,9.73825899,14.49184969,18.69908164,0.30915596,0.45956222,0.62565984
56025,0,USWyomingNatrona,Wyoming,Natrona,2021-01-05 05:44:01.701624,2020-11-19 00:00:00.000000,17.64610211,25.45589414,32.07448291,14091,20328,25614,7630,11575,14945,9.55566969,14.49470417,18.71496712,0.29392773,0.45255214,0.61850564
56025,0,USWyomingNatrona,Wyoming,Natrona,2021-01-05 05:44:01.701624,2020-11-20 00:00:00.000000,17.19200869,24.84191807,31.45243996,13729,19838,25117,7461,11535,14888,9.34396832,14.44515533,18.64334131,0.28814929,0.45467764,0.61868900
56025,0,USWyomingNatrona,Wyoming,Natrona,2021-01-05 05:44:01.701624,2020-11-21 00:00:00.000000,16.64872914,24.07446857,30.76777947,13295,19225,24570,7277,11389,14773,9.11331647,14.26198502,18.49958368,0.28597476,0.45306219,0.62023884
56025,0,USWyomingNatrona,Wyoming,Natrona,2021-01-05 05:44:01.701624,2020-11-22 00:00:00.000000,16.09416183,23.40751678,30.03179414,12852,18692,23982,7085,11200,14602,8.87243765,14.02516669,18.28592062,0.28518354,0.44096333,0.63161385
56025,0,USWyomingNatrona,Wyoming,Natrona,2021-01-05 05:44:01.701624,2020-11-23 00:00:00.000000,15.63493747,22.72459479,29.24904222,12485,18147,23357,6890,11010,14394,8.62865542,13.78803839,18.02490189,0.28213801,0.44027807,0.67052242
56025,0,USWyomingNatrona,Wyoming,Natrona,2021-01-05 05:44:01.701624,2020-11-24 00:00:00.000000,15.24008748,22.05357578,28.40395105,12170,17611,22682,6698,10767,14170,8.38811688,13.48349576,17.74491926,0.27771672,0.43675257,0.68429027
56025,0,USWyomingNatrona,Wyoming,Natrona,2021-01-05 05:44:01.701624,2020-11-25 00:00:00.000000,14.83495989,21.30313133,27.46772036,11846,17012,21935,6510,10445,13899,8.15299682,13.08002383,17.40549030,0.27557011,0.42766985,0.67187060
56025,0,USWyomingNatrona,Wyoming,Natrona,2021-01-05 05:44:01.701624,2020-11-26 00:00:00.000000,14.41353928,20.50532451,26.47811570,11510,16375,21144,6327,10124,13590,7.92314596,12.67765586,17.01796195,0.27357853,0.42523993,0.65168881
56025,0,USWyomingNatrona,Wyoming,Natrona,2021-01-05 05:44:01.701624,2020-11-27 00:00:00.000000,13.75241745,19.75331173,25.48398999,10982,15774,20351,6146,9830,13356,7.69738183,12.30940231,16.72556848,0.27108435,0.42528026,0.65355470
56025,0,USWyomingNatrona,Wyoming,Natrona,2021-01-05 05:44:01.701624,2020-11-28 00:00:00.000000,13.14105483,19.01592242,24.57257766,10494,15185,19623,5968,9525,13120,7.47400644,11.92747254,16.42964529,0.24858149,0.43127129,0.64798252
56025,0,USWyomingNatrona,Wyoming,Natrona,2021-01-05 05:44:01.701624,2020-11-29 00:00:00.000000,12.53953204,18.30152111,23.65039929,10013,14615,18886,5788,9212,12813,7.24908390,11.53606966,16.04495026,0.24184988,0.43537145,0.64587289
56025,0,USWyomingNatrona,Wyoming,Natrona,2021-01-05 05:44:01.701624,2020-11-30 00:00:00.000000,11.96455809,17.61899258,22.73809253,9554,14070,18158,5603,8894,12374,7.01719799,11.13847395,15.49531732,0.24116941,0.43724779,0.66473014
56025,0,USWyomingNatrona,Wyoming,Natrona,2021-01-05 05:44:01.701624,2020-12-01 00:00:00.000000,11.40969330,16.93617389,22.00106410,9111,13524,17569,5413,8572,11917,6.77866957,10.73405364,14.92301115,0.24131983,0.44389301,0.67820223
56025,0,USWyomingNatrona,Wyoming,Natrona,2021-01-05 05:44:01.701624,2020-12-02 00:00:00.000000,10.87049087,16.18369848,21.29861344,8680,12923,17008,5173,8238,11448,6.47779924,10.31651159,14.33656073,0.24177996,0.45469536,0.68230328
56025,0,USWyomingNatrona,Wyoming,Natrona,2021-01-05 05:44:01.701624,2020-12-03 00:00:00.000000,10.34526128,15.47940431,20.43716753,8261,12361,16320,4910,7908,11021,6.14949299,9.90346573,13.80197577,0.24272142,0.45731744,0.68807824
56025,0,USWyomingNatrona,Wyoming,Natrona,2021-01-05 05:44:01.701624,2020-12-04 00:00:00.000000,9.83279053,14.64231622,19.57952755,7852,11693,15635,4664,7582,10674,5.84088540,9.49447664,13.36701173,0.24453656,0.45920207,0.69731496
56025,0,USWyomingNatrona,Wyoming,Natrona,2021-01-05 05:44:01.701624,2020-12-05 00:00:00.000000,9.33143614,13.97473645,18.94548451,7451,11159,15129,4431,7230,10327,5.54912884,9.05454430,12.93211383,0.24771118,0.47291403,0.71208940
56025,0,USWyomingNatrona,Wyoming,Natrona,2021-01-05 05:44:01.701624,2020-12-06 00:00:00.000000,8.83899135,13.23299483,18.30016152,7058,10567,14614,4209,6865,9978,5.27144700,8.59710734,12.49592151,0.25238734,0.47535388,0.73347486
56025,0,USWyomingNatrona,Wyoming,Natrona,2021-01-05 05:44:01.701624,2020-12-07 00:00:00.000000,8.35370218,12.55938158,17.63232200,6671,10029,14080,3997,6568,9629,5.00582789,8.22571238,12.05810208,0.25775337,0.47610967,0.75865488
56025,0,USWyomingNatrona,Wyoming,Natrona,2021-01-05 05:44:01.701624,2020-12-08 00:00:00.000000,7.87897861,11.92848528,16.95506019,6291,9525,13539,3793,6283,9278,4.75081064,7.86884639,11.61816242,0.26233668,0.47920335,0.78932572
56025,0,USWyomingNatrona,Wyoming,Natrona,2021-01-05 05:44:01.701624,2020-12-09 00:00:00.000000,7.41909311,11.36593161,16.27761794,5924,9076,12998,3598,6009,8925,4.50565966,7.52521621,11.17729899,0.26518721,0.48746463,0.81377434
56025,0,USWyomingNatrona,Wyoming,Natrona,2021-01-05 05:44:01.701624,2020-12-10 00:00:00.000000,6.97764607,10.85437515,15.60763570,5572,8668,12463,3409,5744,8574,4.26995400,7.19362195,10.73696865,0.26617574,0.49413320,0.82729766
56025,0,USWyomingNatrona,Wyoming,Natrona,2021-01-05 05:44:01.701624,2020-12-11 00:00:00.000000,6.55782112,10.30326743,14.95025677,5236,8227,11938,3229,5455,8224,4.04350871,6.83174420,10.29877070,0.26542106,0.50856469,0.82651734
56025,0,USWyomingNatrona,Wyoming,Natrona,2021-01-05 05:44:01.701624,2020-12-12 00:00:00.000000,6.17133246,9.78637297,14.30868801,4928,7815,11426,3055,5184,7877,3.82644395,6.49191517,9.86436047,0.26323244,0.52926645,0.85069969
56025,0,USWyomingNatrona,Wyoming,Natrona,2021-01-05 05:44:01.701624,2020-12-13 00:00:00.000000,5.85243611,9.31997303,13.68507247,4673,7442,10928,2890,4958,7534,3.61987299,6.20949744,9.43537635,0.26066054,0.54211957,0.87837766
56025,0,USWyomingNatrona,Wyoming,Natrona,2021-01-05 05:44:01.701624,2020-12-14 00:00:00.000000,5.58006802,8.92943163,13.07663548,4456,7130,10442,2737,4757,7249,3.42788019,5.95759092,9.07795794,0.27071464,0.55159074,0.89849837
56025,0,USWyomingNatrona,Wyoming,Natrona,2021-01-05 05:44:01.701624,2020-12-15 00:00:00.000000,5.33419712,8.50681140,12.48896050,4259,6793,9973,2599,4566,6973,3.25510348,5.71857689,8.73191268,0.27261103,0.56377280,0.91079546
56025,0,USWyomingNatrona,Wyoming,Natrona,2021-01-05 05:44:01.701624,2020-12-16 00:00:00.000000,5.10528818,8.14018107,11.97487582,4076,6500,9562,2475,4383,6704,3.09968333,5.48974422,8.39516439,0.27264254,0.56822086,0.91747768
56025,0,USWyomingNatrona,Wyoming,Natrona,2021-01-05 05:44:01.701624,2020-12-17 00:00:00.000000,4.89306778,7.79650098,11.49136229,3907,6226,9176,2362,4188,6441,2.95810055,5.24540494,8.06646354,0.27252877,0.57623384,0.92061329
56025,0,USWyomingNatrona,Wyoming,Natrona,2021-01-05 05:44:01.701624,2020-12-18 00:00:00.000000,4.70071486,7.47524779,11.03064510,3753,5969,8808,2258,3989,6184,2.82816882,4.99573967,7.74471840,0.27440078,0.59659349,0.97464000
56025,0,USWyomingNatrona,Wyoming,Natrona,2021-01-05 05:44:01.701624,2020-12-19 00:00:00.000000,4.53236889,7.16304589,10.62364106,3619,5720,8483,2144,3820,5932,2.68571012,4.78367511,7.42876477,0.27876119,0.61218283,0.95543862
56025,0,USWyomingNatrona,Wyoming,Natrona,2021-01-05 05:44:01.701624,2020-12-20 00:00:00.000000,4.29720449,6.84872434,10.33025043,3431,5469,8249,2036,3645,5699,2.55045254,4.56478680,7.13764769,0.27639095,0.62775991,0.99343894
56025,0,USWyomingNatrona,Wyoming,Natrona,2021-01-05 05:44:01.701624,2020-12-21 00:00:00.000000,4.05024732,6.52047224,9.96056102,3234,5207,7954,1936,3468,5487,2.42497236,4.34371668,6.87191139,0.27591910,0.64024393,1.02121337
56025,0,USWyomingNatrona,Wyoming,Natrona,2021-01-05 05:44:01.701624,2020-12-22 00:00:00.000000,3.81697358,6.23445797,9.49157504,3048,4978,7579,1842,3289,5281,2.30665881,4.11965324,6.61376710,0.27583579,0.65489764,1.03527182
56025,0,USWyomingNatrona,Wyoming,Natrona,2021-01-05 05:44:01.701624,2020-12-23 00:00:00.000000,3.59639492,5.93544001,9.06926115,2872,4739,7242,1752,3135,5081,2.19419231,3.92690805,6.36333880,0.27582552,0.67102512,1.03900384
56025,0,USWyomingNatrona,Wyoming,Natrona,2021-01-05 05:44:01.701624,2020-12-24 00:00:00.000000,3.38789973,5.68906856,8.72913604,2705,4543,6970,1665,2981,4887,2.08597084,3.73321977,6.12059309,0.27517493,0.67949083,1.04268554
56025,0,USWyomingNatrona,Wyoming,Natrona,2021-01-05 05:44:01.701624,2020-12-25 00:00:00.000000,3.19116723,5.40493223,8.40587196,2548,4316,6712,1572,2826,4729,1.96942092,3.53921109,5.92293369,0.28024574,0.68593237,1.06124054
56025,0,USWyomingNatrona,Wyoming,Natrona,2021-01-05 05:44:01.701624,2020-12-26 00:00:00.000000,3.00593024,5.12735461,8.09433548,2400,4094,6463,1481,2682,4580,1.85571457,3.35858256,5.73530520,0.27316706,0.68814387,1.07359204
56025,0,USWyomingNatrona,Wyoming,Natrona,2021-01-05 05:44:01.701624,2020-12-27 00:00:00.000000,2.83703234,4.86345545,7.79118625,2265,3883,6221,1396,2544,4433,1.74826577,3.18581201,5.55192713,0.27634215,0.68571496,1.09413377
56025,0,USWyomingNatrona,Wyoming,Natrona,2021-01-05 05:44:01.701624,2020-12-28 00:00:00.000000,2.67618552,4.65369139,7.49369392,2137,3716,5984,1315,2419,4289,1.64783332,3.02921406,5.37151535,0.28114394,0.67844892,1.10090788
56025,0,USWyomingNatrona,Wyoming,Natrona,2021-01-05 05:44:01.701624,2020-12-29 00:00:00.000000,2.49077527,4.46789082,7.20266125,1989,3567,5751,1234,2309,4146,1.54602071,2.89178330,5.19260565,0.27681176,0.67131597,1.12289720
56025,0,USWyomingNatrona,Wyoming,Natrona,2021-01-05 05:44:01.701624,2020-12-30 00:00:00.000000,2.34166141,4.26773923,6.91718767,1870,3408,5523,1151,2194,4005,1.44179108,2.74784795,5.01524321,0.26846393,0.65282536,1.11986840
56025,0,USWyomingNatrona,Wyoming,Natrona,2021-01-05 05:44:01.701624,2020-12-31 00:00:00.000000,2.18893205,4.06124426,6.63183175,1748,3243,5296,1073,2074,3864,1.34437603,2.59791462,4.83970257,0.26306452,0.64820564,1.15960428
56025,0,USWyomingNatrona,Wyoming,Natrona,2021-01-05 05:44:01.701624,2021-01-01 00:00:00.000000,2.03513268,3.86530666,6.34768442,1625,3086,5069,1000,1982,3726,1.25334583,2.48294537,4.66633701,0.26261704,0.64904213,1.19031417
56025,0,USWyomingNatrona,Wyoming,Natrona,2021-01-05 05:44:01.701624,2021-01-02 00:00:00.000000,1.89237734,3.69984671,6.07063893,1511,2954,4847,932,1897,3590,1.16831099,2.37577948,4.49557097,0.26580008,0.65980902,1.25993220
56025,0,USWyomingNatrona,Wyoming,Natrona,2021-01-05 05:44:01.701624,2021-01-03 00:00:00.000000,1.76043115,3.52365149,5.80159631,1405,2813,4633,869,1802,3456,1.08893582,2.25748478,4.32854835,0.26566273,0.67408884,1.29459231
56025,0,USWyomingNatrona,Wyoming,Natrona,2021-01-05 05:44:01.701624,2021-01-04 00:00:00.000000,1.63869655,3.37046040,5.54081930,1308,2691,4424,810,1710,3328,1.01495514,2.14209633,4.16818678,0.26546771,0.67368450,1.30072486
56025,0,USWyomingNatrona,Wyoming,Natrona,2021-01-05 05:44:01.701624,2021-01-05 00:00:00.000000,1.52604747,3.17519094,5.29587003,1218,2535,4229,755,1631,3205,0.94613427,2.04359096,4.01360122,0.26527640,0.67371706,1.30168396
56025,0,USWyomingNatrona,Wyoming,Natrona,2021-01-05 05:44:01.701624,2021-01-06 00:00:00.000000,1.42144194,3.00884015,5.07789944,1135,2402,4055,704,1553,3085,0.88217605,1.94502551,3.86414715,0.26515497,0.67287067,1.30188972
56025,0,USWyomingNatrona,Wyoming,Natrona,2021-01-05 05:44:01.701624,2021-01-07 00:00:00.000000,1.32348759,2.82832260,4.86779683,1056,2258,3887,657,1467,2970,0.82272469,1.83721351,3.71911644,0.26509851,0.67019359,1.30195584
56025,0,USWyomingNatrona,Wyoming,Natrona,2021-01-05 05:44:01.701624,2021-01-08 00:00:00.000000,1.22761117,2.65649706,4.66507511,980,2121,3725,612,1375,2857,0.76742326,1.72211178,3.57822676,0.25694928,0.66946487,1.30198296
56025,0,USWyomingNatrona,Wyoming,Natrona,2021-01-05 05:44:01.701624,2021-01-09 00:00:00.000000,1.13866386,2.49450443,4.46947752,909,1992,3569,571,1305,2748,0.71594215,1.63538396,3.44136338,0.25682467,0.66927811,1.30199522
56025,0,USWyomingNatrona,Wyoming,Natrona,2021-01-05 05:44:01.701624,2021-01-10 00:00:00.000000,1.05602892,2.34185772,4.28080991,843,1870,3418,533,1252,2641,0.66798441,1.56902049,3.30835624,0.25681827,0.66922927,1.30200098
56025,0,USWyomingNatrona,Wyoming,Natrona,2021-01-05 05:44:01.701624,2021-01-11 00:00:00.000000,0.97925430,2.22127680,4.08327763,782,1773,3260,497,1201,2538,0.62328340,1.50459746,3.17908730,0.25682609,0.66921573,1.30200374
56025,0,USWyomingNatrona,Wyoming,Natrona,2021-01-05 05:44:01.701624,2021-01-12 00:00:00.000000,0.90794453,2.09801604,3.88846901,725,1675,3105,464,1137,2423,0.58159891,1.42467509,3.03455921,0.25683379,0.66921164,1.30200508
56025,0,USWyomingNatrona,Wyoming,Natrona,2021-01-05 05:44:01.701624,2021-01-13 00:00:00.000000,0.84397804,1.96417063,3.71369494,673,1568,2965,433,1075,2310,0.54271348,1.34641921,2.89299909,0.25683976,0.66921028,1.30200573
56025,0,USWyomingNatrona,Wyoming,Natrona,2021-01-05 05:44:01.701624,2021-01-14 00:00:00.000000,0.78550242,1.85138377,3.56221736,627,1478,2844,404,1022,2201,0.50642923,1.28026789,2.75717089,0.25684414,0.66920978,1.30200605
56025,0,USWyomingNatrona,Wyoming,Natrona,2021-01-05 05:44:01.701624,2021-01-15 00:00:00.000000,0.73098379,1.74603686,3.41526580,583,1394,2727,377,972,2097,0.47256527,1.21837938,2.62694289,0.25684727,0.66920958,1.30200622
56025,0,USWyomingNatrona,Wyoming,Natrona,2021-01-05 05:44:01.701624,2021-01-16 00:00:00.000000,0.68016979,1.63952084,3.27286820,543,1309,2613,352,925,1998,0.44095557,1.15934877,2.50217231,0.25684948,0.66920950,1.30200630
56025,0,USWyomingNatrona,Wyoming,Natrona,2021-01-05 05:44:01.701624,2021-01-17 00:00:00.000000,0.63282136,1.54225756,3.13503116,505,1231,2503,328,880,1902,0.41144716,1.10304829,2.38270792,0.25685102,0.66920946,1.30200634
