FIPS,HR_UID,nameid,province,region,analysisTime,dates,pointprevalence_025,pointprevalence_50,pointprevalence_975,pointinfections_025,pointinfections_50,pointinfections_975,pointinfectious_025,pointinfectious_50,pointinfectious_975,pointinfectiousprevalence_05,pointinfectiousprevalence_50,pointinfectiousprevalence_95,infectrate_025,infectrate_50,infectrate_975
48343,0,USTexasMorris,Texas,Morris,2021-01-05 08:08:23.940843,2020-03-09 00:00:00.000000,0.00590415,0.02348961,0.08831829,0,2,10,0,1,5,0.00293296,0.01387430,0.04810800,0.36376967,0.51366889,0.71000353
48343,0,USTexasMorris,Texas,Morris,2021-01-05 08:08:23.940843,2020-03-10 00:00:00.000000,0.00664086,0.02580928,0.09383060,0,3,11,0,1,5,0.00281908,0.01348105,0.04651338,0.36376716,0.51366731,0.70999703
48343,0,USTexasMorris,Texas,Morris,2021-01-05 08:08:23.940843,2020-03-11 00:00:00.000000,0.00726257,0.02813089,0.09945583,0,3,12,0,1,5,0.00305126,0.01377384,0.04828988,0.36376205,0.51366378,0.70998591
48343,0,USTexasMorris,Texas,Morris,2021-01-05 08:08:23.940843,2020-03-12 00:00:00.000000,0.00774537,0.03051298,0.10525474,0,3,13,0,1,6,0.00336980,0.01478751,0.05069920,0.36375159,0.51365587,0.70996577
48343,0,USTexasMorris,Texas,Morris,2021-01-05 08:08:23.940843,2020-03-13 00:00:00.000000,0.00829634,0.03292434,0.11127248,1,4,13,0,1,6,0.00372896,0.01592772,0.05352427,0.36373026,0.51363808,0.70992584
48343,0,USTexasMorris,Texas,Morris,2021-01-05 08:08:23.940843,2020-03-14 00:00:00.000000,0.00891421,0.03503174,0.11807024,1,4,14,0,2,7,0.00411251,0.01737239,0.05664064,0.36368675,0.51359759,0.70983103
48343,0,USTexasMorris,Texas,Morris,2021-01-05 08:08:23.940843,2020-03-15 00:00:00.000000,0.00969305,0.03787744,0.12909760,1,4,15,0,2,7,0.00451538,0.01855523,0.06116966,0.36359813,0.51350278,0.70951795
48343,0,USTexasMorris,Texas,Morris,2021-01-05 08:08:23.940843,2020-03-16 00:00:00.000000,0.02037275,0.04890077,0.15693568,2,6,19,0,2,8,0.00493164,0.02008908,0.06704127,0.36341818,0.51326406,0.70802392
48343,0,USTexasMorris,Texas,Morris,2021-01-05 08:08:23.940843,2020-03-17 00:00:00.000000,0.02802955,0.06507466,0.18989688,3,8,23,1,2,9,0.00831003,0.02376652,0.07513011,0.35131142,0.49910273,0.69036134
48343,0,USTexasMorris,Texas,Morris,2021-01-05 08:08:23.940843,2020-03-18 00:00:00.000000,0.03599953,0.07343919,0.22439422,4,9,27,1,3,10,0.01270493,0.02946801,0.08480049,0.33370259,0.49475650,0.65882099
48343,0,USTexasMorris,Texas,Morris,2021-01-05 08:08:23.940843,2020-03-19 00:00:00.000000,0.04062339,0.08508960,0.26009670,5,10,32,2,4,12,0.01633254,0.03693003,0.10245915,0.31522718,0.48496894,0.61230486
48343,0,USTexasMorris,Texas,Morris,2021-01-05 08:08:23.940843,2020-03-20 00:00:00.000000,0.04798810,0.09725005,0.29143988,5,12,36,2,5,15,0.02051206,0.04343968,0.12824303,0.29743483,0.45989083,0.60893481
48343,0,USTexasMorris,Texas,Morris,2021-01-05 08:08:23.940843,2020-03-21 00:00:00.000000,0.05421629,0.10889843,0.31980497,6,13,39,2,6,19,0.02359085,0.04976778,0.15593824,0.27444962,0.43170544,0.60847588
48343,0,USTexasMorris,Texas,Morris,2021-01-05 08:08:23.940843,2020-03-22 00:00:00.000000,0.06181797,0.12554291,0.35076660,7,15,43,3,6,22,0.02596198,0.05592562,0.18415307,0.25655161,0.40659250,0.60759894
48343,0,USTexasMorris,Texas,Morris,2021-01-05 08:08:23.940843,2020-03-23 00:00:00.000000,0.07249640,0.14429437,0.36485440,8,17,45,3,7,26,0.03105838,0.06280584,0.21183697,0.23809918,0.38781456,0.60682912
48343,0,USTexasMorris,Texas,Morris,2021-01-05 08:08:23.940843,2020-03-24 00:00:00.000000,0.08411245,0.16325102,0.37833663,10,20,46,4,9,28,0.03675700,0.07351306,0.23052936,0.23416446,0.36920771,0.59018539
48343,0,USTexasMorris,Texas,Morris,2021-01-05 08:08:23.940843,2020-03-25 00:00:00.000000,0.09433131,0.17603207,0.39047683,11,21,48,5,10,30,0.04246715,0.08078661,0.24523832,0.22112730,0.34858514,0.55090256
48343,0,USTexasMorris,Texas,Morris,2021-01-05 08:08:23.940843,2020-03-26 00:00:00.000000,0.09917909,0.19124921,0.40867715,12,23,50,5,11,31,0.04669258,0.09169352,0.25771866,0.20599183,0.33735382,0.50882148
48343,0,USTexasMorris,Texas,Morris,2021-01-05 08:08:23.940843,2020-03-27 00:00:00.000000,0.10391511,0.21272583,0.43924957,12,26,54,6,12,33,0.04968486,0.10013240,0.26830060,0.19425864,0.31492401,0.48580108
48343,0,USTexasMorris,Texas,Morris,2021-01-05 08:08:23.940843,2020-03-28 00:00:00.000000,0.10844810,0.22602123,0.46867683,13,27,58,6,13,34,0.05243386,0.10696786,0.27520382,0.18140445,0.29794394,0.46902193
48343,0,USTexasMorris,Texas,Morris,2021-01-05 08:08:23.940843,2020-03-29 00:00:00.000000,0.11263710,0.24490562,0.47056674,13,30,58,6,14,34,0.05483511,0.11361847,0.27822086,0.17345956,0.28758104,0.45868765
48343,0,USTexasMorris,Texas,Morris,2021-01-05 08:08:23.940843,2020-03-30 00:00:00.000000,0.12148637,0.26352344,0.47827334,15,32,59,7,15,35,0.05689695,0.12382848,0.28678351,0.16470560,0.28052544,0.45078081
48343,0,USTexasMorris,Texas,Morris,2021-01-05 08:08:23.940843,2020-03-31 00:00:00.000000,0.14032489,0.27849722,0.49323960,17,34,61,7,16,37,0.06091608,0.13383657,0.30020360,0.15362563,0.27767368,0.44149200
48343,0,USTexasMorris,Texas,Morris,2021-01-05 08:08:23.940843,2020-04-01 00:00:00.000000,0.15762557,0.28628467,0.49581265,19,35,61,8,18,38,0.06883658,0.14645580,0.31050230,0.15000669,0.27150826,0.43462485
48343,0,USTexasMorris,Texas,Morris,2021-01-05 08:08:23.940843,2020-04-02 00:00:00.000000,0.16007361,0.30239638,0.50598795,19,37,62,9,19,39,0.07415616,0.15741095,0.31907425,0.14553532,0.26583975,0.43371695
48343,0,USTexasMorris,Texas,Morris,2021-01-05 08:08:23.940843,2020-04-03 00:00:00.000000,0.16225744,0.31500726,0.52749691,20,39,65,9,20,40,0.07773957,0.16623704,0.32739123,0.14416925,0.25578984,0.44942414
48343,0,USTexasMorris,Texas,Morris,2021-01-05 08:08:23.940843,2020-04-04 00:00:00.000000,0.16426453,0.32720422,0.54365938,20,40,67,10,21,41,0.08214829,0.17452350,0.33243898,0.13172842,0.24450177,0.44341243
48343,0,USTexasMorris,Texas,Morris,2021-01-05 08:08:23.940843,2020-04-05 00:00:00.000000,0.16614075,0.34012716,0.56890379,20,42,70,11,22,41,0.08978518,0.17967952,0.33658258,0.12766635,0.23542954,0.44374229
48343,0,USTexasMorris,Texas,Morris,2021-01-05 08:08:23.940843,2020-04-06 00:00:00.000000,0.18146094,0.34846625,0.59071222,22,43,73,11,23,43,0.09454553,0.18712648,0.34821598,0.12714645,0.22776547,0.40104374
48343,0,USTexasMorris,Texas,Morris,2021-01-05 08:08:23.940843,2020-04-07 00:00:00.000000,0.21615790,0.35456917,0.59809355,26,43,74,11,24,43,0.09685602,0.19375283,0.34993823,0.12722647,0.22369598,0.35910890
48343,0,USTexasMorris,Texas,Morris,2021-01-05 08:08:23.940843,2020-04-08 00:00:00.000000,0.21786760,0.36532307,0.60343554,26,45,74,12,24,43,0.10467593,0.19884967,0.34942848,0.12752058,0.21902253,0.35785441
48343,0,USTexasMorris,Texas,Morris,2021-01-05 08:08:23.940843,2020-04-09 00:00:00.000000,0.21894033,0.36958055,0.63003797,27,45,78,14,25,44,0.11336436,0.20298138,0.36118181,0.12232108,0.21297573,0.34533197
48343,0,USTexasMorris,Texas,Morris,2021-01-05 08:08:23.940843,2020-04-10 00:00:00.000000,0.21761695,0.37271105,0.65506251,26,46,81,14,25,45,0.11823977,0.20704554,0.37116029,0.12162441,0.21349014,0.33282883
48343,0,USTexasMorris,Texas,Morris,2021-01-05 08:08:23.940843,2020-04-11 00:00:00.000000,0.21553838,0.38012037,0.67921825,26,47,84,14,26,47,0.12010304,0.21066563,0.37982927,0.12191784,0.21296973,0.33219780
48343,0,USTexasMorris,Texas,Morris,2021-01-05 08:08:23.940843,2020-04-12 00:00:00.000000,0.21362148,0.37978867,0.70300404,26,47,87,14,26,47,0.11980744,0.21273059,0.38743091,0.11984157,0.20830795,0.33098410
48343,0,USTexasMorris,Texas,Morris,2021-01-05 08:08:23.940843,2020-04-13 00:00:00.000000,0.21641297,0.38930932,0.71649430,26,48,88,14,26,48,0.11875145,0.21626288,0.39418953,0.11593603,0.20363529,0.32938591
48343,0,USTexasMorris,Texas,Morris,2021-01-05 08:08:23.940843,2020-04-14 00:00:00.000000,0.21666686,0.39730577,0.72995068,26,49,90,14,27,49,0.11962057,0.22182240,0.39687808,0.11407238,0.19895518,0.30288524
48343,0,USTexasMorris,Texas,Morris,2021-01-05 08:08:23.940843,2020-04-15 00:00:00.000000,0.21683010,0.39959962,0.74301310,26,49,92,14,27,49,0.12044977,0.22388222,0.39648613,0.11365884,0.19406715,0.29722339
48343,0,USTexasMorris,Texas,Morris,2021-01-05 08:08:23.940843,2020-04-16 00:00:00.000000,0.21702131,0.41350942,0.75559640,26,51,93,14,27,50,0.12046971,0.22399724,0.40529765,0.11479407,0.18868491,0.29191757
48343,0,USTexasMorris,Texas,Morris,2021-01-05 08:08:23.940843,2020-04-17 00:00:00.000000,0.21719490,0.42033120,0.76714658,26,52,95,14,28,51,0.11967269,0.22642491,0.41313301,0.11510092,0.18357820,0.28757771
48343,0,USTexasMorris,Texas,Morris,2021-01-05 08:08:23.940843,2020-04-18 00:00:00.000000,0.21727675,0.42107883,0.77626146,26,52,96,14,28,52,0.11975352,0.22809545,0.42041046,0.11134421,0.17845870,0.28231088
48343,0,USTexasMorris,Texas,Morris,2021-01-05 08:08:23.940843,2020-04-19 00:00:00.000000,0.21726825,0.41855538,0.78118202,26,51,96,14,28,53,0.11962395,0.23150185,0.43148735,0.10546324,0.17780325,0.29367937
48343,0,USTexasMorris,Texas,Morris,2021-01-05 08:08:23.940843,2020-04-20 00:00:00.000000,0.22180877,0.41637127,0.81707322,27,51,101,14,29,54,0.11905031,0.23700835,0.44173390,0.10215396,0.17641811,0.28514747
48343,0,USTexasMorris,Texas,Morris,2021-01-05 08:08:23.940843,2020-04-21 00:00:00.000000,0.22189792,0.41743667,0.85033702,27,51,105,14,29,56,0.11996193,0.24049947,0.45257602,0.10013277,0.17583456,0.28335587
48343,0,USTexasMorris,Texas,Morris,2021-01-05 08:08:23.940843,2020-04-22 00:00:00.000000,0.22201596,0.41923079,0.86643548,27,51,107,15,29,57,0.12178338,0.23833292,0.46332010,0.09893693,0.17410378,0.25955035
48343,0,USTexasMorris,Texas,Morris,2021-01-05 08:08:23.940843,2020-04-23 00:00:00.000000,0.21682657,0.42436532,0.85650537,26,52,106,15,29,58,0.12417600,0.24128639,0.47379346,0.09474160,0.16937472,0.25615897
48343,0,USTexasMorris,Texas,Morris,2021-01-05 08:08:23.940843,2020-04-24 00:00:00.000000,0.21233996,0.43047866,0.84548301,26,53,104,15,29,60,0.12397243,0.23880996,0.48557706,0.09490510,0.16711636,0.25621821
48343,0,USTexasMorris,Texas,Morris,2021-01-05 08:08:23.940843,2020-04-25 00:00:00.000000,0.21449691,0.42557805,0.83333884,26,52,103,15,29,61,0.12111573,0.23981357,0.49662977,0.09490385,0.16678311,0.26797154
48343,0,USTexasMorris,Texas,Morris,2021-01-05 08:08:23.940843,2020-04-26 00:00:00.000000,0.22005266,0.42778769,0.82080935,27,52,101,14,30,62,0.12074893,0.24428138,0.50704694,0.09490041,0.16538023,0.25501294
48343,0,USTexasMorris,Texas,Morris,2021-01-05 08:08:23.940843,2020-04-27 00:00:00.000000,0.22420005,0.42131244,0.80483768,27,52,99,15,30,64,0.12380494,0.24227799,0.51678885,0.09490345,0.16516135,0.25516033
48343,0,USTexasMorris,Texas,Morris,2021-01-05 08:08:23.940843,2020-04-28 00:00:00.000000,0.22846379,0.42318677,0.79325535,28,52,98,15,30,65,0.12652063,0.24395466,0.52705938,0.09469746,0.16345592,0.25506789
48343,0,USTexasMorris,Texas,Morris,2021-01-05 08:08:23.940843,2020-04-29 00:00:00.000000,0.23281867,0.41853172,0.80073602,28,51,99,15,30,66,0.12908177,0.24259869,0.53721879,0.09170336,0.16647153,0.25401382
48343,0,USTexasMorris,Texas,Morris,2021-01-05 08:08:23.940843,2020-04-30 00:00:00.000000,0.23338858,0.42075177,0.80953186,28,52,100,16,29,67,0.13157791,0.24031387,0.54682171,0.09062302,0.16851953,0.24942595
48343,0,USTexasMorris,Texas,Morris,2021-01-05 08:08:23.940843,2020-05-01 00:00:00.000000,0.22209960,0.41524412,0.81813233,27,51,101,16,29,68,0.13208326,0.24041006,0.55549258,0.08817119,0.16957559,0.24047867
48343,0,USTexasMorris,Texas,Morris,2021-01-05 08:08:23.940843,2020-05-02 00:00:00.000000,0.21142605,0.41717190,0.82618932,26,51,102,15,29,69,0.12587281,0.23841229,0.56302963,0.08788667,0.16704494,0.23943403
48343,0,USTexasMorris,Texas,Morris,2021-01-05 08:08:23.940843,2020-05-03 00:00:00.000000,0.20136938,0.41263309,0.83321479,24,51,103,14,29,70,0.11990807,0.23555966,0.56938016,0.08892362,0.16791937,0.23847112
48343,0,USTexasMorris,Texas,Morris,2021-01-05 08:08:23.940843,2020-05-04 00:00:00.000000,0.19762757,0.40852682,0.84669412,24,50,104,14,29,71,0.11422605,0.23507603,0.57463984,0.08932556,0.16812040,0.23254216
48343,0,USTexasMorris,Texas,Morris,2021-01-05 08:08:23.940843,2020-05-05 00:00:00.000000,0.20645875,0.41023503,0.83093233,25,50,102,13,29,71,0.11019325,0.23695292,0.57967482,0.08937407,0.16740994,0.23726372
48343,0,USTexasMorris,Texas,Morris,2021-01-05 08:08:23.940843,2020-05-06 00:00:00.000000,0.21604146,0.43268232,0.82569948,26,53,102,13,29,70,0.11122486,0.24114032,0.56846845,0.09109107,0.16704254,0.23940864
48343,0,USTexasMorris,Texas,Morris,2021-01-05 08:08:23.940843,2020-05-07 00:00:00.000000,0.21133319,0.45838734,0.81702178,26,56,101,14,30,68,0.11562222,0.24760109,0.55655146,0.09237844,0.16272279,0.24017923
48343,0,USTexasMorris,Texas,Morris,2021-01-05 08:08:23.940843,2020-05-08 00:00:00.000000,0.20513591,0.45105010,0.80703814,25,55,99,14,30,67,0.12047902,0.24985937,0.54449143,0.09108699,0.16511430,0.24564218
48343,0,USTexasMorris,Texas,Morris,2021-01-05 08:08:23.940843,2020-05-09 00:00:00.000000,0.20831826,0.43875349,0.82897915,25,54,102,14,31,65,0.12051440,0.25060036,0.53254830,0.09217391,0.15858387,0.25833716
48343,0,USTexasMorris,Texas,Morris,2021-01-05 08:08:23.940843,2020-05-10 00:00:00.000000,0.20929731,0.44582251,0.82240607,25,55,101,14,31,64,0.11855525,0.25135678,0.52166134,0.09344123,0.15966999,0.25266752
48343,0,USTexasMorris,Texas,Morris,2021-01-05 08:08:23.940843,2020-05-11 00:00:00.000000,0.20798348,0.44573918,0.83197667,25,55,103,14,31,63,0.11723375,0.25552577,0.51593344,0.09461297,0.16005851,0.24859737
48343,0,USTexasMorris,Texas,Morris,2021-01-05 08:08:23.940843,2020-05-12 00:00:00.000000,0.20650772,0.45307402,0.84423722,25,56,104,14,31,64,0.11706130,0.25192815,0.51825329,0.09449603,0.15891113,0.25542154
48343,0,USTexasMorris,Texas,Morris,2021-01-05 08:08:23.940843,2020-05-13 00:00:00.000000,0.21022046,0.45840916,0.84537949,26,56,104,14,31,65,0.11443641,0.25504392,0.52563631,0.09365007,0.15944166,0.26066697
48343,0,USTexasMorris,Texas,Morris,2021-01-05 08:08:23.940843,2020-05-14 00:00:00.000000,0.20746973,0.46224678,0.85341256,25,57,105,14,31,65,0.11530727,0.25715384,0.52831534,0.09008122,0.15745428,0.26255296
48343,0,USTexasMorris,Texas,Morris,2021-01-05 08:08:23.940843,2020-05-15 00:00:00.000000,0.20506097,0.46089760,0.86679770,25,57,107,14,32,65,0.11676259,0.26088289,0.52805357,0.09091038,0.15788794,0.25924093
48343,0,USTexasMorris,Texas,Morris,2021-01-05 08:08:23.940843,2020-05-16 00:00:00.000000,0.20290737,0.46805535,0.87178001,25,57,107,14,32,65,0.11529157,0.26278824,0.52849440,0.09206675,0.15907486,0.25345165
48343,0,USTexasMorris,Texas,Morris,2021-01-05 08:08:23.940843,2020-05-17 00:00:00.000000,0.20096087,0.46715734,0.87605794,24,57,108,14,32,65,0.11399639,0.26298216,0.52931574,0.09296470,0.15923166,0.25593732
48343,0,USTexasMorris,Texas,Morris,2021-01-05 08:08:23.940843,2020-05-18 00:00:00.000000,0.21028486,0.46463002,0.85411147,26,57,105,13,32,65,0.11283581,0.26108553,0.53033555,0.09365517,0.16093087,0.28997470
48343,0,USTexasMorris,Texas,Morris,2021-01-05 08:08:23.940843,2020-05-19 00:00:00.000000,0.20946991,0.47212429,0.83173129,25,58,103,14,32,65,0.11560732,0.26270472,0.52948793,0.09355818,0.16281013,0.28447689
48343,0,USTexasMorris,Texas,Morris,2021-01-05 08:08:23.940843,2020-05-20 00:00:00.000000,0.20868884,0.47133573,0.80848104,25,58,100,14,32,65,0.12019633,0.26497287,0.52750092,0.09147952,0.16389651,0.28049642
48343,0,USTexasMorris,Texas,Morris,2021-01-05 08:08:23.940843,2020-05-21 00:00:00.000000,0.20823590,0.47180536,0.80577457,25,58,99,14,32,65,0.12059633,0.26570658,0.52490836,0.08855744,0.16607919,0.27716681
48343,0,USTexasMorris,Texas,Morris,2021-01-05 08:08:23.940843,2020-05-22 00:00:00.000000,0.20787865,0.46627102,0.83755907,25,57,103,14,32,64,0.11999147,0.26306508,0.52218749,0.08591486,0.16745443,0.27036301
48343,0,USTexasMorris,Texas,Morris,2021-01-05 08:08:23.940843,2020-05-23 00:00:00.000000,0.20758799,0.47794834,0.86982502,25,59,107,14,33,64,0.11961775,0.26659098,0.51988325,0.09249115,0.16810061,0.25679973
48343,0,USTexasMorris,Texas,Morris,2021-01-05 08:08:23.940843,2020-05-24 00:00:00.000000,0.20735762,0.48582493,0.90262199,25,60,111,14,32,64,0.11936336,0.26506339,0.51861432,0.10073115,0.16896777,0.25177630
48343,0,USTexasMorris,Texas,Morris,2021-01-05 08:08:23.940843,2020-05-25 00:00:00.000000,0.20962609,0.47929886,0.92374830,25,59,114,14,33,64,0.11917852,0.27105010,0.51876572,0.10124452,0.16778651,0.24696110
48343,0,USTexasMorris,Texas,Morris,2021-01-05 08:08:23.940843,2020-05-26 00:00:00.000000,0.21194541,0.46819713,0.92636894,26,58,114,14,33,64,0.11976988,0.26885893,0.52123170,0.10139999,0.16897722,0.24758573
48343,0,USTexasMorris,Texas,Morris,2021-01-05 08:08:23.940843,2020-05-27 00:00:00.000000,0.21442607,0.46007613,0.92872288,26,56,115,14,32,65,0.12078501,0.26536966,0.52694306,0.10179245,0.16814970,0.25742132
48343,0,USTexasMorris,Texas,Morris,2021-01-05 08:08:23.940843,2020-05-28 00:00:00.000000,0.21716297,0.45298095,0.93090854,26,56,115,15,31,66,0.12203385,0.25778859,0.54006349,0.10280915,0.16840840,0.26035865
48343,0,USTexasMorris,Texas,Morris,2021-01-05 08:08:23.940843,2020-05-29 00:00:00.000000,0.22070593,0.45276167,0.93307465,27,56,115,15,31,68,0.12346181,0.25519456,0.55136264,0.10340042,0.17044094,0.26070693
48343,0,USTexasMorris,Texas,Morris,2021-01-05 08:08:23.940843,2020-05-30 00:00:00.000000,0.22615719,0.45628169,0.94039330,28,56,116,15,31,69,0.12521368,0.25122532,0.56127976,0.10459689,0.16935215,0.26078777
48343,0,USTexasMorris,Texas,Morris,2021-01-05 08:08:23.940843,2020-05-31 00:00:00.000000,0.22205148,0.45968187,0.95326054,27,56,118,15,30,70,0.12769809,0.24904225,0.57024834,0.10752853,0.17001824,0.26572910
48343,0,USTexasMorris,Texas,Morris,2021-01-05 08:08:23.940843,2020-06-01 00:00:00.000000,0.22296541,0.44913268,0.94857928,27,55,117,15,30,71,0.12841310,0.24800177,0.57856599,0.10769655,0.17160797,0.28289089
48343,0,USTexasMorris,Texas,Morris,2021-01-05 08:08:23.940843,2020-06-02 00:00:00.000000,0.22128687,0.44047716,0.95819096,27,54,118,15,31,71,0.12514828,0.25152227,0.58085395,0.10780309,0.17238441,0.28863371
48343,0,USTexasMorris,Texas,Morris,2021-01-05 08:08:23.940843,2020-06-03 00:00:00.000000,0.22037679,0.43558209,0.96758536,27,53,119,15,31,71,0.12326292,0.25241166,0.57966870,0.10784671,0.17467084,0.29036810
48343,0,USTexasMorris,Texas,Morris,2021-01-05 08:08:23.940843,2020-06-04 00:00:00.000000,0.21717746,0.43469598,0.97642462,26,53,120,14,31,71,0.11988060,0.25072418,0.57649967,0.10786328,0.17577360,0.29116459
48343,0,USTexasMorris,Texas,Morris,2021-01-05 08:08:23.940843,2020-06-05 00:00:00.000000,0.21941372,0.43618913,0.98433492,27,54,121,13,30,70,0.11241210,0.24896351,0.57221476,0.10797163,0.17632748,0.29920186
48343,0,USTexasMorris,Texas,Morris,2021-01-05 08:08:23.940843,2020-06-06 00:00:00.000000,0.21296038,0.43803074,0.99099533,26,54,122,14,30,71,0.11684030,0.24878277,0.57751208,0.11327970,0.17462426,0.29999723
48343,0,USTexasMorris,Texas,Morris,2021-01-05 08:08:23.940843,2020-06-07 00:00:00.000000,0.20669701,0.44181506,0.99269829,25,54,122,14,30,72,0.12070712,0.24777649,0.58238422,0.10962648,0.17788643,0.30000484
48343,0,USTexasMorris,Texas,Morris,2021-01-05 08:08:23.940843,2020-06-08 00:00:00.000000,0.19678605,0.45758262,0.99253017,24,56,122,14,31,72,0.12055070,0.25156964,0.58654865,0.11696457,0.18350009,0.30004691
48343,0,USTexasMorris,Texas,Morris,2021-01-05 08:08:23.940843,2020-06-09 00:00:00.000000,0.18750785,0.44961616,1.00420902,23,55,124,14,31,73,0.11861103,0.25177903,0.59199655,0.12169250,0.18428470,0.30054226
48343,0,USTexasMorris,Texas,Morris,2021-01-05 08:08:23.940843,2020-06-10 00:00:00.000000,0.17886999,0.44417767,1.00921407,22,55,125,14,31,74,0.11579462,0.25553216,0.59807130,0.12081924,0.18328322,0.30470151
48343,0,USTexasMorris,Texas,Morris,2021-01-05 08:08:23.940843,2020-06-11 00:00:00.000000,0.17114764,0.44257397,1.01036644,21,54,125,13,31,74,0.11264699,0.25786125,0.60436481,0.12047175,0.18840757,0.31185266
48343,0,USTexasMorris,Texas,Morris,2021-01-05 08:08:23.940843,2020-06-12 00:00:00.000000,0.16420887,0.44896227,1.00303955,20,55,124,13,31,75,0.10954570,0.25761941,0.61065930,0.12068606,0.19235642,0.30961408
48343,0,USTexasMorris,Texas,Morris,2021-01-05 08:08:23.940843,2020-06-13 00:00:00.000000,0.15785777,0.46374285,1.03940816,19,57,128,13,32,76,0.10677938,0.26251683,0.61687933,0.12211692,0.19599367,0.31153265
48343,0,USTexasMorris,Texas,Morris,2021-01-05 08:08:23.940843,2020-06-14 00:00:00.000000,0.15484420,0.47008449,1.05328485,19,58,130,12,32,77,0.10450069,0.26256227,0.62300436,0.12648357,0.20086375,0.31298409
48343,0,USTexasMorris,Texas,Morris,2021-01-05 08:08:23.940843,2020-06-15 00:00:00.000000,0.17223589,0.48621101,1.06931820,21,60,132,12,32,77,0.10191698,0.26402963,0.62909204,0.12953269,0.20532776,0.31646981
48343,0,USTexasMorris,Texas,Morris,2021-01-05 08:08:23.940843,2020-06-16 00:00:00.000000,0.19282700,0.48712110,1.08725880,23,60,134,13,33,79,0.10933729,0.27191938,0.64255324,0.13141555,0.20510239,0.32125008
48343,0,USTexasMorris,Texas,Morris,2021-01-05 08:08:23.940843,2020-06-17 00:00:00.000000,0.21506258,0.49172124,1.10708407,26,60,137,15,34,82,0.12173652,0.27693240,0.66316240,0.13289753,0.21122691,0.32563458
48343,0,USTexasMorris,Texas,Morris,2021-01-05 08:08:23.940843,2020-06-18 00:00:00.000000,0.21836876,0.50072502,1.13189101,27,62,140,14,34,83,0.11782332,0.28225366,0.67154758,0.13574405,0.21421648,0.32830506
48343,0,USTexasMorris,Texas,Morris,2021-01-05 08:08:23.940843,2020-06-19 00:00:00.000000,0.21913275,0.51053211,1.15344552,27,63,142,14,35,82,0.11382881,0.29004633,0.66494789,0.14154031,0.21869366,0.32955743
48343,0,USTexasMorris,Texas,Morris,2021-01-05 08:08:23.940843,2020-06-20 00:00:00.000000,0.21289592,0.51636189,1.17174540,26,63,145,15,35,83,0.12410878,0.28981748,0.67741486,0.14545629,0.22753951,0.33971032
48343,0,USTexasMorris,Texas,Morris,2021-01-05 08:08:23.940843,2020-06-21 00:00:00.000000,0.21234004,0.54037061,1.18980146,26,66,147,15,37,85,0.12808128,0.29996223,0.68946418,0.14389913,0.23424885,0.34816575
48343,0,USTexasMorris,Texas,Morris,2021-01-05 08:08:23.940843,2020-06-22 00:00:00.000000,0.22345053,0.54897322,1.18767182,27,68,147,15,38,86,0.12481383,0.30978704,0.70110193,0.14193659,0.23179475,0.34989211
48343,0,USTexasMorris,Texas,Morris,2021-01-05 08:08:23.940843,2020-06-23 00:00:00.000000,0.23428061,0.56912535,1.21442148,29,70,150,15,39,87,0.12534413,0.31683305,0.70798768,0.14064180,0.23310331,0.35424934
48343,0,USTexasMorris,Texas,Morris,2021-01-05 08:08:23.940843,2020-06-24 00:00:00.000000,0.24495062,0.59139065,1.29262251,30,73,160,15,40,88,0.12769501,0.32976768,0.71191563,0.14363815,0.23724009,0.36329310
48343,0,USTexasMorris,Texas,Morris,2021-01-05 08:08:23.940843,2020-06-25 00:00:00.000000,0.25541550,0.61119955,1.36969253,31,75,169,16,41,88,0.13077441,0.33782650,0.71408498,0.14804293,0.23853958,0.36792196
48343,0,USTexasMorris,Texas,Morris,2021-01-05 08:08:23.940843,2020-06-26 00:00:00.000000,0.26572711,0.63595292,1.40681223,32,78,174,16,42,88,0.13417185,0.34197814,0.71562998,0.14724343,0.24464149,0.37022272
48343,0,USTexasMorris,Texas,Morris,2021-01-05 08:08:23.940843,2020-06-27 00:00:00.000000,0.26274231,0.66170219,1.45471360,32,81,180,17,44,93,0.13777871,0.35641846,0.75317674,0.14589842,0.25918829,0.37152106
48343,0,USTexasMorris,Texas,Morris,2021-01-05 08:08:23.940843,2020-06-28 00:00:00.000000,0.25771848,0.68508036,1.52021388,31,84,188,17,45,98,0.14164739,0.37079637,0.79388557,0.14916662,0.27094560,0.36605747
48343,0,USTexasMorris,Texas,Morris,2021-01-05 08:08:23.940843,2020-06-29 00:00:00.000000,0.27550075,0.69721674,1.55249535,34,86,192,18,46,103,0.14587148,0.37869455,0.83641751,0.15370368,0.27562493,0.36922742
48343,0,USTexasMorris,Texas,Morris,2021-01-05 08:08:23.940843,2020-06-30 00:00:00.000000,0.29499745,0.72640708,1.58515235,36,89,196,19,49,107,0.15729012,0.39568324,0.86813353,0.15833213,0.27623823,0.37264267
48343,0,USTexasMorris,Texas,Morris,2021-01-05 08:08:23.940843,2020-07-01 00:00:00.000000,0.31428719,0.74875257,1.61367617,38,92,199,21,50,110,0.17165301,0.40957058,0.89211771,0.15907644,0.27645064,0.37354975
48343,0,USTexasMorris,Texas,Morris,2021-01-05 08:08:23.940843,2020-07-02 00:00:00.000000,0.33688686,0.77927589,1.64118876,41,96,203,23,52,112,0.18569730,0.42287409,0.91057241,0.15897643,0.27595079,0.37919152
48343,0,USTexasMorris,Texas,Morris,2021-01-05 08:08:23.940843,2020-07-03 00:00:00.000000,0.35985738,0.81040617,1.67154101,44,100,207,24,54,116,0.19418072,0.43624646,0.94292596,0.15898934,0.27820063,0.38844412
48343,0,USTexasMorris,Texas,Morris,2021-01-05 08:08:23.940843,2020-07-04 00:00:00.000000,0.38349906,0.84297854,1.69664850,47,104,210,23,55,121,0.19244061,0.44816263,0.98272770,0.16001185,0.27729421,0.40638695
48343,0,USTexasMorris,Texas,Morris,2021-01-05 08:08:23.940843,2020-07-05 00:00:00.000000,0.40726128,0.86799698,1.72429211,50,107,213,24,57,126,0.19660027,0.46344121,1.02209053,0.16191675,0.27848765,0.43838434
48343,0,USTexasMorris,Texas,Morris,2021-01-05 08:08:23.940843,2020-07-06 00:00:00.000000,0.41854083,0.90090307,1.77474971,51,111,219,26,59,131,0.21626517,0.48052853,1.06062789,0.16523074,0.28227583,0.46038692
48343,0,USTexasMorris,Texas,Morris,2021-01-05 08:08:23.940843,2020-07-07 00:00:00.000000,0.42975000,0.91221336,1.80943882,53,113,224,28,61,135,0.23336029,0.49619129,1.09456868,0.17043415,0.28745269,0.46319480
48343,0,USTexasMorris,Texas,Morris,2021-01-05 08:08:23.940843,2020-07-08 00:00:00.000000,0.44078342,0.93195974,1.86648270,54,115,231,30,64,138,0.24661077,0.52185003,1.12193535,0.17737535,0.28744940,0.46408950
48343,0,USTexasMorris,Texas,Morris,2021-01-05 08:08:23.940843,2020-07-09 00:00:00.000000,0.47475424,0.96702354,1.93275707,58,119,239,32,67,141,0.26135746,0.54382755,1.14393216,0.17834656,0.29515158,0.46287632
48343,0,USTexasMorris,Texas,Morris,2021-01-05 08:08:23.940843,2020-07-10 00:00:00.000000,0.48783370,1.02203741,1.99954816,60,126,247,32,68,144,0.26521871,0.55509350,1.17042491,0.17820730,0.30085491,0.45036018
48343,0,USTexasMorris,Texas,Morris,2021-01-05 08:08:23.940843,2020-07-11 00:00:00.000000,0.49097541,1.06016791,2.06376758,60,131,255,36,71,148,0.29099095,0.57387115,1.19767476,0.17837229,0.30665134,0.47882202
48343,0,USTexasMorris,Texas,Morris,2021-01-05 08:08:23.940843,2020-07-12 00:00:00.000000,0.49444761,1.10165571,2.12595118,61,136,263,38,74,151,0.30910010,0.59864085,1.22572811,0.18804329,0.30619280,0.49503781
48343,0,USTexasMorris,Texas,Morris,2021-01-05 08:08:23.940843,2020-07-13 00:00:00.000000,0.55235145,1.12841766,2.17304039,68,139,269,39,78,155,0.32111974,0.63294820,1.25495677,0.18312533,0.31680485,0.49872735
48343,0,USTexasMorris,Texas,Morris,2021-01-05 08:08:23.940843,2020-07-14 00:00:00.000000,0.61059675,1.20193367,2.21997123,75,148,275,42,80,158,0.34051556,0.65381868,1.28032142,0.17892333,0.31751373,0.49769466
48343,0,USTexasMorris,Texas,Morris,2021-01-05 08:08:23.940843,2020-07-15 00:00:00.000000,0.64937245,1.25143395,2.28925283,80,155,283,43,83,161,0.35159285,0.67742912,1.30369315,0.18311226,0.31942092,0.47560109
48343,0,USTexasMorris,Texas,Morris,2021-01-05 08:08:23.940843,2020-07-16 00:00:00.000000,0.64925220,1.29614242,2.39147083,80,160,296,44,85,164,0.36085885,0.69275868,1.32597376,0.19305575,0.31641264,0.46996740
48343,0,USTexasMorris,Texas,Morris,2021-01-05 08:08:23.940843,2020-07-17 00:00:00.000000,0.67063802,1.34235353,2.46179502,83,166,304,45,87,166,0.36901602,0.70657159,1.34760765,0.19372239,0.31283896,0.46815873
48343,0,USTexasMorris,Texas,Morris,2021-01-05 08:08:23.940843,2020-07-18 00:00:00.000000,0.67382450,1.38190681,2.50879053,83,171,310,46,91,171,0.37335851,0.73813305,1.38081335,0.19345690,0.31222171,0.46423920
48343,0,USTexasMorris,Texas,Morris,2021-01-05 08:08:23.940843,2020-07-19 00:00:00.000000,0.66192001,1.41729288,2.54261553,81,175,314,45,93,175,0.36949623,0.75809131,1.41911474,0.19335313,0.30677424,0.48248504
48343,0,USTexasMorris,Texas,Morris,2021-01-05 08:08:23.940843,2020-07-20 00:00:00.000000,0.66360415,1.46069552,2.55405011,82,180,316,44,96,179,0.35877454,0.78252569,1.44689389,0.18577592,0.30426583,0.47987079
48343,0,USTexasMorris,Texas,Morris,2021-01-05 08:08:23.940843,2020-07-21 00:00:00.000000,0.67218866,1.51340840,2.56166778,83,187,317,43,100,181,0.34967327,0.80795620,1.46314848,0.18597328,0.30518324,0.47485259
48343,0,USTexasMorris,Texas,Morris,2021-01-05 08:08:23.940843,2020-07-22 00:00:00.000000,0.68075979,1.56017453,2.56662203,84,193,317,43,103,183,0.35208290,0.83411208,1.47873322,0.18596108,0.31269800,0.46056670
48343,0,USTexasMorris,Texas,Morris,2021-01-05 08:08:23.940843,2020-07-23 00:00:00.000000,0.68933789,1.60984397,2.63001051,85,199,325,44,105,188,0.35573789,0.85512037,1.51807268,0.18599533,0.31009755,0.44368148
48343,0,USTexasMorris,Texas,Morris,2021-01-05 08:08:23.940843,2020-07-24 00:00:00.000000,0.69697206,1.63024132,2.69630795,86,201,334,44,108,192,0.35984528,0.87916585,1.55639552,0.18609182,0.30343654,0.44206534
48343,0,USTexasMorris,Texas,Morris,2021-01-05 08:08:23.940843,2020-07-25 00:00:00.000000,0.70344339,1.67389273,2.75389680,87,207,341,45,111,197,0.36393189,0.89609261,1.59239326,0.17705309,0.29783906,0.44317031
48343,0,USTexasMorris,Texas,Morris,2021-01-05 08:08:23.940843,2020-07-26 00:00:00.000000,0.70895327,1.71462750,2.80318788,87,212,347,45,113,201,0.36770869,0.91576879,1.62582729,0.18297678,0.28975321,0.44317907
48343,0,USTexasMorris,Texas,Morris,2021-01-05 08:08:23.940843,2020-07-27 00:00:00.000000,0.70884065,1.76242155,2.78696157,87,218,345,45,116,205,0.37107623,0.93941590,1.65696213,0.17368377,0.28972103,0.43870776
48343,0,USTexasMorris,Texas,Morris,2021-01-05 08:08:23.940843,2020-07-28 00:00:00.000000,0.75205529,1.80352808,2.75925253,93,223,341,47,121,207,0.37973387,0.97980329,1.67167172,0.16413350,0.28720532,0.43997945
48343,0,USTexasMorris,Texas,Morris,2021-01-05 08:08:23.940843,2020-07-29 00:00:00.000000,0.81236372,1.81438440,2.77708776,100,224,344,50,122,207,0.40626271,0.99215004,1.67558248,0.15504359,0.28520539,0.44009122
48343,0,USTexasMorris,Texas,Morris,2021-01-05 08:08:23.940843,2020-07-30 00:00:00.000000,0.87402162,1.83799608,2.79767929,108,227,346,54,125,208,0.43728223,1.01224083,1.68472763,0.15594712,0.27922926,0.43698157
48343,0,USTexasMorris,Texas,Morris,2021-01-05 08:08:23.940843,2020-07-31 00:00:00.000000,0.91438919,1.86718907,2.80673786,113,231,347,58,128,210,0.47070819,1.03844558,1.69738119,0.15912657,0.27133678,0.43727187
48343,0,USTexasMorris,Texas,Morris,2021-01-05 08:08:23.940843,2020-08-01 00:00:00.000000,0.90607968,1.90929924,2.81866252,112,236,349,62,131,210,0.50535576,1.06077911,1.69970627,0.15701522,0.26888315,0.41061090
48343,0,USTexasMorris,Texas,Morris,2021-01-05 08:08:23.940843,2020-08-02 00:00:00.000000,0.89744693,1.94379507,2.87820177,111,240,356,63,133,212,0.51260825,1.07504015,1.71329658,0.16005107,0.26166249,0.39345229
48343,0,USTexasMorris,Texas,Morris,2021-01-05 08:08:23.940843,2020-08-03 00:00:00.000000,0.87370089,1.91794160,2.88304059,108,237,357,62,136,214,0.50793840,1.09937450,1.73398006,0.16516041,0.25554666,0.38889510
48343,0,USTexasMorris,Texas,Morris,2021-01-05 08:08:23.940843,2020-08-04 00:00:00.000000,0.84992653,1.92765651,2.91695413,105,238,361,61,136,216,0.49886414,1.10331210,1.74800324,0.16452176,0.25168476,0.37865575
48343,0,USTexasMorris,Texas,Morris,2021-01-05 08:08:23.940843,2020-08-05 00:00:00.000000,0.82666294,1.95329441,2.94606754,102,241,364,60,134,217,0.48741688,1.08910056,1.75585849,0.16510699,0.24566678,0.36199264
48343,0,USTexasMorris,Texas,Morris,2021-01-05 08:08:23.940843,2020-08-06 00:00:00.000000,0.80512035,1.97204069,2.94629595,99,244,364,58,133,217,0.47494177,1.07486763,1.75826195,0.15409028,0.24180158,0.34984509
48343,0,USTexasMorris,Texas,Morris,2021-01-05 08:08:23.940843,2020-08-07 00:00:00.000000,0.78496408,1.97130070,2.94201737,97,244,364,57,132,217,0.46254031,1.07337264,1.75495553,0.15538426,0.23772768,0.34810333
48343,0,USTexasMorris,Texas,Morris,2021-01-05 08:08:23.940843,2020-08-08 00:00:00.000000,0.76577519,1.92305362,2.93493232,94,238,363,55,133,215,0.45082014,1.07706777,1.74356427,0.15773154,0.22929236,0.34551010
48343,0,USTexasMorris,Texas,Morris,2021-01-05 08:08:23.940843,2020-08-09 00:00:00.000000,0.75804177,1.88625225,2.92141696,93,233,361,54,132,213,0.43960100,1.07078712,1.72418324,0.15863021,0.22203152,0.34221834
48343,0,USTexasMorris,Texas,Morris,2021-01-05 08:08:23.940843,2020-08-10 00:00:00.000000,0.74939912,1.87300000,2.87976286,92,232,356,53,133,213,0.42886839,1.07503120,1.72399182,0.15640789,0.21882485,0.33891718
48343,0,USTexasMorris,Texas,Morris,2021-01-05 08:08:23.940843,2020-08-11 00:00:00.000000,0.75247672,1.80650366,2.79642028,93,223,346,52,131,214,0.42422474,1.06108944,1.73194378,0.15550066,0.21573259,0.33594051
48343,0,USTexasMorris,Texas,Morris,2021-01-05 08:08:23.940843,2020-08-12 00:00:00.000000,0.75860847,1.76265145,2.68603562,93,218,332,52,128,215,0.42313644,1.03925171,1.73714694,0.15418930,0.21422468,0.33137340
48343,0,USTexasMorris,Texas,Morris,2021-01-05 08:08:23.940843,2020-08-13 00:00:00.000000,0.77157209,1.72396367,2.57112992,95,213,318,52,125,215,0.42450349,1.01370061,1.73840189,0.14877423,0.21307239,0.32572289
48343,0,USTexasMorris,Texas,Morris,2021-01-05 08:08:23.940843,2020-08-14 00:00:00.000000,0.79258515,1.69019922,2.52534591,98,209,312,53,122,214,0.42884375,0.98843775,1.73398529,0.14101468,0.21419474,0.32535117
48343,0,USTexasMorris,Texas,Morris,2021-01-05 08:08:23.940843,2020-08-15 00:00:00.000000,0.81799680,1.66662885,2.47560072,101,206,306,54,119,213,0.43723230,0.96167014,1.72406730,0.13916653,0.21308389,0.32375267
48343,0,USTexasMorris,Texas,Morris,2021-01-05 08:08:23.940843,2020-08-16 00:00:00.000000,0.84500170,1.64060680,2.46784066,104,203,305,55,116,205,0.44875830,0.94266301,1.65720578,0.13356200,0.21053251,0.31658084
48343,0,USTexasMorris,Texas,Morris,2021-01-05 08:08:23.940843,2020-08-17 00:00:00.000000,0.85032561,1.60246819,2.45100965,105,198,303,55,115,195,0.44475348,0.93183459,1.58103036,0.13371187,0.20877198,0.31460837
48343,0,USTexasMorris,Texas,Morris,2021-01-05 08:08:23.940843,2020-08-18 00:00:00.000000,0.83386974,1.56204643,2.43090182,103,193,301,53,114,186,0.43519454,0.92082142,1.50941092,0.13458805,0.20827895,0.31593434
48343,0,USTexasMorris,Texas,Morris,2021-01-05 08:08:23.940843,2020-08-19 00:00:00.000000,0.81099173,1.53281785,2.40746427,100,189,298,52,112,178,0.42670201,0.90915434,1.44372085,0.13512702,0.20782271,0.31501046
48343,0,USTexasMorris,Texas,Morris,2021-01-05 08:08:23.940843,2020-08-20 00:00:00.000000,0.80714839,1.50434987,2.38161252,99,186,295,52,110,176,0.41998834,0.89364200,1.42178557,0.13505365,0.20869219,0.31293456
48343,0,USTexasMorris,Texas,Morris,2021-01-05 08:08:23.940843,2020-08-21 00:00:00.000000,0.79201347,1.48472367,2.35356914,98,183,291,52,109,173,0.42457208,0.88712989,1.40144688,0.13498766,0.20877549,0.31849245
48343,0,USTexasMorris,Texas,Morris,2021-01-05 08:08:23.940843,2020-08-22 00:00:00.000000,0.75868931,1.46909215,2.32355647,93,181,287,53,108,171,0.42928684,0.87461844,1.38393133,0.13497137,0.20847033,0.31821378
48343,0,USTexasMorris,Texas,Morris,2021-01-05 08:08:23.940843,2020-08-23 00:00:00.000000,0.72858438,1.44272766,2.29190540,90,178,283,52,105,169,0.42022728,0.85183029,1.36783928,0.13516625,0.20780067,0.31802222
48343,0,USTexasMorris,Texas,Morris,2021-01-05 08:08:23.940843,2020-08-24 00:00:00.000000,0.71578417,1.43102355,2.26789362,88,177,280,49,103,167,0.40249422,0.83932960,1.35157963,0.13534361,0.20802191,0.31883860
48343,0,USTexasMorris,Texas,Morris,2021-01-05 08:08:23.940843,2020-08-25 00:00:00.000000,0.70795631,1.41313595,2.24311823,87,175,277,49,102,165,0.39749997,0.82504317,1.33648809,0.13560438,0.20632033,0.32632551
48343,0,USTexasMorris,Texas,Morris,2021-01-05 08:08:23.940843,2020-08-26 00:00:00.000000,0.70428648,1.36784469,2.21802869,87,169,274,49,99,163,0.39563442,0.80351472,1.32250098,0.13460539,0.20481860,0.32863294
48343,0,USTexasMorris,Texas,Morris,2021-01-05 08:08:23.940843,2020-08-27 00:00:00.000000,0.70189671,1.34058130,2.19202824,86,166,271,48,97,162,0.39390076,0.78922487,1.30941456,0.13682635,0.20744821,0.33039294
48343,0,USTexasMorris,Texas,Morris,2021-01-05 08:08:23.940843,2020-08-28 00:00:00.000000,0.67851920,1.30350115,2.16339453,84,161,268,47,97,160,0.38413799,0.78407907,1.29700478,0.13521703,0.20838904,0.32754402
48343,0,USTexasMorris,Texas,Morris,2021-01-05 08:08:23.940843,2020-08-29 00:00:00.000000,0.65648710,1.28123941,2.12919913,81,158,263,47,96,159,0.38328015,0.77634738,1.28508350,0.13299166,0.21191901,0.32985852
48343,0,USTexasMorris,Texas,Morris,2021-01-05 08:08:23.940843,2020-08-30 00:00:00.000000,0.63572792,1.26166936,2.08827047,78,156,258,48,94,157,0.38867895,0.76421989,1.27350633,0.13087381,0.21642291,0.32867014
48343,0,USTexasMorris,Texas,Morris,2021-01-05 08:08:23.940843,2020-08-31 00:00:00.000000,0.62444856,1.24617781,2.02793114,77,154,251,47,93,155,0.38654873,0.75246909,1.25597132,0.12912141,0.21554831,0.32803500
48343,0,USTexasMorris,Texas,Morris,2021-01-05 08:08:23.940843,2020-09-01 00:00:00.000000,0.61432458,1.23838819,1.96619204,76,153,243,47,91,151,0.38315247,0.74126404,1.22515316,0.12787497,0.21253782,0.32785925
48343,0,USTexasMorris,Texas,Morris,2021-01-05 08:08:23.940843,2020-09-02 00:00:00.000000,0.60559556,1.23132868,1.92104730,75,152,237,47,90,149,0.37974901,0.73352624,1.20658177,0.12726651,0.21638569,0.32932143
48343,0,USTexasMorris,Texas,Morris,2021-01-05 08:08:23.940843,2020-09-03 00:00:00.000000,0.59778197,1.21564975,1.91646239,74,150,237,46,89,149,0.37652254,0.72101831,1.21075221,0.12760741,0.21595474,0.32415586
48343,0,USTexasMorris,Texas,Morris,2021-01-05 08:08:23.940843,2020-09-04 00:00:00.000000,0.59323488,1.20783534,1.89962191,73,149,235,46,88,150,0.37209829,0.71415216,1.21195473,0.12885513,0.21812948,0.31755894
48343,0,USTexasMorris,Texas,Morris,2021-01-05 08:08:23.940843,2020-09-05 00:00:00.000000,0.59510900,1.18632600,1.89418554,73,146,234,44,87,149,0.36213706,0.70395036,1.20573555,0.12988867,0.21855608,0.31588298
48343,0,USTexasMorris,Texas,Morris,2021-01-05 08:08:23.940843,2020-09-06 00:00:00.000000,0.59698112,1.18557694,1.88279120,73,146,233,43,85,148,0.35207526,0.68659018,1.19487514,0.13337286,0.21416897,0.31364204
48343,0,USTexasMorris,Texas,Morris,2021-01-05 08:08:23.940843,2020-09-07 00:00:00.000000,0.60908301,1.16688550,1.86513767,75,144,231,42,83,146,0.34265579,0.67396587,1.18428493,0.13500187,0.21492369,0.31149291
48343,0,USTexasMorris,Texas,Morris,2021-01-05 08:08:23.940843,2020-09-08 00:00:00.000000,0.59694884,1.15183316,1.84622385,73,142,228,41,81,145,0.33720703,0.66170981,1.17363524,0.13367316,0.21620462,0.30978566
48343,0,USTexasMorris,Texas,Morris,2021-01-05 08:08:23.940843,2020-09-09 00:00:00.000000,0.57956672,1.13342761,1.85710234,71,140,230,42,80,144,0.34094314,0.65244181,1.16330871,0.13163737,0.21635379,0.31630406
48343,0,USTexasMorris,Texas,Morris,2021-01-05 08:08:23.940843,2020-09-10 00:00:00.000000,0.56404317,1.11131391,1.88719507,69,137,233,40,79,142,0.33048218,0.64556054,1.15366179,0.13085298,0.21674614,0.33525010
48343,0,USTexasMorris,Texas,Morris,2021-01-05 08:08:23.940843,2020-09-11 00:00:00.000000,0.54993601,1.10164827,1.91744068,68,136,237,39,78,141,0.32077498,0.63720169,1.14490124,0.13089952,0.21817783,0.33943291
48343,0,USTexasMorris,Texas,Morris,2021-01-05 08:08:23.940843,2020-09-12 00:00:00.000000,0.55183603,1.08992727,1.94715465,68,135,241,38,77,140,0.31317607,0.62529402,1.13700304,0.13108773,0.22357801,0.34035285
48343,0,USTexasMorris,Texas,Morris,2021-01-05 08:08:23.940843,2020-09-13 00:00:00.000000,0.54225380,1.07432730,1.97785123,67,133,245,39,75,139,0.31696057,0.60924476,1.12979608,0.13791708,0.22843827,0.34055337
48343,0,USTexasMorris,Texas,Morris,2021-01-05 08:08:23.940843,2020-09-14 00:00:00.000000,0.53213971,1.05944798,2.00272309,65,131,248,38,75,141,0.31359317,0.60617324,1.14483996,0.13890832,0.22904384,0.32485528
48343,0,USTexasMorris,Texas,Morris,2021-01-05 08:08:23.940843,2020-09-15 00:00:00.000000,0.51742602,1.04274645,2.03358458,64,129,251,37,75,143,0.30583350,0.60575094,1.16005965,0.14019463,0.22991372,0.31837632
48343,0,USTexasMorris,Texas,Morris,2021-01-05 08:08:23.940843,2020-09-16 00:00:00.000000,0.50234091,1.03700423,2.06771442,62,128,256,36,74,145,0.29475088,0.59758871,1.17608173,0.14225233,0.23135502,0.31921627
48343,0,USTexasMorris,Texas,Morris,2021-01-05 08:08:23.940843,2020-09-17 00:00:00.000000,0.49100355,1.03376184,2.09617395,60,128,259,35,73,147,0.28806271,0.59666530,1.19335408,0.14820244,0.23469529,0.32686174
48343,0,USTexasMorris,Texas,Morris,2021-01-05 08:08:23.940843,2020-09-18 00:00:00.000000,0.48233341,1.03535334,2.07528994,59,128,257,34,73,150,0.27898285,0.59262174,1.21233784,0.15914121,0.24014908,0.33785704
48343,0,USTexasMorris,Texas,Morris,2021-01-05 08:08:23.940843,2020-09-19 00:00:00.000000,0.47663451,1.03914495,2.05432479,59,128,254,33,72,152,0.27018583,0.58913442,1.23332439,0.16672505,0.24713163,0.34203754
48343,0,USTexasMorris,Texas,Morris,2021-01-05 08:08:23.940843,2020-09-20 00:00:00.000000,0.47266609,1.03436224,2.03525671,58,128,252,32,72,155,0.26180327,0.58697979,1.25641932,0.18035118,0.25764631,0.35303739
48343,0,USTexasMorris,Texas,Morris,2021-01-05 08:08:23.940843,2020-09-21 00:00:00.000000,0.47566221,1.02438804,2.01445597,58,126,249,31,73,158,0.25411891,0.58993021,1.28171190,0.19753776,0.25984118,0.36076587
48343,0,USTexasMorris,Texas,Morris,2021-01-05 08:08:23.940843,2020-09-22 00:00:00.000000,0.47919068,1.01602077,2.00710301,59,125,248,31,72,160,0.25288913,0.58632189,1.29255045,0.19889432,0.27354431,0.37042237
48343,0,USTexasMorris,Texas,Morris,2021-01-05 08:08:23.940843,2020-09-23 00:00:00.000000,0.48364386,1.00410289,2.00954434,59,124,248,31,71,159,0.25614087,0.57941491,1.28425050,0.19933612,0.28153627,0.39171111
48343,0,USTexasMorris,Texas,Morris,2021-01-05 08:08:23.940843,2020-09-24 00:00:00.000000,0.49456048,1.00317196,2.01555731,61,124,249,32,72,158,0.26243120,0.58340863,1.27967037,0.20016124,0.29125402,0.41678587
48343,0,USTexasMorris,Texas,Morris,2021-01-05 08:08:23.940843,2020-09-25 00:00:00.000000,0.51305966,0.99966788,2.01683924,63,123,249,33,72,158,0.27061005,0.58638059,1.27872870,0.20171559,0.29980274,0.42848127
48343,0,USTexasMorris,Texas,Morris,2021-01-05 08:08:23.940843,2020-09-26 00:00:00.000000,0.53340044,1.02233589,2.01601188,66,126,249,34,72,158,0.28003809,0.58508636,1.28019370,0.20453363,0.30909828,0.43298489
48343,0,USTexasMorris,Texas,Morris,2021-01-05 08:08:23.940843,2020-09-27 00:00:00.000000,0.53617648,1.03621816,2.04401010,66,128,253,35,72,160,0.29056827,0.58338485,1.29369234,0.21317137,0.32476369,0.44311463
48343,0,USTexasMorris,Texas,Morris,2021-01-05 08:08:23.940843,2020-09-28 00:00:00.000000,0.57440011,1.06498840,2.09360931,71,131,259,37,73,162,0.30243053,0.59352701,1.31016012,0.22339273,0.34182310,0.45646937
48343,0,USTexasMorris,Texas,Morris,2021-01-05 08:08:23.940843,2020-09-29 00:00:00.000000,0.59496986,1.09885696,2.14780472,73,136,266,37,74,162,0.30149995,0.60330425,1.31391102,0.22971060,0.34990781,0.47925515
48343,0,USTexasMorris,Texas,Morris,2021-01-05 08:08:23.940843,2020-09-30 00:00:00.000000,0.61713148,1.13250549,2.20335307,76,140,272,39,75,164,0.31880482,0.61275111,1.32852697,0.23080657,0.36962391,0.50116645
48343,0,USTexasMorris,Texas,Morris,2021-01-05 08:08:23.940843,2020-10-01 00:00:00.000000,0.64050893,1.18116467,2.26005564,79,146,279,41,78,168,0.33698201,0.63085436,1.35740320,0.24357071,0.37675506,0.52567594
48343,0,USTexasMorris,Texas,Morris,2021-01-05 08:08:23.940843,2020-10-02 00:00:00.000000,0.66349837,1.22167319,2.36717101,82,151,293,43,80,172,0.34954841,0.64607033,1.38908813,0.25953723,0.39839162,0.54918899
48343,0,USTexasMorris,Texas,Morris,2021-01-05 08:08:23.940843,2020-10-03 00:00:00.000000,0.66662044,1.25796516,2.48142771,82,155,307,44,82,176,0.36282516,0.66372736,1.42286362,0.26773824,0.41465149,0.57028044
48343,0,USTexasMorris,Texas,Morris,2021-01-05 08:08:23.940843,2020-10-04 00:00:00.000000,0.66993517,1.30113934,2.59985166,82,161,322,46,84,180,0.37704872,0.68202332,1.45856922,0.29033299,0.43241884,0.59393840
48343,0,USTexasMorris,Texas,Morris,2021-01-05 08:08:23.940843,2020-10-05 00:00:00.000000,0.69885423,1.36231193,2.72459454,86,168,337,48,87,185,0.39272501,0.70845275,1.49810135,0.31153542,0.44213110,0.61749590
48343,0,USTexasMorris,Texas,Morris,2021-01-05 08:08:23.940843,2020-10-06 00:00:00.000000,0.74970141,1.46070487,2.86233703,92,180,354,50,91,189,0.40528091,0.73865405,1.53255019,0.32284324,0.45665666,0.63993638
48343,0,USTexasMorris,Texas,Morris,2021-01-05 08:08:23.940843,2020-10-07 00:00:00.000000,0.82262701,1.55259120,3.00869624,101,192,372,51,95,194,0.41259136,0.77482240,1.57154092,0.32562482,0.49129958,0.74438286
48343,0,USTexasMorris,Texas,Morris,2021-01-05 08:08:23.940843,2020-10-08 00:00:00.000000,0.91483087,1.68284701,3.19321159,113,208,395,54,103,201,0.44136579,0.83360362,1.62940642,0.32782828,0.51608316,0.79897888
48343,0,USTexasMorris,Texas,Morris,2021-01-05 08:08:23.940843,2020-10-09 00:00:00.000000,1.00650817,1.80899119,3.43271959,124,224,425,60,109,216,0.48774170,0.88659184,1.74784936,0.35033903,0.54188276,0.86930932
48343,0,USTexasMorris,Texas,Morris,2021-01-05 08:08:23.940843,2020-10-10 00:00:00.000000,1.07753739,1.95279981,3.69227605,133,241,457,67,117,232,0.54146996,0.95047987,1.87595337,0.38660903,0.56554661,0.87078455
48343,0,USTexasMorris,Texas,Morris,2021-01-05 08:08:23.940843,2020-10-11 00:00:00.000000,1.16718644,2.10916954,3.97219427,144,261,492,71,129,249,0.57593738,1.04170927,2.01448823,0.40053379,0.59446307,0.90501183
48343,0,USTexasMorris,Texas,Morris,2021-01-05 08:08:23.940843,2020-10-12 00:00:00.000000,1.27409011,2.28637782,4.27314372,157,283,529,76,139,268,0.61853580,1.12645686,2.16400615,0.44306563,0.61170395,0.91442926
48343,0,USTexasMorris,Texas,Morris,2021-01-05 08:08:23.940843,2020-10-13 00:00:00.000000,1.39949816,2.47889721,4.64666674,173,307,575,83,150,283,0.67051480,1.21589744,2.28580614,0.45366014,0.64132053,0.91678096
48343,0,USTexasMorris,Texas,Morris,2021-01-05 08:08:23.940843,2020-10-14 00:00:00.000000,1.54430580,2.68655209,5.13168984,191,332,635,90,161,309,0.73242617,1.30508619,2.49470863,0.47483096,0.65661622,0.91746589
48343,0,USTexasMorris,Texas,Morris,2021-01-05 08:08:23.940843,2020-10-15 00:00:00.000000,1.71154012,2.96221198,5.66032171,212,366,701,99,174,332,0.80477690,1.41085926,2.68737776,0.48661555,0.69217419,0.94914067
48343,0,USTexasMorris,Texas,Morris,2021-01-05 08:08:23.940843,2020-10-16 00:00:00.000000,1.90357575,3.25285207,6.15749135,235,402,762,110,191,357,0.88837617,1.54789199,2.88938175,0.49112987,0.72698020,0.95774589
48343,0,USTexasMorris,Texas,Morris,2021-01-05 08:08:23.940843,2020-10-17 00:00:00.000000,2.12111921,3.60413030,6.64781481,262,446,823,121,212,384,0.98423035,1.71261271,3.10663526,0.52471364,0.75247124,0.96808157
48343,0,USTexasMorris,Texas,Morris,2021-01-05 08:08:23.940843,2020-10-18 00:00:00.000000,2.36554252,4.01649216,7.16701674,293,497,887,135,235,414,1.09464302,1.89782342,3.34357330,0.60031709,0.76207166,0.97549346
48343,0,USTexasMorris,Texas,Morris,2021-01-05 08:08:23.940843,2020-10-19 00:00:00.000000,2.62634952,4.41024849,7.70789292,325,546,954,151,260,458,1.21957248,2.10020396,3.69875432,0.60338330,0.77980749,0.99862062
48343,0,USTexasMorris,Texas,Morris,2021-01-05 08:08:23.940843,2020-10-20 00:00:00.000000,2.91696504,4.87181484,8.36717667,361,603,1036,168,286,492,1.35624700,2.31353276,3.97947765,0.59890240,0.80077108,1.00957886
48343,0,USTexasMorris,Texas,Morris,2021-01-05 08:08:23.940843,2020-10-21 00:00:00.000000,3.23786938,5.37652917,9.39165309,401,666,1163,186,317,531,1.50709437,2.56504488,4.29362340,0.59783835,0.78564596,1.00644865
48343,0,USTexasMorris,Texas,Morris,2021-01-05 08:08:23.940843,2020-10-22 00:00:00.000000,3.59095586,5.96838629,9.89110850,444,739,1225,207,352,605,1.67369195,2.84774882,4.88591236,0.58806623,0.79152446,0.99345589
48343,0,USTexasMorris,Texas,Morris,2021-01-05 08:08:23.940843,2020-10-23 00:00:00.000000,3.97811886,6.51090816,10.38339626,492,806,1286,230,385,645,1.85730933,3.10849647,5.21292829,0.58000283,0.78002983,0.99388986
48343,0,USTexasMorris,Texas,Morris,2021-01-05 08:08:23.940843,2020-10-24 00:00:00.000000,4.40092267,7.14130748,11.34141739,545,884,1404,255,424,685,2.06057132,3.42768347,5.53401118,0.55032619,0.77478529,0.99326258
48343,0,USTexasMorris,Texas,Morris,2021-01-05 08:08:23.940843,2020-10-25 00:00:00.000000,4.86163870,7.79430574,11.88786824,602,965,1472,282,466,725,2.28203517,3.76945004,5.85298448,0.49898629,0.74990099,0.98946534
48343,0,USTexasMorris,Texas,Morris,2021-01-05 08:08:23.940843,2020-10-26 00:00:00.000000,5.38457007,8.54233393,12.42184860,667,1058,1538,312,514,773,2.52073731,4.15133811,6.24112384,0.47692154,0.72029088,0.95093980
48343,0,USTexasMorris,Texas,Morris,2021-01-05 08:08:23.940843,2020-10-27 00:00:00.000000,5.94311078,9.13976802,12.93068409,736,1132,1601,347,564,828,2.80153002,4.55840708,6.68550395,0.45682103,0.68200703,0.92524082
48343,0,USTexasMorris,Texas,Morris,2021-01-05 08:08:23.940843,2020-10-28 00:00:00.000000,6.43584719,9.73779079,13.53292176,797,1206,1676,390,607,882,3.14923898,4.90298140,7.12363161,0.42155457,0.62611629,0.89344961
48343,0,USTexasMorris,Texas,Morris,2021-01-05 08:08:23.940843,2020-10-29 00:00:00.000000,6.88714492,10.17933649,14.18462881,853,1261,1757,432,655,935,3.49205802,5.29029690,7.55347131,0.39017006,0.55707308,0.81904944
48343,0,USTexasMorris,Texas,Morris,2021-01-05 08:08:23.940843,2020-10-30 00:00:00.000000,7.13886076,10.60000526,14.64587349,884,1313,1814,471,699,986,3.80806744,5.64540984,7.96580076,0.33351654,0.48678015,0.76860774
48343,0,USTexasMorris,Texas,Morris,2021-01-05 08:08:23.940843,2020-10-31 00:00:00.000000,7.43643773,10.78040188,14.83379660,921,1335,1837,487,726,1032,3.93561734,5.86273679,8.33351892,0.27465778,0.42023087,0.68378945
48343,0,USTexasMorris,Texas,Morris,2021-01-05 08:08:23.940843,2020-11-01 00:00:00.000000,7.54133347,10.74425909,14.82270267,934,1330,1836,493,744,1066,3.98468834,6.00873062,8.61142652,0.26166436,0.38911355,0.57681029
48343,0,USTexasMorris,Texas,Morris,2021-01-05 08:08:23.940843,2020-11-02 00:00:00.000000,7.34888003,10.63074213,14.69693122,910,1316,1820,503,762,1088,4.06685339,6.15863112,8.78419153,0.24877319,0.36337108,0.51880688
48343,0,USTexasMorris,Texas,Morris,2021-01-05 08:08:23.940843,2020-11-03 00:00:00.000000,7.26458887,10.51368325,14.56670510,899,1302,1804,503,770,1098,4.06544993,6.22363985,8.86432389,0.24697460,0.33844470,0.47533579
48343,0,USTexasMorris,Texas,Morris,2021-01-05 08:08:23.940843,2020-11-04 00:00:00.000000,7.16752267,10.40757731,14.46518590,887,1289,1791,499,767,1099,4.03120804,6.19768724,8.87593395,0.24124394,0.31443937,0.41564290
48343,0,USTexasMorris,Texas,Morris,2021-01-05 08:08:23.940843,2020-11-05 00:00:00.000000,6.98249120,10.23341070,14.47214122,864,1267,1792,493,758,1094,3.98653718,6.12510668,8.83801601,0.22947063,0.30872971,0.39811945
48343,0,USTexasMorris,Texas,Morris,2021-01-05 08:08:23.940843,2020-11-06 00:00:00.000000,6.69232488,9.91146096,14.45110175,829,1227,1790,487,745,1085,3.93553676,6.02024909,8.76381749,0.21634424,0.29095588,0.39903107
48343,0,USTexasMorris,Texas,Morris,2021-01-05 08:08:23.940843,2020-11-07 00:00:00.000000,6.34704646,9.50294132,14.40609499,786,1177,1784,480,722,1073,3.87881281,5.83484088,8.66207563,0.19368625,0.28617905,0.39908387
48343,0,USTexasMorris,Texas,Morris,2021-01-05 08:08:23.940843,2020-11-08 00:00:00.000000,6.01566527,9.11286244,14.33798110,745,1128,1776,459,702,1057,3.71319565,5.66962016,8.53845953,0.19044268,0.28128777,0.39909548
48343,0,USTexasMorris,Texas,Morris,2021-01-05 08:08:23.940843,2020-11-09 00:00:00.000000,5.71901686,8.74936531,14.19478178,708,1083,1758,436,674,1040,3.52297200,5.44478762,8.39704373,0.18955081,0.27707848,0.39912683
48343,0,USTexasMorris,Texas,Morris,2021-01-05 08:08:23.940843,2020-11-10 00:00:00.000000,5.54713768,8.36442965,13.77872326,687,1036,1706,416,648,1023,3.36059978,5.23335861,8.26411027,0.18932001,0.27660506,0.39913091
48343,0,USTexasMorris,Texas,Morris,2021-01-05 08:08:23.940843,2020-11-11 00:00:00.000000,5.28753969,8.07737005,13.35944982,655,1000,1654,403,623,1020,3.26001362,5.03288954,8.23401852,0.18963149,0.27669816,0.39559432
48343,0,USTexasMorris,Texas,Morris,2021-01-05 08:08:23.940843,2020-11-12 00:00:00.000000,5.03590774,7.80676239,12.94068119,623,967,1603,391,603,1014,3.16195391,4.87051306,8.18854542,0.18959087,0.27233559,0.39456495
48343,0,USTexasMorris,Texas,Morris,2021-01-05 08:08:23.940843,2020-11-13 00:00:00.000000,4.79906624,7.46285067,12.52777335,594,924,1551,377,583,1006,3.04371510,4.71108341,8.12410081,0.18978849,0.27399501,0.39613174
48343,0,USTexasMorris,Texas,Morris,2021-01-05 08:08:23.940843,2020-11-14 00:00:00.000000,4.57762395,7.10127409,12.12917843,567,879,1502,358,564,996,2.89216026,4.55548516,8.04143727,0.19164508,0.26979146,0.39382308
48343,0,USTexasMorris,Texas,Morris,2021-01-05 08:08:23.940843,2020-11-15 00:00:00.000000,4.37129042,6.80884798,11.75274988,541,843,1455,340,539,983,2.74785624,4.35377803,7.94218339,0.19899845,0.27414811,0.39346634
48343,0,USTexasMorris,Texas,Morris,2021-01-05 08:08:23.940843,2020-11-16 00:00:00.000000,4.20505398,6.55203171,11.39809894,520,811,1411,323,512,969,2.61385045,4.13763180,7.82776792,0.18126561,0.27406675,0.39729940
48343,0,USTexasMorris,Texas,Morris,2021-01-05 08:08:23.940843,2020-11-17 00:00:00.000000,4.05111967,6.30895062,11.05976288,501,781,1370,308,487,953,2.48884682,3.93312679,7.69567647,0.17879272,0.27060947,0.41139229
48343,0,USTexasMorris,Texas,Morris,2021-01-05 08:08:23.940843,2020-11-18 00:00:00.000000,3.90863140,6.08252505,10.73011904,484,753,1329,293,470,935,2.37282205,3.79736588,7.54955811,0.18004257,0.27110975,0.43840375
48343,0,USTexasMorris,Texas,Morris,2021-01-05 08:08:23.940843,2020-11-19 00:00:00.000000,3.77479415,5.86498125,10.40527759,467,726,1289,280,454,915,2.26461786,3.66899327,7.39264954,0.18162252,0.27099853,0.44233693
48343,0,USTexasMorris,Texas,Morris,2021-01-05 08:08:23.940843,2020-11-20 00:00:00.000000,3.64718061,5.58416509,10.08414778,451,691,1249,267,439,895,2.16308254,3.54674501,7.22782599,0.18824153,0.27169717,0.44466525
48343,0,USTexasMorris,Texas,Morris,2021-01-05 08:08:23.940843,2020-11-21 00:00:00.000000,3.50229202,5.34872939,9.76718071,433,662,1209,256,423,874,2.06737661,3.42184799,7.05806804,0.19618981,0.27712345,0.44968765
48343,0,USTexasMorris,Texas,Morris,2021-01-05 08:08:23.940843,2020-11-22 00:00:00.000000,3.30722235,5.14372314,9.45518337,409,637,1171,244,408,853,1.97713303,3.29788571,6.88657944,0.20145668,0.28566521,0.45352195
48343,0,USTexasMorris,Texas,Morris,2021-01-05 08:08:23.940843,2020-11-23 00:00:00.000000,3.21408716,4.91137690,9.25508345,398,608,1146,234,387,831,1.89255571,3.12472539,6.71492554,0.20949499,0.29134424,0.45859078
48343,0,USTexasMorris,Texas,Morris,2021-01-05 08:08:23.940843,2020-11-24 00:00:00.000000,3.09286087,4.70295095,9.06759962,383,582,1123,225,368,810,1.82057439,2.97546092,6.54661559,0.20938899,0.29962435,0.46971463
48343,0,USTexasMorris,Texas,Morris,2021-01-05 08:08:23.940843,2020-11-25 00:00:00.000000,2.95286458,4.54082128,8.88342479,365,562,1100,218,352,790,1.76164867,2.84276170,6.38116028,0.20969357,0.30424603,0.48090874
48343,0,USTexasMorris,Texas,Morris,2021-01-05 08:08:23.940843,2020-11-26 00:00:00.000000,2.84788597,4.46849375,8.68237918,352,553,1075,209,339,770,1.69241869,2.73796734,6.21831261,0.21095379,0.31580435,0.48894217
48343,0,USTexasMorris,Texas,Morris,2021-01-05 08:08:23.940843,2020-11-27 00:00:00.000000,2.68448731,4.42134383,8.32351947,332,547,1031,201,322,750,1.62291802,2.60678955,6.05808023,0.21499115,0.32428904,0.49252244
48343,0,USTexasMorris,Texas,Morris,2021-01-05 08:08:23.940843,2020-11-28 00:00:00.000000,2.56914237,4.31607513,7.97737606,318,534,988,195,312,729,1.57533588,2.52395247,5.89021019,0.22535499,0.32673228,0.50435963
48343,0,USTexasMorris,Texas,Morris,2021-01-05 08:08:23.940843,2020-11-29 00:00:00.000000,2.48953217,4.25093936,7.72220264,308,526,956,190,302,699,1.53408966,2.44396721,5.64921231,0.23064390,0.33067235,0.53506820
48343,0,USTexasMorris,Texas,Morris,2021-01-05 08:08:23.940843,2020-11-30 00:00:00.000000,2.42033252,4.24248039,7.48838937,299,525,927,182,296,671,1.47323829,2.39548450,5.42352769,0.23567257,0.34417040,0.53951498
48343,0,USTexasMorris,Texas,Morris,2021-01-05 08:08:23.940843,2020-12-01 00:00:00.000000,2.32608685,4.17743101,7.27593535,288,517,901,179,293,648,1.44651977,2.36604546,5.23379341,0.24192303,0.35893956,0.57634484
48343,0,USTexasMorris,Texas,Morris,2021-01-05 08:08:23.940843,2020-12-02 00:00:00.000000,2.21870633,4.13116581,7.09162235,274,511,878,176,295,627,1.42400613,2.38259863,5.06901810,0.24585038,0.36557051,0.60222067
48343,0,USTexasMorris,Texas,Morris,2021-01-05 08:08:23.940843,2020-12-03 00:00:00.000000,2.12440551,4.05953593,6.91388329,263,502,856,174,291,609,1.40515094,2.35321661,4.92118935,0.25383275,0.37354312,0.62249434
48343,0,USTexasMorris,Texas,Morris,2021-01-05 08:08:23.940843,2020-12-04 00:00:00.000000,2.09491712,4.00710636,6.81415114,259,496,844,172,287,592,1.38871108,2.32128950,4.78494626,0.25616619,0.39010914,0.62677241
48343,0,USTexasMorris,Texas,Morris,2021-01-05 08:08:23.940843,2020-12-05 00:00:00.000000,2.07776973,3.95398739,6.77189559,257,489,838,170,283,578,1.37394034,2.28932132,4.67032717,0.26146490,0.41793722,0.63053728
48343,0,USTexasMorris,Texas,Morris,2021-01-05 08:08:23.940843,2020-12-06 00:00:00.000000,2.07169314,3.96977344,6.73074856,256,491,833,164,284,571,1.32491010,2.29723607,4.61272136,0.27956744,0.43561084,0.65031494
48343,0,USTexasMorris,Texas,Morris,2021-01-05 08:08:23.940843,2020-12-07 00:00:00.000000,2.08978154,3.95302138,6.67129628,258,489,826,158,283,566,1.28206505,2.28460612,4.57034519,0.30387266,0.44856925,0.67735583
48343,0,USTexasMorris,Texas,Morris,2021-01-05 08:08:23.940843,2020-12-08 00:00:00.000000,2.10823241,3.96907599,6.61171884,261,491,819,155,281,553,1.25673789,2.27224042,4.46503296,0.31727358,0.46454452,0.70632131
48343,0,USTexasMorris,Texas,Morris,2021-01-05 08:08:23.940843,2020-12-09 00:00:00.000000,2.11052161,3.98415630,6.54980850,261,493,811,153,278,542,1.24028177,2.24616976,4.38143789,0.32065702,0.48947367,0.73527738
48343,0,USTexasMorris,Texas,Morris,2021-01-05 08:08:23.940843,2020-12-10 00:00:00.000000,2.11751409,3.99568512,6.48465565,262,494,803,152,274,534,1.22892513,2.21898133,4.31443561,0.33988578,0.50310101,0.75231578
48343,0,USTexasMorris,Texas,Morris,2021-01-05 08:08:23.940843,2020-12-11 00:00:00.000000,2.12833876,3.91390486,6.41583936,263,484,794,154,275,527,1.24525127,2.22449641,4.25990128,0.38159780,0.51969089,0.85651132
48343,0,USTexasMorris,Texas,Morris,2021-01-05 08:08:23.940843,2020-12-12 00:00:00.000000,2.14226556,3.92490950,6.34322701,265,486,785,158,277,522,1.27685204,2.23614102,4.21751261,0.39736650,0.54562406,0.92492059
48343,0,USTexasMorris,Texas,Morris,2021-01-05 08:08:23.940843,2020-12-13 00:00:00.000000,2.15741571,3.95041809,6.41037741,267,489,794,163,275,519,1.31715815,2.22773522,4.19301334,0.41499014,0.56869147,0.95633936
48343,0,USTexasMorris,Texas,Morris,2021-01-05 08:08:23.940843,2020-12-14 00:00:00.000000,2.18559824,3.97631460,6.56734226,270,492,813,165,276,520,1.33699056,2.23231294,4.19816824,0.42157987,0.60817672,0.96253104
48343,0,USTexasMorris,Texas,Morris,2021-01-05 08:08:23.940843,2020-12-15 00:00:00.000000,2.21475070,4.06973149,6.74289655,274,504,835,167,282,525,1.35001716,2.28167624,4.23805068,0.43179971,0.64754822,0.97084462
48343,0,USTexasMorris,Texas,Morris,2021-01-05 08:08:23.940843,2020-12-16 00:00:00.000000,2.27406962,4.17187472,6.91536750,281,516,856,169,286,534,1.36568908,2.31065532,4.31391552,0.46736119,0.67649161,0.98606930
48343,0,USTexasMorris,Texas,Morris,2021-01-05 08:08:23.940843,2020-12-17 00:00:00.000000,2.36662030,4.33506401,7.08511884,293,537,877,171,290,547,1.38624066,2.34880208,4.42115189,0.48049581,0.70233293,0.99936221
48343,0,USTexasMorris,Texas,Morris,2021-01-05 08:08:23.940843,2020-12-18 00:00:00.000000,2.49540402,4.45228977,7.24867745,309,551,897,176,298,551,1.42602015,2.41159450,4.44913474,0.51432485,0.73158281,1.07195830
48343,0,USTexasMorris,Texas,Morris,2021-01-05 08:08:23.940843,2020-12-19 00:00:00.000000,2.67667801,4.62730227,7.47861196,331,573,926,185,308,552,1.49985441,2.48824201,4.45837554,0.53151841,0.76739693,1.07780882
48343,0,USTexasMorris,Texas,Morris,2021-01-05 08:08:23.940843,2020-12-20 00:00:00.000000,2.87156777,4.81482756,7.62225964,355,596,944,197,316,556,1.59789385,2.55667619,4.49085167,0.53830697,0.78704923,1.09593790
48343,0,USTexasMorris,Texas,Morris,2021-01-05 08:08:23.940843,2020-12-21 00:00:00.000000,3.05767632,5.00245512,7.78271634,378,619,964,211,326,562,1.71054304,2.63635908,4.53974237,0.56321968,0.80387553,1.14819408
48343,0,USTexasMorris,Texas,Morris,2021-01-05 08:08:23.940843,2020-12-22 00:00:00.000000,3.25421308,5.12343551,7.93958532,403,634,983,223,342,570,1.80137137,2.76088557,4.60379982,0.57174976,0.82644104,1.18029847
48343,0,USTexasMorris,Texas,Morris,2021-01-05 08:08:23.940843,2020-12-23 00:00:00.000000,3.45874285,5.35463424,8.11661013,428,663,1005,227,353,579,1.83472047,2.85396535,4.67704043,0.58797590,0.84316560,1.22635579
48343,0,USTexasMorris,Texas,Morris,2021-01-05 08:08:23.940843,2020-12-24 00:00:00.000000,3.63557702,5.55776831,8.52316155,450,688,1055,235,356,601,1.90456423,2.87583780,4.85427373,0.58882442,0.85744557,1.25281053
48343,0,USTexasMorris,Texas,Morris,2021-01-05 08:08:23.940843,2020-12-25 00:00:00.000000,3.71597973,5.70213699,8.92565020,460,706,1105,250,366,624,2.02290884,2.96140851,5.04394038,0.61048016,0.87804266,1.27345124
48343,0,USTexasMorris,Texas,Morris,2021-01-05 08:08:23.940843,2020-12-26 00:00:00.000000,3.85818696,5.87853479,9.32796992,477,728,1155,265,382,648,2.14482634,3.09058890,5.23199519,0.61387067,0.88306593,1.33748288
48343,0,USTexasMorris,Texas,Morris,2021-01-05 08:08:23.940843,2020-12-27 00:00:00.000000,4.08146289,6.12369165,9.72781493,505,758,1205,281,396,669,2.27086079,3.19822537,5.40157852,0.61181662,0.90991123,1.36281796
48343,0,USTexasMorris,Texas,Morris,2021-01-05 08:08:23.940843,2020-12-28 00:00:00.000000,4.27501909,6.29546518,9.86222371,529,779,1221,297,413,677,2.39804883,3.33427836,5.46734165,0.61016996,0.90937152,1.35738182
48343,0,USTexasMorris,Texas,Morris,2021-01-05 08:08:23.940843,2020-12-29 00:00:00.000000,4.47157773,6.53321813,9.98423066,553,809,1236,309,427,698,2.49837942,3.45092484,5.63855174,0.61002308,0.91076151,1.40246338
48343,0,USTexasMorris,Texas,Morris,2021-01-05 08:08:23.940843,2020-12-30 00:00:00.000000,4.62406335,6.62160828,10.11836807,572,820,1253,308,437,727,2.48899074,3.53278983,5.86987653,0.59404111,0.91333423,1.41790415
48343,0,USTexasMorris,Texas,Morris,2021-01-05 08:08:23.940843,2020-12-31 00:00:00.000000,4.78877531,6.72406423,10.26643756,593,832,1271,306,449,752,2.47562525,3.62477756,6.07375305,0.59650047,0.92465944,1.44012364
48343,0,USTexasMorris,Texas,Morris,2021-01-05 08:08:23.940843,2021-01-01 00:00:00.000000,4.85428420,6.87251678,10.41967962,601,851,1290,304,463,769,2.46036155,3.74050341,6.20908232,0.59989607,0.93768446,1.53280082
48343,0,USTexasMorris,Texas,Morris,2021-01-05 08:08:23.940843,2021-01-02 00:00:00.000000,4.82900671,6.96491402,10.55559354,598,862,1307,309,474,784,2.49627142,3.82711182,6.33104837,0.60217858,0.94485979,1.62707853
48343,0,USTexasMorris,Texas,Morris,2021-01-05 08:08:23.940843,2021-01-03 00:00:00.000000,4.80250025,7.07316738,10.67205441,594,876,1322,322,479,797,2.60230449,3.87336135,6.43878465,0.57965432,0.94070678,1.63082579
48343,0,USTexasMorris,Texas,Morris,2021-01-05 08:08:23.940843,2021-01-04 00:00:00.000000,4.76894779,7.24147895,10.88210352,590,897,1348,334,487,809,2.70340002,3.93686586,6.53145407,0.55169065,0.94253309,1.63746815
48343,0,USTexasMorris,Texas,Morris,2021-01-05 08:08:23.940843,2021-01-05 00:00:00.000000,4.72858737,7.32195114,11.22182096,585,907,1390,334,493,818,2.70258559,3.98746687,6.60830539,0.55140103,0.95051794,1.64575449
48343,0,USTexasMorris,Texas,Morris,2021-01-05 08:08:23.940843,2021-01-06 00:00:00.000000,4.68167758,7.43520086,11.54589713,579,921,1430,334,499,826,2.69791278,4.02846733,6.66871076,0.55125499,0.95048442,1.67867784
48343,0,USTexasMorris,Texas,Morris,2021-01-05 08:08:23.940843,2021-01-07 00:00:00.000000,4.62850265,7.46900801,11.82356180,573,925,1464,333,508,831,2.68942269,4.10816781,6.71219083,0.55118576,0.96019307,1.71968572
48343,0,USTexasMorris,Texas,Morris,2021-01-05 08:08:23.940843,2021-01-08 00:00:00.000000,4.57054420,7.53154369,11.89967712,566,933,1474,331,519,834,2.67708708,4.19040709,6.73843100,0.55115390,0.95817682,1.73515875
48343,0,USTexasMorris,Texas,Morris,2021-01-05 08:08:23.940843,2021-01-09 00:00:00.000000,4.50785631,7.56463548,12.12798252,558,937,1502,327,525,844,2.64687966,4.24329723,6.82092828,0.55113944,0.95723727,1.73535677
48343,0,USTexasMorris,Texas,Morris,2021-01-05 08:08:23.940843,2021-01-10 00:00:00.000000,4.43981030,7.57371083,12.51771173,550,938,1550,323,534,881,2.61326605,4.31225629,7.11650557,0.55113291,0.95703928,1.73543227
48343,0,USTexasMorris,Texas,Morris,2021-01-05 08:08:23.940843,2021-01-11 00:00:00.000000,4.39485712,7.62763279,12.88796723,544,944,1596,319,536,927,2.57643749,4.33051845,7.49014649,0.55112998,0.95699788,1.73546150
48343,0,USTexasMorris,Texas,Morris,2021-01-05 08:08:23.940843,2021-01-12 00:00:00.000000,4.37189583,7.67939603,13.08358811,541,951,1620,314,543,972,2.53659759,4.38409207,7.84843352,0.55112866,0.95698924,1.73547307
48343,0,USTexasMorris,Texas,Morris,2021-01-05 08:08:23.940843,2021-01-13 00:00:00.000000,4.34256213,7.61457392,13.22021150,537,943,1637,308,545,976,2.49396049,4.40401746,7.88248205,0.55112807,0.95698743,1.73547777
48343,0,USTexasMorris,Texas,Morris,2021-01-05 08:08:23.940843,2021-01-14 00:00:00.000000,4.30703315,7.57146666,13.37060878,533,937,1656,303,542,970,2.44874875,4.38090852,7.83633902,0.55112781,0.95698706,1.73547973
48343,0,USTexasMorris,Texas,Morris,2021-01-05 08:08:23.940843,2021-01-15 00:00:00.000000,4.26551998,7.54221180,13.47313681,528,934,1669,299,539,953,2.41754651,4.35352527,7.69911109,0.55112769,0.95698698,1.73548057
48343,0,USTexasMorris,Texas,Morris,2021-01-05 08:08:23.940843,2021-01-16 00:00:00.000000,4.21826505,7.51991034,13.54124683,522,931,1677,296,548,965,2.39611636,4.43086039,7.79057740,0.55112763,0.95698696,1.73548093
48343,0,USTexasMorris,Texas,Morris,2021-01-05 08:08:23.940843,2021-01-17 00:00:00.000000,4.16553924,7.53444008,13.57446778,516,933,1681,293,552,962,2.37140917,4.46393197,7.76646792,0.55112761,0.95698696,1.73548110
