FIPS,HR_UID,nameid,province,region,analysisTime,dates,pointprevalence_025,pointprevalence_50,pointprevalence_975,pointinfections_025,pointinfections_50,pointinfections_975,pointinfectious_025,pointinfectious_50,pointinfectious_975,pointinfectiousprevalence_05,pointinfectiousprevalence_50,pointinfectiousprevalence_95,infectrate_025,infectrate_50,infectrate_975
17107,0,USIllinoisLogan,Illinois,Logan,2021-01-06 00:22:26.331205,2020-03-09 00:00:00.000000,0.00261326,0.00989365,0.03840676,0,2,10,0,1,5,0.00127903,0.00564223,0.02050493,0.34272490,0.49459523,0.67074959
17107,0,USIllinoisLogan,Illinois,Logan,2021-01-06 00:22:26.331205,2020-03-10 00:00:00.000000,0.00309152,0.01080011,0.03957167,0,3,11,0,1,5,0.00136378,0.00565502,0.02000641,0.34272493,0.49445358,0.67074958
17107,0,USIllinoisLogan,Illinois,Logan,2021-01-06 00:22:26.331205,2020-03-11 00:00:00.000000,0.00326053,0.01195324,0.04081811,0,3,11,0,1,5,0.00154250,0.00569950,0.01992619,0.34272493,0.49427114,0.67074958
17107,0,USIllinoisLogan,Illinois,Logan,2021-01-06 00:22:26.331205,2020-03-12 00:00:00.000000,0.00342133,0.01282339,0.04213590,0,3,12,0,1,5,0.00165871,0.00600557,0.02011833,0.34272485,0.49413790,0.67074956
17107,0,USIllinoisLogan,Illinois,Logan,2021-01-06 00:22:26.331205,2020-03-13 00:00:00.000000,0.00369620,0.01359886,0.04351866,1,3,12,0,1,5,0.00171649,0.00635836,0.02049133,0.34272438,0.49411002,0.67074948
17107,0,USIllinoisLogan,Illinois,Logan,2021-01-06 00:22:26.331205,2020-03-14 00:00:00.000000,0.00416011,0.01462280,0.04496187,1,4,12,0,1,6,0.00183357,0.00668170,0.02117610,0.34272246,0.49402747,0.67074921
17107,0,USIllinoisLogan,Illinois,Logan,2021-01-06 00:22:26.331205,2020-03-15 00:00:00.000000,0.00467842,0.01567506,0.04646021,1,4,13,0,2,6,0.00206361,0.00709827,0.02309709,0.34271500,0.49378155,0.67074817
17107,0,USIllinoisLogan,Illinois,Logan,2021-01-06 00:22:26.331205,2020-03-16 00:00:00.000000,0.00748093,0.02068051,0.05687748,2,5,16,0,2,7,0.00232263,0.00782656,0.02518322,0.34268667,0.48676925,0.67074399
17107,0,USIllinoisLogan,Illinois,Logan,2021-01-06 00:22:26.331205,2020-03-17 00:00:00.000000,0.01111139,0.02591468,0.06811008,3,7,19,0,2,8,0.00293079,0.00943784,0.02919694,0.33466349,0.48171814,0.67072649
17107,0,USIllinoisLogan,Illinois,Logan,2021-01-06 00:22:26.331205,2020-03-18 00:00:00.000000,0.01371468,0.03112514,0.07554082,3,8,21,1,3,9,0.00405469,0.01161655,0.03339886,0.32818741,0.46935671,0.67065028
17107,0,USIllinoisLogan,Illinois,Logan,2021-01-06 00:22:26.331205,2020-03-19 00:00:00.000000,0.01592250,0.03657216,0.07973601,4,10,22,1,4,10,0.00515100,0.01429171,0.03529116,0.31915618,0.44880660,0.66430799
17107,0,USIllinoisLogan,Illinois,Logan,2021-01-06 00:22:26.331205,2020-03-20 00:00:00.000000,0.01818400,0.04164961,0.09276552,5,11,26,1,4,10,0.00633037,0.01705579,0.03720348,0.28078521,0.42746891,0.65913263
17107,0,USIllinoisLogan,Illinois,Logan,2021-01-06 00:22:26.331205,2020-03-21 00:00:00.000000,0.02047771,0.04638073,0.10537039,5,13,30,2,5,12,0.00747598,0.01990432,0.04265894,0.25414294,0.41107792,0.65015866
17107,0,USIllinoisLogan,Illinois,Logan,2021-01-06 00:22:26.331205,2020-03-22 00:00:00.000000,0.02281387,0.05137099,0.11116101,6,14,31,2,6,14,0.00873263,0.02247812,0.04960485,0.24608309,0.39110474,0.60558454
17107,0,USIllinoisLogan,Illinois,Logan,2021-01-06 00:22:26.331205,2020-03-23 00:00:00.000000,0.02797398,0.05773062,0.11543103,8,16,33,2,7,15,0.01012804,0.02538091,0.05271795,0.24158315,0.36208815,0.53753824
17107,0,USIllinoisLogan,Illinois,Logan,2021-01-06 00:22:26.331205,2020-03-24 00:00:00.000000,0.03092079,0.06451698,0.12182143,8,18,34,3,8,15,0.01234452,0.02895361,0.05488760,0.23274971,0.35307894,0.50143752
17107,0,USIllinoisLogan,Illinois,Logan,2021-01-06 00:22:26.331205,2020-03-25 00:00:00.000000,0.03426166,0.07284027,0.12721430,9,20,36,4,9,16,0.01423963,0.03209612,0.05779055,0.23062328,0.33442905,0.49813543
17107,0,USIllinoisLogan,Illinois,Logan,2021-01-06 00:22:26.331205,2020-03-26 00:00:00.000000,0.03687988,0.08173424,0.13716193,10,23,39,4,10,18,0.01587286,0.03589731,0.06321130,0.20810956,0.31277746,0.48676394
17107,0,USIllinoisLogan,Illinois,Logan,2021-01-06 00:22:26.331205,2020-03-27 00:00:00.000000,0.03972312,0.08994951,0.14931621,11,25,42,5,11,19,0.01758432,0.03998373,0.06892867,0.18135906,0.29771915,0.47423084
17107,0,USIllinoisLogan,Illinois,Logan,2021-01-06 00:22:26.331205,2020-03-28 00:00:00.000000,0.04257299,0.09768801,0.15344813,12,27,43,5,12,21,0.01931881,0.04351579,0.07521238,0.16325350,0.26815181,0.42551620
17107,0,USIllinoisLogan,Illinois,Logan,2021-01-06 00:22:26.331205,2020-03-29 00:00:00.000000,0.04481915,0.10369353,0.16462419,12,29,47,6,13,23,0.02097859,0.04701630,0.08096463,0.15587500,0.25573399,0.39385608
17107,0,USIllinoisLogan,Illinois,Logan,2021-01-06 00:22:26.331205,2020-03-30 00:00:00.000000,0.04843680,0.11036665,0.16655404,13,31,47,6,14,24,0.02245492,0.05061535,0.08596083,0.14896212,0.25014120,0.37405848
17107,0,USIllinoisLogan,Illinois,Logan,2021-01-06 00:22:26.331205,2020-03-31 00:00:00.000000,0.05201754,0.11495328,0.17561761,14,32,50,6,15,25,0.02413021,0.05381687,0.09009973,0.13971713,0.24130528,0.36624047
17107,0,USIllinoisLogan,Illinois,Logan,2021-01-06 00:22:26.331205,2020-04-01 00:00:00.000000,0.05565366,0.12051776,0.18840199,15,34,53,7,16,27,0.02588829,0.05646489,0.09590220,0.13534658,0.23637433,0.36628522
17107,0,USIllinoisLogan,Illinois,Logan,2021-01-06 00:22:26.331205,2020-04-02 00:00:00.000000,0.05928359,0.12577215,0.19384214,16,35,55,7,16,28,0.02766304,0.05888939,0.10098114,0.13317743,0.22965596,0.36570866
17107,0,USIllinoisLogan,Illinois,Logan,2021-01-06 00:22:26.331205,2020-04-03 00:00:00.000000,0.06295859,0.13006903,0.19817629,18,37,56,8,17,30,0.02941071,0.06174130,0.10685042,0.12974754,0.21976233,0.35229956
17107,0,USIllinoisLogan,Illinois,Logan,2021-01-06 00:22:26.331205,2020-04-04 00:00:00.000000,0.06678203,0.13193869,0.20242415,19,37,57,8,18,31,0.03109875,0.06459560,0.10958531,0.12623929,0.21478677,0.33522685
17107,0,USIllinoisLogan,Illinois,Logan,2021-01-06 00:22:26.331205,2020-04-05 00:00:00.000000,0.06903921,0.13452657,0.20922812,19,38,59,9,19,32,0.03270431,0.06784686,0.11219079,0.12572006,0.20145230,0.32692618
17107,0,USIllinoisLogan,Illinois,Logan,2021-01-06 00:22:26.331205,2020-04-06 00:00:00.000000,0.07040212,0.13694102,0.21511703,20,39,61,9,20,32,0.03421725,0.07054610,0.11470252,0.12528599,0.19212179,0.30283146
17107,0,USIllinoisLogan,Illinois,Logan,2021-01-06 00:22:26.331205,2020-04-07 00:00:00.000000,0.07308559,0.13855893,0.22073942,20,39,63,10,20,33,0.03588583,0.07313001,0.11681193,0.11900529,0.19022331,0.30173915
17107,0,USIllinoisLogan,Illinois,Logan,2021-01-06 00:22:26.331205,2020-04-08 00:00:00.000000,0.07620029,0.14109522,0.22574904,21,40,64,10,21,33,0.03710000,0.07404508,0.11866445,0.11083428,0.18994723,0.29687881
17107,0,USIllinoisLogan,Illinois,Logan,2021-01-06 00:22:26.331205,2020-04-09 00:00:00.000000,0.07917509,0.14432396,0.22984469,22,41,65,10,21,34,0.03774277,0.07550048,0.12035250,0.10451368,0.18446993,0.29635827
17107,0,USIllinoisLogan,Illinois,Logan,2021-01-06 00:22:26.331205,2020-04-10 00:00:00.000000,0.08200052,0.14734959,0.24403937,23,42,69,11,21,35,0.03884851,0.07589209,0.12362118,0.09448895,0.18113740,0.29369103
17107,0,USIllinoisLogan,Illinois,Logan,2021-01-06 00:22:26.331205,2020-04-11 00:00:00.000000,0.08263614,0.14839133,0.25270465,23,42,72,11,21,36,0.04021914,0.07674145,0.12652141,0.08819304,0.17456977,0.29333419
17107,0,USIllinoisLogan,Illinois,Logan,2021-01-06 00:22:26.331205,2020-04-12 00:00:00.000000,0.07885428,0.14970863,0.25515375,22,42,73,11,22,38,0.04142172,0.07821839,0.13426321,0.08568231,0.16910210,0.29209171
17107,0,USIllinoisLogan,Illinois,Logan,2021-01-06 00:22:26.331205,2020-04-13 00:00:00.000000,0.08456913,0.14974063,0.26401445,24,42,75,11,23,40,0.04102171,0.08109385,0.14284726,0.08399772,0.16693111,0.28808881
17107,0,USIllinoisLogan,Illinois,Logan,2021-01-06 00:22:26.331205,2020-04-14 00:00:00.000000,0.08338235,0.15074681,0.26952447,23,43,77,12,23,41,0.04377206,0.08156141,0.14382945,0.08292655,0.16413667,0.27616802
17107,0,USIllinoisLogan,Illinois,Logan,2021-01-06 00:22:26.331205,2020-04-15 00:00:00.000000,0.08111363,0.14804016,0.29105353,23,42,83,12,23,41,0.04462542,0.08231762,0.14392108,0.08265739,0.16263222,0.26031738
17107,0,USIllinoisLogan,Illinois,Logan,2021-01-06 00:22:26.331205,2020-04-16 00:00:00.000000,0.08137119,0.14775207,0.30078940,23,42,86,12,23,41,0.04495492,0.08112329,0.14343818,0.08383897,0.15920978,0.25913960
17107,0,USIllinoisLogan,Illinois,Logan,2021-01-06 00:22:26.331205,2020-04-17 00:00:00.000000,0.08366686,0.14747043,0.29614785,23,42,84,12,23,44,0.04454112,0.08230399,0.15552239,0.08376785,0.15114130,0.24445265
17107,0,USIllinoisLogan,Illinois,Logan,2021-01-06 00:22:26.331205,2020-04-18 00:00:00.000000,0.08200750,0.14786511,0.28991015,23,42,82,12,24,47,0.04439878,0.08398870,0.16772028,0.08369235,0.14508447,0.23851532
17107,0,USIllinoisLogan,Illinois,Logan,2021-01-06 00:22:26.331205,2020-04-19 00:00:00.000000,0.08232462,0.14836504,0.28744720,23,42,82,12,23,47,0.04423590,0.08320971,0.16633261,0.08357004,0.14217370,0.23805766
17107,0,USIllinoisLogan,Illinois,Logan,2021-01-06 00:22:26.331205,2020-04-20 00:00:00.000000,0.08669106,0.15078739,0.28229283,24,43,80,12,23,46,0.04403153,0.08248831,0.16375859,0.08351296,0.14041040,0.23676324
17107,0,USIllinoisLogan,Illinois,Logan,2021-01-06 00:22:26.331205,2020-04-21 00:00:00.000000,0.08736651,0.15035943,0.27568579,25,43,78,12,23,46,0.04522679,0.08210314,0.16131237,0.08414785,0.13350728,0.23429321
17107,0,USIllinoisLogan,Illinois,Logan,2021-01-06 00:22:26.331205,2020-04-22 00:00:00.000000,0.09048306,0.15069336,0.27045867,25,43,77,13,23,45,0.04729278,0.08352611,0.15893241,0.08247023,0.13099665,0.23034384
17107,0,USIllinoisLogan,Illinois,Logan,2021-01-06 00:22:26.331205,2020-04-23 00:00:00.000000,0.09270982,0.15002996,0.26916432,26,42,77,13,24,44,0.04815242,0.08476951,0.15649956,0.08206943,0.12844320,0.22690070
17107,0,USIllinoisLogan,Illinois,Logan,2021-01-06 00:22:26.331205,2020-04-24 00:00:00.000000,0.09605586,0.15281028,0.27341614,27,43,78,14,24,44,0.04996080,0.08455969,0.15400611,0.08121445,0.12440879,0.22893673
17107,0,USIllinoisLogan,Illinois,Logan,2021-01-06 00:22:26.331205,2020-04-25 00:00:00.000000,0.09599544,0.15180535,0.28563920,27,43,81,15,24,43,0.05272931,0.08661612,0.15152401,0.07998854,0.12458148,0.22903158
17107,0,USIllinoisLogan,Illinois,Logan,2021-01-06 00:22:26.331205,2020-04-26 00:00:00.000000,0.09537527,0.15127216,0.29744356,27,43,85,14,24,42,0.05215426,0.08659942,0.14906599,0.07794171,0.12276637,0.22630635
17107,0,USIllinoisLogan,Illinois,Logan,2021-01-06 00:22:26.331205,2020-04-27 00:00:00.000000,0.09628014,0.15176096,0.29939992,27,43,85,14,25,41,0.05156833,0.08768066,0.14657882,0.07489727,0.11722615,0.22363036
17107,0,USIllinoisLogan,Illinois,Logan,2021-01-06 00:22:26.331205,2020-04-28 00:00:00.000000,0.09405490,0.15301018,0.28769878,26,43,82,14,25,41,0.05189361,0.08754379,0.14589793,0.07314056,0.11601658,0.22248633
17107,0,USIllinoisLogan,Illinois,Logan,2021-01-06 00:22:26.331205,2020-04-29 00:00:00.000000,0.09214574,0.15219992,0.27748976,26,43,79,15,24,42,0.05243690,0.08662967,0.14692612,0.07218601,0.11572303,0.22005850
17107,0,USIllinoisLogan,Illinois,Logan,2021-01-06 00:22:26.331205,2020-04-30 00:00:00.000000,0.09170550,0.15337062,0.27931585,26,43,79,14,24,42,0.05135293,0.08649880,0.14764795,0.07165969,0.11532053,0.21659349
17107,0,USIllinoisLogan,Illinois,Logan,2021-01-06 00:22:26.331205,2020-05-01 00:00:00.000000,0.08902420,0.15316423,0.28048932,25,43,80,14,24,42,0.05005610,0.08639433,0.14723656,0.07412664,0.11532686,0.21193864
17107,0,USIllinoisLogan,Illinois,Logan,2021-01-06 00:22:26.331205,2020-05-02 00:00:00.000000,0.08768745,0.15257755,0.28087019,25,43,80,14,24,40,0.04940287,0.08607458,0.14163789,0.07868659,0.11565280,0.20628412
17107,0,USIllinoisLogan,Illinois,Logan,2021-01-06 00:22:26.331205,2020-05-03 00:00:00.000000,0.08649136,0.15140235,0.28041134,24,43,80,13,24,39,0.04855357,0.08547388,0.13630293,0.07641720,0.11723980,0.20183037
17107,0,USIllinoisLogan,Illinois,Logan,2021-01-06 00:22:26.331205,2020-05-04 00:00:00.000000,0.08554824,0.14945276,0.27781933,24,42,79,13,24,38,0.04779581,0.08529939,0.13484629,0.07333464,0.11616150,0.19516159
17107,0,USIllinoisLogan,Illinois,Logan,2021-01-06 00:22:26.331205,2020-05-05 00:00:00.000000,0.08469721,0.14911028,0.27460452,24,42,78,13,24,38,0.04714833,0.08577860,0.13502677,0.07067261,0.11558607,0.19171905
17107,0,USIllinoisLogan,Illinois,Logan,2021-01-06 00:22:26.331205,2020-05-06 00:00:00.000000,0.08485247,0.14876981,0.27091830,24,42,77,13,24,38,0.04658529,0.08616566,0.13471471,0.06988764,0.11641059,0.19199688
17107,0,USIllinoisLogan,Illinois,Logan,2021-01-06 00:22:26.331205,2020-05-07 00:00:00.000000,0.08312965,0.14471696,0.26693310,23,41,76,13,24,38,0.04608749,0.08443258,0.13597918,0.07005941,0.11598280,0.19247327
17107,0,USIllinoisLogan,Illinois,Logan,2021-01-06 00:22:26.331205,2020-05-08 00:00:00.000000,0.08233933,0.14126259,0.26275885,23,40,75,13,23,40,0.04564080,0.08366283,0.14117432,0.07130794,0.11715933,0.19082232
17107,0,USIllinoisLogan,Illinois,Logan,2021-01-06 00:22:26.331205,2020-05-09 00:00:00.000000,0.08159974,0.13710544,0.25860416,23,39,74,12,23,40,0.04523493,0.08229941,0.14141496,0.07114954,0.11337139,0.19250605
17107,0,USIllinoisLogan,Illinois,Logan,2021-01-06 00:22:26.331205,2020-05-10 00:00:00.000000,0.08043618,0.13487521,0.26392609,23,38,75,12,23,40,0.04491167,0.08160047,0.14031709,0.07009167,0.11290136,0.19070831
17107,0,USIllinoisLogan,Illinois,Logan,2021-01-06 00:22:26.331205,2020-05-11 00:00:00.000000,0.07595493,0.12811894,0.25723804,21,36,73,12,22,41,0.04531393,0.08004266,0.14530830,0.06922834,0.11713438,0.18814347
17107,0,USIllinoisLogan,Illinois,Logan,2021-01-06 00:22:26.331205,2020-05-12 00:00:00.000000,0.07168242,0.12163394,0.25022963,20,34,71,12,22,42,0.04337953,0.07713765,0.14795254,0.06901226,0.11547697,0.18706852
17107,0,USIllinoisLogan,Illinois,Logan,2021-01-06 00:22:26.331205,2020-05-13 00:00:00.000000,0.06753950,0.11563568,0.24278065,19,33,69,11,21,42,0.04178510,0.07398412,0.14820725,0.06899815,0.11403590,0.18388754
17107,0,USIllinoisLogan,Illinois,Logan,2021-01-06 00:22:26.331205,2020-05-14 00:00:00.000000,0.06360503,0.11093965,0.23511434,18,31,67,11,20,42,0.03994746,0.07097642,0.14694779,0.06906596,0.11536526,0.18629209
17107,0,USIllinoisLogan,Illinois,Logan,2021-01-06 00:22:26.331205,2020-05-15 00:00:00.000000,0.05934439,0.10504255,0.22740175,16,30,65,10,19,41,0.03771703,0.06801750,0.14474142,0.06924659,0.11480109,0.18531752
17107,0,USIllinoisLogan,Illinois,Logan,2021-01-06 00:22:26.331205,2020-05-16 00:00:00.000000,0.05508357,0.10002538,0.21982344,15,28,62,10,18,40,0.03515658,0.06458461,0.14195645,0.07079290,0.11684456,0.18259290
17107,0,USIllinoisLogan,Illinois,Logan,2021-01-06 00:22:26.331205,2020-05-17 00:00:00.000000,0.05116693,0.09533414,0.21264448,14,27,60,9,17,39,0.03272385,0.06107070,0.13883211,0.07198626,0.11435832,0.17798377
17107,0,USIllinoisLogan,Illinois,Logan,2021-01-06 00:22:26.331205,2020-05-18 00:00:00.000000,0.05526245,0.09428045,0.21174489,15,26,60,8,16,38,0.03044131,0.05866541,0.13552323,0.07224329,0.11552562,0.17592126
17107,0,USIllinoisLogan,Illinois,Logan,2021-01-06 00:22:26.331205,2020-05-19 00:00:00.000000,0.05437805,0.09315458,0.21124787,15,26,60,8,16,38,0.03051192,0.05613183,0.13546850,0.06964349,0.11685860,0.17580186
17107,0,USIllinoisLogan,Illinois,Logan,2021-01-06 00:22:26.331205,2020-05-20 00:00:00.000000,0.05385433,0.09648816,0.21551902,15,27,61,8,15,39,0.02991308,0.05535581,0.13746527,0.06914558,0.11799912,0.17544477
17107,0,USIllinoisLogan,Illinois,Logan,2021-01-06 00:22:26.331205,2020-05-21 00:00:00.000000,0.05362326,0.09871389,0.22305508,15,28,63,8,15,40,0.02909941,0.05407975,0.13987091,0.07167389,0.11954253,0.17326146
17107,0,USIllinoisLogan,Illinois,Logan,2021-01-06 00:22:26.331205,2020-05-22 00:00:00.000000,0.05364286,0.10011892,0.23048351,15,28,65,8,15,39,0.02897771,0.05509441,0.13899948,0.07502326,0.11887183,0.17307634
17107,0,USIllinoisLogan,Illinois,Logan,2021-01-06 00:22:26.331205,2020-05-23 00:00:00.000000,0.05286129,0.10008488,0.22975746,15,28,65,8,16,39,0.02821099,0.05656951,0.13842537,0.07636482,0.11734921,0.17181637
17107,0,USIllinoisLogan,Illinois,Logan,2021-01-06 00:22:26.331205,2020-05-24 00:00:00.000000,0.05154398,0.10226277,0.22613606,14,29,64,8,16,39,0.02802343,0.05663956,0.13785488,0.07663601,0.11932513,0.17249730
17107,0,USIllinoisLogan,Illinois,Logan,2021-01-06 00:22:26.331205,2020-05-25 00:00:00.000000,0.05358189,0.10407751,0.22569778,15,29,64,8,16,39,0.02796359,0.05840788,0.13741567,0.07666136,0.12384059,0.17272760
17107,0,USIllinoisLogan,Illinois,Logan,2021-01-06 00:22:26.331205,2020-05-26 00:00:00.000000,0.05573400,0.10556612,0.22548207,15,30,64,8,16,39,0.02829761,0.05843762,0.13711028,0.07664184,0.12656950,0.18083942
17107,0,USIllinoisLogan,Illinois,Logan,2021-01-06 00:22:26.331205,2020-05-27 00:00:00.000000,0.05806587,0.10738883,0.22550874,16,30,64,8,17,39,0.02888410,0.06024426,0.13689029,0.07662415,0.12803272,0.18288174
17107,0,USIllinoisLogan,Illinois,Logan,2021-01-06 00:22:26.331205,2020-05-28 00:00:00.000000,0.06164228,0.10990637,0.22574543,17,31,64,8,17,39,0.02962395,0.06074629,0.13673055,0.07661415,0.13272980,0.18615464
17107,0,USIllinoisLogan,Illinois,Logan,2021-01-06 00:22:26.331205,2020-05-29 00:00:00.000000,0.06277468,0.11238809,0.22840448,17,32,65,8,17,39,0.03046224,0.06283964,0.13662639,0.07251148,0.13747162,0.19185185
17107,0,USIllinoisLogan,Illinois,Logan,2021-01-06 00:22:26.331205,2020-05-30 00:00:00.000000,0.06233974,0.11224629,0.23579117,17,32,67,8,18,39,0.03135847,0.06438104,0.13659184,0.06592130,0.14019637,0.19758621
17107,0,USIllinoisLogan,Illinois,Logan,2021-01-06 00:22:26.331205,2020-05-31 00:00:00.000000,0.06232607,0.11205962,0.24331816,17,32,69,9,18,39,0.03320436,0.06438780,0.13664879,0.06694307,0.14092647,0.20034964
17107,0,USIllinoisLogan,Illinois,Logan,2021-01-06 00:22:26.331205,2020-06-01 00:00:00.000000,0.06356483,0.11239168,0.24140024,18,32,69,9,18,39,0.03315840,0.06357617,0.13680673,0.07304640,0.13850322,0.20555424
17107,0,USIllinoisLogan,Illinois,Logan,2021-01-06 00:22:26.331205,2020-06-02 00:00:00.000000,0.06426894,0.11086594,0.23940435,18,31,68,9,18,39,0.03417208,0.06458016,0.13644154,0.07609517,0.13847333,0.21254274
17107,0,USIllinoisLogan,Illinois,Logan,2021-01-06 00:22:26.331205,2020-06-03 00:00:00.000000,0.06582776,0.11153245,0.23710084,18,31,67,10,18,38,0.03507455,0.06405010,0.13572219,0.07614149,0.13957346,0.21928626
17107,0,USIllinoisLogan,Illinois,Logan,2021-01-06 00:22:26.331205,2020-06-04 00:00:00.000000,0.06578752,0.11206297,0.23463817,18,32,67,10,18,38,0.03520503,0.06386645,0.13476406,0.07660285,0.14060347,0.22556005
17107,0,USIllinoisLogan,Illinois,Logan,2021-01-06 00:22:26.331205,2020-06-05 00:00:00.000000,0.06589330,0.11635528,0.23215219,18,33,66,10,18,38,0.03550584,0.06509890,0.13364796,0.07809625,0.14043116,0.22719566
17107,0,USIllinoisLogan,Illinois,Logan,2021-01-06 00:22:26.331205,2020-06-06 00:00:00.000000,0.06540909,0.11783763,0.22977590,18,33,65,10,18,37,0.03648298,0.06628968,0.13243224,0.08193246,0.14026527,0.23920292
17107,0,USIllinoisLogan,Illinois,Logan,2021-01-06 00:22:26.331205,2020-06-07 00:00:00.000000,0.06474989,0.11922439,0.22761753,18,34,65,10,19,37,0.03744601,0.06672504,0.13116178,0.08861273,0.14087382,0.24257873
17107,0,USIllinoisLogan,Illinois,Logan,2021-01-06 00:22:26.331205,2020-06-08 00:00:00.000000,0.06597751,0.12076496,0.22644977,18,34,64,10,19,37,0.03775263,0.06696298,0.12987877,0.09532146,0.14849358,0.24590191
17107,0,USIllinoisLogan,Illinois,Logan,2021-01-06 00:22:26.331205,2020-06-09 00:00:00.000000,0.06531907,0.12624014,0.22896893,18,36,65,10,19,37,0.03702255,0.06697337,0.12969011,0.10116401,0.15151631,0.24671210
17107,0,USIllinoisLogan,Illinois,Logan,2021-01-06 00:22:26.331205,2020-06-10 00:00:00.000000,0.06402875,0.13039937,0.23147504,18,37,66,10,19,37,0.03632112,0.06826918,0.13035537,0.10242054,0.15650392,0.24834749
17107,0,USIllinoisLogan,Illinois,Logan,2021-01-06 00:22:26.331205,2020-06-11 00:00:00.000000,0.06280648,0.13174651,0.23318983,17,37,66,10,20,38,0.03733964,0.07109647,0.13296949,0.10356164,0.15920051,0.25156740
17107,0,USIllinoisLogan,Illinois,Logan,2021-01-06 00:22:26.331205,2020-06-12 00:00:00.000000,0.06168741,0.13138913,0.23932358,17,37,68,10,20,38,0.03833225,0.07230347,0.13365849,0.10534383,0.16546611,0.25673097
17107,0,USIllinoisLogan,Illinois,Logan,2021-01-06 00:22:26.331205,2020-06-13 00:00:00.000000,0.06071666,0.13450538,0.25625732,17,38,73,10,21,38,0.03763022,0.07473356,0.13597173,0.10884819,0.17082381,0.25698867
17107,0,USIllinoisLogan,Illinois,Logan,2021-01-06 00:22:26.331205,2020-06-14 00:00:00.000000,0.05999622,0.13505939,0.27361553,17,38,78,10,21,39,0.03698905,0.07547365,0.13857625,0.11116505,0.17343009,0.25824867
17107,0,USIllinoisLogan,Illinois,Logan,2021-01-06 00:22:26.331205,2020-06-15 00:00:00.000000,0.06019368,0.13783223,0.27691315,17,39,79,10,21,40,0.03644156,0.07572406,0.14275737,0.11659096,0.17345471,0.27322163
17107,0,USIllinoisLogan,Illinois,Logan,2021-01-06 00:22:26.331205,2020-06-16 00:00:00.000000,0.06343321,0.14319594,0.27948673,18,40,79,10,21,43,0.03623987,0.07551458,0.15143797,0.11912086,0.17897284,0.28806085
17107,0,USIllinoisLogan,Illinois,Logan,2021-01-06 00:22:26.331205,2020-06-17 00:00:00.000000,0.06370828,0.14443548,0.28149430,18,41,80,10,22,45,0.03650069,0.07689365,0.15995055,0.11928556,0.18760388,0.29277190
17107,0,USIllinoisLogan,Illinois,Logan,2021-01-06 00:22:26.331205,2020-06-18 00:00:00.000000,0.06433813,0.15109453,0.29483689,18,43,84,11,22,47,0.03861526,0.07821800,0.16519392,0.13054201,0.19453286,0.29333160
17107,0,USIllinoisLogan,Illinois,Logan,2021-01-06 00:22:26.331205,2020-06-19 00:00:00.000000,0.06522557,0.15345109,0.30318311,18,43,86,11,22,47,0.03916535,0.07940117,0.16706912,0.13580195,0.19710568,0.30323195
17107,0,USIllinoisLogan,Illinois,Logan,2021-01-06 00:22:26.331205,2020-06-20 00:00:00.000000,0.06627613,0.15615574,0.30838329,18,44,88,11,23,49,0.03956956,0.08110959,0.17204990,0.13750676,0.20069052,0.31218356
17107,0,USIllinoisLogan,Illinois,Logan,2021-01-06 00:22:26.331205,2020-06-21 00:00:00.000000,0.06742262,0.16066831,0.33185642,19,45,94,11,24,50,0.04010993,0.08523213,0.17817152,0.14315592,0.20434401,0.30716867
17107,0,USIllinoisLogan,Illinois,Logan,2021-01-06 00:22:26.331205,2020-06-22 00:00:00.000000,0.07336092,0.16501516,0.33591341,20,47,96,11,24,51,0.04074296,0.08684577,0.18143738,0.14948751,0.20598025,0.31936784
17107,0,USIllinoisLogan,Illinois,Logan,2021-01-06 00:22:26.331205,2020-06-23 00:00:00.000000,0.07965517,0.17131614,0.33970107,22,49,97,12,25,52,0.04256443,0.08945497,0.18386791,0.14791314,0.20885521,0.33161639
17107,0,USIllinoisLogan,Illinois,Logan,2021-01-06 00:22:26.331205,2020-06-24 00:00:00.000000,0.08619724,0.17750461,0.34264425,24,50,98,12,27,53,0.04500719,0.09571753,0.18577018,0.14844060,0.21014632,0.34315056
17107,0,USIllinoisLogan,Illinois,Logan,2021-01-06 00:22:26.331205,2020-06-25 00:00:00.000000,0.09297331,0.18529676,0.35840908,26,53,102,13,28,53,0.04773430,0.09852486,0.18740124,0.15063066,0.21626458,0.34397028
17107,0,USIllinoisLogan,Illinois,Logan,2021-01-06 00:22:26.331205,2020-06-26 00:00:00.000000,0.09782396,0.18920103,0.37175595,27,54,106,14,28,54,0.05060913,0.10034649,0.18900888,0.15191091,0.22172513,0.36689842
17107,0,USIllinoisLogan,Illinois,Logan,2021-01-06 00:22:26.331205,2020-06-27 00:00:00.000000,0.09771080,0.19600323,0.37669258,27,56,107,15,29,55,0.05366101,0.10175869,0.19223938,0.15582408,0.22731593,0.37710813
17107,0,USIllinoisLogan,Illinois,Logan,2021-01-06 00:22:26.331205,2020-06-28 00:00:00.000000,0.09977056,0.20224673,0.38703060,28,57,110,15,30,56,0.05513672,0.10485415,0.19740678,0.16182138,0.22926976,0.38214382
17107,0,USIllinoisLogan,Illinois,Logan,2021-01-06 00:22:26.331205,2020-06-29 00:00:00.000000,0.11307594,0.21648266,0.40221946,32,61,115,15,31,57,0.05492007,0.10933569,0.20235234,0.16590415,0.24392079,0.39814221
17107,0,USIllinoisLogan,Illinois,Logan,2021-01-06 00:22:26.331205,2020-06-30 00:00:00.000000,0.12997932,0.23131726,0.41776021,37,66,119,17,32,61,0.06135686,0.11475747,0.21558204,0.16643595,0.26105996,0.40336583
17107,0,USIllinoisLogan,Illinois,Logan,2021-01-06 00:22:26.331205,2020-07-01 00:00:00.000000,0.13802037,0.24922661,0.42742436,39,71,122,19,34,64,0.06738508,0.11918271,0.22677362,0.18034920,0.26428908,0.40498536
17107,0,USIllinoisLogan,Illinois,Logan,2021-01-06 00:22:26.331205,2020-07-02 00:00:00.000000,0.14113155,0.25700931,0.43223185,40,73,123,20,36,66,0.07270251,0.12600962,0.23401749,0.18346375,0.27374148,0.40487177
17107,0,USIllinoisLogan,Illinois,Logan,2021-01-06 00:22:26.331205,2020-07-03 00:00:00.000000,0.14476714,0.27340862,0.44632841,41,78,127,21,37,67,0.07683669,0.13166167,0.23732614,0.18593745,0.28132771,0.44232643
17107,0,USIllinoisLogan,Illinois,Logan,2021-01-06 00:22:26.331205,2020-07-04 00:00:00.000000,0.14889873,0.28498120,0.46578796,42,81,133,23,39,71,0.08097517,0.13764204,0.24828569,0.18922575,0.29792116,0.45476652
17107,0,USIllinoisLogan,Illinois,Logan,2021-01-06 00:22:26.331205,2020-07-05 00:00:00.000000,0.15351285,0.30480304,0.49649754,43,87,142,24,41,73,0.08514821,0.14519057,0.25703045,0.19365511,0.32202603,0.46022033
17107,0,USIllinoisLogan,Illinois,Logan,2021-01-06 00:22:26.331205,2020-07-06 00:00:00.000000,0.16897610,0.32136944,0.53150686,48,91,152,25,44,75,0.08935451,0.15531022,0.26417895,0.19897562,0.33402268,0.47265330
17107,0,USIllinoisLogan,Illinois,Logan,2021-01-06 00:22:26.331205,2020-07-07 00:00:00.000000,0.18305714,0.34869860,0.57644827,52,99,164,26,47,77,0.09360947,0.16755870,0.27036137,0.20413282,0.34726612,0.49069867
17107,0,USIllinoisLogan,Illinois,Logan,2021-01-06 00:22:26.331205,2020-07-08 00:00:00.000000,0.19905926,0.36665953,0.62415894,56,104,178,28,49,81,0.09997267,0.17380552,0.28584736,0.20856276,0.35664206,0.52302917
17107,0,USIllinoisLogan,Illinois,Logan,2021-01-06 00:22:26.331205,2020-07-09 00:00:00.000000,0.21479812,0.38920330,0.67351900,61,111,192,30,53,86,0.10725137,0.18575248,0.30264222,0.21464488,0.36380867,0.52327010
17107,0,USIllinoisLogan,Illinois,Logan,2021-01-06 00:22:26.331205,2020-07-10 00:00:00.000000,0.22065809,0.41214880,0.70352875,63,117,201,32,57,88,0.11410985,0.19949980,0.31072642,0.22790213,0.36796860,0.52568036
17107,0,USIllinoisLogan,Illinois,Logan,2021-01-06 00:22:26.331205,2020-07-11 00:00:00.000000,0.23576929,0.44964126,0.71529355,67,128,204,34,61,94,0.12144576,0.21373090,0.33006242,0.22732443,0.37384281,0.52017733
17107,0,USIllinoisLogan,Illinois,Logan,2021-01-06 00:22:26.331205,2020-07-12 00:00:00.000000,0.25359764,0.48039549,0.73337827,72,137,209,36,66,100,0.12905389,0.23135994,0.35249195,0.22730056,0.37701178,0.51677148
17107,0,USIllinoisLogan,Illinois,Logan,2021-01-06 00:22:26.331205,2020-07-13 00:00:00.000000,0.28802097,0.49876641,0.77288064,82,142,221,39,71,108,0.13951174,0.24836277,0.37880276,0.22812842,0.38578087,0.51157931
17107,0,USIllinoisLogan,Illinois,Logan,2021-01-06 00:22:26.331205,2020-07-14 00:00:00.000000,0.30838387,0.53168550,0.81448970,88,152,233,42,75,115,0.14844005,0.26434780,0.40399086,0.25228344,0.39365989,0.52939438
17107,0,USIllinoisLogan,Illinois,Logan,2021-01-06 00:22:26.331205,2020-07-15 00:00:00.000000,0.32448674,0.56016929,0.86050364,92,160,246,46,80,121,0.16175496,0.28040278,0.42542023,0.25048299,0.39809916,0.54447810
17107,0,USIllinoisLogan,Illinois,Logan,2021-01-06 00:22:26.331205,2020-07-16 00:00:00.000000,0.35582847,0.58826474,0.93507813,101,168,267,51,84,130,0.18056465,0.29602737,0.45510916,0.25033050,0.40935754,0.54170891
17107,0,USIllinoisLogan,Illinois,Logan,2021-01-06 00:22:26.331205,2020-07-17 00:00:00.000000,0.38307282,0.62660750,1.01479343,109,179,290,54,88,137,0.19080754,0.31035323,0.48184333,0.26193151,0.42373519,0.54991814
17107,0,USIllinoisLogan,Illinois,Logan,2021-01-06 00:22:26.331205,2020-07-18 00:00:00.000000,0.40847775,0.67674567,1.09975694,116,193,314,57,94,145,0.20159987,0.33155853,0.50949158,0.27109284,0.43855929,0.56640142
17107,0,USIllinoisLogan,Illinois,Logan,2021-01-06 00:22:26.331205,2020-07-19 00:00:00.000000,0.43541396,0.73427760,1.14694779,124,210,328,61,101,153,0.21429205,0.35464746,0.53765626,0.28597579,0.44231611,0.57999010
17107,0,USIllinoisLogan,Illinois,Logan,2021-01-06 00:22:26.331205,2020-07-20 00:00:00.000000,0.46487686,0.77733928,1.19026818,133,222,340,65,108,161,0.22924626,0.37760927,0.56592773,0.29454045,0.45023997,0.58676495
17107,0,USIllinoisLogan,Illinois,Logan,2021-01-06 00:22:26.331205,2020-07-21 00:00:00.000000,0.50369160,0.81686611,1.23457320,144,233,353,70,115,174,0.24696325,0.40364430,0.61139765,0.29930573,0.44704363,0.59891800
17107,0,USIllinoisLogan,Illinois,Logan,2021-01-06 00:22:26.331205,2020-07-22 00:00:00.000000,0.54822697,0.86913981,1.31465440,156,248,376,76,122,187,0.26694387,0.42688522,0.65468429,0.29707287,0.44339353,0.60395866
17107,0,USIllinoisLogan,Illinois,Logan,2021-01-06 00:22:26.331205,2020-07-23 00:00:00.000000,0.58878268,0.93243433,1.41369727,168,266,404,82,130,199,0.28897976,0.45767869,0.69727948,0.29486730,0.44404940,0.59778197
17107,0,USIllinoisLogan,Illinois,Logan,2021-01-06 00:22:26.331205,2020-07-24 00:00:00.000000,0.62410640,1.01315151,1.51929859,178,289,434,88,141,212,0.31098500,0.49311175,0.74173222,0.29296366,0.44419334,0.58468801
17107,0,USIllinoisLogan,Illinois,Logan,2021-01-06 00:22:26.331205,2020-07-25 00:00:00.000000,0.67746287,1.08077623,1.59236034,193,309,455,95,150,224,0.33386288,0.52655673,0.78277114,0.30873499,0.45165139,0.58498044
17107,0,USIllinoisLogan,Illinois,Logan,2021-01-06 00:22:26.331205,2020-07-26 00:00:00.000000,0.73607719,1.16601852,1.66325388,210,333,475,103,160,236,0.36104894,0.56170550,0.82645886,0.33251412,0.45177091,0.58771402
17107,0,USIllinoisLogan,Illinois,Logan,2021-01-06 00:22:26.331205,2020-07-27 00:00:00.000000,0.80089636,1.23978889,1.73757517,229,354,497,111,170,249,0.39007882,0.59701042,0.87344647,0.33003489,0.45299114,0.58856733
17107,0,USIllinoisLogan,Illinois,Logan,2021-01-06 00:22:26.331205,2020-07-28 00:00:00.000000,0.87034044,1.33045653,1.85086921,249,380,529,120,181,266,0.42248163,0.63316330,0.93116185,0.33265099,0.45808731,0.58182198
17107,0,USIllinoisLogan,Illinois,Logan,2021-01-06 00:22:26.331205,2020-07-29 00:00:00.000000,0.94305594,1.41446346,1.99959981,269,404,572,128,195,282,0.44830369,0.68485562,0.98682263,0.34189547,0.45652993,0.57635534
17107,0,USIllinoisLogan,Illinois,Logan,2021-01-06 00:22:26.331205,2020-07-30 00:00:00.000000,0.99066768,1.50394104,2.15513086,283,430,616,136,211,297,0.47574065,0.74074169,1.03882437,0.34693365,0.46069945,0.56589978
17107,0,USIllinoisLogan,Illinois,Logan,2021-01-06 00:22:26.331205,2020-07-31 00:00:00.000000,1.08122282,1.60490309,2.31067684,309,459,661,143,226,312,0.50096846,0.79075729,1.09240302,0.35228622,0.45968702,0.56885384
17107,0,USIllinoisLogan,Illinois,Logan,2021-01-06 00:22:26.331205,2020-08-01 00:00:00.000000,1.16761099,1.69328078,2.44177598,334,484,698,150,241,328,0.52614982,0.84261820,1.14755305,0.34855406,0.44909655,0.57895919
17107,0,USIllinoisLogan,Illinois,Logan,2021-01-06 00:22:26.331205,2020-08-02 00:00:00.000000,1.25000582,1.79568186,2.53363395,357,513,725,162,253,344,0.56794529,0.88462087,1.20352493,0.34103694,0.44105794,0.56928440
17107,0,USIllinoisLogan,Illinois,Logan,2021-01-06 00:22:26.331205,2020-08-03 00:00:00.000000,1.32907900,1.89198790,2.62096836,380,541,750,171,267,360,0.59967510,0.93633292,1.26027644,0.36068928,0.43526413,0.57356460
17107,0,USIllinoisLogan,Illinois,Logan,2021-01-06 00:22:26.331205,2020-08-04 00:00:00.000000,1.40817100,2.00055293,2.73949829,402,572,783,183,284,380,0.64061940,0.99552547,1.33052587,0.34159293,0.42306175,0.57409930
17107,0,USIllinoisLogan,Illinois,Logan,2021-01-06 00:22:26.331205,2020-08-05 00:00:00.000000,1.48891167,2.10303787,2.84209987,426,601,813,196,299,401,0.68544503,1.04770251,1.40183750,0.32811325,0.41930998,0.57137875
17107,0,USIllinoisLogan,Illinois,Logan,2021-01-06 00:22:26.331205,2020-08-06 00:00:00.000000,1.57139166,2.20436351,2.93433983,449,630,839,209,317,419,0.73204177,1.10892687,1.46748690,0.32087061,0.41021980,0.56415688
17107,0,USIllinoisLogan,Illinois,Logan,2021-01-06 00:22:26.331205,2020-08-07 00:00:00.000000,1.65526147,2.30974854,3.05923832,473,661,875,222,334,437,0.77901947,1.16779592,1.52738903,0.29035669,0.39754498,0.55560355
17107,0,USIllinoisLogan,Illinois,Logan,2021-01-06 00:22:26.331205,2020-08-08 00:00:00.000000,1.73886656,2.38247406,3.19438484,497,681,914,236,351,467,0.82515244,1.22686045,1.63390239,0.27168405,0.37760984,0.53978317
17107,0,USIllinoisLogan,Illinois,Logan,2021-01-06 00:22:26.331205,2020-08-09 00:00:00.000000,1.81741928,2.41190261,3.31308979,520,690,948,248,367,501,0.86922594,1.28521314,1.75302940,0.26404138,0.34960665,0.47224002
17107,0,USIllinoisLogan,Illinois,Logan,2021-01-06 00:22:26.331205,2020-08-10 00:00:00.000000,1.85585242,2.46920083,3.41563459,531,706,977,260,382,520,0.91058671,1.33484477,1.81939730,0.24075699,0.33491401,0.44060597
17107,0,USIllinoisLogan,Illinois,Logan,2021-01-06 00:22:26.331205,2020-08-11 00:00:00.000000,1.87456299,2.51859471,3.52149656,536,720,1007,271,393,535,0.94925648,1.37446457,1.87049335,0.22894143,0.31888968,0.42713213
17107,0,USIllinoisLogan,Illinois,Logan,2021-01-06 00:22:26.331205,2020-08-12 00:00:00.000000,1.87718126,2.56543996,3.58383958,537,734,1025,282,403,557,0.98588262,1.40952774,1.94830565,0.21658718,0.31163386,0.41287534
17107,0,USIllinoisLogan,Illinois,Logan,2021-01-06 00:22:26.331205,2020-08-13 00:00:00.000000,1.91997788,2.60798686,3.65311444,549,746,1045,284,412,580,0.99254029,1.44115046,2.02802302,0.20824607,0.30005938,0.41205324
17107,0,USIllinoisLogan,Illinois,Logan,2021-01-06 00:22:26.331205,2020-08-14 00:00:00.000000,1.96668190,2.65287790,3.70809223,562,759,1061,282,420,600,0.98803848,1.47020318,2.09897218,0.20196246,0.29140905,0.38889494
17107,0,USIllinoisLogan,Illinois,Logan,2021-01-06 00:22:26.331205,2020-08-15 00:00:00.000000,1.96534279,2.68972614,3.75049189,562,769,1073,290,427,608,1.01348837,1.49455935,2.12732329,0.20043672,0.28748303,0.36867064
17107,0,USIllinoisLogan,Illinois,Logan,2021-01-06 00:22:26.331205,2020-08-16 00:00:00.000000,1.95317610,2.71658985,3.78515042,558,777,1083,300,431,611,1.05001042,1.50699515,2.13650473,0.19984421,0.28053637,0.36333863
17107,0,USIllinoisLogan,Illinois,Logan,2021-01-06 00:22:26.331205,2020-08-17 00:00:00.000000,1.96232952,2.72409212,3.80349038,561,779,1088,310,434,613,1.08391975,1.51832639,2.14516787,0.19622176,0.27314129,0.35341508
17107,0,USIllinoisLogan,Illinois,Logan,2021-01-06 00:22:26.331205,2020-08-18 00:00:00.000000,1.96098567,2.72463933,3.81630410,561,779,1092,319,434,631,1.11527545,1.51872841,2.20749387,0.19241867,0.26773719,0.35284584
17107,0,USIllinoisLogan,Illinois,Logan,2021-01-06 00:22:26.331205,2020-08-19 00:00:00.000000,1.96005845,2.72902985,3.82184654,560,780,1093,319,435,647,1.11658927,1.52180537,2.26130574,0.19238370,0.26522508,0.35227592
17107,0,USIllinoisLogan,Illinois,Logan,2021-01-06 00:22:26.331205,2020-08-20 00:00:00.000000,1.95919988,2.74287678,3.81851602,560,784,1092,315,435,651,1.10184157,1.52121018,2.27747405,0.19222258,0.26660484,0.33604945
17107,0,USIllinoisLogan,Illinois,Logan,2021-01-06 00:22:26.331205,2020-08-21 00:00:00.000000,1.95790055,2.74919399,3.80544485,560,786,1089,310,438,656,1.08655706,1.53314490,2.29238999,0.19024181,0.26467631,0.33204984
17107,0,USIllinoisLogan,Illinois,Logan,2021-01-06 00:22:26.331205,2020-08-22 00:00:00.000000,1.95632358,2.72999054,3.78509976,559,781,1083,306,437,659,1.07115316,1.53038088,2.30549120,0.18819178,0.25954412,0.33362893
17107,0,USIllinoisLogan,Illinois,Logan,2021-01-06 00:22:26.331205,2020-08-23 00:00:00.000000,1.95671179,2.73847473,3.75956536,559,783,1075,302,437,663,1.05586412,1.52940262,2.31779600,0.18630677,0.26060193,0.33718892
17107,0,USIllinoisLogan,Illinois,Logan,2021-01-06 00:22:26.331205,2020-08-24 00:00:00.000000,1.97773153,2.75687606,3.78867721,565,788,1084,297,435,666,1.04078690,1.52130067,2.32943800,0.18509172,0.26071894,0.34370064
17107,0,USIllinoisLogan,Illinois,Logan,2021-01-06 00:22:26.331205,2020-08-25 00:00:00.000000,1.97580215,2.77957588,3.83754643,565,795,1098,293,435,664,1.02658516,1.52155446,2.32357955,0.18435286,0.26082352,0.35347671
17107,0,USIllinoisLogan,Illinois,Logan,2021-01-06 00:22:26.331205,2020-08-26 00:00:00.000000,1.95053938,2.73514446,3.81474384,558,782,1091,289,436,661,1.01304674,1.52584544,2.31236363,0.18442988,0.26056731,0.35134335
17107,0,USIllinoisLogan,Illinois,Logan,2021-01-06 00:22:26.331205,2020-08-27 00:00:00.000000,1.92610505,2.73599841,3.79107065,551,782,1084,290,435,658,1.01485101,1.52315664,2.30015533,0.18049654,0.25855254,0.34112330
17107,0,USIllinoisLogan,Illinois,Logan,2021-01-06 00:22:26.331205,2020-08-28 00:00:00.000000,1.90266008,2.76076434,3.76582749,544,790,1077,292,435,654,1.02100028,1.52213816,2.28712546,0.17554430,0.25627490,0.33249115
17107,0,USIllinoisLogan,Illinois,Logan,2021-01-06 00:22:26.331205,2020-08-29 00:00:00.000000,1.88042865,2.76306004,3.73414741,538,790,1068,294,435,650,1.02732671,1.52110674,2.27330862,0.17185086,0.25484099,0.33227951
17107,0,USIllinoisLogan,Illinois,Logan,2021-01-06 00:22:26.331205,2020-08-30 00:00:00.000000,1.85501966,2.74900256,3.70903080,530,786,1061,295,434,646,1.03396116,1.51827087,2.25794459,0.17160742,0.24596913,0.33071432
17107,0,USIllinoisLogan,Illinois,Logan,2021-01-06 00:22:26.331205,2020-08-31 00:00:00.000000,1.82327789,2.73645570,3.68397242,521,783,1054,294,429,642,1.02742100,1.50011472,2.24586994,0.17180337,0.24216741,0.33252051
17107,0,USIllinoisLogan,Illinois,Logan,2021-01-06 00:22:26.331205,2020-09-01 00:00:00.000000,1.82110093,2.73349669,3.65719126,521,782,1046,283,425,639,0.99050046,1.48741071,2.23514738,0.17219057,0.24011487,0.33251761
17107,0,USIllinoisLogan,Illinois,Logan,2021-01-06 00:22:26.331205,2020-09-02 00:00:00.000000,1.80794565,2.69839946,3.62864028,517,772,1038,273,422,635,0.95582363,1.47647810,2.22178575,0.15830183,0.23747993,0.33250181
17107,0,USIllinoisLogan,Illinois,Logan,2021-01-06 00:22:26.331205,2020-09-03 00:00:00.000000,1.81707958,2.66791835,3.59861061,520,763,1029,264,419,631,0.92305812,1.46462485,2.20758210,0.15777138,0.23439843,0.33230852
17107,0,USIllinoisLogan,Illinois,Logan,2021-01-06 00:22:26.331205,2020-09-04 00:00:00.000000,1.80503505,2.61418679,3.60162985,516,748,1030,260,416,632,0.91199643,1.45592406,2.21030002,0.15805386,0.23131956,0.33197162
17107,0,USIllinoisLogan,Illinois,Logan,2021-01-06 00:22:26.331205,2020-09-05 00:00:00.000000,1.77647720,2.56019369,3.59192591,508,732,1027,259,414,635,0.90602401,1.44940743,2.22082583,0.15461729,0.22664038,0.31699278
17107,0,USIllinoisLogan,Illinois,Logan,2021-01-06 00:22:26.331205,2020-09-06 00:00:00.000000,1.74350779,2.52224721,3.55002110,498,721,1015,258,411,636,0.90195328,1.43720937,2.22445414,0.15041019,0.21895082,0.30723043
17107,0,USIllinoisLogan,Illinois,Logan,2021-01-06 00:22:26.331205,2020-09-07 00:00:00.000000,1.73765575,2.48482989,3.50235733,497,711,1002,257,403,634,0.89900216,1.40943020,2.21575570,0.12645526,0.21903459,0.30961667
17107,0,USIllinoisLogan,Illinois,Logan,2021-01-06 00:22:26.331205,2020-09-08 00:00:00.000000,1.73523372,2.44366422,3.44768981,496,699,986,258,396,628,0.90229748,1.38644003,2.19748057,0.11886146,0.21480956,0.30507503
17107,0,USIllinoisLogan,Illinois,Logan,2021-01-06 00:22:26.331205,2020-09-09 00:00:00.000000,1.73419752,2.38877411,3.39787304,496,683,972,260,390,621,0.90966553,1.36457718,2.17246615,0.11858249,0.21115917,0.30433491
17107,0,USIllinoisLogan,Illinois,Logan,2021-01-06 00:22:26.331205,2020-09-10 00:00:00.000000,1.73333663,2.33985493,3.41546545,496,669,977,263,383,613,0.91966111,1.33927162,2.14286380,0.11977415,0.20869851,0.30391179
17107,0,USIllinoisLogan,Illinois,Logan,2021-01-06 00:22:26.331205,2020-09-11 00:00:00.000000,1.72574887,2.29636919,3.42750506,493,657,980,266,373,603,0.93131528,1.30461734,2.10812148,0.12213722,0.20696907,0.30313886
17107,0,USIllinoisLogan,Illinois,Logan,2021-01-06 00:22:26.331205,2020-09-12 00:00:00.000000,1.69144867,2.22140055,3.31017185,484,635,947,270,366,588,0.94393586,1.28027259,2.05576812,0.12429077,0.19740005,0.29986461
17107,0,USIllinoisLogan,Illinois,Logan,2021-01-06 00:22:26.331205,2020-09-13 00:00:00.000000,1.65601135,2.15691045,3.17807751,473,617,909,268,357,573,0.93868994,1.24959117,2.00510074,0.12709365,0.19433419,0.28532255
17107,0,USIllinoisLogan,Illinois,Logan,2021-01-06 00:22:26.331205,2020-09-14 00:00:00.000000,1.61829460,2.10094277,3.04024391,463,601,870,262,348,559,0.91647283,1.21687540,1.95609054,0.12679239,0.19117133,0.26547144
17107,0,USIllinoisLogan,Illinois,Logan,2021-01-06 00:22:26.331205,2020-09-15 00:00:00.000000,1.58068689,2.03727911,2.91882543,452,583,835,255,339,547,0.89436859,1.18656210,1.91246738,0.12588357,0.18998056,0.26368698
17107,0,USIllinoisLogan,Illinois,Logan,2021-01-06 00:22:26.331205,2020-09-16 00:00:00.000000,1.54352254,1.96794916,2.82370240,441,563,808,247,331,535,0.86536809,1.16002599,1.87264351,0.12708918,0.18674913,0.26117980
17107,0,USIllinoisLogan,Illinois,Logan,2021-01-06 00:22:26.331205,2020-09-17 00:00:00.000000,1.50441416,1.89249834,2.73056745,430,541,781,237,325,524,0.82835631,1.13748652,1.83234627,0.12805894,0.18738375,0.26523546
17107,0,USIllinoisLogan,Illinois,Logan,2021-01-06 00:22:26.331205,2020-09-18 00:00:00.000000,1.44053297,1.84614460,2.64062371,412,528,755,226,320,508,0.79253353,1.11834757,1.77644164,0.12814278,0.18748091,0.27813332
17107,0,USIllinoisLogan,Illinois,Logan,2021-01-06 00:22:26.331205,2020-09-19 00:00:00.000000,1.38712262,1.78674644,2.55463035,396,511,731,217,314,492,0.76078186,1.09843293,1.72092725,0.12837283,0.18718551,0.28105805
17107,0,USIllinoisLogan,Illinois,Logan,2021-01-06 00:22:26.331205,2020-09-20 00:00:00.000000,1.33995258,1.73163440,2.50540867,383,495,716,210,306,476,0.73529023,1.06962813,1.66659381,0.12893061,0.18979489,0.27839658
17107,0,USIllinoisLogan,Illinois,Logan,2021-01-06 00:22:26.331205,2020-09-21 00:00:00.000000,1.27638977,1.70007350,2.48830967,365,486,712,205,295,461,0.71914761,1.03333293,1.61392993,0.13027812,0.19247314,0.28224620
17107,0,USIllinoisLogan,Illinois,Logan,2021-01-06 00:22:26.331205,2020-09-22 00:00:00.000000,1.23043860,1.68066197,2.47192143,352,480,707,200,288,446,0.69965846,1.00773586,1.56117988,0.13194537,0.19820738,0.28214782
17107,0,USIllinoisLogan,Illinois,Logan,2021-01-06 00:22:26.331205,2020-09-23 00:00:00.000000,1.18790287,1.63916345,2.45560125,339,469,702,194,280,434,0.67840548,0.97906789,1.51965576,0.13437399,0.20354304,0.28186936
17107,0,USIllinoisLogan,Illinois,Logan,2021-01-06 00:22:26.331205,2020-09-24 00:00:00.000000,1.14727576,1.59516347,2.43928801,328,456,698,187,271,431,0.65642529,0.94884393,1.50699279,0.13832829,0.20500562,0.30044679
17107,0,USIllinoisLogan,Illinois,Logan,2021-01-06 00:22:26.331205,2020-09-25 00:00:00.000000,1.11309148,1.56851190,2.42303240,318,448,693,181,264,428,0.63539131,0.92280135,1.49734328,0.15752398,0.20626223,0.29470468
17107,0,USIllinoisLogan,Illinois,Logan,2021-01-06 00:22:26.331205,2020-09-26 00:00:00.000000,1.07091218,1.54986617,2.39523109,306,443,685,179,258,425,0.62642825,0.90470877,1.48775393,0.16700619,0.21012515,0.31583694
17107,0,USIllinoisLogan,Illinois,Logan,2021-01-06 00:22:26.331205,2020-09-27 00:00:00.000000,1.02729004,1.51932241,2.35940232,293,434,675,175,254,423,0.61277158,0.88923025,1.47828679,0.16488852,0.21669050,0.31994018
17107,0,USIllinoisLogan,Illinois,Logan,2021-01-06 00:22:26.331205,2020-09-28 00:00:00.000000,0.98918843,1.48599564,2.32475295,283,425,665,167,250,420,0.58674539,0.87501568,1.46901979,0.16559668,0.22594190,0.32151382
17107,0,USIllinoisLogan,Illinois,Logan,2021-01-06 00:22:26.331205,2020-09-29 00:00:00.000000,0.95686457,1.47033282,2.30937675,273,420,660,165,244,417,0.57673123,0.85534614,1.45983733,0.16720876,0.23400450,0.33200928
17107,0,USIllinoisLogan,Illinois,Logan,2021-01-06 00:22:26.331205,2020-09-30 00:00:00.000000,0.93760231,1.45673577,2.30685481,268,416,660,164,240,415,0.57317613,0.84078161,1.45097948,0.16556262,0.24028600,0.33936003
17107,0,USIllinoisLogan,Illinois,Logan,2021-01-06 00:22:26.331205,2020-10-01 00:00:00.000000,0.92401409,1.44434083,2.28385678,264,413,653,161,237,412,0.56533132,0.82837942,1.44279402,0.16443292,0.24775947,0.36271572
17107,0,USIllinoisLogan,Illinois,Logan,2021-01-06 00:22:26.331205,2020-10-02 00:00:00.000000,0.91641523,1.46475982,2.30562090,262,419,659,159,234,410,0.55601125,0.82073190,1.43577428,0.16652032,0.25880128,0.40215041
17107,0,USIllinoisLogan,Illinois,Logan,2021-01-06 00:22:26.331205,2020-10-03 00:00:00.000000,0.91652356,1.47010050,2.31565405,262,420,662,158,231,409,0.55227220,0.81053982,1.42983451,0.17829294,0.27861294,0.46147593
17107,0,USIllinoisLogan,Illinois,Logan,2021-01-06 00:22:26.331205,2020-10-04 00:00:00.000000,0.91559776,1.48799667,2.32633252,262,425,665,157,229,408,0.55073633,0.80233648,1.42675373,0.18494221,0.29115128,0.47052593
17107,0,USIllinoisLogan,Illinois,Logan,2021-01-06 00:22:26.331205,2020-10-05 00:00:00.000000,0.92945924,1.49382267,2.36423085,265,427,676,157,228,408,0.55104671,0.79835966,1.42739381,0.19403578,0.30678433,0.47132468
17107,0,USIllinoisLogan,Illinois,Logan,2021-01-06 00:22:26.331205,2020-10-06 00:00:00.000000,0.94426844,1.51731447,2.40825723,270,434,689,156,230,411,0.54578796,0.80499531,1.43715247,0.20090744,0.32031341,0.47158673
17107,0,USIllinoisLogan,Illinois,Logan,2021-01-06 00:22:26.331205,2020-10-07 00:00:00.000000,0.95973435,1.53156191,2.45455042,274,438,702,156,231,413,0.54821647,0.80842952,1.44341666,0.21904449,0.33241652,0.48188260
17107,0,USIllinoisLogan,Illinois,Logan,2021-01-06 00:22:26.331205,2020-10-08 00:00:00.000000,0.97571106,1.54793981,2.50069119,279,442,715,159,233,417,0.55581428,0.81651415,1.45944894,0.23417997,0.34813607,0.50605546
17107,0,USIllinoisLogan,Illinois,Logan,2021-01-06 00:22:26.331205,2020-10-09 00:00:00.000000,0.99234595,1.59970236,2.55196544,283,457,730,162,238,423,0.56637343,0.83185998,1.47986506,0.23669390,0.36672246,0.50723075
17107,0,USIllinoisLogan,Illinois,Logan,2021-01-06 00:22:26.331205,2020-10-10 00:00:00.000000,1.01243989,1.64411982,2.60740417,289,470,746,166,242,430,0.58099661,0.84644399,1.50420875,0.24709868,0.39053582,0.53499102
17107,0,USIllinoisLogan,Illinois,Logan,2021-01-06 00:22:26.331205,2020-10-11 00:00:00.000000,1.06770481,1.69532351,2.66627657,305,485,763,170,250,438,0.59696443,0.87697702,1.53183629,0.25713252,0.41621169,0.55425469
17107,0,USIllinoisLogan,Illinois,Logan,2021-01-06 00:22:26.331205,2020-10-12 00:00:00.000000,1.16275726,1.74566156,2.73271806,332,499,782,173,255,446,0.60506889,0.89359416,1.56189604,0.26373722,0.44324218,0.56938913
17107,0,USIllinoisLogan,Illinois,Logan,2021-01-06 00:22:26.331205,2020-10-13 00:00:00.000000,1.26576111,1.81615553,2.80179543,362,519,801,177,264,456,0.61982941,0.92378334,1.59561263,0.27143953,0.46173284,0.58279199
17107,0,USIllinoisLogan,Illinois,Logan,2021-01-06 00:22:26.331205,2020-10-14 00:00:00.000000,1.32890726,1.91073696,2.87324061,380,546,822,183,277,467,0.64041983,0.97019047,1.63226763,0.28372097,0.48040576,0.60446249
17107,0,USIllinoisLogan,Illinois,Logan,2021-01-06 00:22:26.331205,2020-10-15 00:00:00.000000,1.40424433,2.01914308,2.94717672,401,577,843,190,292,478,0.66628324,1.02325054,1.67132127,0.30151354,0.49420955,0.62543895
17107,0,USIllinoisLogan,Illinois,Logan,2021-01-06 00:22:26.331205,2020-10-16 00:00:00.000000,1.47113238,2.11654019,3.06697306,421,605,877,199,306,490,0.69668415,1.06944689,1.71426755,0.31592063,0.50692015,0.67418427
17107,0,USIllinoisLogan,Illinois,Logan,2021-01-06 00:22:26.331205,2020-10-17 00:00:00.000000,1.54813470,2.24134197,3.20919477,443,641,918,216,321,512,0.75523429,1.12371871,1.79127847,0.30744582,0.52544724,0.70267007
17107,0,USIllinoisLogan,Illinois,Logan,2021-01-06 00:22:26.331205,2020-10-18 00:00:00.000000,1.65802415,2.40271727,3.42592552,474,687,980,236,334,533,0.82712757,1.16803783,1.86529179,0.36292091,0.54371543,0.71385387
17107,0,USIllinoisLogan,Illinois,Logan,2021-01-06 00:22:26.331205,2020-10-19 00:00:00.000000,1.78267618,2.58743091,3.66884876,510,740,1049,253,352,551,0.88498753,1.23036524,1.92570178,0.35638697,0.55744141,0.71924448
17107,0,USIllinoisLogan,Illinois,Logan,2021-01-06 00:22:26.331205,2020-10-20 00:00:00.000000,1.91367544,2.79615857,3.92845629,547,800,1124,271,371,571,0.95002234,1.29845297,1.99572562,0.35390255,0.57260892,0.72938190
17107,0,USIllinoisLogan,Illinois,Logan,2021-01-06 00:22:26.331205,2020-10-21 00:00:00.000000,2.06035417,2.97079736,4.19867263,589,850,1201,288,396,594,1.00763435,1.38381355,2.07876578,0.38255813,0.59843972,0.74847586
17107,0,USIllinoisLogan,Illinois,Logan,2021-01-06 00:22:26.331205,2020-10-22 00:00:00.000000,2.21238155,3.21900687,4.52858031,633,921,1295,307,429,623,1.07333084,1.49916347,2.17718257,0.38301481,0.61526180,0.85269058
17107,0,USIllinoisLogan,Illinois,Logan,2021-01-06 00:22:26.331205,2020-10-23 00:00:00.000000,2.38121207,3.49826179,5.00846418,681,1001,1433,327,465,655,1.14532990,1.62750863,2.28936589,0.38929644,0.64807187,0.92818509
17107,0,USIllinoisLogan,Illinois,Logan,2021-01-06 00:22:26.331205,2020-10-24 00:00:00.000000,2.61118327,3.76647891,5.48081604,747,1077,1568,353,500,690,1.23592786,1.74775084,2.41382255,0.44282717,0.69098550,0.93194730
17107,0,USIllinoisLogan,Illinois,Logan,2021-01-06 00:22:26.331205,2020-10-25 00:00:00.000000,2.85106090,4.11425457,5.89769171,815,1177,1687,383,545,733,1.33953899,1.90683513,2.56376970,0.47492594,0.69994441,0.91855017
17107,0,USIllinoisLogan,Illinois,Logan,2021-01-06 00:22:26.331205,2020-10-26 00:00:00.000000,3.13490708,4.50718332,6.34276211,897,1289,1815,409,594,787,1.43222286,2.07796739,2.75247055,0.49193147,0.71243357,0.90074913
17107,0,USIllinoisLogan,Illinois,Logan,2021-01-06 00:22:26.331205,2020-10-27 00:00:00.000000,3.47804724,4.92006376,6.81280835,995,1408,1949,439,638,851,1.53571723,2.23060458,2.97586468,0.52969831,0.73306796,0.89182338
17107,0,USIllinoisLogan,Illinois,Logan,2021-01-06 00:22:26.331205,2020-10-28 00:00:00.000000,3.82103591,5.35360538,7.30810903,1093,1532,2091,484,693,917,1.69186476,2.42415808,3.20720092,0.54573262,0.74633205,0.89435261
17107,0,USIllinoisLogan,Illinois,Logan,2021-01-06 00:22:26.331205,2020-10-29 00:00:00.000000,4.18401760,5.84524158,7.82861812,1197,1672,2240,534,760,994,1.86678475,2.65728487,3.47632346,0.56269563,0.75216669,0.89079523
17107,0,USIllinoisLogan,Illinois,Logan,2021-01-06 00:22:26.331205,2020-10-30 00:00:00.000000,4.57447073,6.36784398,8.37343504,1309,1822,2396,589,836,1076,2.06031125,2.92251277,3.76280898,0.57734452,0.76057262,0.88040192
17107,0,USIllinoisLogan,Illinois,Logan,2021-01-06 00:22:26.331205,2020-10-31 00:00:00.000000,4.98699400,6.97343638,8.96112985,1427,1995,2564,650,908,1163,2.27296161,3.17341296,4.06484432,0.57479582,0.75702930,0.87462455
17107,0,USIllinoisLogan,Illinois,Logan,2021-01-06 00:22:26.331205,2020-11-01 00:00:00.000000,5.48969683,7.54060430,9.71976346,1571,2157,2781,715,996,1264,2.49941998,3.48292961,4.41855807,0.58083919,0.74565582,0.89429969
17107,0,USIllinoisLogan,Illinois,Logan,2021-01-06 00:22:26.331205,2020-11-02 00:00:00.000000,6.05654773,8.16271838,10.50491570,1733,2336,3006,766,1086,1382,2.67721963,3.79689081,4.82969901,0.58947074,0.72863108,0.89561810
17107,0,USIllinoisLogan,Illinois,Logan,2021-01-06 00:22:26.331205,2020-11-03 00:00:00.000000,6.69569446,8.84555230,11.33688617,1916,2531,3244,840,1173,1507,2.93581199,4.10022513,5.26664168,0.59082720,0.71901606,0.89986235
17107,0,USIllinoisLogan,Illinois,Logan,2021-01-06 00:22:26.331205,2020-11-04 00:00:00.000000,7.23167183,9.51679666,12.22646674,2069,2723,3498,910,1280,1638,3.18210274,4.47325822,5.72408776,0.56896501,0.69712326,0.87219807
17107,0,USIllinoisLogan,Illinois,Logan,2021-01-06 00:22:26.331205,2020-11-05 00:00:00.000000,7.68648183,10.24044443,13.11543034,2199,2930,3753,1000,1384,1755,3.49469772,4.83838251,6.13253382,0.56071791,0.69121595,0.85348897
17107,0,USIllinoisLogan,Illinois,Logan,2021-01-06 00:22:26.331205,2020-11-06 00:00:00.000000,8.13426890,10.85321641,13.97756106,2327,3105,4000,1070,1495,1861,3.73963723,5.22426704,6.50603235,0.54568704,0.68413209,0.85081743
17107,0,USIllinoisLogan,Illinois,Logan,2021-01-06 00:22:26.331205,2020-11-07 00:00:00.000000,8.60278718,11.58348053,14.68257568,2461,3314,4201,1143,1591,2018,3.99507719,5.56201542,7.05495439,0.53252543,0.65373426,0.82287515
17107,0,USIllinoisLogan,Illinois,Logan,2021-01-06 00:22:26.331205,2020-11-08 00:00:00.000000,9.11856642,12.14144001,15.38988186,2609,3474,4404,1219,1702,2184,4.25995753,5.94862043,7.63269670,0.51039551,0.62454016,0.79660561
17107,0,USIllinoisLogan,Illinois,Logan,2021-01-06 00:22:26.331205,2020-11-09 00:00:00.000000,9.54963105,12.60985458,16.16307924,2732,3608,4625,1297,1805,2320,4.53391466,6.30835696,8.10763140,0.45598449,0.59793973,0.76765182
17107,0,USIllinoisLogan,Illinois,Logan,2021-01-06 00:22:26.331205,2020-11-10 00:00:00.000000,9.93291098,13.11535303,16.71715202,2842,3753,4784,1358,1892,2439,4.74534590,6.61251520,8.52473717,0.44226335,0.58225880,0.73753814
17107,0,USIllinoisLogan,Illinois,Logan,2021-01-06 00:22:26.331205,2020-11-11 00:00:00.000000,10.37827845,13.58847464,17.22937214,2970,3888,4930,1402,1976,2546,4.90057604,6.90509136,8.89880833,0.43934462,0.57207147,0.70009649
17107,0,USIllinoisLogan,Illinois,Logan,2021-01-06 00:22:26.331205,2020-11-12 00:00:00.000000,10.79251221,13.94693472,17.65344328,3088,3991,5052,1444,2075,2640,5.04638166,7.25326145,9.22777913,0.41619639,0.56640231,0.69348625
17107,0,USIllinoisLogan,Illinois,Logan,2021-01-06 00:22:26.331205,2020-11-13 00:00:00.000000,11.16161955,14.27512758,17.99754891,3194,4085,5150,1485,2146,2722,5.19207343,7.50010478,9.51163593,0.40164511,0.55958630,0.67733910
17107,0,USIllinoisLogan,Illinois,Logan,2021-01-06 00:22:26.331205,2020-11-14 00:00:00.000000,11.50215188,14.57931303,18.39057322,3291,4172,5263,1529,2216,2792,5.34594605,7.74608815,9.75745221,0.37736122,0.54580966,0.67218889
17107,0,USIllinoisLogan,Illinois,Logan,2021-01-06 00:22:26.331205,2020-11-15 00:00:00.000000,11.82459388,14.94893154,18.70871405,3383,4278,5354,1576,2267,2888,5.50886059,7.92395193,10.09263820,0.37701251,0.53769340,0.65238393
17107,0,USIllinoisLogan,Illinois,Logan,2021-01-06 00:22:26.331205,2020-11-16 00:00:00.000000,12.08208928,15.33629658,18.96395196,3457,4388,5427,1624,2321,2973,5.67662947,8.11340159,10.38967358,0.37744315,0.53996536,0.66497416
17107,0,USIllinoisLogan,Illinois,Logan,2021-01-06 00:22:26.331205,2020-11-17 00:00:00.000000,12.19818269,15.75948470,19.38385280,3490,4510,5547,1672,2370,3047,5.84295097,8.28254469,10.65040761,0.37833804,0.54174904,0.70279587
17107,0,USIllinoisLogan,Illinois,Logan,2021-01-06 00:22:26.331205,2020-11-18 00:00:00.000000,12.34841536,16.07923999,19.86379815,3533,4601,5684,1718,2441,3112,6.00567083,8.53072548,10.87658777,0.38012661,0.54613941,0.70683533
17107,0,USIllinoisLogan,Illinois,Logan,2021-01-06 00:22:26.331205,2020-11-19 00:00:00.000000,12.35053541,16.44240044,20.09992705,3534,4705,5752,1764,2506,3206,6.16568882,8.75725049,11.20465082,0.38390121,0.55264264,0.70405530
17107,0,USIllinoisLogan,Illinois,Logan,2021-01-06 00:22:26.331205,2020-11-20 00:00:00.000000,12.27033415,16.61337888,20.52105035,3511,4754,5872,1811,2544,3302,6.32894983,8.89108317,11.53993401,0.40774226,0.56460689,0.75044946
17107,0,USIllinoisLogan,Illinois,Logan,2021-01-06 00:22:26.331205,2020-11-21 00:00:00.000000,12.12731387,16.74626735,21.01969025,3470,4792,6015,1860,2576,3395,6.50059628,9.00332161,11.86357201,0.40910425,0.57394708,0.79007629
17107,0,USIllinoisLogan,Illinois,Logan,2021-01-06 00:22:26.331205,2020-11-22 00:00:00.000000,12.03419146,16.80188859,21.45706375,3443,4808,6140,1910,2609,3485,6.67741355,9.11983206,12.17917467,0.41143182,0.59359317,0.80579376
17107,0,USIllinoisLogan,Illinois,Logan,2021-01-06 00:22:26.331205,2020-11-23 00:00:00.000000,12.05643284,17.08141691,21.78171989,3450,4888,6233,1955,2630,3529,6.83242459,9.19288233,12.33275043,0.42596177,0.61459707,0.81999684
17107,0,USIllinoisLogan,Illinois,Logan,2021-01-06 00:22:26.331205,2020-11-24 00:00:00.000000,12.19020785,17.32413172,22.08765373,3488,4957,6321,1972,2651,3578,6.89206408,9.26674092,12.50570744,0.48507774,0.63308344,0.85441722
17107,0,USIllinoisLogan,Illinois,Logan,2021-01-06 00:22:26.331205,2020-11-25 00:00:00.000000,12.42908203,17.36671414,22.37534073,3556,4970,6403,1998,2667,3637,6.98385042,9.32050256,12.71127792,0.49922123,0.66512194,0.86609845
17107,0,USIllinoisLogan,Illinois,Logan,2021-01-06 00:22:26.331205,2020-11-26 00:00:00.000000,12.58152577,17.68846667,22.64122568,3600,5062,6479,2033,2701,3702,7.10508692,9.43955699,12.93937328,0.50531550,0.69114113,0.88426868
17107,0,USIllinoisLogan,Illinois,Logan,2021-01-06 00:22:26.331205,2020-11-27 00:00:00.000000,12.75573475,17.90628177,22.89189102,3650,5124,6551,2076,2738,3772,7.25629884,9.56791676,13.18312854,0.52792837,0.71261431,0.93003629
17107,0,USIllinoisLogan,Illinois,Logan,2021-01-06 00:22:26.331205,2020-11-28 00:00:00.000000,13.08736774,18.16966337,23.17618657,3745,5199,6632,2124,2784,3839,7.42385140,9.72993962,13.41718642,0.55299675,0.75786330,1.00130215
17107,0,USIllinoisLogan,Illinois,Logan,2021-01-06 00:22:26.331205,2020-11-29 00:00:00.000000,13.45163283,18.13522134,23.37523133,3849,5189,6689,2176,2817,3867,7.60559582,9.84653147,13.51579922,0.55946634,0.79540076,1.01062465
17107,0,USIllinoisLogan,Illinois,Logan,2021-01-06 00:22:26.331205,2020-11-30 00:00:00.000000,13.81881251,18.28251734,23.63731817,3954,5232,6764,2233,2843,3895,7.80465191,9.93628266,13.61106679,0.61324907,0.81625943,1.06975531
17107,0,USIllinoisLogan,Illinois,Logan,2021-01-06 00:22:26.331205,2020-12-01 00:00:00.000000,14.16295588,18.49068352,23.87404151,4053,5291,6832,2285,2868,3925,7.98576043,10.02315081,13.71647200,0.62984871,0.83852679,1.10044302
17107,0,USIllinoisLogan,Illinois,Logan,2021-01-06 00:22:26.331205,2020-12-02 00:00:00.000000,14.47086222,18.66474406,24.02771766,4141,5341,6876,2310,2883,3965,8.07291944,10.07437123,13.85756879,0.63041302,0.86328896,1.10438777
17107,0,USIllinoisLogan,Illinois,Logan,2021-01-06 00:22:26.331205,2020-12-03 00:00:00.000000,14.72497501,18.60678344,24.25401077,4213,5324,6941,2327,2894,4021,8.13280320,10.11519964,14.05332610,0.64417138,0.88224259,1.15971764
17107,0,USIllinoisLogan,Illinois,Logan,2021-01-06 00:22:26.331205,2020-12-04 00:00:00.000000,14.88070330,18.55190023,24.52310104,4258,5309,7018,2345,2904,4094,8.19419091,10.14814078,14.30689175,0.64365425,0.88820666,1.20263005
17107,0,USIllinoisLogan,Illinois,Logan,2021-01-06 00:22:26.331205,2020-12-05 00:00:00.000000,14.86765201,18.33261839,24.45838757,4254,5246,6999,2363,2911,4155,8.25815338,10.17320680,14.51968572,0.63373599,0.88820991,1.23998850
17107,0,USIllinoisLogan,Illinois,Logan,2021-01-06 00:22:26.331205,2020-12-06 00:00:00.000000,14.70370709,18.08655600,24.21359668,4207,5176,6929,2381,2896,4159,8.32183989,10.12295865,14.53384152,0.60723145,0.89232269,1.31258590
17107,0,USIllinoisLogan,Illinois,Logan,2021-01-06 00:22:26.331205,2020-12-07 00:00:00.000000,14.43775241,17.73568133,23.86309425,4131,5075,6829,2358,2881,4157,8.24270172,10.06903247,14.52722729,0.54494713,0.89465964,1.34169867
17107,0,USIllinoisLogan,Illinois,Logan,2021-01-06 00:22:26.331205,2020-12-08 00:00:00.000000,14.05120570,17.46369294,23.41771262,4021,4997,6701,2341,2850,4161,8.18296513,9.95938620,14.54128652,0.49854289,0.89138376,1.46248516
17107,0,USIllinoisLogan,Illinois,Logan,2021-01-06 00:22:26.331205,2020-12-09 00:00:00.000000,13.50162010,17.05866412,22.90360692,3863,4881,6554,2332,2822,4186,8.15118163,9.86188403,14.63010657,0.44081175,0.87985161,1.48732277
17107,0,USIllinoisLogan,Illinois,Logan,2021-01-06 00:22:26.331205,2020-12-10 00:00:00.000000,13.22593643,16.68235736,22.64147326,3784,4774,6479,2291,2783,4198,8.00634559,9.72501955,14.67105644,0.42534909,0.86835157,1.52349683
17107,0,USIllinoisLogan,Illinois,Logan,2021-01-06 00:22:26.331205,2020-12-11 00:00:00.000000,12.90700811,16.14967727,22.07544054,3693,4621,6317,2199,2737,4194,7.68655425,9.56730245,14.65532929,0.41933965,0.84760210,1.57262230
17107,0,USIllinoisLogan,Illinois,Logan,2021-01-06 00:22:26.331205,2020-12-12 00:00:00.000000,12.51831516,15.65013651,21.38875878,3582,4478,6121,2104,2696,4171,7.35326289,9.42239955,14.57642392,0.40881426,0.81284945,1.60431320
17107,0,USIllinoisLogan,Illinois,Logan,2021-01-06 00:22:26.331205,2020-12-13 00:00:00.000000,12.08932284,15.16874515,20.65362255,3459,4340,5910,2039,2613,4128,7.12608019,9.13121365,14.42600892,0.39302628,0.79353600,1.56365937
17107,0,USIllinoisLogan,Illinois,Logan,2021-01-06 00:22:26.331205,2020-12-14 00:00:00.000000,11.61398183,14.57948868,19.89526287,3323,4172,5693,1971,2532,4063,6.88963963,8.84951245,14.19945349,0.37701341,0.78027146,1.57866703
17107,0,USIllinoisLogan,Illinois,Logan,2021-01-06 00:22:26.331205,2020-12-15 00:00:00.000000,10.85173797,13.92993286,19.14778833,3105,3986,5479,1877,2446,3977,6.56154537,8.55025076,13.90019177,0.37716857,0.77574592,1.61029296
17107,0,USIllinoisLogan,Illinois,Logan,2021-01-06 00:22:26.331205,2020-12-16 00:00:00.000000,10.10985734,13.23863255,18.42670990,2893,3788,5273,1767,2352,3874,6.17444038,8.21927908,13.53903150,0.37795515,0.78564321,1.62089610
17107,0,USIllinoisLogan,Illinois,Logan,2021-01-06 00:22:26.331205,2020-12-17 00:00:00.000000,9.39679290,12.56181603,17.59767683,2689,3594,5036,1656,2259,3757,5.78987402,7.89645044,13.13007277,0.37992895,0.80230759,1.61927747
17107,0,USIllinoisLogan,Illinois,Logan,2021-01-06 00:22:26.331205,2020-12-18 00:00:00.000000,8.72198490,11.85334966,16.90272176,2496,3392,4837,1549,2155,3630,5.41281868,7.53329564,12.68748273,0.38016638,0.80541336,1.59127837
17107,0,USIllinoisLogan,Illinois,Logan,2021-01-06 00:22:26.331205,2020-12-19 00:00:00.000000,8.09096269,11.22577084,16.23489664,2315,3212,4646,1444,2045,3498,5.04809358,7.14693441,12.22503976,0.41808826,0.81036233,1.59413635
17107,0,USIllinoisLogan,Illinois,Logan,2021-01-06 00:22:26.331205,2020-12-20 00:00:00.000000,7.49875678,10.65738894,15.57709636,2145,3049,4457,1352,1936,3364,4.72726277,6.76732515,11.75798369,0.42315958,0.82484650,1.60600341
17107,0,USIllinoisLogan,Illinois,Logan,2021-01-06 00:22:26.331205,2020-12-21 00:00:00.000000,6.94243664,10.06700677,14.92951681,1986,2880,4272,1273,1827,3235,4.44894136,6.38433790,11.30408757,0.41830824,0.84218563,1.63372290
17107,0,USIllinoisLogan,Illinois,Logan,2021-01-06 00:22:26.331205,2020-12-22 00:00:00.000000,6.51932198,9.51062324,14.29117816,1865,2721,4089,1196,1728,3112,4.18176773,6.04129473,10.87698262,0.41475762,0.84891037,1.68119014
17107,0,USIllinoisLogan,Illinois,Logan,2021-01-06 00:22:26.331205,2020-12-23 00:00:00.000000,6.23021437,8.97317522,13.66316144,1782,2567,3910,1123,1649,2998,3.92565142,5.76250541,10.47663396,0.41310829,0.84544058,1.72940021
17107,0,USIllinoisLogan,Illinois,Logan,2021-01-06 00:22:26.331205,2020-12-24 00:00:00.000000,5.95972687,8.45423069,13.04701623,1705,2419,3733,1053,1556,2888,3.68060308,5.44060027,10.09500381,0.40970794,0.84772485,1.73608220
17107,0,USIllinoisLogan,Illinois,Logan,2021-01-06 00:22:26.331205,2020-12-25 00:00:00.000000,5.70749213,7.98225541,12.44480887,1633,2284,3561,986,1467,2782,3.44668207,5.12700822,9.72391579,0.40100782,0.85273108,1.73403760
17107,0,USIllinoisLogan,Illinois,Logan,2021-01-06 00:22:26.331205,2020-12-26 00:00:00.000000,5.31221714,7.48251678,11.85923794,1520,2141,3393,922,1391,2678,3.22403800,4.86144674,9.35785110,0.38645898,0.86110704,1.74883123
17107,0,USIllinoisLogan,Illinois,Logan,2021-01-06 00:22:26.331205,2020-12-27 00:00:00.000000,4.90320164,7.01554995,11.29680855,1403,2007,3232,862,1312,2573,3.01311680,4.58738128,8.99390354,0.40335440,0.87110938,1.74740902
17107,0,USIllinoisLogan,Illinois,Logan,2021-01-06 00:22:26.331205,2020-12-28 00:00:00.000000,4.50076854,6.50883018,10.75042528,1288,1862,3076,804,1233,2456,2.81178124,4.30853287,8.58227723,0.44817241,0.86352905,1.73316077
17107,0,USIllinoisLogan,Illinois,Logan,2021-01-06 00:22:26.331205,2020-12-29 00:00:00.000000,4.12521079,6.06203427,10.22439562,1180,1734,2926,741,1151,2336,2.59147550,4.02357277,8.16497179,0.42954270,0.85615533,1.72543189
17107,0,USIllinoisLogan,Illinois,Logan,2021-01-06 00:22:26.331205,2020-12-30 00:00:00.000000,3.77921685,5.63013114,9.71729078,1081,1611,2780,681,1075,2220,2.38286730,3.75778161,7.75797467,0.41398778,0.85524670,1.89429711
17107,0,USIllinoisLogan,Illinois,Logan,2021-01-06 00:22:26.331205,2020-12-31 00:00:00.000000,3.45853905,5.22373538,9.22996134,989,1494,2641,625,1007,2106,2.18687294,3.52018182,7.36218980,0.40258925,0.85046277,1.90021285
17107,0,USIllinoisLogan,Illinois,Logan,2021-01-06 00:22:26.331205,2021-01-01 00:00:00.000000,3.21860082,4.93209936,8.76353589,921,1411,2507,573,941,1996,2.00455922,3.29002271,6.97774761,0.40642901,0.87214533,1.89353381
17107,0,USIllinoisLogan,Illinois,Logan,2021-01-06 00:22:26.331205,2021-01-02 00:00:00.000000,3.07105588,4.59579212,8.31877036,878,1315,2380,525,883,1890,1.83600902,3.08646370,6.60437279,0.41124647,0.91365423,1.91807271
17107,0,USIllinoisLogan,Illinois,Logan,2021-01-06 00:22:26.331205,2021-01-03 00:00:00.000000,2.87191533,4.27049445,7.82090367,821,1222,2238,490,837,1786,1.71447291,2.92519372,6.24207635,0.40576335,0.92477682,1.92026085
17107,0,USIllinoisLogan,Illinois,Logan,2021-01-06 00:22:26.331205,2021-01-04 00:00:00.000000,2.61834229,3.96831449,7.34478955,749,1135,2101,468,773,1686,1.63572708,2.70314385,5.89149622,0.40323054,0.93050936,1.92041138
17107,0,USIllinoisLogan,Illinois,Logan,2021-01-06 00:22:26.331205,2021-01-05 00:00:00.000000,2.38548740,3.69840024,6.89286386,682,1058,1972,446,714,1589,1.55927015,2.49559240,5.55362023,0.40214569,0.93818120,1.92039279
17107,0,USIllinoisLogan,Illinois,Logan,2021-01-06 00:22:26.331205,2021-01-06 00:00:00.000000,2.17196705,3.45665369,6.46531026,621,989,1850,421,664,1496,1.47201194,2.32359250,5.22938482,0.40170465,0.93942533,1.92036445
17107,0,USIllinoisLogan,Illinois,Logan,2021-01-06 00:22:26.331205,2021-01-07 00:00:00.000000,1.97642795,3.24725248,6.08115714,565,929,1740,390,615,1407,1.36451156,2.15067115,4.91946468,0.40153527,0.94178867,1.92034092
17107,0,USIllinoisLogan,Illinois,Logan,2021-01-06 00:22:26.331205,2021-01-08 00:00:00.000000,1.79756217,3.01969176,5.82034754,514,864,1665,361,567,1323,1.26413757,1.98458694,4.62422966,0.40147570,0.94975183,1.92032331
17107,0,USIllinoisLogan,Illinois,Logan,2021-01-06 00:22:26.331205,2021-01-09 00:00:00.000000,1.63413574,2.81009399,5.56525595,467,804,1592,333,531,1243,1.16396905,1.85611568,4.34377813,0.40145817,0.94766351,1.92031083
17107,0,USIllinoisLogan,Illinois,Logan,2021-01-06 00:22:26.331205,2021-01-10 00:00:00.000000,1.48533572,2.59805697,5.31634194,425,743,1521,305,497,1167,1.06808232,1.73798917,4.07799193,0.40145543,0.94664902,1.92030228
17107,0,USIllinoisLogan,Illinois,Logan,2021-01-06 00:22:26.331205,2021-01-11 00:00:00.000000,1.34957114,2.40347359,5.07399772,386,687,1452,280,465,1095,0.97965919,1.62642001,3.82627172,0.40145707,0.94636759,1.92029656
17107,0,USIllinoisLogan,Illinois,Logan,2021-01-06 00:22:26.331205,2021-01-12 00:00:00.000000,1.22579327,2.24646528,4.83854925,350,642,1384,255,433,1026,0.89315273,1.51617776,3.58844947,0.40145944,0.94629791,1.92016236
17107,0,USIllinoisLogan,Illinois,Logan,2021-01-06 00:22:26.331205,2021-01-13 00:00:00.000000,1.11302053,2.08144030,4.59793708,318,595,1315,232,402,964,0.81149800,1.40545642,3.37048692,0.40146145,0.94628680,1.92006609
17107,0,USIllinoisLogan,Illinois,Logan,2021-01-06 00:22:26.331205,2021-01-14 00:00:00.000000,1.01033756,1.91451536,4.34428166,289,547,1243,210,374,920,0.73705421,1.30979921,3.21552116,0.40146291,0.94629028,1.92000358
17107,0,USIllinoisLogan,Illinois,Logan,2021-01-06 00:22:26.331205,2021-01-15 00:00:00.000000,0.91689353,1.75377469,4.09708528,262,501,1172,191,349,877,0.66923064,1.22048293,3.06512143,0.40146390,0.94629617,1.91996318
17107,0,USIllinoisLogan,Illinois,Logan,2021-01-06 00:22:26.331205,2021-01-16 00:00:00.000000,0.83189983,1.61339265,3.84677064,238,461,1100,173,322,835,0.60747648,1.12722459,2.91943151,0.40146454,0.94630144,1.91993714
17107,0,USIllinoisLogan,Illinois,Logan,2021-01-06 00:22:26.331205,2021-01-17 00:00:00.000000,0.76304636,1.48387549,3.61006217,218,424,1033,157,296,795,0.55127978,1.03759837,2.77855929,0.40146494,0.94630554,1.91992040
