FIPS,HR_UID,nameid,province,region,analysisTime,dates,pointprevalence_025,pointprevalence_50,pointprevalence_975,pointinfections_025,pointinfections_50,pointinfections_975,pointinfectious_025,pointinfectious_50,pointinfectious_975,pointinfectiousprevalence_05,pointinfectiousprevalence_50,pointinfectiousprevalence_95,infectrate_025,infectrate_50,infectrate_975
11001,0,USDistrictofColumbiaDistrictofColumbia,District of Columbia,District of Columbia,2021-01-06 03:42:19.239531,2020-03-09 00:00:00.000000,0.01718990,0.04189117,0.07333461,121,295,517,55,126,205,0.00782732,0.01792077,0.02907651,0.68336438,0.87019947,1.04329209
11001,0,USDistrictofColumbiaDistrictofColumbia,District of Columbia,District of Columbia,2021-01-06 03:42:19.239531,2020-03-10 00:00:00.000000,0.02229287,0.04853928,0.08361190,157,342,590,59,146,229,0.00847577,0.02081654,0.03251601,0.68332662,0.87019686,1.04328844
11001,0,USDistrictofColumbiaDistrictofColumbia,District of Columbia,District of Columbia,2021-01-06 03:42:19.239531,2020-03-11 00:00:00.000000,0.02759963,0.05655659,0.09901852,194,399,698,73,169,277,0.01042135,0.02406763,0.03925740,0.68326249,0.87019278,1.04328262
11001,0,USDistrictofColumbiaDistrictofColumbia,District of Columbia,District of Columbia,2021-01-06 03:42:19.239531,2020-03-12 00:00:00.000000,0.03342426,0.06556296,0.11674673,235,462,823,91,198,330,0.01299463,0.02806336,0.04687621,0.68314642,0.87018621,1.04327334
11001,0,USDistrictofColumbiaDistrictofColumbia,District of Columbia,District of Columbia,2021-01-06 03:42:19.239531,2020-03-13 00:00:00.000000,0.03999390,0.07622456,0.13416137,282,537,946,113,228,375,0.01609361,0.03238023,0.05325280,0.68292103,0.87017502,1.04325843
11001,0,USDistrictofColumbiaDistrictofColumbia,District of Columbia,District of Columbia,2021-01-06 03:42:19.239531,2020-03-14 00:00:00.000000,0.04803217,0.08918499,0.15449873,338,629,1090,139,267,439,0.01973499,0.03783437,0.06220603,0.68245271,0.87015396,1.04323405
11001,0,USDistrictofColumbiaDistrictofColumbia,District of Columbia,District of Columbia,2021-01-06 03:42:19.239531,2020-03-15 00:00:00.000000,0.05764211,0.10386695,0.17953543,406,733,1267,169,311,517,0.02399317,0.04409765,0.07327912,0.68194292,0.87010806,1.04319211
11001,0,USDistrictofColumbiaDistrictofColumbia,District of Columbia,District of Columbia,2021-01-06 03:42:19.239531,2020-03-16 00:00:00.000000,0.06881706,0.11988249,0.20916474,485,846,1476,204,364,602,0.02897740,0.05166595,0.08542539,0.68180762,0.86999087,1.04311129
11001,0,USDistrictofColumbiaDistrictofColumbia,District of Columbia,District of Columbia,2021-01-06 03:42:19.239531,2020-03-17 00:00:00.000000,0.08200969,0.13828579,0.24352539,578,975,1718,245,431,705,0.03478918,0.06107421,0.09992272,0.68164994,0.86892058,1.04292152
11001,0,USDistrictofColumbiaDistrictofColumbia,District of Columbia,District of Columbia,2021-01-06 03:42:19.239531,2020-03-18 00:00:00.000000,0.09758057,0.16139616,0.28332447,688,1139,1999,293,504,823,0.04160760,0.07141556,0.11663103,0.68140493,0.86185829,1.03650522
11001,0,USDistrictofColumbiaDistrictofColumbia,District of Columbia,District of Columbia,2021-01-06 03:42:19.239531,2020-03-19 00:00:00.000000,0.11597078,0.18903250,0.32894132,818,1334,2321,338,579,959,0.04800693,0.08204500,0.13593257,0.68096257,0.85457512,1.03323311
11001,0,USDistrictofColumbiaDistrictofColumbia,District of Columbia,District of Columbia,2021-01-06 03:42:19.239531,2020-03-20 00:00:00.000000,0.13770230,0.21969625,0.37668960,971,1550,2658,384,666,1116,0.05447483,0.09448727,0.15814625,0.67862906,0.83511632,1.00746921
11001,0,USDistrictofColumbiaDistrictofColumbia,District of Columbia,District of Columbia,2021-01-06 03:42:19.239531,2020-03-21 00:00:00.000000,0.15997414,0.25495373,0.42482227,1129,1799,2998,436,770,1288,0.06185559,0.10923934,0.18261836,0.65443699,0.82550784,0.98005934
11001,0,USDistrictofColumbiaDistrictofColumbia,District of Columbia,District of Columbia,2021-01-06 03:42:19.239531,2020-03-22 00:00:00.000000,0.18195355,0.29570598,0.47883123,1284,2086,3379,495,893,1471,0.07027992,0.12665557,0.20852319,0.63210134,0.79916988,0.94953516
11001,0,USDistrictofColumbiaDistrictofColumbia,District of Columbia,District of Columbia,2021-01-06 03:42:19.239531,2020-03-23 00:00:00.000000,0.20695618,0.34078848,0.53990084,1460,2405,3810,569,1034,1669,0.08069222,0.14651346,0.23661469,0.62368868,0.77225871,0.92740063
11001,0,USDistrictofColumbiaDistrictofColumbia,District of Columbia,District of Columbia,2021-01-06 03:42:19.239531,2020-03-24 00:00:00.000000,0.23548684,0.39052225,0.62035056,1661,2756,4378,652,1190,1889,0.09244985,0.16869870,0.26766820,0.60145710,0.75643567,0.92190255
11001,0,USDistrictofColumbiaDistrictofColumbia,District of Columbia,District of Columbia,2021-01-06 03:42:19.239531,2020-03-25 00:00:00.000000,0.26799287,0.44591172,0.71308585,1891,3147,5032,740,1365,2133,0.10488035,0.19354033,0.30225077,0.58847181,0.74433653,0.92344679
11001,0,USDistrictofColumbiaDistrictofColumbia,District of Columbia,District of Columbia,2021-01-06 03:42:19.239531,2020-03-26 00:00:00.000000,0.30486440,0.50511768,0.81708088,2151,3564,5766,839,1564,2404,0.11898889,0.22168955,0.34069687,0.57347635,0.73292653,0.92217632
11001,0,USDistrictofColumbiaDistrictofColumbia,District of Columbia,District of Columbia,2021-01-06 03:42:19.239531,2020-03-27 00:00:00.000000,0.34638776,0.56654426,0.93105055,2444,3998,6570,955,1786,2702,0.13537664,0.25314233,0.38286225,0.54662044,0.72265317,0.91676921
11001,0,USDistrictofColumbiaDistrictofColumbia,District of Columbia,District of Columbia,2021-01-06 03:42:19.239531,2020-03-28 00:00:00.000000,0.39503744,0.63856576,1.05333592,2787,4506,7433,1088,2014,3045,0.15421264,0.28547135,0.43157398,0.48847691,0.68647281,0.91492799
11001,0,USDistrictofColumbiaDistrictofColumbia,District of Columbia,District of Columbia,2021-01-06 03:42:19.239531,2020-03-29 00:00:00.000000,0.45124526,0.71425310,1.20598770,3184,5040,8511,1239,2279,3536,0.17563820,0.32305953,0.50110772,0.45985285,0.64237393,0.90016827
11001,0,USDistrictofColumbiaDistrictofColumbia,District of Columbia,District of Columbia,2021-01-06 03:42:19.239531,2020-03-30 00:00:00.000000,0.50668653,0.78190553,1.35027836,3575,5518,9529,1411,2522,4118,0.19999369,0.35740126,0.58359440,0.42666992,0.61185720,0.80379408
11001,0,USDistrictofColumbiaDistrictofColumbia,District of Columbia,District of Columbia,2021-01-06 03:42:19.239531,2020-03-31 00:00:00.000000,0.56575571,0.85385795,1.49035527,3992,6026,10518,1601,2785,4797,0.22691722,0.39465778,0.67980219,0.39650455,0.59046945,0.73358837
11001,0,USDistrictofColumbiaDistrictofColumbia,District of Columbia,District of Columbia,2021-01-06 03:42:19.239531,2020-04-01 00:00:00.000000,0.63363523,0.92478749,1.63769886,4471,6526,11558,1805,3083,5514,0.25581906,0.43686134,0.78133388,0.36681927,0.55132184,0.70209897
11001,0,USDistrictofColumbiaDistrictofColumbia,District of Columbia,District of Columbia,2021-01-06 03:42:19.239531,2020-04-02 00:00:00.000000,0.68273450,1.00213794,1.79684032,4818,7072,12681,2018,3396,6297,0.28602934,0.48128787,0.89235266,0.34035412,0.51533399,0.67800574
11001,0,USDistrictofColumbiaDistrictofColumbia,District of Columbia,District of Columbia,2021-01-06 03:42:19.239531,2020-04-03 00:00:00.000000,0.73353539,1.06474001,1.96146341,5176,7514,13843,2237,3699,6812,0.31701246,0.52416630,0.96533628,0.31889073,0.48900107,0.64618988
11001,0,USDistrictofColumbiaDistrictofColumbia,District of Columbia,District of Columbia,2021-01-06 03:42:19.239531,2020-04-04 00:00:00.000000,0.78653851,1.13367497,2.07727412,5550,8000,14660,2456,4020,7292,0.34809957,0.56974055,1.03332734,0.29644334,0.44174804,0.61128495
11001,0,USDistrictofColumbiaDistrictofColumbia,District of Columbia,District of Columbia,2021-01-06 03:42:19.239531,2020-04-05 00:00:00.000000,0.84210738,1.19807697,2.16965605,5943,8455,15312,2666,4337,7752,0.37786896,0.61459879,1.09851516,0.28141520,0.39568739,0.55550833
11001,0,USDistrictofColumbiaDistrictofColumbia,District of Columbia,District of Columbia,2021-01-06 03:42:19.239531,2020-04-06 00:00:00.000000,0.90041994,1.25162663,2.25982467,6354,8833,15948,2853,4620,8211,0.40431005,0.65462749,1.16353146,0.26751564,0.37069040,0.49932813
11001,0,USDistrictofColumbiaDistrictofColumbia,District of Columbia,District of Columbia,2021-01-06 03:42:19.239531,2020-04-07 00:00:00.000000,0.94768709,1.29999953,2.37259208,6688,9174,16744,3008,4844,8651,0.42623805,0.68643775,1.22587652,0.26337303,0.35006873,0.47713139
11001,0,USDistrictofColumbiaDistrictofColumbia,District of Columbia,District of Columbia,2021-01-06 03:42:19.239531,2020-04-08 00:00:00.000000,0.98069176,1.34672452,2.48974357,6921,9504,17571,3133,5084,9107,0.44393414,0.72050595,1.29050023,0.25453958,0.33664318,0.46904976
11001,0,USDistrictofColumbiaDistrictofColumbia,District of Columbia,District of Columbia,2021-01-06 03:42:19.239531,2020-04-09 00:00:00.000000,1.01989655,1.39371357,2.61002169,7197,9836,18420,3245,5324,9574,0.45979650,0.75449989,1.35664884,0.23604884,0.32336385,0.45166132
11001,0,USDistrictofColumbiaDistrictofColumbia,District of Columbia,District of Columbia,2021-01-06 03:42:19.239531,2020-04-10 00:00:00.000000,1.06037495,1.43729788,2.72904327,7483,10143,19260,3422,5521,10052,0.48491723,0.78235307,1.42442202,0.23065315,0.31339341,0.42594172
11001,0,USDistrictofColumbiaDistrictofColumbia,District of Columbia,District of Columbia,2021-01-06 03:42:19.239531,2020-04-11 00:00:00.000000,1.10195461,1.49075466,2.79102349,7777,10520,19697,3584,5770,10538,0.50786099,0.81762990,1.49323843,0.22995346,0.30583105,0.40157517
11001,0,USDistrictofColumbiaDistrictofColumbia,District of Columbia,District of Columbia,2021-01-06 03:42:19.239531,2020-04-12 00:00:00.000000,1.11454968,1.52389094,2.84269580,7865,10754,20062,3725,5971,11022,0.52791181,0.84616432,1.56174645,0.22654905,0.30184605,0.37838524
11001,0,USDistrictofColumbiaDistrictofColumbia,District of Columbia,District of Columbia,2021-01-06 03:42:19.239531,2020-04-13 00:00:00.000000,1.11704094,1.55528676,2.89249583,7883,10976,20413,3845,6102,11519,0.54487695,0.86465638,1.63222774,0.22288790,0.29177082,0.37279922
11001,0,USDistrictofColumbiaDistrictofColumbia,District of Columbia,District of Columbia,2021-01-06 03:42:19.239531,2020-04-14 00:00:00.000000,1.12896611,1.58398196,2.94174298,7967,11178,20761,3945,6294,11977,0.55901102,0.89189595,1.69712242,0.21899300,0.28876982,0.37507939
11001,0,USDistrictofColumbiaDistrictofColumbia,District of Columbia,District of Columbia,2021-01-06 03:42:19.239531,2020-04-15 00:00:00.000000,1.14886024,1.61810602,2.99054913,8108,11419,21105,4028,6453,12397,0.57083154,0.91448280,1.75670415,0.21769294,0.28864298,0.37549863
11001,0,USDistrictofColumbiaDistrictofColumbia,District of Columbia,District of Columbia,2021-01-06 03:42:19.239531,2020-04-16 00:00:00.000000,1.17046232,1.65409144,3.03904474,8260,11673,21448,4099,6573,12785,0.58089506,0.93141961,1.81155301,0.21832672,0.28535839,0.37305198
11001,0,USDistrictofColumbiaDistrictofColumbia,District of Columbia,District of Columbia,2021-01-06 03:42:19.239531,2020-04-17 00:00:00.000000,1.19485446,1.67609486,3.08814163,8432,11829,21794,4161,6734,13136,0.58970864,0.95428555,1.86142109,0.22083536,0.27878699,0.36627661
11001,0,USDistrictofColumbiaDistrictofColumbia,District of Columbia,District of Columbia,2021-01-06 03:42:19.239531,2020-04-18 00:00:00.000000,1.21092721,1.70744271,3.13817531,8546,12050,22147,4219,6894,13454,0.59782663,0.97688001,1.90647752,0.22191757,0.27725260,0.36133604
11001,0,USDistrictofColumbiaDistrictofColumbia,District of Columbia,District of Columbia,2021-01-06 03:42:19.239531,2020-04-19 00:00:00.000000,1.22360524,1.74790135,3.18919951,8635,12335,22507,4277,7046,13740,0.60611900,0.99849028,1.94692938,0.21859057,0.27704695,0.35888357
11001,0,USDistrictofColumbiaDistrictofColumbia,District of Columbia,District of Columbia,2021-01-06 03:42:19.239531,2020-04-20 00:00:00.000000,1.23718017,1.77791146,3.24076915,8731,12547,22871,4332,7242,13995,0.61392655,1.02617938,1.98301692,0.21458137,0.27720541,0.34849178
11001,0,USDistrictofColumbiaDistrictofColumbia,District of Columbia,District of Columbia,2021-01-06 03:42:19.239531,2020-04-21 00:00:00.000000,1.25284613,1.80458885,3.29255162,8841,12735,23237,4395,7385,14221,0.62279640,1.04641962,2.01509410,0.21186736,0.27729997,0.35651336
11001,0,USDistrictofColumbiaDistrictofColumbia,District of Columbia,District of Columbia,2021-01-06 03:42:19.239531,2020-04-22 00:00:00.000000,1.26217545,1.82868583,3.34377551,8907,12905,23598,4456,7468,14423,0.63139630,1.05818505,2.04371043,0.21007730,0.27924075,0.34558764
11001,0,USDistrictofColumbiaDistrictofColumbia,District of Columbia,District of Columbia,2021-01-06 03:42:19.239531,2020-04-23 00:00:00.000000,1.27035248,1.87033202,3.39304946,8965,13199,23946,4515,7555,14605,0.63981531,1.07063091,2.06945715,0.20883087,0.27584378,0.34073679
11001,0,USDistrictofColumbiaDistrictofColumbia,District of Columbia,District of Columbia,2021-01-06 03:42:19.239531,2020-04-24 00:00:00.000000,1.27914327,1.89243906,3.43817229,9027,13355,24264,4573,7694,14770,0.64809854,1.09021597,2.09284902,0.20760248,0.27180275,0.34315594
11001,0,USDistrictofColumbiaDistrictofColumbia,District of Columbia,District of Columbia,2021-01-06 03:42:19.239531,2020-04-25 00:00:00.000000,1.29141927,1.92119384,3.47735249,9114,13558,24541,4638,7850,14921,0.65727033,1.11239386,2.11425314,0.20535805,0.26649228,0.34919020
11001,0,USDistrictofColumbiaDistrictofColumbia,District of Columbia,District of Columbia,2021-01-06 03:42:19.239531,2020-04-26 00:00:00.000000,1.31358652,1.93593892,3.51101633,9270,13662,24778,4722,7986,15058,0.66913802,1.13167813,2.13375374,0.20080096,0.26423002,0.35263215
11001,0,USDistrictofColumbiaDistrictofColumbia,District of Columbia,District of Columbia,2021-01-06 03:42:19.239531,2020-04-27 00:00:00.000000,1.34147175,1.95079499,3.54066927,9467,13767,24988,4796,8115,15181,0.67961132,1.14991148,2.15105360,0.19670290,0.26224988,0.35369881
11001,0,USDistrictofColumbiaDistrictofColumbia,District of Columbia,District of Columbia,2021-01-06 03:42:19.239531,2020-04-28 00:00:00.000000,1.36626120,1.96106834,3.56766822,9642,13840,25178,4850,8230,15285,0.68727795,1.16617530,2.16588192,0.19240104,0.25744364,0.35181491
11001,0,USDistrictofColumbiaDistrictofColumbia,District of Columbia,District of Columbia,2021-01-06 03:42:19.239531,2020-04-29 00:00:00.000000,1.39199402,1.96834775,3.59184380,9823,13891,25349,4902,8351,15374,0.69464348,1.18333169,2.17845269,0.18345279,0.25422640,0.34010275
11001,0,USDistrictofColumbiaDistrictofColumbia,District of Columbia,District of Columbia,2021-01-06 03:42:19.239531,2020-04-30 00:00:00.000000,1.38812244,1.97962665,3.61142355,9796,13971,25487,4952,8373,15449,0.70175831,1.18651072,2.18913908,0.17809454,0.24587991,0.33049576
11001,0,USDistrictofColumbiaDistrictofColumbia,District of Columbia,District of Columbia,2021-01-06 03:42:19.239531,2020-05-01 00:00:00.000000,1.39999593,1.98638650,3.62250780,9880,14018,25565,5000,8454,15514,0.70859102,1.19800274,2.19825161,0.17237968,0.23787162,0.32665486
11001,0,USDistrictofColumbiaDistrictofColumbia,District of Columbia,District of Columbia,2021-01-06 03:42:19.239531,2020-05-02 00:00:00.000000,1.40900579,1.99092034,3.61986592,9944,14050,25547,5045,8510,15568,0.71496869,1.20594942,2.20594155,0.16894117,0.22966410,0.31823648
11001,0,USDistrictofColumbiaDistrictofColumbia,District of Columbia,District of Columbia,2021-01-06 03:42:19.239531,2020-05-03 00:00:00.000000,1.41233106,1.98071764,3.60098914,9967,13978,25413,5084,8504,15611,0.72046296,1.20505752,2.21211336,0.16415760,0.22752117,0.30467512
11001,0,USDistrictofColumbiaDistrictofColumbia,District of Columbia,District of Columbia,2021-01-06 03:42:19.239531,2020-05-04 00:00:00.000000,1.40731382,1.96175583,3.56895958,9932,13845,25187,5111,8481,15642,0.72429142,1.20180508,2.21637371,0.16147524,0.21804828,0.29532943
11001,0,USDistrictofColumbiaDistrictofColumbia,District of Columbia,District of Columbia,2021-01-06 03:42:19.239531,2020-05-05 00:00:00.000000,1.39348107,1.96232805,3.52956771,9834,13849,24909,5120,8450,15681,0.72555195,1.19744774,2.22193491,0.15669276,0.21235399,0.27714808
11001,0,USDistrictofColumbiaDistrictofColumbia,District of Columbia,District of Columbia,2021-01-06 03:42:19.239531,2020-05-06 00:00:00.000000,1.37312974,1.95655843,3.48662234,9690,13808,24606,5107,8374,15715,0.72367794,1.18666468,2.22679377,0.15492720,0.20855126,0.27608809
11001,0,USDistrictofColumbiaDistrictofColumbia,District of Columbia,District of Columbia,2021-01-06 03:42:19.239531,2020-05-07 00:00:00.000000,1.36729256,1.93993286,3.44090126,9649,13691,24284,5072,8315,15727,0.71880771,1.17822362,2.22846074,0.15289961,0.20752086,0.27435387
11001,0,USDistrictofColumbiaDistrictofColumbia,District of Columbia,District of Columbia,2021-01-06 03:42:19.239531,2020-05-08 00:00:00.000000,1.36712463,1.93206584,3.39248292,9648,13635,23942,5021,8286,15714,0.71152124,1.17418936,2.22657338,0.15083431,0.20560448,0.27031273
11001,0,USDistrictofColumbiaDistrictofColumbia,District of Columbia,District of Columbia,2021-01-06 03:42:19.239531,2020-05-09 00:00:00.000000,1.34338736,1.90341883,3.34126091,9480,13433,23580,4957,8242,15673,0.70248349,1.16794399,2.22083201,0.14596491,0.20036515,0.26445083
11001,0,USDistrictofColumbiaDistrictofColumbia,District of Columbia,District of Columbia,2021-01-06 03:42:19.239531,2020-05-10 00:00:00.000000,1.32531075,1.87746801,3.28624695,9353,13250,23192,4885,8154,15473,0.69226405,1.15546026,2.19249143,0.13855967,0.19603530,0.26093435
11001,0,USDistrictofColumbiaDistrictofColumbia,District of Columbia,District of Columbia,2021-01-06 03:42:19.239531,2020-05-11 00:00:00.000000,1.30926662,1.85500597,3.22813345,9240,13091,22782,4808,8069,15246,0.68129484,1.14335149,2.16027302,0.13546898,0.19446273,0.25748180
11001,0,USDistrictofColumbiaDistrictofColumbia,District of Columbia,District of Columbia,2021-01-06 03:42:19.239531,2020-05-12 00:00:00.000000,1.28894104,1.81309401,3.16588917,9096,12795,22343,4727,7996,15068,0.66983339,1.13309505,2.13510696,0.13509397,0.19238662,0.24803240
11001,0,USDistrictofColumbiaDistrictofColumbia,District of Columbia,District of Columbia,2021-01-06 03:42:19.239531,2020-05-13 00:00:00.000000,1.26520522,1.78485515,3.11725966,8929,12596,22000,4645,7870,14869,0.65823943,1.11517078,2.10692393,0.13196682,0.18819372,0.24604007
11001,0,USDistrictofColumbiaDistrictofColumbia,District of Columbia,District of Columbia,2021-01-06 03:42:19.239531,2020-05-14 00:00:00.000000,1.23927211,1.75224996,3.05117733,8746,12366,21533,4562,7780,14655,0.64647493,1.10240747,2.07655571,0.13061160,0.18626778,0.24409701
11001,0,USDistrictofColumbiaDistrictofColumbia,District of Columbia,District of Columbia,2021-01-06 03:42:19.239531,2020-05-15 00:00:00.000000,1.21216272,1.72278364,2.95705856,8554,12158,20869,4478,7706,14430,0.63463501,1.09200840,2.04464922,0.12670886,0.18369230,0.23729082
11001,0,USDistrictofColumbiaDistrictofColumbia,District of Columbia,District of Columbia,2021-01-06 03:42:19.239531,2020-05-16 00:00:00.000000,1.18468089,1.69008242,2.87568652,8360,11927,20295,4394,7633,14197,0.62273557,1.08163658,2.01170548,0.12523800,0.17861960,0.23606286
11001,0,USDistrictofColumbiaDistrictofColumbia,District of Columbia,District of Columbia,2021-01-06 03:42:19.239531,2020-05-17 00:00:00.000000,1.15814386,1.66216046,2.83592117,8173,11730,20014,4308,7499,13960,0.61052150,1.06264159,1.97809298,0.12231697,0.17140990,0.23698512
11001,0,USDistrictofColumbiaDistrictofColumbia,District of Columbia,District of Columbia,2021-01-06 03:42:19.239531,2020-05-18 00:00:00.000000,1.13339610,1.61776249,2.79334822,7998,11417,19714,4214,7388,13719,0.59709818,1.04692391,1.94401173,0.11529344,0.16698032,0.23843594
11001,0,USDistrictofColumbiaDistrictofColumbia,District of Columbia,District of Columbia,2021-01-06 03:42:19.239531,2020-05-19 00:00:00.000000,1.10924983,1.57055550,2.74826873,7828,11084,19395,4111,7292,13471,0.58253876,1.03336033,1.90884435,0.11124917,0.16503463,0.24131584
11001,0,USDistrictofColumbiaDistrictofColumbia,District of Columbia,District of Columbia,2021-01-06 03:42:19.239531,2020-05-20 00:00:00.000000,1.08554638,1.53190268,2.69841095,7661,10811,19044,4024,7139,13216,0.57031132,1.01167814,1.87273091,0.10855922,0.16277499,0.24387667
11001,0,USDistrictofColumbiaDistrictofColumbia,District of Columbia,District of Columbia,2021-01-06 03:42:19.239531,2020-05-21 00:00:00.000000,1.06045824,1.48719729,2.64109810,7484,10495,18639,3940,6947,12962,0.55829770,0.98436682,1.83675320,0.10714271,0.16075827,0.24547778
11001,0,USDistrictofColumbiaDistrictofColumbia,District of Columbia,District of Columbia,2021-01-06 03:42:19.239531,2020-05-22 00:00:00.000000,1.02755251,1.45589398,2.57637832,7251,10274,18182,3856,6766,12684,0.54648690,0.95871828,1.79734243,0.10405320,0.15724707,0.23226964
11001,0,USDistrictofColumbiaDistrictofColumbia,District of Columbia,District of Columbia,2021-01-06 03:42:19.239531,2020-05-23 00:00:00.000000,0.98721687,1.42104108,2.50719531,6967,10028,17694,3774,6579,12373,0.53486216,0.93223169,1.75322868,0.09741753,0.15650933,0.22007800
11001,0,USDistrictofColumbiaDistrictofColumbia,District of Columbia,District of Columbia,2021-01-06 03:42:19.239531,2020-05-24 00:00:00.000000,0.94368727,1.37725666,2.43595084,6660,9719,17191,3694,6388,12059,0.52342251,0.90516209,1.70878359,0.09400575,0.15071935,0.21337389
11001,0,USDistrictofColumbiaDistrictofColumbia,District of Columbia,District of Columbia,2021-01-06 03:42:19.239531,2020-05-25 00:00:00.000000,0.90023314,1.33172272,2.36450231,6353,9398,16687,3611,6243,11732,0.51168888,0.88463885,1.66244117,0.09369924,0.14413170,0.21111375
11001,0,USDistrictofColumbiaDistrictofColumbia,District of Columbia,District of Columbia,2021-01-06 03:42:19.239531,2020-05-26 00:00:00.000000,0.85767591,1.28162680,2.29384894,6053,9045,16188,3521,6094,11396,0.49892788,0.86350572,1.61477171,0.09176480,0.14043797,0.20233718
11001,0,USDistrictofColumbiaDistrictofColumbia,District of Columbia,District of Columbia,2021-01-06 03:42:19.239531,2020-05-27 00:00:00.000000,0.82310802,1.23596585,2.22407811,5809,8722,15696,3423,5920,11054,0.48509017,0.83896300,1.56633263,0.09251333,0.13977518,0.20145622
11001,0,USDistrictofColumbiaDistrictofColumbia,District of Columbia,District of Columbia,2021-01-06 03:42:19.239531,2020-05-28 00:00:00.000000,0.79960304,1.18955224,2.15476057,5643,8395,15207,3321,5707,10710,0.47059125,0.80876085,1.51757323,0.09058203,0.13848128,0.20094595
11001,0,USDistrictofColumbiaDistrictofColumbia,District of Columbia,District of Columbia,2021-01-06 03:42:19.239531,2020-05-29 00:00:00.000000,0.77669271,1.14578777,2.08501204,5481,8086,14714,3216,5481,10366,0.45580128,0.77671093,1.46883822,0.08904433,0.13809290,0.20072008
11001,0,USDistrictofColumbiaDistrictofColumbia,District of Columbia,District of Columbia,2021-01-06 03:42:19.239531,2020-05-30 00:00:00.000000,0.75480974,1.10046856,2.01393302,5327,7766,14213,3112,5260,10024,0.44096933,0.74544451,1.42038558,0.08864836,0.13384482,0.20609738
11001,0,USDistrictofColumbiaDistrictofColumbia,District of Columbia,District of Columbia,2021-01-06 03:42:19.239531,2020-05-31 00:00:00.000000,0.73623637,1.05566103,1.94139677,5195,7450,13701,3008,5067,9685,0.42623263,0.71807418,1.37240895,0.08839240,0.13025312,0.20424904
11001,0,USDistrictofColumbiaDistrictofColumbia,District of Columbia,District of Columbia,2021-01-06 03:42:19.239531,2020-06-01 00:00:00.000000,0.70950325,1.01430201,1.86783311,5007,7158,13182,2904,4901,9351,0.41157862,0.69454476,1.32506106,0.08824052,0.13012381,0.20490066
11001,0,USDistrictofColumbiaDistrictofColumbia,District of Columbia,District of Columbia,2021-01-06 03:42:19.239531,2020-06-02 00:00:00.000000,0.67372863,0.97424983,1.79411300,4754,6875,12661,2798,4737,9022,0.39657343,0.67127748,1.27845822,0.08727230,0.12783845,0.19858577
11001,0,USDistrictofColumbiaDistrictofColumbia,District of Columbia,District of Columbia,2021-01-06 03:42:19.239531,2020-06-03 00:00:00.000000,0.64061567,0.93942624,1.72045279,4521,6629,12142,2687,4557,8699,0.38085614,0.64571395,1.23271643,0.08663095,0.12760731,0.19724625
11001,0,USDistrictofColumbiaDistrictofColumbia,District of Columbia,District of Columbia,2021-01-06 03:42:19.239531,2020-06-04 00:00:00.000000,0.60816568,0.89646883,1.64702335,4292,6326,11623,2573,4345,8383,0.36468728,0.61572547,1.18793707,0.08506608,0.12825849,0.19312153
11001,0,USDistrictofColumbiaDistrictofColumbia,District of Columbia,District of Columbia,2021-01-06 03:42:19.239531,2020-06-05 00:00:00.000000,0.57727648,0.85252719,1.57433986,4074,6016,11110,2471,4141,8075,0.35017599,0.58676483,1.14421316,0.08079680,0.13021732,0.19084467
11001,0,USDistrictofColumbiaDistrictofColumbia,District of Columbia,District of Columbia,2021-01-06 03:42:19.239531,2020-06-06 00:00:00.000000,0.54798990,0.81882298,1.50909761,3867,5778,10650,2385,3944,7774,0.33804587,0.55894272,1.10164267,0.07946826,0.13081221,0.18913144
11001,0,USDistrictofColumbiaDistrictofColumbia,District of Columbia,District of Columbia,2021-01-06 03:42:19.239531,2020-06-07 00:00:00.000000,0.52037656,0.78698682,1.45695389,3672,5554,10282,2265,3778,7483,0.32107732,0.53544210,1.06035252,0.07964236,0.13139266,0.18928728
11001,0,USDistrictofColumbiaDistrictofColumbia,District of Columbia,District of Columbia,2021-01-06 03:42:19.239531,2020-06-08 00:00:00.000000,0.49486077,0.75744118,1.40561579,3492,5345,9920,2152,3642,7202,0.30503465,0.51611906,1.02053321,0.07995857,0.13321843,0.19134483
11001,0,USDistrictofColumbiaDistrictofColumbia,District of Columbia,District of Columbia,2021-01-06 03:42:19.239531,2020-06-09 00:00:00.000000,0.47150147,0.73110767,1.35586070,3327,5159,9568,2065,3511,6933,0.29261604,0.49749217,0.98245205,0.08045556,0.13406419,0.19375434
11001,0,USDistrictofColumbiaDistrictofColumbia,District of Columbia,District of Columbia,2021-01-06 03:42:19.239531,2020-06-10 00:00:00.000000,0.45042350,0.70713389,1.30770775,3178,4990,9229,1986,3367,6678,0.28149229,0.47708238,0.94631868,0.08123776,0.13542288,0.19552131
11001,0,USDistrictofColumbiaDistrictofColumbia,District of Columbia,District of Columbia,2021-01-06 03:42:19.239531,2020-06-11 00:00:00.000000,0.43178509,0.68118210,1.26082701,3047,4807,8898,1910,3227,6437,0.27074033,0.45733434,0.91219586,0.08265501,0.13526913,0.19566608
11001,0,USDistrictofColumbiaDistrictofColumbia,District of Columbia,District of Columbia,2021-01-06 03:42:19.239531,2020-06-12 00:00:00.000000,0.41548467,0.65622877,1.21510406,2932,4631,8575,1837,3091,6191,0.26037256,0.43806214,0.87730825,0.08557020,0.13751234,0.19584538
11001,0,USDistrictofColumbiaDistrictofColumbia,District of Columbia,District of Columbia,2021-01-06 03:42:19.239531,2020-06-13 00:00:00.000000,0.40116537,0.62949634,1.17033832,2831,4442,8259,1767,2982,5975,0.25039570,0.42266212,0.84674553,0.09045867,0.13855687,0.20822392
11001,0,USDistrictofColumbiaDistrictofColumbia,District of Columbia,District of Columbia,2021-01-06 03:42:19.239531,2020-06-14 00:00:00.000000,0.38750904,0.60732468,1.12641927,2734,4286,7949,1699,2884,5765,0.24083602,0.40866102,0.81690850,0.09189404,0.14690390,0.21778413
11001,0,USDistrictofColumbiaDistrictofColumbia,District of Columbia,District of Columbia,2021-01-06 03:42:19.239531,2020-06-15 00:00:00.000000,0.37136380,0.58732061,1.08354736,2620,4145,7647,1630,2782,5559,0.23107075,0.39420349,0.78773724,0.09475623,0.15082008,0.22621162
11001,0,USDistrictofColumbiaDistrictofColumbia,District of Columbia,District of Columbia,2021-01-06 03:42:19.239531,2020-06-16 00:00:00.000000,0.35941366,0.56824915,1.04257805,2536,4010,7357,1563,2670,5358,0.22146805,0.37845679,0.75922903,0.09571490,0.15309411,0.23414114
11001,0,USDistrictofColumbiaDistrictofColumbia,District of Columbia,District of Columbia,2021-01-06 03:42:19.239531,2020-06-17 00:00:00.000000,0.34879519,0.54755399,1.00265642,2461,3864,7076,1509,2566,5162,0.21392400,0.36362683,0.73154720,0.09576834,0.15340630,0.23873583
11001,0,USDistrictofColumbiaDistrictofColumbia,District of Columbia,District of Columbia,2021-01-06 03:42:19.239531,2020-06-18 00:00:00.000000,0.33566243,0.52855392,0.96929698,2368,3730,6840,1449,2472,4974,0.20533944,0.35033962,0.70488215,0.09677659,0.15491246,0.24941442
11001,0,USDistrictofColumbiaDistrictofColumbia,District of Columbia,District of Columbia,2021-01-06 03:42:19.239531,2020-06-19 00:00:00.000000,0.32374758,0.50997555,0.93771591,2284,3599,6617,1388,2374,4793,0.19670799,0.33647844,0.67927400,0.10126339,0.16160606,0.24897516
11001,0,USDistrictofColumbiaDistrictofColumbia,District of Columbia,District of Columbia,2021-01-06 03:42:19.239531,2020-06-20 00:00:00.000000,0.31364755,0.48946787,0.90960020,2213,3454,6419,1349,2296,4624,0.19120118,0.32540515,0.65521537,0.10538178,0.16870963,0.25338172
11001,0,USDistrictofColumbiaDistrictofColumbia,District of Columbia,District of Columbia,2021-01-06 03:42:19.239531,2020-06-21 00:00:00.000000,0.30546157,0.47700197,0.88486504,2155,3366,6244,1312,2243,4466,0.18602036,0.31784729,0.63290346,0.10898473,0.17671498,0.26670605
11001,0,USDistrictofColumbiaDistrictofColumbia,District of Columbia,District of Columbia,2021-01-06 03:42:19.239531,2020-06-22 00:00:00.000000,0.29964075,0.47074887,0.86345007,2114,3322,6093,1278,2172,4311,0.18116242,0.30784341,0.61085345,0.11409587,0.18444340,0.27823629
11001,0,USDistrictofColumbiaDistrictofColumbia,District of Columbia,District of Columbia,2021-01-06 03:42:19.239531,2020-06-23 00:00:00.000000,0.29201148,0.46374216,0.84465948,2060,3272,5961,1246,2110,4182,0.17659665,0.29903973,0.59262247,0.11922434,0.19373141,0.28900805
11001,0,USDistrictofColumbiaDistrictofColumbia,District of Columbia,District of Columbia,2021-01-06 03:42:19.239531,2020-06-24 00:00:00.000000,0.29117029,0.46503429,0.82801829,2054,3281,5843,1216,2068,4076,0.17236050,0.29306573,0.57767849,0.12833299,0.20688531,0.29277076
11001,0,USDistrictofColumbiaDistrictofColumbia,District of Columbia,District of Columbia,2021-01-06 03:42:19.239531,2020-06-25 00:00:00.000000,0.29316769,0.46156804,0.81298107,2069,3257,5737,1189,2028,3972,0.16849828,0.28744133,0.56290831,0.13536278,0.22364354,0.30028044
11001,0,USDistrictofColumbiaDistrictofColumbia,District of Columbia,District of Columbia,2021-01-06 03:42:19.239531,2020-06-26 00:00:00.000000,0.28938305,0.46395808,0.79912183,2042,3274,5639,1164,1995,3878,0.16505270,0.28281263,0.54958943,0.14228748,0.23552740,0.32265417
11001,0,USDistrictofColumbiaDistrictofColumbia,District of Columbia,District of Columbia,2021-01-06 03:42:19.239531,2020-06-27 00:00:00.000000,0.28581525,0.46511392,0.78613278,2017,3282,5548,1143,1978,3793,0.16205971,0.28038110,0.53750115,0.14557003,0.24606150,0.34309287
11001,0,USDistrictofColumbiaDistrictofColumbia,District of Columbia,District of Columbia,2021-01-06 03:42:19.239531,2020-06-28 00:00:00.000000,0.28339806,0.46350952,0.79090437,2000,3271,5581,1126,1962,3756,0.15955506,0.27803645,0.53234147,0.14679763,0.25546545,0.36016957
11001,0,USDistrictofColumbiaDistrictofColumbia,District of Columbia,District of Columbia,2021-01-06 03:42:19.239531,2020-06-29 00:00:00.000000,0.28272421,0.47006346,0.81253354,1995,3317,5734,1119,1944,3687,0.15858227,0.27557932,0.52255587,0.14804232,0.26389033,0.36377161
11001,0,USDistrictofColumbiaDistrictofColumbia,District of Columbia,District of Columbia,2021-01-06 03:42:19.239531,2020-06-30 00:00:00.000000,0.28420640,0.47789977,0.83756621,2005,3372,5911,1132,1942,3621,0.16051848,0.27526701,0.51318644,0.17467488,0.27017883,0.36681336
11001,0,USDistrictofColumbiaDistrictofColumbia,District of Columbia,District of Columbia,2021-01-06 03:42:19.239531,2020-07-01 00:00:00.000000,0.28846997,0.48198526,0.84812892,2035,3401,5985,1149,1932,3560,0.16283127,0.27375972,0.50444298,0.17872241,0.27303891,0.36933717
11001,0,USDistrictofColumbiaDistrictofColumbia,District of Columbia,District of Columbia,2021-01-06 03:42:19.239531,2020-07-02 00:00:00.000000,0.29544375,0.48758305,0.84653875,2085,3441,5974,1167,1970,3538,0.16542790,0.27916256,0.50138392,0.19574157,0.28372784,0.42140596
11001,0,USDistrictofColumbiaDistrictofColumbia,District of Columbia,District of Columbia,2021-01-06 03:42:19.239531,2020-07-03 00:00:00.000000,0.30445062,0.49652345,0.84523714,2148,3504,5965,1187,1985,3525,0.16825118,0.28137106,0.49951725,0.20501740,0.30425327,0.44113529
11001,0,USDistrictofColumbiaDistrictofColumbia,District of Columbia,District of Columbia,2021-01-06 03:42:19.239531,2020-07-04 00:00:00.000000,0.31486657,0.50357490,0.87135533,2222,3553,6149,1193,1996,3530,0.16914338,0.28283668,0.50031046,0.20789742,0.30913057,0.45477408
11001,0,USDistrictofColumbiaDistrictofColumbia,District of Columbia,District of Columbia,2021-01-06 03:42:19.239531,2020-07-05 00:00:00.000000,0.32246270,0.51363309,0.89917762,2275,3624,6345,1197,2064,3549,0.16966224,0.29248828,0.50296876,0.20829842,0.31226021,0.46407042
11001,0,USDistrictofColumbiaDistrictofColumbia,District of Columbia,District of Columbia,2021-01-06 03:42:19.239531,2020-07-06 00:00:00.000000,0.33444768,0.52476189,0.92780341,2360,3703,6547,1212,2125,3638,0.17180826,0.30114344,0.51553335,0.20697635,0.31154946,0.47116295
11001,0,USDistrictofColumbiaDistrictofColumbia,District of Columbia,District of Columbia,2021-01-06 03:42:19.239531,2020-07-07 00:00:00.000000,0.34448198,0.53860765,0.95734675,2431,3801,6756,1252,2180,3749,0.17749434,0.30897407,0.53124396,0.20695867,0.31376303,0.46507652
11001,0,USDistrictofColumbiaDistrictofColumbia,District of Columbia,District of Columbia,2021-01-06 03:42:19.239531,2020-07-08 00:00:00.000000,0.35914580,0.55266217,0.98782989,2534,3900,6971,1296,2218,3865,0.18364737,0.31434477,0.54767184,0.20666128,0.31740367,0.44080225
11001,0,USDistrictofColumbiaDistrictofColumbia,District of Columbia,District of Columbia,2021-01-06 03:42:19.239531,2020-07-09 00:00:00.000000,0.37434128,0.56930665,1.01936281,2641,4017,7194,1340,2273,3985,0.18999000,0.32209407,0.56475390,0.21175845,0.31907082,0.42360191
11001,0,USDistrictofColumbiaDistrictofColumbia,District of Columbia,District of Columbia,2021-01-06 03:42:19.239531,2020-07-10 00:00:00.000000,0.38897398,0.58267943,1.05219976,2745,4112,7425,1360,2330,4110,0.19271341,0.33019269,0.58247588,0.21256794,0.32696416,0.43478869
11001,0,USDistrictofColumbiaDistrictofColumbia,District of Columbia,District of Columbia,2021-01-06 03:42:19.239531,2020-07-11 00:00:00.000000,0.39932656,0.60306525,1.08665611,2818,4256,7669,1382,2399,4264,0.19582125,0.34000385,0.60430524,0.22075283,0.33397844,0.44803590
11001,0,USDistrictofColumbiaDistrictofColumbia,District of Columbia,District of Columbia,2021-01-06 03:42:19.239531,2020-07-12 00:00:00.000000,0.41458109,0.61638541,1.12248517,2925,4350,7921,1410,2463,4434,0.19985442,0.34906366,0.62837129,0.21862636,0.33533955,0.44818088
11001,0,USDistrictofColumbiaDistrictofColumbia,District of Columbia,District of Columbia,2021-01-06 03:42:19.239531,2020-07-13 00:00:00.000000,0.42587753,0.62985061,1.15755283,3005,4445,8169,1450,2518,4610,0.20546227,0.35686828,0.65331999,0.21968737,0.33507418,0.45737781
11001,0,USDistrictofColumbiaDistrictofColumbia,District of Columbia,District of Columbia,2021-01-06 03:42:19.239531,2020-07-14 00:00:00.000000,0.43588056,0.64641668,1.18677180,3076,4562,8375,1498,2573,4792,0.21226616,0.36471516,0.67899875,0.21774068,0.33409541,0.45826157
11001,0,USDistrictofColumbiaDistrictofColumbia,District of Columbia,District of Columbia,2021-01-06 03:42:19.239531,2020-07-15 00:00:00.000000,0.44592487,0.66245802,1.20985880,3147,4675,8538,1552,2635,4978,0.21991688,0.37337117,0.70542354,0.21414421,0.33603167,0.45771350
11001,0,USDistrictofColumbiaDistrictofColumbia,District of Columbia,District of Columbia,2021-01-06 03:42:19.239531,2020-07-16 00:00:00.000000,0.45606205,0.67234015,1.23106347,3218,4745,8688,1610,2708,5170,0.22819309,0.38376950,0.73262295,0.21591637,0.32941014,0.44978657
11001,0,USDistrictofColumbiaDistrictofColumbia,District of Columbia,District of Columbia,2021-01-06 03:42:19.239531,2020-07-17 00:00:00.000000,0.46638363,0.68080386,1.25190115,3291,4804,8835,1672,2770,5367,0.23694755,0.39257805,0.76057729,0.22386832,0.32824611,0.44820821
11001,0,USDistrictofColumbiaDistrictofColumbia,District of Columbia,District of Columbia,2021-01-06 03:42:19.239531,2020-07-18 00:00:00.000000,0.47665249,0.69978835,1.27640312,3363,4938,9008,1736,2833,5455,0.24604887,0.40143973,0.77305860,0.22306728,0.32117518,0.43214066
11001,0,USDistrictofColumbiaDistrictofColumbia,District of Columbia,District of Columbia,2021-01-06 03:42:19.239531,2020-07-19 00:00:00.000000,0.48636529,0.71924072,1.31235665,3432,5076,9261,1801,2867,5540,0.25532141,0.40634760,0.78500806,0.21827018,0.31033463,0.41303857
11001,0,USDistrictofColumbiaDistrictofColumbia,District of Columbia,District of Columbia,2021-01-06 03:42:19.239531,2020-07-20 00:00:00.000000,0.49443897,0.72596913,1.34443589,3489,5123,9488,1861,2913,5628,0.26381886,0.41277040,0.79756342,0.21645822,0.30411872,0.40435026
11001,0,USDistrictofColumbiaDistrictofColumbia,District of Columbia,District of Columbia,2021-01-06 03:42:19.239531,2020-07-21 00:00:00.000000,0.50022805,0.73108588,1.37499502,3530,5159,9704,1900,2962,5722,0.26926358,0.41969665,0.81081169,0.21581312,0.29868054,0.40277571
11001,0,USDistrictofColumbiaDistrictofColumbia,District of Columbia,District of Columbia,2021-01-06 03:42:19.239531,2020-07-22 00:00:00.000000,0.50493613,0.73786921,1.40441985,3563,5207,9911,1939,3021,5820,0.27485994,0.42807432,0.82466192,0.21522684,0.29473010,0.39500449
11001,0,USDistrictofColumbiaDistrictofColumbia,District of Columbia,District of Columbia,2021-01-06 03:42:19.239531,2020-07-23 00:00:00.000000,0.51730959,0.74319264,1.43250335,3650,5245,10109,1980,3065,5920,0.28068983,0.43437765,0.83890956,0.21333332,0.28513531,0.38413471
11001,0,USDistrictofColumbiaDistrictofColumbia,District of Columbia,District of Columbia,2021-01-06 03:42:19.239531,2020-07-24 00:00:00.000000,0.52518401,0.74705107,1.45819436,3706,5272,10291,2023,3101,6020,0.28675125,0.43947768,0.85310004,0.19875519,0.27917062,0.38276179
11001,0,USDistrictofColumbiaDistrictofColumbia,District of Columbia,District of Columbia,2021-01-06 03:42:19.239531,2020-07-25 00:00:00.000000,0.52914480,0.75772007,1.46686153,3734,5347,10352,2067,3147,6114,0.29300451,0.44603853,0.86632778,0.19450711,0.26790417,0.37711050
11001,0,USDistrictofColumbiaDistrictofColumbia,District of Columbia,District of Columbia,2021-01-06 03:42:19.239531,2020-07-26 00:00:00.000000,0.53345090,0.76752573,1.47155579,3764,5416,10385,2087,3194,6194,0.29571581,0.45257839,0.87767051,0.18756714,0.26207512,0.35660380
11001,0,USDistrictofColumbiaDistrictofColumbia,District of Columbia,District of Columbia,2021-01-06 03:42:19.239531,2020-07-27 00:00:00.000000,0.53785248,0.77435347,1.47483615,3795,5464,10408,2104,3252,6259,0.29814957,0.46087014,0.88687459,0.18454133,0.25935187,0.34682098
11001,0,USDistrictofColumbiaDistrictofColumbia,District of Columbia,District of Columbia,2021-01-06 03:42:19.239531,2020-07-28 00:00:00.000000,0.54231530,0.77771041,1.47689612,3827,5488,10423,2115,3278,6310,0.29969403,0.46451757,0.89408559,0.18544064,0.25280416,0.34271032
11001,0,USDistrictofColumbiaDistrictofColumbia,District of Columbia,District of Columbia,2021-01-06 03:42:19.239531,2020-07-29 00:00:00.000000,0.54676838,0.77708596,1.47720688,3858,5484,10425,2121,3303,6348,0.30055930,0.46813551,0.89952565,0.18316326,0.24648974,0.32534399
11001,0,USDistrictofColumbiaDistrictofColumbia,District of Columbia,District of Columbia,2021-01-06 03:42:19.239531,2020-07-30 00:00:00.000000,0.55104143,0.77703187,1.47533941,3888,5483,10412,2154,3343,6375,0.30532561,0.47379284,0.90333366,0.17200359,0.24638370,0.32213379
11001,0,USDistrictofColumbiaDistrictofColumbia,District of Columbia,District of Columbia,2021-01-06 03:42:19.239531,2020-07-31 00:00:00.000000,0.55476034,0.77808270,1.47189460,3915,5491,10387,2170,3356,6391,0.30757437,0.47558914,0.90556649,0.16470281,0.24292050,0.32081925
11001,0,USDistrictofColumbiaDistrictofColumbia,District of Columbia,District of Columbia,2021-01-06 03:42:19.239531,2020-08-01 00:00:00.000000,0.55822875,0.77509193,1.46762073,3939,5470,10357,2186,3370,6395,0.30977153,0.47751658,0.90623466,0.16175438,0.23829644,0.31521695
11001,0,USDistrictofColumbiaDistrictofColumbia,District of Columbia,District of Columbia,2021-01-06 03:42:19.239531,2020-08-02 00:00:00.000000,0.55788083,0.77306687,1.46290376,3937,5455,10324,2201,3353,6389,0.31187918,0.47513757,0.90531349,0.15989878,0.23316572,0.31593549
11001,0,USDistrictofColumbiaDistrictofColumbia,District of Columbia,District of Columbia,2021-01-06 03:42:19.239531,2020-08-03 00:00:00.000000,0.54740117,0.76866149,1.46905338,3863,5424,10367,2193,3359,6372,0.31083322,0.47597346,0.90300967,0.15887417,0.22898737,0.31452341
11001,0,USDistrictofColumbiaDistrictofColumbia,District of Columbia,District of Columbia,2021-01-06 03:42:19.239531,2020-08-04 00:00:00.000000,0.53682289,0.77042192,1.45948445,3788,5437,10300,2174,3357,6348,0.30815008,0.47579626,0.89947750,0.15447709,0.22779910,0.31390663
11001,0,USDistrictofColumbiaDistrictofColumbia,District of Columbia,District of Columbia,2021-01-06 03:42:19.239531,2020-08-05 00:00:00.000000,0.52632338,0.76626161,1.44651225,3714,5407,10208,2152,3361,6314,0.30503490,0.47634850,0.89470529,0.15420252,0.22705070,0.31661670
11001,0,USDistrictofColumbiaDistrictofColumbia,District of Columbia,District of Columbia,2021-01-06 03:42:19.239531,2020-08-06 00:00:00.000000,0.52219532,0.76104695,1.43336564,3685,5371,10115,2127,3365,6274,0.30146744,0.47693007,0.88901065,0.15442749,0.22210170,0.30515065
11001,0,USDistrictofColumbiaDistrictofColumbia,District of Columbia,District of Columbia,2021-01-06 03:42:19.239531,2020-08-07 00:00:00.000000,0.52439000,0.75391449,1.41757160,3700,5320,10004,2100,3332,6232,0.29758216,0.47222515,0.88316627,0.15507824,0.22023622,0.29599692
11001,0,USDistrictofColumbiaDistrictofColumbia,District of Columbia,District of Columbia,2021-01-06 03:42:19.239531,2020-08-08 00:00:00.000000,0.52668921,0.74849325,1.39743371,3717,5282,9862,2070,3281,6231,0.29333245,0.46496395,0.88296853,0.15535228,0.21665765,0.31818425
11001,0,USDistrictofColumbiaDistrictofColumbia,District of Columbia,District of Columbia,2021-01-06 03:42:19.239531,2020-08-09 00:00:00.000000,0.52904745,0.74466135,1.37710650,3733,5255,9718,2036,3239,6205,0.28848922,0.45902487,0.87929386,0.15556619,0.21287024,0.32416701
11001,0,USDistrictofColumbiaDistrictofColumbia,District of Columbia,District of Columbia,2021-01-06 03:42:19.239531,2020-08-10 00:00:00.000000,0.53163074,0.74324899,1.35733232,3751,5245,9579,2002,3224,6158,0.28368016,0.45691465,0.87268101,0.15490070,0.21273782,0.32444548
11001,0,USDistrictofColumbiaDistrictofColumbia,District of Columbia,District of Columbia,2021-01-06 03:42:19.239531,2020-08-11 00:00:00.000000,0.52666639,0.73022667,1.33752929,3716,5153,9439,1971,3191,6097,0.27931499,0.45225133,0.86398335,0.15493587,0.20908242,0.32186460
11001,0,USDistrictofColumbiaDistrictofColumbia,District of Columbia,District of Columbia,2021-01-06 03:42:19.239531,2020-08-12 00:00:00.000000,0.51472500,0.71668451,1.31810363,3632,5057,9302,1940,3131,6026,0.27491663,0.44365371,0.85391372,0.15548690,0.20949012,0.31063485
11001,0,USDistrictofColumbiaDistrictofColumbia,District of Columbia,District of Columbia,2021-01-06 03:42:19.239531,2020-08-13 00:00:00.000000,0.50102214,0.70366654,1.29921844,3535,4966,9169,1908,3096,5949,0.27037620,0.43876612,0.84295753,0.15659571,0.20645583,0.31377268
11001,0,USDistrictofColumbiaDistrictofColumbia,District of Columbia,District of Columbia,2021-01-06 03:42:19.239531,2020-08-14 00:00:00.000000,0.48895618,0.69491364,1.28106061,3450,4904,9041,1880,3062,5867,0.26644509,0.43392555,0.83141743,0.15536697,0.20843878,0.31299022
11001,0,USDistrictofColumbiaDistrictofColumbia,District of Columbia,District of Columbia,2021-01-06 03:42:19.239531,2020-08-15 00:00:00.000000,0.47908713,0.68652049,1.26382845,3381,4845,8919,1868,3029,5783,0.26479129,0.42919223,0.81948136,0.15699819,0.20586383,0.30255591
11001,0,USDistrictofColumbiaDistrictofColumbia,District of Columbia,District of Columbia,2021-01-06 03:42:19.239531,2020-08-16 00:00:00.000000,0.47139967,0.67834619,1.24769341,3326,4787,8805,1845,2996,5697,0.26153007,0.42462299,0.80728121,0.15433404,0.20736681,0.29616421
11001,0,USDistrictofColumbiaDistrictofColumbia,District of Columbia,District of Columbia,2021-01-06 03:42:19.239531,2020-08-17 00:00:00.000000,0.46526635,0.67037919,1.23188652,3283,4731,8694,1823,2966,5610,0.25838548,0.42026710,0.79492196,0.15327255,0.20863273,0.28797081
11001,0,USDistrictofColumbiaDistrictofColumbia,District of Columbia,District of Columbia,2021-01-06 03:42:19.239531,2020-08-18 00:00:00.000000,0.45337121,0.65861713,1.21724611,3199,4648,8590,1801,2934,5521,0.25526252,0.41586430,0.78241468,0.15300305,0.20624966,0.28590980
11001,0,USDistrictofColumbiaDistrictofColumbia,District of Columbia,District of Columbia,2021-01-06 03:42:19.239531,2020-08-19 00:00:00.000000,0.44165409,0.65042610,1.20363329,3116,4590,8494,1756,2908,5433,0.24895531,0.41214392,0.76985312,0.15079805,0.20542214,0.28268319
11001,0,USDistrictofColumbiaDistrictofColumbia,District of Columbia,District of Columbia,2021-01-06 03:42:19.239531,2020-08-20 00:00:00.000000,0.43017099,0.64442519,1.19087442,3035,4548,8404,1712,2885,5344,0.24267504,0.40891176,0.75730535,0.15024484,0.20712599,0.28041266
11001,0,USDistrictofColumbiaDistrictofColumbia,District of Columbia,District of Columbia,2021-01-06 03:42:19.239531,2020-08-21 00:00:00.000000,0.42389546,0.63981416,1.17882815,2991,4515,8319,1681,2831,5256,0.23826984,0.40114804,0.74482331,0.14974305,0.20829858,0.29081657
11001,0,USDistrictofColumbiaDistrictofColumbia,District of Columbia,District of Columbia,2021-01-06 03:42:19.239531,2020-08-22 00:00:00.000000,0.42104497,0.63843909,1.16749497,2971,4505,8239,1659,2777,5178,0.23515864,0.39357096,0.73381619,0.15003651,0.21375199,0.29724698
11001,0,USDistrictofColumbiaDistrictofColumbia,District of Columbia,District of Columbia,2021-01-06 03:42:19.239531,2020-08-23 00:00:00.000000,0.42215214,0.63346919,1.15708843,2979,4470,8166,1640,2730,5122,0.23241032,0.38684238,0.72582526,0.15102699,0.21545524,0.30276675
11001,0,USDistrictofColumbiaDistrictofColumbia,District of Columbia,District of Columbia,2021-01-06 03:42:19.239531,2020-08-24 00:00:00.000000,0.42022345,0.63100037,1.14626479,2965,4453,8089,1623,2706,5069,0.23005529,0.38344198,0.71832264,0.15142986,0.22064451,0.31070613
11001,0,USDistrictofColumbiaDistrictofColumbia,District of Columbia,District of Columbia,2021-01-06 03:42:19.239531,2020-08-25 00:00:00.000000,0.41702893,0.62771350,1.13777945,2943,4430,8029,1610,2684,5021,0.22813378,0.38036126,0.71146019,0.14995608,0.22226864,0.30970206
11001,0,USDistrictofColumbiaDistrictofColumbia,District of Columbia,District of Columbia,2021-01-06 03:42:19.239531,2020-08-26 00:00:00.000000,0.41631003,0.62354828,1.13334347,2938,4400,7998,1598,2673,4977,0.22654733,0.37879554,0.70532187,0.14883012,0.22437253,0.31178670
11001,0,USDistrictofColumbiaDistrictofColumbia,District of Columbia,District of Columbia,2021-01-06 03:42:19.239531,2020-08-27 00:00:00.000000,0.41465319,0.61921492,1.12959563,2926,4370,7972,1589,2648,4940,0.22520541,0.37524570,0.69997415,0.14901786,0.22390016,0.31162473
11001,0,USDistrictofColumbiaDistrictofColumbia,District of Columbia,District of Columbia,2021-01-06 03:42:19.239531,2020-08-28 00:00:00.000000,0.40891186,0.60908453,1.12411361,2885,4298,7933,1581,2613,4907,0.22404613,0.37027411,0.69542992,0.15052316,0.22387362,0.31112584
11001,0,USDistrictofColumbiaDistrictofColumbia,District of Columbia,District of Columbia,2021-01-06 03:42:19.239531,2020-08-29 00:00:00.000000,0.40338980,0.60639739,1.10666986,2846,4279,7810,1573,2593,4869,0.22300067,0.36746073,0.69003673,0.15292753,0.22400194,0.31020900
11001,0,USDistrictofColumbiaDistrictofColumbia,District of Columbia,District of Columbia,2021-01-06 03:42:19.239531,2020-08-30 00:00:00.000000,0.39840816,0.59945839,1.08555630,2811,4230,7661,1578,2573,4826,0.22359314,0.36469340,0.68393073,0.15528317,0.22375978,0.30844014
11001,0,USDistrictofColumbiaDistrictofColumbia,District of Columbia,District of Columbia,2021-01-06 03:42:19.239531,2020-08-31 00:00:00.000000,0.39409456,0.59051366,1.06409865,2781,4167,7509,1557,2524,4776,0.22074172,0.35773247,0.67678100,0.15508301,0.22778465,0.30964051
11001,0,USDistrictofColumbiaDistrictofColumbia,District of Columbia,District of Columbia,2021-01-06 03:42:19.239531,2020-09-01 00:00:00.000000,0.39476144,0.58207609,1.04293368,2786,4107,7360,1548,2504,4722,0.21936434,0.35484767,0.66912016,0.15498050,0.23017386,0.31163641
11001,0,USDistrictofColumbiaDistrictofColumbia,District of Columbia,District of Columbia,2021-01-06 03:42:19.239531,2020-09-02 00:00:00.000000,0.39597725,0.57429752,1.02209311,2794,4053,7213,1536,2487,4666,0.21775870,0.35248059,0.66117110,0.15496415,0.23373985,0.31333540
11001,0,USDistrictofColumbiaDistrictofColumbia,District of Columbia,District of Columbia,2021-01-06 03:42:19.239531,2020-09-03 00:00:00.000000,0.39706370,0.57015270,1.00166399,2802,4023,7069,1524,2447,4616,0.21601629,0.34679628,0.65414655,0.15517381,0.23093906,0.30501492
11001,0,USDistrictofColumbiaDistrictofColumbia,District of Columbia,District of Columbia,2021-01-06 03:42:19.239531,2020-09-04 00:00:00.000000,0.39459083,0.56133832,0.98200997,2784,3961,6930,1511,2433,4583,0.21415348,0.34488113,0.64947434,0.15651634,0.23167040,0.30473802
11001,0,USDistrictofColumbiaDistrictofColumbia,District of Columbia,District of Columbia,2021-01-06 03:42:19.239531,2020-09-05 00:00:00.000000,0.39346663,0.55490722,0.97365103,2776,3916,6871,1497,2404,4549,0.21225108,0.34072044,0.64469192,0.15894087,0.23044210,0.30426859
11001,0,USDistrictofColumbiaDistrictofColumbia,District of Columbia,District of Columbia,2021-01-06 03:42:19.239531,2020-09-06 00:00:00.000000,0.39355144,0.54813996,0.96406421,2777,3868,6803,1489,2387,4515,0.21109396,0.33835360,0.63975818,0.15754958,0.23030381,0.30232294
11001,0,USDistrictofColumbiaDistrictofColumbia,District of Columbia,District of Columbia,2021-01-06 03:42:19.239531,2020-09-07 00:00:00.000000,0.39220761,0.54177219,0.95330436,2768,3823,6727,1478,2356,4479,0.20946099,0.33389721,0.63465729,0.15661345,0.22882673,0.30461245
11001,0,USDistrictofColumbiaDistrictofColumbia,District of Columbia,District of Columbia,2021-01-06 03:42:19.239531,2020-09-08 00:00:00.000000,0.38892768,0.53602091,0.94307688,2744,3782,6655,1462,2331,4440,0.20726809,0.33032538,0.62916746,0.16129607,0.22595255,0.30492822
11001,0,USDistrictofColumbiaDistrictofColumbia,District of Columbia,District of Columbia,2021-01-06 03:42:19.239531,2020-09-09 00:00:00.000000,0.38526598,0.53455131,0.93925519,2719,3772,6628,1450,2311,4399,0.20555026,0.32750362,0.62334444,0.16878159,0.22635468,0.30924435
11001,0,USDistrictofColumbiaDistrictofColumbia,District of Columbia,District of Columbia,2021-01-06 03:42:19.239531,2020-09-10 00:00:00.000000,0.38132924,0.53453706,0.93567784,2691,3772,6603,1442,2298,4384,0.20435670,0.32572969,0.62118942,0.17232193,0.22861135,0.32002355
11001,0,USDistrictofColumbiaDistrictofColumbia,District of Columbia,District of Columbia,2021-01-06 03:42:19.239531,2020-09-11 00:00:00.000000,0.37715519,0.53209608,0.93229271,2661,3755,6579,1437,2291,4374,0.20370937,0.32471364,0.61989334,0.17275326,0.22996511,0.31641508
11001,0,USDistrictofColumbiaDistrictofColumbia,District of Columbia,District of Columbia,2021-01-06 03:42:19.239531,2020-09-12 00:00:00.000000,0.37273535,0.52918767,0.92999975,2630,3734,6563,1434,2277,4367,0.20326293,0.32276242,0.61884088,0.17408604,0.23533634,0.31285753
11001,0,USDistrictofColumbiaDistrictofColumbia,District of Columbia,District of Columbia,2021-01-06 03:42:19.239531,2020-09-13 00:00:00.000000,0.36804089,0.52651552,0.92933177,2597,3715,6558,1419,2265,4361,0.20113595,0.32096381,0.61794051,0.17193654,0.23682180,0.31827995
11001,0,USDistrictofColumbiaDistrictofColumbia,District of Columbia,District of Columbia,2021-01-06 03:42:19.239531,2020-09-14 00:00:00.000000,0.36296549,0.52377318,0.93023383,2561,3696,6565,1415,2260,4355,0.20050831,0.32028003,0.61713919,0.16563214,0.24025681,0.32483947
11001,0,USDistrictofColumbiaDistrictofColumbia,District of Columbia,District of Columbia,2021-01-06 03:42:19.239531,2020-09-15 00:00:00.000000,0.35758952,0.52130603,0.93260385,2523,3679,6581,1414,2255,4351,0.20038042,0.31960214,0.61651216,0.16640412,0.24041282,0.33082514
11001,0,USDistrictofColumbiaDistrictofColumbia,District of Columbia,District of Columbia,2021-01-06 03:42:19.239531,2020-09-16 00:00:00.000000,0.35198565,0.51864959,0.93540374,2484,3660,6601,1413,2250,4349,0.20032251,0.31891341,0.61630988,0.16649997,0.24266588,0.33582108
11001,0,USDistrictofColumbiaDistrictofColumbia,District of Columbia,District of Columbia,2021-01-06 03:42:19.239531,2020-09-17 00:00:00.000000,0.35189188,0.51633516,0.93841222,2483,3644,6622,1407,2245,4350,0.19945421,0.31820362,0.61642859,0.16647781,0.24627733,0.33835035
11001,0,USDistrictofColumbiaDistrictofColumbia,District of Columbia,District of Columbia,2021-01-06 03:42:19.239531,2020-09-18 00:00:00.000000,0.35478210,0.51430515,0.93761900,2503,3629,6617,1402,2240,4350,0.19878851,0.31746335,0.61638851,0.16893651,0.24810357,0.34178456
11001,0,USDistrictofColumbiaDistrictofColumbia,District of Columbia,District of Columbia,2021-01-06 03:42:19.239531,2020-09-19 00:00:00.000000,0.35709237,0.51268520,0.94212402,2520,3618,6649,1400,2235,4348,0.19839910,0.31669192,0.61608423,0.17301244,0.25188423,0.34525553
11001,0,USDistrictofColumbiaDistrictofColumbia,District of Columbia,District of Columbia,2021-01-06 03:42:19.239531,2020-09-20 00:00:00.000000,0.35977256,0.51417775,0.94898999,2539,3628,6697,1399,2229,4344,0.19834246,0.31597439,0.61559879,0.18649724,0.25464792,0.34694120
11001,0,USDistrictofColumbiaDistrictofColumbia,District of Columbia,District of Columbia,2021-01-06 03:42:19.239531,2020-09-21 00:00:00.000000,0.36143256,0.51791226,0.95350814,2550,3655,6729,1401,2226,4340,0.19864755,0.31548120,0.61507491,0.19251258,0.25596999,0.34779600
11001,0,USDistrictofColumbiaDistrictofColumbia,District of Columbia,District of Columbia,2021-01-06 03:42:19.239531,2020-09-22 00:00:00.000000,0.35655641,0.52208346,0.95799665,2516,3684,6761,1406,2225,4338,0.19935826,0.31529632,0.61472000,0.19312405,0.26170304,0.34819386
11001,0,USDistrictofColumbiaDistrictofColumbia,District of Columbia,District of Columbia,2021-01-06 03:42:19.239531,2020-09-23 00:00:00.000000,0.35204365,0.52690438,0.96246582,2484,3718,6792,1401,2220,4339,0.19864092,0.31461692,0.61491538,0.19378126,0.26259827,0.34803884
11001,0,USDistrictofColumbiaDistrictofColumbia,District of Columbia,District of Columbia,2021-01-06 03:42:19.239531,2020-09-24 00:00:00.000000,0.34918839,0.52884109,0.96691979,2464,3732,6824,1383,2215,4348,0.19597882,0.31385278,0.61609603,0.19616309,0.26552639,0.34943556
11001,0,USDistrictofColumbiaDistrictofColumbia,District of Columbia,District of Columbia,2021-01-06 03:42:19.239531,2020-09-25 00:00:00.000000,0.35212554,0.53309043,0.97135457,2485,3762,6855,1367,2230,4365,0.19378212,0.31599000,0.61856927,0.20040222,0.27030272,0.37682683
11001,0,USDistrictofColumbiaDistrictofColumbia,District of Columbia,District of Columbia,2021-01-06 03:42:19.239531,2020-09-26 00:00:00.000000,0.36121744,0.53720667,0.97576485,2549,3791,6886,1366,2246,4392,0.19362819,0.31827871,0.62234558,0.20326773,0.27760450,0.38888829
11001,0,USDistrictofColumbiaDistrictofColumbia,District of Columbia,District of Columbia,2021-01-06 03:42:19.239531,2020-09-27 00:00:00.000000,0.37233203,0.54190685,0.98014717,2627,3824,6917,1376,2256,4426,0.19505848,0.31978373,0.62721135,0.21488946,0.28444315,0.39790773
11001,0,USDistrictofColumbiaDistrictofColumbia,District of Columbia,District of Columbia,2021-01-06 03:42:19.239531,2020-09-28 00:00:00.000000,0.38403898,0.54900031,0.98669347,2710,3874,6963,1402,2271,4466,0.19877467,0.32179328,0.63288791,0.21814187,0.28533531,0.40011339
11001,0,USDistrictofColumbiaDistrictofColumbia,District of Columbia,District of Columbia,2021-01-06 03:42:19.239531,2020-09-29 00:00:00.000000,0.39607392,0.55210535,1.00175068,2795,3896,7069,1437,2275,4509,0.20367675,0.32237330,0.63901557,0.21816179,0.28692675,0.39921189
11001,0,USDistrictofColumbiaDistrictofColumbia,District of Columbia,District of Columbia,2021-01-06 03:42:19.239531,2020-09-30 00:00:00.000000,0.40528793,0.55543595,1.02829411,2860,3919,7257,1470,2287,4516,0.20829053,0.32406517,0.64002324,0.21848206,0.28993236,0.39697237
11001,0,USDistrictofColumbiaDistrictofColumbia,District of Columbia,District of Columbia,2021-01-06 03:42:19.239531,2020-10-01 00:00:00.000000,0.40946334,0.56180657,1.04251463,2889,3964,7357,1475,2323,4522,0.20903261,0.32926056,0.64073890,0.21778399,0.28971550,0.39333861
11001,0,USDistrictofColumbiaDistrictofColumbia,District of Columbia,District of Columbia,2021-01-06 03:42:19.239531,2020-10-02 00:00:00.000000,0.41089773,0.57219276,1.04834740,2899,4038,7398,1480,2344,4528,0.20974617,0.33222019,0.64159872,0.21864499,0.29726507,0.38669990
11001,0,USDistrictofColumbiaDistrictofColumbia,District of Columbia,District of Columbia,2021-01-06 03:42:19.239531,2020-10-03 00:00:00.000000,0.41595969,0.58182220,1.06366005,2935,4106,7506,1485,2356,4535,0.21044253,0.33392585,0.64262327,0.21887792,0.30384275,0.38234653
11001,0,USDistrictofColumbiaDistrictofColumbia,District of Columbia,District of Columbia,2021-01-06 03:42:19.239531,2020-10-04 00:00:00.000000,0.42631129,0.58786957,1.07599077,3008,4148,7593,1490,2384,4544,0.21112818,0.33788632,0.64391568,0.21848959,0.30596402,0.38670516
11001,0,USDistrictofColumbiaDistrictofColumbia,District of Columbia,District of Columbia,2021-01-06 03:42:19.239531,2020-10-05 00:00:00.000000,0.43285950,0.59597996,1.08067778,3054,4206,7626,1499,2419,4648,0.21250489,0.34288166,0.65867942,0.21799080,0.30197436,0.38566591
11001,0,USDistrictofColumbiaDistrictofColumbia,District of Columbia,District of Columbia,2021-01-06 03:42:19.239531,2020-10-06 00:00:00.000000,0.43754585,0.60098525,1.08527661,3087,4241,7659,1514,2461,4753,0.21465548,0.34876479,0.67358999,0.21803366,0.30134592,0.38403875
11001,0,USDistrictofColumbiaDistrictofColumbia,District of Columbia,District of Columbia,2021-01-06 03:42:19.239531,2020-10-07 00:00:00.000000,0.44215420,0.60811752,1.08935165,3120,4291,7688,1529,2496,4837,0.21673867,0.35380493,0.68549359,0.21804418,0.29872701,0.38389608
11001,0,USDistrictofColumbiaDistrictofColumbia,District of Columbia,District of Columbia,2021-01-06 03:42:19.239531,2020-10-08 00:00:00.000000,0.44472838,0.61569576,1.09237779,3138,4345,7709,1543,2534,4889,0.21875944,0.35906293,0.69280284,0.21807437,0.29812585,0.38320277
11001,0,USDistrictofColumbiaDistrictofColumbia,District of Columbia,District of Columbia,2021-01-06 03:42:19.239531,2020-10-09 00:00:00.000000,0.44392941,0.62119586,1.10362165,3133,4384,7788,1557,2557,4928,0.22069326,0.36231623,0.69837745,0.21819482,0.29825443,0.38310188
11001,0,USDistrictofColumbiaDistrictofColumbia,District of Columbia,District of Columbia,2021-01-06 03:42:19.239531,2020-10-10 00:00:00.000000,0.44413562,0.62980561,1.12028602,3134,4444,7906,1570,2583,4967,0.22247224,0.36606073,0.70386304,0.21854114,0.29850533,0.38837024
11001,0,USDistrictofColumbiaDistrictofColumbia,District of Columbia,District of Columbia,2021-01-06 03:42:19.239531,2020-10-11 00:00:00.000000,0.44590700,0.63363899,1.13977526,3146,4471,8043,1580,2616,4997,0.22399227,0.37067838,0.70807764,0.21895492,0.30362540,0.38651142
11001,0,USDistrictofColumbiaDistrictofColumbia,District of Columbia,District of Columbia,2021-01-06 03:42:19.239531,2020-10-12 00:00:00.000000,0.44889282,0.64181988,1.16188549,3168,4529,8199,1584,2650,5015,0.22444972,0.37558984,0.71063892,0.22026822,0.30439607,0.38901170
11001,0,USDistrictofColumbiaDistrictofColumbia,District of Columbia,District of Columbia,2021-01-06 03:42:19.239531,2020-10-13 00:00:00.000000,0.44632374,0.65017396,1.18621062,3149,4588,8371,1589,2699,5032,0.22525338,0.38252396,0.71300666,0.22324032,0.30430853,0.39279716
11001,0,USDistrictofColumbiaDistrictofColumbia,District of Columbia,District of Columbia,2021-01-06 03:42:19.239531,2020-10-14 00:00:00.000000,0.44281852,0.65911356,1.21219209,3125,4651,8555,1598,2755,5053,0.22650119,0.39044670,0.71605555,0.22851862,0.30719785,0.39210900
11001,0,USDistrictofColumbiaDistrictofColumbia,District of Columbia,District of Columbia,2021-01-06 03:42:19.239531,2020-10-15 00:00:00.000000,0.44414478,0.67072268,1.22787414,3134,4733,8665,1609,2782,5081,0.22800951,0.39421423,0.72003902,0.23284747,0.30983696,0.38765867
11001,0,USDistrictofColumbiaDistrictofColumbia,District of Columbia,District of Columbia,2021-01-06 03:42:19.239531,2020-10-16 00:00:00.000000,0.44912063,0.67554876,1.23799708,3169,4767,8737,1621,2824,5114,0.22974585,0.40020250,0.72470465,0.23541379,0.31365461,0.38546822
11001,0,USDistrictofColumbiaDistrictofColumbia,District of Columbia,District of Columbia,2021-01-06 03:42:19.239531,2020-10-17 00:00:00.000000,0.45426248,0.68321845,1.24817257,3205,4821,8808,1635,2878,5150,0.23168649,0.40784455,0.72979449,0.23681240,0.31792946,0.38527811
11001,0,USDistrictofColumbiaDistrictofColumbia,District of Columbia,District of Columbia,2021-01-06 03:42:19.239531,2020-10-18 00:00:00.000000,0.45954374,0.69866157,1.25838669,3243,4930,8881,1650,2931,5213,0.23393042,0.41531282,0.73865428,0.23913308,0.32401243,0.38772646
11001,0,USDistrictofColumbiaDistrictofColumbia,District of Columbia,District of Columbia,2021-01-06 03:42:19.239531,2020-10-19 00:00:00.000000,0.46510243,0.71459567,1.26850915,3282,5043,8952,1670,2973,5236,0.23666967,0.42134868,0.74204526,0.23964840,0.32486756,0.39071704
11001,0,USDistrictofColumbiaDistrictofColumbia,District of Columbia,District of Columbia,2021-01-06 03:42:19.239531,2020-10-20 00:00:00.000000,0.47256080,0.73124822,1.29390407,3335,5160,9131,1694,3019,5272,0.24007455,0.42791024,0.74704892,0.24029150,0.32959443,0.40591867
11001,0,USDistrictofColumbiaDistrictofColumbia,District of Columbia,District of Columbia,2021-01-06 03:42:19.239531,2020-10-21 00:00:00.000000,0.48393929,0.75083813,1.32716253,3415,5299,9366,1722,3068,5315,0.24405912,0.43479197,0.75321746,0.24313458,0.33089856,0.41722545
11001,0,USDistrictofColumbiaDistrictofColumbia,District of Columbia,District of Columbia,2021-01-06 03:42:19.239531,2020-10-22 00:00:00.000000,0.49522917,0.77132108,1.36064124,3495,5443,9602,1753,3119,5363,0.24848042,0.44203236,0.75997174,0.25660562,0.33514142,0.42897987
11001,0,USDistrictofColumbiaDistrictofColumbia,District of Columbia,District of Columbia,2021-01-06 03:42:19.239531,2020-10-23 00:00:00.000000,0.50614210,0.79696915,1.39243154,3572,5624,9827,1787,3186,5455,0.25322129,0.45156670,0.77301731,0.25574402,0.34284080,0.44068761
11001,0,USDistrictofColumbiaDistrictofColumbia,District of Columbia,District of Columbia,2021-01-06 03:42:19.239531,2020-10-24 00:00:00.000000,0.51743177,0.82010182,1.42316292,3651,5787,10043,1822,3265,5588,0.25820360,0.46270584,0.79178977,0.25116110,0.35528511,0.45049860
11001,0,USDistrictofColumbiaDistrictofColumbia,District of Columbia,District of Columbia,2021-01-06 03:42:19.239531,2020-10-25 00:00:00.000000,0.52966260,0.84541186,1.45611734,3738,5966,10276,1858,3339,5720,0.26338275,0.47313433,0.81048775,0.25298388,0.36455346,0.47534142
11001,0,USDistrictofColumbiaDistrictofColumbia,District of Columbia,District of Columbia,2021-01-06 03:42:19.239531,2020-10-26 00:00:00.000000,0.54637010,0.87789616,1.49353922,3856,6195,10540,1896,3410,5853,0.26874634,0.48323969,0.82944040,0.25061620,0.37672769,0.48520253
11001,0,USDistrictofColumbiaDistrictofColumbia,District of Columbia,District of Columbia,2021-01-06 03:42:19.239531,2020-10-27 00:00:00.000000,0.56386546,0.91514912,1.53635968,3979,6458,10842,1935,3509,5993,0.27428165,0.49729267,0.84928863,0.25113121,0.38413465,0.49402478
11001,0,USDistrictofColumbiaDistrictofColumbia,District of Columbia,District of Columbia,2021-01-06 03:42:19.239531,2020-10-28 00:00:00.000000,0.58239402,0.95010679,1.58409583,4110,6705,11179,1981,3621,6144,0.28083542,0.51316355,0.87066653,0.26659384,0.38250904,0.50010717
11001,0,USDistrictofColumbiaDistrictofColumbia,District of Columbia,District of Columbia,2021-01-06 03:42:19.239531,2020-10-29 00:00:00.000000,0.60087894,0.98668022,1.63559089,4240,6963,11543,2059,3721,6343,0.29178077,0.52734852,0.89886858,0.26660420,0.38578075,0.50339868
11001,0,USDistrictofColumbiaDistrictofColumbia,District of Columbia,District of Columbia,2021-01-06 03:42:19.239531,2020-10-30 00:00:00.000000,0.61602759,1.02258856,1.68998099,4347,7216,11927,2142,3868,6599,0.30356434,0.54817662,0.93516027,0.26664030,0.39418988,0.50482075
11001,0,USDistrictofColumbiaDistrictofColumbia,District of Columbia,District of Columbia,2021-01-06 03:42:19.239531,2020-10-31 00:00:00.000000,0.64375077,1.05407393,1.74694355,4543,7439,12329,2231,4011,6875,0.31615568,0.56842508,0.97420929,0.26673429,0.39428392,0.51515008
11001,0,USDistrictofColumbiaDistrictofColumbia,District of Columbia,District of Columbia,2021-01-06 03:42:19.239531,2020-11-01 00:00:00.000000,0.67460639,1.08871147,1.79880414,4761,7683,12695,2325,4140,7169,0.32945333,0.58673363,1.01587126,0.26725542,0.38797786,0.52133727
11001,0,USDistrictofColumbiaDistrictofColumbia,District of Columbia,District of Columbia,2021-01-06 03:42:19.239531,2020-11-02 00:00:00.000000,0.70851903,1.12142197,1.83077989,5000,7914,12920,2422,4293,7378,0.34318268,0.60840331,1.04554068,0.28060301,0.38766154,0.53666881
11001,0,USDistrictofColumbiaDistrictofColumbia,District of Columbia,District of Columbia,2021-01-06 03:42:19.239531,2020-11-03 00:00:00.000000,0.74476203,1.15472808,1.86282869,5256,8149,13146,2515,4453,7490,0.35648317,0.63107260,1.06133927,0.28612554,0.38669008,0.53779414
11001,0,USDistrictofColumbiaDistrictofColumbia,District of Columbia,District of Columbia,2021-01-06 03:42:19.239531,2020-11-04 00:00:00.000000,0.78303624,1.19299900,1.95900425,5526,8419,13825,2605,4593,7610,0.36923127,0.65088076,1.07839038,0.28793707,0.39671642,0.53778293
11001,0,USDistrictofColumbiaDistrictofColumbia,District of Columbia,District of Columbia,2021-01-06 03:42:19.239531,2020-11-05 00:00:00.000000,0.82310037,1.24043722,2.01656284,5809,8754,14231,2694,4757,7856,0.38174062,0.67415371,1.11318877,0.29692623,0.40285168,0.53671232
11001,0,USDistrictofColumbiaDistrictofColumbia,District of Columbia,District of Columbia,2021-01-06 03:42:19.239531,2020-11-06 00:00:00.000000,0.86349292,1.29487356,2.07545873,6094,9138,14647,2783,4963,8176,0.39433484,0.70328790,1.15851224,0.30765325,0.40487549,0.54630348
11001,0,USDistrictofColumbiaDistrictofColumbia,District of Columbia,District of Columbia,2021-01-06 03:42:19.239531,2020-11-07 00:00:00.000000,0.89856227,1.35553287,2.15459400,6341,9566,15206,2877,5157,8592,0.40772891,0.73079021,1.21747051,0.30276476,0.41592165,0.53269090
11001,0,USDistrictofColumbiaDistrictofColumbia,District of Columbia,District of Columbia,2021-01-06 03:42:19.239531,2020-11-08 00:00:00.000000,0.93937154,1.40512215,2.26600399,6629,9916,15992,3022,5322,8964,0.42824218,0.75412917,1.27020617,0.30623995,0.42035928,0.53597840
11001,0,USDistrictofColumbiaDistrictofColumbia,District of Columbia,District of Columbia,2021-01-06 03:42:19.239531,2020-11-09 00:00:00.000000,0.98316466,1.46754216,2.35789155,6938,10357,16640,3168,5551,9279,0.44891167,0.78664037,1.31483430,0.29860280,0.41627356,0.53095039
11001,0,USDistrictofColumbiaDistrictofColumbia,District of Columbia,District of Columbia,2021-01-06 03:42:19.239531,2020-11-10 00:00:00.000000,1.01541563,1.53001457,2.40918453,7166,10798,17002,3313,5771,9548,0.46944551,0.81779895,1.35301898,0.28812270,0.41435717,0.53242287
11001,0,USDistrictofColumbiaDistrictofColumbia,District of Columbia,District of Columbia,2021-01-06 03:42:19.239531,2020-11-11 00:00:00.000000,1.05664882,1.58655743,2.50188050,7457,11197,17656,3457,5993,9919,0.48992726,0.84931007,1.40546043,0.28450532,0.41033168,0.52743223
11001,0,USDistrictofColumbiaDistrictofColumbia,District of Columbia,District of Columbia,2021-01-06 03:42:19.239531,2020-11-12 00:00:00.000000,1.09687206,1.64213244,2.60247741,7741,11589,18366,3601,6268,10348,0.51024693,0.88817349,1.46630285,0.28513810,0.40459732,0.52165622
11001,0,USDistrictofColumbiaDistrictofColumbia,District of Columbia,District of Columbia,2021-01-06 03:42:19.239531,2020-11-13 00:00:00.000000,1.13537811,1.70539788,2.70160500,8012,12035,19066,3748,6510,10798,0.53109640,0.92247066,1.53013591,0.28458959,0.40038487,0.49855959
11001,0,USDistrictofColumbiaDistrictofColumbia,District of Columbia,District of Columbia,2021-01-06 03:42:19.239531,2020-11-14 00:00:00.000000,1.17241773,1.76352743,2.77962988,8274,12446,19617,3895,6729,11264,0.55201523,0.95353941,1.59616738,0.28104088,0.39883515,0.47759629
11001,0,USDistrictofColumbiaDistrictofColumbia,District of Columbia,District of Columbia,2021-01-06 03:42:19.239531,2020-11-15 00:00:00.000000,1.20651639,1.81094770,2.82435481,8514,12780,19932,4034,6937,11738,0.57167469,0.98302458,1.66324053,0.28117658,0.39527129,0.47156501
11001,0,USDistrictofColumbiaDistrictofColumbia,District of Columbia,District of Columbia,2021-01-06 03:42:19.239531,2020-11-16 00:00:00.000000,1.24729608,1.86617111,2.85882018,8802,13170,20176,4168,7170,12214,0.59062647,1.01606044,1.73072232,0.27197958,0.39134744,0.46851719
11001,0,USDistrictofColumbiaDistrictofColumbia,District of Columbia,District of Columbia,2021-01-06 03:42:19.239531,2020-11-17 00:00:00.000000,1.29307100,1.92634352,2.89039459,9125,13595,20398,4300,7425,12687,0.60929333,1.05219287,1.79779100,0.27183604,0.39074728,0.47135643
11001,0,USDistrictofColumbiaDistrictofColumbia,District of Columbia,District of Columbia,2021-01-06 03:42:19.239531,2020-11-18 00:00:00.000000,1.34057568,1.94681610,2.99392908,9461,13739,21129,4432,7677,13166,0.62801033,1.08784073,1.86558110,0.27655940,0.38760787,0.47129377
11001,0,USDistrictofColumbiaDistrictofColumbia,District of Columbia,District of Columbia,2021-01-06 03:42:19.239531,2020-11-19 00:00:00.000000,1.38533059,1.99094469,3.10796332,9776,14051,21934,4566,7909,13638,0.64698516,1.12066822,1.93243115,0.27533688,0.38600846,0.47146034
11001,0,USDistrictofColumbiaDistrictofColumbia,District of Columbia,District of Columbia,2021-01-06 03:42:19.239531,2020-11-20 00:00:00.000000,1.43041925,2.05044270,3.22738460,10095,14470,22777,4702,8126,14103,0.66628334,1.15141454,1.99832461,0.27692023,0.38523734,0.47558084
11001,0,USDistrictofColumbiaDistrictofColumbia,District of Columbia,District of Columbia,2021-01-06 03:42:19.239531,2020-11-21 00:00:00.000000,1.47697428,2.10511688,3.35090559,10423,14856,23648,4841,8407,14555,0.68604568,1.19123215,2.06244401,0.28210276,0.37732694,0.48559701
11001,0,USDistrictofColumbiaDistrictofColumbia,District of Columbia,District of Columbia,2021-01-06 03:42:19.239531,2020-11-22 00:00:00.000000,1.52457509,2.16074719,3.47782058,10759,15249,24544,4985,8664,14986,0.70646106,1.22763246,2.12353245,0.28064506,0.37790421,0.49007833
11001,0,USDistrictofColumbiaDistrictofColumbia,District of Columbia,District of Columbia,2021-01-06 03:42:19.239531,2020-11-23 00:00:00.000000,1.57263039,2.21555435,3.60781157,11098,15636,25462,5136,8918,15392,0.72779480,1.26371289,2.18095784,0.27907461,0.37796691,0.49087363
11001,0,USDistrictofColumbiaDistrictofColumbia,District of Columbia,District of Columbia,2021-01-06 03:42:19.239531,2020-11-24 00:00:00.000000,1.62055945,2.27809829,3.73885017,11437,16077,26386,5295,9165,15888,0.75030301,1.29863842,2.25131980,0.28245300,0.37970424,0.49108924
11001,0,USDistrictofColumbiaDistrictofColumbia,District of Columbia,District of Columbia,2021-01-06 03:42:19.239531,2020-11-25 00:00:00.000000,1.66849837,2.34372339,3.86881782,11775,16540,27304,5464,9362,16417,0.77421487,1.32667462,2.32621964,0.28838487,0.38074301,0.49062146
11001,0,USDistrictofColumbiaDistrictofColumbia,District of Columbia,District of Columbia,2021-01-06 03:42:19.239531,2020-11-26 00:00:00.000000,1.72580409,2.42043587,3.99701187,12179,17082,28208,5643,9662,16832,0.79958005,1.36908834,2.38506079,0.28211189,0.37663960,0.50203112
11001,0,USDistrictofColumbiaDistrictofColumbia,District of Columbia,District of Columbia,2021-01-06 03:42:19.239531,2020-11-27 00:00:00.000000,1.78136345,2.50658002,4.12484069,12571,17690,29111,5831,9995,17218,0.82630572,1.41626003,2.43974949,0.28171201,0.37539521,0.50873375
11001,0,USDistrictofColumbiaDistrictofColumbia,District of Columbia,District of Columbia,2021-01-06 03:42:19.239531,2020-11-28 00:00:00.000000,1.82765627,2.58989658,4.25097099,12898,18278,30001,6028,10240,17595,0.85423241,1.45094684,2.49322798,0.27867764,0.37370750,0.51119598
11001,0,USDistrictofColumbiaDistrictofColumbia,District of Columbia,District of Columbia,2021-01-06 03:42:19.239531,2020-11-29 00:00:00.000000,1.87105048,2.64369843,4.31400536,13204,18657,30446,6232,10481,17961,0.88313623,1.48513030,2.54498634,0.27138340,0.36999968,0.50902481
11001,0,USDistrictofColumbiaDistrictofColumbia,District of Columbia,District of Columbia,2021-01-06 03:42:19.239531,2020-11-30 00:00:00.000000,1.90910682,2.69550849,4.37557439,13473,19023,30880,6441,10716,18313,0.91269850,1.51840702,2.59484279,0.26122840,0.36501354,0.50632436
11001,0,USDistrictofColumbiaDistrictofColumbia,District of Columbia,District of Columbia,2021-01-06 03:42:19.239531,2020-12-01 00:00:00.000000,1.94853673,2.75440027,4.48996729,13751,19439,31687,6648,10946,18652,0.94205639,1.55110042,2.64300442,0.26041705,0.36110782,0.50726628
11001,0,USDistrictofColumbiaDistrictofColumbia,District of Columbia,District of Columbia,2021-01-06 03:42:19.239531,2020-12-02 00:00:00.000000,2.00042408,2.79813635,4.61389363,14117,19747,32562,6836,11167,18983,0.96872761,1.58239542,2.68981853,0.25915258,0.35560234,0.48588303
11001,0,USDistrictofColumbiaDistrictofColumbia,District of Columbia,District of Columbia,2021-01-06 03:42:19.239531,2020-12-03 00:00:00.000000,2.04197511,2.83311448,4.73551759,14411,19994,33420,6993,11409,19305,0.99099414,1.61668637,2.73550948,0.25664260,0.34832866,0.44560305
11001,0,USDistrictofColumbiaDistrictofColumbia,District of Columbia,District of Columbia,2021-01-06 03:42:19.239531,2020-12-04 00:00:00.000000,2.07209376,2.90985773,4.85606205,14623,20536,34271,7127,11667,19620,1.00997156,1.65325600,2.78010932,0.23729887,0.33904331,0.43497437
11001,0,USDistrictofColumbiaDistrictofColumbia,District of Columbia,District of Columbia,2021-01-06 03:42:19.239531,2020-12-05 00:00:00.000000,2.08399371,2.93968452,4.91634464,14707,20746,34697,7283,11857,19925,1.03201536,1.68010058,2.82328415,0.22580198,0.32903930,0.42213151
11001,0,USDistrictofColumbiaDistrictofColumbia,District of Columbia,District of Columbia,2021-01-06 03:42:19.239531,2020-12-06 00:00:00.000000,2.07492819,2.94134926,4.96183681,14643,20758,35018,7392,11991,20213,1.04747050,1.69905106,2.86410212,0.22267098,0.31329614,0.41980056
11001,0,USDistrictofColumbiaDistrictofColumbia,District of Columbia,District of Columbia,2021-01-06 03:42:19.239531,2020-12-07 00:00:00.000000,2.05258860,2.93503223,4.99774862,14486,20713,35271,7443,12162,20475,1.05466375,1.72334138,2.90127074,0.21506686,0.30374229,0.41407594
11001,0,USDistrictofColumbiaDistrictofColumbia,District of Columbia,District of Columbia,2021-01-06 03:42:19.239531,2020-12-08 00:00:00.000000,2.06896203,2.94023984,5.02850694,14601,20750,35488,7436,12248,20706,1.05366237,1.73548455,2.93403367,0.20912094,0.29594625,0.41427977
11001,0,USDistrictofColumbiaDistrictofColumbia,District of Columbia,District of Columbia,2021-01-06 03:42:19.239531,2020-12-09 00:00:00.000000,2.07265165,2.95163682,5.05001786,14627,20831,35640,7384,12371,20909,1.04627856,1.75290013,2.96273933,0.20643216,0.29491407,0.41384036
11001,0,USDistrictofColumbiaDistrictofColumbia,District of Columbia,District of Columbia,2021-01-06 03:42:19.239531,2020-12-10 00:00:00.000000,2.04727030,2.96290746,5.03176086,14448,20910,35511,7303,12486,21088,1.03483461,1.76932576,2.98814426,0.20711921,0.29456611,0.41214855
11001,0,USDistrictofColumbiaDistrictofColumbia,District of Columbia,District of Columbia,2021-01-06 03:42:19.239531,2020-12-11 00:00:00.000000,2.02214569,2.96510895,5.01649572,14271,20926,35403,7292,12496,21249,1.03324108,1.77067076,3.01097348,0.20987229,0.29276448,0.40782485
11001,0,USDistrictofColumbiaDistrictofColumbia,District of Columbia,District of Columbia,2021-01-06 03:42:19.239531,2020-12-12 00:00:00.000000,2.00213672,2.97351167,5.00384220,14130,20985,35314,7383,12560,21397,1.04612544,1.77980414,3.03188913,0.21107617,0.28901789,0.40019051
11001,0,USDistrictofColumbiaDistrictofColumbia,District of Columbia,District of Columbia,2021-01-06 03:42:19.239531,2020-12-13 00:00:00.000000,1.99318390,2.97804786,5.01653387,14066,21017,35404,7473,12597,21536,1.05896460,1.78499457,3.05157495,0.21438273,0.28660128,0.39875535
11001,0,USDistrictofColumbiaDistrictofColumbia,District of Columbia,District of Columbia,2021-01-06 03:42:19.239531,2020-12-14 00:00:00.000000,1.99661160,2.97268419,5.06347902,14091,20979,35735,7562,12589,21672,1.07154760,1.78388635,3.07089024,0.21742908,0.29046984,0.39811394
11001,0,USDistrictofColumbiaDistrictofColumbia,District of Columbia,District of Columbia,2021-01-06 03:42:19.239531,2020-12-15 00:00:00.000000,2.00777528,2.96306269,5.10233381,14169,20911,36009,7649,12598,21813,1.08386502,1.78512958,3.09077389,0.21671334,0.29163367,0.39444009
11001,0,USDistrictofColumbiaDistrictofColumbia,District of Columbia,District of Columbia,2021-01-06 03:42:19.239531,2020-12-16 00:00:00.000000,2.02258992,2.95644480,5.12932473,14274,20865,36200,7732,12574,21962,1.09559898,1.78173028,3.11198729,0.21064100,0.29412663,0.39025061
11001,0,USDistrictofColumbiaDistrictofColumbia,District of Columbia,District of Columbia,2021-01-06 03:42:19.239531,2020-12-17 00:00:00.000000,2.03883838,2.94057461,5.14447506,14389,20753,36307,7809,12541,22122,1.10649143,1.77703287,3.13467624,0.20343089,0.29396048,0.38545555
11001,0,USDistrictofColumbiaDistrictofColumbia,District of Columbia,District of Columbia,2021-01-06 03:42:19.239531,2020-12-18 00:00:00.000000,2.05532014,2.92382238,5.15058200,14505,20634,36350,7878,12474,22290,1.11631703,1.76752575,3.15844200,0.20522096,0.29196071,0.38024791
11001,0,USDistrictofColumbiaDistrictofColumbia,District of Columbia,District of Columbia,2021-01-06 03:42:19.239531,2020-12-19 00:00:00.000000,2.07052027,2.91411536,5.15064016,14612,20566,36350,7939,12379,22459,1.12491343,1.75409851,3.18230187,0.21444075,0.29576741,0.39781328
11001,0,USDistrictofColumbiaDistrictofColumbia,District of Columbia,District of Columbia,2021-01-06 03:42:19.239531,2020-12-20 00:00:00.000000,2.08136015,2.90247583,5.14627840,14689,20484,36319,7990,12346,22614,1.13222088,1.74936756,3.20435416,0.21322669,0.29518943,0.40228386
11001,0,USDistrictofColumbiaDistrictofColumbia,District of Columbia,District of Columbia,2021-01-06 03:42:19.239531,2020-12-21 00:00:00.000000,2.08591826,2.89317988,5.13856715,14721,20418,36265,8033,12338,22744,1.13828685,1.74833990,3.22272610,0.21666957,0.29642449,0.40466627
11001,0,USDistrictofColumbiaDistrictofColumbia,District of Columbia,District of Columbia,2021-01-06 03:42:19.239531,2020-12-22 00:00:00.000000,2.08584304,2.89080510,5.12736845,14720,20401,36186,8066,12346,22845,1.14300144,1.74936065,3.23705472,0.21633207,0.29613413,0.41080659
11001,0,USDistrictofColumbiaDistrictofColumbia,District of Columbia,District of Columbia,2021-01-06 03:42:19.239531,2020-12-23 00:00:00.000000,2.08383794,2.89892600,5.11270377,14706,20459,36082,8092,12363,22921,1.14660172,1.75182538,3.24783694,0.21615327,0.29394398,0.41467491
11001,0,USDistrictofColumbiaDistrictofColumbia,District of Columbia,District of Columbia,2021-01-06 03:42:19.239531,2020-12-24 00:00:00.000000,2.08136520,2.90162424,5.09389998,14689,20478,35950,8111,12458,22976,1.14927722,1.76524881,3.25567790,0.21598940,0.29167652,0.41365012
11001,0,USDistrictofColumbiaDistrictofColumbia,District of Columbia,District of Columbia,2021-01-06 03:42:19.239531,2020-12-25 00:00:00.000000,2.10673835,2.89209039,5.10789308,14868,20410,36048,8124,12425,23015,1.15113866,1.76060598,3.26107596,0.21572643,0.28531216,0.41339381
11001,0,USDistrictofColumbiaDistrictofColumbia,District of Columbia,District of Columbia,2021-01-06 03:42:19.239531,2020-12-26 00:00:00.000000,2.13413467,2.89797394,5.12714368,15061,20452,36184,8131,12396,23038,1.15216326,1.75655730,3.26440792,0.21426550,0.28548719,0.41896285
11001,0,USDistrictofColumbiaDistrictofColumbia,District of Columbia,District of Columbia,2021-01-06 03:42:19.239531,2020-12-27 00:00:00.000000,2.13814792,2.90618368,5.14255410,15089,20510,36293,8131,12399,23049,1.15214843,1.75693608,3.26598754,0.21249464,0.28306693,0.43528209
11001,0,USDistrictofColumbiaDistrictofColumbia,District of Columbia,District of Columbia,2021-01-06 03:42:19.239531,2020-12-28 00:00:00.000000,2.14939997,2.90917010,5.15406691,15169,20531,36374,8122,12358,23052,1.15083528,1.75114938,3.26635861,0.19528634,0.28373746,0.44561616
11001,0,USDistrictofColumbiaDistrictofColumbia,District of Columbia,District of Columbia,2021-01-06 03:42:19.239531,2020-12-29 00:00:00.000000,2.17353677,2.90200325,5.16236242,15339,20480,36433,8102,12380,23060,1.14806553,1.75429499,3.26755287,0.19142514,0.28529608,0.44612985
11001,0,USDistrictofColumbiaDistrictofColumbia,District of Columbia,District of Columbia,2021-01-06 03:42:19.239531,2020-12-30 00:00:00.000000,2.16643700,2.89567562,5.16747942,15289,20436,36469,8071,12408,23093,1.14366699,1.75820226,3.27217195,0.19234384,0.28659649,0.44623235
11001,0,USDistrictofColumbiaDistrictofColumbia,District of Columbia,District of Columbia,2021-01-06 03:42:19.239531,2020-12-31 00:00:00.000000,2.13212552,2.87514040,5.16919370,15047,20291,36481,8024,12302,23164,1.13698806,1.74318853,3.28226339,0.18882615,0.28987951,0.44648607
11001,0,USDistrictofColumbiaDistrictofColumbia,District of Columbia,District of Columbia,2021-01-06 03:42:19.239531,2021-01-01 00:00:00.000000,2.09658449,2.83839472,5.16700175,14796,20031,36466,8043,12260,23282,1.13978045,1.73724581,3.29897546,0.18348856,0.28949608,0.44756198
11001,0,USDistrictofColumbiaDistrictofColumbia,District of Columbia,District of Columbia,2021-01-06 03:42:19.239531,2021-01-02 00:00:00.000000,2.07769719,2.81202430,5.16953259,14663,19845,36483,7963,12244,23343,1.12832807,1.73499190,3.30762629,0.18824858,0.28485484,0.44127218
11001,0,USDistrictofColumbiaDistrictofColumbia,District of Columbia,District of Columbia,2021-01-06 03:42:19.239531,2021-01-03 00:00:00.000000,2.07493771,2.79765515,5.17455336,14643,19744,36519,7889,12247,23160,1.11783161,1.73537604,3.28173508,0.19260499,0.28385079,0.46924745
11001,0,USDistrictofColumbiaDistrictofColumbia,District of Columbia,District of Columbia,2021-01-06 03:42:19.239531,2021-01-04 00:00:00.000000,2.01832008,2.80457629,5.12988483,14244,19793,36204,7751,12165,22954,1.09835239,1.72376520,3.25248810,0.19016114,0.28542888,0.47695542
11001,0,USDistrictofColumbiaDistrictofColumbia,District of Columbia,District of Columbia,2021-01-06 03:42:19.239531,2021-01-05 00:00:00.000000,1.95622175,2.83132098,5.10521451,13806,19982,36030,7611,12050,22725,1.07854005,1.70745479,3.22006078,0.18898401,0.28606107,0.48085463
11001,0,USDistrictofColumbiaDistrictofColumbia,District of Columbia,District of Columbia,2021-01-06 03:42:19.239531,2021-01-06 00:00:00.000000,1.90698804,2.83978089,5.07403888,13458,20041,35809,7470,12083,22476,1.05858509,1.71218420,3.18475918,0.18846194,0.28526106,0.49621794
11001,0,USDistrictofColumbiaDistrictofColumbia,District of Columbia,District of Columbia,2021-01-06 03:42:19.239531,2021-01-07 00:00:00.000000,1.86347911,2.85876231,5.03731240,13151,20175,35550,7329,12147,22209,1.03861108,1.72123320,3.14699261,0.18823984,0.28611855,0.49646842
11001,0,USDistrictofColumbiaDistrictofColumbia,District of Columbia,District of Columbia,2021-01-06 03:42:19.239531,2021-01-08 00:00:00.000000,1.80600154,2.83618572,5.01162776,12745,20016,35369,7219,11989,22469,1.02302440,1.69881698,3.18371180,0.18814705,0.28609213,0.49651532
11001,0,USDistrictofColumbiaDistrictofColumbia,District of Columbia,District of Columbia,2021-01-06 03:42:19.239531,2021-01-09 00:00:00.000000,1.74687433,2.80131079,5.06771815,12328,19770,35765,7123,11945,22734,1.00936048,1.69262646,3.22125990,0.18810856,0.28608894,0.49652402
11001,0,USDistrictofColumbiaDistrictofColumbia,District of Columbia,District of Columbia,2021-01-06 03:42:19.239531,2021-01-10 00:00:00.000000,1.70488174,2.78469572,5.12242572,12032,19652,36151,7030,11931,22995,0.99614032,1.69063375,3.25827820,0.18809262,0.28608840,0.49652562
11001,0,USDistrictofColumbiaDistrictofColumbia,District of Columbia,District of Columbia,2021-01-06 03:42:19.239531,2021-01-11 00:00:00.000000,1.66741775,2.77984951,5.11972943,11767,19618,36132,6939,11844,23252,0.98322812,1.67823749,3.29466635,0.18808603,0.28608829,0.49779453
11001,0,USDistrictofColumbiaDistrictofColumbia,District of Columbia,District of Columbia,2021-01-06 03:42:19.239531,2021-01-12 00:00:00.000000,1.62100108,2.80716156,5.10109471,11440,19811,36000,6733,11812,23503,0.95406911,1.67375252,3.33033700,0.18808330,0.28608826,0.49910957
11001,0,USDistrictofColumbiaDistrictofColumbia,District of Columbia,District of Columbia,2021-01-06 03:42:19.239531,2021-01-13 00:00:00.000000,1.57571530,2.81870435,5.08807033,11120,19892,35909,6603,11706,23403,0.93573404,1.65869919,3.31618391,0.18808217,0.28608826,0.49988618
11001,0,USDistrictofColumbiaDistrictofColumbia,District of Columbia,District of Columbia,2021-01-06 03:42:19.239531,2021-01-14 00:00:00.000000,1.53155026,2.77176873,5.11163157,10808,19561,36075,6411,11782,23112,0.90840040,1.66949454,3.27494692,0.18808171,0.28608826,0.50034112
11001,0,USDistrictofColumbiaDistrictofColumbia,District of Columbia,District of Columbia,2021-01-06 03:42:19.239531,2021-01-15 00:00:00.000000,1.47443460,2.76295914,5.13237519,10405,19499,36221,6234,11756,22818,0.88339215,1.66579754,3.23316943,0.18808151,0.28608826,0.50060637
11001,0,USDistrictofColumbiaDistrictofColumbia,District of Columbia,District of Columbia,2021-01-06 03:42:19.239531,2021-01-16 00:00:00.000000,1.41089335,2.77764459,5.15025205,9957,19603,36347,6102,11574,22519,0.86474306,1.64009396,3.19092571,0.18808143,0.28608826,0.50076058
11001,0,USDistrictofColumbiaDistrictofColumbia,District of Columbia,District of Columbia,2021-01-06 03:42:19.239531,2021-01-17 00:00:00.000000,1.34998433,2.77682357,5.24048601,9527,19597,36984,5962,11513,22218,0.84490637,1.63143807,3.14827934,0.18808140,0.28608826,0.50085010
