FIPS,HR_UID,nameid,province,region,analysisTime,dates,pointprevalence_025,pointprevalence_50,pointprevalence_975,pointinfections_025,pointinfections_50,pointinfections_975,pointinfectious_025,pointinfectious_50,pointinfectious_975,pointinfectiousprevalence_05,pointinfectiousprevalence_50,pointinfectiousprevalence_95,infectrate_025,infectrate_50,infectrate_975
0,0,UnitedKingdomBritishVirginIslands,British Virgin Islands,,2021-01-05 02:26:53.485864,2020-03-09 00:00:00.000000,0.00363043,0.01645220,0.04224593,1,4,12,0,2,6,0.00182429,0.00874409,0.02224647,0.36485443,0.51763437,0.75468513
0,0,UnitedKingdomBritishVirginIslands,British Virgin Islands,,2021-01-05 02:26:53.485864,2020-03-10 00:00:00.000000,0.00386377,0.01770266,0.04564296,1,5,13,0,2,6,0.00184965,0.00872707,0.02294345,0.36485422,0.51763106,0.75467581
0,0,UnitedKingdomBritishVirginIslands,British Virgin Islands,,2021-01-05 02:26:53.485864,2020-03-11 00:00:00.000000,0.00413052,0.01822583,0.04710158,1,5,14,0,2,7,0.00209113,0.00891442,0.02420136,0.36485381,0.51762475,0.75465818
0,0,UnitedKingdomBritishVirginIslands,British Virgin Islands,,2021-01-05 02:26:53.485864,2020-03-12 00:00:00.000000,0.00464203,0.01931440,0.04855584,1,5,14,0,2,7,0.00238373,0.00958597,0.02542793,0.36485301,0.51761265,0.75461263
0,0,UnitedKingdomBritishVirginIslands,British Virgin Islands,,2021-01-05 02:26:53.485864,2020-03-13 00:00:00.000000,0.00518402,0.02051007,0.04999876,1,6,15,0,3,8,0.00261254,0.01051803,0.02649773,0.36485141,0.51758930,0.75445388
0,0,UnitedKingdomBritishVirginIslands,British Virgin Islands,,2021-01-05 02:26:53.485864,2020-03-14 00:00:00.000000,0.00576203,0.02170836,0.05197095,1,6,15,0,3,8,0.00272493,0.01127378,0.02750235,0.36484821,0.51754366,0.75380030
0,0,UnitedKingdomBritishVirginIslands,British Virgin Islands,,2021-01-05 02:26:53.485864,2020-03-15 00:00:00.000000,0.00603393,0.02250123,0.05523942,1,6,16,0,3,8,0.00282880,0.01175870,0.02845533,0.36484180,0.51742437,0.75095033
0,0,UnitedKingdomBritishVirginIslands,British Virgin Islands,,2021-01-05 02:26:53.485864,2020-03-16 00:00:00.000000,0.01026077,0.02708670,0.06359131,3,8,19,0,3,8,0.00292630,0.01186791,0.02937263,0.36482874,0.51662665,0.73874967
0,0,UnitedKingdomBritishVirginIslands,British Virgin Islands,,2021-01-05 02:26:53.485864,2020-03-17 00:00:00.000000,0.01497667,0.03276750,0.07200396,4,9,21,1,4,9,0.00490920,0.01344838,0.03193809,0.35853358,0.51416333,0.71409046
0,0,UnitedKingdomBritishVirginIslands,British Virgin Islands,,2021-01-05 02:26:53.485864,2020-03-18 00:00:00.000000,0.01942968,0.03799657,0.08099799,5,11,24,2,4,10,0.00687741,0.01590515,0.03614182,0.35794646,0.49245276,0.70566520
0,0,UnitedKingdomBritishVirginIslands,British Virgin Islands,,2021-01-05 02:26:53.485864,2020-03-19 00:00:00.000000,0.02316350,0.04284678,0.09021567,7,12,27,2,5,12,0.00968577,0.01858725,0.04054560,0.33107088,0.47238274,0.67230462
0,0,UnitedKingdomBritishVirginIslands,British Virgin Islands,,2021-01-05 02:26:53.485864,2020-03-20 00:00:00.000000,0.02608027,0.04802945,0.09908653,7,14,29,3,6,13,0.01130444,0.02181898,0.04494749,0.30196932,0.44936686,0.63011194
0,0,UnitedKingdomBritishVirginIslands,British Virgin Islands,,2021-01-05 02:26:53.485864,2020-03-21 00:00:00.000000,0.02889891,0.05430748,0.10818077,8,16,32,3,7,15,0.01213369,0.02470449,0.05088859,0.27806231,0.42088918,0.59875650
0,0,UnitedKingdomBritishVirginIslands,British Virgin Islands,,2021-01-05 02:26:53.485864,2020-03-22 00:00:00.000000,0.03130699,0.06079237,0.12581068,9,18,38,3,8,17,0.01287657,0.02709524,0.05668689,0.24821252,0.39964474,0.54068576
0,0,UnitedKingdomBritishVirginIslands,British Virgin Islands,,2021-01-05 02:26:53.485864,2020-03-23 00:00:00.000000,0.03481780,0.06621773,0.13470467,10,20,40,4,9,18,0.01407281,0.02986631,0.06207897,0.24396357,0.38031494,0.53302419
0,0,UnitedKingdomBritishVirginIslands,British Virgin Islands,,2021-01-05 02:26:53.485864,2020-03-24 00:00:00.000000,0.03762296,0.07092041,0.14392435,11,21,43,5,10,20,0.01756502,0.03355276,0.06691382,0.24166621,0.36792509,0.53454992
0,0,UnitedKingdomBritishVirginIslands,British Virgin Islands,,2021-01-05 02:26:53.485864,2020-03-25 00:00:00.000000,0.03955227,0.07552841,0.15225548,11,22,46,5,11,21,0.01932246,0.03664749,0.07149475,0.23842762,0.35803717,0.53403370
0,0,UnitedKingdomBritishVirginIslands,British Virgin Islands,,2021-01-05 02:26:53.485864,2020-03-26 00:00:00.000000,0.04103914,0.08176916,0.16029266,12,24,48,6,11,22,0.02053036,0.03912773,0.07597913,0.21346129,0.33963475,0.53120200
0,0,UnitedKingdomBritishVirginIslands,British Virgin Islands,,2021-01-05 02:26:53.485864,2020-03-27 00:00:00.000000,0.04239749,0.08731840,0.16800803,12,26,50,6,12,24,0.02176669,0.04211857,0.08044327,0.19600563,0.32636518,0.50277767
0,0,UnitedKingdomBritishVirginIslands,British Virgin Islands,,2021-01-05 02:26:53.485864,2020-03-28 00:00:00.000000,0.04384526,0.09054025,0.17429976,13,27,52,6,13,25,0.02301691,0.04531285,0.08491210,0.19382297,0.31675272,0.49934413
0,0,UnitedKingdomBritishVirginIslands,British Virgin Islands,,2021-01-05 02:26:53.485864,2020-03-29 00:00:00.000000,0.04550322,0.09497199,0.18568241,13,28,56,7,14,27,0.02427335,0.04785621,0.09043120,0.19203713,0.30928941,0.48659498
0,0,UnitedKingdomBritishVirginIslands,British Virgin Islands,,2021-01-05 02:26:53.485864,2020-03-30 00:00:00.000000,0.05021228,0.09899436,0.19331978,15,29,58,7,15,29,0.02533567,0.05138510,0.09626794,0.17859120,0.29315263,0.46443467
0,0,UnitedKingdomBritishVirginIslands,British Virgin Islands,,2021-01-05 02:26:53.485864,2020-03-31 00:00:00.000000,0.05227712,0.10158638,0.19930906,15,30,60,7,16,30,0.02579890,0.05352995,0.09958930,0.17313285,0.28168439,0.46142667
0,0,UnitedKingdomBritishVirginIslands,British Virgin Islands,,2021-01-05 02:26:53.485864,2020-04-01 00:00:00.000000,0.05455657,0.10280689,0.19529234,16,31,59,7,16,30,0.02623740,0.05461245,0.10085214,0.17251544,0.27346161,0.45775831
0,0,UnitedKingdomBritishVirginIslands,British Virgin Islands,,2021-01-05 02:26:53.485864,2020-04-02 00:00:00.000000,0.05716775,0.10305402,0.19101537,17,31,57,8,16,31,0.02659984,0.05457178,0.10266438,0.17175493,0.25903706,0.45167801
0,0,UnitedKingdomBritishVirginIslands,British Virgin Islands,,2021-01-05 02:26:53.485864,2020-04-03 00:00:00.000000,0.05785477,0.10261748,0.18653202,17,31,56,8,16,31,0.02847685,0.05543338,0.10539439,0.17127379,0.24945112,0.41744460
0,0,UnitedKingdomBritishVirginIslands,British Virgin Islands,,2021-01-05 02:26:53.485864,2020-04-04 00:00:00.000000,0.05589719,0.10357971,0.18188523,16,31,54,9,16,32,0.03007044,0.05568575,0.10631181,0.16964166,0.23418831,0.39455003
0,0,UnitedKingdomBritishVirginIslands,British Virgin Islands,,2021-01-05 02:26:53.485864,2020-04-05 00:00:00.000000,0.05644741,0.10407373,0.17712208,17,31,53,8,16,32,0.02864984,0.05553721,0.10652063,0.16642841,0.22302247,0.38625079
0,0,UnitedKingdomBritishVirginIslands,British Virgin Islands,,2021-01-05 02:26:53.485864,2020-04-06 00:00:00.000000,0.05710454,0.10225386,0.18050057,17,30,54,8,16,31,0.02730926,0.05467406,0.10581055,0.16168298,0.21547621,0.38564728
0,0,UnitedKingdomBritishVirginIslands,British Virgin Islands,,2021-01-05 02:26:53.485864,2020-04-07 00:00:00.000000,0.05921185,0.10150988,0.19108547,17,30,57,8,16,31,0.02815831,0.05426092,0.10532806,0.15394915,0.21561307,0.38253939
0,0,UnitedKingdomBritishVirginIslands,British Virgin Islands,,2021-01-05 02:26:53.485864,2020-04-08 00:00:00.000000,0.06294678,0.10276352,0.19905857,19,31,60,8,16,31,0.02960194,0.05355897,0.10476394,0.15008663,0.21425463,0.37637156
0,0,UnitedKingdomBritishVirginIslands,British Virgin Islands,,2021-01-05 02:26:53.485864,2020-04-09 00:00:00.000000,0.06402553,0.10093877,0.19614563,19,30,59,9,16,31,0.03143190,0.05364158,0.10411432,0.14059434,0.20710898,0.36803788
0,0,UnitedKingdomBritishVirginIslands,British Virgin Islands,,2021-01-05 02:26:53.485864,2020-04-10 00:00:00.000000,0.06368808,0.09957583,0.19320031,19,30,58,10,16,31,0.03334187,0.05320510,0.10308889,0.13711139,0.20016258,0.36762065
0,0,UnitedKingdomBritishVirginIslands,British Virgin Islands,,2021-01-05 02:26:53.485864,2020-04-11 00:00:00.000000,0.06127340,0.09940755,0.19021986,18,30,57,10,16,30,0.03382884,0.05338819,0.10155357,0.13219113,0.19880806,0.36764609
0,0,UnitedKingdomBritishVirginIslands,British Virgin Islands,,2021-01-05 02:26:53.485864,2020-04-12 00:00:00.000000,0.05992022,0.09815910,0.18792598,18,29,56,10,16,30,0.03359187,0.05293374,0.10207137,0.13135433,0.19347041,0.36742129
0,0,UnitedKingdomBritishVirginIslands,British Virgin Islands,,2021-01-05 02:26:53.485864,2020-04-13 00:00:00.000000,0.06108993,0.09776529,0.18568300,18,29,56,10,15,31,0.03374820,0.05174703,0.10433704,0.13106951,0.19206680,0.35820375
0,0,UnitedKingdomBritishVirginIslands,British Virgin Islands,,2021-01-05 02:26:53.485864,2020-04-14 00:00:00.000000,0.06171611,0.09842536,0.18390324,18,29,55,10,15,31,0.03350146,0.05280976,0.10317327,0.12359882,0.19348765,0.35929968
0,0,UnitedKingdomBritishVirginIslands,British Virgin Islands,,2021-01-05 02:26:53.485864,2020-04-15 00:00:00.000000,0.06235903,0.09709952,0.18192607,18,29,55,10,15,30,0.03549846,0.05247648,0.10212197,0.12340476,0.19200883,0.36063145
0,0,UnitedKingdomBritishVirginIslands,British Virgin Islands,,2021-01-05 02:26:53.485864,2020-04-16 00:00:00.000000,0.06271593,0.09594946,0.17976454,18,29,54,10,15,30,0.03611588,0.05228165,0.10105519,0.11856000,0.19081177,0.35640757
0,0,UnitedKingdomBritishVirginIslands,British Virgin Islands,,2021-01-05 02:26:53.485864,2020-04-17 00:00:00.000000,0.06177686,0.09380684,0.17745211,18,28,53,10,15,30,0.03508236,0.05285879,0.09992171,0.11256140,0.18719151,0.35481520
0,0,UnitedKingdomBritishVirginIslands,British Virgin Islands,,2021-01-05 02:26:53.485864,2020-04-18 00:00:00.000000,0.06096626,0.09498217,0.17504183,18,28,52,10,16,29,0.03386919,0.05293213,0.09871098,0.11188858,0.18647395,0.35443388
0,0,UnitedKingdomBritishVirginIslands,British Virgin Islands,,2021-01-05 02:26:53.485864,2020-04-19 00:00:00.000000,0.05950813,0.09443461,0.17456177,17,28,52,9,16,29,0.03270416,0.05329238,0.09743525,0.10977975,0.18583914,0.35260149
0,0,UnitedKingdomBritishVirginIslands,British Virgin Islands,,2021-01-05 02:26:53.485864,2020-04-20 00:00:00.000000,0.05858885,0.09382117,0.17038144,17,28,51,9,15,29,0.03153562,0.05204396,0.09612624,0.10942481,0.18098040,0.35181267
0,0,UnitedKingdomBritishVirginIslands,British Virgin Islands,,2021-01-05 02:26:53.485864,2020-04-21 00:00:00.000000,0.05805588,0.09394693,0.16854394,17,28,50,9,15,28,0.03191590,0.05100939,0.09485475,0.10783395,0.17499616,0.35283815
0,0,UnitedKingdomBritishVirginIslands,British Virgin Islands,,2021-01-05 02:26:53.485864,2020-04-22 00:00:00.000000,0.05733827,0.09535471,0.16759744,17,28,50,9,15,28,0.03066699,0.05026625,0.09485849,0.10746789,0.17771717,0.35516988
0,0,UnitedKingdomBritishVirginIslands,British Virgin Islands,,2021-01-05 02:26:53.485864,2020-04-23 00:00:00.000000,0.05461062,0.09283416,0.16545802,16,28,50,8,14,28,0.02879704,0.04939237,0.09465444,0.10748132,0.17188261,0.36074648
0,0,UnitedKingdomBritishVirginIslands,British Virgin Islands,,2021-01-05 02:26:53.485864,2020-04-24 00:00:00.000000,0.05167638,0.09326744,0.16265335,15,28,49,8,15,28,0.02696054,0.04995971,0.09369694,0.10759263,0.16385765,0.36669903
0,0,UnitedKingdomBritishVirginIslands,British Virgin Islands,,2021-01-05 02:26:53.485864,2020-04-25 00:00:00.000000,0.04892515,0.09085591,0.16051344,14,27,48,7,14,27,0.02523110,0.04911767,0.09225377,0.10770371,0.16218715,0.35422928
0,0,UnitedKingdomBritishVirginIslands,British Virgin Islands,,2021-01-05 02:26:53.485864,2020-04-26 00:00:00.000000,0.04641505,0.08915687,0.15884301,14,26,48,7,14,27,0.02365160,0.04771612,0.09058600,0.10691175,0.16117947,0.35726609
0,0,UnitedKingdomBritishVirginIslands,British Virgin Islands,,2021-01-05 02:26:53.485864,2020-04-27 00:00:00.000000,0.04452609,0.08762757,0.15940513,13,26,48,6,14,27,0.02224988,0.04716097,0.08962355,0.10398107,0.16034106,0.36006507
0,0,UnitedKingdomBritishVirginIslands,British Virgin Islands,,2021-01-05 02:26:53.485864,2020-04-28 00:00:00.000000,0.04760625,0.08484694,0.15798155,14,25,47,6,14,26,0.02255993,0.04670665,0.08842740,0.10217812,0.15849444,0.35474662
0,0,UnitedKingdomBritishVirginIslands,British Virgin Islands,,2021-01-05 02:26:53.485864,2020-04-29 00:00:00.000000,0.05311487,0.08214474,0.15765808,16,24,47,7,14,26,0.02442528,0.04635868,0.08850459,0.10207341,0.15647333,0.34310083
0,0,UnitedKingdomBritishVirginIslands,British Virgin Islands,,2021-01-05 02:26:53.485864,2020-04-30 00:00:00.000000,0.04978325,0.08231655,0.16045834,15,24,48,8,13,26,0.02822704,0.04543279,0.08879725,0.10159654,0.15423075,0.33645984
0,0,UnitedKingdomBritishVirginIslands,British Virgin Islands,,2021-01-05 02:26:53.485864,2020-05-01 00:00:00.000000,0.04784905,0.08265969,0.15910857,14,24,48,8,13,26,0.02726551,0.04531781,0.08913060,0.09962183,0.15388949,0.33409257
0,0,UnitedKingdomBritishVirginIslands,British Virgin Islands,,2021-01-05 02:26:53.485864,2020-05-02 00:00:00.000000,0.04834100,0.08069666,0.15861976,14,24,47,7,13,27,0.02616775,0.04563130,0.09099726,0.09769286,0.15417999,0.34892606
0,0,UnitedKingdomBritishVirginIslands,British Virgin Islands,,2021-01-05 02:26:53.485864,2020-05-03 00:00:00.000000,0.04694822,0.08101826,0.15715002,14,24,47,7,13,27,0.02511390,0.04509896,0.08957785,0.09586511,0.15316760,0.36831865
0,0,UnitedKingdomBritishVirginIslands,British Virgin Islands,,2021-01-05 02:26:53.485864,2020-05-04 00:00:00.000000,0.04420520,0.08002255,0.15395425,13,24,46,7,13,26,0.02413133,0.04455482,0.08885801,0.09440401,0.15499109,0.36933275
0,0,UnitedKingdomBritishVirginIslands,British Virgin Islands,,2021-01-05 02:26:53.485864,2020-05-05 00:00:00.000000,0.04187034,0.07936362,0.15192721,12,23,45,7,13,26,0.02372099,0.04471036,0.08676151,0.09417918,0.15601059,0.36943771
0,0,UnitedKingdomBritishVirginIslands,British Virgin Islands,,2021-01-05 02:26:53.485864,2020-05-06 00:00:00.000000,0.04183744,0.07872308,0.14932152,12,23,45,6,13,25,0.02271106,0.04418393,0.08469645,0.09053586,0.15561329,0.36949156
0,0,UnitedKingdomBritishVirginIslands,British Virgin Islands,,2021-01-05 02:26:53.485864,2020-05-07 00:00:00.000000,0.04115527,0.07811916,0.14674150,12,23,44,6,13,25,0.02303755,0.04383181,0.08333503,0.08849665,0.14999827,0.36951102
0,0,UnitedKingdomBritishVirginIslands,British Virgin Islands,,2021-01-05 02:26:53.485864,2020-05-08 00:00:00.000000,0.04243107,0.07760563,0.14420006,12,23,43,6,13,24,0.02176983,0.04374795,0.08194002,0.08773156,0.15126637,0.36950861
0,0,UnitedKingdomBritishVirginIslands,British Virgin Islands,,2021-01-05 02:26:53.485864,2020-05-09 00:00:00.000000,0.04352977,0.07855412,0.14169296,13,23,42,6,13,24,0.02147990,0.04309559,0.08054282,0.08558814,0.14995449,0.36950291
0,0,UnitedKingdomBritishVirginIslands,British Virgin Islands,,2021-01-05 02:26:53.485864,2020-05-10 00:00:00.000000,0.04348555,0.07770227,0.13921221,13,23,42,6,12,23,0.02208087,0.04236552,0.07915552,0.08405738,0.14902387,0.36946744
0,0,UnitedKingdomBritishVirginIslands,British Virgin Islands,,2021-01-05 02:26:53.485864,2020-05-11 00:00:00.000000,0.03940348,0.07207029,0.13009734,11,21,39,6,12,23,0.02258386,0.04257872,0.07778093,0.08325075,0.14862884,0.36888996
0,0,UnitedKingdomBritishVirginIslands,British Virgin Islands,,2021-01-05 02:26:53.485864,2020-05-12 00:00:00.000000,0.03544792,0.06657923,0.12086462,10,20,36,6,12,22,0.02135816,0.03991418,0.07450859,0.08285740,0.14808878,0.36075087
0,0,UnitedKingdomBritishVirginIslands,British Virgin Islands,,2021-01-05 02:26:53.485864,2020-05-13 00:00:00.000000,0.03152327,0.06137534,0.11135622,9,18,33,5,11,21,0.01939082,0.03764506,0.07019782,0.08267114,0.14655259,0.33667134
0,0,UnitedKingdomBritishVirginIslands,British Virgin Islands,,2021-01-05 02:26:53.485864,2020-05-14 00:00:00.000000,0.02786896,0.05545735,0.10201440,8,16,30,5,10,19,0.01720360,0.03451943,0.06535780,0.08271700,0.15000696,0.33413944
0,0,UnitedKingdomBritishVirginIslands,British Virgin Islands,,2021-01-05 02:26:53.485864,2020-05-15 00:00:00.000000,0.02426797,0.05139001,0.09341843,7,15,28,4,9,18,0.01506484,0.03163812,0.06033885,0.08309815,0.14687038,0.33396643
0,0,UnitedKingdomBritishVirginIslands,British Virgin Islands,,2021-01-05 02:26:53.485864,2020-05-16 00:00:00.000000,0.02131295,0.04731257,0.08550930,6,14,25,3,8,16,0.01310741,0.02946130,0.05537470,0.08423068,0.14702073,0.33359484
0,0,UnitedKingdomBritishVirginIslands,British Virgin Islands,,2021-01-05 02:26:53.485864,2020-05-17 00:00:00.000000,0.01891609,0.04333328,0.07871539,5,13,23,3,8,15,0.01152789,0.02735977,0.05060639,0.08338081,0.14961486,0.33186974
0,0,UnitedKingdomBritishVirginIslands,British Virgin Islands,,2021-01-05 02:26:53.485864,2020-05-18 00:00:00.000000,0.01651097,0.03950785,0.07461051,4,11,22,3,7,13,0.01004328,0.02472223,0.04611170,0.07934674,0.14965339,0.32918715
0,0,UnitedKingdomBritishVirginIslands,British Virgin Islands,,2021-01-05 02:26:53.485864,2020-05-19 00:00:00.000000,0.01436263,0.03599820,0.07021566,4,10,21,2,6,12,0.00856056,0.02266469,0.04192809,0.07364572,0.14687133,0.31575580
0,0,UnitedKingdomBritishVirginIslands,British Virgin Islands,,2021-01-05 02:26:53.485864,2020-05-20 00:00:00.000000,0.01247039,0.03237362,0.06566579,3,9,19,2,6,11,0.00742764,0.02079913,0.03806844,0.07349360,0.14721652,0.30892941
0,0,UnitedKingdomBritishVirginIslands,British Virgin Islands,,2021-01-05 02:26:53.485864,2020-05-21 00:00:00.000000,0.01082654,0.02930120,0.06118576,3,8,18,1,5,10,0.00645120,0.01892504,0.03544851,0.07346297,0.14672092,0.32125644
0,0,UnitedKingdomBritishVirginIslands,British Virgin Islands,,2021-01-05 02:26:53.485864,2020-05-22 00:00:00.000000,0.00941792,0.02678251,0.05689119,2,8,17,1,5,9,0.00560559,0.01695952,0.03306148,0.07346507,0.14592108,0.33893780
0,0,UnitedKingdomBritishVirginIslands,British Virgin Islands,,2021-01-05 02:26:53.485864,2020-05-23 00:00:00.000000,0.00822640,0.02484776,0.05283963,2,7,15,1,4,9,0.00487215,0.01532756,0.03083267,0.07447226,0.14854071,0.34432459
0,0,UnitedKingdomBritishVirginIslands,British Virgin Islands,,2021-01-05 02:26:53.485864,2020-05-24 00:00:00.000000,0.00722581,0.02254019,0.04905153,2,6,14,1,4,8,0.00423546,0.01409415,0.02876049,0.07760315,0.15107525,0.34833304
0,0,UnitedKingdomBritishVirginIslands,British Virgin Islands,,2021-01-05 02:26:53.485864,2020-05-25 00:00:00.000000,0.00638291,0.02088045,0.04552524,1,6,13,1,3,8,0.00368291,0.01294382,0.02684272,0.08614976,0.15154947,0.34841381
0,0,UnitedKingdomBritishVirginIslands,British Virgin Islands,,2021-01-05 02:26:53.485864,2020-05-26 00:00:00.000000,0.00566453,0.01933104,0.04224937,1,5,12,0,3,7,0.00320449,0.01185916,0.02507105,0.09404653,0.15252326,0.34841824
0,0,UnitedKingdomBritishVirginIslands,British Virgin Islands,,2021-01-05 02:26:53.485864,2020-05-27 00:00:00.000000,0.00499108,0.01740823,0.03919891,1,5,11,0,3,7,0.00279002,0.01081868,0.02343083,0.09889217,0.15523002,0.35907473
0,0,UnitedKingdomBritishVirginIslands,British Virgin Islands,,2021-01-05 02:26:53.485864,2020-05-28 00:00:00.000000,0.00437124,0.01558789,0.03636781,1,4,10,0,3,6,0.00243024,0.00996194,0.02189725,0.09767950,0.16045402,0.36317031
0,0,UnitedKingdomBritishVirginIslands,British Virgin Islands,,2021-01-05 02:26:53.485864,2020-05-29 00:00:00.000000,0.00383419,0.01418937,0.03375273,1,4,10,0,2,6,0.00211757,0.00894352,0.02046630,0.09695641,0.16370167,0.36865909
0,0,UnitedKingdomBritishVirginIslands,British Virgin Islands,,2021-01-05 02:26:53.485864,2020-05-30 00:00:00.000000,0.00337768,0.01292436,0.03134957,1,3,9,0,2,5,0.00184587,0.00806665,0.01912530,0.09678254,0.16577782,0.35790307
0,0,UnitedKingdomBritishVirginIslands,British Virgin Islands,,2021-01-05 02:26:53.485864,2020-05-31 00:00:00.000000,0.00300082,0.01180756,0.02915462,0,3,8,0,2,5,0.00161360,0.00731768,0.01786189,0.09682431,0.16677420,0.35582484
0,0,UnitedKingdomBritishVirginIslands,British Virgin Islands,,2021-01-05 02:26:53.485864,2020-06-01 00:00:00.000000,0.00268749,0.01092433,0.02723582,0,3,8,0,2,5,0.00143116,0.00670859,0.01667142,0.09676324,0.16711222,0.35964536
0,0,UnitedKingdomBritishVirginIslands,British Virgin Islands,,2021-01-05 02:26:53.485864,2020-06-02 00:00:00.000000,0.00241913,0.01022690,0.02579928,0,3,7,0,1,4,0.00128018,0.00627457,0.01555340,0.09658168,0.16678689,0.36159562
0,0,UnitedKingdomBritishVirginIslands,British Virgin Islands,,2021-01-05 02:26:53.485864,2020-06-03 00:00:00.000000,0.00218448,0.00958055,0.02439070,0,2,7,0,1,4,0.00115197,0.00572477,0.01450672,0.09668433,0.17419939,0.36238526
0,0,UnitedKingdomBritishVirginIslands,British Virgin Islands,,2021-01-05 02:26:53.485864,2020-06-04 00:00:00.000000,0.00197650,0.00876109,0.02301747,0,2,6,0,1,4,0.00104018,0.00527800,0.01352897,0.09781654,0.17904512,0.37809224
0,0,UnitedKingdomBritishVirginIslands,British Virgin Islands,,2021-01-05 02:26:53.485864,2020-06-05 00:00:00.000000,0.00176097,0.00829488,0.02178126,0,2,6,0,1,3,0.00094111,0.00485204,0.01266541,0.09822692,0.18210303,0.41258241
0,0,UnitedKingdomBritishVirginIslands,British Virgin Islands,,2021-01-05 02:26:53.485864,2020-06-06 00:00:00.000000,0.00154838,0.00781737,0.02101045,0,2,6,0,1,3,0.00085265,0.00443978,0.01208555,0.09506024,0.18349064,0.42554174
0,0,UnitedKingdomBritishVirginIslands,British Virgin Islands,,2021-01-05 02:26:53.485864,2020-06-07 00:00:00.000000,0.00136216,0.00718731,0.01967115,0,2,5,0,1,3,0.00077352,0.00411066,0.01157137,0.09938819,0.18269288,0.42955996
0,0,UnitedKingdomBritishVirginIslands,British Virgin Islands,,2021-01-05 02:26:53.485864,2020-06-08 00:00:00.000000,0.00119940,0.00673160,0.01843310,0,2,5,0,1,3,0.00070270,0.00391262,0.01111918,0.09396189,0.18406472,0.42945394
0,0,UnitedKingdomBritishVirginIslands,British Virgin Islands,,2021-01-05 02:26:53.485864,2020-06-09 00:00:00.000000,0.00105758,0.00639633,0.01739087,0,1,5,0,1,3,0.00063924,0.00371235,0.01071491,0.09108258,0.18767510,0.43271444
0,0,UnitedKingdomBritishVirginIslands,British Virgin Islands,,2021-01-05 02:26:53.485864,2020-06-10 00:00:00.000000,0.00093418,0.00600453,0.01729593,0,1,5,0,1,3,0.00058226,0.00344814,0.01006927,0.09283987,0.19032987,0.44046955
0,0,UnitedKingdomBritishVirginIslands,British Virgin Islands,,2021-01-05 02:26:53.485864,2020-06-11 00:00:00.000000,0.00082657,0.00559988,0.01675381,0,1,5,0,0,2,0.00053106,0.00323725,0.00948601,0.10253679,0.19419387,0.43980948
0,0,UnitedKingdomBritishVirginIslands,British Virgin Islands,,2021-01-05 02:26:53.485864,2020-06-12 00:00:00.000000,0.00073984,0.00515711,0.01570653,0,1,4,0,0,2,0.00047795,0.00305889,0.00944982,0.10579312,0.19397149,0.43825587
0,0,UnitedKingdomBritishVirginIslands,British Virgin Islands,,2021-01-05 02:26:53.485864,2020-06-13 00:00:00.000000,0.00068122,0.00475492,0.01469317,0,1,4,0,0,2,0.00042349,0.00285177,0.00929990,0.10631097,0.19748178,0.43557212
0,0,UnitedKingdomBritishVirginIslands,British Virgin Islands,,2021-01-05 02:26:53.485864,2020-06-14 00:00:00.000000,0.00064421,0.00438804,0.01373759,0,1,4,0,0,2,0.00037573,0.00265820,0.00870836,0.10595221,0.19900039,0.43114273
0,0,UnitedKingdomBritishVirginIslands,British Virgin Islands,,2021-01-05 02:26:53.485864,2020-06-15 00:00:00.000000,0.00061525,0.00405231,0.01324415,0,1,4,0,0,2,0.00035242,0.00251568,0.00827167,0.10659471,0.20227170,0.42330581
0,0,UnitedKingdomBritishVirginIslands,British Virgin Islands,,2021-01-05 02:26:53.485864,2020-06-16 00:00:00.000000,0.00058949,0.00376209,0.01295667,0,1,3,0,0,2,0.00033501,0.00234726,0.00800517,0.10667503,0.20302496,0.42142067
0,0,UnitedKingdomBritishVirginIslands,British Virgin Islands,,2021-01-05 02:26:53.485864,2020-06-17 00:00:00.000000,0.00056597,0.00358631,0.01270455,0,1,3,0,0,2,0.00031977,0.00219317,0.00775153,0.10706695,0.20385677,0.41943222
0,0,UnitedKingdomBritishVirginIslands,British Virgin Islands,,2021-01-05 02:26:53.485864,2020-06-18 00:00:00.000000,0.00054456,0.00338561,0.01250251,0,1,3,0,0,2,0.00029577,0.00205380,0.00751290,0.10867270,0.20639811,0.44758139
0,0,UnitedKingdomBritishVirginIslands,British Virgin Islands,,2021-01-05 02:26:53.485864,2020-06-19 00:00:00.000000,0.00052800,0.00313607,0.01252682,0,0,3,0,0,2,0.00027346,0.00188896,0.00729231,0.11847125,0.20853547,0.47767719
0,0,UnitedKingdomBritishVirginIslands,British Virgin Islands,,2021-01-05 02:26:53.485864,2020-06-20 00:00:00.000000,0.00049179,0.00290100,0.01266855,0,0,3,0,0,2,0.00025941,0.00174068,0.00702222,0.12455221,0.21097303,0.49859105
0,0,UnitedKingdomBritishVirginIslands,British Virgin Islands,,2021-01-05 02:26:53.485864,2020-06-21 00:00:00.000000,0.00049029,0.00267020,0.01284487,0,0,3,0,0,2,0.00025293,0.00162003,0.00675367,0.12778490,0.21179366,0.51054893
0,0,UnitedKingdomBritishVirginIslands,British Virgin Islands,,2021-01-05 02:26:53.485864,2020-06-22 00:00:00.000000,0.00048588,0.00241136,0.01275267,0,0,3,0,0,1,0.00025063,0.00148422,0.00651202,0.12905121,0.21976461,0.51701249
0,0,UnitedKingdomBritishVirginIslands,British Virgin Islands,,2021-01-05 02:26:53.485864,2020-06-23 00:00:00.000000,0.00044940,0.00226302,0.01249143,0,0,3,0,0,1,0.00025074,0.00135196,0.00631286,0.12922742,0.23043555,0.52037371
0,0,UnitedKingdomBritishVirginIslands,British Virgin Islands,,2021-01-05 02:26:53.485864,2020-06-24 00:00:00.000000,0.00041207,0.00213013,0.01223912,0,0,3,0,0,1,0.00025033,0.00123188,0.00640632,0.13053573,0.23873388,0.52209328
0,0,UnitedKingdomBritishVirginIslands,British Virgin Islands,,2021-01-05 02:26:53.485864,2020-06-25 00:00:00.000000,0.00037088,0.00202387,0.01199577,0,0,3,0,0,1,0.00022724,0.00114915,0.00631893,0.13301939,0.23982023,0.52335079
0,0,UnitedKingdomBritishVirginIslands,British Virgin Islands,,2021-01-05 02:26:53.485864,2020-06-26 00:00:00.000000,0.00033121,0.00195778,0.01177080,0,0,3,0,0,1,0.00020295,0.00106018,0.00619133,0.13436871,0.24661932,0.52617062
0,0,UnitedKingdomBritishVirginIslands,British Virgin Islands,,2021-01-05 02:26:53.485864,2020-06-27 00:00:00.000000,0.00029576,0.00185443,0.01200775,0,0,3,0,0,1,0.00018124,0.00100569,0.00607117,0.13671187,0.24963168,0.53145113
0,0,UnitedKingdomBritishVirginIslands,British Virgin Islands,,2021-01-05 02:26:53.485864,2020-06-28 00:00:00.000000,0.00026413,0.00170375,0.01256170,0,0,3,0,0,1,0.00016184,0.00100893,0.00597133,0.14132734,0.25438183,0.53442696
0,0,UnitedKingdomBritishVirginIslands,British Virgin Islands,,2021-01-05 02:26:53.485864,2020-06-29 00:00:00.000000,0.00023604,0.00159636,0.01314072,0,0,3,0,0,1,0.00014452,0.00099009,0.00595689,0.14353469,0.25769339,0.53513295
0,0,UnitedKingdomBritishVirginIslands,British Virgin Islands,,2021-01-05 02:26:53.485864,2020-06-30 00:00:00.000000,0.00021150,0.00153664,0.01373905,0,0,4,0,0,1,0.00012910,0.00094486,0.00598496,0.14853480,0.26233229,0.53525040
0,0,UnitedKingdomBritishVirginIslands,British Virgin Islands,,2021-01-05 02:26:53.485864,2020-07-01 00:00:00.000000,0.00019072,0.00144758,0.01408125,0,0,4,0,0,1,0.00011555,0.00088255,0.00614928,0.15103429,0.26516613,0.57281982
0,0,UnitedKingdomBritishVirginIslands,British Virgin Islands,,2021-01-05 02:26:53.485864,2020-07-02 00:00:00.000000,0.00017297,0.00138835,0.01414010,0,0,4,0,0,1,0.00010390,0.00082481,0.00642441,0.14993464,0.27280010,0.57078422
0,0,UnitedKingdomBritishVirginIslands,British Virgin Islands,,2021-01-05 02:26:53.485864,2020-07-03 00:00:00.000000,0.00015738,0.00134158,0.01417739,0,0,4,0,0,2,0.00009396,0.00078451,0.00670391,0.15098207,0.28421900,0.59111309
0,0,UnitedKingdomBritishVirginIslands,British Virgin Islands,,2021-01-05 02:26:53.485864,2020-07-04 00:00:00.000000,0.00014348,0.00129454,0.01418522,0,0,4,0,0,2,0.00008533,0.00075843,0.00684607,0.15399236,0.28642708,0.66932258
0,0,UnitedKingdomBritishVirginIslands,British Virgin Islands,,2021-01-05 02:26:53.485864,2020-07-05 00:00:00.000000,0.00013097,0.00124350,0.01415703,0,0,4,0,0,2,0.00007771,0.00075012,0.00685083,0.15611971,0.28632074,0.69242288
0,0,UnitedKingdomBritishVirginIslands,British Virgin Islands,,2021-01-05 02:26:53.485864,2020-07-06 00:00:00.000000,0.00011966,0.00120813,0.01409056,0,0,4,0,0,2,0.00007089,0.00073553,0.00683831,0.16125495,0.29134637,0.69423227
0,0,UnitedKingdomBritishVirginIslands,British Virgin Islands,,2021-01-05 02:26:53.485864,2020-07-07 00:00:00.000000,0.00011031,0.00118921,0.01399006,0,0,4,0,0,2,0.00006474,0.00072061,0.00680709,0.16866500,0.29789683,0.69552960
0,0,UnitedKingdomBritishVirginIslands,British Virgin Islands,,2021-01-05 02:26:53.485864,2020-07-08 00:00:00.000000,0.00010406,0.00118059,0.01386635,0,0,4,0,0,2,0.00005917,0.00070783,0.00675887,0.16994964,0.30728737,0.69697206
0,0,UnitedKingdomBritishVirginIslands,British Virgin Islands,,2021-01-05 02:26:53.485864,2020-07-09 00:00:00.000000,0.00009872,0.00114343,0.01373571,0,0,4,0,0,2,0.00005414,0.00069663,0.00669867,0.17079015,0.31117737,0.69868542
0,0,UnitedKingdomBritishVirginIslands,British Virgin Islands,,2021-01-05 02:26:53.485864,2020-07-10 00:00:00.000000,0.00009412,0.00113407,0.01361840,0,0,4,0,0,2,0.00004960,0.00067567,0.00666259,0.17171148,0.31508115,0.70080504
0,0,UnitedKingdomBritishVirginIslands,British Virgin Islands,,2021-01-05 02:26:53.485864,2020-07-11 00:00:00.000000,0.00009008,0.00111978,0.01384419,0,0,4,0,0,2,0.00004557,0.00064793,0.00679854,0.17423511,0.32180107,0.72318605
0,0,UnitedKingdomBritishVirginIslands,British Virgin Islands,,2021-01-05 02:26:53.485864,2020-07-12 00:00:00.000000,0.00008649,0.00110445,0.01413125,0,0,4,0,0,2,0.00004259,0.00062938,0.00693912,0.17726327,0.32908497,0.73446030
0,0,UnitedKingdomBritishVirginIslands,British Virgin Islands,,2021-01-05 02:26:53.485864,2020-07-13 00:00:00.000000,0.00008324,0.00108188,0.01440934,0,0,4,0,0,2,0.00004088,0.00062417,0.00708279,0.20836484,0.33414839,0.75316627
0,0,UnitedKingdomBritishVirginIslands,British Virgin Islands,,2021-01-05 02:26:53.485864,2020-07-14 00:00:00.000000,0.00008025,0.00106241,0.01468619,0,0,4,0,0,2,0.00003933,0.00062027,0.00722881,0.20852892,0.34279700,0.77732219
0,0,UnitedKingdomBritishVirginIslands,British Virgin Islands,,2021-01-05 02:26:53.485864,2020-07-15 00:00:00.000000,0.00007747,0.00103072,0.01496055,0,0,4,0,0,2,0.00003791,0.00061453,0.00737655,0.21218610,0.34722382,0.76573825
0,0,UnitedKingdomBritishVirginIslands,British Virgin Islands,,2021-01-05 02:26:53.485864,2020-07-16 00:00:00.000000,0.00007488,0.00100338,0.01521889,0,0,4,0,0,2,0.00003659,0.00060806,0.00752462,0.22026481,0.35017114,0.75090511
0,0,UnitedKingdomBritishVirginIslands,British Virgin Islands,,2021-01-05 02:26:53.485864,2020-07-17 00:00:00.000000,0.00007252,0.00098237,0.01543973,0,0,4,0,0,2,0.00003536,0.00060863,0.00766915,0.22192420,0.35044246,0.77681108
0,0,UnitedKingdomBritishVirginIslands,British Virgin Islands,,2021-01-05 02:26:53.485864,2020-07-18 00:00:00.000000,0.00007060,0.00097397,0.01561111,0,0,4,0,0,2,0.00003423,0.00060209,0.00780166,0.22353653,0.36129671,0.78670782
0,0,UnitedKingdomBritishVirginIslands,British Virgin Islands,,2021-01-05 02:26:53.485864,2020-07-19 00:00:00.000000,0.00006944,0.00096965,0.01574521,0,0,4,0,0,2,0.00003328,0.00058811,0.00791033,0.22386725,0.37498591,0.78585050
0,0,UnitedKingdomBritishVirginIslands,British Virgin Islands,,2021-01-05 02:26:53.485864,2020-07-20 00:00:00.000000,0.00233033,0.00560070,0.02029349,0,1,6,0,0,2,0.00003267,0.00057706,0.00799167,0.22058425,0.37658371,0.78552532
0,0,UnitedKingdomBritishVirginIslands,British Virgin Islands,,2021-01-05 02:26:53.485864,2020-07-21 00:00:00.000000,0.00414694,0.00964976,0.02759577,1,2,8,0,0,2,0.00094160,0.00221988,0.00930964,0.21605948,0.37699564,0.78539662
0,0,UnitedKingdomBritishVirginIslands,British Virgin Islands,,2021-01-05 02:26:53.485864,2020-07-22 00:00:00.000000,0.00620907,0.01386063,0.03307640,1,4,10,0,1,3,0.00189941,0.00398412,0.01233317,0.22140863,0.39170662,0.78531225
0,0,UnitedKingdomBritishVirginIslands,British Virgin Islands,,2021-01-05 02:26:53.485864,2020-07-23 00:00:00.000000,0.00823369,0.01814660,0.04275219,2,5,12,0,1,4,0.00292099,0.00631445,0.01571006,0.23122401,0.39415831,0.78539856
0,0,UnitedKingdomBritishVirginIslands,British Virgin Islands,,2021-01-05 02:26:53.485864,2020-07-24 00:00:00.000000,0.00988734,0.02249371,0.05384869,2,6,16,1,2,6,0.00403868,0.00881067,0.02003733,0.23216558,0.40499880,0.78644127
0,0,UnitedKingdomBritishVirginIslands,British Virgin Islands,,2021-01-05 02:26:53.485864,2020-07-25 00:00:00.000000,0.01187510,0.02732967,0.06497914,3,8,19,1,3,7,0.00520456,0.01142385,0.02604933,0.23219578,0.42127721,0.79935793
0,0,UnitedKingdomBritishVirginIslands,British Virgin Islands,,2021-01-05 02:26:53.485864,2020-07-26 00:00:00.000000,0.01394563,0.03272184,0.07608082,4,9,23,1,4,9,0.00632618,0.01413815,0.03212354,0.23265506,0.45797172,0.81752850
0,0,UnitedKingdomBritishVirginIslands,British Virgin Islands,,2021-01-05 02:26:53.485864,2020-07-27 00:00:00.000000,0.01987667,0.03894584,0.08966834,6,11,27,2,5,11,0.00717273,0.01695337,0.03820844,0.23330740,0.47673085,0.84258993
0,0,UnitedKingdomBritishVirginIslands,British Virgin Islands,,2021-01-05 02:26:53.485864,2020-07-28 00:00:00.000000,0.02436351,0.04493015,0.10310928,7,13,31,2,5,13,0.00965852,0.01976716,0.04511044,0.23435924,0.47963159,0.88341680
0,0,UnitedKingdomBritishVirginIslands,British Virgin Islands,,2021-01-05 02:26:53.485864,2020-07-29 00:00:00.000000,0.02904580,0.05436910,0.11654308,8,16,35,3,7,15,0.01195958,0.02327998,0.05234641,0.23600429,0.48987794,0.88363707
0,0,UnitedKingdomBritishVirginIslands,British Virgin Islands,,2021-01-05 02:26:53.485864,2020-07-30 00:00:00.000000,0.03346903,0.06402802,0.13002717,10,19,39,4,8,18,0.01421182,0.02827456,0.05968214,0.24269013,0.50591524,0.87641573
0,0,UnitedKingdomBritishVirginIslands,British Virgin Islands,,2021-01-05 02:26:53.485864,2020-07-31 00:00:00.000000,0.03801413,0.07285415,0.14471084,11,22,43,4,9,20,0.01631759,0.03297455,0.06701429,0.26940702,0.51207030,0.88826672
0,0,UnitedKingdomBritishVirginIslands,British Virgin Islands,,2021-01-05 02:26:53.485864,2020-08-01 00:00:00.000000,0.04140348,0.08070128,0.16673816,12,24,50,5,11,21,0.01809869,0.03764352,0.07198077,0.29447504,0.53040473,0.89916339
0,0,UnitedKingdomBritishVirginIslands,British Virgin Islands,,2021-01-05 02:26:53.485864,2020-08-02 00:00:00.000000,0.04439220,0.09041226,0.19036186,13,27,57,6,12,24,0.02044079,0.04287917,0.08086349,0.32694576,0.54783798,0.89744262
0,0,UnitedKingdomBritishVirginIslands,British Virgin Islands,,2021-01-05 02:26:53.485864,2020-08-03 00:00:00.000000,0.05431521,0.10438332,0.21056080,16,31,63,6,14,27,0.02244330,0.04795188,0.09086247,0.33900263,0.55222628,0.89682067
0,0,UnitedKingdomBritishVirginIslands,British Virgin Islands,,2021-01-05 02:26:53.485864,2020-08-04 00:00:00.000000,0.06631989,0.11402611,0.23295298,20,34,70,8,16,30,0.02815350,0.05359350,0.10214628,0.34593425,0.57723026,0.94713552
0,0,UnitedKingdomBritishVirginIslands,British Virgin Islands,,2021-01-05 02:26:53.485864,2020-08-05 00:00:00.000000,0.07618843,0.12689932,0.25741916,23,38,77,9,18,34,0.03188223,0.06151081,0.11460204,0.35588460,0.58594992,0.95005681
0,0,UnitedKingdomBritishVirginIslands,British Virgin Islands,,2021-01-05 02:26:53.485864,2020-08-06 00:00:00.000000,0.08636512,0.14159554,0.28437778,26,42,85,10,20,38,0.03634376,0.06903017,0.12828984,0.37267009,0.59374760,0.94994160
0,0,UnitedKingdomBritishVirginIslands,British Virgin Islands,,2021-01-05 02:26:53.485864,2020-08-07 00:00:00.000000,0.09884531,0.16040947,0.32118376,29,48,97,12,24,43,0.04180833,0.07940138,0.14331943,0.37546761,0.61816080,0.96297674
0,0,UnitedKingdomBritishVirginIslands,British Virgin Islands,,2021-01-05 02:26:53.485864,2020-08-08 00:00:00.000000,0.10897508,0.18402561,0.37059310,32,55,112,13,27,48,0.04533092,0.08958215,0.15984595,0.37639701,0.63414625,0.96148299
0,0,UnitedKingdomBritishVirginIslands,British Virgin Islands,,2021-01-05 02:26:53.485864,2020-08-09 00:00:00.000000,0.11864053,0.21072386,0.42706091,35,63,129,14,30,53,0.04901731,0.10177740,0.17657468,0.38871726,0.66094044,0.94474217
0,0,UnitedKingdomBritishVirginIslands,British Virgin Islands,,2021-01-05 02:26:53.485864,2020-08-10 00:00:00.000000,0.13605113,0.23841976,0.46847589,41,72,141,16,35,58,0.05298246,0.11580792,0.19509407,0.41805433,0.68377877,0.98465918
0,0,UnitedKingdomBritishVirginIslands,British Virgin Islands,,2021-01-05 02:26:53.485864,2020-08-11 00:00:00.000000,0.14877652,0.27132899,0.50987674,44,82,154,19,39,65,0.06470557,0.12983568,0.21667309,0.44465951,0.70406893,1.01335498
0,0,UnitedKingdomBritishVirginIslands,British Virgin Islands,,2021-01-05 02:26:53.485864,2020-08-12 00:00:00.000000,0.16801036,0.31295887,0.55402129,50,94,167,23,44,74,0.07823045,0.14693123,0.24592590,0.46030337,0.72805789,1.03412347
0,0,UnitedKingdomBritishVirginIslands,British Virgin Islands,,2021-01-05 02:26:53.485864,2020-08-13 00:00:00.000000,0.19104777,0.35695628,0.62517452,57,107,189,25,49,84,0.08538026,0.16221700,0.27827110,0.49739548,0.73879127,1.03957695
0,0,UnitedKingdomBritishVirginIslands,British Virgin Islands,,2021-01-05 02:26:53.485864,2020-08-14 00:00:00.000000,0.21702267,0.40424798,0.72313489,65,122,218,28,56,95,0.09322726,0.18803337,0.31638710,0.52020934,0.74629908,1.03919185
0,0,UnitedKingdomBritishVirginIslands,British Virgin Islands,,2021-01-05 02:26:53.485864,2020-08-15 00:00:00.000000,0.24574481,0.45094000,0.83476725,74,136,252,30,64,110,0.10186474,0.21333836,0.36630143,0.54712499,0.75323029,1.03575818
0,0,UnitedKingdomBritishVirginIslands,British Virgin Islands,,2021-01-05 02:26:53.485864,2020-08-16 00:00:00.000000,0.27751379,0.51080742,0.96188063,83,154,290,33,72,125,0.11146487,0.24082262,0.41379911,0.56536343,0.75983388,1.03908202
0,0,UnitedKingdomBritishVirginIslands,British Virgin Islands,,2021-01-05 02:26:53.485864,2020-08-17 00:00:00.000000,0.31466325,0.58082221,1.09011159,95,175,329,36,82,141,0.12219177,0.27426307,0.46652684,0.57782085,0.76645323,1.02590997
0,0,UnitedKingdomBritishVirginIslands,British Virgin Islands,,2021-01-05 02:26:53.485864,2020-08-18 00:00:00.000000,0.35542355,0.65739516,1.22366667,107,198,370,42,94,159,0.14050042,0.31417183,0.52647465,0.58418575,0.76919475,1.01623250
0,0,UnitedKingdomBritishVirginIslands,British Virgin Islands,,2021-01-05 02:26:53.485864,2020-08-19 00:00:00.000000,0.40042987,0.74876483,1.34501183,121,226,406,49,108,179,0.16336382,0.35761193,0.59248101,0.58679614,0.76812364,1.01820686
0,0,UnitedKingdomBritishVirginIslands,British Virgin Islands,,2021-01-05 02:26:53.485864,2020-08-20 00:00:00.000000,0.45004226,0.85981765,1.45395203,136,259,439,57,121,200,0.19175176,0.40034488,0.66401595,0.58686756,0.75310009,1.02431013
0,0,UnitedKingdomBritishVirginIslands,British Virgin Islands,,2021-01-05 02:26:53.485864,2020-08-21 00:00:00.000000,0.50468782,0.97100621,1.57414010,152,293,475,68,134,223,0.22782139,0.44630273,0.73981651,0.56604540,0.74544388,1.02764386
0,0,UnitedKingdomBritishVirginIslands,British Virgin Islands,,2021-01-05 02:26:53.485864,2020-08-22 00:00:00.000000,0.56484013,1.06905520,1.78349908,170,323,539,80,150,247,0.26731404,0.49853799,0.81830850,0.51215530,0.72411757,1.02470855
0,0,UnitedKingdomBritishVirginIslands,British Virgin Islands,,2021-01-05 02:26:53.485864,2020-08-23 00:00:00.000000,0.63100917,1.17052258,2.01845219,190,353,610,93,167,271,0.31032472,0.55459520,0.89834396,0.46391008,0.68445088,0.99729695
0,0,UnitedKingdomBritishVirginIslands,British Virgin Islands,,2021-01-05 02:26:53.485864,2020-08-24 00:00:00.000000,0.70196854,1.25665545,2.24018887,212,379,677,107,183,298,0.35679222,0.60776598,0.98755144,0.44045791,0.65910087,0.95492053
0,0,UnitedKingdomBritishVirginIslands,British Virgin Islands,,2021-01-05 02:26:53.485864,2020-08-25 00:00:00.000000,0.77813796,1.33849084,2.30194469,235,404,696,119,200,329,0.39561678,0.66401561,1.08859049,0.41709349,0.61824876,0.91350291
0,0,UnitedKingdomBritishVirginIslands,British Virgin Islands,,2021-01-05 02:26:53.485864,2020-08-26 00:00:00.000000,0.83562019,1.47735175,2.31360233,252,446,699,131,212,360,0.43355257,0.70319988,1.19144032,0.39687560,0.58117893,0.85082648
0,0,UnitedKingdomBritishVirginIslands,British Virgin Islands,,2021-01-05 02:26:53.485864,2020-08-27 00:00:00.000000,0.89576649,1.57339151,2.38064371,270,475,719,142,229,390,0.47225807,0.75786413,1.29230729,0.37683608,0.55654466,0.81795584
0,0,UnitedKingdomBritishVirginIslands,British Virgin Islands,,2021-01-05 02:26:53.485864,2020-08-28 00:00:00.000000,0.96365205,1.62200016,2.53735465,291,490,767,154,244,419,0.51202047,0.80947348,1.38758568,0.33437055,0.53121732,0.79448161
0,0,UnitedKingdomBritishVirginIslands,British Virgin Islands,,2021-01-05 02:26:53.485864,2020-08-29 00:00:00.000000,1.02988913,1.66488003,2.63852954,311,503,797,166,255,444,0.55224675,0.84444368,1.46932963,0.31809515,0.48644254,0.76491053
0,0,UnitedKingdomBritishVirginIslands,British Virgin Islands,,2021-01-05 02:26:53.485864,2020-08-30 00:00:00.000000,1.09112909,1.72344813,2.61822295,329,521,791,178,263,462,0.59016932,0.87106784,1.52977708,0.26432813,0.41720226,0.69852124
0,0,UnitedKingdomBritishVirginIslands,British Virgin Islands,,2021-01-05 02:26:53.485864,2020-08-31 00:00:00.000000,1.11369891,1.74239293,2.57482215,336,526,778,181,271,477,0.60090293,0.89832603,1.57918044,0.23160483,0.35371700,0.60507961
0,0,UnitedKingdomBritishVirginIslands,British Virgin Islands,,2021-01-05 02:26:53.485864,2020-09-01 00:00:00.000000,1.12142631,1.69838917,2.54974853,339,513,770,183,276,494,0.60793289,0.91303886,1.63413854,0.18982719,0.30616065,0.49366057
0,0,UnitedKingdomBritishVirginIslands,British Virgin Islands,,2021-01-05 02:26:53.485864,2020-09-02 00:00:00.000000,1.11432685,1.62778838,2.45730711,336,492,743,187,275,486,0.61856911,0.91246985,1.60762282,0.14427549,0.25625582,0.41888115
0,0,UnitedKingdomBritishVirginIslands,British Virgin Islands,,2021-01-05 02:26:53.485864,2020-09-03 00:00:00.000000,1.08074982,1.53016295,2.33540267,326,462,706,182,269,471,0.60328189,0.89050959,1.55835736,0.12493606,0.22638979,0.41408189
0,0,UnitedKingdomBritishVirginIslands,British Virgin Islands,,2021-01-05 02:26:53.485864,2020-09-04 00:00:00.000000,1.02132779,1.41524500,2.20183436,308,427,665,173,254,452,0.57269335,0.84249945,1.49515748,0.12214896,0.18574478,0.36959769
0,0,UnitedKingdomBritishVirginIslands,British Virgin Islands,,2021-01-05 02:26:53.485864,2020-09-05 00:00:00.000000,0.94690069,1.31725118,2.06621914,286,398,624,161,244,429,0.53272085,0.80878919,1.41916628,0.11631662,0.17288269,0.32666027
0,0,UnitedKingdomBritishVirginIslands,British Virgin Islands,,2021-01-05 02:26:53.485864,2020-09-06 00:00:00.000000,0.87508471,1.21929897,1.93323338,264,368,584,148,230,398,0.49004115,0.76387512,1.31791961,0.11155706,0.16407544,0.29982088
0,0,UnitedKingdomBritishVirginIslands,British Virgin Islands,,2021-01-05 02:26:53.485864,2020-09-07 00:00:00.000000,0.80168130,1.11446028,1.80321550,242,336,545,135,208,365,0.44825588,0.68989687,1.20829618,0.10702331,0.15386417,0.28315589
0,0,UnitedKingdomBritishVirginIslands,British Virgin Islands,,2021-01-05 02:26:53.485864,2020-09-08 00:00:00.000000,0.72904585,1.02455915,1.66290062,220,309,502,123,193,332,0.40963098,0.63968033,1.09909859,0.10282117,0.14653191,0.27293795
0,0,UnitedKingdomBritishVirginIslands,British Virgin Islands,,2021-01-05 02:26:53.485864,2020-09-09 00:00:00.000000,0.66322927,0.92897613,1.49106115,200,280,450,113,178,300,0.37440209,0.59113673,0.99367350,0.09665114,0.14093346,0.27028758
0,0,UnitedKingdomBritishVirginIslands,British Virgin Islands,,2021-01-05 02:26:53.485864,2020-09-10 00:00:00.000000,0.59606219,0.84693740,1.35872603,180,256,410,103,162,270,0.34259256,0.53846690,0.89359817,0.09301327,0.13818447,0.26250305
0,0,UnitedKingdomBritishVirginIslands,British Virgin Islands,,2021-01-05 02:26:53.485864,2020-09-11 00:00:00.000000,0.53190923,0.77718184,1.22015181,160,234,368,94,147,241,0.31151303,0.48684924,0.79991204,0.09096040,0.13544905,0.25108661
0,0,UnitedKingdomBritishVirginIslands,British Virgin Islands,,2021-01-05 02:26:53.485864,2020-09-12 00:00:00.000000,0.47426153,0.71273837,1.08373161,143,215,327,85,132,220,0.28277285,0.43933952,0.72856643,0.08994997,0.13201272,0.25973310
0,0,UnitedKingdomBritishVirginIslands,British Virgin Islands,,2021-01-05 02:26:53.485864,2020-09-13 00:00:00.000000,0.42285505,0.64147024,0.97089617,127,193,293,77,119,205,0.25607245,0.39474295,0.67983360,0.08938969,0.12938092,0.26090944
0,0,UnitedKingdomBritishVirginIslands,British Virgin Islands,,2021-01-05 02:26:53.485864,2020-09-14 00:00:00.000000,0.37854284,0.58102796,0.89109302,114,175,269,70,107,191,0.23151293,0.35667446,0.63380144,0.08142051,0.12560915,0.25435337
0,0,UnitedKingdomBritishVirginIslands,British Virgin Islands,,2021-01-05 02:26:53.485864,2020-09-15 00:00:00.000000,0.33352686,0.52215514,0.81638995,100,157,246,62,97,176,0.20514313,0.32347933,0.58519151,0.07916881,0.12283303,0.24746188
0,0,UnitedKingdomBritishVirginIslands,British Virgin Islands,,2021-01-05 02:26:53.485864,2020-09-16 00:00:00.000000,0.29578404,0.47029912,0.75926267,89,142,229,54,88,162,0.18057726,0.29397897,0.53745576,0.07973802,0.12101268,0.24672123
0,0,UnitedKingdomBritishVirginIslands,British Virgin Islands,,2021-01-05 02:26:53.485864,2020-09-17 00:00:00.000000,0.26466339,0.42580716,0.70686861,80,128,213,48,80,148,0.15878765,0.26534279,0.49210585,0.07873698,0.12004490,0.24586816
0,0,UnitedKingdomBritishVirginIslands,British Virgin Islands,,2021-01-05 02:26:53.485864,2020-09-18 00:00:00.000000,0.23735580,0.39029402,0.65847583,71,118,199,42,73,135,0.14139880,0.24344075,0.44971365,0.07577565,0.11903436,0.24501200
0,0,UnitedKingdomBritishVirginIslands,British Virgin Islands,,2021-01-05 02:26:53.485864,2020-09-19 00:00:00.000000,0.20841488,0.35790783,0.61109934,63,108,184,37,66,125,0.12565713,0.22151736,0.41434164,0.07480954,0.11828579,0.24427100
0,0,UnitedKingdomBritishVirginIslands,British Virgin Islands,,2021-01-05 02:26:53.485864,2020-09-20 00:00:00.000000,0.17870323,0.33035039,0.55632776,54,99,168,33,61,116,0.10957981,0.20212555,0.38600752,0.07428061,0.11495857,0.24370911
0,0,UnitedKingdomBritishVirginIslands,British Virgin Islands,,2021-01-05 02:26:53.485864,2020-09-21 00:00:00.000000,0.15675098,0.29881182,0.50069133,47,90,151,29,56,108,0.09787631,0.18682092,0.35975766,0.07417583,0.11488712,0.24332532
0,0,UnitedKingdomBritishVirginIslands,British Virgin Islands,,2021-01-05 02:26:53.485864,2020-09-22 00:00:00.000000,0.13745722,0.26532363,0.45001338,41,80,136,25,51,100,0.08543380,0.16908119,0.33375451,0.07410347,0.11398434,0.24340502
0,0,UnitedKingdomBritishVirginIslands,British Virgin Islands,,2021-01-05 02:26:53.485864,2020-09-23 00:00:00.000000,0.12051865,0.23282598,0.40378607,36,70,122,22,45,93,0.07355790,0.15004047,0.30855156,0.07358279,0.11373023,0.24416210
0,0,UnitedKingdomBritishVirginIslands,British Virgin Islands,,2021-01-05 02:26:53.485864,2020-09-24 00:00:00.000000,0.10559429,0.20779024,0.36199025,31,62,109,18,40,83,0.06280020,0.13340664,0.27734553,0.07346111,0.11277529,0.24586395
0,0,UnitedKingdomBritishVirginIslands,British Virgin Islands,,2021-01-05 02:26:53.485864,2020-09-25 00:00:00.000000,0.09073951,0.18560857,0.32441207,27,56,98,16,35,75,0.05336628,0.11787360,0.24880103,0.07063503,0.11183621,0.25017887
0,0,UnitedKingdomBritishVirginIslands,British Virgin Islands,,2021-01-05 02:26:53.485864,2020-09-26 00:00:00.000000,0.07751865,0.16370825,0.29076207,23,49,87,13,31,67,0.04521086,0.10463219,0.22306056,0.06781218,0.11154393,0.25556552
0,0,UnitedKingdomBritishVirginIslands,British Virgin Islands,,2021-01-05 02:26:53.485864,2020-09-27 00:00:00.000000,0.06616815,0.14428512,0.26073061,20,43,78,11,27,60,0.03821897,0.09216860,0.19995720,0.06691740,0.10920402,0.25288272
0,0,UnitedKingdomBritishVirginIslands,British Virgin Islands,,2021-01-05 02:26:53.485864,2020-09-28 00:00:00.000000,0.05709483,0.12711008,0.23400504,17,38,70,9,24,54,0.03226613,0.08140067,0.17929600,0.06506662,0.11090631,0.24809639
0,0,UnitedKingdomBritishVirginIslands,British Virgin Islands,,2021-01-05 02:26:53.485864,2020-09-29 00:00:00.000000,0.04808435,0.11197829,0.21027867,14,33,63,8,21,48,0.02721888,0.07182071,0.16087594,0.06476942,0.11004296,0.24665366
0,0,UnitedKingdomBritishVirginIslands,British Virgin Islands,,2021-01-05 02:26:53.485864,2020-09-30 00:00:00.000000,0.04090850,0.09871219,0.18924058,12,29,57,7,19,43,0.02393862,0.06332569,0.14449744,0.06465411,0.10985603,0.24650616
0,0,UnitedKingdomBritishVirginIslands,British Virgin Islands,,2021-01-05 02:26:53.485864,2020-10-01 00:00:00.000000,0.03482171,0.08715023,0.17057308,10,26,51,6,16,39,0.02118461,0.05605635,0.12995954,0.06461003,0.11004056,0.25086309
0,0,UnitedKingdomBritishVirginIslands,British Virgin Islands,,2021-01-05 02:26:53.485864,2020-10-02 00:00:00.000000,0.02963682,0.07693916,0.15397015,8,23,46,5,15,35,0.01872595,0.04995348,0.11705746,0.06459808,0.10701147,0.26364583
0,0,UnitedKingdomBritishVirginIslands,British Virgin Islands,,2021-01-05 02:26:53.485864,2020-10-03 00:00:00.000000,0.02522212,0.06817641,0.13916584,7,20,42,4,13,31,0.01613321,0.04421817,0.10558973,0.06460657,0.10581590,0.28115097
0,0,UnitedKingdomBritishVirginIslands,British Virgin Islands,,2021-01-05 02:26:53.485864,2020-10-04 00:00:00.000000,0.02146520,0.06028675,0.12593022,6,18,38,4,11,28,0.01373249,0.03895333,0.09537303,0.06628055,0.10573301,0.29816007
0,0,UnitedKingdomBritishVirginIslands,British Virgin Islands,,2021-01-05 02:26:53.485864,2020-10-05 00:00:00.000000,0.01827227,0.05364236,0.11404533,5,16,34,3,10,26,0.01168852,0.03461246,0.08624693,0.06862186,0.10619892,0.30188521
0,0,UnitedKingdomBritishVirginIslands,British Virgin Islands,,2021-01-05 02:26:53.485864,2020-10-06 00:00:00.000000,0.01556491,0.04724302,0.10333468,4,14,31,3,9,23,0.00995007,0.03098859,0.07806603,0.06901884,0.11442114,0.30229626
0,0,UnitedKingdomBritishVirginIslands,British Virgin Islands,,2021-01-05 02:26:53.485864,2020-10-07 00:00:00.000000,0.01327650,0.04119755,0.09363732,4,12,28,2,8,21,0.00847429,0.02762962,0.07070623,0.06974570,0.11349191,0.30208370
0,0,UnitedKingdomBritishVirginIslands,British Virgin Islands,,2021-01-05 02:26:53.485864,2020-10-08 00:00:00.000000,0.01134071,0.03610867,0.08476320,3,10,25,2,7,19,0.00722501,0.02436334,0.06406248,0.07006269,0.11467319,0.30103618
0,0,UnitedKingdomBritishVirginIslands,British Virgin Islands,,2021-01-05 02:26:53.485864,2020-10-09 00:00:00.000000,0.00969343,0.03234176,0.07860431,2,9,23,1,6,17,0.00616817,0.02123192,0.05803159,0.07013078,0.11316302,0.29809752
0,0,UnitedKingdomBritishVirginIslands,British Virgin Islands,,2021-01-05 02:26:53.485864,2020-10-10 00:00:00.000000,0.00828245,0.02878675,0.07307126,2,8,22,1,5,15,0.00527073,0.01864844,0.05249848,0.07012442,0.11286813,0.29759203
0,0,UnitedKingdomBritishVirginIslands,British Virgin Islands,,2021-01-05 02:26:53.485864,2020-10-11 00:00:00.000000,0.00706825,0.02511545,0.06799318,2,7,20,1,5,14,0.00450405,0.01659156,0.04740099,0.07008643,0.11201981,0.30052601
0,0,UnitedKingdomBritishVirginIslands,British Virgin Islands,,2021-01-05 02:26:53.485864,2020-10-12 00:00:00.000000,0.00602311,0.02234784,0.06331763,1,6,19,1,4,12,0.00384558,0.01445197,0.04273553,0.07001055,0.11239369,0.30164219
0,0,UnitedKingdomBritishVirginIslands,British Virgin Islands,,2021-01-05 02:26:53.485864,2020-10-13 00:00:00.000000,0.00512597,0.02010376,0.05899643,1,6,17,0,3,11,0.00327890,0.01258761,0.03877039,0.06991211,0.11308736,0.30197707
0,0,UnitedKingdomBritishVirginIslands,British Virgin Islands,,2021-01-05 02:26:53.485864,2020-10-14 00:00:00.000000,0.00438614,0.01806594,0.05499103,1,5,16,0,3,10,0.00279194,0.01105493,0.03610736,0.06947520,0.11322855,0.30931894
0,0,UnitedKingdomBritishVirginIslands,British Virgin Islands,,2021-01-05 02:26:53.485864,2020-10-15 00:00:00.000000,0.00380059,0.01611989,0.05127071,1,4,15,0,2,10,0.00237472,0.00977240,0.03363937,0.06740772,0.11344803,0.31263783
0,0,UnitedKingdomBritishVirginIslands,British Virgin Islands,,2021-01-05 02:26:53.485864,2020-10-16 00:00:00.000000,0.00329835,0.01454152,0.04780915,0,4,14,0,2,9,0.00201847,0.00861115,0.03135136,0.06184620,0.11125384,0.31185967
0,0,UnitedKingdomBritishVirginIslands,British Virgin Islands,,2021-01-05 02:26:53.485864,2020-10-17 00:00:00.000000,0.00287010,0.01308114,0.04458027,0,3,13,0,2,8,0.00171575,0.00763757,0.02922599,0.05732938,0.11131146,0.31484986
0,0,UnitedKingdomBritishVirginIslands,British Virgin Islands,,2021-01-05 02:26:53.485864,2020-10-18 00:00:00.000000,0.00250797,0.01181720,0.04155238,0,3,12,0,2,8,0.00146133,0.00682455,0.02724731,0.05512244,0.11349645,0.31515288
0,0,UnitedKingdomBritishVirginIslands,British Virgin Islands,,2021-01-05 02:26:53.485864,2020-10-19 00:00:00.000000,0.00220269,0.01071351,0.03868337,0,3,11,0,1,7,0.00125142,0.00627745,0.02539796,0.05272474,0.11446888,0.31520971
0,0,UnitedKingdomBritishVirginIslands,British Virgin Islands,,2021-01-05 02:26:53.485864,2020-10-20 00:00:00.000000,0.00194382,0.00937962,0.03593177,0,2,10,0,1,7,0.00107893,0.00569701,0.02365632,0.05233106,0.11559530,0.31512186
0,0,UnitedKingdomBritishVirginIslands,British Virgin Islands,,2021-01-05 02:26:53.485864,2020-10-21 00:00:00.000000,0.00172252,0.00814607,0.03351793,0,2,10,0,1,6,0.00093511,0.00517386,0.02199905,0.05256133,0.11690494,0.31409697
0,0,UnitedKingdomBritishVirginIslands,British Virgin Islands,,2021-01-05 02:26:53.485864,2020-10-22 00:00:00.000000,0.00153249,0.00718801,0.03133187,0,2,9,0,1,6,0.00081293,0.00471709,0.02041309,0.05495404,0.11715138,0.31054713
0,0,UnitedKingdomBritishVirginIslands,British Virgin Islands,,2021-01-05 02:26:53.485864,2020-10-23 00:00:00.000000,0.00136859,0.00635290,0.02927914,0,1,8,0,1,5,0.00072047,0.00422109,0.01890129,0.05807556,0.11739068,0.31296337
0,0,UnitedKingdomBritishVirginIslands,British Virgin Islands,,2021-01-05 02:26:53.485864,2020-10-24 00:00:00.000000,0.00117735,0.00565644,0.02735028,0,1,8,0,1,5,0.00064263,0.00371881,0.01747294,0.06002506,0.11885538,0.31744138
0,0,UnitedKingdomBritishVirginIslands,British Virgin Islands,,2021-01-05 02:26:53.485864,2020-10-25 00:00:00.000000,0.00099684,0.00508789,0.02553754,0,1,7,0,0,4,0.00057504,0.00329488,0.01613499,0.06207833,0.11800176,0.32179243
0,0,UnitedKingdomBritishVirginIslands,British Virgin Islands,,2021-01-05 02:26:53.485864,2020-10-26 00:00:00.000000,0.00084405,0.00458983,0.02383626,0,1,7,0,0,4,0.00051576,0.00293255,0.01488972,0.06352678,0.11806200,0.32501623
0,0,UnitedKingdomBritishVirginIslands,British Virgin Islands,,2021-01-05 02:26:53.485864,2020-10-27 00:00:00.000000,0.00071516,0.00412507,0.02224477,0,1,6,0,0,4,0.00046336,0.00266140,0.01373565,0.06434351,0.12210902,0.32667272
0,0,UnitedKingdomBritishVirginIslands,British Virgin Islands,,2021-01-05 02:26:53.485864,2020-10-28 00:00:00.000000,0.00060607,0.00367592,0.02076345,0,1,6,0,0,3,0.00041694,0.00240781,0.01266831,0.06492966,0.12093239,0.32667254
0,0,UnitedKingdomBritishVirginIslands,British Virgin Islands,,2021-01-05 02:26:53.485864,2020-10-29 00:00:00.000000,0.00051600,0.00328255,0.01939293,0,0,5,0,0,3,0.00037033,0.00217967,0.01168096,0.06558128,0.12384431,0.32841908
0,0,UnitedKingdomBritishVirginIslands,British Virgin Islands,,2021-01-05 02:26:53.485864,2020-10-30 00:00:00.000000,0.00045423,0.00298723,0.01813120,0,0,5,0,0,3,0.00031652,0.00197557,0.01076490,0.06570212,0.12579780,0.32344611
0,0,UnitedKingdomBritishVirginIslands,British Virgin Islands,,2021-01-05 02:26:53.485864,2020-10-31 00:00:00.000000,0.00039324,0.00271615,0.01697155,0,0,5,0,0,2,0.00026976,0.00179517,0.00990965,0.06601907,0.12359022,0.32158712
0,0,UnitedKingdomBritishVirginIslands,British Virgin Islands,,2021-01-05 02:26:53.485864,2020-11-01 00:00:00.000000,0.00033598,0.00245209,0.01590199,0,0,4,0,0,2,0.00022876,0.00163744,0.00910496,0.06663103,0.12471199,0.32129865
0,0,UnitedKingdomBritishVirginIslands,British Virgin Islands,,2021-01-05 02:26:53.485864,2020-11-02 00:00:00.000000,0.00028711,0.00219736,0.01491007,0,0,4,0,0,2,0.00019407,0.00148521,0.00834502,0.06759988,0.12511675,0.32528051
0,0,UnitedKingdomBritishVirginIslands,British Virgin Islands,,2021-01-05 02:26:53.485864,2020-11-03 00:00:00.000000,0.00024541,0.00196651,0.01398274,0,0,4,0,0,2,0.00016472,0.00132553,0.00767298,0.06881357,0.12420909,0.32966538
0,0,UnitedKingdomBritishVirginIslands,British Virgin Islands,,2021-01-05 02:26:53.485864,2020-11-04 00:00:00.000000,0.00020984,0.00175846,0.01310637,0,0,3,0,0,2,0.00013987,0.00118126,0.00719503,0.06998288,0.12099110,0.32855346
0,0,UnitedKingdomBritishVirginIslands,British Virgin Islands,,2021-01-05 02:26:53.485864,2020-11-05 00:00:00.000000,0.00017944,0.00157171,0.01212962,0,0,3,0,0,2,0.00012274,0.00105284,0.00674431,0.07090909,0.12249872,0.32794580
0,0,UnitedKingdomBritishVirginIslands,British Virgin Islands,,2021-01-05 02:26:53.485864,2020-11-06 00:00:00.000000,0.00015343,0.00141403,0.01117081,0,0,3,0,0,1,0.00010566,0.00093860,0.00631568,0.07035129,0.12280363,0.33404787
0,0,UnitedKingdomBritishVirginIslands,British Virgin Islands,,2021-01-05 02:26:53.485864,2020-11-07 00:00:00.000000,0.00013056,0.00128891,0.01028627,0,0,3,0,0,1,0.00008976,0.00085001,0.00590745,0.06917037,0.12536261,0.34277497
0,0,UnitedKingdomBritishVirginIslands,British Virgin Islands,,2021-01-05 02:26:53.485864,2020-11-08 00:00:00.000000,0.00011126,0.00117803,0.00947094,0,0,2,0,0,1,0.00007631,0.00076647,0.00552040,0.06845530,0.12642042,0.33994599
0,0,UnitedKingdomBritishVirginIslands,British Virgin Islands,,2021-01-05 02:26:53.485864,2020-11-09 00:00:00.000000,0.00009499,0.00106705,0.00871974,0,0,2,0,0,1,0.00006495,0.00068319,0.00515572,0.06809202,0.12726540,0.34900508
0,0,UnitedKingdomBritishVirginIslands,British Virgin Islands,,2021-01-05 02:26:53.485864,2020-11-10 00:00:00.000000,0.00008121,0.00097120,0.00802878,0,0,2,0,0,1,0.00005537,0.00061944,0.00481414,0.06790794,0.12827641,0.35271900
0,0,UnitedKingdomBritishVirginIslands,British Virgin Islands,,2021-01-05 02:26:53.485864,2020-11-11 00:00:00.000000,0.00006931,0.00086838,0.00739596,0,0,2,0,0,1,0.00004726,0.00057309,0.00449634,0.06759370,0.12807557,0.35355164
0,0,UnitedKingdomBritishVirginIslands,British Virgin Islands,,2021-01-05 02:26:53.485864,2020-11-12 00:00:00.000000,0.00005948,0.00078194,0.00682308,0,0,2,0,0,1,0.00004039,0.00051540,0.00420421,0.06242409,0.12866579,0.35378095
0,0,UnitedKingdomBritishVirginIslands,British Virgin Islands,,2021-01-05 02:26:53.485864,2020-11-13 00:00:00.000000,0.00005088,0.00070895,0.00631829,0,0,1,0,0,1,0.00003456,0.00046510,0.00394240,0.06066930,0.13256509,0.37123293
0,0,UnitedKingdomBritishVirginIslands,British Virgin Islands,,2021-01-05 02:26:53.485864,2020-11-14 00:00:00.000000,0.00004345,0.00064314,0.00588786,0,0,1,0,0,1,0.00002938,0.00041815,0.00371741,0.05903143,0.13507727,0.40219611
0,0,UnitedKingdomBritishVirginIslands,British Virgin Islands,,2021-01-05 02:26:53.485864,2020-11-15 00:00:00.000000,0.00003706,0.00058391,0.00551930,0,0,1,0,0,1,0.00002491,0.00037997,0.00353080,0.05283288,0.13784129,0.40988831
0,0,UnitedKingdomBritishVirginIslands,British Virgin Islands,,2021-01-05 02:26:53.485864,2020-11-16 00:00:00.000000,0.00211620,0.00600283,0.01585853,0,1,4,0,0,1,0.00002106,0.00034748,0.00337503,0.05237977,0.13938181,0.41346533
0,0,UnitedKingdomBritishVirginIslands,British Virgin Islands,,2021-01-05 02:26:53.485864,2020-11-17 00:00:00.000000,0.00367669,0.01094878,0.03057120,1,3,9,0,0,1,0.00094126,0.00225935,0.00589836,0.05248287,0.14096244,0.41378756
0,0,UnitedKingdomBritishVirginIslands,British Virgin Islands,,2021-01-05 02:26:53.485864,2020-11-18 00:00:00.000000,0.00496016,0.01580587,0.04622664,1,4,13,0,1,4,0.00179563,0.00495986,0.01325238,0.05254237,0.14018016,0.40509402
0,0,UnitedKingdomBritishVirginIslands,British Virgin Islands,,2021-01-05 02:26:53.485864,2020-11-19 00:00:00.000000,0.00540717,0.02053523,0.06186701,1,6,18,0,2,6,0.00272440,0.00765170,0.02124825,0.05260458,0.13948145,0.38091423
0,0,UnitedKingdomBritishVirginIslands,British Virgin Islands,,2021-01-05 02:26:53.485864,2020-11-20 00:00:00.000000,0.00648073,0.02470599,0.07716229,1,7,23,0,3,8,0.00296321,0.01042081,0.02929942,0.05279132,0.13932378,0.37590387
0,0,UnitedKingdomBritishVirginIslands,British Virgin Islands,,2021-01-05 02:26:53.485864,2020-11-21 00:00:00.000000,0.00763881,0.02858726,0.09206553,2,8,27,0,3,11,0.00320492,0.01317039,0.03719023,0.05426867,0.13752209,0.38801593
0,0,UnitedKingdomBritishVirginIslands,British Virgin Islands,,2021-01-05 02:26:53.485864,2020-11-22 00:00:00.000000,0.00880121,0.03208842,0.10662639,2,9,32,1,4,13,0.00343715,0.01556681,0.04487368,0.05647689,0.13589703,0.40009504
0,0,UnitedKingdomBritishVirginIslands,British Virgin Islands,,2021-01-05 02:26:53.485864,2020-11-23 00:00:00.000000,0.01530966,0.03792971,0.11020485,4,11,33,1,5,15,0.00377785,0.01772072,0.05236862,0.05794767,0.13280968,0.41039977
0,0,UnitedKingdomBritishVirginIslands,British Virgin Islands,,2021-01-05 02:26:53.485864,2020-11-24 00:00:00.000000,0.01861747,0.04341032,0.11353906,5,13,34,2,6,16,0.00717139,0.02186296,0.05584445,0.05852177,0.13571397,0.41890234
0,0,UnitedKingdomBritishVirginIslands,British Virgin Islands,,2021-01-05 02:26:53.485864,2020-11-25 00:00:00.000000,0.01906165,0.04969103,0.12679195,5,15,38,3,7,17,0.01034835,0.02337278,0.05769993,0.05868884,0.13533802,0.42714884
0,0,UnitedKingdomBritishVirginIslands,British Virgin Islands,,2021-01-05 02:26:53.485864,2020-11-26 00:00:00.000000,0.02140441,0.05396238,0.12410660,6,16,37,3,7,17,0.01062055,0.02578951,0.05894380,0.05869765,0.13715358,0.43754268
0,0,UnitedKingdomBritishVirginIslands,British Virgin Islands,,2021-01-05 02:26:53.485864,2020-11-27 00:00:00.000000,0.02386675,0.05788626,0.14114403,7,17,42,3,8,20,0.01140820,0.02807255,0.06792905,0.05856379,0.13856930,0.45272938
0,0,UnitedKingdomBritishVirginIslands,British Virgin Islands,,2021-01-05 02:26:53.485864,2020-11-28 00:00:00.000000,0.02616730,0.06103222,0.15774703,7,18,47,3,9,21,0.01285681,0.03013847,0.07271468,0.05801256,0.14135388,0.47459561
0,0,UnitedKingdomBritishVirginIslands,British Virgin Islands,,2021-01-05 02:26:53.485864,2020-11-29 00:00:00.000000,0.02802362,0.06556300,0.17462968,8,19,52,4,9,24,0.01425454,0.03234669,0.08159993,0.05786944,0.14296378,0.50291321
0,0,UnitedKingdomBritishVirginIslands,British Virgin Islands,,2021-01-05 02:26:53.485864,2020-11-30 00:00:00.000000,0.03148155,0.07608024,0.18680404,9,23,56,4,10,27,0.01535856,0.03486474,0.09039978,0.05871258,0.14613088,0.53583615
0,0,UnitedKingdomBritishVirginIslands,British Virgin Islands,,2021-01-05 02:26:53.485864,2020-12-01 00:00:00.000000,0.03362639,0.08498373,0.19863007,10,25,60,5,11,29,0.01785319,0.03964170,0.09699255,0.05913793,0.14564970,0.61378756
0,0,UnitedKingdomBritishVirginIslands,British Virgin Islands,,2021-01-05 02:26:53.485864,2020-12-02 00:00:00.000000,0.03699829,0.09204205,0.20001866,11,27,60,6,13,31,0.02017493,0.04400635,0.10332393,0.05891978,0.14663666,0.62765358
0,0,UnitedKingdomBritishVirginIslands,British Virgin Islands,,2021-01-05 02:26:53.485864,2020-12-03 00:00:00.000000,0.04017382,0.10296999,0.21025916,12,31,63,6,15,31,0.02085170,0.05107836,0.10535141,0.05835737,0.14748780,0.64710039
0,0,UnitedKingdomBritishVirginIslands,British Virgin Islands,,2021-01-05 02:26:53.485864,2020-12-04 00:00:00.000000,0.04305031,0.10557041,0.23367152,13,31,70,6,16,32,0.02241907,0.05557170,0.10636470,0.05797604,0.15053846,0.66345089
0,0,UnitedKingdomBritishVirginIslands,British Virgin Islands,,2021-01-05 02:26:53.485864,2020-12-05 00:00:00.000000,0.04563759,0.10899012,0.25803608,13,32,78,7,17,33,0.02453867,0.05842888,0.11186538,0.05771269,0.15310615,0.67032849
0,0,UnitedKingdomBritishVirginIslands,British Virgin Islands,,2021-01-05 02:26:53.485864,2020-12-06 00:00:00.000000,0.04792001,0.11397999,0.28352993,14,34,85,7,18,38,0.02559439,0.06148660,0.12837686,0.05760504,0.15444395,0.67063898
0,0,UnitedKingdomBritishVirginIslands,British Virgin Islands,,2021-01-05 02:26:53.485864,2020-12-07 00:00:00.000000,0.07049078,0.14000151,0.29712915,21,42,89,8,19,41,0.02659161,0.06417189,0.13676046,0.05758153,0.15196560,0.66424328
0,0,UnitedKingdomBritishVirginIslands,British Virgin Islands,,2021-01-05 02:26:53.485864,2020-12-08 00:00:00.000000,0.08589513,0.15871693,0.32292390,25,47,97,10,21,44,0.03447811,0.06990186,0.14855634,0.05760741,0.15421466,0.65674180
0,0,UnitedKingdomBritishVirginIslands,British Virgin Islands,,2021-01-05 02:26:53.485864,2020-12-09 00:00:00.000000,0.10127978,0.18314898,0.34796376,30,55,105,12,24,47,0.04246057,0.08117786,0.15697648,0.05768318,0.15644523,0.64816027
0,0,UnitedKingdomBritishVirginIslands,British Virgin Islands,,2021-01-05 02:26:53.485864,2020-12-10 00:00:00.000000,0.10053565,0.20238099,0.37120904,30,61,112,15,29,51,0.05002805,0.09711991,0.16962089,0.05783818,0.15419779,0.63859715
0,0,UnitedKingdomBritishVirginIslands,British Virgin Islands,,2021-01-05 02:26:53.485864,2020-12-11 00:00:00.000000,0.09538593,0.22111832,0.38394684,28,66,116,17,33,54,0.05731644,0.11223832,0.17976483,0.05716372,0.14966972,0.62824098
0,0,UnitedKingdomBritishVirginIslands,British Virgin Islands,,2021-01-05 02:26:53.485864,2020-12-12 00:00:00.000000,0.09699005,0.24147498,0.39562543,29,73,119,17,37,57,0.05782845,0.12460808,0.18979572,0.05685562,0.14975297,0.61736508
0,0,UnitedKingdomBritishVirginIslands,British Virgin Islands,,2021-01-05 02:26:53.485864,2020-12-13 00:00:00.000000,0.10533323,0.26071116,0.40609806,31,78,122,16,41,60,0.05506095,0.13815099,0.20161199,0.05593278,0.15200698,0.60971898
0,0,UnitedKingdomBritishVirginIslands,British Virgin Islands,,2021-01-05 02:26:53.485864,2020-12-14 00:00:00.000000,0.12592698,0.27530486,0.40525610,38,83,122,16,44,63,0.05363195,0.14765265,0.21155424,0.05466665,0.15127631,0.60588821
0,0,UnitedKingdomBritishVirginIslands,British Virgin Islands,,2021-01-05 02:26:53.485864,2020-12-15 00:00:00.000000,0.14581312,0.28236067,0.41862833,44,85,126,18,46,64,0.06213161,0.15495201,0.21258874,0.05382414,0.14346521,0.60091407
0,0,UnitedKingdomBritishVirginIslands,British Virgin Islands,,2021-01-05 02:26:53.485864,2020-12-16 00:00:00.000000,0.16675749,0.29030559,0.43238363,50,87,130,22,47,67,0.07424966,0.15793106,0.22213145,0.05356468,0.14369118,0.58194659
0,0,UnitedKingdomBritishVirginIslands,British Virgin Islands,,2021-01-05 02:26:53.485864,2020-12-17 00:00:00.000000,0.18926954,0.29806220,0.44475222,57,90,134,26,48,68,0.08916378,0.16002255,0.22639833,0.05171340,0.14494484,0.55830504
0,0,UnitedKingdomBritishVirginIslands,British Virgin Islands,,2021-01-05 02:26:53.485864,2020-12-18 00:00:00.000000,0.20005660,0.29550120,0.45859268,60,89,138,30,48,68,0.10045961,0.16089954,0.22800670,0.04915155,0.14667572,0.54115346
0,0,UnitedKingdomBritishVirginIslands,British Virgin Islands,,2021-01-05 02:26:53.485864,2020-12-19 00:00:00.000000,0.20583750,0.30398494,0.46568220,62,91,140,31,48,73,0.10374224,0.16101758,0.24310442,0.04852387,0.14691069,0.53750059
0,0,UnitedKingdomBritishVirginIslands,British Virgin Islands,,2021-01-05 02:26:53.485864,2020-12-20 00:00:00.000000,0.20343977,0.31081407,0.46873985,61,93,141,32,50,77,0.10590684,0.16736428,0.25564771,0.04848029,0.14225347,0.49454914
0,0,UnitedKingdomBritishVirginIslands,British Virgin Islands,,2021-01-05 02:26:53.485864,2020-12-21 00:00:00.000000,0.18556602,0.28929990,0.44469669,56,87,134,32,51,78,0.10656835,0.17020375,0.26095508,0.04848560,0.13876459,0.44468535
0,0,UnitedKingdomBritishVirginIslands,British Virgin Islands,,2021-01-05 02:26:53.485864,2020-12-22 00:00:00.000000,0.16757832,0.26282161,0.43043426,50,79,130,30,49,78,0.09980994,0.16253361,0.26069789,0.04855749,0.13772869,0.42181904
0,0,UnitedKingdomBritishVirginIslands,British Virgin Islands,,2021-01-05 02:26:53.485864,2020-12-23 00:00:00.000000,0.15147726,0.23777796,0.41557189,45,71,125,27,45,76,0.09096132,0.14959038,0.25426775,0.04688581,0.13677135,0.41036013
0,0,UnitedKingdomBritishVirginIslands,British Virgin Islands,,2021-01-05 02:26:53.485864,2020-12-24 00:00:00.000000,0.13654265,0.21512385,0.40051833,41,65,121,24,41,74,0.08247217,0.13753260,0.24536064,0.04568530,0.13784053,0.40446294
0,0,UnitedKingdomBritishVirginIslands,British Virgin Islands,,2021-01-05 02:26:53.485864,2020-12-25 00:00:00.000000,0.12223406,0.19646553,0.38532069,36,59,116,22,37,71,0.07390950,0.12467934,0.23506142,0.04582228,0.13561491,0.40057412
0,0,UnitedKingdomBritishVirginIslands,British Virgin Islands,,2021-01-05 02:26:53.485864,2020-12-26 00:00:00.000000,0.10437489,0.17665242,0.36953156,31,53,111,19,34,67,0.06506771,0.11389640,0.22433949,0.04947461,0.13405463,0.39730263
0,0,UnitedKingdomBritishVirginIslands,British Virgin Islands,,2021-01-05 02:26:53.485864,2020-12-27 00:00:00.000000,0.08831255,0.15791867,0.35236752,26,47,106,17,31,64,0.05861975,0.10372212,0.21373207,0.05289616,0.13264696,0.39427266
0,0,UnitedKingdomBritishVirginIslands,British Virgin Islands,,2021-01-05 02:26:53.485864,2020-12-28 00:00:00.000000,0.07566830,0.14274698,0.33390647,22,43,100,15,28,61,0.04970569,0.09452155,0.20351873,0.05160846,0.13115039,0.39143266
0,0,UnitedKingdomBritishVirginIslands,British Virgin Islands,,2021-01-05 02:26:53.485864,2020-12-29 00:00:00.000000,0.06559560,0.12983390,0.31503403,19,39,95,13,26,58,0.04314588,0.08617190,0.19384156,0.05051477,0.12972512,0.38970873
0,0,UnitedKingdomBritishVirginIslands,British Virgin Islands,,2021-01-05 02:26:53.485864,2020-12-30 00:00:00.000000,0.05681009,0.11700392,0.29645368,17,35,89,11,23,55,0.03657350,0.07711132,0.18466979,0.05042749,0.12813909,0.38962798
0,0,UnitedKingdomBritishVirginIslands,British Virgin Islands,,2021-01-05 02:26:53.485864,2020-12-31 00:00:00.000000,0.04828333,0.10306844,0.27857481,14,31,84,9,20,53,0.03111826,0.06889412,0.17609688,0.05166395,0.12589519,0.41746350
0,0,UnitedKingdomBritishVirginIslands,British Virgin Islands,,2021-01-05 02:26:53.485864,2021-01-01 00:00:00.000000,0.03992803,0.09175339,0.26149158,12,27,79,7,19,50,0.02645650,0.06315353,0.16810593,0.05438055,0.12434388,0.41753234
0,0,UnitedKingdomBritishVirginIslands,British Virgin Islands,,2021-01-05 02:26:53.485864,2021-01-02 00:00:00.000000,0.03291642,0.08233217,0.24509689,9,24,74,6,17,48,0.02208520,0.05683743,0.16064775,0.05272764,0.12490915,0.40730140
0,0,UnitedKingdomBritishVirginIslands,British Virgin Islands,,2021-01-05 02:26:53.485864,2021-01-03 00:00:00.000000,0.02707413,0.07265768,0.24375311,8,21,73,5,15,46,0.01823976,0.04988826,0.15366972,0.05228658,0.12608127,0.41886701
0,0,UnitedKingdomBritishVirginIslands,British Virgin Islands,,2021-01-05 02:26:53.485864,2021-01-04 00:00:00.000000,0.02223178,0.06471133,0.24598035,6,19,74,4,13,44,0.01505216,0.04564242,0.14711338,0.05218371,0.12552985,0.43719233
0,0,UnitedKingdomBritishVirginIslands,British Virgin Islands,,2021-01-05 02:26:53.485864,2021-01-05 00:00:00.000000,0.01824723,0.05810863,0.24869551,5,17,75,3,12,42,0.01264158,0.04099956,0.14091850,0.05215962,0.12573069,0.44375982
0,0,UnitedKingdomBritishVirginIslands,British Virgin Islands,,2021-01-05 02:26:53.485864,2021-01-06 00:00:00.000000,0.01534096,0.05202299,0.25164803,4,15,76,3,10,40,0.01062392,0.03592800,0.13503539,0.05215395,0.12588769,0.44649226
0,0,UnitedKingdomBritishVirginIslands,British Virgin Islands,,2021-01-05 02:26:53.485864,2021-01-07 00:00:00.000000,0.01290132,0.04596472,0.25075359,3,13,75,2,9,39,0.00893233,0.03118071,0.12942788,0.05215260,0.12600539,0.44753288
0,0,UnitedKingdomBritishVirginIslands,British Virgin Islands,,2021-01-05 02:26:53.485864,2021-01-08 00:00:00.000000,0.01085190,0.04104146,0.24529073,3,12,74,2,8,39,0.00751246,0.02805327,0.12940253,0.05215227,0.12608895,0.44790595
0,0,UnitedKingdomBritishVirginIslands,British Virgin Islands,,2021-01-05 02:26:53.485864,2021-01-09 00:00:00.000000,0.00912941,0.03632754,0.23981694,2,10,72,1,7,39,0.00631968,0.02537985,0.13098752,0.05215219,0.12614547,0.44802848
0,0,UnitedKingdomBritishVirginIslands,British Virgin Islands,,2021-01-05 02:26:53.485864,2021-01-10 00:00:00.000000,0.00768116,0.03213861,0.23448101,2,9,70,1,6,40,0.00531711,0.02258826,0.13230140,0.05215217,0.12618235,0.44806024
0,0,UnitedKingdomBritishVirginIslands,British Virgin Islands,,2021-01-05 02:26:53.485864,2021-01-11 00:00:00.000000,0.00646318,0.02855610,0.22926823,1,8,69,1,6,39,0.00447408,0.02009159,0.12949424,0.05215216,0.12620581,0.44806092
0,0,UnitedKingdomBritishVirginIslands,British Virgin Islands,,2021-01-05 02:26:53.485864,2021-01-12 00:00:00.000000,0.00543865,0.02598516,0.22417040,1,7,67,1,5,38,0.00376500,0.01786900,0.12662918,0.05215215,0.12622050,0.44805240
0,0,UnitedKingdomBritishVirginIslands,British Virgin Islands,,2021-01-05 02:26:53.485864,2021-01-13 00:00:00.000000,0.00457675,0.02364936,0.21845896,1,7,66,0,4,37,0.00316847,0.01589130,0.12381283,0.05215215,0.12622960,0.44804236
0,0,UnitedKingdomBritishVirginIslands,British Virgin Islands,,2021-01-05 02:26:53.485864,2021-01-14 00:00:00.000000,0.00385157,0.02123058,0.21199941,1,6,64,0,4,36,0.00266657,0.01413201,0.12105825,0.05215215,0.12623521,0.44803329
0,0,UnitedKingdomBritishVirginIslands,British Virgin Islands,,2021-01-05 02:26:53.485864,2021-01-15 00:00:00.000000,0.00324140,0.01894723,0.20572744,0,5,62,0,3,35,0.00224424,0.01256728,0.11836296,0.05215215,0.12623864,0.44802577
0,0,UnitedKingdomBritishVirginIslands,British Virgin Islands,,2021-01-05 02:26:53.485864,2021-01-16 00:00:00.000000,0.00272796,0.01690998,0.19963746,0,5,60,0,3,34,0.00188884,0.01117572,0.11572519,0.05215215,0.12624075,0.44801976
0,0,UnitedKingdomBritishVirginIslands,British Virgin Islands,,2021-01-05 02:26:53.485864,2021-01-17 00:00:00.000000,0.00229590,0.01509238,0.19372422,0,4,58,0,3,34,0.00158976,0.00994565,0.11266275,0.05215215,0.12624203,0.44801504
0,0,UnitedKingdomBritishVirginIslands,British Virgin Islands,,2021-01-05 02:26:53.485864,2021-01-18 00:00:00.000000,0.00193230,0.01350010,0.18798270,0,4,56,0,2,33,0.00133805,0.00890602,0.10932660,0.05215215,0.12624282,0.44801136
