FIPS,HR_UID,nameid,province,region,analysisTime,dates,pointprevalence_025,pointprevalence_50,pointprevalence_975,pointinfections_025,pointinfections_50,pointinfections_975,pointinfectious_025,pointinfectious_50,pointinfectious_975,pointinfectiousprevalence_05,pointinfectiousprevalence_50,pointinfectiousprevalence_95,infectrate_025,infectrate_50,infectrate_975
18161,0,USIndianaUnion,Indiana,Union,2021-01-05 23:21:58.615645,2020-03-09 00:00:00.000000,0.00874982,0.05296427,0.15776976,0,3,11,0,2,6,0.00404760,0.03166896,0.09649979,0.31785842,0.52697922,0.70716832
18161,0,USIndianaUnion,Indiana,Union,2021-01-05 23:21:58.615645,2020-03-10 00:00:00.000000,0.00963952,0.05860331,0.17233190,0,4,12,0,2,6,0.00440766,0.02952241,0.09052694,0.31782505,0.52697922,0.70716583
18161,0,USIndianaUnion,Indiana,Union,2021-01-05 23:21:58.615645,2020-03-11 00:00:00.000000,0.01057364,0.06450288,0.18688378,0,4,13,0,2,6,0.00482366,0.02876378,0.08807559,0.31776315,0.52697920,0.70715822
18161,0,USIndianaUnion,Indiana,Union,2021-01-05 23:21:58.615645,2020-03-12 00:00:00.000000,0.01157700,0.06989852,0.20175746,0,4,14,0,2,6,0.00528441,0.02910520,0.09127496,0.31764848,0.52697918,0.70713218
18161,0,USIndianaUnion,Indiana,Union,2021-01-05 23:21:58.615645,2020-03-13 00:00:00.000000,0.01295830,0.07558541,0.21720197,0,5,15,0,2,6,0.00578456,0.03033453,0.09904498,0.31743639,0.52697911,0.70703781
18161,0,USIndianaUnion,Indiana,Union,2021-01-05 23:21:58.615645,2020-03-14 00:00:00.000000,0.01445072,0.08167661,0.23341004,1,5,16,0,2,7,0.00632201,0.03209751,0.10583731,0.31704547,0.52697875,0.70668669
18161,0,USIndianaUnion,Indiana,Union,2021-01-05 23:21:58.615645,2020-03-15 00:00:00.000000,0.01607725,0.08823431,0.25053253,1,6,17,0,2,8,0.00689628,0.03426097,0.11357445,0.31670652,0.52602861,0.70536947
18161,0,USIndianaUnion,Indiana,Union,2021-01-05 23:21:58.615645,2020-03-16 00:00:00.000000,0.04054210,0.11368615,0.29849853,2,8,21,0,2,8,0.00750733,0.03674552,0.12042371,0.31646600,0.52193426,0.70040302
18161,0,USIndianaUnion,Indiana,Union,2021-01-05 23:21:58.615645,2020-03-17 00:00:00.000000,0.05207238,0.14456322,0.35652417,3,10,25,0,3,9,0.01336746,0.04589779,0.13367995,0.31606884,0.51320706,0.66336957
18161,0,USIndianaUnion,Indiana,Union,2021-01-05 23:21:58.615645,2020-03-18 00:00:00.000000,0.06404603,0.17829488,0.41904306,4,12,29,1,4,10,0.02004351,0.05780492,0.15399644,0.31382520,0.49085719,0.66118281
18161,0,USIndianaUnion,Indiana,Union,2021-01-05 23:21:58.615645,2020-03-19 00:00:00.000000,0.07608257,0.20964562,0.47188105,5,14,33,1,4,12,0.02473163,0.06951037,0.17699871,0.30855542,0.46484975,0.64986791
18161,0,USIndianaUnion,Indiana,Union,2021-01-05 23:21:58.615645,2020-03-20 00:00:00.000000,0.08795233,0.24008160,0.51792857,6,16,36,2,5,14,0.02996321,0.07982629,0.19871693,0.29237719,0.43958623,0.61381811
18161,0,USIndianaUnion,Indiana,Union,2021-01-05 23:21:58.615645,2020-03-21 00:00:00.000000,0.09996587,0.26872593,0.59383578,7,18,41,2,6,15,0.03549887,0.09490450,0.21995726,0.27974735,0.41622275,0.59041418
18161,0,USIndianaUnion,Indiana,Union,2021-01-05 23:21:58.615645,2020-03-22 00:00:00.000000,0.11228782,0.29192087,0.63747348,7,20,44,2,7,17,0.04124716,0.10732183,0.24428729,0.25787403,0.38555105,0.58547493
18161,0,USIndianaUnion,Indiana,Union,2021-01-05 23:21:58.615645,2020-03-23 00:00:00.000000,0.13595479,0.32548491,0.66826808,9,22,47,3,8,19,0.04595142,0.11880300,0.27581578,0.23797033,0.36601426,0.56749466
18161,0,USIndianaUnion,Indiana,Union,2021-01-05 23:21:58.615645,2020-03-24 00:00:00.000000,0.14695256,0.35005045,0.72930451,10,24,51,3,9,20,0.05582074,0.13477044,0.29719885,0.22513159,0.34431460,0.52398520
18161,0,USIndianaUnion,Indiana,Union,2021-01-05 23:21:58.615645,2020-03-25 00:00:00.000000,0.17145964,0.38425834,0.80149637,12,27,56,4,10,22,0.06630291,0.15095033,0.31828467,0.21371353,0.32985487,0.52250218
18161,0,USIndianaUnion,Indiana,Union,2021-01-05 23:21:58.615645,2020-03-26 00:00:00.000000,0.19618678,0.41812678,0.85273552,13,29,60,5,11,24,0.07158688,0.16580662,0.35052401,0.18647666,0.32195619,0.51434327
18161,0,USIndianaUnion,Indiana,Union,2021-01-05 23:21:58.615645,2020-03-27 00:00:00.000000,0.22071275,0.45068370,0.86950631,15,31,61,5,13,27,0.08294609,0.18540280,0.38993681,0.18127043,0.30574187,0.47706311
18161,0,USIndianaUnion,Indiana,Union,2021-01-05 23:21:58.615645,2020-03-28 00:00:00.000000,0.23412172,0.47854856,0.93368311,16,33,65,6,14,30,0.09461181,0.20034429,0.43203094,0.17182554,0.28310597,0.43959035
18161,0,USIndianaUnion,Indiana,Union,2021-01-05 23:21:58.615645,2020-03-29 00:00:00.000000,0.24637371,0.50227299,0.96142990,17,35,67,7,15,32,0.10628193,0.21539765,0.46427852,0.17024964,0.27471417,0.41969906
18161,0,USIndianaUnion,Indiana,Union,2021-01-05 23:21:58.615645,2020-03-30 00:00:00.000000,0.26916322,0.52811475,0.97579108,18,37,68,8,16,35,0.11635824,0.22967781,0.50069685,0.16935622,0.26217237,0.39225920
18161,0,USIndianaUnion,Indiana,Union,2021-01-05 23:21:58.615645,2020-03-31 00:00:00.000000,0.29180674,0.56071302,1.00827320,20,39,71,8,17,37,0.12500789,0.24661766,0.53271792,0.16821903,0.24821571,0.38487394
18161,0,USIndianaUnion,Indiana,Union,2021-01-05 23:21:58.615645,2020-04-01 00:00:00.000000,0.31313100,0.58710745,1.03924584,22,41,73,9,18,39,0.13476311,0.26685611,0.56059509,0.16550094,0.23676209,0.38069664
18161,0,USIndianaUnion,Indiana,Union,2021-01-05 23:21:58.615645,2020-04-02 00:00:00.000000,0.33173979,0.61398954,1.06880154,23,43,75,10,20,41,0.14516375,0.28396260,0.58491309,0.15321962,0.22598844,0.37415674
18161,0,USIndianaUnion,Indiana,Union,2021-01-05 23:21:58.615645,2020-04-03 00:00:00.000000,0.33033901,0.63943411,1.09680139,23,45,77,10,20,42,0.15551465,0.29666586,0.60697943,0.14876190,0.21549102,0.34267212
18161,0,USIndianaUnion,Indiana,Union,2021-01-05 23:21:58.615645,2020-04-04 00:00:00.000000,0.32898622,0.66065233,1.12297815,23,46,79,11,21,44,0.16573352,0.30837139,0.62726474,0.14248263,0.20148762,0.32636312
18161,0,USIndianaUnion,Indiana,Union,2021-01-05 23:21:58.615645,2020-04-05 00:00:00.000000,0.32741766,0.67913156,1.14787525,23,47,80,12,22,45,0.17092664,0.31877351,0.64601357,0.13473415,0.18607004,0.29885873
18161,0,USIndianaUnion,Indiana,Union,2021-01-05 23:21:58.615645,2020-04-06 00:00:00.000000,0.31881687,0.69395734,1.16065033,22,48,81,12,23,46,0.17013991,0.32928438,0.66334389,0.12341845,0.18035669,0.29978042
18161,0,USIndianaUnion,Indiana,Union,2021-01-05 23:21:58.615645,2020-04-07 00:00:00.000000,0.31006432,0.71142415,1.17118198,21,50,82,11,24,47,0.16758683,0.34089343,0.67726302,0.11358345,0.17640057,0.29808443
18161,0,USIndianaUnion,Indiana,Union,2021-01-05 23:21:58.615645,2020-04-08 00:00:00.000000,0.32750201,0.73220685,1.19387617,23,51,84,11,24,48,0.16400641,0.35087115,0.68807317,0.10730450,0.17214616,0.29480977
18161,0,USIndianaUnion,Indiana,Union,2021-01-05 23:21:58.615645,2020-04-09 00:00:00.000000,0.35135277,0.73967503,1.25464051,24,52,88,11,25,48,0.15987609,0.35908971,0.69353998,0.10247728,0.16672788,0.28924984
18161,0,USIndianaUnion,Indiana,Union,2021-01-05 23:21:58.615645,2020-04-10 00:00:00.000000,0.36297132,0.73936946,1.27337088,25,52,89,11,25,49,0.16096221,0.36444544,0.69840953,0.09915142,0.15895237,0.28085285
18161,0,USIndianaUnion,Indiana,Union,2021-01-05 23:21:58.615645,2020-04-11 00:00:00.000000,0.35809680,0.75202172,1.28398269,25,53,90,12,26,49,0.17239309,0.37810536,0.70257701,0.09705354,0.15276550,0.27028761
18161,0,USIndianaUnion,Indiana,Union,2021-01-05 23:21:58.615645,2020-04-12 00:00:00.000000,0.35298045,0.75561597,1.34162883,24,53,94,12,27,50,0.18402073,0.38319036,0.71225706,0.09582257,0.14584842,0.25979219
18161,0,USIndianaUnion,Indiana,Union,2021-01-05 23:21:58.615645,2020-04-13 00:00:00.000000,0.35559417,0.75473015,1.33950606,25,53,94,12,27,50,0.18400555,0.39488228,0.71469191,0.09488170,0.14302158,0.24632894
18161,0,USIndianaUnion,Indiana,Union,2021-01-05 23:21:58.615645,2020-04-14 00:00:00.000000,0.35830814,0.75167178,1.33570225,25,53,94,12,27,50,0.18306389,0.38735914,0.71346522,0.09429980,0.14173036,0.23713197
18161,0,USIndianaUnion,Indiana,Union,2021-01-05 23:21:58.615645,2020-04-15 00:00:00.000000,0.36108576,0.74365935,1.36025808,25,52,95,12,27,50,0.18297558,0.38680063,0.71624796,0.09186129,0.13840410,0.23125933
18161,0,USIndianaUnion,Indiana,Union,2021-01-05 23:21:58.615645,2020-04-16 00:00:00.000000,0.36377409,0.73603292,1.38802292,25,51,97,12,27,52,0.18345563,0.38515412,0.73732721,0.09033362,0.13623481,0.22666193
18161,0,USIndianaUnion,Indiana,Union,2021-01-05 23:21:58.615645,2020-04-17 00:00:00.000000,0.36624935,0.72451043,1.40419941,25,51,99,13,26,53,0.18429661,0.38118616,0.75656739,0.08404850,0.13427229,0.22639738
18161,0,USIndianaUnion,Indiana,Union,2021-01-05 23:21:58.615645,2020-04-18 00:00:00.000000,0.35842704,0.71223699,1.40414379,25,50,99,13,26,54,0.18478543,0.37970982,0.77231703,0.08069760,0.13285882,0.22048568
18161,0,USIndianaUnion,Indiana,Union,2021-01-05 23:21:58.615645,2020-04-19 00:00:00.000000,0.34918908,0.71528269,1.39512984,24,50,98,12,26,55,0.17958765,0.37630956,0.78254921,0.07645443,0.13014673,0.21783876
18161,0,USIndianaUnion,Indiana,Union,2021-01-05 23:21:58.615645,2020-04-20 00:00:00.000000,0.34787907,0.70538308,1.36904921,24,49,96,12,26,55,0.17473576,0.37633179,0.78735642,0.07575663,0.12883220,0.21620917
18161,0,USIndianaUnion,Indiana,Union,2021-01-05 23:21:58.615645,2020-04-21 00:00:00.000000,0.38107540,0.69507343,1.34124246,26,49,94,11,26,55,0.16902817,0.37381189,0.78525704,0.07381275,0.12568954,0.21117603
18161,0,USIndianaUnion,Indiana,Union,2021-01-05 23:21:58.615645,2020-04-22 00:00:00.000000,0.39074024,0.69133797,1.31196155,27,48,92,12,26,54,0.17152105,0.37372463,0.77825696,0.07048831,0.12361364,0.20174883
18161,0,USIndianaUnion,Indiana,Union,2021-01-05 23:21:58.615645,2020-04-23 00:00:00.000000,0.37791047,0.69015664,1.29073848,26,48,91,13,25,54,0.18484897,0.36833798,0.76780445,0.06949912,0.11916874,0.19449003
18161,0,USIndianaUnion,Indiana,Union,2021-01-05 23:21:58.615645,2020-04-24 00:00:00.000000,0.36553674,0.69186063,1.30313462,25,48,91,14,25,53,0.19933598,0.36612135,0.75486198,0.06848913,0.11707412,0.17698971
18161,0,USIndianaUnion,Indiana,Union,2021-01-05 23:21:58.615645,2020-04-25 00:00:00.000000,0.35353004,0.67952940,1.34351707,24,47,94,14,25,53,0.20186952,0.36604381,0.76116421,0.06662893,0.11536874,0.17158824
18161,0,USIndianaUnion,Indiana,Union,2021-01-05 23:21:58.615645,2020-04-26 00:00:00.000000,0.34193127,0.68241916,1.31256834,24,48,92,13,25,56,0.19386809,0.36191707,0.79585367,0.06441484,0.11529552,0.16975325
18161,0,USIndianaUnion,Indiana,Union,2021-01-05 23:21:58.615645,2020-04-27 00:00:00.000000,0.32989468,0.67656213,1.33569012,23,47,94,13,25,56,0.18551597,0.35722748,0.79458466,0.06179299,0.11017222,0.16353056
18161,0,USIndianaUnion,Indiana,Union,2021-01-05 23:21:58.615645,2020-04-28 00:00:00.000000,0.31840201,0.67131541,1.36399486,22,47,96,12,24,55,0.17669008,0.35080116,0.78744417,0.06110075,0.10721321,0.16643711
18161,0,USIndianaUnion,Indiana,Union,2021-01-05 23:21:58.615645,2020-04-29 00:00:00.000000,0.30301760,0.67257431,1.37264358,21,47,96,11,24,55,0.16778262,0.34711101,0.78829136,0.06103381,0.10626458,0.16671347
18161,0,USIndianaUnion,Indiana,Union,2021-01-05 23:21:58.615645,2020-04-30 00:00:00.000000,0.28623749,0.66223340,1.36379722,20,46,96,11,24,56,0.15901757,0.34704709,0.79493941,0.06116856,0.10606892,0.16928188
18161,0,USIndianaUnion,Indiana,Union,2021-01-05 23:21:58.615645,2020-05-01 00:00:00.000000,0.28454333,0.66073855,1.35022765,20,46,95,10,24,56,0.15130261,0.35392016,0.80005415,0.06090418,0.10571074,0.17045255
18161,0,USIndianaUnion,Indiana,Union,2021-01-05 23:21:58.615645,2020-05-02 00:00:00.000000,0.27777631,0.65464135,1.37809817,19,46,97,10,24,55,0.14706080,0.35291767,0.79105792,0.05998561,0.10487271,0.16613780
18161,0,USIndianaUnion,Indiana,Union,2021-01-05 23:21:58.615645,2020-05-03 00:00:00.000000,0.26881917,0.65030827,1.38421961,18,45,97,10,24,55,0.14281639,0.34914717,0.78273848,0.05970567,0.10466691,0.16390126
18161,0,USIndianaUnion,Indiana,Union,2021-01-05 23:21:58.615645,2020-05-04 00:00:00.000000,0.25201902,0.61853147,1.34774333,17,43,95,9,24,54,0.14119127,0.34986145,0.77627223,0.05991085,0.10226805,0.17229306
18161,0,USIndianaUnion,Indiana,Union,2021-01-05 23:21:58.615645,2020-05-05 00:00:00.000000,0.23588296,0.58811527,1.31068584,16,41,92,9,24,55,0.14011041,0.34131712,0.78044045,0.05956142,0.10040365,0.17330195
18161,0,USIndianaUnion,Indiana,Union,2021-01-05 23:21:58.615645,2020-05-06 00:00:00.000000,0.22046843,0.56456390,1.27292170,15,39,89,9,23,54,0.13700930,0.32868565,0.77453988,0.05803152,0.10094729,0.16592715
18161,0,USIndianaUnion,Indiana,Union,2021-01-05 23:21:58.615645,2020-05-07 00:00:00.000000,0.20607444,0.53915057,1.23490041,14,38,87,9,22,53,0.12968677,0.31984285,0.76169285,0.05682121,0.10032652,0.16238612
18161,0,USIndianaUnion,Indiana,Union,2021-01-05 23:21:58.615645,2020-05-08 00:00:00.000000,0.19284730,0.51184151,1.19692346,13,36,84,8,21,51,0.12216426,0.30420976,0.73635697,0.05817249,0.09763008,0.16195929
18161,0,USIndianaUnion,Indiana,Union,2021-01-05 23:21:58.615645,2020-05-09 00:00:00.000000,0.18077814,0.48278209,1.15911578,12,34,81,8,20,50,0.11483852,0.29140063,0.72178217,0.05881323,0.09535160,0.16013703
18161,0,USIndianaUnion,Indiana,Union,2021-01-05 23:21:58.615645,2020-05-10 00:00:00.000000,0.16969671,0.45292188,1.11518364,11,31,78,7,19,49,0.10784662,0.27817978,0.70229026,0.05815573,0.09254400,0.16017588
18161,0,USIndianaUnion,Indiana,Union,2021-01-05 23:21:58.615645,2020-05-11 00:00:00.000000,0.20635719,0.44979876,1.07698434,14,31,75,7,18,47,0.10124957,0.26150314,0.67906002,0.05772665,0.09185679,0.16021124
18161,0,USIndianaUnion,Indiana,Union,2021-01-05 23:21:58.615645,2020-05-12 00:00:00.000000,0.21519759,0.44236763,1.06997671,15,31,75,7,17,46,0.10100779,0.25482059,0.65630316,0.05693167,0.09243151,0.16023860
18161,0,USIndianaUnion,Indiana,Union,2021-01-05 23:21:58.615645,2020-05-13 00:00:00.000000,0.23834737,0.43967728,1.04602464,16,31,73,7,17,44,0.10526310,0.24887756,0.63396204,0.05473265,0.09232925,0.16033210
18161,0,USIndianaUnion,Indiana,Union,2021-01-05 23:21:58.615645,2020-05-14 00:00:00.000000,0.23952667,0.44821307,1.02192812,16,31,72,7,17,44,0.11236633,0.24227606,0.63010443,0.05324506,0.09265591,0.16040742
18161,0,USIndianaUnion,Indiana,Union,2021-01-05 23:21:58.615645,2020-05-15 00:00:00.000000,0.23391501,0.44723559,0.99844527,16,31,70,8,16,44,0.11564117,0.23926566,0.62535345,0.05301739,0.09205170,0.15933890
18161,0,USIndianaUnion,Indiana,Union,2021-01-05 23:21:58.615645,2020-05-16 00:00:00.000000,0.22864193,0.44935904,0.97582244,16,31,68,7,16,43,0.11215413,0.23400359,0.61130530,0.05055829,0.09247142,0.15078776
18161,0,USIndianaUnion,Indiana,Union,2021-01-05 23:21:58.615645,2020-05-17 00:00:00.000000,0.22354394,0.45469942,0.95405511,15,32,67,7,16,42,0.10907392,0.23068265,0.59709386,0.04974105,0.09283296,0.14436059
18161,0,USIndianaUnion,Indiana,Union,2021-01-05 23:21:58.615645,2020-05-18 00:00:00.000000,0.22552202,0.46074280,0.95037989,15,32,67,7,16,41,0.10627876,0.22848295,0.58335895,0.04890117,0.09284995,0.14592025
18161,0,USIndianaUnion,Indiana,Union,2021-01-05 23:21:58.615645,2020-05-19 00:00:00.000000,0.21343090,0.46641416,0.94022346,15,32,66,8,16,40,0.12086075,0.23108423,0.57301060,0.04880365,0.09200172,0.14778045
18161,0,USIndianaUnion,Indiana,Union,2021-01-05 23:21:58.615645,2020-05-20 00:00:00.000000,0.20225901,0.46570099,0.93195477,14,32,65,8,16,39,0.11535348,0.23646306,0.56528118,0.04879595,0.09062887,0.14757127
18161,0,USIndianaUnion,Indiana,Union,2021-01-05 23:21:58.615645,2020-05-21 00:00:00.000000,0.19355308,0.45723033,0.92485056,13,32,65,7,17,39,0.10924650,0.24110702,0.55843948,0.04879236,0.09042308,0.14890493
18161,0,USIndianaUnion,Indiana,Union,2021-01-05 23:21:58.615645,2020-05-22 00:00:00.000000,0.19380168,0.45870148,0.91857765,13,32,64,7,17,38,0.10353941,0.24544998,0.55064701,0.04759602,0.09009878,0.15322790
18161,0,USIndianaUnion,Indiana,Union,2021-01-05 23:21:58.615645,2020-05-23 00:00:00.000000,0.18594067,0.45649111,0.95834577,13,32,67,6,17,38,0.09911552,0.24610428,0.54428993,0.04660721,0.08696613,0.15155923
18161,0,USIndianaUnion,Indiana,Union,2021-01-05 23:21:58.615645,2020-05-24 00:00:00.000000,0.19310616,0.46332006,0.95559625,13,32,67,7,17,38,0.09953184,0.24476618,0.53900181,0.04626674,0.08520096,0.15337679
18161,0,USIndianaUnion,Indiana,Union,2021-01-05 23:21:58.615645,2020-05-25 00:00:00.000000,0.21029174,0.47004103,0.92974135,14,33,65,7,17,37,0.10008728,0.24399244,0.53452883,0.04716641,0.08434316,0.15412830
18161,0,USIndianaUnion,Indiana,Union,2021-01-05 23:21:58.615645,2020-05-26 00:00:00.000000,0.22075760,0.47039938,0.90452326,15,33,63,7,17,37,0.10443715,0.24375354,0.52899360,0.04764469,0.08593592,0.15406367
18161,0,USIndianaUnion,Indiana,Union,2021-01-05 23:21:58.615645,2020-05-27 00:00:00.000000,0.22223404,0.48103997,0.90510829,15,33,63,7,17,36,0.10653704,0.24400903,0.52281660,0.04765448,0.08715091,0.15304290
18161,0,USIndianaUnion,Indiana,Union,2021-01-05 23:21:58.615645,2020-05-28 00:00:00.000000,0.23008401,0.48778550,0.91166587,16,34,64,7,17,36,0.10584826,0.24481708,0.51613249,0.04765736,0.08669879,0.15209151
18161,0,USIndianaUnion,Indiana,Union,2021-01-05 23:21:58.615645,2020-05-29 00:00:00.000000,0.23341822,0.49047210,0.91804808,16,34,64,7,17,35,0.10717107,0.24393522,0.50959655,0.04672678,0.08584941,0.15910172
18161,0,USIndianaUnion,Indiana,Union,2021-01-05 23:21:58.615645,2020-05-30 00:00:00.000000,0.23661323,0.48564033,0.92420998,16,34,65,7,17,35,0.11189385,0.24753873,0.50205407,0.04506823,0.08772525,0.16469601
18161,0,USIndianaUnion,Indiana,Union,2021-01-05 23:21:58.615645,2020-05-31 00:00:00.000000,0.23958241,0.48609096,0.93016425,16,34,65,8,17,35,0.11378446,0.25023191,0.49677649,0.04332304,0.09070083,0.16858092
18161,0,USIndianaUnion,Indiana,Union,2021-01-05 23:21:58.615645,2020-06-01 00:00:00.000000,0.23804122,0.48032082,0.92464257,16,33,65,8,17,35,0.11710555,0.25041745,0.49825643,0.04255633,0.09213179,0.17136094
18161,0,USIndianaUnion,Indiana,Union,2021-01-05 23:21:58.615645,2020-06-02 00:00:00.000000,0.23420414,0.47072410,0.91894807,16,33,64,8,17,35,0.11890011,0.24876689,0.50266583,0.04216360,0.09227608,0.17354152
18161,0,USIndianaUnion,Indiana,Union,2021-01-05 23:21:58.615645,2020-06-03 00:00:00.000000,0.24357720,0.47382755,0.91327852,17,33,64,8,17,35,0.11930180,0.24786460,0.50363657,0.04197970,0.09161807,0.17637745
18161,0,USIndianaUnion,Indiana,Union,2021-01-05 23:21:58.615645,2020-06-04 00:00:00.000000,0.25259422,0.47604872,0.92864393,17,33,65,8,17,36,0.12539119,0.25023214,0.51419518,0.04190821,0.09021086,0.17769146
18161,0,USIndianaUnion,Indiana,Union,2021-01-05 23:21:58.615645,2020-06-05 00:00:00.000000,0.26118798,0.47801435,0.91931405,18,33,64,8,17,37,0.12706634,0.24880048,0.52732708,0.04191999,0.09026229,0.17613835
18161,0,USIndianaUnion,Indiana,Union,2021-01-05 23:21:58.615645,2020-06-06 00:00:00.000000,0.26591867,0.47558093,0.91170727,18,33,64,8,17,36,0.12677067,0.24999724,0.52016141,0.04200491,0.08861109,0.17009088
18161,0,USIndianaUnion,Indiana,Union,2021-01-05 23:21:58.615645,2020-06-07 00:00:00.000000,0.26009117,0.48093380,0.93430700,18,33,65,8,17,36,0.12523701,0.25334748,0.51217748,0.04214608,0.09025158,0.15997281
18161,0,USIndianaUnion,Indiana,Union,2021-01-05 23:21:58.615645,2020-06-08 00:00:00.000000,0.25579565,0.47179692,0.92127537,18,33,64,8,18,35,0.12470888,0.25586334,0.50831242,0.04289211,0.09151964,0.15744674
18161,0,USIndianaUnion,Indiana,Union,2021-01-05 23:21:58.615645,2020-06-09 00:00:00.000000,0.25241519,0.46468156,0.90593782,17,32,63,8,17,36,0.12528357,0.24815123,0.51472780,0.04385692,0.09112794,0.15791324
18161,0,USIndianaUnion,Indiana,Union,2021-01-05 23:21:58.615645,2020-06-10 00:00:00.000000,0.24999785,0.45746257,0.88836329,17,32,62,9,17,36,0.12836771,0.24297268,0.51567028,0.04436384,0.09068400,0.15777909
18161,0,USIndianaUnion,Indiana,Union,2021-01-05 23:21:58.615645,2020-06-11 00:00:00.000000,0.25656070,0.46292497,0.87983097,18,32,62,9,17,36,0.13128630,0.24864188,0.51263874,0.04292715,0.08959996,0.15461314
18161,0,USIndianaUnion,Indiana,Union,2021-01-05 23:21:58.615645,2020-06-12 00:00:00.000000,0.25433117,0.46972729,0.87632601,17,33,61,9,17,35,0.12970980,0.25342227,0.50654158,0.03969228,0.09269827,0.15803676
18161,0,USIndianaUnion,Indiana,Union,2021-01-05 23:21:58.615645,2020-06-13 00:00:00.000000,0.25228823,0.46901639,0.87287989,17,33,61,9,17,35,0.12855018,0.25141160,0.49804232,0.03954168,0.09232447,0.15760745
18161,0,USIndianaUnion,Indiana,Union,2021-01-05 23:21:58.615645,2020-06-14 00:00:00.000000,0.25036018,0.47241125,0.86959968,17,33,61,9,17,34,0.12774519,0.24536503,0.48976872,0.03896060,0.09315895,0.15741269
18161,0,USIndianaUnion,Indiana,Union,2021-01-05 23:21:58.615645,2020-06-15 00:00:00.000000,0.25337588,0.47459511,0.89074464,17,33,62,8,17,34,0.12732091,0.24362096,0.49038605,0.03738853,0.09006276,0.15744726
18161,0,USIndianaUnion,Indiana,Union,2021-01-05 23:21:58.615645,2020-06-16 00:00:00.000000,0.25193314,0.48441152,0.91113988,17,34,64,8,17,34,0.12560779,0.24534918,0.49166172,0.03543468,0.09339841,0.15749062
18161,0,USIndianaUnion,Indiana,Union,2021-01-05 23:21:58.615645,2020-06-17 00:00:00.000000,0.25162930,0.48543809,0.93281736,17,34,65,8,17,34,0.12325336,0.24988183,0.49343955,0.03466851,0.09571114,0.15768279
18161,0,USIndianaUnion,Indiana,Union,2021-01-05 23:21:58.615645,2020-06-18 00:00:00.000000,0.24653406,0.48144321,0.95213952,17,33,67,8,17,34,0.12230662,0.24624898,0.49591011,0.03468564,0.09645224,0.17145719
18161,0,USIndianaUnion,Indiana,Union,2021-01-05 23:21:58.615645,2020-06-19 00:00:00.000000,0.23692525,0.48859834,0.97113965,16,34,68,8,17,35,0.11979913,0.24358578,0.50328791,0.03495931,0.09799210,0.17478414
18161,0,USIndianaUnion,Indiana,Union,2021-01-05 23:21:58.615645,2020-06-20 00:00:00.000000,0.22895171,0.49320397,0.99865561,16,34,70,8,17,35,0.11738976,0.24848518,0.50096797,0.03517165,0.09874405,0.17980807
18161,0,USIndianaUnion,Indiana,Union,2021-01-05 23:21:58.615645,2020-06-21 00:00:00.000000,0.22185091,0.48688068,1.01566553,15,34,71,8,17,35,0.11512520,0.25095798,0.50405665,0.03529852,0.10089008,0.18219002
18161,0,USIndianaUnion,Indiana,Union,2021-01-05 23:21:58.615645,2020-06-22 00:00:00.000000,0.23921613,0.48313715,1.01676954,16,34,71,7,18,35,0.11301410,0.25555340,0.50703832,0.03621201,0.10169784,0.19031029
18161,0,USIndianaUnion,Indiana,Union,2021-01-05 23:21:58.615645,2020-06-23 00:00:00.000000,0.25499510,0.48172068,1.01808898,17,33,71,8,18,36,0.11544709,0.26074696,0.51478187,0.03920971,0.10382278,0.19383333
18161,0,USIndianaUnion,Indiana,Union,2021-01-05 23:21:58.615645,2020-06-24 00:00:00.000000,0.25695822,0.47921373,1.01819670,18,33,71,8,18,37,0.12364264,0.26136701,0.53472922,0.04169524,0.10358244,0.19208537
18161,0,USIndianaUnion,Indiana,Union,2021-01-05 23:21:58.615645,2020-06-25 00:00:00.000000,0.26038703,0.47632206,1.01740781,18,33,71,9,18,38,0.12966311,0.26502761,0.54705143,0.04240514,0.10663743,0.18829136
18161,0,USIndianaUnion,Indiana,Union,2021-01-05 23:21:58.615645,2020-06-26 00:00:00.000000,0.26386513,0.47462354,1.02640926,18,33,72,9,19,38,0.13094105,0.26937427,0.55046128,0.04236154,0.10969224,0.18821163
18161,0,USIndianaUnion,Indiana,Union,2021-01-05 23:21:58.615645,2020-06-27 00:00:00.000000,0.26364059,0.48038879,1.05423889,18,33,74,9,19,40,0.13273836,0.27399742,0.56846274,0.04209391,0.11203812,0.19447996
18161,0,USIndianaUnion,Indiana,Union,2021-01-05 23:21:58.615645,2020-06-28 00:00:00.000000,0.26326930,0.49304189,1.11515171,18,34,78,9,19,40,0.13432414,0.27440742,0.58039887,0.04177226,0.11342319,0.19674569
18161,0,USIndianaUnion,Indiana,Union,2021-01-05 23:21:58.615645,2020-06-29 00:00:00.000000,0.26882966,0.50169768,1.12846506,18,35,79,9,19,41,0.13636709,0.27235853,0.58652857,0.04148270,0.11404074,0.20186772
18161,0,USIndianaUnion,Indiana,Union,2021-01-05 23:21:58.615645,2020-06-30 00:00:00.000000,0.27319620,0.49653106,1.11286161,19,35,78,9,19,41,0.13682626,0.27437767,0.58778653,0.04127520,0.11412375,0.20779412
18161,0,USIndianaUnion,Indiana,Union,2021-01-05 23:21:58.615645,2020-07-01 00:00:00.000000,0.26728325,0.49803205,1.12739217,18,35,79,9,19,41,0.13617904,0.27352035,0.58556318,0.04118179,0.11457178,0.20979349
18161,0,USIndianaUnion,Indiana,Union,2021-01-05 23:21:58.615645,2020-07-02 00:00:00.000000,0.26168060,0.49832862,1.15405907,18,35,81,9,19,41,0.13794503,0.27535829,0.59111186,0.04440682,0.11692372,0.21047453
18161,0,USIndianaUnion,Indiana,Union,2021-01-05 23:21:58.615645,2020-07-03 00:00:00.000000,0.25958647,0.50951814,1.17569431,18,35,82,10,19,42,0.14256030,0.27188264,0.60278123,0.04706449,0.11695603,0.21087410
18161,0,USIndianaUnion,Indiana,Union,2021-01-05 23:21:58.615645,2020-07-04 00:00:00.000000,0.26120222,0.51701352,1.18512917,18,36,83,10,19,43,0.14295595,0.26987202,0.61520951,0.04817051,0.11868290,0.21159110
18161,0,USIndianaUnion,Indiana,Union,2021-01-05 23:21:58.615645,2020-07-05 00:00:00.000000,0.26271189,0.52081891,1.20424462,18,36,84,10,19,44,0.14357434,0.27362311,0.62980511,0.04788629,0.11677263,0.21318383
18161,0,USIndianaUnion,Indiana,Union,2021-01-05 23:21:58.615645,2020-07-06 00:00:00.000000,0.31803448,0.55582240,1.21079952,22,39,85,10,19,46,0.14429217,0.27200270,0.66247953,0.04538131,0.12304168,0.21763741
18161,0,USIndianaUnion,Indiana,Union,2021-01-05 23:21:58.615645,2020-07-07 00:00:00.000000,0.32320990,0.62000072,1.21624677,22,43,85,11,19,48,0.15693365,0.27931064,0.68501008,0.04424522,0.12755183,0.22620987
18161,0,USIndianaUnion,Indiana,Union,2021-01-05 23:21:58.615645,2020-07-08 00:00:00.000000,0.34985247,0.63590678,1.22015198,24,44,86,11,20,49,0.16842779,0.29151070,0.69766364,0.04520597,0.12898100,0.23483796
18161,0,USIndianaUnion,Indiana,Union,2021-01-05 23:21:58.615645,2020-07-09 00:00:00.000000,0.36002796,0.68724661,1.22302652,25,48,86,12,21,49,0.17897343,0.30087441,0.70589157,0.05058270,0.13140810,0.24082465
18161,0,USIndianaUnion,Indiana,Union,2021-01-05 23:21:58.615645,2020-07-10 00:00:00.000000,0.37778320,0.70521017,1.27219825,26,49,89,13,22,50,0.19100202,0.31494415,0.71416467,0.05554923,0.13105667,0.24614249
18161,0,USIndianaUnion,Indiana,Union,2021-01-05 23:21:58.615645,2020-07-11 00:00:00.000000,0.37949416,0.70094950,1.31015490,26,49,92,13,23,51,0.18999785,0.32812735,0.72523494,0.05730275,0.13341831,0.25212986
18161,0,USIndianaUnion,Indiana,Union,2021-01-05 23:21:58.615645,2020-07-12 00:00:00.000000,0.37856224,0.74779481,1.35796183,26,52,95,14,23,51,0.20047193,0.33962370,0.73113437,0.06006515,0.13660325,0.25278880
18161,0,USIndianaUnion,Indiana,Union,2021-01-05 23:21:58.615645,2020-07-13 00:00:00.000000,0.39658571,0.76613623,1.39599244,27,54,98,14,24,51,0.19989581,0.35164345,0.73651684,0.06151616,0.14032010,0.25421514
18161,0,USIndianaUnion,Indiana,Union,2021-01-05 23:21:58.615645,2020-07-14 00:00:00.000000,0.43471622,0.79541335,1.43550725,30,56,101,14,25,52,0.21052283,0.36203408,0.74585486,0.06450296,0.14039013,0.25764063
18161,0,USIndianaUnion,Indiana,Union,2021-01-05 23:21:58.615645,2020-07-15 00:00:00.000000,0.43558305,0.81827978,1.48709350,30,57,104,15,26,53,0.22155267,0.37610633,0.75795296,0.06504385,0.13986210,0.26381589
18161,0,USIndianaUnion,Indiana,Union,2021-01-05 23:21:58.615645,2020-07-16 00:00:00.000000,0.43591243,0.84056715,1.55385558,30,59,109,15,28,54,0.22197169,0.39957040,0.77370739,0.06524801,0.14086453,0.27020460
18161,0,USIndianaUnion,Indiana,Union,2021-01-05 23:21:58.615645,2020-07-17 00:00:00.000000,0.43746137,0.86731522,1.65789332,30,61,116,15,28,55,0.22360196,0.40324233,0.79075143,0.06537666,0.14199941,0.27388493
18161,0,USIndianaUnion,Indiana,Union,2021-01-05 23:21:58.615645,2020-07-18 00:00:00.000000,0.43854473,0.90065727,1.74398555,30,63,123,15,30,57,0.22621932,0.42563042,0.80990008,0.06549639,0.14762861,0.27738192
18161,0,USIndianaUnion,Indiana,Union,2021-01-05 23:21:58.615645,2020-07-19 00:00:00.000000,0.44008007,0.92335946,1.82896874,31,65,129,16,31,58,0.22956040,0.44677852,0.83261350,0.06361882,0.14844419,0.27937050
18161,0,USIndianaUnion,Indiana,Union,2021-01-05 23:21:58.615645,2020-07-20 00:00:00.000000,0.51522053,0.97592486,1.94548194,36,68,137,16,33,60,0.23336907,0.46941139,0.85518113,0.06336951,0.14951158,0.28201954
18161,0,USIndianaUnion,Indiana,Union,2021-01-05 23:21:58.615645,2020-07-21 00:00:00.000000,0.56142672,1.02200970,1.99971076,39,72,141,17,33,61,0.24637355,0.48011323,0.87378351,0.06341116,0.15088201,0.27978796
18161,0,USIndianaUnion,Indiana,Union,2021-01-05 23:21:58.615645,2020-07-22 00:00:00.000000,0.58565134,1.04727822,2.02575897,41,73,142,18,34,63,0.26417148,0.49185025,0.90392760,0.06345893,0.15038054,0.28295936
18161,0,USIndianaUnion,Indiana,Union,2021-01-05 23:21:58.615645,2020-07-23 00:00:00.000000,0.59901827,1.09936554,2.04837865,42,77,144,20,36,68,0.28975782,0.51319770,0.96771829,0.06349684,0.15238690,0.28387972
18161,0,USIndianaUnion,Indiana,Union,2021-01-05 23:21:58.615645,2020-07-24 00:00:00.000000,0.62648894,1.14580133,2.11140943,44,80,148,21,38,70,0.30662692,0.54397631,1.00508453,0.06360996,0.15219920,0.28401062
18161,0,USIndianaUnion,Indiana,Union,2021-01-05 23:21:58.615645,2020-07-25 00:00:00.000000,0.63627501,1.20819715,2.23648554,44,85,157,21,39,75,0.31130983,0.56416719,1.06345620,0.06412866,0.15268649,0.28416695
18161,0,USIndianaUnion,Indiana,Union,2021-01-05 23:21:58.615645,2020-07-26 00:00:00.000000,0.61005956,1.25634041,2.28500072,43,88,161,22,41,79,0.31700911,0.58812896,1.12448802,0.06644683,0.15437498,0.28447258
18161,0,USIndianaUnion,Indiana,Union,2021-01-05 23:21:58.615645,2020-07-27 00:00:00.000000,0.68011594,1.27634999,2.28674345,47,90,161,22,42,83,0.31825410,0.60093194,1.18710103,0.06420055,0.15641618,0.28583931
18161,0,USIndianaUnion,Indiana,Union,2021-01-05 23:21:58.615645,2020-07-28 00:00:00.000000,0.72250587,1.30022741,2.28524292,50,91,161,23,44,86,0.32859438,0.63187432,1.22963673,0.06312776,0.15602548,0.28891762
18161,0,USIndianaUnion,Indiana,Union,2021-01-05 23:21:58.615645,2020-07-29 00:00:00.000000,0.73877841,1.32817125,2.27905667,52,93,160,24,46,88,0.35106799,0.65275898,1.25730707,0.06268556,0.15499894,0.28906590
18161,0,USIndianaUnion,Indiana,Union,2021-01-05 23:21:58.615645,2020-07-30 00:00:00.000000,0.74691579,1.37318300,2.26919699,52,96,160,26,47,89,0.37747664,0.67888252,1.27403858,0.06217924,0.15239714,0.28655034
18161,0,USIndianaUnion,Indiana,Union,2021-01-05 23:21:58.615645,2020-07-31 00:00:00.000000,0.76415723,1.41262271,2.25615408,53,99,159,28,48,90,0.40534665,0.68873333,1.28279539,0.06133590,0.15144819,0.28733399
18161,0,USIndianaUnion,Indiana,Union,2021-01-05 23:21:58.615645,2020-08-01 00:00:00.000000,0.78236470,1.45420206,2.23984489,55,102,157,29,49,90,0.41972395,0.69807408,1.28577152,0.06544513,0.14656068,0.28896415
18161,0,USIndianaUnion,Indiana,Union,2021-01-05 23:21:58.615645,2020-08-02 00:00:00.000000,0.78648379,1.48860347,2.21994575,55,105,156,30,51,90,0.42564726,0.73701767,1.28455212,0.06763143,0.14506032,0.29630975
18161,0,USIndianaUnion,Indiana,Union,2021-01-05 23:21:58.615645,2020-08-03 00:00:00.000000,0.79445973,1.48367685,2.20087332,56,104,155,30,52,90,0.43264413,0.74798120,1.28028026,0.06596911,0.15047027,0.30022307
18161,0,USIndianaUnion,Indiana,Union,2021-01-05 23:21:58.615645,2020-08-04 00:00:00.000000,0.80299258,1.48568675,2.18406135,56,104,154,30,52,90,0.43850173,0.74799318,1.27854026,0.06810750,0.15291317,0.30189576
18161,0,USIndianaUnion,Indiana,Union,2021-01-05 23:21:58.615645,2020-08-05 00:00:00.000000,0.81149524,1.49009474,2.21069265,57,105,155,31,53,90,0.43970421,0.75954942,1.28638582,0.07010111,0.15287130,0.30258393
18161,0,USIndianaUnion,Indiana,Union,2021-01-05 23:21:58.615645,2020-08-06 00:00:00.000000,0.80861023,1.51060531,2.23786015,57,106,157,31,53,91,0.44259601,0.75326432,1.30302733,0.07028171,0.15149051,0.30273612
18161,0,USIndianaUnion,Indiana,Union,2021-01-05 23:21:58.615645,2020-08-07 00:00:00.000000,0.76667044,1.53201018,2.26650935,54,108,159,30,52,93,0.43663447,0.75029388,1.31951116,0.07042002,0.15219759,0.30212678
18161,0,USIndianaUnion,Indiana,Union,2021-01-05 23:21:58.615645,2020-08-08 00:00:00.000000,0.72815605,1.54678611,2.29888051,51,109,162,29,54,94,0.41578796,0.76668376,1.33597906,0.07065148,0.15501925,0.30118508
18161,0,USIndianaUnion,Indiana,Union,2021-01-05 23:21:58.615645,2020-08-09 00:00:00.000000,0.71527347,1.56871583,2.33715712,50,110,164,27,54,95,0.39537596,0.77864107,1.35358359,0.07080552,0.15213406,0.30162592
18161,0,USIndianaUnion,Indiana,Union,2021-01-05 23:21:58.615645,2020-08-10 00:00:00.000000,0.70971685,1.53793712,2.36317049,50,108,166,26,54,96,0.37602035,0.77901455,1.37323341,0.07061079,0.15168599,0.30130485
18161,0,USIndianaUnion,Indiana,Union,2021-01-05 23:21:58.615645,2020-08-11 00:00:00.000000,0.70582695,1.52336626,2.36299431,49,107,166,25,55,98,0.35879293,0.78302265,1.39748949,0.07057439,0.15109193,0.29216180
18161,0,USIndianaUnion,Indiana,Union,2021-01-05 23:21:58.615645,2020-08-12 00:00:00.000000,0.70398859,1.52982366,2.33876215,49,107,164,24,55,99,0.34329431,0.78489153,1.41616910,0.07018835,0.15130249,0.27873351
18161,0,USIndianaUnion,Indiana,Union,2021-01-05 23:21:58.615645,2020-08-13 00:00:00.000000,0.70375966,1.52570061,2.32893921,49,107,164,23,54,98,0.32921259,0.77606400,1.39891117,0.06934957,0.15131958,0.27217554
18161,0,USIndianaUnion,Indiana,Union,2021-01-05 23:21:58.615645,2020-08-14 00:00:00.000000,0.70553705,1.52300591,2.31195411,49,107,163,22,55,97,0.31733053,0.78300759,1.38057031,0.07013088,0.14949834,0.27191005
18161,0,USIndianaUnion,Indiana,Union,2021-01-05 23:21:58.615645,2020-08-15 00:00:00.000000,0.70967939,1.51998967,2.28938443,50,107,161,22,54,96,0.31655490,0.77847541,1.36231798,0.07100974,0.14697445,0.27010527
18161,0,USIndianaUnion,Indiana,Union,2021-01-05 23:21:58.615645,2020-08-16 00:00:00.000000,0.71600964,1.53526882,2.26465885,50,108,159,22,54,96,0.31680444,0.77294802,1.37058809,0.07198651,0.14733926,0.26851049
18161,0,USIndianaUnion,Indiana,Union,2021-01-05 23:21:58.615645,2020-08-17 00:00:00.000000,0.75670920,1.50546215,2.27340285,53,106,160,22,54,94,0.31795222,0.76740769,1.34201541,0.07300915,0.14203606,0.26753149
18161,0,USIndianaUnion,Indiana,Union,2021-01-05 23:21:58.615645,2020-08-18 00:00:00.000000,0.79801672,1.49439617,2.26217348,56,105,159,22,54,92,0.32494354,0.76961970,1.31601097,0.07396157,0.14162104,0.26694679
18161,0,USIndianaUnion,Indiana,Union,2021-01-05 23:21:58.615645,2020-08-19 00:00:00.000000,0.81455921,1.48345377,2.19799962,57,104,155,23,54,91,0.33599418,0.77601962,1.29554161,0.07470983,0.13926277,0.26641501
18161,0,USIndianaUnion,Indiana,Union,2021-01-05 23:21:58.615645,2020-08-20 00:00:00.000000,0.79457736,1.45550424,2.17449558,56,102,153,24,54,92,0.34973231,0.76555971,1.31405504,0.07514519,0.14104277,0.26549231
18161,0,USIndianaUnion,Indiana,Union,2021-01-05 23:21:58.615645,2020-08-21 00:00:00.000000,0.77522668,1.44775345,2.20169719,54,102,155,25,54,93,0.36510264,0.76622532,1.33047675,0.07516853,0.14237989,0.26260117
18161,0,USIndianaUnion,Indiana,Union,2021-01-05 23:21:58.615645,2020-08-22 00:00:00.000000,0.75676002,1.43240493,2.23568528,53,101,157,26,54,91,0.38132640,0.76941391,1.30062504,0.07460074,0.14186925,0.25926114
18161,0,USIndianaUnion,Indiana,Union,2021-01-05 23:21:58.615645,2020-08-23 00:00:00.000000,0.73936386,1.42151612,2.27348540,52,100,160,28,53,89,0.39785402,0.75334817,1.26237077,0.07335424,0.14530239,0.25223938
18161,0,USIndianaUnion,Indiana,Union,2021-01-05 23:21:58.615645,2020-08-24 00:00:00.000000,0.75604415,1.39901958,2.27267668,53,98,160,29,52,89,0.41416039,0.74423511,1.26358204,0.07173140,0.14678029,0.24255364
18161,0,USIndianaUnion,Indiana,Union,2021-01-05 23:21:58.615645,2020-08-25 00:00:00.000000,0.77385478,1.38574686,2.27139294,54,97,160,29,51,89,0.41232188,0.73226011,1.26432886,0.07047544,0.14491332,0.23885266
18161,0,USIndianaUnion,Indiana,Union,2021-01-05 23:21:58.615645,2020-08-26 00:00:00.000000,0.77444051,1.36756289,2.26843826,54,96,160,29,50,88,0.41215453,0.72098812,1.25402173,0.06932808,0.14172329,0.24146008
18161,0,USIndianaUnion,Indiana,Union,2021-01-05 23:21:58.615645,2020-08-27 00:00:00.000000,0.74575717,1.31651169,2.26423641,52,92,159,28,50,87,0.41006735,0.71660173,1.23607260,0.06889143,0.14341978,0.24812584
18161,0,USIndianaUnion,Indiana,Union,2021-01-05 23:21:58.615645,2020-08-28 00:00:00.000000,0.72357854,1.27986784,2.25882586,51,90,159,28,49,85,0.40064779,0.70275888,1.21298015,0.06872620,0.14531449,0.25895795
18161,0,USIndianaUnion,Indiana,Union,2021-01-05 23:21:58.615645,2020-08-29 00:00:00.000000,0.74627219,1.25212963,2.25192730,52,88,158,27,49,83,0.39141311,0.69622478,1.18647175,0.06884361,0.14636114,0.26279589
18161,0,USIndianaUnion,Indiana,Union,2021-01-05 23:21:58.615645,2020-08-30 00:00:00.000000,0.74560689,1.26479089,2.24360130,52,89,158,26,48,81,0.38253037,0.68619285,1.16116774,0.07282972,0.14812604,0.26086480
18161,0,USIndianaUnion,Indiana,Union,2021-01-05 23:21:58.615645,2020-08-31 00:00:00.000000,0.75028944,1.28027496,2.19590718,52,90,154,26,47,81,0.37406037,0.67365164,1.15475259,0.07812952,0.14828936,0.25907869
18161,0,USIndianaUnion,Indiana,Union,2021-01-05 23:21:58.615645,2020-09-01 00:00:00.000000,0.74619155,1.24822894,2.14790904,52,88,151,26,46,80,0.36870441,0.66054948,1.14267972,0.08604341,0.14759686,0.25923820
18161,0,USIndianaUnion,Indiana,Union,2021-01-05 23:21:58.615645,2020-09-02 00:00:00.000000,0.73466309,1.22412698,2.09942507,51,86,148,26,46,79,0.36975596,0.66411052,1.12635633,0.08884397,0.14746106,0.25926348
18161,0,USIndianaUnion,Indiana,Union,2021-01-05 23:21:58.615645,2020-09-03 00:00:00.000000,0.72343580,1.21045158,2.05130609,51,85,144,26,46,78,0.37084866,0.66444575,1.10701284,0.08947328,0.15102627,0.25885305
18161,0,USIndianaUnion,Indiana,Union,2021-01-05 23:21:58.615645,2020-09-04 00:00:00.000000,0.71273369,1.19084673,2.02317140,50,84,142,26,46,76,0.37034781,0.66049120,1.08973580,0.08945902,0.15383335,0.25677049
18161,0,USIndianaUnion,Indiana,Union,2021-01-05 23:21:58.615645,2020-09-05 00:00:00.000000,0.70063275,1.18428881,2.03509330,49,83,143,26,45,77,0.36878206,0.65058523,1.09334313,0.08971879,0.15277990,0.25274180
18161,0,USIndianaUnion,Indiana,Union,2021-01-05 23:21:58.615645,2020-09-06 00:00:00.000000,0.69432283,1.16860990,1.98628860,48,82,140,25,45,77,0.36651847,0.64409328,1.09614248,0.09095090,0.15214880,0.25243207
18161,0,USIndianaUnion,Indiana,Union,2021-01-05 23:21:58.615645,2020-09-07 00:00:00.000000,0.68414947,1.14616255,1.92479222,48,80,135,25,44,77,0.36127767,0.63733559,1.09860575,0.09113231,0.15651734,0.24703102
18161,0,USIndianaUnion,Indiana,Union,2021-01-05 23:21:58.615645,2020-09-08 00:00:00.000000,0.67452941,1.13131401,1.90601326,47,79,134,25,44,77,0.35995595,0.63751703,1.10130669,0.09117341,0.16721116,0.25115669
18161,0,USIndianaUnion,Indiana,Union,2021-01-05 23:21:58.615645,2020-09-09 00:00:00.000000,0.66545864,1.12759873,1.91211210,46,79,134,25,44,77,0.35812617,0.62532872,1.10430902,0.09130165,0.16868065,0.25355443
18161,0,USIndianaUnion,Indiana,Union,2021-01-05 23:21:58.615645,2020-09-10 00:00:00.000000,0.65708501,1.12258576,1.91846681,46,79,135,25,43,78,0.35598282,0.61952750,1.10743701,0.09222558,0.16963532,0.25501105
18161,0,USIndianaUnion,Indiana,Union,2021-01-05 23:21:58.615645,2020-09-11 00:00:00.000000,0.64961214,1.10525341,1.92129098,45,77,135,24,42,78,0.35367675,0.60201183,1.11039871,0.09808155,0.16920149,0.25537826
18161,0,USIndianaUnion,Indiana,Union,2021-01-05 23:21:58.615645,2020-09-12 00:00:00.000000,0.64322765,1.09067394,1.92215564,45,76,135,24,41,78,0.34698806,0.58756701,1.10668537,0.11312728,0.17044035,0.25502983
18161,0,USIndianaUnion,Indiana,Union,2021-01-05 23:21:58.615645,2020-09-13 00:00:00.000000,0.63798450,1.08171091,1.92220260,45,76,135,23,41,76,0.33991030,0.58321849,1.08704973,0.12178073,0.17273646,0.25822109
18161,0,USIndianaUnion,Indiana,Union,2021-01-05 23:21:58.615645,2020-09-14 00:00:00.000000,0.62751897,1.06853936,1.92558163,44,75,135,23,40,75,0.33340717,0.57601855,1.06811711,0.12385588,0.17576003,0.26246113
18161,0,USIndianaUnion,Indiana,Union,2021-01-05 23:21:58.615645,2020-09-15 00:00:00.000000,0.61779573,1.05890928,1.92873402,43,74,136,23,40,74,0.33254678,0.57016128,1.05345665,0.12434035,0.17996598,0.26396657
18161,0,USIndianaUnion,Indiana,Union,2021-01-05 23:21:58.615645,2020-09-16 00:00:00.000000,0.60857768,1.06315200,1.93191500,42,74,136,23,40,73,0.33605822,0.56856107,1.04467931,0.12464004,0.18638880,0.26564370
18161,0,USIndianaUnion,Indiana,Union,2021-01-05 23:21:58.615645,2020-09-17 00:00:00.000000,0.60492089,1.07514883,1.93589546,42,75,136,23,39,73,0.33733158,0.56535016,1.04831752,0.12746084,0.18954737,0.26912836
18161,0,USIndianaUnion,Indiana,Union,2021-01-05 23:21:58.615645,2020-09-18 00:00:00.000000,0.62624797,1.08175076,1.94397827,44,76,137,23,40,74,0.33384975,0.56767753,1.05385532,0.12843113,0.19096040,0.27829710
18161,0,USIndianaUnion,Indiana,Union,2021-01-05 23:21:58.615645,2020-09-19 00:00:00.000000,0.62356376,1.09328489,1.96192402,43,77,138,23,40,74,0.33052167,0.56825490,1.06085440,0.13322899,0.19965581,0.29932828
18161,0,USIndianaUnion,Indiana,Union,2021-01-05 23:21:58.615645,2020-09-20 00:00:00.000000,0.62324201,1.11675979,1.98703772,43,78,140,23,40,74,0.32740194,0.57289621,1.05414197,0.13163713,0.20790699,0.31852120
18161,0,USIndianaUnion,Indiana,Union,2021-01-05 23:21:58.615645,2020-09-21 00:00:00.000000,0.64816058,1.13098762,2.00561993,45,79,141,22,40,73,0.32456033,0.57744120,1.04405814,0.12823860,0.21308542,0.32936780
18161,0,USIndianaUnion,Indiana,Union,2021-01-05 23:21:58.615645,2020-09-22 00:00:00.000000,0.67611595,1.14561502,2.03780309,47,80,143,23,41,73,0.33018035,0.58162106,1.04115808,0.12786351,0.21465708,0.34629858
18161,0,USIndianaUnion,Indiana,Union,2021-01-05 23:21:58.615645,2020-09-23 00:00:00.000000,0.70690836,1.15712883,2.04815767,49,81,144,24,41,75,0.34208363,0.58903580,1.06428129,0.12963610,0.22435564,0.35292037
18161,0,USIndianaUnion,Indiana,Union,2021-01-05 23:21:58.615645,2020-09-24 00:00:00.000000,0.74479558,1.17352992,2.08084345,52,82,146,24,41,76,0.35243477,0.59322081,1.08420658,0.14152628,0.23223247,0.35542939
18161,0,USIndianaUnion,Indiana,Union,2021-01-05 23:21:58.615645,2020-09-25 00:00:00.000000,0.78525663,1.18435170,2.12579793,55,83,149,24,42,76,0.35127780,0.59891088,1.08264772,0.14583517,0.24089145,0.35667876
18161,0,USIndianaUnion,Indiana,Union,2021-01-05 23:21:58.615645,2020-09-26 00:00:00.000000,0.79668762,1.21144481,2.12868426,56,85,150,24,42,77,0.34769496,0.59829776,1.10002743,0.14910251,0.24590849,0.35865094
18161,0,USIndianaUnion,Indiana,Union,2021-01-05 23:21:58.615645,2020-09-27 00:00:00.000000,0.80926349,1.24830965,2.19935466,57,88,155,24,42,79,0.34582476,0.60261300,1.12601687,0.16827808,0.25792216,0.37366062
18161,0,USIndianaUnion,Indiana,Union,2021-01-05 23:21:58.615645,2020-09-28 00:00:00.000000,0.83391809,1.27851744,2.25937470,58,90,159,24,43,81,0.34694823,0.61514819,1.15677489,0.17197281,0.26545552,0.38624963
18161,0,USIndianaUnion,Indiana,Union,2021-01-05 23:21:58.615645,2020-09-29 00:00:00.000000,0.86172434,1.31708469,2.31822326,60,92,163,24,44,83,0.35199587,0.63622596,1.18963018,0.18725806,0.28047245,0.40048144
18161,0,USIndianaUnion,Indiana,Union,2021-01-05 23:21:58.615645,2020-09-30 00:00:00.000000,0.89116526,1.36975462,2.37836934,62,96,167,25,45,86,0.35996202,0.64812829,1.22485536,0.20821469,0.29000120,0.41337441
18161,0,USIndianaUnion,Indiana,Union,2021-01-05 23:21:58.615645,2020-10-01 00:00:00.000000,0.92160978,1.41614076,2.44128351,65,99,172,26,47,89,0.36991900,0.67360402,1.26316368,0.21334963,0.29355725,0.42061600
18161,0,USIndianaUnion,Indiana,Union,2021-01-05 23:21:58.615645,2020-10-02 00:00:00.000000,0.95163355,1.46537146,2.50750446,67,103,176,26,49,92,0.38120724,0.70441090,1.30553010,0.21616898,0.30902626,0.44468778
18161,0,USIndianaUnion,Indiana,Union,2021-01-05 23:21:58.615645,2020-10-03 00:00:00.000000,0.98003524,1.51642573,2.60243290,69,106,183,27,51,94,0.39339641,0.73389613,1.34278405,0.23579623,0.32708311,0.47812188
18161,0,USIndianaUnion,Indiana,Union,2021-01-05 23:21:58.615645,2020-10-04 00:00:00.000000,1.01227947,1.58135178,2.75625023,71,111,194,28,53,97,0.40623311,0.75554809,1.37661816,0.25038910,0.34324595,0.49691200
18161,0,USIndianaUnion,Indiana,Union,2021-01-05 23:21:58.615645,2020-10-05 00:00:00.000000,1.06697200,1.68013792,2.90275555,75,118,204,29,55,99,0.41966540,0.78122162,1.41317720,0.25347791,0.35292912,0.50685728
18161,0,USIndianaUnion,Indiana,Union,2021-01-05 23:21:58.615645,2020-10-06 00:00:00.000000,1.15708389,1.77712385,3.05490496,81,125,215,31,57,102,0.44861074,0.81410010,1.45030807,0.25665686,0.36056413,0.51374916
18161,0,USIndianaUnion,Indiana,Union,2021-01-05 23:21:58.615645,2020-10-07 00:00:00.000000,1.20508312,1.89056560,3.21231798,85,133,226,34,60,104,0.48851534,0.85803593,1.48842803,0.25827974,0.36727245,0.52070355
18161,0,USIndianaUnion,Indiana,Union,2021-01-05 23:21:58.615645,2020-10-08 00:00:00.000000,1.25104970,2.01377821,3.34274511,88,142,235,37,64,107,0.53652755,0.90982552,1.53005178,0.26143861,0.37112130,0.52762613
18161,0,USIndianaUnion,Indiana,Union,2021-01-05 23:21:58.615645,2020-10-09 00:00:00.000000,1.30208542,2.13501386,3.47023051,91,150,244,41,67,113,0.59050158,0.95793355,1.60862363,0.26980190,0.38408314,0.53764811
18161,0,USIndianaUnion,Indiana,Union,2021-01-05 23:21:58.615645,2020-10-10 00:00:00.000000,1.35969363,2.29492840,3.60786467,95,161,254,45,71,119,0.64908334,1.00809179,1.69059602,0.28991649,0.39944514,0.55967887
18161,0,USIndianaUnion,Indiana,Union,2021-01-05 23:21:58.615645,2020-10-11 00:00:00.000000,1.42506296,2.44372071,3.76346999,100,172,265,49,74,125,0.70758180,1.06193532,1.77622478,0.30120471,0.41355306,0.57657457
18161,0,USIndianaUnion,Indiana,Union,2021-01-05 23:21:58.615645,2020-10-12 00:00:00.000000,1.55288205,2.54385821,3.88171821,109,179,273,52,79,131,0.73732174,1.12984673,1.86611469,0.31276523,0.42109171,0.58761382
18161,0,USIndianaUnion,Indiana,Union,2021-01-05 23:21:58.615645,2020-10-13 00:00:00.000000,1.73366043,2.64790276,4.01289775,122,186,283,54,84,137,0.77714099,1.19807623,1.95414759,0.31387359,0.42936400,0.60692559
18161,0,USIndianaUnion,Indiana,Union,2021-01-05 23:21:58.615645,2020-10-14 00:00:00.000000,1.83468323,2.78113575,4.17771456,129,196,294,58,89,144,0.82453362,1.27211583,2.04237894,0.31557814,0.45039933,0.61700425
18161,0,USIndianaUnion,Indiana,Union,2021-01-05 23:21:58.615645,2020-10-15 00:00:00.000000,1.94480299,2.97081048,4.49867810,137,209,317,61,94,152,0.87704975,1.34003292,2.15513816,0.31554039,0.45703528,0.61713035
18161,0,USIndianaUnion,Indiana,Union,2021-01-05 23:21:58.615645,2020-10-16 00:00:00.000000,2.06353443,3.14684127,4.81576290,145,221,339,65,100,157,0.92802802,1.43129771,2.23502442,0.31568672,0.47059362,0.62830047
18161,0,USIndianaUnion,Indiana,Union,2021-01-05 23:21:58.615645,2020-10-17 00:00:00.000000,2.20670340,3.35728532,5.04649612,155,236,355,69,107,164,0.98344537,1.52458583,2.32684462,0.31813009,0.48469599,0.64783332
18161,0,USIndianaUnion,Indiana,Union,2021-01-05 23:21:58.615645,2020-10-18 00:00:00.000000,2.37772003,3.58283066,5.29354014,167,252,373,73,113,171,1.04553924,1.60489113,2.43179071,0.32211025,0.48128225,0.65913812
18161,0,USIndianaUnion,Indiana,Union,2021-01-05 23:21:58.615645,2020-10-19 00:00:00.000000,2.54359443,3.81374425,5.54029883,179,269,390,78,120,179,1.11716444,1.70135670,2.54428017,0.32210147,0.48789213,0.68455786
18161,0,USIndianaUnion,Indiana,Union,2021-01-05 23:21:58.615645,2020-10-20 00:00:00.000000,2.71628587,4.01715840,5.79682701,191,283,408,83,127,187,1.18962084,1.80321829,2.66234854,0.32231905,0.48533070,0.68719571
18161,0,USIndianaUnion,Indiana,Union,2021-01-05 23:21:58.615645,2020-10-21 00:00:00.000000,2.89556773,4.27603674,6.13424640,204,301,432,90,135,196,1.27905302,1.91427923,2.78582963,0.32297817,0.49321642,0.68764536
18161,0,USIndianaUnion,Indiana,Union,2021-01-05 23:21:58.615645,2020-10-22 00:00:00.000000,3.08299916,4.55991835,6.40147539,217,321,451,96,143,205,1.36517943,2.03017005,2.91448995,0.32810976,0.49726913,0.67431605
18161,0,USIndianaUnion,Indiana,Union,2021-01-05 23:21:58.615645,2020-10-23 00:00:00.000000,3.28752134,4.81091941,6.82509774,231,339,481,102,151,215,1.45688224,2.14562078,3.04823574,0.32999052,0.49675513,0.66263626
18161,0,USIndianaUnion,Indiana,Union,2021-01-05 23:21:58.615645,2020-10-24 00:00:00.000000,3.52768310,5.07336285,7.29622044,248,357,514,109,162,224,1.55298812,2.29698136,3.18724482,0.34223135,0.49260231,0.68592490
18161,0,USIndianaUnion,Indiana,Union,2021-01-05 23:21:58.615645,2020-10-25 00:00:00.000000,3.74848809,5.36110260,7.75912848,264,378,547,116,174,235,1.65579175,2.47085953,3.34421988,0.37426788,0.49307621,0.68735853
18161,0,USIndianaUnion,Indiana,Union,2021-01-05 23:21:58.615645,2020-10-26 00:00:00.000000,3.87575578,5.68816970,8.22508105,273,401,580,124,185,252,1.76648081,2.62604079,3.57615854,0.37794549,0.50327985,0.69177756
18161,0,USIndianaUnion,Indiana,Union,2021-01-05 23:21:58.615645,2020-10-27 00:00:00.000000,4.02081318,6.02418357,8.64244968,283,424,609,133,194,268,1.88995672,2.76039720,3.81069305,0.38090145,0.50402914,0.69284096
18161,0,USIndianaUnion,Indiana,Union,2021-01-05 23:21:58.615645,2020-10-28 00:00:00.000000,4.19841215,6.38561364,9.03108214,296,450,637,145,203,280,2.06009078,2.88712237,3.97472376,0.37837705,0.50552123,0.69361118
18161,0,USIndianaUnion,Indiana,Union,2021-01-05 23:21:58.615645,2020-10-29 00:00:00.000000,4.41185116,6.70039807,9.42000804,311,472,664,149,214,292,2.12332406,3.04040962,4.14169959,0.37749586,0.51664594,0.69390915
18161,0,USIndianaUnion,Indiana,Union,2021-01-05 23:21:58.615645,2020-10-30 00:00:00.000000,4.65444364,6.99849593,9.77070809,328,493,689,155,227,309,2.20325603,3.22316227,4.39286053,0.37495530,0.51457293,0.68014750
18161,0,USIndianaUnion,Indiana,Union,2021-01-05 23:21:58.615645,2020-10-31 00:00:00.000000,4.93075797,7.38495102,10.09811929,347,520,712,161,240,329,2.28866277,3.41041199,4.67305130,0.37267602,0.50770634,0.67554700
18161,0,USIndianaUnion,Indiana,Union,2021-01-05 23:21:58.615645,2020-11-01 00:00:00.000000,5.24017099,7.70647846,10.41937055,369,543,734,169,251,344,2.40054828,3.57096034,4.87831939,0.36608917,0.49156650,0.68411742
18161,0,USIndianaUnion,Indiana,Union,2021-01-05 23:21:58.615645,2020-11-02 00:00:00.000000,5.54459329,7.99381517,10.95619781,391,563,772,179,262,357,2.53825399,3.71949167,5.06170007,0.36549039,0.48289760,0.69035798
18161,0,USIndianaUnion,Indiana,Union,2021-01-05 23:21:58.615645,2020-11-03 00:00:00.000000,5.85958224,8.28848793,11.48878381,413,584,810,189,273,371,2.68836769,3.87834404,5.26540237,0.36575292,0.48043509,0.67368984
18161,0,USIndianaUnion,Indiana,Union,2021-01-05 23:21:58.615645,2020-11-04 00:00:00.000000,6.17810680,8.69395206,12.02379961,435,613,848,200,287,393,2.84658333,4.07041709,5.57905062,0.36647737,0.47137743,0.67305794
18161,0,USIndianaUnion,Indiana,Union,2021-01-05 23:21:58.615645,2020-11-05 00:00:00.000000,6.49432836,9.13556989,12.55694112,458,644,885,212,301,415,3.00916736,4.27844324,5.89553179,0.35385827,0.46782465,0.67452693
18161,0,USIndianaUnion,Indiana,Union,2021-01-05 23:21:58.615645,2020-11-06 00:00:00.000000,6.80355096,9.51511479,13.06281084,479,671,921,223,315,434,3.17220495,4.46903651,6.16010806,0.34213639,0.45821452,0.67532972
18161,0,USIndianaUnion,Indiana,Union,2021-01-05 23:21:58.615645,2020-11-07 00:00:00.000000,7.10407312,9.85026289,13.47866187,501,694,950,235,326,449,3.33214810,4.63478896,6.36718609,0.34191890,0.43891534,0.63994362
18161,0,USIndianaUnion,Indiana,Union,2021-01-05 23:21:58.615645,2020-11-08 00:00:00.000000,7.39686857,10.20752183,13.75747516,521,720,970,245,338,462,3.48673162,4.79322052,6.56214140,0.33946345,0.42565219,0.63125421
18161,0,USIndianaUnion,Indiana,Union,2021-01-05 23:21:58.615645,2020-11-09 00:00:00.000000,7.68203751,10.45752603,13.93865091,541,737,983,256,349,475,3.63523953,4.95452796,6.74242119,0.33104253,0.42107342,0.62019521
18161,0,USIndianaUnion,Indiana,Union,2021-01-05 23:21:58.615645,2020-11-10 00:00:00.000000,7.95619602,10.67695483,14.34006376,561,753,1011,265,357,487,3.76539721,5.07163096,6.91391602,0.32784064,0.41113528,0.61635166
18161,0,USIndianaUnion,Indiana,Union,2021-01-05 23:21:58.615645,2020-11-11 00:00:00.000000,8.20666751,10.84604086,14.61800290,578,765,1031,271,368,499,3.84410289,5.22679481,7.07699439,0.31676235,0.40333313,0.60653418
18161,0,USIndianaUnion,Indiana,Union,2021-01-05 23:21:58.615645,2020-11-12 00:00:00.000000,8.39069085,10.94144412,14.64563696,591,771,1033,275,377,510,3.91052917,5.35121667,7.23200832,0.30028695,0.39987466,0.58398246
18161,0,USIndianaUnion,Indiana,Union,2021-01-05 23:21:58.615645,2020-11-13 00:00:00.000000,8.44909057,11.07922203,14.63283901,595,781,1032,279,385,523,3.96782944,5.46451189,7.41894069,0.28919317,0.39201065,0.54246445
18161,0,USIndianaUnion,Indiana,Union,2021-01-05 23:21:58.615645,2020-11-14 00:00:00.000000,8.41094094,11.18192734,14.62548434,593,788,1031,283,392,537,4.01858814,5.56934698,7.62292630,0.28052185,0.38962253,0.52583867
18161,0,USIndianaUnion,Indiana,Union,2021-01-05 23:21:58.615645,2020-11-15 00:00:00.000000,8.30908053,11.34098381,14.80761322,586,799,1044,286,400,551,4.06318212,5.67216310,7.81776482,0.27303584,0.38371136,0.53420252
18161,0,USIndianaUnion,Indiana,Union,2021-01-05 23:21:58.615645,2020-11-16 00:00:00.000000,8.18077459,11.46347762,15.00798186,577,808,1058,289,406,564,4.10455465,5.75783881,7.99939139,0.27149182,0.37119523,0.53773005
18161,0,USIndianaUnion,Indiana,Union,2021-01-05 23:21:58.615645,2020-11-17 00:00:00.000000,8.11777961,11.54598619,15.39811880,572,814,1086,288,410,576,4.08401960,5.81606167,8.17441987,0.27249361,0.37624848,0.53802881
18161,0,USIndianaUnion,Indiana,Union,2021-01-05 23:21:58.615645,2020-11-18 00:00:00.000000,8.18680241,11.63077660,15.79338285,577,820,1114,286,412,588,4.06147290,5.85151660,8.34026160,0.28061812,0.38299712,0.53658024
18161,0,USIndianaUnion,Indiana,Union,2021-01-05 23:21:58.615645,2020-11-19 00:00:00.000000,8.25447014,11.70941674,16.11397613,582,825,1136,285,414,599,4.04350409,5.87746348,8.49389948,0.28804595,0.38539674,0.53660734
18161,0,USIndianaUnion,Indiana,Union,2021-01-05 23:21:58.615645,2020-11-20 00:00:00.000000,8.20132184,11.78231794,16.30028945,578,831,1149,284,417,609,4.03247253,5.92458873,8.63475319,0.29980118,0.38930363,0.54825075
18161,0,USIndianaUnion,Indiana,Union,2021-01-05 23:21:58.615645,2020-11-21 00:00:00.000000,8.14788124,11.90047251,16.39774618,574,839,1156,284,422,611,4.03004348,5.98311963,8.66727102,0.30064739,0.39138549,0.57791871
18161,0,USIndianaUnion,Indiana,Union,2021-01-05 23:21:58.615645,2020-11-22 00:00:00.000000,8.20941340,11.96760411,16.51491892,579,844,1164,284,426,612,4.03694501,6.05265749,8.67825599,0.30242497,0.40192136,0.62302441
18161,0,USIndianaUnion,Indiana,Union,2021-01-05 23:21:58.615645,2020-11-23 00:00:00.000000,8.41492007,12.02410610,16.78539680,593,848,1184,285,430,614,4.05307815,6.10695660,8.71089444,0.31301292,0.41336926,0.64387638
18161,0,USIndianaUnion,Indiana,Union,2021-01-05 23:21:58.615645,2020-11-24 00:00:00.000000,8.50266365,12.13858064,17.03056616,599,856,1201,287,434,624,4.07308778,6.15373586,8.85769513,0.31256374,0.42021382,0.65735671
18161,0,USIndianaUnion,Indiana,Union,2021-01-05 23:21:58.615645,2020-11-25 00:00:00.000000,8.58219253,12.33112767,17.24678341,605,869,1216,289,436,635,4.09847734,6.18436618,9.00347200,0.30802855,0.43173243,0.68043495
18161,0,USIndianaUnion,Indiana,Union,2021-01-05 23:21:58.615645,2020-11-26 00:00:00.000000,8.67779493,12.45198964,17.37606487,612,878,1225,291,437,645,4.13012791,6.20582525,9.14952117,0.30896172,0.43905353,0.71841208
18161,0,USIndianaUnion,Indiana,Union,2021-01-05 23:21:58.615645,2020-11-27 00:00:00.000000,8.79170798,12.60612301,17.50548156,620,889,1234,294,440,655,4.16878576,6.23891681,9.29917354,0.31498414,0.46193785,0.73703662
18161,0,USIndianaUnion,Indiana,Union,2021-01-05 23:21:58.615645,2020-11-28 00:00:00.000000,8.92660048,12.83633953,17.64394473,629,905,1244,297,443,667,4.21535458,6.29269911,9.45690970,0.32709298,0.48353804,0.79957457
18161,0,USIndianaUnion,Indiana,Union,2021-01-05 23:21:58.615645,2020-11-29 00:00:00.000000,9.08405497,12.95992380,17.77355927,640,914,1253,301,451,678,4.27091995,6.40200901,9.62561754,0.32114932,0.50826064,0.84477866
18161,0,USIndianaUnion,Indiana,Union,2021-01-05 23:21:58.615645,2020-11-30 00:00:00.000000,9.26137398,13.05290196,17.84012284,653,920,1258,305,458,691,4.33643425,6.49300799,9.80464469,0.33830430,0.51155607,0.87274135
18161,0,USIndianaUnion,Indiana,Union,2021-01-05 23:21:58.615645,2020-12-01 00:00:00.000000,9.43877484,13.32804947,18.11694920,665,940,1277,311,463,704,4.41182107,6.57034125,9.98693788,0.34657064,0.52930728,0.89838952
18161,0,USIndianaUnion,Indiana,Union,2021-01-05 23:21:58.615645,2020-12-02 00:00:00.000000,9.57629150,13.54509832,18.41056922,675,955,1298,317,469,709,4.49720469,6.64925646,10.05990521,0.36938976,0.54594063,0.91952392
18161,0,USIndianaUnion,Indiana,Union,2021-01-05 23:21:58.615645,2020-12-03 00:00:00.000000,9.75472413,13.59850902,18.68079003,688,959,1317,323,479,715,4.59201760,6.80458005,10.14032291,0.38259431,0.57525208,0.93912392
18161,0,USIndianaUnion,Indiana,Union,2021-01-05 23:21:58.615645,2020-12-04 00:00:00.000000,9.97361605,13.69485808,18.93298537,703,966,1335,331,487,732,4.69523643,6.91464531,10.38122528,0.40252104,0.58354202,0.95876357
18161,0,USIndianaUnion,Indiana,Union,2021-01-05 23:21:58.615645,2020-12-05 00:00:00.000000,10.22622729,13.82981309,19.38722821,721,975,1367,339,497,748,4.80587631,7.05791556,10.61451404,0.41437357,0.61440464,0.97846408
18161,0,USIndianaUnion,Indiana,Union,2021-01-05 23:21:58.615645,2020-12-06 00:00:00.000000,10.50268425,14.04995278,20.03046454,740,991,1412,347,505,764,4.92382640,7.17270680,10.83742808,0.43449937,0.63239379,0.99720819
18161,0,USIndianaUnion,Indiana,Union,2021-01-05 23:21:58.615645,2020-12-07 00:00:00.000000,10.78251600,14.27893481,20.37839510,760,1007,1437,356,514,779,5.05096895,7.29477204,11.04637436,0.42728656,0.66188937,1.01403872
18161,0,USIndianaUnion,Indiana,Union,2021-01-05 23:21:58.615645,2020-12-08 00:00:00.000000,11.06833841,14.70588345,20.68991455,780,1037,1459,366,522,794,5.19354209,7.40671981,11.26928334,0.42378649,0.67653999,1.02899511
18161,0,USIndianaUnion,Indiana,Union,2021-01-05 23:21:58.615645,2020-12-09 00:00:00.000000,11.35374651,15.13715755,21.16667516,800,1067,1493,377,529,812,5.35526534,7.50688468,11.51673035,0.40422756,0.68257629,1.04002664
18161,0,USIndianaUnion,Indiana,Union,2021-01-05 23:21:58.615645,2020-12-10 00:00:00.000000,11.55805577,15.61612270,21.63228494,815,1101,1525,389,535,830,5.52238054,7.59368699,11.77531534,0.39584661,0.68955767,1.04731621
18161,0,USIndianaUnion,Indiana,Union,2021-01-05 23:21:58.615645,2020-12-11 00:00:00.000000,11.61454624,16.06880689,22.12905998,819,1133,1560,395,540,849,5.61291288,7.66706294,12.03800504,0.39373680,0.69219466,1.05134076
18161,0,USIndianaUnion,Indiana,Union,2021-01-05 23:21:58.615645,2020-12-12 00:00:00.000000,11.52521927,16.39870494,22.66985575,812,1156,1599,399,548,868,5.65829889,7.77805441,12.30888556,0.37066218,0.69136568,1.08662193
18161,0,USIndianaUnion,Indiana,Union,2021-01-05 23:21:58.615645,2020-12-13 00:00:00.000000,11.67835704,16.61379617,22.95345639,823,1171,1619,403,562,886,5.71968667,7.96927649,12.57173923,0.37459928,0.70227093,1.14759108
18161,0,USIndianaUnion,Indiana,Union,2021-01-05 23:21:58.615645,2020-12-14 00:00:00.000000,11.81303297,16.64640823,23.02909744,833,1174,1624,408,573,903,5.79404275,8.12571234,12.80343525,0.38169975,0.70694256,1.24827143
18161,0,USIndianaUnion,Indiana,Union,2021-01-05 23:21:58.615645,2020-12-15 00:00:00.000000,11.95369468,16.61331533,22.99003791,843,1171,1621,414,585,918,5.87370362,8.29447152,13.01543099,0.39110205,0.70809126,1.33296781
18161,0,USIndianaUnion,Indiana,Union,2021-01-05 23:21:58.615645,2020-12-16 00:00:00.000000,12.11219961,16.69008192,23.04125787,854,1177,1625,419,592,931,5.95326860,8.40037295,13.20098711,0.40268088,0.70868698,1.33674021
18161,0,USIndianaUnion,Indiana,Union,2021-01-05 23:21:58.615645,2020-12-17 00:00:00.000000,12.28409291,16.72450902,23.25916082,866,1179,1640,425,596,942,6.02839920,8.46189407,13.35441978,0.42448596,0.70875074,1.32115217
18161,0,USIndianaUnion,Indiana,Union,2021-01-05 23:21:58.615645,2020-12-18 00:00:00.000000,12.26415299,16.78500968,23.28177588,865,1184,1642,430,599,949,6.09613653,8.50025033,13.46645892,0.43494434,0.71120269,1.34344503
18161,0,USIndianaUnion,Indiana,Union,2021-01-05 23:21:58.615645,2020-12-19 00:00:00.000000,12.20317958,16.70670711,23.12057841,860,1178,1630,434,604,955,6.15476690,8.57241390,13.54140686,0.44046539,0.73053034,1.34644725
18161,0,USIndianaUnion,Indiana,Union,2021-01-05 23:21:58.615645,2020-12-20 00:00:00.000000,12.15916407,16.63821789,23.32166759,857,1173,1645,437,604,958,6.20360511,8.56661441,13.58217181,0.44079661,0.72017621,1.34801293
18161,0,USIndianaUnion,Indiana,Union,2021-01-05 23:21:58.615645,2020-12-21 00:00:00.000000,11.95185108,16.48424913,23.41359665,843,1162,1651,440,602,955,6.24276334,8.54403134,13.54753876,0.44104174,0.71185904,1.34855637
18161,0,USIndianaUnion,Indiana,Union,2021-01-05 23:21:58.615645,2020-12-22 00:00:00.000000,11.72619901,16.23496486,23.41607662,827,1145,1651,437,599,948,6.20436571,8.49666926,13.44893972,0.44190147,0.72338637,1.34776999
18161,0,USIndianaUnion,Indiana,Union,2021-01-05 23:21:58.615645,2020-12-23 00:00:00.000000,11.50340998,16.04454180,23.32184658,811,1131,1645,428,594,940,6.07687746,8.42799567,13.33880711,0.44440666,0.74476344,1.43396781
18161,0,USIndianaUnion,Indiana,Union,2021-01-05 23:21:58.615645,2020-12-24 00:00:00.000000,11.27404533,15.75935919,23.13926539,795,1111,1632,430,590,942,6.09739918,8.37043021,13.36376863,0.44310396,0.74857915,1.39849249
18161,0,USIndianaUnion,Indiana,Union,2021-01-05 23:21:58.615645,2020-12-25 00:00:00.000000,11.01453664,15.49230187,22.87381243,776,1092,1613,417,587,932,5.92384778,8.33555318,13.21321319,0.41738432,0.75721330,1.35355033
18161,0,USIndianaUnion,Indiana,Union,2021-01-05 23:21:58.615645,2020-12-26 00:00:00.000000,10.71310747,15.23864630,22.44794580,755,1074,1583,403,582,918,5.71975544,8.25164888,13.02583470,0.40780907,0.76403722,1.35368502
18161,0,USIndianaUnion,Indiana,Union,2021-01-05 23:21:58.615645,2020-12-27 00:00:00.000000,10.45083830,14.91238511,22.12500233,737,1051,1560,388,567,903,5.51115664,8.04681961,12.80437947,0.40488180,0.77865276,1.35924817
18161,0,USIndianaUnion,Indiana,Union,2021-01-05 23:21:58.615645,2020-12-28 00:00:00.000000,10.00827431,14.55665103,21.64002357,705,1026,1526,373,563,885,5.29947918,7.98788627,12.55026073,0.40255440,0.77290729,1.36241492
18161,0,USIndianaUnion,Indiana,Union,2021-01-05 23:21:58.615645,2020-12-29 00:00:00.000000,9.63204492,14.09190413,21.08770754,679,994,1487,358,559,871,5.08033975,7.93004305,12.35517888,0.40061572,0.77083677,1.36457567
18161,0,USIndianaUnion,Indiana,Union,2021-01-05 23:21:58.615645,2020-12-30 00:00:00.000000,9.26092753,13.73707054,20.48321325,653,969,1444,342,551,860,4.85713762,7.81514338,12.19996678,0.39849742,0.75696482,1.36646925
18161,0,USIndianaUnion,Indiana,Union,2021-01-05 23:21:58.615645,2020-12-31 00:00:00.000000,8.89769698,13.49912028,20.37677739,627,952,1437,326,541,849,4.63252463,7.67792958,12.04459471,0.39427856,0.75602594,1.40899206
18161,0,USIndianaUnion,Indiana,Union,2021-01-05 23:21:58.615645,2021-01-01 00:00:00.000000,8.54976220,13.03884533,20.14783076,603,919,1421,310,527,838,4.40860191,7.48417429,11.88275744,0.38868505,0.76294025,1.37378131
18161,0,USIndianaUnion,Indiana,Union,2021-01-05 23:21:58.615645,2021-01-02 00:00:00.000000,8.14632533,12.38281803,19.60932650,574,873,1383,295,509,816,4.18705212,7.22658361,11.57895640,0.38526428,0.76441533,1.34773847
18161,0,USIndianaUnion,Indiana,Union,2021-01-05 23:21:58.615645,2021-01-03 00:00:00.000000,7.69223714,11.91578808,19.03729808,542,840,1342,279,486,785,3.96923001,6.89559917,11.14212260,0.38407596,0.76222742,1.34877843
18161,0,USIndianaUnion,Indiana,Union,2021-01-05 23:21:58.615645,2021-01-04 00:00:00.000000,7.25354236,11.62824231,18.43744526,511,820,1300,264,475,754,3.75622593,6.73430962,10.69700890,0.38365185,0.74527849,1.43415135
18161,0,USIndianaUnion,Indiana,Union,2021-01-05 23:21:58.615645,2021-01-05 00:00:00.000000,6.83099775,11.19160326,18.22632752,481,789,1285,250,467,724,3.54801275,6.62509864,10.27454379,0.37900331,0.73809619,1.45392310
18161,0,USIndianaUnion,Indiana,Union,2021-01-05 23:21:58.615645,2021-01-06 00:00:00.000000,6.42517458,10.77655726,18.05687363,453,760,1273,235,453,721,3.34310121,6.42580345,10.23189047,0.37538532,0.74298137,1.45755343
18161,0,USIndianaUnion,Indiana,Union,2021-01-05 23:21:58.615645,2021-01-07 00:00:00.000000,6.03646584,10.52311815,17.85191956,425,742,1259,221,436,717,3.14410732,6.19369976,10.17427288,0.37533919,0.72968606,1.45826134
18161,0,USIndianaUnion,Indiana,Union,2021-01-05 23:21:58.615645,2021-01-08 00:00:00.000000,5.65113820,10.05600359,17.61307259,398,709,1242,208,418,712,2.95134916,5.92708975,10.10046034,0.37531822,0.72032398,1.45842709
18161,0,USIndianaUnion,Indiana,Union,2021-01-05 23:21:58.615645,2021-01-09 00:00:00.000000,5.27408256,9.70785275,17.34235669,372,684,1223,197,401,706,2.79398591,5.68558047,10.00981875,0.37530878,0.71717069,1.45847540
18161,0,USIndianaUnion,Indiana,Union,2021-01-05 23:21:58.615645,2021-01-10 00:00:00.000000,4.91725022,9.19650187,17.04204932,346,648,1202,187,379,691,2.66173207,5.38057598,9.80575373,0.37530455,0.71506980,1.45849197
18161,0,USIndianaUnion,Indiana,Union,2021-01-05 23:21:58.615645,2021-01-11 00:00:00.000000,4.58037024,8.78079422,16.71460235,323,619,1179,178,365,670,2.53351693,5.17711060,9.51229768,0.37530266,0.71507017,1.45849808
18161,0,USIndianaUnion,Indiana,Union,2021-01-05 23:21:58.615645,2021-01-12 00:00:00.000000,4.27119013,8.33872705,16.36008265,301,588,1154,169,351,649,2.40966539,4.98076788,9.21145811,0.37530182,0.71507044,1.45850035
18161,0,USIndianaUnion,Indiana,Union,2021-01-05 23:21:58.615645,2021-01-13 00:00:00.000000,4.02544067,7.89211308,15.78451447,283,556,1113,161,335,628,2.29035005,4.75097912,8.90511694,0.37530144,0.71507061,1.45850115
18161,0,USIndianaUnion,Indiana,Union,2021-01-05 23:21:58.615645,2021-01-14 00:00:00.000000,3.79415445,7.51935134,15.12506771,267,530,1066,153,318,606,2.17564416,4.51129892,8.59506593,0.37530127,0.71507071,1.45850139
18161,0,USIndianaUnion,Indiana,Union,2021-01-05 23:21:58.615645,2021-01-15 00:00:00.000000,3.56919882,7.14103731,14.46997172,251,503,1020,145,301,584,2.06555535,4.27341390,8.28298690,0.37530120,0.71507076,1.45850144
18161,0,USIndianaUnion,Indiana,Union,2021-01-05 23:21:58.615645,2021-01-16 00:00:00.000000,3.35697722,6.77004547,13.82260598,236,477,975,138,287,562,1.96004710,4.07110488,7.97043938,0.37530117,0.71507080,1.45850142
18161,0,USIndianaUnion,Indiana,Union,2021-01-05 23:21:58.615645,2021-01-17 00:00:00.000000,3.15554804,6.44372630,13.18556837,222,454,930,131,272,540,1.85913172,3.85829997,7.65885357,0.37530115,0.71507081,1.45850140
