FIPS,HR_UID,nameid,province,region,analysisTime,dates,pointprevalence_025,pointprevalence_50,pointprevalence_975,pointinfections_025,pointinfections_50,pointinfections_975,pointinfectious_025,pointinfectious_50,pointinfectious_975,pointinfectiousprevalence_05,pointinfectiousprevalence_50,pointinfectiousprevalence_95,infectrate_025,infectrate_50,infectrate_975
16043,0,USIdahoFremont,Idaho,Fremont,2021-01-06 00:56:33.889874,2020-03-09 00:00:00.000000,0.00731534,0.03461965,0.11709334,0,4,15,0,1,7,0.00172330,0.01357879,0.05921360,0.33300022,0.48860801,0.63308079
16043,0,USIdahoFremont,Idaho,Fremont,2021-01-06 00:56:33.889874,2020-03-10 00:00:00.000000,0.01146290,0.04387802,0.13276149,1,5,17,0,2,7,0.00274400,0.01534827,0.05679088,0.33300029,0.48831441,0.63305944
16043,0,USIdahoFremont,Idaho,Fremont,2021-01-06 00:56:33.889874,2020-03-11 00:00:00.000000,0.01487759,0.05203963,0.14897279,1,6,19,0,2,7,0.00441549,0.01772264,0.05952469,0.33300010,0.48781586,0.63300139
16043,0,USIdahoFremont,Idaho,Fremont,2021-01-06 00:56:33.889874,2020-03-12 00:00:00.000000,0.01893741,0.06250850,0.16583732,2,8,21,0,2,8,0.00588983,0.02042987,0.06642185,0.33299870,0.48505583,0.63284364
16043,0,USIdahoFremont,Idaho,Fremont,2021-01-06 00:56:33.889874,2020-03-13 00:00:00.000000,0.02346314,0.07547222,0.18004847,3,9,23,0,3,9,0.00737946,0.02472730,0.07139921,0.33299299,0.47983183,0.63241508
16043,0,USIdahoFremont,Idaho,Fremont,2021-01-06 00:56:33.889874,2020-03-14 00:00:00.000000,0.02825191,0.08767374,0.19478379,3,11,25,1,4,10,0.00909931,0.03096350,0.07711079,0.33042939,0.47701681,0.63125220
16043,0,USIdahoFremont,Idaho,Fremont,2021-01-06 00:56:33.889874,2020-03-15 00:00:00.000000,0.03332192,0.09842162,0.20997836,4,12,27,1,4,10,0.01102823,0.03638168,0.08337189,0.32660058,0.47292971,0.62810667
16043,0,USIdahoFremont,Idaho,Fremont,2021-01-06 00:56:33.889874,2020-03-16 00:00:00.000000,0.04045748,0.11086002,0.22354718,5,14,29,1,5,11,0.01315875,0.04296669,0.09005672,0.32254065,0.46742717,0.62025657
16043,0,USIdahoFremont,Idaho,Fremont,2021-01-06 00:56:33.889874,2020-03-17 00:00:00.000000,0.05012480,0.12163245,0.23697097,6,15,31,2,6,13,0.01629903,0.04924323,0.10096462,0.32323934,0.45910351,0.60992756
16043,0,USIdahoFremont,Idaho,Fremont,2021-01-06 00:56:33.889874,2020-03-18 00:00:00.000000,0.06043785,0.13612781,0.27976315,7,17,36,2,7,14,0.02022702,0.05552686,0.11190905,0.32471415,0.44733945,0.60969635
16043,0,USIdahoFremont,Idaho,Fremont,2021-01-06 00:56:33.889874,2020-03-19 00:00:00.000000,0.07134848,0.15136649,0.30125964,9,19,39,3,8,15,0.02478078,0.06110647,0.12129280,0.31112089,0.43230414,0.60353388
16043,0,USIdahoFremont,Idaho,Fremont,2021-01-06 00:56:33.889874,2020-03-20 00:00:00.000000,0.07579099,0.16679166,0.32271190,9,21,42,3,8,17,0.02985274,0.06824689,0.13102797,0.28615613,0.41435778,0.57733900
16043,0,USIdahoFremont,Idaho,Fremont,2021-01-06 00:56:33.889874,2020-03-21 00:00:00.000000,0.07974808,0.18180156,0.34214470,10,23,44,4,9,18,0.03532160,0.07406710,0.14098424,0.27105723,0.39562729,0.54647070
16043,0,USIdahoFremont,Idaho,Fremont,2021-01-06 00:56:33.889874,2020-03-22 00:00:00.000000,0.08868350,0.19781372,0.35834349,11,25,46,5,10,20,0.03857324,0.07979390,0.16017599,0.25839552,0.37410420,0.51557919
16043,0,USIdahoFremont,Idaho,Fremont,2021-01-06 00:56:33.889874,2020-03-23 00:00:00.000000,0.10186405,0.21577706,0.39004181,13,28,51,5,11,22,0.04368976,0.08972336,0.17182808,0.25431644,0.35304540,0.48972620
16043,0,USIdahoFremont,Idaho,Fremont,2021-01-06 00:56:33.889874,2020-03-24 00:00:00.000000,0.11509805,0.23279501,0.42426335,15,30,55,6,12,24,0.04978382,0.09613553,0.18847650,0.24411570,0.34276464,0.47190553
16043,0,USIdahoFremont,Idaho,Fremont,2021-01-06 00:56:33.889874,2020-03-25 00:00:00.000000,0.12846767,0.25583731,0.45756996,16,33,59,7,13,27,0.05652760,0.10480775,0.20830338,0.23137654,0.32507071,0.47053154
16043,0,USIdahoFremont,Idaho,Fremont,2021-01-06 00:56:33.889874,2020-03-26 00:00:00.000000,0.14175049,0.26610985,0.48859857,18,34,64,8,14,28,0.06369976,0.11342607,0.22004709,0.18829664,0.30696814,0.43719653
16043,0,USIdahoFremont,Idaho,Fremont,2021-01-06 00:56:33.889874,2020-03-27 00:00:00.000000,0.15708559,0.27698551,0.51629488,20,36,67,9,16,29,0.07111629,0.12301819,0.22899917,0.16025147,0.30087306,0.42788642
16043,0,USIdahoFremont,Idaho,Fremont,2021-01-06 00:56:33.889874,2020-03-28 00:00:00.000000,0.16652871,0.29784224,0.53790645,21,39,70,10,17,31,0.07733618,0.13322402,0.23715115,0.15909723,0.28845761,0.41826463
16043,0,USIdahoFremont,Idaho,Fremont,2021-01-06 00:56:33.889874,2020-03-29 00:00:00.000000,0.17745690,0.31048945,0.56363555,23,40,73,10,18,32,0.07980140,0.14164883,0.24499921,0.15552632,0.27437921,0.38633882
16043,0,USIdahoFremont,Idaho,Fremont,2021-01-06 00:56:33.889874,2020-03-30 00:00:00.000000,0.18248365,0.32735531,0.57740413,23,42,75,11,20,33,0.08758102,0.15294618,0.25483168,0.14712372,0.25110377,0.37749742
16043,0,USIdahoFremont,Idaho,Fremont,2021-01-06 00:56:33.889874,2020-03-31 00:00:00.000000,0.18719142,0.34181484,0.60324772,24,44,79,11,20,35,0.09156346,0.16017134,0.27233522,0.14277481,0.24792597,0.36710742
16043,0,USIdahoFremont,Idaho,Fremont,2021-01-06 00:56:33.889874,2020-04-01 00:00:00.000000,0.19644387,0.35124045,0.61121121,25,46,80,12,22,37,0.09429998,0.16802156,0.28648831,0.13918478,0.23266881,0.35977286
16043,0,USIdahoFremont,Idaho,Fremont,2021-01-06 00:56:33.889874,2020-04-02 00:00:00.000000,0.20564475,0.36359977,0.61443576,26,47,80,12,22,38,0.09656571,0.17151847,0.29764692,0.13175298,0.22618081,0.35400547
16043,0,USIdahoFremont,Idaho,Fremont,2021-01-06 00:56:33.889874,2020-04-03 00:00:00.000000,0.21455960,0.37013154,0.61428166,28,48,80,12,22,40,0.09841233,0.17493473,0.30594865,0.12620897,0.21805222,0.34430607
16043,0,USIdahoFremont,Idaho,Fremont,2021-01-06 00:56:33.889874,2020-04-04 00:00:00.000000,0.21687788,0.37230231,0.62913476,28,48,82,13,24,40,0.10244104,0.18328860,0.31151335,0.12418943,0.20675658,0.33898505
16043,0,USIdahoFremont,Idaho,Fremont,2021-01-06 00:56:33.889874,2020-04-05 00:00:00.000000,0.21793472,0.37968111,0.63256701,28,49,82,13,24,41,0.10665056,0.18785668,0.31464707,0.11721111,0.20282115,0.32517719
16043,0,USIdahoFremont,Idaho,Fremont,2021-01-06 00:56:33.889874,2020-04-06 00:00:00.000000,0.21323252,0.37923041,0.63086086,27,49,82,14,25,41,0.11043786,0.19466176,0.31741221,0.11154287,0.19862859,0.30558812
16043,0,USIdahoFremont,Idaho,Fremont,2021-01-06 00:56:33.889874,2020-04-07 00:00:00.000000,0.20799871,0.37010698,0.62782200,27,48,82,14,26,42,0.11141890,0.19983194,0.32578811,0.10858256,0.19394873,0.30082886
16043,0,USIdahoFremont,Idaho,Fremont,2021-01-06 00:56:33.889874,2020-04-08 00:00:00.000000,0.20244669,0.36344502,0.61796472,26,47,80,14,26,43,0.11067695,0.20089851,0.33055658,0.10739381,0.19203611,0.30062875
16043,0,USIdahoFremont,Idaho,Fremont,2021-01-06 00:56:33.889874,2020-04-09 00:00:00.000000,0.19490681,0.35104819,0.59272808,25,45,77,14,25,42,0.10883582,0.19726703,0.32403681,0.10699400,0.18286293,0.30001574
16043,0,USIdahoFremont,Idaho,Fremont,2021-01-06 00:56:33.889874,2020-04-10 00:00:00.000000,0.18478847,0.34246592,0.57825773,24,44,75,13,25,42,0.10580835,0.19395851,0.32780383,0.10791074,0.17034485,0.29643065
16043,0,USIdahoFremont,Idaho,Fremont,2021-01-06 00:56:33.889874,2020-04-11 00:00:00.000000,0.17492442,0.33459920,0.56064851,22,43,73,13,25,42,0.10195318,0.19272550,0.32778252,0.10551849,0.16147526,0.29049351
16043,0,USIdahoFremont,Idaho,Fremont,2021-01-06 00:56:33.889874,2020-04-12 00:00:00.000000,0.16713431,0.31750497,0.54215386,21,41,71,12,25,42,0.09693492,0.19293400,0.32154127,0.10206078,0.15774692,0.29054547
16043,0,USIdahoFremont,Idaho,Fremont,2021-01-06 00:56:33.889874,2020-04-13 00:00:00.000000,0.16328233,0.30894013,0.52392960,21,40,68,12,24,41,0.09374121,0.18874082,0.31346823,0.09729012,0.15595336,0.27870021
16043,0,USIdahoFremont,Idaho,Fremont,2021-01-06 00:56:33.889874,2020-04-14 00:00:00.000000,0.15945312,0.30546129,0.52405808,20,40,68,12,24,39,0.09189107,0.18400191,0.30401804,0.08939755,0.15466615,0.27902779
16043,0,USIdahoFremont,Idaho,Fremont,2021-01-06 00:56:33.889874,2020-04-15 00:00:00.000000,0.15567562,0.29983598,0.52200147,20,39,68,11,23,38,0.08997733,0.17908338,0.29360126,0.08876797,0.15352750,0.25851020
16043,0,USIdahoFremont,Idaho,Fremont,2021-01-06 00:56:33.889874,2020-04-16 00:00:00.000000,0.15189505,0.28828956,0.50051257,19,37,65,11,22,37,0.08792907,0.17292386,0.28577633,0.08817200,0.15134315,0.23918405
16043,0,USIdahoFremont,Idaho,Fremont,2021-01-06 00:56:33.889874,2020-04-17 00:00:00.000000,0.14586388,0.28080963,0.47946504,19,36,62,11,21,36,0.08421205,0.16725318,0.28132651,0.08614681,0.15187989,0.23442520
16043,0,USIdahoFremont,Idaho,Fremont,2021-01-06 00:56:33.889874,2020-04-18 00:00:00.000000,0.14008025,0.26873844,0.46371613,18,35,60,10,21,36,0.08056057,0.16142279,0.27668470,0.08585123,0.15150153,0.23011145
16043,0,USIdahoFremont,Idaho,Fremont,2021-01-06 00:56:33.889874,2020-04-19 00:00:00.000000,0.13453569,0.25644454,0.46000326,17,33,60,10,20,35,0.07700633,0.15681743,0.27169778,0.08441518,0.14941275,0.22935254
16043,0,USIdahoFremont,Idaho,Fremont,2021-01-06 00:56:33.889874,2020-04-20 00:00:00.000000,0.13408818,0.25921944,0.45944061,17,33,60,9,19,34,0.07356326,0.14984980,0.26592406,0.08180659,0.14957541,0.22855207
16043,0,USIdahoFremont,Idaho,Fremont,2021-01-06 00:56:33.889874,2020-04-21 00:00:00.000000,0.12771200,0.25588101,0.46686536,16,33,61,9,19,34,0.07194985,0.14730517,0.26670528,0.08102687,0.14973196,0.22909537
16043,0,USIdahoFremont,Idaho,Fremont,2021-01-06 00:56:33.889874,2020-04-22 00:00:00.000000,0.12396165,0.26011749,0.48863980,16,34,64,9,19,35,0.07140204,0.14640914,0.27238966,0.08085884,0.14982530,0.22995446
16043,0,USIdahoFremont,Idaho,Fremont,2021-01-06 00:56:33.889874,2020-04-23 00:00:00.000000,0.12885267,0.27791229,0.49498207,16,36,64,9,18,36,0.07058691,0.14452198,0.28067732,0.07535233,0.15117645,0.22975829
16043,0,USIdahoFremont,Idaho,Fremont,2021-01-06 00:56:33.889874,2020-04-24 00:00:00.000000,0.13389032,0.28700931,0.49016485,17,37,64,8,19,37,0.06737932,0.14587970,0.28287308,0.07415140,0.15089638,0.23156881
16043,0,USIdahoFremont,Idaho,Fremont,2021-01-06 00:56:33.889874,2020-04-25 00:00:00.000000,0.14017121,0.28798714,0.48478086,18,37,63,8,19,37,0.06675314,0.14643401,0.28336976,0.07403985,0.14776388,0.22944264
16043,0,USIdahoFremont,Idaho,Fremont,2021-01-06 00:56:33.889874,2020-04-26 00:00:00.000000,0.14400043,0.29513199,0.47920187,18,38,62,9,19,37,0.06914878,0.14771441,0.28454230,0.07407336,0.14261721,0.22870029
16043,0,USIdahoFremont,Idaho,Fremont,2021-01-06 00:56:33.889874,2020-04-27 00:00:00.000000,0.15661716,0.29629372,0.47533854,20,38,62,9,19,37,0.07161470,0.14853185,0.28592436,0.07425283,0.13955325,0.22760027
16043,0,USIdahoFremont,Idaho,Fremont,2021-01-06 00:56:33.889874,2020-04-28 00:00:00.000000,0.14853743,0.29665763,0.48604032,19,38,63,9,19,37,0.07493998,0.14946468,0.28622271,0.07653563,0.13918095,0.22622008
16043,0,USIdahoFremont,Idaho,Fremont,2021-01-06 00:56:33.889874,2020-04-29 00:00:00.000000,0.14898309,0.29868581,0.49794115,19,39,65,9,19,37,0.07298086,0.15035083,0.28577188,0.07691918,0.13807131,0.22452483
16043,0,USIdahoFremont,Idaho,Fremont,2021-01-06 00:56:33.889874,2020-04-30 00:00:00.000000,0.15043776,0.30099144,0.51581127,19,39,67,9,20,37,0.07155887,0.15332304,0.28477642,0.07601648,0.13706337,0.22234935
16043,0,USIdahoFremont,Idaho,Fremont,2021-01-06 00:56:33.889874,2020-05-01 00:00:00.000000,0.14612570,0.30607729,0.52233721,19,40,68,8,20,37,0.06798628,0.15576572,0.28336265,0.07674890,0.13494411,0.22105998
16043,0,USIdahoFremont,Idaho,Fremont,2021-01-06 00:56:33.889874,2020-05-02 00:00:00.000000,0.13848850,0.30875193,0.53553365,18,40,70,8,20,36,0.06458557,0.16003929,0.28158693,0.07744558,0.13299345,0.22052464
16043,0,USIdahoFremont,Idaho,Fremont,2021-01-06 00:56:33.889874,2020-05-03 00:00:00.000000,0.13142053,0.31310274,0.54414893,17,41,71,8,21,36,0.06596690,0.16260979,0.27958365,0.07682390,0.13002757,0.22664367
16043,0,USIdahoFremont,Idaho,Fremont,2021-01-06 00:56:33.889874,2020-05-04 00:00:00.000000,0.12240512,0.30334538,0.53075125,16,39,69,8,21,36,0.06750251,0.16365719,0.27808116,0.07669150,0.13027652,0.22317783
16043,0,USIdahoFremont,Idaho,Fremont,2021-01-06 00:56:33.889874,2020-05-05 00:00:00.000000,0.11479647,0.29501156,0.52101572,15,38,68,8,21,36,0.06669353,0.16176380,0.27981428,0.07658172,0.13105318,0.21822331
16043,0,USIdahoFremont,Idaho,Fremont,2021-01-06 00:56:33.889874,2020-05-06 00:00:00.000000,0.10862935,0.28435675,0.51109752,14,37,66,8,20,36,0.06460495,0.15793050,0.27956674,0.07636811,0.13272324,0.21122399
16043,0,USIdahoFremont,Idaho,Fremont,2021-01-06 00:56:33.889874,2020-05-07 00:00:00.000000,0.10245687,0.27292592,0.50147087,13,35,65,8,20,36,0.06184869,0.15310140,0.27842098,0.07214287,0.12863167,0.20211436
16043,0,USIdahoFremont,Idaho,Fremont,2021-01-06 00:56:33.889874,2020-05-08 00:00:00.000000,0.09645379,0.26072514,0.49262021,12,34,64,7,19,35,0.05877884,0.15043212,0.26812156,0.06929398,0.13059505,0.19925458
16043,0,USIdahoFremont,Idaho,Fremont,2021-01-06 00:56:33.889874,2020-05-09 00:00:00.000000,0.09072808,0.24852752,0.48471013,11,32,63,7,19,34,0.05560953,0.14771479,0.26521012,0.06810769,0.13034272,0.19915376
16043,0,USIdahoFremont,Idaho,Fremont,2021-01-06 00:56:33.889874,2020-05-10 00:00:00.000000,0.08532644,0.23658578,0.47749273,11,30,62,6,18,34,0.05247176,0.14137393,0.26156039,0.06751347,0.12697174,0.19902402
16043,0,USIdahoFremont,Idaho,Fremont,2021-01-06 00:56:33.889874,2020-05-11 00:00:00.000000,0.08024877,0.22497049,0.47063309,10,29,61,6,17,33,0.04944080,0.13443437,0.25730938,0.06738195,0.12645455,0.20041735
16043,0,USIdahoFremont,Idaho,Fremont,2021-01-06 00:56:33.889874,2020-05-12 00:00:00.000000,0.07548275,0.21406974,0.46384881,9,28,60,6,17,33,0.04655246,0.13086573,0.25264161,0.06737255,0.12716195,0.20288097
16043,0,USIdahoFremont,Idaho,Fremont,2021-01-06 00:56:33.889874,2020-05-13 00:00:00.000000,0.07101946,0.20462419,0.45503851,9,26,59,5,16,32,0.04382002,0.12676538,0.24766316,0.06738876,0.12692651,0.20581022
16043,0,USIdahoFremont,Idaho,Fremont,2021-01-06 00:56:33.889874,2020-05-14 00:00:00.000000,0.06685885,0.19545981,0.44327404,8,25,58,5,16,31,0.04124702,0.12236016,0.24244143,0.06790884,0.12839669,0.19828927
16043,0,USIdahoFremont,Idaho,Fremont,2021-01-06 00:56:33.889874,2020-05-15 00:00:00.000000,0.06301834,0.18549817,0.43001771,8,24,56,5,15,31,0.03855362,0.11804939,0.23695239,0.06933507,0.12882171,0.19829965
16043,0,USIdahoFremont,Idaho,Fremont,2021-01-06 00:56:33.889874,2020-05-16 00:00:00.000000,0.05954225,0.17766510,0.41513080,7,23,54,4,14,30,0.03549313,0.11288885,0.23102740,0.07136466,0.12900091,0.20117528
16043,0,USIdahoFremont,Idaho,Fremont,2021-01-06 00:56:33.889874,2020-05-17 00:00:00.000000,0.05473134,0.17075974,0.39961255,7,22,52,4,13,29,0.03266284,0.10610708,0.22452716,0.07188109,0.13337924,0.20713206
16043,0,USIdahoFremont,Idaho,Fremont,2021-01-06 00:56:33.889874,2020-05-18 00:00:00.000000,0.05934948,0.17135091,0.41430399,7,22,54,3,13,28,0.03005285,0.09949778,0.21974310,0.07292377,0.13537663,0.20913556
16043,0,USIdahoFremont,Idaho,Fremont,2021-01-06 00:56:33.889874,2020-05-19 00:00:00.000000,0.06796478,0.17545808,0.42734546,8,22,55,3,12,28,0.02977297,0.09661238,0.22030543,0.07367857,0.13734583,0.21234280
16043,0,USIdahoFremont,Idaho,Fremont,2021-01-06 00:56:33.889874,2020-05-20 00:00:00.000000,0.08076489,0.18107946,0.43133704,10,23,56,4,12,29,0.03091437,0.09782522,0.22215657,0.07473451,0.13680327,0.21433073
16043,0,USIdahoFremont,Idaho,Fremont,2021-01-06 00:56:33.889874,2020-05-21 00:00:00.000000,0.09377007,0.19117466,0.43650475,12,25,57,4,13,29,0.03288523,0.10097697,0.22495639,0.07622547,0.13651756,0.21677651
16043,0,USIdahoFremont,Idaho,Fremont,2021-01-06 00:56:33.889874,2020-05-22 00:00:00.000000,0.10659858,0.19635073,0.44226920,13,25,57,4,13,29,0.03664508,0.10320022,0.22845378,0.07806157,0.13647480,0.21949880
16043,0,USIdahoFremont,Idaho,Fremont,2021-01-06 00:56:33.889874,2020-05-23 00:00:00.000000,0.10921820,0.20115266,0.44816665,14,26,58,5,13,30,0.04337201,0.10276193,0.23244799,0.07785530,0.13686316,0.22453974
16043,0,USIdahoFremont,Idaho,Fremont,2021-01-06 00:56:33.889874,2020-05-24 00:00:00.000000,0.11364034,0.20709497,0.45406960,14,27,59,6,13,31,0.05023010,0.10311434,0.23916487,0.07749619,0.13606714,0.22830570
16043,0,USIdahoFremont,Idaho,Fremont,2021-01-06 00:56:33.889874,2020-05-25 00:00:00.000000,0.12325393,0.20997941,0.45731570,16,27,59,7,13,32,0.05466860,0.10545218,0.24625537,0.07583734,0.13540004,0.22856700
16043,0,USIdahoFremont,Idaho,Fremont,2021-01-06 00:56:33.889874,2020-05-26 00:00:00.000000,0.12520821,0.21613051,0.46052986,16,28,60,7,14,32,0.05783347,0.10945441,0.25031135,0.07609355,0.13566132,0.22874540
16043,0,USIdahoFremont,Idaho,Fremont,2021-01-06 00:56:33.889874,2020-05-27 00:00:00.000000,0.13164886,0.22301413,0.46367050,17,29,60,7,14,33,0.06055892,0.11241242,0.25333249,0.07847152,0.13797763,0.23460262
16043,0,USIdahoFremont,Idaho,Fremont,2021-01-06 00:56:33.889874,2020-05-28 00:00:00.000000,0.13365997,0.23142921,0.46675110,17,30,61,8,14,34,0.06795659,0.11446373,0.26043789,0.08174583,0.14129472,0.24720271
16043,0,USIdahoFremont,Idaho,Fremont,2021-01-06 00:56:33.889874,2020-05-29 00:00:00.000000,0.13392930,0.23714667,0.46978361,17,31,61,8,15,34,0.06729305,0.11726500,0.26477213,0.08176291,0.14445159,0.25307484
16043,0,USIdahoFremont,Idaho,Fremont,2021-01-06 00:56:33.889874,2020-05-30 00:00:00.000000,0.13420472,0.24267796,0.47277877,17,31,61,8,15,34,0.06523073,0.12138959,0.26675921,0.08180431,0.14697819,0.25526988
16043,0,USIdahoFremont,Idaho,Fremont,2021-01-06 00:56:33.889874,2020-05-31 00:00:00.000000,0.13447647,0.24497691,0.47692612,17,32,62,8,16,35,0.06319216,0.12362857,0.26862402,0.07984485,0.15136997,0.25595495
16043,0,USIdahoFremont,Idaho,Fremont,2021-01-06 00:56:33.889874,2020-06-01 00:00:00.000000,0.13245101,0.23776173,0.46954293,17,31,61,8,16,35,0.06181637,0.12678451,0.27049614,0.07652105,0.15183101,0.26006087
16043,0,USIdahoFremont,Idaho,Fremont,2021-01-06 00:56:33.889874,2020-06-02 00:00:00.000000,0.13038329,0.23110656,0.46386320,17,30,60,8,16,35,0.06150287,0.12728321,0.27102412,0.07470904,0.15695324,0.26717509
16043,0,USIdahoFremont,Idaho,Fremont,2021-01-06 00:56:33.889874,2020-06-03 00:00:00.000000,0.12276735,0.22490676,0.45838965,16,29,60,7,16,35,0.06090659,0.12624189,0.27061314,0.07352331,0.16187267,0.27556582
16043,0,USIdahoFremont,Idaho,Fremont,2021-01-06 00:56:33.889874,2020-06-04 00:00:00.000000,0.11428028,0.21886753,0.45515633,14,28,59,7,16,35,0.06011780,0.12333718,0.26953681,0.07188846,0.16337930,0.28276411
16043,0,USIdahoFremont,Idaho,Fremont,2021-01-06 00:56:33.889874,2020-06-05 00:00:00.000000,0.10611393,0.21214733,0.45567580,13,27,59,7,15,35,0.05917856,0.12109683,0.26796420,0.06932880,0.16441304,0.28416487
16043,0,USIdahoFremont,Idaho,Fremont,2021-01-06 00:56:33.889874,2020-06-06 00:00:00.000000,0.09838557,0.20145982,0.45607737,12,26,59,7,15,34,0.05812082,0.11841200,0.26601849,0.07517372,0.16530887,0.28432436
16043,0,USIdahoFremont,Idaho,Fremont,2021-01-06 00:56:33.889874,2020-06-07 00:00:00.000000,0.09114642,0.19520316,0.45693782,11,25,59,7,15,34,0.05524129,0.11570112,0.26379374,0.08288317,0.16796820,0.28430211
16043,0,USIdahoFremont,Idaho,Fremont,2021-01-06 00:56:33.889874,2020-06-08 00:00:00.000000,0.11107201,0.20533192,0.47559613,14,26,62,6,14,34,0.05131289,0.11314576,0.26136233,0.08353615,0.16824650,0.28275014
16043,0,USIdahoFremont,Idaho,Fremont,2021-01-06 00:56:33.889874,2020-06-09 00:00:00.000000,0.11900767,0.21751043,0.48369709,15,28,63,7,14,34,0.05412530,0.11209927,0.26033759,0.08484913,0.17157224,0.28436239
16043,0,USIdahoFremont,Idaho,Fremont,2021-01-06 00:56:33.889874,2020-06-10 00:00:00.000000,0.12172492,0.22726524,0.48414357,15,29,63,7,14,34,0.05584766,0.11252808,0.26038701,0.08543149,0.17202844,0.28428864
16043,0,USIdahoFremont,Idaho,Fremont,2021-01-06 00:56:33.889874,2020-06-11 00:00:00.000000,0.12472236,0.23634433,0.48472736,16,30,63,7,15,34,0.05651935,0.11757925,0.26125709,0.08553177,0.17223547,0.28370687
16043,0,USIdahoFremont,Idaho,Fremont,2021-01-06 00:56:33.889874,2020-06-12 00:00:00.000000,0.12790422,0.24505411,0.51643130,16,32,67,7,15,34,0.05740123,0.12113237,0.26275703,0.08562306,0.17250602,0.28376498
16043,0,USIdahoFremont,Idaho,Fremont,2021-01-06 00:56:33.889874,2020-06-13 00:00:00.000000,0.13128999,0.25069085,0.58691635,17,32,76,7,16,34,0.05948559,0.12618656,0.26458090,0.08576139,0.17774961,0.28652791
16043,0,USIdahoFremont,Idaho,Fremont,2021-01-06 00:56:33.889874,2020-06-14 00:00:00.000000,0.13487647,0.26243950,0.61260856,17,34,80,8,17,35,0.06271578,0.13104537,0.26846154,0.08645991,0.18360896,0.29738754
16043,0,USIdahoFremont,Idaho,Fremont,2021-01-06 00:56:33.889874,2020-06-15 00:00:00.000000,0.13859584,0.27305594,0.64242840,18,35,84,8,18,36,0.06423138,0.13772272,0.27511779,0.08894906,0.18910084,0.30269667
16043,0,USIdahoFremont,Idaho,Fremont,2021-01-06 00:56:33.889874,2020-06-16 00:00:00.000000,0.14242720,0.28362934,0.67247412,18,37,88,8,18,36,0.06587423,0.14171601,0.28174407,0.09076234,0.19607968,0.30465427
16043,0,USIdahoFremont,Idaho,Fremont,2021-01-06 00:56:33.889874,2020-06-17 00:00:00.000000,0.14674550,0.29833212,0.68657130,19,39,89,8,19,37,0.06803074,0.14647568,0.28838549,0.09612107,0.19696588,0.30508928
16043,0,USIdahoFremont,Idaho,Fremont,2021-01-06 00:56:33.889874,2020-06-18 00:00:00.000000,0.15411757,0.31031525,0.68760220,20,40,90,9,19,39,0.07085194,0.15006237,0.29959581,0.10464423,0.19779812,0.30795412
16043,0,USIdahoFremont,Idaho,Fremont,2021-01-06 00:56:33.889874,2020-06-19 00:00:00.000000,0.16130183,0.32201705,0.68676224,21,42,89,9,20,40,0.07545765,0.15606315,0.30738517,0.11183883,0.20181585,0.32048513
16043,0,USIdahoFremont,Idaho,Fremont,2021-01-06 00:56:33.889874,2020-06-20 00:00:00.000000,0.16828169,0.34616066,0.68524703,22,45,89,10,21,41,0.08025118,0.16301953,0.31452763,0.11550730,0.20399921,0.33080729
16043,0,USIdahoFremont,Idaho,Fremont,2021-01-06 00:56:33.889874,2020-06-21 00:00:00.000000,0.17498523,0.36192759,0.69669883,22,47,91,10,22,42,0.08168122,0.17035437,0.32755502,0.11687729,0.20623389,0.33618095
16043,0,USIdahoFremont,Idaho,Fremont,2021-01-06 00:56:33.889874,2020-06-22 00:00:00.000000,0.18198677,0.37320159,0.71968785,23,48,94,10,23,44,0.08224616,0.18122409,0.34172802,0.11812983,0.21048370,0.34488288
16043,0,USIdahoFremont,Idaho,Fremont,2021-01-06 00:56:33.889874,2020-06-23 00:00:00.000000,0.18857063,0.38160569,0.74660269,24,49,97,11,24,46,0.08612614,0.18783972,0.35746236,0.11836493,0.21935805,0.35292528
16043,0,USIdahoFremont,Idaho,Fremont,2021-01-06 00:56:33.889874,2020-06-24 00:00:00.000000,0.19474690,0.40386884,0.77857759,25,52,101,12,25,49,0.09206589,0.19516688,0.37451542,0.11844127,0.22793934,0.37563384
16043,0,USIdahoFremont,Idaho,Fremont,2021-01-06 00:56:33.889874,2020-06-25 00:00:00.000000,0.20040366,0.42144457,0.81527293,26,55,106,13,26,51,0.09927397,0.20222532,0.39260885,0.11845057,0.23129609,0.40079671
16043,0,USIdahoFremont,Idaho,Fremont,2021-01-06 00:56:33.889874,2020-06-26 00:00:00.000000,0.20549156,0.44199682,0.85069277,26,57,111,14,27,53,0.10725358,0.20808346,0.41141112,0.11855846,0.23108174,0.40795495
16043,0,USIdahoFremont,Idaho,Fremont,2021-01-06 00:56:33.889874,2020-06-27 00:00:00.000000,0.21399824,0.45457767,0.88498788,28,59,115,14,27,56,0.11081819,0.21368788,0.43056862,0.12576844,0.23462592,0.42403766
16043,0,USIdahoFremont,Idaho,Fremont,2021-01-06 00:56:33.889874,2020-06-28 00:00:00.000000,0.22068594,0.47008921,0.91883330,28,61,120,14,28,58,0.11135452,0.21976516,0.44945775,0.13421227,0.24245391,0.39694654
16043,0,USIdahoFremont,Idaho,Fremont,2021-01-06 00:56:33.889874,2020-06-29 00:00:00.000000,0.24488588,0.49002751,0.94335503,32,64,123,14,30,61,0.11212694,0.22973334,0.46700128,0.14117049,0.24481939,0.40758206
16043,0,USIdahoFremont,Idaho,Fremont,2021-01-06 00:56:33.889874,2020-06-30 00:00:00.000000,0.25049863,0.51692409,0.96813001,32,67,126,14,31,63,0.11360695,0.24009238,0.48754338,0.14197498,0.24581735,0.41498291
16043,0,USIdahoFremont,Idaho,Fremont,2021-01-06 00:56:33.889874,2020-07-01 00:00:00.000000,0.25904789,0.53778474,0.99322228,33,70,130,15,33,66,0.11555193,0.25290674,0.50488277,0.14133805,0.24607494,0.41703398
16043,0,USIdahoFremont,Idaho,Fremont,2021-01-06 00:56:33.889874,2020-07-02 00:00:00.000000,0.27456520,0.57194112,1.02491684,35,74,134,15,34,68,0.11955872,0.26671609,0.52156667,0.14154858,0.24763176,0.42944758
16043,0,USIdahoFremont,Idaho,Fremont,2021-01-06 00:56:33.889874,2020-07-03 00:00:00.000000,0.29610661,0.59138382,1.06184346,38,77,139,16,36,70,0.12605478,0.28189367,0.53785895,0.14378333,0.24908859,0.44954506
16043,0,USIdahoFremont,Idaho,Fremont,2021-01-06 00:56:33.889874,2020-07-04 00:00:00.000000,0.31710542,0.61575496,1.10763404,41,80,145,17,38,72,0.13660294,0.29504728,0.55400311,0.14472436,0.25607579,0.45738570
16043,0,USIdahoFremont,Idaho,Fremont,2021-01-06 00:56:33.889874,2020-07-05 00:00:00.000000,0.33220729,0.64798679,1.16896371,43,84,153,19,40,74,0.14708770,0.30852070,0.57018812,0.14462265,0.26704071,0.48776016
16043,0,USIdahoFremont,Idaho,Fremont,2021-01-06 00:56:33.889874,2020-07-06 00:00:00.000000,0.35413403,0.69020164,1.23347071,46,90,161,20,42,76,0.15740701,0.32362813,0.58651874,0.14549014,0.27045102,0.49269919
16043,0,USIdahoFremont,Idaho,Fremont,2021-01-06 00:56:33.889874,2020-07-07 00:00:00.000000,0.38709573,0.74348902,1.30134394,50,97,170,21,44,79,0.16379852,0.33712805,0.60390229,0.14591759,0.27814817,0.49276398
16043,0,USIdahoFremont,Idaho,Fremont,2021-01-06 00:56:33.889874,2020-07-08 00:00:00.000000,0.42596558,0.77854225,1.37193777,55,101,179,22,46,81,0.16905219,0.35598599,0.62213400,0.14714615,0.28293170,0.49226134
16043,0,USIdahoFremont,Idaho,Fremont,2021-01-06 00:56:33.889874,2020-07-09 00:00:00.000000,0.46151872,0.80818794,1.44503302,60,105,189,25,49,84,0.19182139,0.37737431,0.64424060,0.14877436,0.28539625,0.49085256
16043,0,USIdahoFremont,Idaho,Fremont,2021-01-06 00:56:33.889874,2020-07-10 00:00:00.000000,0.49407738,0.84106621,1.51915850,64,110,198,27,51,87,0.20718726,0.39482055,0.66714167,0.15090915,0.29368184,0.50654925
16043,0,USIdahoFremont,Idaho,Fremont,2021-01-06 00:56:33.889874,2020-07-11 00:00:00.000000,0.50088580,0.88965194,1.59500420,65,116,208,29,54,91,0.22884535,0.41628488,0.70215612,0.15382283,0.29759359,0.51267056
16043,0,USIdahoFremont,Idaho,Fremont,2021-01-06 00:56:33.889874,2020-07-12 00:00:00.000000,0.50817752,0.92181110,1.67192335,66,120,219,30,56,96,0.23648646,0.43234141,0.73776558,0.15819130,0.29677657,0.51055703
16043,0,USIdahoFremont,Idaho,Fremont,2021-01-06 00:56:33.889874,2020-07-13 00:00:00.000000,0.51194342,0.96499466,1.75650877,67,126,230,31,59,101,0.24267679,0.45089374,0.77299547,0.15929141,0.30221939,0.50483652
16043,0,USIdahoFremont,Idaho,Fremont,2021-01-06 00:56:33.889874,2020-07-14 00:00:00.000000,0.51855796,1.02505272,1.84947301,67,134,242,33,61,103,0.25342357,0.47316401,0.79250135,0.15947722,0.30392385,0.49845446
16043,0,USIdahoFremont,Idaho,Fremont,2021-01-06 00:56:33.889874,2020-07-15 00:00:00.000000,0.55013999,1.06547092,1.93780929,72,139,253,35,64,106,0.26965304,0.49546883,0.81196386,0.16711963,0.30851241,0.49577642
16043,0,USIdahoFremont,Idaho,Fremont,2021-01-06 00:56:33.889874,2020-07-16 00:00:00.000000,0.58322423,1.10169070,2.02381845,76,144,265,37,68,109,0.28889603,0.52034782,0.83377897,0.16556755,0.31265408,0.49709503
16043,0,USIdahoFremont,Idaho,Fremont,2021-01-06 00:56:33.889874,2020-07-17 00:00:00.000000,0.61858998,1.14913369,2.10493241,81,150,275,40,71,114,0.30929209,0.54344721,0.87352785,0.16441139,0.31171997,0.50546678
16043,0,USIdahoFremont,Idaho,Fremont,2021-01-06 00:56:33.889874,2020-07-18 00:00:00.000000,0.65635145,1.17205388,2.16695964,85,153,283,43,74,119,0.33063522,0.56980377,0.91268690,0.16697616,0.30984573,0.51048619
16043,0,USIdahoFremont,Idaho,Fremont,2021-01-06 00:56:33.889874,2020-07-19 00:00:00.000000,0.69157017,1.19540869,2.19887455,90,156,288,45,78,125,0.35029212,0.59635862,0.95864721,0.17889271,0.30837636,0.51221129
16043,0,USIdahoFremont,Idaho,Fremont,2021-01-06 00:56:33.889874,2020-07-20 00:00:00.000000,0.72748623,1.24593427,2.21676884,95,163,290,48,81,135,0.36751318,0.62522454,1.03282277,0.18058477,0.31096111,0.51428801
16043,0,USIdahoFremont,Idaho,Fremont,2021-01-06 00:56:33.889874,2020-07-21 00:00:00.000000,0.76365477,1.30857272,2.26898965,100,171,297,51,85,143,0.39094683,0.65061993,1.09809036,0.18246297,0.30512477,0.51194347
16043,0,USIdahoFremont,Idaho,Fremont,2021-01-06 00:56:33.889874,2020-07-22 00:00:00.000000,0.79929079,1.37353811,2.31991760,104,179,303,53,88,147,0.41187904,0.67399844,1.12720124,0.18557692,0.30003804,0.50706401
16043,0,USIdahoFremont,Idaho,Fremont,2021-01-06 00:56:33.889874,2020-07-23 00:00:00.000000,0.83101157,1.41387565,2.36313709,108,185,309,55,91,150,0.42745056,0.69856200,1.15161953,0.19030937,0.29606423,0.50107307
16043,0,USIdahoFremont,Idaho,Fremont,2021-01-06 00:56:33.889874,2020-07-24 00:00:00.000000,0.85962424,1.46181538,2.39728024,112,191,314,57,93,153,0.44155100,0.71480618,1.17165899,0.18509020,0.29650585,0.49495987
16043,0,USIdahoFremont,Idaho,Fremont,2021-01-06 00:56:33.889874,2020-07-25 00:00:00.000000,0.88508687,1.51736045,2.40974680,115,198,315,60,97,155,0.45931364,0.74081839,1.18713905,0.18249581,0.28553709,0.48960170
16043,0,USIdahoFremont,Idaho,Fremont,2021-01-06 00:56:33.889874,2020-07-26 00:00:00.000000,0.90292316,1.57291692,2.40322413,118,206,314,62,99,156,0.47348380,0.75669370,1.19777733,0.18106811,0.28095640,0.47055751
16043,0,USIdahoFremont,Idaho,Fremont,2021-01-06 00:56:33.889874,2020-07-27 00:00:00.000000,0.92734049,1.63569971,2.41938359,121,214,316,63,101,157,0.48458754,0.77218748,1.20343135,0.18048570,0.27811701,0.45874416
16043,0,USIdahoFremont,Idaho,Fremont,2021-01-06 00:56:33.889874,2020-07-28 00:00:00.000000,0.95502568,1.68810444,2.45718889,125,221,321,64,103,157,0.49580266,0.79069058,1.20467194,0.18030958,0.27000948,0.45639276
16043,0,USIdahoFremont,Idaho,Fremont,2021-01-06 00:56:33.889874,2020-07-29 00:00:00.000000,0.97617509,1.71135388,2.48697304,127,224,325,65,106,159,0.50330106,0.81130980,1.21816032,0.17925236,0.27142009,0.45496464
16043,0,USIdahoFremont,Idaho,Fremont,2021-01-06 00:56:33.889874,2020-07-30 00:00:00.000000,0.99593342,1.74479459,2.50791729,130,228,328,66,109,162,0.50785830,0.83522578,1.24027654,0.17462451,0.27425773,0.43366933
16043,0,USIdahoFremont,Idaho,Fremont,2021-01-06 00:56:33.889874,2020-07-31 00:00:00.000000,1.01769665,1.79893615,2.53553952,133,235,332,66,113,165,0.51061311,0.86568109,1.26565876,0.16463563,0.25640317,0.42728100
16043,0,USIdahoFremont,Idaho,Fremont,2021-01-06 00:56:33.889874,2020-08-01 00:00:00.000000,1.04337114,1.82238303,2.58355092,136,238,338,67,115,170,0.51233438,0.88095457,1.30305148,0.16753943,0.25114825,0.41555361
16043,0,USIdahoFremont,Idaho,Fremont,2021-01-06 00:56:33.889874,2020-08-02 00:00:00.000000,1.07321937,1.83002932,2.64813831,140,239,346,67,117,175,0.51459851,0.89942511,1.34005753,0.16934356,0.24656576,0.39556112
16043,0,USIdahoFremont,Idaho,Fremont,2021-01-06 00:56:33.889874,2020-08-03 00:00:00.000000,1.09453244,1.83066947,2.68278698,143,239,351,67,121,180,0.51765078,0.92725224,1.37699790,0.16998718,0.24309335,0.36921245
16043,0,USIdahoFremont,Idaho,Fremont,2021-01-06 00:56:33.889874,2020-08-04 00:00:00.000000,1.11758032,1.83039078,2.71152615,146,239,355,67,122,184,0.51853148,0.93867247,1.41140463,0.17007259,0.24099700,0.36960030
16043,0,USIdahoFremont,Idaho,Fremont,2021-01-06 00:56:33.889874,2020-08-05 00:00:00.000000,1.10782794,1.82885187,2.73472401,145,239,358,67,122,189,0.51887659,0.93857109,1.44409689,0.16912309,0.23972694,0.35156686
16043,0,USIdahoFremont,Idaho,Fremont,2021-01-06 00:56:33.889874,2020-08-06 00:00:00.000000,1.10045740,1.83681822,2.75295583,144,240,360,71,124,193,0.54310038,0.94952407,1.47563219,0.16115653,0.23920577,0.33596487
16043,0,USIdahoFremont,Idaho,Fremont,2021-01-06 00:56:33.889874,2020-08-07 00:00:00.000000,1.09491465,1.84669829,2.76816277,143,241,362,74,125,193,0.56978410,0.95904809,1.47558366,0.15536499,0.23944325,0.33157500
16043,0,USIdahoFremont,Idaho,Fremont,2021-01-06 00:56:33.889874,2020-08-08 00:00:00.000000,1.08333970,1.84282174,2.78189659,141,241,364,75,126,192,0.57726265,0.96596314,1.47247140,0.15096317,0.23114266,0.32469896
16043,0,USIdahoFremont,Idaho,Fremont,2021-01-06 00:56:33.889874,2020-08-09 00:00:00.000000,1.07147332,1.84289203,2.79481533,140,241,366,74,127,192,0.57174656,0.97332643,1.46896442,0.14874322,0.22947074,0.32136277
16043,0,USIdahoFremont,Idaho,Fremont,2021-01-06 00:56:33.889874,2020-08-10 00:00:00.000000,1.07122820,1.83057528,2.81338014,140,239,368,72,127,191,0.55710681,0.97351527,1.46516501,0.15211399,0.22401837,0.32028566
16043,0,USIdahoFremont,Idaho,Fremont,2021-01-06 00:56:33.889874,2020-08-11 00:00:00.000000,1.06158817,1.83723273,2.83113628,139,240,370,71,128,191,0.54732585,0.98214675,1.46161633,0.15452733,0.22633202,0.31952693
16043,0,USIdahoFremont,Idaho,Fremont,2021-01-06 00:56:33.889874,2020-08-12 00:00:00.000000,1.05179648,1.82780473,2.84871937,137,239,373,70,130,192,0.54071179,0.99426957,1.46954469,0.15530810,0.22722174,0.31942581
16043,0,USIdahoFremont,Idaho,Fremont,2021-01-06 00:56:33.889874,2020-08-13 00:00:00.000000,1.04203045,1.81028975,2.86651689,136,237,375,70,130,193,0.53618612,0.99777598,1.47502402,0.15549707,0.22646188,0.32112300
16043,0,USIdahoFremont,Idaho,Fremont,2021-01-06 00:56:33.889874,2020-08-14 00:00:00.000000,1.03278373,1.80572694,2.88623426,135,236,378,69,131,195,0.53308365,1.00278218,1.49606901,0.15560458,0.23295128,0.32069989
16043,0,USIdahoFremont,Idaho,Fremont,2021-01-06 00:56:33.889874,2020-08-15 00:00:00.000000,1.02536204,1.79604485,2.88616098,134,235,378,69,130,200,0.53102791,0.99921010,1.52929695,0.15601713,0.23847560,0.31936733
16043,0,USIdahoFremont,Idaho,Fremont,2021-01-06 00:56:33.889874,2020-08-16 00:00:00.000000,1.02121289,1.78965326,2.85021924,133,234,373,70,131,204,0.53705808,1.00337597,1.56288275,0.16083947,0.24304198,0.33809843
16043,0,USIdahoFremont,Idaho,Fremont,2021-01-06 00:56:33.889874,2020-08-17 00:00:00.000000,1.02701480,1.81437977,2.80929210,134,237,367,71,131,209,0.54645831,1.00475914,1.59727565,0.16489882,0.24428838,0.34649274
16043,0,USIdahoFremont,Idaho,Fremont,2021-01-06 00:56:33.889874,2020-08-18 00:00:00.000000,1.02933265,1.82391027,2.77178128,134,238,363,72,131,212,0.55379769,1.00259354,1.62158375,0.16596907,0.24708250,0.34886787
16043,0,USIdahoFremont,Idaho,Fremont,2021-01-06 00:56:33.889874,2020-08-19 00:00:00.000000,1.03449306,1.85207416,2.82650587,135,242,370,73,132,211,0.56040449,1.00850042,1.61807585,0.16556144,0.25121572,0.35870932
16043,0,USIdahoFremont,Idaho,Fremont,2021-01-06 00:56:33.889874,2020-08-20 00:00:00.000000,1.04008871,1.87627162,2.93057474,136,245,383,74,132,211,0.56752766,1.01083207,1.61722718,0.16569326,0.25884185,0.37651414
16043,0,USIdahoFremont,Idaho,Fremont,2021-01-06 00:56:33.889874,2020-08-21 00:00:00.000000,1.05169594,1.89762304,3.04332045,137,248,398,75,134,212,0.57720370,1.02343627,1.61848289,0.16632573,0.26199072,0.40051193
16043,0,USIdahoFremont,Idaho,Fremont,2021-01-06 00:56:33.889874,2020-08-22 00:00:00.000000,1.06872521,1.91961277,3.16133248,139,251,414,77,135,215,0.59028306,1.03441382,1.64879030,0.17467884,0.26951534,0.40535789
16043,0,USIdahoFremont,Idaho,Fremont,2021-01-06 00:56:33.889874,2020-08-23 00:00:00.000000,1.08848229,1.93583023,3.28260107,142,253,429,78,136,220,0.60023908,1.03994529,1.68417657,0.18030624,0.27539997,0.40968595
16043,0,USIdahoFremont,Idaho,Fremont,2021-01-06 00:56:33.889874,2020-08-24 00:00:00.000000,1.12290099,1.95993226,3.38936084,147,256,443,77,137,225,0.58844868,1.05313609,1.72114048,0.18576610,0.28422360,0.41564112
16043,0,USIdahoFremont,Idaho,Fremont,2021-01-06 00:56:33.889874,2020-08-25 00:00:00.000000,1.18741449,2.00760589,3.47897484,155,262,455,75,140,230,0.57970363,1.07295878,1.75829253,0.19655792,0.29136136,0.41720473
16043,0,USIdahoFremont,Idaho,Fremont,2021-01-06 00:56:33.889874,2020-08-26 00:00:00.000000,1.22942288,2.07140528,3.56704350,161,271,467,75,142,235,0.57503250,1.08473839,1.79595893,0.21381629,0.29336342,0.41724712
16043,0,USIdahoFremont,Idaho,Fremont,2021-01-06 00:56:33.889874,2020-08-27 00:00:00.000000,1.22349643,2.12209194,3.65418240,160,277,478,76,144,240,0.58601751,1.10362977,1.83458355,0.22519059,0.30889383,0.42652056
16043,0,USIdahoFremont,Idaho,Fremont,2021-01-06 00:56:33.889874,2020-08-28 00:00:00.000000,1.22308887,2.14181640,3.73742892,160,280,489,78,148,246,0.59788195,1.13539410,1.88347284,0.22535907,0.32552410,0.43206037
16043,0,USIdahoFremont,Idaho,Fremont,2021-01-06 00:56:33.889874,2020-08-29 00:00:00.000000,1.23621405,2.15778677,3.80255726,161,282,498,79,153,254,0.61071798,1.17008682,1.94166855,0.22702781,0.34361874,0.43334531
16043,0,USIdahoFremont,Idaho,Fremont,2021-01-06 00:56:33.889874,2020-08-30 00:00:00.000000,1.29905350,2.18183779,3.86439076,170,285,506,81,156,262,0.62465945,1.19824803,2.00348993,0.23333497,0.36037166,0.48540019
16043,0,USIdahoFremont,Idaho,Fremont,2021-01-06 00:56:33.889874,2020-08-31 00:00:00.000000,1.35782119,2.25137081,3.94331968,177,294,516,83,161,271,0.63907692,1.23237406,2.07082790,0.24616834,0.37483042,0.51324848
16043,0,USIdahoFremont,Idaho,Fremont,2021-01-06 00:56:33.889874,2020-09-01 00:00:00.000000,1.42293680,2.33223230,4.03513796,186,305,528,85,166,278,0.65507407,1.26794118,2.12763509,0.25594812,0.38286533,0.54011115
16043,0,USIdahoFremont,Idaho,Fremont,2021-01-06 00:56:33.889874,2020-09-02 00:00:00.000000,1.49321917,2.45405631,4.20495302,195,321,550,88,171,284,0.67216900,1.30672345,2.17493384,0.25630426,0.39278125,0.54754007
16043,0,USIdahoFremont,Idaho,Fremont,2021-01-06 00:56:33.889874,2020-09-03 00:00:00.000000,1.56384019,2.61014251,4.38603865,204,341,574,91,177,296,0.69769699,1.35190268,2.26382667,0.25925958,0.39837647,0.54781703
16043,0,USIdahoFremont,Idaho,Fremont,2021-01-06 00:56:33.889874,2020-09-04 00:00:00.000000,1.61459254,2.76115745,4.54130349,211,361,594,94,182,309,0.71883918,1.39563538,2.36091039,0.27123930,0.41150199,0.54228059
16043,0,USIdahoFremont,Idaho,Fremont,2021-01-06 00:56:33.889874,2020-09-05 00:00:00.000000,1.67932230,2.85797162,4.67559817,219,374,612,97,186,320,0.74643655,1.42378038,2.44981382,0.27379315,0.41726930,0.56552050
16043,0,USIdahoFremont,Idaho,Fremont,2021-01-06 00:56:33.889874,2020-09-06 00:00:00.000000,1.75651471,2.95651575,4.84937517,230,387,635,101,193,333,0.77819585,1.47382976,2.54528521,0.29799560,0.43158316,0.57735028
16043,0,USIdahoFremont,Idaho,Fremont,2021-01-06 00:56:33.889874,2020-09-07 00:00:00.000000,1.86157182,3.06699091,5.04862898,243,401,661,107,199,347,0.81888562,1.51999170,2.65456576,0.31098988,0.44429079,0.60703264
16043,0,USIdahoFremont,Idaho,Fremont,2021-01-06 00:56:33.889874,2020-09-08 00:00:00.000000,1.97588958,3.18950086,5.25569861,258,417,688,112,205,363,0.85718279,1.56853344,2.77744898,0.32058700,0.46070101,0.62397208
16043,0,USIdahoFremont,Idaho,Fremont,2021-01-06 00:56:33.889874,2020-09-09 00:00:00.000000,2.10207027,3.32416192,5.50287157,275,435,720,117,212,380,0.90064822,1.62453299,2.90203104,0.33664212,0.47994976,0.63953364
16043,0,USIdahoFremont,Idaho,Fremont,2021-01-06 00:56:33.889874,2020-09-10 00:00:00.000000,2.24666687,3.49921590,5.74665237,294,458,752,124,221,395,0.94931128,1.69342242,3.01623238,0.34720638,0.48313199,0.65114905
16043,0,USIdahoFremont,Idaho,Fremont,2021-01-06 00:56:33.889874,2020-09-11 00:00:00.000000,2.32796998,3.71459227,6.00021915,304,486,785,130,230,410,0.99896734,1.76265937,3.13645173,0.35998105,0.49686223,0.67764229
16043,0,USIdahoFremont,Idaho,Fremont,2021-01-06 00:56:33.889874,2020-09-12 00:00:00.000000,2.46016544,3.95586245,6.27831033,322,518,822,138,241,427,1.05378453,1.84084444,3.26526159,0.36633210,0.49812584,0.70300339
16043,0,USIdahoFremont,Idaho,Fremont,2021-01-06 00:56:33.889874,2020-09-13 00:00:00.000000,2.65420113,4.22422631,6.58504244,347,553,862,146,255,446,1.11519940,1.94691572,3.40487744,0.37477574,0.51123945,0.73002119
16043,0,USIdahoFremont,Idaho,Fremont,2021-01-06 00:56:33.889874,2020-09-14 00:00:00.000000,2.89028631,4.48059831,6.91212999,378,586,905,155,270,465,1.18495031,2.06146149,3.55718139,0.37320169,0.52132655,0.75400491
16043,0,USIdahoFremont,Idaho,Fremont,2021-01-06 00:56:33.889874,2020-09-15 00:00:00.000000,3.08838458,4.71778727,7.26550306,404,617,951,165,286,486,1.26500183,2.19031146,3.71350931,0.37359459,0.52381457,0.77229518
16043,0,USIdahoFremont,Idaho,Fremont,2021-01-06 00:56:33.889874,2020-09-16 00:00:00.000000,3.23962138,5.01407570,7.63997308,424,656,1000,177,304,505,1.35475701,2.32114104,3.85581957,0.37818662,0.53071526,0.78491770
16043,0,USIdahoFremont,Idaho,Fremont,2021-01-06 00:56:33.889874,2020-09-17 00:00:00.000000,3.41277862,5.36258734,8.03342925,447,702,1052,190,323,532,1.45378112,2.46640448,4.06259716,0.38606846,0.53582281,0.79290192
16043,0,USIdahoFremont,Idaho,Fremont,2021-01-06 00:56:33.889874,2020-09-18 00:00:00.000000,3.60540264,5.70956406,8.44641789,472,747,1106,204,341,560,1.56219722,2.60945359,4.28087652,0.39542471,0.54706370,0.79057127
16043,0,USIdahoFremont,Idaho,Fremont,2021-01-06 00:56:33.889874,2020-09-19 00:00:00.000000,3.81333619,6.17751501,8.87288197,499,809,1162,220,362,591,1.67973056,2.76446338,4.51405307,0.39829581,0.55484671,0.77571297
16043,0,USIdahoFremont,Idaho,Fremont,2021-01-06 00:56:33.889874,2020-09-20 00:00:00.000000,4.03369404,6.53996313,9.38172739,528,856,1228,236,382,621,1.80579713,2.92209514,4.74580743,0.39928721,0.56502223,0.78857832
16043,0,USIdahoFremont,Idaho,Fremont,2021-01-06 00:56:33.889874,2020-09-21 00:00:00.000000,4.29941157,6.99163589,9.97003795,563,915,1305,253,407,654,1.93890875,3.11158113,4.99630433,0.39924503,0.57594977,0.77668039
16043,0,USIdahoFremont,Idaho,Fremont,2021-01-06 00:56:33.889874,2020-09-22 00:00:00.000000,4.65258178,7.42535411,10.66048106,609,972,1396,272,434,691,2.07741910,3.31413327,5.27605980,0.39886267,0.58061877,0.77882028
16043,0,USIdahoFremont,Idaho,Fremont,2021-01-06 00:56:33.889874,2020-09-23 00:00:00.000000,5.02622807,7.79349133,11.38748740,658,1020,1491,290,463,732,2.22074533,3.53730371,5.59443343,0.39811187,0.58365658,0.78285506
16043,0,USIdahoFremont,Idaho,Fremont,2021-01-06 00:56:33.889874,2020-09-24 00:00:00.000000,5.41960993,8.13788891,12.09344427,709,1065,1584,310,493,779,2.36851112,3.76608335,5.95207835,0.39705874,0.58068312,0.78240262
16043,0,USIdahoFremont,Idaho,Fremont,2021-01-06 00:56:33.889874,2020-09-25 00:00:00.000000,5.83184124,8.63493729,12.81787952,763,1131,1679,330,520,830,2.51946300,3.97331392,6.34381011,0.39547535,0.57374775,0.77813848
16043,0,USIdahoFremont,Idaho,Fremont,2021-01-06 00:56:33.889874,2020-09-26 00:00:00.000000,6.26139359,9.13614142,13.55116706,820,1196,1775,349,546,885,2.67116128,4.17259144,6.76114579,0.39369752,0.54914603,0.75833605
16043,0,USIdahoFremont,Idaho,Fremont,2021-01-06 00:56:33.889874,2020-09-27 00:00:00.000000,6.70538790,9.60413759,14.27413908,878,1258,1869,369,570,941,2.82034420,4.35842982,7.19028078,0.39297141,0.54961220,0.72341634
16043,0,USIdahoFremont,Idaho,Fremont,2021-01-06 00:56:33.889874,2020-09-28 00:00:00.000000,7.03422844,10.10763408,14.95844714,921,1323,1959,386,598,996,2.95245145,4.57129492,7.61026571,0.39216879,0.53574621,0.71992804
16043,0,USIdahoFremont,Idaho,Fremont,2021-01-06 00:56:33.889874,2020-09-29 00:00:00.000000,7.32832901,10.45064435,15.50766435,959,1368,2031,403,628,1048,3.08085830,4.80125953,8.00771949,0.37951360,0.53091729,0.71268105
16043,0,USIdahoFremont,Idaho,Fremont,2021-01-06 00:56:33.889874,2020-09-30 00:00:00.000000,7.62942460,10.82139900,15.94044451,999,1417,2088,426,667,1096,3.25296533,5.09440639,8.37307418,0.35651653,0.50185003,0.68004410
16043,0,USIdahoFremont,Idaho,Fremont,2021-01-06 00:56:33.889874,2020-10-01 00:00:00.000000,7.94406232,11.16184418,16.34504943,1040,1462,2141,447,701,1140,3.41929673,5.35822422,8.70717947,0.33651003,0.48162768,0.65506882
16043,0,USIdahoFremont,Idaho,Fremont,2021-01-06 00:56:33.889874,2020-10-02 00:00:00.000000,8.28105775,11.56807914,16.69104500,1084,1515,2186,468,732,1180,3.57625756,5.59124018,9.01450191,0.32961379,0.46442842,0.62440111
16043,0,USIdahoFremont,Idaho,Fremont,2021-01-06 00:56:33.889874,2020-10-03 00:00:00.000000,8.48667067,12.02020703,17.01730943,1111,1574,2229,487,757,1218,3.72069352,5.77976463,9.29950405,0.32742612,0.45364127,0.61853263
16043,0,USIdahoFremont,Idaho,Fremont,2021-01-06 00:56:33.889874,2020-10-04 00:00:00.000000,8.63081369,12.22336178,17.26358122,1130,1601,2261,504,784,1252,3.85065450,5.98522435,9.56542482,0.32361581,0.45781757,0.60973294
16043,0,USIdahoFremont,Idaho,Fremont,2021-01-06 00:56:33.889874,2020-10-05 00:00:00.000000,8.90394639,12.36479251,17.45548498,1166,1619,2286,519,812,1285,3.96540766,6.20608601,9.81390100,0.31515316,0.45121952,0.60840528
16043,0,USIdahoFremont,Idaho,Fremont,2021-01-06 00:56:33.889874,2020-10-06 00:00:00.000000,9.31398398,12.55700449,17.59811589,1220,1644,2305,532,835,1315,4.06653354,6.37650674,10.03989294,0.30829716,0.45039016,0.60518251
16043,0,USIdahoFremont,Idaho,Fremont,2021-01-06 00:56:33.889874,2020-10-07 00:00:00.000000,9.53421687,12.76130365,17.81773982,1248,1671,2333,544,852,1341,4.15450369,6.50864354,10.24268552,0.30756995,0.44700119,0.58823795
16043,0,USIdahoFremont,Idaho,Fremont,2021-01-06 00:56:33.889874,2020-10-08 00:00:00.000000,9.55204600,12.84086770,18.12169431,1251,1682,2373,554,859,1364,4.23048826,6.56110418,10.41995026,0.30628804,0.44528873,0.56983768
16043,0,USIdahoFremont,Idaho,Fremont,2021-01-06 00:56:33.889874,2020-10-09 00:00:00.000000,9.55807431,12.97124567,18.38473111,1252,1699,2408,562,868,1384,4.29670094,6.63099949,10.56968609,0.30408356,0.44755636,0.56611352
16043,0,USIdahoFremont,Idaho,Fremont,2021-01-06 00:56:33.889874,2020-10-10 00:00:00.000000,9.57069129,13.13432622,18.44683420,1253,1720,2416,570,882,1400,4.35473934,6.73608407,10.69198669,0.30105100,0.44450765,0.56458797
16043,0,USIdahoFremont,Idaho,Fremont,2021-01-06 00:56:33.889874,2020-10-11 00:00:00.000000,9.61683918,13.30657318,18.49241236,1259,1743,2422,582,895,1413,4.44887126,6.83766452,10.78932559,0.29319564,0.44709131,0.56283171
16043,0,USIdahoFremont,Idaho,Fremont,2021-01-06 00:56:33.889874,2020-10-12 00:00:00.000000,9.67456042,13.44090316,18.65760615,1267,1760,2443,602,906,1423,4.59659087,6.91942174,10.86613233,0.28928139,0.45066247,0.56082933
16043,0,USIdahoFremont,Idaho,Fremont,2021-01-06 00:56:33.889874,2020-10-13 00:00:00.000000,9.64433016,13.62257275,19.10632746,1263,1784,2502,599,913,1431,4.57844366,6.97211893,10.92497076,0.28798574,0.44665390,0.58273342
16043,0,USIdahoFremont,Idaho,Fremont,2021-01-06 00:56:33.889874,2020-10-14 00:00:00.000000,9.70024541,13.74882166,19.20782150,1270,1800,2516,599,923,1437,4.57702814,7.04782399,10.97459015,0.28152005,0.44181031,0.63893505
16043,0,USIdahoFremont,Idaho,Fremont,2021-01-06 00:56:33.889874,2020-10-15 00:00:00.000000,9.80828958,13.85138254,19.27414802,1284,1814,2524,610,929,1443,4.66332582,7.09824226,11.01997328,0.28077931,0.44293424,0.64879653
16043,0,USIdahoFremont,Idaho,Fremont,2021-01-06 00:56:33.889874,2020-10-16 00:00:00.000000,9.79898603,13.89096669,19.31799049,1283,1819,2530,621,943,1449,4.74552320,7.20175887,11.06241453,0.28042414,0.43422842,0.64561395
16043,0,USIdahoFremont,Idaho,Fremont,2021-01-06 00:56:33.889874,2020-10-17 00:00:00.000000,9.72143837,13.93477233,19.23508261,1273,1825,2519,627,960,1458,4.78935322,7.33630516,11.13133055,0.27740493,0.42514469,0.62879672
16043,0,USIdahoFremont,Idaho,Fremont,2021-01-06 00:56:33.889874,2020-10-18 00:00:00.000000,9.65196935,13.85908375,19.31959087,1264,1815,2530,627,974,1491,4.78990027,7.44244868,11.38611726,0.27066882,0.42143065,0.60695280
16043,0,USIdahoFremont,Idaho,Fremont,2021-01-06 00:56:33.889874,2020-10-19 00:00:00.000000,9.56935792,13.73571921,19.30718108,1253,1799,2529,626,981,1521,4.78204173,7.49502123,11.61384720,0.26115778,0.41865072,0.59527736
16043,0,USIdahoFremont,Idaho,Fremont,2021-01-06 00:56:33.889874,2020-10-20 00:00:00.000000,9.51202020,13.68289093,19.16254971,1245,1792,2510,623,985,1546,4.76355131,7.52148532,11.80603852,0.23506156,0.41151935,0.58676341
16043,0,USIdahoFremont,Idaho,Fremont,2021-01-06 00:56:33.889874,2020-10-21 00:00:00.000000,9.47240313,13.69636179,19.28154155,1240,1794,2525,612,989,1563,4.67297415,7.55413491,11.93662880,0.22753489,0.40664192,0.58477602
16043,0,USIdahoFremont,Idaho,Fremont,2021-01-06 00:56:33.889874,2020-10-22 00:00:00.000000,9.40531502,13.63534586,19.13002848,1232,1786,2505,590,987,1544,4.51039034,7.54144098,11.79450148,0.22749115,0.39985815,0.57319500
16043,0,USIdahoFremont,Idaho,Fremont,2021-01-06 00:56:33.889874,2020-10-23 00:00:00.000000,9.15516835,13.52750633,18.91684630,1199,1771,2477,569,980,1523,4.34904233,7.48378809,11.63007873,0.22857898,0.39827013,0.55711495
16043,0,USIdahoFremont,Idaho,Fremont,2021-01-06 00:56:33.889874,2020-10-24 00:00:00.000000,8.89817490,13.38746930,18.66361474,1165,1753,2444,561,968,1499,4.28646230,7.39466913,11.44866679,0.22984525,0.39893460,0.56103524
16043,0,USIdahoFremont,Idaho,Fremont,2021-01-06 00:56:33.889874,2020-10-25 00:00:00.000000,8.63754146,13.22271988,18.37865442,1131,1732,2407,559,958,1474,4.27164864,7.31775857,11.25596422,0.22926431,0.39810652,0.57882347
16043,0,USIdahoFremont,Idaho,Fremont,2021-01-06 00:56:33.889874,2020-10-26 00:00:00.000000,8.38542710,13.06770018,18.06877684,1098,1711,2366,557,946,1448,4.25617272,7.22382357,11.06039299,0.23483127,0.40165215,0.59934479
16043,0,USIdahoFremont,Idaho,Fremont,2021-01-06 00:56:33.889874,2020-10-27 00:00:00.000000,8.13490065,12.88824775,17.78161521,1065,1688,2329,554,936,1423,4.23307778,7.15269039,10.87071008,0.23746293,0.40693155,0.58475045
16043,0,USIdahoFremont,Idaho,Fremont,2021-01-06 00:56:33.889874,2020-10-28 00:00:00.000000,7.88757929,12.69785766,17.59110608,1033,1663,2304,549,926,1419,4.19724067,7.07211853,10.83376790,0.24006023,0.41294612,0.59956927
16043,0,USIdahoFremont,Idaho,Fremont,2021-01-06 00:56:33.889874,2020-10-29 00:00:00.000000,7.64438165,12.55230356,17.37620747,1001,1644,2276,536,915,1410,4.09511081,6.98545405,10.76547026,0.24125728,0.41508122,0.61494520
16043,0,USIdahoFremont,Idaho,Fremont,2021-01-06 00:56:33.889874,2020-10-30 00:00:00.000000,7.40631284,12.35966221,17.13662777,970,1618,2244,519,902,1397,3.96824061,6.89237076,10.66948808,0.25603606,0.42032330,0.63383072
16043,0,USIdahoFremont,Idaho,Fremont,2021-01-06 00:56:33.889874,2020-10-31 00:00:00.000000,7.17556596,12.11715642,16.92837261,939,1587,2217,504,891,1382,3.84930488,6.80718603,10.55095253,0.25796925,0.42374459,0.64608656
16043,0,USIdahoFremont,Idaho,Fremont,2021-01-06 00:56:33.889874,2020-11-01 00:00:00.000000,6.95925603,11.84778662,16.81649559,911,1551,2202,490,883,1364,3.74322296,6.74414876,10.41606792,0.25773220,0.43312980,0.66751729
16043,0,USIdahoFremont,Idaho,Fremont,2021-01-06 00:56:33.889874,2020-11-02 00:00:00.000000,6.77266949,11.65334212,16.62839570,887,1526,2178,478,868,1345,3.65087872,6.63183382,10.27149132,0.25675824,0.43588075,0.70193800
16043,0,USIdahoFremont,Idaho,Fremont,2021-01-06 00:56:33.889874,2020-11-03 00:00:00.000000,6.65125070,11.62879608,16.41439949,871,1523,2150,467,853,1326,3.57205797,6.51512839,10.12303777,0.25677027,0.44527371,0.73481423
16043,0,USIdahoFremont,Idaho,Fremont,2021-01-06 00:56:33.889874,2020-11-04 00:00:00.000000,6.58751583,11.53497479,16.18149531,862,1510,2119,458,839,1306,3.50335648,6.40616592,9.97387825,0.27070837,0.46682732,0.74531908
16043,0,USIdahoFremont,Idaho,Fremont,2021-01-06 00:56:33.889874,2020-11-05 00:00:00.000000,6.55135032,11.35587670,15.94017913,858,1487,2088,450,825,1287,3.44218591,6.30555804,9.82684579,0.29396515,0.48389128,0.74763539
16043,0,USIdahoFremont,Idaho,Fremont,2021-01-06 00:56:33.889874,2020-11-06 00:00:00.000000,6.53010172,11.26391458,15.70969290,855,1475,2057,443,813,1270,3.38786559,6.21253867,9.69566360,0.30227067,0.50216897,0.74890000
16043,0,USIdahoFremont,Idaho,Fremont,2021-01-06 00:56:33.889874,2020-11-07 00:00:00.000000,6.52157110,11.13346185,15.51429759,854,1458,2032,437,799,1257,3.34264610,6.10597052,9.60269851,0.31307718,0.52050070,0.76550679
16043,0,USIdahoFremont,Idaho,Fremont,2021-01-06 00:56:33.889874,2020-11-08 00:00:00.000000,6.52375051,11.07729891,15.34943852,854,1451,2010,433,786,1250,3.31007514,6.00046847,9.54334169,0.32301762,0.54525698,0.79991232
16043,0,USIdahoFremont,Idaho,Fremont,2021-01-06 00:56:33.889874,2020-11-09 00:00:00.000000,6.53625203,10.95111850,15.16832300,856,1434,1986,431,778,1245,3.29041387,5.94138874,9.50685645,0.34067189,0.57007034,0.81545737
16043,0,USIdahoFremont,Idaho,Fremont,2021-01-06 00:56:33.889874,2020-11-10 00:00:00.000000,6.47426743,10.81327438,14.97731363,848,1416,1961,429,767,1242,3.27840843,5.85875094,9.48551220,0.34170493,0.58377565,0.85607350
16043,0,USIdahoFremont,Idaho,Fremont,2021-01-06 00:56:33.889874,2020-11-11 00:00:00.000000,6.42760162,10.74825533,14.77427728,841,1407,1935,428,758,1240,3.27129546,5.78984902,9.47378446,0.34229471,0.58750030,0.95453194
16043,0,USIdahoFremont,Idaho,Fremont,2021-01-06 00:56:33.889874,2020-11-12 00:00:00.000000,6.40877483,10.68771298,14.56028301,839,1399,1907,427,753,1240,3.26493466,5.75065035,9.46887198,0.34358389,0.60987369,1.01988400
16043,0,USIdahoFremont,Idaho,Fremont,2021-01-06 00:56:33.889874,2020-11-13 00:00:00.000000,6.40468418,10.55090780,14.33798624,838,1382,1878,426,746,1240,3.25318918,5.69551310,9.46834205,0.34657173,0.61790355,1.05773467
16043,0,USIdahoFremont,Idaho,Fremont,2021-01-06 00:56:33.889874,2020-11-14 00:00:00.000000,6.40062267,10.46144202,14.16024526,838,1370,1854,423,744,1240,3.23522881,5.68469131,9.46903510,0.34894046,0.64971402,1.11401211
16043,0,USIdahoFremont,Idaho,Fremont,2021-01-06 00:56:33.889874,2020-11-15 00:00:00.000000,6.38568599,10.47620155,14.18813966,836,1372,1858,420,749,1240,3.21312130,5.71814464,9.46790762,0.34882271,0.65701516,1.13400824
16043,0,USIdahoFremont,Idaho,Fremont,2021-01-06 00:56:33.889874,2020-11-16 00:00:00.000000,6.36859951,10.43810121,14.23458838,834,1367,1864,417,747,1233,3.18731233,5.70843952,9.41789706,0.35098694,0.68032485,1.15824359
16043,0,USIdahoFremont,Idaho,Fremont,2021-01-06 00:56:33.889874,2020-11-17 00:00:00.000000,6.33831430,10.32474904,14.26141930,830,1352,1868,414,740,1224,3.16560835,5.65019839,9.34916019,0.37923601,0.69178199,1.19448349
16043,0,USIdahoFremont,Idaho,Fremont,2021-01-06 00:56:33.889874,2020-11-18 00:00:00.000000,6.29956426,10.25026766,14.26760957,825,1342,1868,413,733,1216,3.15773398,5.60310192,9.28871614,0.39208828,0.69816946,1.23695037
16043,0,USIdahoFremont,Idaho,Fremont,2021-01-06 00:56:33.889874,2020-11-19 00:00:00.000000,6.25955500,10.09322971,14.27652784,819,1322,1870,414,732,1209,3.16071389,5.58946479,9.23641499,0.40219330,0.70883748,1.29122483
16043,0,USIdahoFremont,Idaho,Fremont,2021-01-06 00:56:33.889874,2020-11-20 00:00:00.000000,6.24828403,9.99246165,14.29543440,818,1308,1872,415,731,1204,3.17030182,5.58453059,9.19309098,0.40562403,0.72001856,1.32081549
16043,0,USIdahoFremont,Idaho,Fremont,2021-01-06 00:56:33.889874,2020-11-21 00:00:00.000000,6.24264229,9.93668684,14.28090623,817,1301,1870,417,722,1199,3.18351767,5.51403621,9.15664477,0.40591653,0.73185890,1.33353605
16043,0,USIdahoFremont,Idaho,Fremont,2021-01-06 00:56:33.889874,2020-11-22 00:00:00.000000,6.18953662,9.86934048,14.23385746,810,1292,1864,418,717,1195,3.19830640,5.47479057,9.12343650,0.40545143,0.75110774,1.36312285
16043,0,USIdahoFremont,Idaho,Fremont,2021-01-06 00:56:33.889874,2020-11-23 00:00:00.000000,6.11804857,9.78598151,14.14487091,801,1281,1852,420,711,1190,3.21321236,5.43528237,9.09007946,0.40442667,0.74835904,1.38651227
16043,0,USIdahoFremont,Idaho,Fremont,2021-01-06 00:56:33.889874,2020-11-24 00:00:00.000000,6.06243876,9.64218731,14.02445240,794,1263,1837,422,703,1186,3.22411771,5.37386986,9.05693211,0.40258629,0.75425840,1.42775385
16043,0,USIdahoFremont,Idaho,Fremont,2021-01-06 00:56:33.889874,2020-11-25 00:00:00.000000,6.01963981,9.51050883,13.87364370,788,1245,1817,423,696,1181,3.23101984,5.31955465,9.02117572,0.40135976,0.76416665,1.48131524
16043,0,USIdahoFremont,Idaho,Fremont,2021-01-06 00:56:33.889874,2020-11-26 00:00:00.000000,5.97810499,9.35798289,13.69536272,783,1225,1793,420,691,1176,3.21037267,5.28262852,8.98061649,0.40092577,0.76721912,1.59873461
16043,0,USIdahoFremont,Idaho,Fremont,2021-01-06 00:56:33.889874,2020-11-27 00:00:00.000000,5.93405713,9.21475984,13.65085765,777,1207,1788,417,684,1170,3.18562532,5.22826051,8.93334892,0.40063040,0.77861287,1.58423833
16043,0,USIdahoFremont,Idaho,Fremont,2021-01-06 00:56:33.889874,2020-11-28 00:00:00.000000,5.88675951,9.01424303,13.57309007,771,1180,1777,414,671,1162,3.16161043,5.12362728,8.87758616,0.40021261,0.78051591,1.56279496
16043,0,USIdahoFremont,Idaho,Fremont,2021-01-06 00:56:33.889874,2020-11-29 00:00:00.000000,5.83605145,8.86568587,13.45932752,764,1161,1763,410,662,1154,3.13727157,5.06128593,8.81201309,0.38864902,0.78456965,1.57880012
16043,0,USIdahoFremont,Idaho,Fremont,2021-01-06 00:56:33.889874,2020-11-30 00:00:00.000000,5.80060408,8.78686622,13.30710235,759,1150,1743,406,654,1144,3.10088209,4.99575002,8.73631327,0.38542802,0.78448365,1.67397061
16043,0,USIdahoFremont,Idaho,Fremont,2021-01-06 00:56:33.889874,2020-12-01 00:00:00.000000,5.74663574,8.70785480,13.11665673,752,1140,1718,400,640,1133,3.06068449,4.88652949,8.65142045,0.38492744,0.79235067,1.70783832
16043,0,USIdahoFremont,Idaho,Fremont,2021-01-06 00:56:33.889874,2020-12-02 00:00:00.000000,5.62629563,8.60825178,12.89209470,736,1127,1688,397,625,1121,3.03500862,4.77851868,8.55795932,0.38481479,0.83257048,1.72545357
16043,0,USIdahoFremont,Idaho,Fremont,2021-01-06 00:56:33.889874,2020-12-03 00:00:00.000000,5.51360446,8.38155909,12.63887777,722,1097,1655,389,612,1107,2.97214711,4.67890651,8.45677832,0.36784022,0.84700268,1.73225128
16043,0,USIdahoFremont,Idaho,Fremont,2021-01-06 00:56:33.889874,2020-12-04 00:00:00.000000,5.47820823,8.15648469,12.36013399,717,1068,1619,383,600,1093,2.92460321,4.58100303,8.34888237,0.36193245,0.82681033,1.78155870
16043,0,USIdahoFremont,Idaho,Fremont,2021-01-06 00:56:33.889874,2020-12-05 00:00:00.000000,5.43045198,7.94159667,12.04976698,711,1040,1578,376,588,1078,2.87567041,4.49270630,8.23545243,0.35352986,0.81891340,2.06037140
16043,0,USIdahoFremont,Idaho,Fremont,2021-01-06 00:56:33.889874,2020-12-06 00:00:00.000000,5.31734658,7.77251198,11.70044573,696,1018,1532,370,577,1063,2.82572047,4.40848836,8.11777226,0.34728779,0.80386677,2.16415811
16043,0,USIdahoFremont,Idaho,Fremont,2021-01-06 00:56:33.889874,2020-12-07 00:00:00.000000,5.21176988,7.56328145,11.48450833,682,990,1504,363,565,1047,2.77381356,4.32006589,7.99692993,0.34471110,0.79009426,2.30197765
16043,0,USIdahoFremont,Idaho,Fremont,2021-01-06 00:56:33.889874,2020-12-08 00:00:00.000000,5.04849085,7.29795096,11.25660016,661,955,1474,353,553,1030,2.69861318,4.22478657,7.87045686,0.34390280,0.76966387,2.32759472
16043,0,USIdahoFremont,Idaho,Fremont,2021-01-06 00:56:33.889874,2020-12-09 00:00:00.000000,4.89107073,7.04934081,11.01463617,640,923,1442,342,538,1013,2.61623906,4.10798523,7.73911665,0.33133800,0.77730463,2.32584488
16043,0,USIdahoFremont,Idaho,Fremont,2021-01-06 00:56:33.889874,2020-12-10 00:00:00.000000,4.71173515,6.85031584,10.75515155,617,897,1408,331,523,995,2.53076092,3.99397674,7.60264578,0.31847797,0.76267220,2.37555990
16043,0,USIdahoFremont,Idaho,Fremont,2021-01-06 00:56:33.889874,2020-12-11 00:00:00.000000,4.53281726,6.61812037,10.55835397,593,866,1383,320,509,977,2.44369329,3.88732496,7.45916580,0.33021634,0.77228491,2.43077717
16043,0,USIdahoFremont,Idaho,Fremont,2021-01-06 00:56:33.889874,2020-12-12 00:00:00.000000,4.35575270,6.34953638,10.40554014,570,831,1363,308,494,957,2.35605752,3.77691652,7.30604358,0.32951597,0.75274058,2.48892120
16043,0,USIdahoFremont,Idaho,Fremont,2021-01-06 00:56:33.889874,2020-12-13 00:00:00.000000,4.18130401,6.06483862,10.21815045,547,794,1338,297,478,935,2.26937148,3.65631361,7.14301028,0.32924467,0.75018917,2.50921331
16043,0,USIdahoFremont,Idaho,Fremont,2021-01-06 00:56:33.889874,2020-12-14 00:00:00.000000,4.01832835,5.83746858,10.00439002,526,764,1310,288,462,913,2.20462193,3.52873057,6.97192501,0.33001575,0.75320303,2.50889671
16043,0,USIdahoFremont,Idaho,Fremont,2021-01-06 00:56:33.889874,2020-12-15 00:00:00.000000,3.84143623,5.62203259,9.78239721,503,736,1281,275,446,889,2.10003553,3.40574526,6.79408873,0.32617824,0.74489024,2.50711534
16043,0,USIdahoFremont,Idaho,Fremont,2021-01-06 00:56:33.889874,2020-12-16 00:00:00.000000,3.67330156,5.44615011,9.55621052,481,713,1251,264,429,866,2.01971629,3.27711351,6.61169678,0.32261086,0.73770680,2.49370129
16043,0,USIdahoFremont,Idaho,Fremont,2021-01-06 00:56:33.889874,2020-12-17 00:00:00.000000,3.48623476,5.24760000,9.32796559,456,687,1221,254,410,841,1.94219389,3.13387683,6.42638880,0.31314115,0.73032614,2.43536076
16043,0,USIdahoFremont,Idaho,Fremont,2021-01-06 00:56:33.889874,2020-12-18 00:00:00.000000,3.30808752,5.02786525,9.09908016,433,658,1191,244,393,817,1.86723327,3.00314891,6.23910264,0.30266919,0.72483744,2.35721431
16043,0,USIdahoFremont,Idaho,Fremont,2021-01-06 00:56:33.889874,2020-12-19 00:00:00.000000,3.14600352,4.84849387,8.87108998,412,635,1162,234,378,792,1.79353985,2.89068713,6.05011790,0.30739663,0.71680278,2.48081881
16043,0,USIdahoFremont,Idaho,Fremont,2021-01-06 00:56:33.889874,2020-12-20 00:00:00.000000,2.99811268,4.63391326,8.64643611,392,606,1132,222,364,767,1.69856815,2.77952438,5.85986791,0.31294186,0.74513339,2.50512230
16043,0,USIdahoFremont,Idaho,Fremont,2021-01-06 00:56:33.889874,2020-12-21 00:00:00.000000,2.87392947,4.42001328,8.42563626,376,578,1103,210,349,742,1.60897681,2.66819606,5.66935052,0.31151093,0.74150280,2.51893296
16043,0,USIdahoFremont,Idaho,Fremont,2021-01-06 00:56:33.889874,2020-12-22 00:00:00.000000,2.75816742,4.23052053,8.20836092,361,554,1075,199,335,718,1.52129396,2.56002586,5.48754265,0.29560515,0.73977142,2.53640412
16043,0,USIdahoFremont,Idaho,Fremont,2021-01-06 00:56:33.889874,2020-12-23 00:00:00.000000,2.64995114,4.08985085,7.99351304,347,535,1047,188,321,695,1.43652000,2.45167291,5.31332358,0.28603648,0.74446630,2.56135848
16043,0,USIdahoFremont,Idaho,Fremont,2021-01-06 00:56:33.889874,2020-12-24 00:00:00.000000,2.54828658,3.91198936,7.78107375,333,512,1019,177,304,675,1.35520499,2.32381882,5.15518987,0.29129660,0.74197526,2.59710549
16043,0,USIdahoFremont,Idaho,Fremont,2021-01-06 00:56:33.889874,2020-12-25 00:00:00.000000,2.45246044,3.76239974,7.57139204,321,492,991,167,292,658,1.27760608,2.23489122,5.02800276,0.29457722,0.73523627,2.67105902
16043,0,USIdahoFremont,Idaho,Fremont,2021-01-06 00:56:33.889874,2020-12-26 00:00:00.000000,2.30911829,3.57896208,7.31743045,302,468,958,157,283,642,1.20379122,2.16387714,4.90149681,0.29054516,0.73498482,2.74893360
16043,0,USIdahoFremont,Idaho,Fremont,2021-01-06 00:56:33.889874,2020-12-27 00:00:00.000000,2.17303914,3.41891204,6.98676847,284,447,915,148,274,623,1.13371032,2.09931259,4.76078707,0.27379937,0.73968615,2.81727355
16043,0,USIdahoFremont,Idaho,Fremont,2021-01-06 00:56:33.889874,2020-12-28 00:00:00.000000,2.03836359,3.24055530,6.65881083,267,424,872,139,263,598,1.06728354,2.01376836,4.56793376,0.26449196,0.72804804,2.88898981
16043,0,USIdahoFremont,Idaho,Fremont,2021-01-06 00:56:33.889874,2020-12-29 00:00:00.000000,1.91279254,3.08561449,6.33867940,250,404,830,131,250,573,1.00338244,1.91053076,4.37694789,0.25947445,0.73252554,3.01124417
16043,0,USIdahoFremont,Idaho,Fremont,2021-01-06 00:56:33.889874,2020-12-30 00:00:00.000000,1.79948954,2.95006275,6.02658343,235,386,789,123,237,551,0.94266571,1.81317597,4.21246695,0.25592548,0.73220702,3.18720343
16043,0,USIdahoFremont,Idaho,Fremont,2021-01-06 00:56:33.889874,2020-12-31 00:00:00.000000,1.70029058,2.82035811,5.72298773,222,369,749,116,224,530,0.88628201,1.71525968,4.05348392,0.24926784,0.73143331,3.31342567
16043,0,USIdahoFremont,Idaho,Fremont,2021-01-06 00:56:33.889874,2021-01-01 00:00:00.000000,1.61070928,2.69287098,5.42657091,210,352,710,109,213,510,0.83843182,1.62623251,3.89360784,0.24572168,0.73027009,3.36311698
16043,0,USIdahoFremont,Idaho,Fremont,2021-01-06 00:56:33.889874,2021-01-02 00:00:00.000000,1.51370938,2.55187678,5.13690309,198,334,672,104,202,489,0.79829416,1.54559043,3.73493167,0.24268201,0.71968205,3.37807589
16043,0,USIdahoFremont,Idaho,Fremont,2021-01-06 00:56:33.889874,2021-01-03 00:00:00.000000,1.39585493,2.42727461,4.85528670,182,317,635,99,192,468,0.76085720,1.46824187,3.57882865,0.24681729,0.70523973,3.38277943
16043,0,USIdahoFremont,Idaho,Fremont,2021-01-06 00:56:33.889874,2021-01-04 00:00:00.000000,1.28605828,2.29026696,4.58368042,168,300,600,95,182,448,0.72585755,1.39393495,3.42598047,0.24552589,0.69607683,3.38568197
16043,0,USIdahoFremont,Idaho,Fremont,2021-01-06 00:56:33.889874,2021-01-05 00:00:00.000000,1.18412543,2.18096644,4.32343559,155,285,566,90,172,429,0.69076460,1.31589312,3.27690373,0.24394393,0.69546569,3.38997332
16043,0,USIdahoFremont,Idaho,Fremont,2021-01-06 00:56:33.889874,2021-01-06 00:00:00.000000,1.09897295,2.07729768,4.07513435,143,272,533,84,163,410,0.64158578,1.24598490,3.13198770,0.24373271,0.70183132,3.39070038
16043,0,USIdahoFremont,Idaho,Fremont,2021-01-06 00:56:33.889874,2021-01-07 00:00:00.000000,1.04872606,1.96303701,3.83887409,137,257,502,78,154,391,0.60119950,1.17772834,2.99151973,0.24368418,0.70375129,3.39072035
16043,0,USIdahoFremont,Idaho,Fremont,2021-01-06 00:56:33.889874,2021-01-08 00:00:00.000000,0.98381634,1.86509636,3.62508293,128,244,474,74,145,374,0.57012089,1.11410216,2.85570270,0.24366598,0.71868544,3.39072621
16043,0,USIdahoFremont,Idaho,Fremont,2021-01-06 00:56:33.889874,2021-01-09 00:00:00.000000,0.91549764,1.76716461,3.59473928,119,231,470,70,138,356,0.54071093,1.05740560,2.72466812,0.24365784,0.71884160,3.39072806
16043,0,USIdahoFremont,Idaho,Fremont,2021-01-06 00:56:33.889874,2021-01-10 00:00:00.000000,0.84434464,1.65397229,3.48132503,110,216,456,67,131,340,0.51284184,1.00606708,2.59848680,0.24365406,0.71886554,3.39072872
16043,0,USIdahoFremont,Idaho,Fremont,2021-01-06 00:56:33.889874,2021-01-11 00:00:00.000000,0.77690331,1.56135018,3.38404268,101,204,443,63,124,324,0.48640838,0.95036670,2.47694130,0.24365230,0.71886304,3.39072899
16043,0,USIdahoFremont,Idaho,Fremont,2021-01-06 00:56:33.889874,2021-01-12 00:00:00.000000,0.71462760,1.47354240,3.34914416,93,193,438,59,117,306,0.45639502,0.89633318,2.34213089,0.24365149,0.71885728,3.39072911
16043,0,USIdahoFremont,Idaho,Fremont,2021-01-06 00:56:33.889874,2021-01-13 00:00:00.000000,0.65717801,1.39033299,3.31317852,86,182,433,55,111,293,0.42655314,0.85266537,2.24063362,0.24365111,0.71885260,3.39072917
16043,0,USIdahoFremont,Idaho,Fremont,2021-01-06 00:56:33.889874,2021-01-14 00:00:00.000000,0.60987566,1.31151405,3.27618290,79,171,429,52,105,281,0.39858050,0.80325732,2.14530312,0.24365093,0.71884933,3.39072920
16043,0,USIdahoFremont,Idaho,Fremont,2021-01-06 00:56:33.889874,2021-01-15 00:00:00.000000,0.56954565,1.23688486,3.23820424,74,162,424,48,99,267,0.37237147,0.76046067,2.04529628,0.24365085,0.71884712,3.39072922
16043,0,USIdahoFremont,Idaho,Fremont,2021-01-06 00:56:33.889874,2021-01-16 00:00:00.000000,0.53180261,1.16625147,3.19929588,69,152,419,45,94,255,0.34782466,0.72000764,1.94961630,0.24365081,0.71884564,3.39072923
16043,0,USIdahoFremont,Idaho,Fremont,2021-01-06 00:56:33.889874,2021-01-17 00:00:00.000000,0.49649142,1.10065493,3.15951533,65,144,413,42,89,244,0.32484301,0.68160934,1.86667961,0.24365079,0.71884463,3.39072923
