FIPS,HR_UID,nameid,province,region,analysisTime,dates,pointprevalence_025,pointprevalence_50,pointprevalence_975,pointinfections_025,pointinfections_50,pointinfections_975,pointinfectious_025,pointinfectious_50,pointinfectious_975,pointinfectiousprevalence_05,pointinfectiousprevalence_50,pointinfectiousprevalence_95,infectrate_025,infectrate_50,infectrate_975
46043,0,USSouthDakotaDouglas,South Dakota,Douglas,2021-01-05 10:48:51.899961,2020-03-09 00:00:00.000000,0.00129215,0.04023738,0.22620768,0,1,6,0,0,3,0.00075583,0.02092669,0.13423693,0.35097293,0.55055844,0.74477878
46043,0,USSouthDakotaDouglas,South Dakota,Douglas,2021-01-05 10:48:51.899961,2020-03-10 00:00:00.000000,0.00137110,0.04532443,0.23180510,0,1,6,0,0,3,0.00075604,0.02174129,0.12241195,0.35097293,0.54941962,0.74477437
46043,0,USSouthDakotaDouglas,South Dakota,Douglas,2021-01-05 10:48:51.899961,2020-03-11 00:00:00.000000,0.00145495,0.04972167,0.23819795,0,1,6,0,0,3,0.00077201,0.02334287,0.11899906,0.35097288,0.54938498,0.74476500
46043,0,USSouthDakotaDouglas,South Dakota,Douglas,2021-01-05 10:48:51.899961,2020-03-12 00:00:00.000000,0.00154429,0.05463047,0.24636075,0,1,7,0,0,3,0.00079894,0.02465488,0.12061066,0.35097256,0.54931731,0.74474501
46043,0,USSouthDakotaDouglas,South Dakota,Douglas,2021-01-05 10:48:51.899961,2020-03-13 00:00:00.000000,0.00163952,0.06024667,0.26477927,0,1,7,0,0,3,0.00083400,0.02731670,0.12531022,0.35097039,0.54918545,0.74470207
46043,0,USSouthDakotaDouglas,South Dakota,Douglas,2021-01-05 10:48:51.899961,2020-03-14 00:00:00.000000,0.00174090,0.06642410,0.28451533,0,1,8,0,0,3,0.00087551,0.02978089,0.13199612,0.35095544,0.54188002,0.74453727
46043,0,USSouthDakotaDouglas,South Dakota,Douglas,2021-01-05 10:48:51.899961,2020-03-15 00:00:00.000000,0.00184846,0.07361851,0.30564064,0,2,8,0,0,4,0.00092248,0.03264077,0.13983930,0.35085287,0.53474439,0.74403465
46043,0,USSouthDakotaDouglas,South Dakota,Douglas,2021-01-05 10:48:51.899961,2020-03-16 00:00:00.000000,0.00196189,0.08170115,0.32815180,0,2,9,0,1,4,0.00097427,0.03601937,0.14326349,0.35015488,0.53315094,0.74074458
46043,0,USSouthDakotaDouglas,South Dakota,Douglas,2021-01-05 10:48:51.899961,2020-03-17 00:00:00.000000,0.00208015,0.09072357,0.35194226,0,2,10,0,1,4,0.00103043,0.03994123,0.15373875,0.34565414,0.52012739,0.71026749
46043,0,USSouthDakotaDouglas,South Dakota,Douglas,2021-01-05 10:48:51.899961,2020-03-18 00:00:00.000000,0.00220165,0.09821630,0.37676083,0,2,11,0,1,4,0.00109045,0.04300336,0.16954041,0.32391605,0.50837022,0.70736108
46043,0,USSouthDakotaDouglas,South Dakota,Douglas,2021-01-05 10:48:51.899961,2020-03-19 00:00:00.000000,0.00232458,0.10724805,0.39224834,0,3,11,0,1,5,0.00115368,0.04700423,0.18038320,0.29511111,0.49317241,0.69310655
46043,0,USSouthDakotaDouglas,South Dakota,Douglas,2021-01-05 10:48:51.899961,2020-03-20 00:00:00.000000,0.00244638,0.11383376,0.39330111,0,3,11,0,1,5,0.00121928,0.05069962,0.18788287,0.29278621,0.47700854,0.68320742
46043,0,USSouthDakotaDouglas,South Dakota,Douglas,2021-01-05 10:48:51.899961,2020-03-21 00:00:00.000000,0.00256442,0.12290061,0.40496990,0,3,11,0,1,5,0.00128619,0.05413148,0.19963650,0.28002178,0.46451875,0.69673452
46043,0,USSouthDakotaDouglas,South Dakota,Douglas,2021-01-05 10:48:51.899961,2020-03-22 00:00:00.000000,0.00267709,0.13171859,0.42114192,0,3,12,0,1,6,0.00135317,0.05869266,0.20735484,0.26500195,0.44119648,0.64975113
46043,0,USSouthDakotaDouglas,South Dakota,Douglas,2021-01-05 10:48:51.899961,2020-03-23 00:00:00.000000,0.00278388,0.14097466,0.43485352,0,4,12,0,1,6,0.00141907,0.06263626,0.21361624,0.26467375,0.42516266,0.62984122
46043,0,USSouthDakotaDouglas,South Dakota,Douglas,2021-01-05 10:48:51.899961,2020-03-24 00:00:00.000000,0.00288484,0.14780782,0.44712763,0,4,13,0,1,6,0.00148308,0.06660021,0.21860947,0.25577305,0.40169599,0.62306973
46043,0,USSouthDakotaDouglas,South Dakota,Douglas,2021-01-05 10:48:51.899961,2020-03-25 00:00:00.000000,0.00297976,0.15574733,0.45867967,0,4,13,0,2,6,0.00154468,0.07093910,0.22449498,0.24669834,0.37858552,0.61999478
46043,0,USSouthDakotaDouglas,South Dakota,Douglas,2021-01-05 10:48:51.899961,2020-03-26 00:00:00.000000,0.00306804,0.16083992,0.47993676,0,4,14,0,2,6,0.00160352,0.07637446,0.23232551,0.23791858,0.37530437,0.61188894
46043,0,USSouthDakotaDouglas,South Dakota,Douglas,2021-01-05 10:48:51.899961,2020-03-27 00:00:00.000000,0.00314897,0.16715463,0.50718001,0,4,14,0,2,6,0.00165923,0.08319738,0.23822782,0.20724263,0.36456849,0.59685833
46043,0,USSouthDakotaDouglas,South Dakota,Douglas,2021-01-05 10:48:51.899961,2020-03-28 00:00:00.000000,0.00322230,0.17306283,0.51164570,0,5,14,0,2,7,0.00171145,0.09010227,0.24218445,0.18597641,0.34815185,0.57049837
46043,0,USSouthDakotaDouglas,South Dakota,Douglas,2021-01-05 10:48:51.899961,2020-03-29 00:00:00.000000,0.00328850,0.17696296,0.50523382,0,5,14,0,2,7,0.00175988,0.09513208,0.25027900,0.17736053,0.33786236,0.55847558
46043,0,USSouthDakotaDouglas,South Dakota,Douglas,2021-01-05 10:48:51.899961,2020-03-30 00:00:00.000000,0.00334866,0.17966754,0.50545378,0,5,14,0,2,7,0.00180444,0.09715917,0.25888289,0.16900987,0.32013895,0.55444159
46043,0,USSouthDakotaDouglas,South Dakota,Douglas,2021-01-05 10:48:51.899961,2020-03-31 00:00:00.000000,0.00340548,0.18846826,0.49832887,0,5,14,0,2,7,0.00184530,0.10181401,0.26723049,0.15996005,0.31473440,0.53091834
46043,0,USSouthDakotaDouglas,South Dakota,Douglas,2021-01-05 10:48:51.899961,2020-04-01 00:00:00.000000,0.00345809,0.19330608,0.49130246,0,5,14,0,3,8,0.00188336,0.10489105,0.27541732,0.15795667,0.30272353,0.54885786
46043,0,USSouthDakotaDouglas,South Dakota,Douglas,2021-01-05 10:48:51.899961,2020-04-02 00:00:00.000000,0.00350221,0.19325523,0.52197347,0,5,15,0,3,8,0.00191868,0.10668481,0.28351165,0.16232617,0.29086872,0.51854368
46043,0,USSouthDakotaDouglas,South Dakota,Douglas,2021-01-05 10:48:51.899961,2020-04-03 00:00:00.000000,0.00352144,0.19401844,0.55443587,0,5,16,0,3,8,0.00195031,0.10787214,0.29149380,0.16220833,0.27384533,0.49565282
46043,0,USSouthDakotaDouglas,South Dakota,Douglas,2021-01-05 10:48:51.899961,2020-04-04 00:00:00.000000,0.00349400,0.19972698,0.58802762,0,5,17,0,3,8,0.00197441,0.10984150,0.29915928,0.15377694,0.26447510,0.48965379
46043,0,USSouthDakotaDouglas,South Dakota,Douglas,2021-01-05 10:48:51.899961,2020-04-05 00:00:00.000000,0.00343290,0.19824813,0.59524182,0,5,17,0,3,8,0.00198389,0.11131263,0.30612690,0.12878956,0.25480662,0.43094152
46043,0,USSouthDakotaDouglas,South Dakota,Douglas,2021-01-05 10:48:51.899961,2020-04-06 00:00:00.000000,0.00335693,0.19904213,0.59786769,0,5,17,0,3,9,0.00197691,0.11345886,0.31596283,0.12658164,0.24779889,0.41697704
46043,0,USSouthDakotaDouglas,South Dakota,Douglas,2021-01-05 10:48:51.899961,2020-04-07 00:00:00.000000,0.00327265,0.20017094,0.59873747,0,5,17,0,3,9,0.00195638,0.11407978,0.32310059,0.12525225,0.23960563,0.40212717
46043,0,USSouthDakotaDouglas,South Dakota,Douglas,2021-01-05 10:48:51.899961,2020-04-08 00:00:00.000000,0.00318303,0.20210200,0.59034145,0,5,17,0,3,9,0.00192562,0.11434762,0.32507896,0.12510949,0.23328626,0.37365554
46043,0,USSouthDakotaDouglas,South Dakota,Douglas,2021-01-05 10:48:51.899961,2020-04-09 00:00:00.000000,0.00309050,0.20307837,0.58045230,0,5,16,0,3,9,0.00188734,0.11432575,0.32605770,0.12512600,0.22910631,0.34753685
46043,0,USSouthDakotaDouglas,South Dakota,Douglas,2021-01-05 10:48:51.899961,2020-04-10 00:00:00.000000,0.00299698,0.20227606,0.56783335,0,5,16,0,3,9,0.00184376,0.11408033,0.32963171,0.12143627,0.22208601,0.33612576
46043,0,USSouthDakotaDouglas,South Dakota,Douglas,2021-01-05 10:48:51.899961,2020-04-11 00:00:00.000000,0.00290385,0.19710268,0.55043251,0,5,16,0,3,9,0.00179664,0.11365997,0.33269890,0.11970841,0.20964147,0.32390871
46043,0,USSouthDakotaDouglas,South Dakota,Douglas,2021-01-05 10:48:51.899961,2020-04-12 00:00:00.000000,0.00281200,0.19021112,0.52991564,0,5,15,0,3,9,0.00174738,0.11290235,0.33512440,0.11760256,0.19768826,0.32000218
46043,0,USSouthDakotaDouglas,South Dakota,Douglas,2021-01-05 10:48:51.899961,2020-04-13 00:00:00.000000,0.02449455,0.24269811,0.55184648,0,7,16,0,3,9,0.00169704,0.11152451,0.33666518,0.11268902,0.19025804,0.31548219
46043,0,USSouthDakotaDouglas,South Dakota,Douglas,2021-01-05 10:48:51.899961,2020-04-14 00:00:00.000000,0.04748481,0.28829130,0.59930787,1,8,17,0,3,10,0.00593861,0.11648989,0.34303237,0.09733559,0.18551961,0.30954303
46043,0,USSouthDakotaDouglas,South Dakota,Douglas,2021-01-05 10:48:51.899961,2020-04-15 00:00:00.000000,0.07099465,0.33450895,0.61782888,2,9,18,0,3,10,0.01295866,0.12675542,0.34490943,0.09265985,0.17848258,0.30846882
46043,0,USSouthDakotaDouglas,South Dakota,Douglas,2021-01-05 10:48:51.899961,2020-04-16 00:00:00.000000,0.08928882,0.37141176,0.65094006,2,10,19,0,4,10,0.02256664,0.14113864,0.34778464,0.08659290,0.17330963,0.28681185
46043,0,USSouthDakotaDouglas,South Dakota,Douglas,2021-01-05 10:48:51.899961,2020-04-17 00:00:00.000000,0.10630314,0.42579469,0.68262981,3,12,19,0,4,10,0.03358570,0.16355660,0.35115692,0.08022892,0.16621059,0.28661417
46043,0,USSouthDakotaDouglas,South Dakota,Douglas,2021-01-05 10:48:51.899961,2020-04-18 00:00:00.000000,0.12582190,0.46178362,0.72425936,3,13,21,1,5,10,0.04307704,0.18462808,0.35463342,0.07735638,0.15978276,0.27658691
46043,0,USSouthDakotaDouglas,South Dakota,Douglas,2021-01-05 10:48:51.899961,2020-04-19 00:00:00.000000,0.14471058,0.49539636,0.79190257,4,14,23,1,5,11,0.05067818,0.20369163,0.39397740,0.07032987,0.15411873,0.27538670
46043,0,USSouthDakotaDouglas,South Dakota,Douglas,2021-01-05 10:48:51.899961,2020-04-20 00:00:00.000000,0.16917266,0.51781910,0.82545418,4,15,24,1,6,12,0.05938166,0.22214318,0.44342629,0.07023272,0.14552601,0.27249072
46043,0,USSouthDakotaDouglas,South Dakota,Douglas,2021-01-05 10:48:51.899961,2020-04-21 00:00:00.000000,0.20619095,0.54918618,0.85357048,6,16,24,2,7,13,0.07281443,0.24300524,0.45937814,0.06965530,0.14800518,0.26972860
46043,0,USSouthDakotaDouglas,South Dakota,Douglas,2021-01-05 10:48:51.899961,2020-04-22 00:00:00.000000,0.24343614,0.58167134,0.89664596,7,16,26,2,7,13,0.08734792,0.26436734,0.46902702,0.06802592,0.14506897,0.26796963
46043,0,USSouthDakotaDouglas,South Dakota,Douglas,2021-01-05 10:48:51.899961,2020-04-23 00:00:00.000000,0.28013579,0.61726567,1.03083254,8,18,30,3,8,13,0.10477261,0.28454997,0.47600525,0.06668490,0.14039263,0.26427379
46043,0,USSouthDakotaDouglas,South Dakota,Douglas,2021-01-05 10:48:51.899961,2020-04-24 00:00:00.000000,0.31606515,0.63635837,1.09164806,9,18,31,3,8,14,0.12297106,0.30188753,0.49996177,0.06590206,0.13734114,0.25793056
46043,0,USSouthDakotaDouglas,South Dakota,Douglas,2021-01-05 10:48:51.899961,2020-04-25 00:00:00.000000,0.35115840,0.68055625,1.14830628,10,19,33,4,9,15,0.14103086,0.32905412,0.53538940,0.06584500,0.13131119,0.24031440
46043,0,USSouthDakotaDouglas,South Dakota,Douglas,2021-01-05 10:48:51.899961,2020-04-26 00:00:00.000000,0.36939032,0.70826542,1.20102619,10,20,35,4,10,16,0.15268962,0.34316275,0.56860034,0.06580314,0.12699028,0.22626287
46043,0,USSouthDakotaDouglas,South Dakota,Douglas,2021-01-05 10:48:51.899961,2020-04-27 00:00:00.000000,0.36367481,0.68436770,1.15111828,10,19,33,4,10,17,0.16343394,0.35473556,0.59947993,0.06576564,0.12367416,0.21033384
46043,0,USSouthDakotaDouglas,South Dakota,Douglas,2021-01-05 10:48:51.899961,2020-04-28 00:00:00.000000,0.35759109,0.66092224,1.09770305,10,19,32,4,10,17,0.17098785,0.36269902,0.61011693,0.06358380,0.12020549,0.20522107
46043,0,USSouthDakotaDouglas,South Dakota,Douglas,2021-01-05 10:48:51.899961,2020-04-29 00:00:00.000000,0.35082275,0.64034270,1.04036794,10,18,30,5,10,17,0.17618156,0.36349651,0.60668632,0.06175794,0.11878526,0.20276725
46043,0,USSouthDakotaDouglas,South Dakota,Douglas,2021-01-05 10:48:51.899961,2020-04-30 00:00:00.000000,0.33707184,0.61273344,0.98140124,9,17,28,5,10,17,0.17961964,0.36129495,0.59312482,0.05961067,0.11627526,0.20059605
46043,0,USSouthDakotaDouglas,South Dakota,Douglas,2021-01-05 10:48:51.899961,2020-05-01 00:00:00.000000,0.32113233,0.58560683,0.96550854,9,17,28,5,10,16,0.18082606,0.35595355,0.57280335,0.05809223,0.11167283,0.19732406
46043,0,USSouthDakotaDouglas,South Dakota,Douglas,2021-01-05 10:48:51.899961,2020-05-02 00:00:00.000000,0.30503507,0.56329494,0.94988441,8,16,27,5,10,16,0.17470886,0.34690639,0.55704885,0.04971765,0.10894668,0.19264470
46043,0,USSouthDakotaDouglas,South Dakota,Douglas,2021-01-05 10:48:51.899961,2020-05-03 00:00:00.000000,0.29061142,0.54139656,0.93351636,8,15,27,4,9,16,0.16779408,0.33575538,0.54802076,0.04656086,0.10793356,0.18735686
46043,0,USSouthDakotaDouglas,South Dakota,Douglas,2021-01-05 10:48:51.899961,2020-05-04 00:00:00.000000,0.27337611,0.51763376,0.91671582,7,15,26,4,9,15,0.15796385,0.32363271,0.53688443,0.04565883,0.10778023,0.18353041
46043,0,USSouthDakotaDouglas,South Dakota,Douglas,2021-01-05 10:48:51.899961,2020-05-05 00:00:00.000000,0.25832599,0.49710366,0.89967424,7,14,26,4,9,15,0.14990083,0.31090889,0.52431180,0.04462090,0.10773298,0.18067821
46043,0,USSouthDakotaDouglas,South Dakota,Douglas,2021-01-05 10:48:51.899961,2020-05-06 00:00:00.000000,0.24104390,0.47768763,0.85815488,7,13,25,4,8,14,0.14203853,0.29841513,0.50391669,0.04357471,0.10661537,0.17645266
46043,0,USSouthDakotaDouglas,South Dakota,Douglas,2021-01-05 10:48:51.899961,2020-05-07 00:00:00.000000,0.22333642,0.45897404,0.79618374,6,13,23,3,8,14,0.13435661,0.28424666,0.48000955,0.04281127,0.10129257,0.17252360
46043,0,USSouthDakotaDouglas,South Dakota,Douglas,2021-01-05 10:48:51.899961,2020-05-08 00:00:00.000000,0.20657850,0.43832073,0.78491992,6,12,22,3,7,13,0.12690350,0.27338281,0.45630939,0.04238712,0.09867541,0.16860153
46043,0,USSouthDakotaDouglas,South Dakota,Douglas,2021-01-05 10:48:51.899961,2020-05-09 00:00:00.000000,0.19084456,0.41777865,0.78517602,5,12,22,3,7,12,0.11970550,0.26235597,0.44052339,0.04192762,0.09730110,0.16199958
46043,0,USSouthDakotaDouglas,South Dakota,Douglas,2021-01-05 10:48:51.899961,2020-05-10 00:00:00.000000,0.17614920,0.39773007,0.78424612,5,11,22,3,7,12,0.11276888,0.25286811,0.43417105,0.04045050,0.09417370,0.16014137
46043,0,USSouthDakotaDouglas,South Dakota,Douglas,2021-01-05 10:48:51.899961,2020-05-11 00:00:00.000000,0.19291120,0.43027992,0.82748685,5,12,24,3,7,12,0.10607664,0.24132509,0.42766894,0.03915385,0.09350833,0.16056212
46043,0,USSouthDakotaDouglas,South Dakota,Douglas,2021-01-05 10:48:51.899961,2020-05-12 00:00:00.000000,0.21065616,0.45887518,0.86698151,6,13,25,3,6,12,0.10841075,0.23763927,0.42548939,0.03819844,0.09192693,0.16051993
46043,0,USSouthDakotaDouglas,South Dakota,Douglas,2021-01-05 10:48:51.899961,2020-05-13 00:00:00.000000,0.22955540,0.48669705,0.88735487,6,14,25,3,6,12,0.11006541,0.23849529,0.42650898,0.03758758,0.09048804,0.16054199
46043,0,USSouthDakotaDouglas,South Dakota,Douglas,2021-01-05 10:48:51.899961,2020-05-14 00:00:00.000000,0.24370628,0.49618857,0.87852697,7,14,25,3,7,12,0.11449491,0.24796109,0.42966031,0.03712390,0.08991302,0.15889410
46043,0,USSouthDakotaDouglas,South Dakota,Douglas,2021-01-05 10:48:51.899961,2020-05-15 00:00:00.000000,0.25914099,0.52143234,0.90010838,7,15,26,3,7,12,0.12075164,0.25827897,0.44312426,0.03628706,0.08884501,0.16103841
46043,0,USSouthDakotaDouglas,South Dakota,Douglas,2021-01-05 10:48:51.899961,2020-05-16 00:00:00.000000,0.27477384,0.55027044,0.94569641,8,16,27,3,7,13,0.12813769,0.27037392,0.45999691,0.03531228,0.08655162,0.16094414
46043,0,USSouthDakotaDouglas,South Dakota,Douglas,2021-01-05 10:48:51.899961,2020-05-17 00:00:00.000000,0.28133155,0.57027261,0.98519795,8,16,28,3,8,14,0.13195627,0.28006822,0.50636880,0.03526655,0.08482511,0.16335342
46043,0,USSouthDakotaDouglas,South Dakota,Douglas,2021-01-05 10:48:51.899961,2020-05-18 00:00:00.000000,0.29900094,0.58987565,0.99837526,8,17,29,3,8,15,0.13478675,0.29435823,0.53268290,0.03526749,0.08355296,0.16375956
46043,0,USSouthDakotaDouglas,South Dakota,Douglas,2021-01-05 10:48:51.899961,2020-05-19 00:00:00.000000,0.34001098,0.62849302,1.05307138,9,18,30,4,9,16,0.14825239,0.30958411,0.56041832,0.03528435,0.08272425,0.16329040
46043,0,USSouthDakotaDouglas,South Dakota,Douglas,2021-01-05 10:48:51.899961,2020-05-20 00:00:00.000000,0.35196638,0.65329395,1.06683437,10,19,31,4,9,17,0.15825186,0.32662577,0.59341889,0.03540104,0.08219800,0.16223793
46043,0,USSouthDakotaDouglas,South Dakota,Douglas,2021-01-05 10:48:51.899961,2020-05-21 00:00:00.000000,0.34884130,0.65855955,1.08012041,10,19,31,5,9,18,0.17291448,0.33892905,0.62456712,0.03478508,0.08165216,0.16026765
46043,0,USSouthDakotaDouglas,South Dakota,Douglas,2021-01-05 10:48:51.899961,2020-05-22 00:00:00.000000,0.34604558,0.64677449,1.11219500,10,18,32,5,10,18,0.18817774,0.34478121,0.64182905,0.03193097,0.08215095,0.15699679
46043,0,USSouthDakotaDouglas,South Dakota,Douglas,2021-01-05 10:48:51.899961,2020-05-23 00:00:00.000000,0.34363707,0.66609313,1.18834536,10,19,34,5,10,19,0.19036827,0.35178356,0.66497971,0.02933933,0.08209638,0.15236240
46043,0,USSouthDakotaDouglas,South Dakota,Douglas,2021-01-05 10:48:51.899961,2020-05-24 00:00:00.000000,0.34167213,0.68544489,1.26976878,9,20,37,5,10,20,0.18877923,0.36456305,0.69887833,0.02734428,0.08190259,0.14691452
46043,0,USSouthDakotaDouglas,South Dakota,Douglas,2021-01-05 10:48:51.899961,2020-05-25 00:00:00.000000,0.36933199,0.71188766,1.29136095,10,20,37,5,10,21,0.18737395,0.36898041,0.72253982,0.02577908,0.08156921,0.14183214
46043,0,USSouthDakotaDouglas,South Dakota,Douglas,2021-01-05 10:48:51.899961,2020-05-26 00:00:00.000000,0.41077218,0.74803965,1.30833793,11,21,38,5,11,21,0.18938909,0.37816428,0.73593939,0.02580280,0.07970988,0.14261462
46043,0,USSouthDakotaDouglas,South Dakota,Douglas,2021-01-05 10:48:51.899961,2020-05-27 00:00:00.000000,0.43997872,0.76946080,1.31982892,12,22,38,5,11,21,0.19482374,0.39499947,0.74266455,0.02603470,0.07943574,0.15343265
46043,0,USSouthDakotaDouglas,South Dakota,Douglas,2021-01-05 10:48:51.899961,2020-05-28 00:00:00.000000,0.44960736,0.77486229,1.28848851,13,22,37,5,12,21,0.20388670,0.41622855,0.74487448,0.02632442,0.08112736,0.15744679
46043,0,USSouthDakotaDouglas,South Dakota,Douglas,2021-01-05 10:48:51.899961,2020-05-29 00:00:00.000000,0.44837240,0.78475876,1.31075791,13,22,38,6,12,21,0.21893038,0.43520439,0.74937181,0.02663158,0.08136830,0.15597490
46043,0,USSouthDakotaDouglas,South Dakota,Douglas,2021-01-05 10:48:51.899961,2020-05-30 00:00:00.000000,0.44415803,0.78556447,1.33354725,12,22,38,6,12,22,0.22350801,0.43491142,0.75869123,0.02691165,0.08075628,0.15444384
46043,0,USSouthDakotaDouglas,South Dakota,Douglas,2021-01-05 10:48:51.899961,2020-05-31 00:00:00.000000,0.43932813,0.78966877,1.33342024,12,23,38,6,12,22,0.23330651,0.43180531,0.76465407,0.02711998,0.08074193,0.15340460
46043,0,USSouthDakotaDouglas,South Dakota,Douglas,2021-01-05 10:48:51.899961,2020-06-01 00:00:00.000000,0.47622977,0.80824929,1.30449595,13,23,38,7,12,22,0.24292976,0.43114653,0.76804141,0.02717444,0.07968692,0.15276364
46043,0,USSouthDakotaDouglas,South Dakota,Douglas,2021-01-05 10:48:51.899961,2020-06-02 00:00:00.000000,0.45258675,0.82483822,1.27450274,13,24,37,7,12,22,0.24806543,0.43930576,0.76033323,0.02681136,0.07918892,0.15195484
46043,0,USSouthDakotaDouglas,South Dakota,Douglas,2021-01-05 10:48:51.899961,2020-06-03 00:00:00.000000,0.45384964,0.84036580,1.27572116,13,24,37,7,12,21,0.25405511,0.44153376,0.74442181,0.02549527,0.07871281,0.15297411
46043,0,USSouthDakotaDouglas,South Dakota,Douglas,2021-01-05 10:48:51.899961,2020-06-04 00:00:00.000000,0.47736354,0.85743468,1.34368486,13,25,39,7,13,21,0.24946362,0.44595296,0.73354338,0.02359449,0.07967440,0.15347112
46043,0,USSouthDakotaDouglas,South Dakota,Douglas,2021-01-05 10:48:51.899961,2020-06-05 00:00:00.000000,0.48063756,0.87632416,1.35400347,14,25,39,7,13,22,0.24607059,0.45364920,0.75769979,0.02252124,0.08030120,0.15075307
46043,0,USSouthDakotaDouglas,South Dakota,Douglas,2021-01-05 10:48:51.899961,2020-06-06 00:00:00.000000,0.46965314,0.87401165,1.34949430,13,25,39,7,13,22,0.24375508,0.46154813,0.78502691,0.02220367,0.08072041,0.14772407
46043,0,USSouthDakotaDouglas,South Dakota,Douglas,2021-01-05 10:48:51.899961,2020-06-07 00:00:00.000000,0.45881620,0.87250310,1.39896192,13,25,40,7,13,23,0.24204399,0.46833540,0.81225261,0.02214356,0.07856147,0.14486439
46043,0,USSouthDakotaDouglas,South Dakota,Douglas,2021-01-05 10:48:51.899961,2020-06-08 00:00:00.000000,0.43127393,0.83623631,1.35366443,12,24,39,7,13,24,0.24083742,0.47170236,0.83822406,0.02215274,0.07717973,0.14395188
46043,0,USSouthDakotaDouglas,South Dakota,Douglas,2021-01-05 10:48:51.899961,2020-06-09 00:00:00.000000,0.40418383,0.79983192,1.30594927,11,23,38,6,13,24,0.23584928,0.47075783,0.84029226,0.02218835,0.07742776,0.14258580
46043,0,USSouthDakotaDouglas,South Dakota,Douglas,2021-01-05 10:48:51.899961,2020-06-10 00:00:00.000000,0.37748069,0.76575976,1.25798763,11,22,36,6,13,24,0.22840529,0.46309722,0.82679331,0.02224577,0.07636965,0.14094235
46043,0,USSouthDakotaDouglas,South Dakota,Douglas,2021-01-05 10:48:51.899961,2020-06-11 00:00:00.000000,0.35152869,0.72867927,1.20994972,10,21,35,6,13,23,0.21943781,0.45015431,0.80340170,0.02232491,0.07719916,0.14651778
46043,0,USSouthDakotaDouglas,South Dakota,Douglas,2021-01-05 10:48:51.899961,2020-06-12 00:00:00.000000,0.32651772,0.68323335,1.16176541,9,19,33,6,12,22,0.20959759,0.43513600,0.77400340,0.02240938,0.07801269,0.15693438
46043,0,USSouthDakotaDouglas,South Dakota,Douglas,2021-01-05 10:48:51.899961,2020-06-13 00:00:00.000000,0.30268347,0.63728482,1.11313900,8,18,32,5,12,21,0.19933529,0.41481644,0.74124361,0.02268447,0.07758226,0.16078200
46043,0,USSouthDakotaDouglas,South Dakota,Douglas,2021-01-05 10:48:51.899961,2020-06-14 00:00:00.000000,0.28125439,0.59421879,1.06539584,8,17,31,5,11,20,0.18896085,0.39239281,0.70689874,0.02370309,0.07720692,0.17053678
46043,0,USSouthDakotaDouglas,South Dakota,Douglas,2021-01-05 10:48:51.899961,2020-06-15 00:00:00.000000,0.33229467,0.62858096,1.18109573,9,18,34,5,10,20,0.17868498,0.37012185,0.68648403,0.02484361,0.07793054,0.17434779
46043,0,USSouthDakotaDouglas,South Dakota,Douglas,2021-01-05 10:48:51.899961,2020-06-16 00:00:00.000000,0.37277326,0.65071974,1.23564642,10,19,36,5,10,19,0.17554521,0.36289716,0.67604205,0.02583360,0.07686804,0.17438768
46043,0,USSouthDakotaDouglas,South Dakota,Douglas,2021-01-05 10:48:51.899961,2020-06-17 00:00:00.000000,0.38659469,0.69309702,1.33404950,11,20,38,5,10,19,0.17728250,0.35883846,0.66529887,0.02659719,0.07613087,0.17378236
46043,0,USSouthDakotaDouglas,South Dakota,Douglas,2021-01-05 10:48:51.899961,2020-06-18 00:00:00.000000,0.37412770,0.72346346,1.43336879,10,21,41,5,10,19,0.18732169,0.36654907,0.66945169,0.02725789,0.07625820,0.17261097
46043,0,USSouthDakotaDouglas,South Dakota,Douglas,2021-01-05 10:48:51.899961,2020-06-19 00:00:00.000000,0.36629763,0.73125428,1.53155225,10,21,44,5,10,19,0.19542579,0.36656690,0.68368191,0.02796266,0.07721638,0.17081751
46043,0,USSouthDakotaDouglas,South Dakota,Douglas,2021-01-05 10:48:51.899961,2020-06-20 00:00:00.000000,0.37531040,0.74257360,1.62801875,10,21,47,5,10,20,0.19687707,0.37424353,0.70626890,0.02874138,0.07596516,0.16825702
46043,0,USSouthDakotaDouglas,South Dakota,Douglas,2021-01-05 10:48:51.899961,2020-06-21 00:00:00.000000,0.37177804,0.74771646,1.72239209,10,21,50,5,11,21,0.20536437,0.39472704,0.72045676,0.02811994,0.07719640,0.16516945
46043,0,USSouthDakotaDouglas,South Dakota,Douglas,2021-01-05 10:48:51.899961,2020-06-22 00:00:00.000000,0.39291061,0.78329302,1.71592561,11,22,50,5,11,22,0.20263827,0.40037968,0.76486736,0.02778069,0.07864306,0.16195900
46043,0,USSouthDakotaDouglas,South Dakota,Douglas,2021-01-05 10:48:51.899961,2020-06-23 00:00:00.000000,0.41449337,0.81836451,1.70747801,12,23,49,5,11,22,0.20393963,0.40814497,0.77714336,0.02775183,0.07910767,0.15902353
46043,0,USSouthDakotaDouglas,South Dakota,Douglas,2021-01-05 10:48:51.899961,2020-06-24 00:00:00.000000,0.45556734,0.84520000,1.78865217,13,24,52,6,12,23,0.21456728,0.41894996,0.79100163,0.02799314,0.07895639,0.15773794
46043,0,USSouthDakotaDouglas,South Dakota,Douglas,2021-01-05 10:48:51.899961,2020-06-25 00:00:00.000000,0.47649360,0.88430034,1.89869509,13,25,55,6,12,25,0.23080408,0.42635034,0.85730185,0.02861075,0.07971108,0.16471243
46043,0,USSouthDakotaDouglas,South Dakota,Douglas,2021-01-05 10:48:51.899961,2020-06-26 00:00:00.000000,0.49661005,0.92206220,1.89092330,14,26,55,7,12,25,0.24029541,0.43956528,0.87285351,0.02971488,0.07860505,0.16216501
46043,0,USSouthDakotaDouglas,South Dakota,Douglas,2021-01-05 10:48:51.899961,2020-06-27 00:00:00.000000,0.50618350,0.95196253,1.87849957,14,27,54,7,13,25,0.25897895,0.45304106,0.88099243,0.03093905,0.08035097,0.15884942
46043,0,USSouthDakotaDouglas,South Dakota,Douglas,2021-01-05 10:48:51.899961,2020-06-28 00:00:00.000000,0.50050603,0.96963348,1.91845157,14,28,56,8,13,26,0.27404439,0.47528191,0.90418771,0.03136127,0.08022062,0.15636148
46043,0,USSouthDakotaDouglas,South Dakota,Douglas,2021-01-05 10:48:51.899961,2020-06-29 00:00:00.000000,0.50220727,0.98338150,1.94402363,14,28,56,8,14,27,0.28347610,0.49787371,0.93055238,0.03271732,0.07999631,0.15525116
46043,0,USSouthDakotaDouglas,South Dakota,Douglas,2021-01-05 10:48:51.899961,2020-06-30 00:00:00.000000,0.50407477,1.02161429,1.97020545,14,29,57,8,14,27,0.29458729,0.50653527,0.95055595,0.03333227,0.07943256,0.15470995
46043,0,USSouthDakotaDouglas,South Dakota,Douglas,2021-01-05 10:48:51.899961,2020-07-01 00:00:00.000000,0.50702636,1.03573211,2.02996260,14,30,59,8,15,28,0.29086631,0.51602181,0.98792970,0.03330272,0.07766879,0.15428379
46043,0,USSouthDakotaDouglas,South Dakota,Douglas,2021-01-05 10:48:51.899961,2020-07-02 00:00:00.000000,0.50463767,1.05722379,2.08758439,14,30,60,8,15,29,0.28792206,0.53744455,1.02354486,0.03254606,0.07633063,0.15348192
46043,0,USSouthDakotaDouglas,South Dakota,Douglas,2021-01-05 10:48:51.899961,2020-07-03 00:00:00.000000,0.50892153,1.08439083,2.08740849,14,31,60,8,15,30,0.28565630,0.54152392,1.05728302,0.03034022,0.07473624,0.15181640
46043,0,USSouthDakotaDouglas,South Dakota,Douglas,2021-01-05 10:48:51.899961,2020-07-04 00:00:00.000000,0.51871252,1.08353090,2.02774086,15,31,59,8,16,31,0.28396653,0.56660202,1.06286835,0.03077087,0.07648792,0.14927390
46043,0,USSouthDakotaDouglas,South Dakota,Douglas,2021-01-05 10:48:51.899961,2020-07-05 00:00:00.000000,0.52243110,1.10168441,2.03497345,15,32,59,8,17,31,0.28275689,0.58906897,1.09190501,0.03094047,0.07661765,0.15035604
46043,0,USSouthDakotaDouglas,South Dakota,Douglas,2021-01-05 10:48:51.899961,2020-07-06 00:00:00.000000,0.56653852,1.08536018,2.02622013,16,31,59,8,17,32,0.28312012,0.58537635,1.12465762,0.03099363,0.07674013,0.15257647
46043,0,USSouthDakotaDouglas,South Dakota,Douglas,2021-01-05 10:48:51.899961,2020-07-07 00:00:00.000000,0.59616354,1.09448052,2.06760362,17,31,60,8,17,33,0.29469414,0.58733309,1.13567973,0.03102135,0.07796644,0.15582256
46043,0,USSouthDakotaDouglas,South Dakota,Douglas,2021-01-05 10:48:51.899961,2020-07-08 00:00:00.000000,0.62678072,1.11720682,2.13256925,18,32,62,9,17,32,0.31188768,0.59628978,1.11439368,0.03105965,0.07907056,0.15712498
46043,0,USSouthDakotaDouglas,South Dakota,Douglas,2021-01-05 10:48:51.899961,2020-07-09 00:00:00.000000,0.61140306,1.11642895,2.19701488,17,32,64,9,17,33,0.31730942,0.60361769,1.15051161,0.03114283,0.07980172,0.15759347
46043,0,USSouthDakotaDouglas,South Dakota,Douglas,2021-01-05 10:48:51.899961,2020-07-10 00:00:00.000000,0.59458627,1.12203430,2.26029522,17,32,66,9,17,34,0.31368985,0.61214160,1.19176482,0.03131814,0.08114505,0.15784448
46043,0,USSouthDakotaDouglas,South Dakota,Douglas,2021-01-05 10:48:51.899961,2020-07-11 00:00:00.000000,0.61545533,1.13130124,2.25928181,17,33,65,9,17,35,0.32538746,0.60031923,1.21292007,0.03160971,0.08374409,0.15814115
46043,0,USSouthDakotaDouglas,South Dakota,Douglas,2021-01-05 10:48:51.899961,2020-07-12 00:00:00.000000,0.63551048,1.12687920,2.25586166,18,32,65,9,17,35,0.33755102,0.58516678,1.21507981,0.03210929,0.08575495,0.15814143
46043,0,USSouthDakotaDouglas,South Dakota,Douglas,2021-01-05 10:48:51.899961,2020-07-13 00:00:00.000000,0.67035423,1.12339458,2.19046319,19,32,63,10,17,35,0.34614124,0.60025054,1.21570146,0.03296200,0.08560027,0.15965950
46043,0,USSouthDakotaDouglas,South Dakota,Douglas,2021-01-05 10:48:51.899961,2020-07-14 00:00:00.000000,0.68638744,1.14797436,2.12471506,20,33,62,10,17,35,0.35937220,0.61348012,1.20452426,0.03422140,0.08562740,0.16020185
46043,0,USSouthDakotaDouglas,South Dakota,Douglas,2021-01-05 10:48:51.899961,2020-07-15 00:00:00.000000,0.70350624,1.16451533,2.09550876,20,34,61,10,18,34,0.37224870,0.63665230,1.18522145,0.03576954,0.08571763,0.16045534
46043,0,USSouthDakotaDouglas,South Dakota,Douglas,2021-01-05 10:48:51.899961,2020-07-16 00:00:00.000000,0.72103199,1.17943897,2.09744172,21,34,61,11,18,33,0.38472894,0.63605430,1.16044357,0.03753634,0.08631563,0.16056968
46043,0,USSouthDakotaDouglas,South Dakota,Douglas,2021-01-05 10:48:51.899961,2020-07-17 00:00:00.000000,0.73848246,1.19747112,2.11861045,21,34,61,11,18,33,0.39678045,0.63318022,1.14687245,0.03915218,0.08717070,0.16117937
46043,0,USSouthDakotaDouglas,South Dakota,Douglas,2021-01-05 10:48:51.899961,2020-07-18 00:00:00.000000,0.75550690,1.18903289,2.08745382,22,34,60,11,18,34,0.39778933,0.64434658,1.17029443,0.04110455,0.08706296,0.16397067
46043,0,USSouthDakotaDouglas,South Dakota,Douglas,2021-01-05 10:48:51.899961,2020-07-19 00:00:00.000000,0.73647061,1.19945779,2.08510407,21,35,60,11,19,34,0.40337163,0.65637006,1.19446996,0.04326016,0.08820444,0.16911582
46043,0,USSouthDakotaDouglas,South Dakota,Douglas,2021-01-05 10:48:51.899961,2020-07-20 00:00:00.000000,0.75746610,1.20749428,2.08108292,22,35,60,11,19,35,0.40120445,0.65623307,1.21815150,0.04343594,0.09042396,0.16702466
46043,0,USSouthDakotaDouglas,South Dakota,Douglas,2021-01-05 10:48:51.899961,2020-07-21 00:00:00.000000,0.78312430,1.23003609,2.07686272,22,35,60,11,19,35,0.40176652,0.65791157,1.22788629,0.04316766,0.09166813,0.16360416
46043,0,USSouthDakotaDouglas,South Dakota,Douglas,2021-01-05 10:48:51.899961,2020-07-22 00:00:00.000000,0.79703011,1.24660625,2.07250158,23,36,60,11,19,35,0.39704743,0.65676208,1.22731082,0.04299871,0.09245857,0.15929686
46043,0,USSouthDakotaDouglas,South Dakota,Douglas,2021-01-05 10:48:51.899961,2020-07-23 00:00:00.000000,0.78801192,1.26100803,2.03469636,23,36,59,11,19,35,0.39376860,0.65932850,1.22558404,0.04300109,0.09362424,0.15698883
46043,0,USSouthDakotaDouglas,South Dakota,Douglas,2021-01-05 10:48:51.899961,2020-07-24 00:00:00.000000,0.77669330,1.25139579,1.98769682,22,36,58,11,19,35,0.39984626,0.66068187,1.21767309,0.04374932,0.09435887,0.15522469
46043,0,USSouthDakotaDouglas,South Dakota,Douglas,2021-01-05 10:48:51.899961,2020-07-25 00:00:00.000000,0.76612221,1.24108639,1.95111232,22,36,56,12,19,34,0.41110476,0.65987851,1.19229766,0.04764642,0.09593568,0.15626134
46043,0,USSouthDakotaDouglas,South Dakota,Douglas,2021-01-05 10:48:51.899961,2020-07-26 00:00:00.000000,0.75627405,1.23867221,1.96549736,22,36,57,12,19,34,0.42435115,0.66247181,1.19533305,0.05193747,0.09722973,0.15638002
46043,0,USSouthDakotaDouglas,South Dakota,Douglas,2021-01-05 10:48:51.899961,2020-07-27 00:00:00.000000,0.77213496,1.24919271,1.96890946,22,36,57,12,19,35,0.42106137,0.66576869,1.20953039,0.05113081,0.09881580,0.15615298
46043,0,USSouthDakotaDouglas,South Dakota,Douglas,2021-01-05 10:48:51.899961,2020-07-28 00:00:00.000000,0.78704148,1.23982599,1.97330121,22,36,57,12,19,35,0.41981313,0.67357823,1.21548349,0.05076076,0.10038313,0.15800155
46043,0,USSouthDakotaDouglas,South Dakota,Douglas,2021-01-05 10:48:51.899961,2020-07-29 00:00:00.000000,0.76938832,1.24058701,1.98095074,22,36,57,12,19,35,0.43107747,0.67806219,1.21613348,0.05061286,0.10375993,0.16060630
46043,0,USSouthDakotaDouglas,South Dakota,Douglas,2021-01-05 10:48:51.899961,2020-07-30 00:00:00.000000,0.75385375,1.24300855,1.99601844,22,36,58,12,20,35,0.43286643,0.68473350,1.21349198,0.05056393,0.10740112,0.16423453
46043,0,USSouthDakotaDouglas,South Dakota,Douglas,2021-01-05 10:48:51.899961,2020-07-31 00:00:00.000000,0.74146307,1.26223715,2.01946259,21,36,58,12,19,35,0.43421303,0.68309555,1.20891490,0.05057616,0.11335318,0.16744294
46043,0,USSouthDakotaDouglas,South Dakota,Douglas,2021-01-05 10:48:51.899961,2020-08-01 00:00:00.000000,0.73114278,1.26203513,2.04447336,21,36,59,12,19,35,0.43649666,0.67401482,1.20416747,0.05069319,0.11746004,0.17202031
46043,0,USSouthDakotaDouglas,South Dakota,Douglas,2021-01-05 10:48:51.899961,2020-08-02 00:00:00.000000,0.72302657,1.28284185,2.05002462,21,37,59,12,19,35,0.43701525,0.68196579,1.20006882,0.05111614,0.11990831,0.17925238
46043,0,USSouthDakotaDouglas,South Dakota,Douglas,2021-01-05 10:48:51.899961,2020-08-03 00:00:00.000000,0.76425423,1.27902276,2.02349079,22,37,59,12,20,34,0.43237703,0.68675708,1.19667111,0.05222119,0.12079237,0.18601093
46043,0,USSouthDakotaDouglas,South Dakota,Douglas,2021-01-05 10:48:51.899961,2020-08-04 00:00:00.000000,0.78551019,1.27805931,2.03393711,22,37,59,12,20,34,0.43740451,0.68811961,1.19298708,0.05646963,0.12087570,0.18664393
46043,0,USSouthDakotaDouglas,South Dakota,Douglas,2021-01-05 10:48:51.899961,2020-08-05 00:00:00.000000,0.77042235,1.33754935,2.04361168,22,39,59,12,20,34,0.43652596,0.69616005,1.18912200,0.06005198,0.12305084,0.19836123
46043,0,USSouthDakotaDouglas,South Dakota,Douglas,2021-01-05 10:48:51.899961,2020-08-06 00:00:00.000000,0.75730437,1.36366996,2.05274116,22,39,59,13,20,34,0.44584516,0.71672228,1.18512165,0.06243983,0.12656724,0.20847588
46043,0,USSouthDakotaDouglas,South Dakota,Douglas,2021-01-05 10:48:51.899961,2020-08-07 00:00:00.000000,0.74525024,1.36672556,2.06185260,21,39,60,12,21,34,0.44294794,0.72311171,1.18100773,0.06681360,0.13319840,0.21585132
46043,0,USSouthDakotaDouglas,South Dakota,Douglas,2021-01-05 10:48:51.899961,2020-08-08 00:00:00.000000,0.73386435,1.38899432,2.06756437,21,40,60,12,21,34,0.44266829,0.73302418,1.17683767,0.07109359,0.13650506,0.22599557
46043,0,USSouthDakotaDouglas,South Dakota,Douglas,2021-01-05 10:48:51.899961,2020-08-09 00:00:00.000000,0.74019769,1.42672439,2.08632410,21,41,60,12,21,34,0.44478053,0.74410109,1.17271393,0.07551094,0.14332507,0.23896843
46043,0,USSouthDakotaDouglas,South Dakota,Douglas,2021-01-05 10:48:51.899961,2020-08-10 00:00:00.000000,0.80977307,1.44870673,2.12154357,23,42,61,13,21,35,0.44889510,0.75014617,1.21413889,0.07986085,0.14563060,0.25295722
46043,0,USSouthDakotaDouglas,South Dakota,Douglas,2021-01-05 10:48:51.899961,2020-08-11 00:00:00.000000,0.88070749,1.47542015,2.16536532,25,43,63,13,22,36,0.45615850,0.76451578,1.24962342,0.08231403,0.14959639,0.25658688
46043,0,USSouthDakotaDouglas,South Dakota,Douglas,2021-01-05 10:48:51.899961,2020-08-12 00:00:00.000000,0.94625892,1.50184243,2.23564223,27,43,65,13,22,37,0.46566854,0.78050792,1.27490423,0.08446890,0.15279106,0.25852442
46043,0,USSouthDakotaDouglas,South Dakota,Douglas,2021-01-05 10:48:51.899961,2020-08-13 00:00:00.000000,0.94678831,1.54698327,2.31558038,27,45,67,13,23,37,0.47681927,0.80314135,1.29296775,0.09097078,0.15629989,0.25935726
46043,0,USSouthDakotaDouglas,South Dakota,Douglas,2021-01-05 10:48:51.899961,2020-08-14 00:00:00.000000,0.94509101,1.59351406,2.38414125,27,46,69,14,23,38,0.48926965,0.81996666,1.30590987,0.09854855,0.16352890,0.25975147
46043,0,USSouthDakotaDouglas,South Dakota,Douglas,2021-01-05 10:48:51.899961,2020-08-15 00:00:00.000000,0.96309764,1.63095542,2.45684596,28,47,71,14,24,38,0.50289148,0.83453181,1.31459894,0.10139322,0.16714693,0.28955226
46043,0,USSouthDakotaDouglas,South Dakota,Douglas,2021-01-05 10:48:51.899961,2020-08-16 00:00:00.000000,0.98760136,1.67073613,2.59923578,28,48,75,15,24,39,0.51766870,0.84271063,1.36596663,0.10182838,0.17641633,0.29866850
46043,0,USSouthDakotaDouglas,South Dakota,Douglas,2021-01-05 10:48:51.899961,2020-08-17 00:00:00.000000,1.03863666,1.75543348,2.64963006,30,51,77,15,25,40,0.52588506,0.87066532,1.40340117,0.10323748,0.18124214,0.30534042
46043,0,USSouthDakotaDouglas,South Dakota,Douglas,2021-01-05 10:48:51.899961,2020-08-18 00:00:00.000000,1.07851677,1.83105105,2.76316242,31,53,80,16,26,41,0.55487746,0.90512913,1.42173178,0.10816233,0.19187522,0.30959784
46043,0,USSouthDakotaDouglas,South Dakota,Douglas,2021-01-05 10:48:51.899961,2020-08-19 00:00:00.000000,1.11041377,1.87560331,2.90123823,32,54,84,16,27,42,0.57171451,0.94199777,1.45039424,0.11402698,0.19674096,0.31281498
46043,0,USSouthDakotaDouglas,South Dakota,Douglas,2021-01-05 10:48:51.899961,2020-08-20 00:00:00.000000,1.10833506,1.98322409,3.04108012,32,57,88,17,28,43,0.58256910,0.97352129,1.48743961,0.12282219,0.20063170,0.31612676
46043,0,USSouthDakotaDouglas,South Dakota,Douglas,2021-01-05 10:48:51.899961,2020-08-21 00:00:00.000000,1.10398653,2.08489336,3.18732070,32,60,93,17,29,44,0.59505168,1.02014627,1.53152601,0.13030308,0.20790140,0.31990693
46043,0,USSouthDakotaDouglas,South Dakota,Douglas,2021-01-05 10:48:51.899961,2020-08-22 00:00:00.000000,1.12967620,2.15368405,3.45183639,32,62,100,18,31,46,0.61882498,1.06731319,1.58172067,0.14159905,0.21336969,0.31900231
46043,0,USSouthDakotaDouglas,South Dakota,Douglas,2021-01-05 10:48:51.899961,2020-08-23 00:00:00.000000,1.15797810,2.29932419,3.75931345,33,67,109,18,32,47,0.63531338,1.11425866,1.63728005,0.14608385,0.21942452,0.31459591
46043,0,USSouthDakotaDouglas,South Dakota,Douglas,2021-01-05 10:48:51.899961,2020-08-24 00:00:00.000000,1.32594795,2.40683915,3.88733127,38,70,113,19,34,50,0.65110575,1.17675544,1.73594200,0.15394991,0.22661170,0.31804343
46043,0,USSouthDakotaDouglas,South Dakota,Douglas,2021-01-05 10:48:51.899961,2020-08-25 00:00:00.000000,1.40005829,2.58034504,3.96808630,40,75,115,19,35,53,0.67757695,1.22643310,1.83176969,0.15957425,0.23238820,0.32992465
46043,0,USSouthDakotaDouglas,South Dakota,Douglas,2021-01-05 10:48:51.899961,2020-08-26 00:00:00.000000,1.51303863,2.70192839,4.14773323,44,78,121,21,37,55,0.72359685,1.28913494,1.90825039,0.16502656,0.24134203,0.34585683
46043,0,USSouthDakotaDouglas,South Dakota,Douglas,2021-01-05 10:48:51.899961,2020-08-27 00:00:00.000000,1.64012389,2.82014360,4.27446859,47,82,124,22,39,58,0.76946076,1.35055660,2.00074830,0.16812616,0.24634502,0.36714407
46043,0,USSouthDakotaDouglas,South Dakota,Douglas,2021-01-05 10:48:51.899961,2020-08-28 00:00:00.000000,1.77014310,3.03573496,4.40213356,51,88,128,24,41,61,0.82690076,1.42307009,2.09391290,0.17121159,0.25244348,0.38268098
46043,0,USSouthDakotaDouglas,South Dakota,Douglas,2021-01-05 10:48:51.899961,2020-08-29 00:00:00.000000,1.89004914,3.30703225,4.64679825,55,96,135,25,44,63,0.88872922,1.51701792,2.19043658,0.17861891,0.26507082,0.42617913
46043,0,USSouthDakotaDouglas,South Dakota,Douglas,2021-01-05 10:48:51.899961,2020-08-30 00:00:00.000000,1.94136865,3.42559953,4.91962266,56,100,143,27,47,66,0.95317733,1.60937639,2.29171481,0.18406056,0.27964294,0.43718582
46043,0,USSouthDakotaDouglas,South Dakota,Douglas,2021-01-05 10:48:51.899961,2020-08-31 00:00:00.000000,2.13807053,3.57587711,5.20479378,62,104,152,29,50,70,1.00479814,1.71275860,2.39810926,0.19160447,0.29117589,0.46754760
46043,0,USSouthDakotaDouglas,South Dakota,Douglas,2021-01-05 10:48:51.899961,2020-09-01 00:00:00.000000,2.24374055,3.74252578,5.49644045,65,109,160,31,53,73,1.06521961,1.82696033,2.52475121,0.20224627,0.29812872,0.46884994
46043,0,USSouthDakotaDouglas,South Dakota,Douglas,2021-01-05 10:48:51.899961,2020-09-02 00:00:00.000000,2.35374588,3.89610044,5.78460935,68,113,168,33,56,76,1.14679380,1.93445532,2.63571326,0.21277719,0.30549659,0.46969359
46043,0,USSouthDakotaDouglas,South Dakota,Douglas,2021-01-05 10:48:51.899961,2020-09-03 00:00:00.000000,2.54217300,4.12251189,6.06699591,74,120,177,35,59,80,1.21385831,2.03229319,2.75233455,0.22427322,0.30582522,0.48403060
46043,0,USSouthDakotaDouglas,South Dakota,Douglas,2021-01-05 10:48:51.899961,2020-09-04 00:00:00.000000,2.58650354,4.36214097,6.34799203,75,127,185,37,62,83,1.28563876,2.12408501,2.85708037,0.22668784,0.31732437,0.47769265
46043,0,USSouthDakotaDouglas,South Dakota,Douglas,2021-01-05 10:48:51.899961,2020-09-05 00:00:00.000000,2.72181876,4.59109240,6.70788823,79,134,195,39,64,88,1.36264400,2.20728850,3.04100280,0.22590369,0.32125205,0.49443961
46043,0,USSouthDakotaDouglas,South Dakota,Douglas,2021-01-05 10:48:51.899961,2020-09-06 00:00:00.000000,2.89851633,4.85502406,7.11541122,84,141,207,42,67,94,1.44527809,2.32480733,3.21852954,0.23198963,0.32994454,0.53389705
46043,0,USSouthDakotaDouglas,South Dakota,Douglas,2021-01-05 10:48:51.899961,2020-09-07 00:00:00.000000,3.14731412,5.08832400,7.31564877,91,148,213,44,71,99,1.52919488,2.44724085,3.41720499,0.23453968,0.34768425,0.53439666
46043,0,USSouthDakotaDouglas,South Dakota,Douglas,2021-01-05 10:48:51.899961,2020-09-08 00:00:00.000000,3.51356546,5.40289320,7.56648207,102,157,221,47,75,105,1.62872845,2.58943618,3.62451529,0.24559492,0.35057451,0.53435155
46043,0,USSouthDakotaDouglas,South Dakota,Douglas,2021-01-05 10:48:51.899961,2020-09-09 00:00:00.000000,3.73392169,5.64950809,7.78922521,109,165,227,50,78,111,1.73200132,2.69762701,3.82189126,0.24777834,0.34881143,0.53433286
46043,0,USSouthDakotaDouglas,South Dakota,Douglas,2021-01-05 10:48:51.899961,2020-09-10 00:00:00.000000,4.03571702,5.90160412,8.08051158,117,172,236,53,82,118,1.84563851,2.82798477,4.06646169,0.24913638,0.35767285,0.53433052
46043,0,USSouthDakotaDouglas,South Dakota,Douglas,2021-01-05 10:48:51.899961,2020-09-11 00:00:00.000000,4.44301755,6.27599379,8.52380603,129,183,248,57,87,124,1.96992157,2.99441423,4.24730558,0.24946837,0.36174823,0.53433260
46043,0,USSouthDakotaDouglas,South Dakota,Douglas,2021-01-05 10:48:51.899961,2020-09-12 00:00:00.000000,4.72205556,6.67748804,8.87379385,137,195,259,61,93,129,2.10204723,3.19983226,4.42361851,0.24661066,0.36422523,0.53424579
46043,0,USSouthDakotaDouglas,South Dakota,Douglas,2021-01-05 10:48:51.899961,2020-09-13 00:00:00.000000,5.07051474,7.08490582,9.31011599,148,206,271,65,97,134,2.23811996,3.34581195,4.60037273,0.25291883,0.36303679,0.53148684
46043,0,USSouthDakotaDouglas,South Dakota,Douglas,2021-01-05 10:48:51.899961,2020-09-14 00:00:00.000000,5.31285852,7.46715238,9.52031078,155,218,278,69,103,140,2.38103549,3.53376876,4.80652119,0.26523056,0.36234559,0.52913492
46043,0,USSouthDakotaDouglas,South Dakota,Douglas,2021-01-05 10:48:51.899961,2020-09-15 00:00:00.000000,5.52118800,7.90302755,10.06445657,161,230,293,74,109,148,2.55702215,3.76250563,5.09858836,0.26952969,0.35824687,0.51246400
46043,0,USSouthDakotaDouglas,South Dakota,Douglas,2021-01-05 10:48:51.899961,2020-09-16 00:00:00.000000,5.73758646,8.23419710,10.62084924,167,240,310,80,115,156,2.75135887,3.96960570,5.34789985,0.26375508,0.35691698,0.50975205
46043,0,USSouthDakotaDouglas,South Dakota,Douglas,2021-01-05 10:48:51.899961,2020-09-17 00:00:00.000000,6.03175335,8.63343475,11.18487503,176,252,326,84,120,163,2.89987034,4.13503023,5.60529953,0.25959634,0.35250100,0.50579806
46043,0,USSouthDakotaDouglas,South Dakota,Douglas,2021-01-05 10:48:51.899961,2020-09-18 00:00:00.000000,6.36191244,8.97024403,11.68189242,185,262,341,89,124,173,3.05707131,4.26890067,5.93015682,0.25674940,0.34506095,0.51595055
46043,0,USSouthDakotaDouglas,South Dakota,Douglas,2021-01-05 10:48:51.899961,2020-09-19 00:00:00.000000,6.70106765,9.25459632,12.14289002,195,270,354,93,130,182,3.18584191,4.47701379,6.25308650,0.24985794,0.33404549,0.49633524
46043,0,USSouthDakotaDouglas,South Dakota,Douglas,2021-01-05 10:48:51.899961,2020-09-20 00:00:00.000000,7.04845183,9.48822933,12.56281847,205,277,366,96,135,190,3.31468112,4.64098045,6.52761346,0.23985367,0.32669245,0.44507717
46043,0,USSouthDakotaDouglas,South Dakota,Douglas,2021-01-05 10:48:51.899961,2020-09-21 00:00:00.000000,7.35404576,9.62933991,12.91159627,214,281,377,100,139,198,3.44269328,4.79058711,6.80107359,0.23806168,0.32394752,0.44328196
46043,0,USSouthDakotaDouglas,South Dakota,Douglas,2021-01-05 10:48:51.899961,2020-09-22 00:00:00.000000,7.44449578,9.82031179,13.22473833,217,286,386,103,144,206,3.54578766,4.95033440,7.07172941,0.23940772,0.31935142,0.43953965
46043,0,USSouthDakotaDouglas,South Dakota,Douglas,2021-01-05 10:48:51.899961,2020-09-23 00:00:00.000000,7.52718365,10.03961566,13.33840522,219,293,389,104,147,214,3.58239891,5.05282263,7.33978452,0.24007696,0.30935216,0.43629582
46043,0,USSouthDakotaDouglas,South Dakota,Douglas,2021-01-05 10:48:51.899961,2020-09-24 00:00:00.000000,7.64209975,10.15068996,13.43960193,223,296,392,105,151,222,3.61897028,5.18322675,7.60429531,0.23876981,0.31031662,0.42335608
46043,0,USSouthDakotaDouglas,South Dakota,Douglas,2021-01-05 10:48:51.899961,2020-09-25 00:00:00.000000,7.90256672,10.30985800,13.52321979,230,301,395,108,156,229,3.70375464,5.34375990,7.86210189,0.23341000,0.31027320,0.39950365
46043,0,USSouthDakotaDouglas,South Dakota,Douglas,2021-01-05 10:48:51.899961,2020-09-26 00:00:00.000000,7.98169055,10.40598478,13.68923707,233,303,399,111,159,236,3.83071979,5.47482936,8.10737200,0.22653644,0.30440154,0.39500809
46043,0,USSouthDakotaDouglas,South Dakota,Douglas,2021-01-05 10:48:51.899961,2020-09-27 00:00:00.000000,8.04857458,10.54534511,13.95235155,235,308,407,115,163,243,3.94788716,5.58396143,8.33350156,0.22848338,0.29921637,0.38865576
46043,0,USSouthDakotaDouglas,South Dakota,Douglas,2021-01-05 10:48:51.899961,2020-09-28 00:00:00.000000,8.34210113,10.66519518,14.27512402,243,311,416,118,165,249,4.05443208,5.65390518,8.53698780,0.22213532,0.29317390,0.38466330
46043,0,USSouthDakotaDouglas,South Dakota,Douglas,2021-01-05 10:48:51.899961,2020-09-29 00:00:00.000000,8.63375367,10.69630192,14.57760224,252,312,425,121,167,254,4.14370587,5.74937498,8.70708442,0.21903585,0.29042215,0.38368858
46043,0,USSouthDakotaDouglas,South Dakota,Douglas,2021-01-05 10:48:51.899961,2020-09-30 00:00:00.000000,8.79127445,10.87890491,14.85028713,256,317,433,123,170,258,4.21847051,5.85205452,8.85101891,0.21768681,0.29090668,0.38288373
46043,0,USSouthDakotaDouglas,South Dakota,Douglas,2021-01-05 10:48:51.899961,2020-10-01 00:00:00.000000,8.77061594,10.98818485,15.08456118,256,320,440,125,171,262,4.28389234,5.87490032,8.97483876,0.21717947,0.29157971,0.38306005
46043,0,USSouthDakotaDouglas,South Dakota,Douglas,2021-01-05 10:48:51.899961,2020-10-02 00:00:00.000000,8.97805139,11.01206917,15.28684077,262,321,446,126,172,265,4.34196989,5.91054514,9.08299360,0.22006267,0.28703430,0.38332811
46043,0,USSouthDakotaDouglas,South Dakota,Douglas,2021-01-05 10:48:51.899961,2020-10-03 00:00:00.000000,9.16097398,11.03088053,15.46700709,267,322,451,128,173,268,4.39593951,5.93069495,9.20171443,0.21827675,0.27970865,0.38328202
46043,0,USSouthDakotaDouglas,South Dakota,Douglas,2021-01-05 10:48:51.899961,2020-10-04 00:00:00.000000,9.28686970,11.20028910,15.62964944,271,327,456,129,174,273,4.44614336,5.98193761,9.34882694,0.21276607,0.27802939,0.38285310
46043,0,USSouthDakotaDouglas,South Dakota,Douglas,2021-01-05 10:48:51.899961,2020-10-05 00:00:00.000000,9.26095582,11.30848053,15.73191086,270,330,459,131,175,276,4.49296266,5.99729171,9.45758867,0.20749289,0.27791924,0.38322809
46043,0,USSouthDakotaDouglas,South Dakota,Douglas,2021-01-05 10:48:51.899961,2020-10-06 00:00:00.000000,9.14614780,11.32466300,15.67529068,267,330,457,133,176,276,4.57798187,6.04410129,9.45994584,0.20678741,0.27574049,0.38254572
46043,0,USSouthDakotaDouglas,South Dakota,Douglas,2021-01-05 10:48:51.899961,2020-10-07 00:00:00.000000,8.93742139,11.37380848,15.47493488,261,332,452,134,178,276,4.60047396,6.12172168,9.45268465,0.19859087,0.27754852,0.38573508
46043,0,USSouthDakotaDouglas,South Dakota,Douglas,2021-01-05 10:48:51.899961,2020-10-08 00:00:00.000000,8.74038993,11.26314005,15.47642242,255,328,452,131,179,277,4.49916749,6.14293675,9.50789180,0.19058384,0.27938693,0.38858969
46043,0,USSouthDakotaDouglas,South Dakota,Douglas,2021-01-05 10:48:51.899961,2020-10-09 00:00:00.000000,8.78823532,11.21980806,15.76714400,256,327,460,129,179,283,4.44279537,6.13849439,9.69580957,0.19053217,0.28138034,0.38507761
46043,0,USSouthDakotaDouglas,South Dakota,Douglas,2021-01-05 10:48:51.899961,2020-10-10 00:00:00.000000,8.63861782,11.06206571,15.84076789,252,323,462,128,178,287,4.38482875,6.09431703,9.85337767,0.18976975,0.27996172,0.39088852
46043,0,USSouthDakotaDouglas,South Dakota,Douglas,2021-01-05 10:48:51.899961,2020-10-11 00:00:00.000000,8.70623841,11.01292377,15.77350824,254,321,460,126,177,288,4.32220735,6.07289453,9.87340014,0.18956995,0.28263937,0.40631655
46043,0,USSouthDakotaDouglas,South Dakota,Douglas,2021-01-05 10:48:51.899961,2020-10-12 00:00:00.000000,8.76049407,11.09054611,15.69528731,255,323,458,124,175,288,4.26311559,6.02320361,9.87394107,0.18904841,0.28407766,0.41525437
46043,0,USSouthDakotaDouglas,South Dakota,Douglas,2021-01-05 10:48:51.899961,2020-10-13 00:00:00.000000,8.75462344,11.16839381,15.60130806,255,326,455,123,174,288,4.21937465,5.97500195,9.86718396,0.18798303,0.28729663,0.41974353
46043,0,USSouthDakotaDouglas,South Dakota,Douglas,2021-01-05 10:48:51.899961,2020-10-14 00:00:00.000000,8.61452052,11.20957883,15.49541874,251,327,452,122,175,291,4.19140545,6.00794391,9.97103372,0.18783360,0.28984244,0.42418610
46043,0,USSouthDakotaDouglas,South Dakota,Douglas,2021-01-05 10:48:51.899961,2020-10-15 00:00:00.000000,8.46943162,11.15443600,15.40713721,247,325,450,122,175,294,4.17698794,5.99556514,10.07105153,0.18826308,0.29420404,0.43069399
46043,0,USSouthDakotaDouglas,South Dakota,Douglas,2021-01-05 10:48:51.899961,2020-10-16 00:00:00.000000,8.32189563,11.27247631,15.53707863,243,329,453,121,176,296,4.17411620,6.03238148,10.16561870,0.19029622,0.30421253,0.44426885
46043,0,USSouthDakotaDouglas,South Dakota,Douglas,2021-01-05 10:48:51.899961,2020-10-17 00:00:00.000000,8.17774256,11.33384574,15.65994642,238,331,457,122,177,299,4.18180138,6.07791728,10.25781407,0.19494014,0.31951528,0.45480488
46043,0,USSouthDakotaDouglas,South Dakota,Douglas,2021-01-05 10:48:51.899961,2020-10-18 00:00:00.000000,8.04242254,11.38211043,15.77419636,234,332,460,122,178,302,4.19984650,6.11810987,10.34694990,0.20729262,0.34099762,0.46289387
46043,0,USSouthDakotaDouglas,South Dakota,Douglas,2021-01-05 10:48:51.899961,2020-10-19 00:00:00.000000,8.03832623,11.53607966,15.89823601,234,336,464,121,179,304,4.17184458,6.16165579,10.43225506,0.23728391,0.36310535,0.48076178
46043,0,USSouthDakotaDouglas,South Dakota,Douglas,2021-01-05 10:48:51.899961,2020-10-20 00:00:00.000000,8.07789083,11.72971757,16.02973133,235,342,468,122,181,307,4.20415160,6.22069169,10.51674389,0.25690277,0.38035313,0.49571620
46043,0,USSouthDakotaDouglas,South Dakota,Douglas,2021-01-05 10:48:51.899961,2020-10-21 00:00:00.000000,8.23101773,11.91652191,16.25036668,240,348,474,122,183,309,4.19219617,6.27714345,10.60212966,0.27069929,0.39491310,0.51553272
46043,0,USSouthDakotaDouglas,South Dakota,Douglas,2021-01-05 10:48:51.899961,2020-10-22 00:00:00.000000,8.44731666,12.19356603,16.57142550,246,356,484,123,185,311,4.21787455,6.33699341,10.67196666,0.30161858,0.40717755,0.55896773
46043,0,USSouthDakotaDouglas,South Dakota,Douglas,2021-01-05 10:48:51.899961,2020-10-23 00:00:00.000000,8.53526547,12.38892486,17.04883622,249,361,497,125,187,313,4.28106920,6.42050807,10.72389924,0.30731801,0.43474573,0.56174804
46043,0,USSouthDakotaDouglas,South Dakota,Douglas,2021-01-05 10:48:51.899961,2020-10-24 00:00:00.000000,8.75618757,12.62566767,17.64209958,255,368,515,126,190,314,4.31505587,6.53726074,10.78372921,0.31772945,0.44965627,0.60044803
46043,0,USSouthDakotaDouglas,South Dakota,Douglas,2021-01-05 10:48:51.899961,2020-10-25 00:00:00.000000,9.01804286,12.94006704,18.22237216,263,377,532,127,193,317,4.36432060,6.62802706,10.85844691,0.33694404,0.47788768,0.67546587
46043,0,USSouthDakotaDouglas,South Dakota,Douglas,2021-01-05 10:48:51.899961,2020-10-26 00:00:00.000000,9.46841711,13.29585922,18.83614716,276,388,550,130,197,320,4.47383155,6.75521107,10.97731186,0.35100765,0.49914481,0.69603978
46043,0,USSouthDakotaDouglas,South Dakota,Douglas,2021-01-05 10:48:51.899961,2020-10-27 00:00:00.000000,9.93174258,13.74223803,19.43224227,290,401,567,134,201,326,4.61054733,6.90553504,11.17976508,0.38202255,0.52426934,0.69933135
46043,0,USSouthDakotaDouglas,South Dakota,Douglas,2021-01-05 10:48:51.899961,2020-10-28 00:00:00.000000,10.22056916,14.10135605,20.00939023,298,411,584,139,206,334,4.77360600,7.08234165,11.43929945,0.38434403,0.53333832,0.70242111
46043,0,USSouthDakotaDouglas,South Dakota,Douglas,2021-01-05 10:48:51.899961,2020-10-29 00:00:00.000000,10.64465693,14.40139758,20.56551020,310,420,600,144,211,342,4.93335708,7.22728344,11.73535762,0.38480888,0.53674699,0.71534438
46043,0,USSouthDakotaDouglas,South Dakota,Douglas,2021-01-05 10:48:51.899961,2020-10-30 00:00:00.000000,11.06952511,14.86983832,21.04227596,323,434,614,147,215,350,5.06116636,7.38195955,12.00814160,0.38569154,0.53220799,0.73492816
46043,0,USSouthDakotaDouglas,South Dakota,Douglas,2021-01-05 10:48:51.899961,2020-10-31 00:00:00.000000,11.38741390,15.32559194,21.39317994,332,447,624,153,221,355,5.26843015,7.59702717,12.18380675,0.38657959,0.52937285,0.75867656
46043,0,USSouthDakotaDouglas,South Dakota,Douglas,2021-01-05 10:48:51.899961,2020-11-01 00:00:00.000000,11.65166674,15.66701035,21.77852034,340,457,636,158,228,365,5.41147510,7.83033527,12.51879843,0.38487708,0.52990041,0.76440191
46043,0,USSouthDakotaDouglas,South Dakota,Douglas,2021-01-05 10:48:51.899961,2020-11-02 00:00:00.000000,11.76047337,15.92939191,22.37998923,343,465,653,162,233,375,5.56566397,8.00212743,12.85156712,0.38302035,0.52402280,0.75869452
46043,0,USSouthDakotaDouglas,South Dakota,Douglas,2021-01-05 10:48:51.899961,2020-11-03 00:00:00.000000,11.78630044,16.21491864,22.77148618,344,473,665,167,239,384,5.73300397,8.21080339,13.17702019,0.38129951,0.51947379,0.73063679
46043,0,USSouthDakotaDouglas,South Dakota,Douglas,2021-01-05 10:48:51.899961,2020-11-04 00:00:00.000000,11.76249388,16.48364605,23.02431797,343,481,672,172,244,394,5.90528729,8.38747563,13.48976862,0.37992095,0.51451141,0.72767937
46043,0,USSouthDakotaDouglas,South Dakota,Douglas,2021-01-05 10:48:51.899961,2020-11-05 00:00:00.000000,11.83855225,16.72810834,23.23569137,345,488,678,177,251,402,6.07582127,8.62255171,13.78123753,0.36710516,0.51045686,0.72466181
46043,0,USSouthDakotaDouglas,South Dakota,Douglas,2021-01-05 10:48:51.899961,2020-11-06 00:00:00.000000,12.02579349,16.78978447,23.40712638,351,490,683,182,258,408,6.23937797,8.83784961,13.97513029,0.36920224,0.50593253,0.71746515
46043,0,USSouthDakotaDouglas,South Dakota,Douglas,2021-01-05 10:48:51.899961,2020-11-07 00:00:00.000000,12.14455524,16.95980059,23.54067758,354,495,687,186,260,412,6.39193670,8.92840826,14.11603923,0.37172790,0.49931934,0.70617872
46043,0,USSouthDakotaDouglas,South Dakota,Douglas,2021-01-05 10:48:51.899961,2020-11-08 00:00:00.000000,12.21932226,17.00153041,23.63702234,356,496,690,190,264,415,6.51409840,9.05203688,14.22721158,0.34654252,0.49493754,0.70743408
46043,0,USSouthDakotaDouglas,South Dakota,Douglas,2021-01-05 10:48:51.899961,2020-11-09 00:00:00.000000,12.34704736,16.94356533,23.62945527,360,494,690,191,264,418,6.54661844,9.06402131,14.31154320,0.34453713,0.49740677,0.69887034
46043,0,USSouthDakotaDouglas,South Dakota,Douglas,2021-01-05 10:48:51.899961,2020-11-10 00:00:00.000000,12.44656934,16.79217075,23.59250345,363,490,689,192,264,419,6.59686762,9.06848181,14.37543330,0.34142419,0.48994947,0.69068823
46043,0,USSouthDakotaDouglas,South Dakota,Douglas,2021-01-05 10:48:51.899961,2020-11-11 00:00:00.000000,12.51802602,16.57472368,23.54334451,365,484,687,192,263,421,6.58121907,9.01707038,14.41923896,0.33976564,0.48899259,0.68128619
46043,0,USSouthDakotaDouglas,South Dakota,Douglas,2021-01-05 10:48:51.899961,2020-11-12 00:00:00.000000,12.40568465,16.38982586,23.47754731,362,478,685,191,262,421,6.53990889,8.98266242,14.44342870,0.33881295,0.48979952,0.66909538
46043,0,USSouthDakotaDouglas,South Dakota,Douglas,2021-01-05 10:48:51.899961,2020-11-13 00:00:00.000000,12.22927023,16.20705722,23.37308298,357,473,682,189,259,422,6.47882495,8.88328706,14.44891946,0.33746899,0.48671563,0.65642910
46043,0,USSouthDakotaDouglas,South Dakota,Douglas,2021-01-05 10:48:51.899961,2020-11-14 00:00:00.000000,12.04362918,16.09471211,23.23191934,351,470,678,187,256,421,6.40787289,8.79158000,14.43829566,0.34501526,0.48837620,0.69075727
46043,0,USSouthDakotaDouglas,South Dakota,Douglas,2021-01-05 10:48:51.899961,2020-11-15 00:00:00.000000,11.85769149,15.96579447,22.95359128,346,466,670,185,255,421,6.34221499,8.73958575,14.41924362,0.34658986,0.49557903,0.69698514
46043,0,USSouthDakotaDouglas,South Dakota,Douglas,2021-01-05 10:48:51.899961,2020-11-16 00:00:00.000000,11.76288772,15.70838147,22.42280072,343,458,654,182,254,420,6.26003723,8.69615355,14.40576288,0.34932042,0.50314846,0.72468380
46043,0,USSouthDakotaDouglas,South Dakota,Douglas,2021-01-05 10:48:51.899961,2020-11-17 00:00:00.000000,11.70059296,15.47803771,21.85977721,341,452,638,179,252,420,6.15234150,8.63224781,14.40455061,0.34407424,0.50231522,0.72720242
46043,0,USSouthDakotaDouglas,South Dakota,Douglas,2021-01-05 10:48:51.899961,2020-11-18 00:00:00.000000,11.66287602,15.27244272,21.27311739,340,446,621,176,249,420,6.04733210,8.53129086,14.41139854,0.34254552,0.51219113,0.73041570
46043,0,USSouthDakotaDouglas,South Dakota,Douglas,2021-01-05 10:48:51.899961,2020-11-19 00:00:00.000000,11.53694929,15.06349127,20.67944625,336,440,604,173,246,421,5.94772251,8.45443501,14.41963326,0.34307189,0.52661572,0.74422799
46043,0,USSouthDakotaDouglas,South Dakota,Douglas,2021-01-05 10:48:51.899961,2020-11-20 00:00:00.000000,11.15101974,14.90352919,20.37778029,325,435,595,170,244,421,5.85139939,8.36406142,14.42356520,0.34563735,0.53913822,0.76495004
46043,0,USSouthDakotaDouglas,South Dakota,Douglas,2021-01-05 10:48:51.899961,2020-11-21 00:00:00.000000,11.07713422,14.75471982,20.30570704,323,430,593,168,241,421,5.75546772,8.26775122,14.41851115,0.36701706,0.55185165,0.83780920
46043,0,USSouthDakotaDouglas,South Dakota,Douglas,2021-01-05 10:48:51.899961,2020-11-22 00:00:00.000000,10.92823636,14.55842663,20.20315088,319,425,590,165,238,420,5.65781029,8.15650522,14.40051876,0.38516327,0.57043734,0.92363613
46043,0,USSouthDakotaDouglas,South Dakota,Douglas,2021-01-05 10:48:51.899961,2020-11-23 00:00:00.000000,10.76609011,14.50157300,20.12060250,314,423,587,162,234,419,5.55726221,8.04420140,14.36488930,0.40061147,0.59685903,0.93427106
46043,0,USSouthDakotaDouglas,South Dakota,Douglas,2021-01-05 10:48:51.899961,2020-11-24 00:00:00.000000,10.60150394,14.39048587,20.02969851,309,420,585,159,232,418,5.46464466,7.96651769,14.32284237,0.42700144,0.62100359,0.93490386
46043,0,USSouthDakotaDouglas,South Dakota,Douglas,2021-01-05 10:48:51.899961,2020-11-25 00:00:00.000000,10.60800949,14.36070696,20.09994019,309,419,587,157,228,415,5.37580685,7.81066557,14.21103415,0.43984028,0.65036506,0.92544139
46043,0,USSouthDakotaDouglas,South Dakota,Douglas,2021-01-05 10:48:51.899961,2020-11-26 00:00:00.000000,10.75067485,14.26716483,20.23046763,314,416,590,154,225,410,5.28851373,7.71160547,14.04834023,0.45693171,0.66219636,0.91785201
46043,0,USSouthDakotaDouglas,South Dakota,Douglas,2021-01-05 10:48:51.899961,2020-11-27 00:00:00.000000,10.61786777,14.09640263,20.19131307,310,411,589,151,222,406,5.20203568,7.63028771,13.90505182,0.50374380,0.68086541,0.93909934
46043,0,USSouthDakotaDouglas,South Dakota,Douglas,2021-01-05 10:48:51.899961,2020-11-28 00:00:00.000000,10.41601841,13.95546913,20.08199594,304,407,586,149,221,402,5.11699608,7.57208712,13.77888250,0.50875210,0.72492021,1.03607665
46043,0,USSouthDakotaDouglas,South Dakota,Douglas,2021-01-05 10:48:51.899961,2020-11-29 00:00:00.000000,10.24014262,13.77557537,19.96117659,299,402,583,147,218,399,5.03540283,7.48598002,13.66551279,0.53815551,0.73675746,1.04141240
46043,0,USSouthDakotaDouglas,South Dakota,Douglas,2021-01-05 10:48:51.899961,2020-11-30 00:00:00.000000,10.13396725,13.53041584,19.87354193,296,395,580,144,216,396,4.96063460,7.39995504,13.55958323,0.55590865,0.76609267,1.04146157
46043,0,USSouthDakotaDouglas,South Dakota,Douglas,2021-01-05 10:48:51.899961,2020-12-01 00:00:00.000000,10.06379414,13.28109041,19.82041157,293,387,578,142,215,393,4.89401561,7.38044215,13.46514472,0.55641497,0.79557485,1.12129513
46043,0,USSouthDakotaDouglas,South Dakota,Douglas,2021-01-05 10:48:51.899961,2020-12-02 00:00:00.000000,10.00189456,13.04329424,19.77607645,292,380,577,141,214,388,4.84023319,7.34424935,13.30707469,0.55645968,0.83076100,1.20607123
46043,0,USSouthDakotaDouglas,South Dakota,Douglas,2021-01-05 10:48:51.899961,2020-12-03 00:00:00.000000,9.85722419,12.84032868,19.71027594,287,375,575,140,212,383,4.80147937,7.27578326,13.13761219,0.55651681,0.84323432,1.24407901
46043,0,USSouthDakotaDouglas,South Dakota,Douglas,2021-01-05 10:48:51.899961,2020-12-04 00:00:00.000000,9.69837755,12.62388702,19.60440291,283,368,572,139,209,378,4.77033940,7.15556764,12.97096529,0.55670041,0.86395946,1.28095135
46043,0,USSouthDakotaDouglas,South Dakota,Douglas,2021-01-05 10:48:51.899961,2020-12-05 00:00:00.000000,9.52644500,12.40613460,19.30715845,278,362,563,138,204,373,4.74094409,6.99218493,12.80177103,0.55952200,0.88286642,1.33184183
46043,0,USSouthDakotaDouglas,South Dakota,Douglas,2021-01-05 10:48:51.899961,2020-12-06 00:00:00.000000,9.34279805,12.19994829,18.96357561,272,356,553,137,201,368,4.70969473,6.88478648,12.62752129,0.57200351,0.90340481,1.36259034
46043,0,USSouthDakotaDouglas,South Dakota,Douglas,2021-01-05 10:48:51.899961,2020-12-07 00:00:00.000000,9.16180692,11.99140145,18.59154904,267,350,543,138,198,363,4.73452560,6.81221743,12.44291070,0.59409253,0.91935889,1.37169409
46043,0,USSouthDakotaDouglas,South Dakota,Douglas,2021-01-05 10:48:51.899961,2020-12-08 00:00:00.000000,8.97225389,11.74886384,18.18745574,262,343,531,139,196,357,4.77219158,6.71728826,12.24600581,0.60432201,0.92538722,1.37429460
46043,0,USSouthDakotaDouglas,South Dakota,Douglas,2021-01-05 10:48:51.899961,2020-12-09 00:00:00.000000,8.75348826,11.54428438,17.75553500,255,337,518,135,191,351,4.63822318,6.54873001,12.03484710,0.62853955,0.94161263,1.39677045
46043,0,USSouthDakotaDouglas,South Dakota,Douglas,2021-01-05 10:48:51.899961,2020-12-10 00:00:00.000000,8.57476927,11.23546762,17.29989496,250,328,505,134,186,344,4.59830871,6.36786505,11.80867932,0.63718438,0.94306690,1.43434692
46043,0,USSouthDakotaDouglas,South Dakota,Douglas,2021-01-05 10:48:51.899961,2020-12-11 00:00:00.000000,8.36867052,10.97730281,16.82459808,244,320,491,128,181,337,4.40500730,6.22951825,11.56762043,0.63628904,0.93366699,1.49365542
46043,0,USSouthDakotaDouglas,South Dakota,Douglas,2021-01-05 10:48:51.899961,2020-12-12 00:00:00.000000,8.16006022,10.82049662,16.33359508,238,316,477,123,179,330,4.22609219,6.13381922,11.31241297,0.63533195,0.93136892,1.53631416
46043,0,USSouthDakotaDouglas,South Dakota,Douglas,2021-01-05 10:48:51.899961,2020-12-13 00:00:00.000000,7.94987314,10.55917622,15.83066998,232,308,462,119,176,322,4.10757292,6.05187214,11.04423536,0.63527416,0.93946074,1.67041732
46043,0,USSouthDakotaDouglas,South Dakota,Douglas,2021-01-05 10:48:51.899961,2020-12-14 00:00:00.000000,7.88136442,10.21424011,15.39793256,230,298,449,116,173,316,3.98448145,5.93015690,10.82834650,0.65788736,0.94768686,1.66819452
46043,0,USSouthDakotaDouglas,South Dakota,Douglas,2021-01-05 10:48:51.899961,2020-12-15 00:00:00.000000,7.76363452,9.89289023,14.96017850,226,288,436,112,169,310,3.86690396,5.78939822,10.63177822,0.65508136,0.97742338,1.64524012
46043,0,USSouthDakotaDouglas,South Dakota,Douglas,2021-01-05 10:48:51.899961,2020-12-16 00:00:00.000000,7.54327323,9.72291135,14.57597527,220,284,425,109,165,304,3.76335496,5.67549438,10.41675789,0.65574976,0.97364839,1.67536145
46043,0,USSouthDakotaDouglas,South Dakota,Douglas,2021-01-05 10:48:51.899961,2020-12-17 00:00:00.000000,7.26551270,9.52547910,14.22290478,212,278,415,108,162,297,3.69806069,5.54946640,10.18594872,0.65319549,0.98699932,1.74025470
46043,0,USSouthDakotaDouglas,South Dakota,Douglas,2021-01-05 10:48:51.899961,2020-12-18 00:00:00.000000,6.98725897,9.27106378,13.85547752,204,270,404,106,157,290,3.64277971,5.38571848,9.94189320,0.64808422,1.00407816,1.74091094
46043,0,USSouthDakotaDouglas,South Dakota,Douglas,2021-01-05 10:48:51.899961,2020-12-19 00:00:00.000000,6.71106275,9.03287935,13.47662532,196,263,393,104,155,282,3.59406305,5.31680656,9.68700715,0.63849987,0.99200553,1.93069428
46043,0,USSouthDakotaDouglas,South Dakota,Douglas,2021-01-05 10:48:51.899961,2020-12-20 00:00:00.000000,6.43750156,8.80784876,13.08918734,188,257,382,101,150,275,3.47028868,5.16512558,9.42357068,0.63017157,1.03142750,1.93902084
46043,0,USSouthDakotaDouglas,South Dakota,Douglas,2021-01-05 10:48:51.899961,2020-12-21 00:00:00.000000,6.18439638,8.42659683,12.63578874,180,246,369,96,145,267,3.30708966,4.97713410,9.15371898,0.62898749,1.04829581,1.94079857
46043,0,USSouthDakotaDouglas,South Dakota,Douglas,2021-01-05 10:48:51.899961,2020-12-22 00:00:00.000000,5.93735913,8.06455225,12.17904190,173,235,355,91,139,259,3.14384787,4.77456738,8.86888105,0.60130250,1.04332941,1.94170097
46043,0,USSouthDakotaDouglas,South Dakota,Douglas,2021-01-05 10:48:51.899961,2020-12-23 00:00:00.000000,5.69581719,7.78886299,11.72081650,166,227,342,87,134,250,2.98289647,4.60515836,8.57406952,0.59735808,1.04095116,1.94215341
46043,0,USSouthDakotaDouglas,South Dakota,Douglas,2021-01-05 10:48:51.899961,2020-12-24 00:00:00.000000,5.46009628,7.42298577,11.26422883,159,216,329,82,129,241,2.83838018,4.44408596,8.27329550,0.58705267,1.02175180,1.94254237
46043,0,USSouthDakotaDouglas,South Dakota,Douglas,2021-01-05 10:48:51.899961,2020-12-25 00:00:00.000000,5.23054282,7.13160309,10.81193554,152,208,315,79,126,232,2.71798858,4.32169982,7.96979455,0.58011383,1.03635502,1.94440069
46043,0,USSouthDakotaDouglas,South Dakota,Douglas,2021-01-05 10:48:51.899961,2020-12-26 00:00:00.000000,5.00748939,6.92068621,10.36618569,146,202,302,75,121,226,2.59927951,4.15669326,7.75005298,0.57386997,1.02489795,1.96074257
46043,0,USSouthDakotaDouglas,South Dakota,Douglas,2021-01-05 10:48:51.899961,2020-12-27 00:00:00.000000,4.79123381,6.72807102,9.92886543,139,196,290,72,117,220,2.48382415,4.02067125,7.55358761,0.55779675,1.02319417,2.01571966
46043,0,USSouthDakotaDouglas,South Dakota,Douglas,2021-01-05 10:48:51.899961,2020-12-28 00:00:00.000000,4.50634964,6.38393797,9.44181274,131,186,275,69,112,214,2.37112672,3.86440024,7.35938766,0.53035488,1.01202247,2.02718818
46043,0,USSouthDakotaDouglas,South Dakota,Douglas,2021-01-05 10:48:51.899961,2020-12-29 00:00:00.000000,4.22401893,6.03953165,9.10931730,123,176,266,65,108,208,2.25691129,3.71270657,7.14897210,0.50916256,1.02633416,1.97772927
46043,0,USSouthDakotaDouglas,South Dakota,Douglas,2021-01-05 10:48:51.899961,2020-12-30 00:00:00.000000,3.95484089,5.71675765,8.77725928,115,166,256,62,104,202,2.14318129,3.57168339,6.92924914,0.49681536,1.02293894,1.92942043
46043,0,USSouthDakotaDouglas,South Dakota,Douglas,2021-01-05 10:48:51.899961,2020-12-31 00:00:00.000000,3.69904571,5.41366910,8.44608131,108,158,246,59,99,195,2.03130227,3.40684263,6.70344131,0.49411987,1.02163937,1.93109138
46043,0,USSouthDakotaDouglas,South Dakota,Douglas,2021-01-05 10:48:51.899961,2021-01-01 00:00:00.000000,3.45664822,5.08783269,8.05867090,100,148,235,56,94,189,1.92219901,3.22391521,6.47404876,0.49658532,1.03708088,1.93759041
46043,0,USSouthDakotaDouglas,South Dakota,Douglas,2021-01-05 10:48:51.899961,2021-01-02 00:00:00.000000,3.21486245,4.76709937,7.64533955,93,139,223,53,88,182,1.81680888,3.02622532,6.24305029,0.50843359,1.05742370,1.95897262
46043,0,USSouthDakotaDouglas,South Dakota,Douglas,2021-01-05 10:48:51.899961,2021-01-03 00:00:00.000000,2.98234087,4.46259916,7.24825085,87,130,211,50,83,174,1.71649754,2.86075532,5.96140777,0.50057916,1.07857880,2.00737442
46043,0,USSouthDakotaDouglas,South Dakota,Douglas,2021-01-05 10:48:51.899961,2021-01-04 00:00:00.000000,2.80395624,4.19243473,6.86747882,81,122,200,47,78,165,1.61922290,2.69876225,5.67573128,0.49322398,1.08869672,2.05732901
46043,0,USSouthDakotaDouglas,South Dakota,Douglas,2021-01-05 10:48:51.899961,2021-01-05 00:00:00.000000,2.61371947,3.95503373,6.50300672,76,115,189,44,73,157,1.52539417,2.52842852,5.39859162,0.49325528,1.09239495,2.07912692
46043,0,USSouthDakotaDouglas,South Dakota,Douglas,2021-01-05 10:48:51.899961,2021-01-06 00:00:00.000000,2.41463633,3.72141508,6.15472208,70,108,179,41,69,149,1.43293400,2.37041763,5.13053592,0.48889870,1.08760268,2.08608605
46043,0,USSouthDakotaDouglas,South Dakota,Douglas,2021-01-05 10:48:51.899961,2021-01-07 00:00:00.000000,2.21137212,3.48385298,5.82240516,64,101,170,39,65,142,1.34690034,2.23701047,4.87195678,0.47154271,1.08832192,2.08802215
46043,0,USSouthDakotaDouglas,South Dakota,Douglas,2021-01-05 10:48:51.899961,2021-01-08 00:00:00.000000,2.02391749,3.26274859,5.50573915,59,95,160,36,61,135,1.26301638,2.12142075,4.62311180,0.45878930,1.08858414,2.08853838
46043,0,USSouthDakotaDouglas,South Dakota,Douglas,2021-01-05 10:48:51.899961,2021-01-09 00:00:00.000000,1.85128573,3.07544370,5.20433169,54,89,152,34,58,128,1.18294482,2.01099518,4.38413965,0.45714693,1.08867768,2.08867447
46043,0,USSouthDakotaDouglas,South Dakota,Douglas,2021-01-05 10:48:51.899961,2021-01-10 00:00:00.000000,1.69250062,2.88328402,4.91773577,49,84,143,32,55,121,1.10677781,1.90484067,4.15507695,0.45714491,1.08871079,2.08871027
46043,0,USSouthDakotaDouglas,South Dakota,Douglas,2021-01-05 10:48:51.899961,2021-01-11 00:00:00.000000,1.55209422,2.69522710,4.64546644,45,78,135,30,52,114,1.03064501,1.80299585,3.93587540,0.45714424,1.08872248,2.08871969
46043,0,USSouthDakotaDouglas,South Dakota,Douglas,2021-01-05 10:48:51.899961,2021-01-12 00:00:00.000000,1.42867138,2.51827856,4.38701356,41,73,128,27,49,108,0.94258201,1.70000409,3.72641772,0.45714398,1.08872661,2.08872219
46043,0,USSouthDakotaDouglas,South Dakota,Douglas,2021-01-05 10:48:51.899961,2021-01-13 00:00:00.000000,1.31466506,2.35194460,4.14185163,38,68,120,25,46,103,0.86160910,1.59626087,3.52653167,0.45714388,1.08872807,2.08872286
46043,0,USSouthDakotaDouglas,South Dakota,Douglas,2021-01-05 10:48:51.899961,2021-01-14 00:00:00.000000,1.20941590,2.19572841,3.90944734,35,64,114,22,43,97,0.78723413,1.49795086,3.33600207,0.45714383,1.08872858,2.08872304
46043,0,USSouthDakotaDouglas,South Dakota,Douglas,2021-01-05 10:48:51.899961,2021-01-15 00:00:00.000000,1.11230232,2.04913532,3.68926566,32,59,107,21,41,92,0.71898352,1.40487175,3.15458074,0.45714382,1.08872876,2.08872309
46043,0,USSouthDakotaDouglas,South Dakota,Douglas,2021-01-05 10:48:51.899961,2021-01-16 00:00:00.000000,1.02273938,1.91167687,3.48077450,29,55,101,19,38,87,0.65640534,1.30790861,2.98199486,0.45714381,1.08872883,2.08872311
46043,0,USSouthDakotaDouglas,South Dakota,Douglas,2021-01-05 10:48:51.899961,2021-01-17 00:00:00.000000,0.94017770,1.78287404,3.28344852,27,52,95,17,35,82,0.59907113,1.21707716,2.81795381,0.45714380,1.08872885,2.08872311
