FIPS,HR_UID,nameid,province,region,analysisTime,dates,pointprevalence_025,pointprevalence_50,pointprevalence_975,pointinfections_025,pointinfections_50,pointinfections_975,pointinfectious_025,pointinfectious_50,pointinfectious_975,pointinfectiousprevalence_05,pointinfectiousprevalence_50,pointinfectiousprevalence_95,infectrate_025,infectrate_50,infectrate_975
39081,0,USOhioJefferson,Ohio,Jefferson,2021-01-05 13:12:46.426724,2020-03-09 00:00:00.000000,0.00172711,0.00588513,0.02249198,1,3,14,0,2,9,0.00086282,0.00338782,0.01390471,0.40177467,0.52180681,0.73414894
39081,0,USOhioJefferson,Ohio,Jefferson,2021-01-05 13:12:46.426724,2020-03-10 00:00:00.000000,0.00178854,0.00673861,0.02421338,1,4,15,0,2,8,0.00079743,0.00326501,0.01288469,0.40177377,0.52180577,0.73414015
39081,0,USOhioJefferson,Ohio,Jefferson,2021-01-05 13:12:46.426724,2020-03-11 00:00:00.000000,0.00187803,0.00746495,0.02589082,1,4,16,0,2,8,0.00085494,0.00333971,0.01247465,0.40177145,0.52180298,0.73412201
39081,0,USOhioJefferson,Ohio,Jefferson,2021-01-05 13:12:46.426724,2020-03-12 00:00:00.000000,0.00210101,0.00807060,0.02811138,1,5,18,0,2,8,0.00094223,0.00351033,0.01245282,0.40176543,0.52179552,0.73407499
39081,0,USOhioJefferson,Ohio,Jefferson,2021-01-05 13:12:46.426724,2020-03-13 00:00:00.000000,0.00221831,0.00859395,0.03091969,1,5,20,0,2,8,0.00098166,0.00374141,0.01370148,0.40174968,0.52177533,0.73388989
39081,0,USOhioJefferson,Ohio,Jefferson,2021-01-05 13:12:46.426724,2020-03-14 00:00:00.000000,0.00231982,0.00929360,0.03397243,1,6,22,0,2,10,0.00099688,0.00402390,0.01573373,0.40170863,0.52172019,0.73283026
39081,0,USOhioJefferson,Ohio,Jefferson,2021-01-05 13:12:46.426724,2020-03-15 00:00:00.000000,0.00241087,0.00987850,0.03783748,1,6,24,0,2,11,0.00102977,0.00431483,0.01799200,0.40160313,0.52156761,0.72576136
39081,0,USOhioJefferson,Ohio,Jefferson,2021-01-05 13:12:46.426724,2020-03-16 00:00:00.000000,0.00426150,0.01335436,0.04629493,2,8,30,0,3,12,0.00110266,0.00466220,0.01959570,0.37376291,0.52103087,0.70199078
39081,0,USOhioJefferson,Ohio,Jefferson,2021-01-05 13:12:46.426724,2020-03-17 00:00:00.000000,0.00508806,0.01664575,0.05335523,3,10,34,1,3,13,0.00180914,0.00546156,0.02128263,0.35967744,0.51875690,0.69424352
39081,0,USOhioJefferson,Ohio,Jefferson,2021-01-05 13:12:46.426724,2020-03-18 00:00:00.000000,0.00621780,0.02055785,0.05853484,4,13,38,1,4,15,0.00230217,0.00665046,0.02392727,0.35879673,0.51590150,0.69417697
39081,0,USOhioJefferson,Ohio,Jefferson,2021-01-05 13:12:46.426724,2020-03-19 00:00:00.000000,0.00740392,0.02425699,0.06516404,4,15,42,1,5,18,0.00281639,0.00829825,0.02765556,0.34971571,0.49768997,0.69391872
39081,0,USOhioJefferson,Ohio,Jefferson,2021-01-05 13:12:46.426724,2020-03-20 00:00:00.000000,0.00867133,0.02824913,0.07372357,5,18,48,2,6,20,0.00341878,0.01002805,0.03167642,0.31717155,0.47525700,0.69236742
39081,0,USOhioJefferson,Ohio,Jefferson,2021-01-05 13:12:46.426724,2020-03-21 00:00:00.000000,0.01035944,0.03090776,0.08412569,6,20,54,2,7,23,0.00407370,0.01161995,0.03585327,0.28652219,0.43547404,0.64976853
39081,0,USOhioJefferson,Ohio,Jefferson,2021-01-05 13:12:46.426724,2020-03-22 00:00:00.000000,0.01211385,0.03420635,0.09488199,7,22,61,3,8,25,0.00477984,0.01345042,0.03963273,0.27254406,0.41609379,0.62241285
39081,0,USOhioJefferson,Ohio,Jefferson,2021-01-05 13:12:46.426724,2020-03-23 00:00:00.000000,0.01496381,0.03939242,0.09974260,9,25,65,3,9,28,0.00553782,0.01510849,0.04301690,0.25863543,0.40178687,0.61843376
39081,0,USOhioJefferson,Ohio,Jefferson,2021-01-05 13:12:46.426724,2020-03-24 00:00:00.000000,0.01834892,0.04336169,0.10481851,11,28,68,4,11,30,0.00651687,0.01708877,0.04693292,0.25478187,0.37884413,0.61015843
39081,0,USOhioJefferson,Ohio,Jefferson,2021-01-05 13:12:46.426724,2020-03-25 00:00:00.000000,0.02233298,0.04725821,0.10894728,14,30,71,4,12,33,0.00753266,0.01928674,0.05121674,0.25530623,0.36005970,0.60464430
39081,0,USOhioJefferson,Ohio,Jefferson,2021-01-05 13:12:46.426724,2020-03-26 00:00:00.000000,0.02619139,0.05224902,0.11220763,17,34,73,6,14,36,0.00966673,0.02186707,0.05534915,0.25206675,0.35027681,0.58975014
39081,0,USOhioJefferson,Ohio,Jefferson,2021-01-05 13:12:46.426724,2020-03-27 00:00:00.000000,0.02823076,0.05659214,0.11574438,18,36,75,7,15,38,0.01201696,0.02383814,0.05934043,0.23591109,0.33119314,0.55394900
39081,0,USOhioJefferson,Ohio,Jefferson,2021-01-05 13:12:46.426724,2020-03-28 00:00:00.000000,0.02976549,0.06173774,0.12777091,19,40,83,8,16,41,0.01349501,0.02584699,0.06320750,0.22763522,0.30575639,0.49836588
39081,0,USOhioJefferson,Ohio,Jefferson,2021-01-05 13:12:46.426724,2020-03-29 00:00:00.000000,0.03136847,0.06588474,0.13210814,20,43,86,9,18,43,0.01431518,0.02800488,0.06677911,0.22191684,0.29520326,0.42924027
39081,0,USOhioJefferson,Ohio,Jefferson,2021-01-05 13:12:46.426724,2020-03-30 00:00:00.000000,0.03730196,0.06903472,0.13656895,24,45,89,9,20,47,0.01515054,0.03083008,0.07342743,0.21722702,0.28586633,0.41492363
39081,0,USOhioJefferson,Ohio,Jefferson,2021-01-05 13:12:46.426724,2020-03-31 00:00:00.000000,0.04124366,0.07103786,0.14220082,26,46,92,10,21,50,0.01670720,0.03326742,0.07731301,0.21232296,0.27279912,0.41488264
39081,0,USOhioJefferson,Ohio,Jefferson,2021-01-05 13:12:46.426724,2020-04-01 00:00:00.000000,0.04281765,0.07421698,0.14866015,27,48,97,12,22,52,0.01878614,0.03500421,0.08001123,0.20353789,0.26810542,0.41481321
39081,0,USOhioJefferson,Ohio,Jefferson,2021-01-05 13:12:46.426724,2020-04-02 00:00:00.000000,0.04421452,0.07840939,0.15071498,28,51,98,13,24,54,0.02076711,0.03722700,0.08290719,0.19483185,0.25923576,0.41468211
39081,0,USOhioJefferson,Ohio,Jefferson,2021-01-05 13:12:46.426724,2020-04-03 00:00:00.000000,0.04640387,0.08430160,0.15518262,30,55,101,14,25,56,0.02205908,0.03914283,0.08586247,0.18010389,0.24967613,0.41428867
39081,0,USOhioJefferson,Ohio,Jefferson,2021-01-05 13:12:46.426724,2020-04-04 00:00:00.000000,0.04858686,0.08754242,0.15969502,31,57,104,15,26,58,0.02332420,0.04119929,0.08888917,0.16299444,0.24326346,0.41275372
39081,0,USOhioJefferson,Ohio,Jefferson,2021-01-05 13:12:46.426724,2020-04-05 00:00:00.000000,0.04902499,0.09071266,0.16651499,32,59,108,16,27,60,0.02456123,0.04279792,0.09197520,0.16275744,0.23376590,0.39175958
39081,0,USOhioJefferson,Ohio,Jefferson,2021-01-05 13:12:46.426724,2020-04-06 00:00:00.000000,0.05225292,0.09308533,0.17123031,34,60,111,16,28,62,0.02551887,0.04405845,0.09508810,0.15412461,0.22790933,0.33668510
39081,0,USOhioJefferson,Ohio,Jefferson,2021-01-05 13:12:46.426724,2020-04-07 00:00:00.000000,0.05354367,0.09362717,0.17803599,34,61,116,17,29,62,0.02643997,0.04587173,0.09580875,0.15020983,0.21700533,0.33163447
39081,0,USOhioJefferson,Ohio,Jefferson,2021-01-05 13:12:46.426724,2020-04-08 00:00:00.000000,0.05395529,0.09443370,0.18436365,35,61,120,18,31,63,0.02758115,0.04753507,0.09709602,0.14855201,0.21445538,0.31660186
39081,0,USOhioJefferson,Ohio,Jefferson,2021-01-05 13:12:46.426724,2020-04-09 00:00:00.000000,0.05429454,0.09625770,0.18884114,35,62,123,18,31,65,0.02777850,0.04838963,0.10054584,0.14774876,0.20448908,0.31537113
39081,0,USOhioJefferson,Ohio,Jefferson,2021-01-05 13:12:46.426724,2020-04-10 00:00:00.000000,0.05457541,0.09834607,0.19274270,35,64,125,18,32,66,0.02807488,0.04991530,0.10214367,0.13645639,0.19951747,0.31031425
39081,0,USOhioJefferson,Ohio,Jefferson,2021-01-05 13:12:46.426724,2020-04-11 00:00:00.000000,0.05480342,0.09937914,0.19641105,35,64,128,18,33,67,0.02841984,0.05163768,0.10361651,0.13319832,0.19602903,0.30303177
39081,0,USOhioJefferson,Ohio,Jefferson,2021-01-05 13:12:46.426724,2020-04-12 00:00:00.000000,0.05497939,0.10024282,0.19998308,35,65,130,18,34,71,0.02868671,0.05329260,0.10970202,0.12531571,0.18935169,0.28798617
39081,0,USOhioJefferson,Ohio,Jefferson,2021-01-05 13:12:46.426724,2020-04-13 00:00:00.000000,0.05486697,0.10303766,0.20000724,35,67,130,18,35,73,0.02889403,0.05478414,0.11239953,0.12304450,0.18394413,0.28273533
39081,0,USOhioJefferson,Ohio,Jefferson,2021-01-05 13:12:46.426724,2020-04-14 00:00:00.000000,0.05416120,0.10433672,0.20000101,35,68,130,19,36,74,0.02928322,0.05585365,0.11437157,0.12273642,0.17820554,0.28187980
39081,0,USOhioJefferson,Ohio,Jefferson,2021-01-05 13:12:46.426724,2020-04-15 00:00:00.000000,0.05676589,0.10620697,0.19994433,37,69,130,19,36,75,0.02927946,0.05651434,0.11578974,0.12223067,0.17403213,0.27967041
39081,0,USOhioJefferson,Ohio,Jefferson,2021-01-05 13:12:46.426724,2020-04-16 00:00:00.000000,0.05859088,0.10848675,0.19986331,38,70,130,19,37,76,0.02933883,0.05690920,0.11679169,0.12168474,0.17055515,0.25672166
39081,0,USOhioJefferson,Ohio,Jefferson,2021-01-05 13:12:46.426724,2020-04-17 00:00:00.000000,0.05846517,0.10793473,0.19973257,38,70,130,19,37,76,0.02940476,0.05809531,0.11744444,0.11793504,0.16760760,0.25652474
39081,0,USOhioJefferson,Ohio,Jefferson,2021-01-05 13:12:46.426724,2020-04-18 00:00:00.000000,0.05832864,0.10954277,0.20044700,38,71,130,19,38,77,0.02946043,0.05835612,0.11787707,0.11776336,0.16332703,0.25236463
39081,0,USOhioJefferson,Ohio,Jefferson,2021-01-05 13:12:46.426724,2020-04-19 00:00:00.000000,0.05818186,0.10917642,0.20197514,38,71,131,19,38,77,0.02953712,0.05827072,0.11815041,0.11733630,0.16090701,0.24569602
39081,0,USOhioJefferson,Ohio,Jefferson,2021-01-05 13:12:46.426724,2020-04-20 00:00:00.000000,0.05901210,0.10909891,0.20257516,38,71,132,19,38,77,0.03021317,0.05968269,0.11830231,0.11421096,0.15990326,0.24478755
39081,0,USOhioJefferson,Ohio,Jefferson,2021-01-05 13:12:46.426724,2020-04-21 00:00:00.000000,0.05963059,0.10894214,0.20312198,38,71,132,20,39,77,0.03067792,0.05985156,0.11845638,0.11341026,0.15970219,0.23825396
39081,0,USOhioJefferson,Ohio,Jefferson,2021-01-05 13:12:46.426724,2020-04-22 00:00:00.000000,0.05912731,0.10758166,0.20906932,38,70,136,19,39,77,0.03047507,0.06007917,0.11878971,0.11320540,0.15710814,0.24002043
39081,0,USOhioJefferson,Ohio,Jefferson,2021-01-05 13:12:46.426724,2020-04-23 00:00:00.000000,0.05866320,0.10663141,0.21999484,38,69,143,19,39,78,0.02993309,0.06047835,0.11968588,0.11321526,0.15427694,0.23783947
39081,0,USOhioJefferson,Ohio,Jefferson,2021-01-05 13:12:46.426724,2020-04-24 00:00:00.000000,0.05823582,0.10826346,0.22700533,38,70,148,19,39,78,0.02963941,0.06085574,0.12053687,0.11307732,0.14923087,0.23691557
39081,0,USOhioJefferson,Ohio,Jefferson,2021-01-05 13:12:46.426724,2020-04-25 00:00:00.000000,0.05785237,0.11061002,0.22351905,37,72,146,19,39,79,0.02929760,0.06095972,0.12148632,0.10860225,0.14979350,0.23163542
39081,0,USOhioJefferson,Ohio,Jefferson,2021-01-05 13:12:46.426724,2020-04-26 00:00:00.000000,0.05753461,0.11102082,0.22395092,37,72,146,18,40,80,0.02891646,0.06143658,0.12332737,0.09836438,0.14425160,0.22309412
39081,0,USOhioJefferson,Ohio,Jefferson,2021-01-05 13:12:46.426724,2020-04-27 00:00:00.000000,0.05586501,0.11177086,0.22261331,36,73,145,18,40,80,0.02849713,0.06220560,0.12323422,0.09395211,0.14416236,0.22283873
39081,0,USOhioJefferson,Ohio,Jefferson,2021-01-05 13:12:46.426724,2020-04-28 00:00:00.000000,0.05358019,0.10945063,0.22115855,35,71,144,18,40,80,0.02827741,0.06248917,0.12368717,0.09280827,0.14262929,0.22407385
39081,0,USOhioJefferson,Ohio,Jefferson,2021-01-05 13:12:46.426724,2020-04-29 00:00:00.000000,0.05164370,0.10771520,0.22238197,33,70,145,18,40,80,0.02819345,0.06230260,0.12380179,0.09311707,0.14075676,0.22238738
39081,0,USOhioJefferson,Ohio,Jefferson,2021-01-05 13:12:46.426724,2020-04-30 00:00:00.000000,0.05310838,0.10802874,0.22682566,34,70,148,18,40,80,0.02820023,0.06165867,0.12370151,0.09419982,0.13958581,0.22048019
39081,0,USOhioJefferson,Ohio,Jefferson,2021-01-05 13:12:46.426724,2020-05-01 00:00:00.000000,0.05457910,0.10927912,0.23114808,35,71,150,18,40,80,0.02798895,0.06264826,0.12344703,0.09256698,0.14034374,0.22017362
39081,0,USOhioJefferson,Ohio,Jefferson,2021-01-05 13:12:46.426724,2020-05-02 00:00:00.000000,0.05391130,0.11008291,0.23419348,35,71,152,17,40,80,0.02741890,0.06237986,0.12308214,0.09041593,0.13967735,0.22024156
39081,0,USOhioJefferson,Ohio,Jefferson,2021-01-05 13:12:46.426724,2020-05-03 00:00:00.000000,0.05309250,0.11144539,0.23316348,34,72,152,18,40,80,0.02811590,0.06211551,0.12263765,0.08936989,0.13861935,0.22111518
39081,0,USOhioJefferson,Ohio,Jefferson,2021-01-05 13:12:46.426724,2020-05-04 00:00:00.000000,0.05397865,0.10943763,0.23132286,35,71,151,18,40,79,0.02850374,0.06165098,0.12213456,0.08836107,0.13810643,0.22114255
39081,0,USOhioJefferson,Ohio,Jefferson,2021-01-05 13:12:46.426724,2020-05-05 00:00:00.000000,0.05502280,0.10993570,0.22945769,35,71,149,18,39,80,0.02861624,0.06104908,0.12324133,0.08550490,0.13737428,0.22767766
39081,0,USOhioJefferson,Ohio,Jefferson,2021-01-05 13:12:46.426724,2020-05-06 00:00:00.000000,0.05304679,0.11098847,0.22753273,34,72,148,18,39,79,0.02873592,0.06109268,0.12114579,0.08492344,0.13825331,0.22729647
39081,0,USOhioJefferson,Ohio,Jefferson,2021-01-05 13:12:46.426724,2020-05-07 00:00:00.000000,0.05097983,0.10885184,0.22548114,33,71,147,18,39,78,0.02886660,0.06101729,0.11997271,0.08498250,0.13884252,0.22281144
39081,0,USOhioJefferson,Ohio,Jefferson,2021-01-05 13:12:46.426724,2020-05-08 00:00:00.000000,0.04913263,0.10796304,0.22314928,32,70,145,18,39,77,0.02839933,0.06084076,0.11909943,0.08269334,0.14050585,0.22065008
39081,0,USOhioJefferson,Ohio,Jefferson,2021-01-05 13:12:46.426724,2020-05-09 00:00:00.000000,0.04747166,0.10706878,0.22033825,31,69,143,18,40,77,0.02755689,0.06145571,0.11812279,0.08241463,0.14166856,0.21783504
39081,0,USOhioJefferson,Ohio,Jefferson,2021-01-05 13:12:46.426724,2020-05-10 00:00:00.000000,0.04766112,0.10648863,0.21704541,31,69,141,17,40,76,0.02656568,0.06141251,0.11699814,0.08217943,0.13781446,0.21817085
39081,0,USOhioJefferson,Ohio,Jefferson,2021-01-05 13:12:46.426724,2020-05-11 00:00:00.000000,0.05062041,0.10533289,0.21693812,33,68,141,16,39,75,0.02575313,0.06018013,0.11569345,0.08200614,0.13830450,0.21848480
39081,0,USOhioJefferson,Ohio,Jefferson,2021-01-05 13:12:46.426724,2020-05-12 00:00:00.000000,0.05042160,0.10520476,0.21673958,32,68,141,17,38,76,0.02622617,0.05950367,0.11735762,0.08189599,0.13943440,0.21841625
39081,0,USOhioJefferson,Ohio,Jefferson,2021-01-05 13:12:46.426724,2020-05-13 00:00:00.000000,0.04987510,0.10579626,0.21658488,32,69,141,18,38,77,0.02759145,0.05897903,0.11862744,0.08190527,0.14081983,0.23115216
39081,0,USOhioJefferson,Ohio,Jefferson,2021-01-05 13:12:46.426724,2020-05-14 00:00:00.000000,0.05058074,0.10639307,0.21647854,33,69,141,17,38,78,0.02708707,0.05859663,0.11949819,0.08201358,0.14277756,0.23369119
39081,0,USOhioJefferson,Ohio,Jefferson,2021-01-05 13:12:46.426724,2020-05-15 00:00:00.000000,0.05128842,0.10470286,0.21641765,33,68,141,17,38,78,0.02688275,0.05864524,0.12006101,0.08213380,0.14768533,0.23510426
39081,0,USOhioJefferson,Ohio,Jefferson,2021-01-05 13:12:46.426724,2020-05-16 00:00:00.000000,0.05200575,0.10338040,0.21641163,33,67,141,17,38,78,0.02723066,0.05953967,0.12040736,0.08220100,0.14884980,0.23751668
39081,0,USOhioJefferson,Ohio,Jefferson,2021-01-05 13:12:46.426724,2020-05-17 00:00:00.000000,0.05277437,0.10357642,0.21650439,34,67,141,18,38,78,0.02759401,0.05902957,0.12060473,0.08223602,0.14988196,0.24798983
39081,0,USOhioJefferson,Ohio,Jefferson,2021-01-05 13:12:46.426724,2020-05-18 00:00:00.000000,0.05359823,0.10381147,0.21456854,35,67,140,18,38,78,0.02797701,0.05909986,0.12070024,0.08226804,0.15138961,0.26474692
39081,0,USOhioJefferson,Ohio,Jefferson,2021-01-05 13:12:46.426724,2020-05-19 00:00:00.000000,0.05397511,0.10403583,0.21271364,35,67,138,18,38,78,0.02838349,0.05871681,0.12033502,0.08231245,0.15119326,0.27283373
39081,0,USOhioJefferson,Ohio,Jefferson,2021-01-05 13:12:46.426724,2020-05-20 00:00:00.000000,0.05236598,0.10515809,0.21085715,34,68,137,18,38,78,0.02886189,0.05869191,0.11966335,0.08238131,0.15173826,0.28554965
39081,0,USOhioJefferson,Ohio,Jefferson,2021-01-05 13:12:46.426724,2020-05-21 00:00:00.000000,0.05081097,0.10779425,0.20898726,33,70,136,19,38,77,0.02942658,0.05920845,0.11879191,0.08117107,0.15354810,0.29365713
39081,0,USOhioJefferson,Ohio,Jefferson,2021-01-05 13:12:46.426724,2020-05-22 00:00:00.000000,0.04932743,0.11023307,0.20708929,32,72,135,19,39,76,0.02935242,0.05985702,0.11779716,0.08248459,0.15575619,0.29890098
39081,0,USOhioJefferson,Ohio,Jefferson,2021-01-05 13:12:46.426724,2020-05-23 00:00:00.000000,0.04793368,0.11065600,0.20673834,31,72,135,18,38,76,0.02851839,0.05921173,0.11674569,0.08260249,0.15695898,0.30166955
39081,0,USOhioJefferson,Ohio,Jefferson,2021-01-05 13:12:46.426724,2020-05-24 00:00:00.000000,0.04666948,0.11110211,0.21002259,30,72,137,18,38,76,0.02770905,0.05867188,0.11777570,0.08281186,0.16074449,0.30284390
39081,0,USOhioJefferson,Ohio,Jefferson,2021-01-05 13:12:46.426724,2020-05-25 00:00:00.000000,0.04717973,0.11106396,0.21402518,30,72,139,17,38,78,0.02694469,0.05964419,0.11972053,0.08315243,0.15939369,0.30359108
39081,0,USOhioJefferson,Ohio,Jefferson,2021-01-05 13:12:46.426724,2020-05-26 00:00:00.000000,0.04808533,0.11168322,0.21771646,31,72,142,17,39,79,0.02661001,0.06007606,0.12178398,0.08665707,0.15937217,0.30407020
39081,0,USOhioJefferson,Ohio,Jefferson,2021-01-05 13:12:46.426724,2020-05-27 00:00:00.000000,0.05044222,0.11188949,0.22121872,32,73,144,17,39,80,0.02664032,0.06035276,0.12388529,0.08408432,0.16082143,0.30447300
39081,0,USOhioJefferson,Ohio,Jefferson,2021-01-05 13:12:46.426724,2020-05-28 00:00:00.000000,0.05281513,0.11416027,0.22471060,34,74,146,17,39,82,0.02695097,0.06062800,0.12598243,0.08432920,0.16444820,0.30216085
39081,0,USOhioJefferson,Ohio,Jefferson,2021-01-05 13:12:46.426724,2020-05-29 00:00:00.000000,0.05383252,0.11454185,0.22841922,35,74,149,17,40,83,0.02747509,0.06154586,0.12807432,0.08633555,0.17108808,0.30533164
39081,0,USOhioJefferson,Ohio,Jefferson,2021-01-05 13:12:46.426724,2020-05-30 00:00:00.000000,0.05391062,0.11558618,0.23243266,35,75,151,18,40,85,0.02816322,0.06199471,0.13019755,0.09066958,0.17197921,0.30591753
39081,0,USOhioJefferson,Ohio,Jefferson,2021-01-05 13:12:46.426724,2020-05-31 00:00:00.000000,0.05553342,0.11624960,0.24151223,36,75,157,18,40,86,0.02894764,0.06188502,0.13239357,0.09398835,0.17360375,0.30624364
39081,0,USOhioJefferson,Ohio,Jefferson,2021-01-05 13:12:46.426724,2020-06-01 00:00:00.000000,0.05493238,0.11651991,0.24769796,35,76,161,18,40,87,0.02816907,0.06224143,0.13467447,0.09417687,0.18054795,0.31618462
39081,0,USOhioJefferson,Ohio,Jefferson,2021-01-05 13:12:46.426724,2020-06-02 00:00:00.000000,0.05433542,0.11963300,0.25403980,35,78,165,18,41,89,0.02846477,0.06416311,0.13639714,0.09488246,0.18470584,0.32367898
39081,0,USOhioJefferson,Ohio,Jefferson,2021-01-05 13:12:46.426724,2020-06-03 00:00:00.000000,0.05368304,0.12188124,0.26046495,35,79,170,19,42,89,0.02910776,0.06511034,0.13771103,0.09708091,0.18747490,0.32658428
39081,0,USOhioJefferson,Ohio,Jefferson,2021-01-05 13:12:46.426724,2020-06-04 00:00:00.000000,0.05299561,0.12326970,0.26662412,34,80,174,19,42,90,0.03001219,0.06530614,0.13873363,0.09867758,0.18821304,0.32379129
39081,0,USOhioJefferson,Ohio,Jefferson,2021-01-05 13:12:46.426724,2020-06-05 00:00:00.000000,0.05230640,0.12628627,0.26463762,34,82,172,19,43,91,0.02976605,0.06614950,0.13956750,0.10120106,0.19322352,0.32294276
39081,0,USOhioJefferson,Ohio,Jefferson,2021-01-05 13:12:46.426724,2020-06-06 00:00:00.000000,0.05164289,0.12677034,0.26267455,33,82,171,19,43,91,0.02946383,0.06691783,0.14031009,0.10875251,0.19859899,0.32571944
39081,0,USOhioJefferson,Ohio,Jefferson,2021-01-05 13:12:46.426724,2020-06-07 00:00:00.000000,0.05262900,0.13044425,0.26075296,34,85,170,19,44,92,0.02913142,0.06776316,0.14104984,0.11193682,0.20474944,0.33192220
39081,0,USOhioJefferson,Ohio,Jefferson,2021-01-05 13:12:46.426724,2020-06-08 00:00:00.000000,0.05955123,0.13125974,0.25761868,38,85,168,18,45,92,0.02879424,0.06902609,0.14184998,0.11456892,0.21306997,0.36116659
39081,0,USOhioJefferson,Ohio,Jefferson,2021-01-05 13:12:46.426724,2020-06-09 00:00:00.000000,0.06253765,0.13239244,0.25451976,40,86,166,19,45,93,0.03057638,0.06930008,0.14285331,0.11687189,0.21350449,0.39129385
39081,0,USOhioJefferson,Ohio,Jefferson,2021-01-05 13:12:46.426724,2020-06-10 00:00:00.000000,0.06392502,0.13572588,0.25516968,41,88,166,22,45,94,0.03369030,0.07024150,0.14409248,0.11971674,0.21568080,0.40348191
39081,0,USOhioJefferson,Ohio,Jefferson,2021-01-05 13:12:46.426724,2020-06-11 00:00:00.000000,0.06609354,0.14096618,0.26279689,43,92,171,22,46,94,0.03457312,0.07168110,0.14527228,0.12401863,0.21604530,0.40410616
39081,0,USOhioJefferson,Ohio,Jefferson,2021-01-05 13:12:46.426724,2020-06-12 00:00:00.000000,0.06608577,0.14476991,0.26607779,43,94,173,22,48,95,0.03446813,0.07370897,0.14655794,0.12878709,0.21775064,0.40654671
39081,0,USOhioJefferson,Ohio,Jefferson,2021-01-05 13:12:46.426724,2020-06-13 00:00:00.000000,0.06905788,0.14813830,0.27418451,45,96,179,23,49,96,0.03667222,0.07635165,0.14800889,0.13164624,0.23004011,0.40811036
39081,0,USOhioJefferson,Ohio,Jefferson,2021-01-05 13:12:46.426724,2020-06-14 00:00:00.000000,0.07211791,0.14991987,0.28006924,47,97,182,25,51,97,0.03855747,0.07898039,0.14964480,0.14073475,0.24791460,0.40243870
39081,0,USOhioJefferson,Ohio,Jefferson,2021-01-05 13:12:46.426724,2020-06-15 00:00:00.000000,0.07893874,0.15034199,0.29246249,51,98,191,24,53,98,0.03821856,0.08169613,0.15150333,0.14761609,0.25414891,0.40419007
39081,0,USOhioJefferson,Ohio,Jefferson,2021-01-05 13:12:46.426724,2020-06-16 00:00:00.000000,0.08605806,0.15477462,0.30450087,56,101,198,25,54,100,0.03834864,0.08342292,0.15369304,0.15036102,0.25983289,0.40355268
39081,0,USOhioJefferson,Ohio,Jefferson,2021-01-05 13:12:46.426724,2020-06-17 00:00:00.000000,0.09377790,0.16254753,0.31657865,61,106,206,26,55,101,0.04092349,0.08471980,0.15613247,0.15204805,0.26108978,0.40213717
39081,0,USOhioJefferson,Ohio,Jefferson,2021-01-05 13:12:46.426724,2020-06-18 00:00:00.000000,0.09746827,0.17057193,0.32871557,63,111,214,28,56,105,0.04422573,0.08688230,0.16200590,0.15316256,0.26259688,0.40031444
39081,0,USOhioJefferson,Ohio,Jefferson,2021-01-05 13:12:46.426724,2020-06-19 00:00:00.000000,0.10005461,0.18043086,0.34073939,65,117,222,31,58,110,0.04800345,0.08981919,0.16916603,0.15399973,0.26365222,0.40919453
39081,0,USOhioJefferson,Ohio,Jefferson,2021-01-05 13:12:46.426724,2020-06-20 00:00:00.000000,0.10262278,0.18728608,0.35219519,67,122,230,33,60,115,0.05091200,0.09197320,0.17672615,0.15507045,0.27685648,0.43932035
39081,0,USOhioJefferson,Ohio,Jefferson,2021-01-05 13:12:46.426724,2020-06-21 00:00:00.000000,0.10518209,0.19557564,0.36317890,68,127,237,33,61,120,0.05165868,0.09369218,0.18463596,0.17192580,0.27969520,0.45736498
39081,0,USOhioJefferson,Ohio,Jefferson,2021-01-05 13:12:46.426724,2020-06-22 00:00:00.000000,0.10735014,0.20379959,0.36970883,70,133,241,34,62,126,0.05244398,0.09545473,0.19288822,0.17471279,0.28131147,0.45780203
39081,0,USOhioJefferson,Ohio,Jefferson,2021-01-05 13:12:46.426724,2020-06-23 00:00:00.000000,0.10951866,0.20946703,0.37622536,71,136,245,34,64,131,0.05312255,0.09837656,0.20064856,0.18076921,0.28836643,0.45603996
39081,0,USOhioJefferson,Ohio,Jefferson,2021-01-05 13:12:46.426724,2020-06-24 00:00:00.000000,0.11167659,0.21901595,0.38651784,72,143,252,35,67,135,0.05372618,0.10282995,0.20737749,0.18724344,0.29696435,0.44883352
39081,0,USOhioJefferson,Ohio,Jefferson,2021-01-05 13:12:46.426724,2020-06-25 00:00:00.000000,0.11396298,0.23140725,0.39967337,74,151,261,35,69,140,0.05427592,0.10580958,0.21581660,0.19373562,0.30296104,0.43164335
39081,0,USOhioJefferson,Ohio,Jefferson,2021-01-05 13:12:46.426724,2020-06-26 00:00:00.000000,0.12004379,0.23808166,0.41654785,78,155,272,37,71,146,0.05702092,0.10988542,0.22360660,0.20782870,0.31036924,0.42328362
39081,0,USOhioJefferson,Ohio,Jefferson,2021-01-05 13:12:46.426724,2020-06-27 00:00:00.000000,0.12293436,0.24569674,0.44203986,80,160,288,38,75,151,0.05945747,0.11618344,0.23153799,0.21789539,0.31894269,0.41869196
39081,0,USOhioJefferson,Ohio,Jefferson,2021-01-05 13:12:46.426724,2020-06-28 00:00:00.000000,0.12592100,0.25656138,0.46353267,82,167,302,39,79,156,0.05987994,0.12202739,0.23963954,0.22358276,0.32085708,0.41106747
39081,0,USOhioJefferson,Ohio,Jefferson,2021-01-05 13:12:46.426724,2020-06-29 00:00:00.000000,0.12807003,0.26645127,0.47907976,83,174,312,39,83,161,0.06027672,0.12740339,0.24789565,0.22336500,0.32018491,0.42280491
39081,0,USOhioJefferson,Ohio,Jefferson,2021-01-05 13:12:46.426724,2020-06-30 00:00:00.000000,0.13328968,0.27902924,0.48977217,87,182,319,40,86,167,0.06209713,0.13303226,0.25683505,0.22239984,0.31357873,0.44516365
39081,0,USOhioJefferson,Ohio,Jefferson,2021-01-05 13:12:46.426724,2020-07-01 00:00:00.000000,0.13950432,0.28930114,0.50393198,91,188,329,42,90,173,0.06531151,0.13843277,0.26624608,0.22232761,0.30825390,0.45787007
39081,0,USOhioJefferson,Ohio,Jefferson,2021-01-05 13:12:46.426724,2020-07-02 00:00:00.000000,0.14450511,0.29871410,0.52238257,94,195,341,45,93,180,0.06905592,0.14367109,0.27596830,0.22251690,0.30591472,0.45880704
39081,0,USOhioJefferson,Ohio,Jefferson,2021-01-05 13:12:46.426724,2020-07-03 00:00:00.000000,0.14903638,0.31188642,0.53760041,97,203,351,47,99,186,0.07322167,0.15161941,0.28564371,0.21647825,0.30512202,0.45233631
39081,0,USOhioJefferson,Ohio,Jefferson,2021-01-05 13:12:46.426724,2020-07-04 00:00:00.000000,0.15369799,0.32677643,0.55052220,100,213,359,49,103,192,0.07558729,0.15899770,0.29483457,0.21445286,0.31245264,0.45762424
39081,0,USOhioJefferson,Ohio,Jefferson,2021-01-05 13:12:46.426724,2020-07-05 00:00:00.000000,0.15776197,0.33897338,0.56223089,103,221,367,50,110,201,0.07800659,0.16845495,0.30770426,0.20344273,0.30991432,0.46371060
39081,0,USOhioJefferson,Ohio,Jefferson,2021-01-05 13:12:46.426724,2020-07-06 00:00:00.000000,0.16898929,0.35404986,0.57006528,110,231,372,52,113,212,0.08034582,0.17354083,0.32453491,0.20388630,0.31111948,0.46639299
39081,0,USOhioJefferson,Ohio,Jefferson,2021-01-05 13:12:46.426724,2020-07-07 00:00:00.000000,0.17762368,0.36261201,0.59450141,116,236,388,55,117,220,0.08471120,0.17912822,0.33709005,0.20492245,0.29991683,0.46743485
39081,0,USOhioJefferson,Ohio,Jefferson,2021-01-05 13:12:46.426724,2020-07-08 00:00:00.000000,0.18668883,0.37029548,0.63479079,121,241,414,58,119,222,0.09020530,0.18320017,0.34001579,0.20653397,0.29749091,0.46629194
39081,0,USOhioJefferson,Ohio,Jefferson,2021-01-05 13:12:46.426724,2020-07-09 00:00:00.000000,0.19589561,0.38333929,0.67661065,127,250,441,61,127,223,0.09467363,0.19463538,0.34222295,0.20886944,0.29193185,0.45287700
39081,0,USOhioJefferson,Ohio,Jefferson,2021-01-05 13:12:46.426724,2020-07-10 00:00:00.000000,0.20284829,0.40401768,0.70112545,132,263,458,64,133,224,0.09934940,0.20479661,0.34412654,0.21171951,0.29417646,0.41485378
39081,0,USOhioJefferson,Ohio,Jefferson,2021-01-05 13:12:46.426724,2020-07-11 00:00:00.000000,0.21020053,0.42068356,0.70806028,137,274,462,68,138,227,0.10419768,0.21206751,0.34868388,0.20269264,0.29814475,0.40961098
39081,0,USOhioJefferson,Ohio,Jefferson,2021-01-05 13:12:46.426724,2020-07-12 00:00:00.000000,0.21495205,0.43212958,0.70678324,140,282,461,71,143,232,0.10929780,0.21921671,0.35576777,0.20036041,0.28791317,0.39554615
39081,0,USOhioJefferson,Ohio,Jefferson,2021-01-05 13:12:46.426724,2020-07-13 00:00:00.000000,0.21873774,0.43889536,0.71360099,142,286,466,74,147,236,0.11474976,0.22550007,0.36187372,0.19991886,0.27880394,0.38712904
39081,0,USOhioJefferson,Ohio,Jefferson,2021-01-05 13:12:46.426724,2020-07-14 00:00:00.000000,0.22464019,0.44695286,0.73565815,146,291,480,78,151,241,0.11990148,0.23185016,0.36980419,0.19931592,0.27467969,0.38235508
39081,0,USOhioJefferson,Ohio,Jefferson,2021-01-05 13:12:46.426724,2020-07-15 00:00:00.000000,0.23101031,0.45680589,0.75664026,150,298,494,80,153,247,0.12365196,0.23528625,0.37816451,0.19595668,0.27493320,0.37966452
39081,0,USOhioJefferson,Ohio,Jefferson,2021-01-05 13:12:46.426724,2020-07-16 00:00:00.000000,0.23768891,0.46319767,0.77697927,155,302,507,82,157,256,0.12605853,0.24063168,0.39227120,0.18649941,0.27355590,0.37792799
39081,0,USOhioJefferson,Ohio,Jefferson,2021-01-05 13:12:46.426724,2020-07-17 00:00:00.000000,0.24454099,0.46611481,0.78157080,159,304,510,83,160,265,0.12765615,0.24577622,0.40604582,0.18435821,0.27144717,0.36781323
39081,0,USOhioJefferson,Ohio,Jefferson,2021-01-05 13:12:46.426724,2020-07-18 00:00:00.000000,0.25053754,0.47358097,0.77900015,163,309,508,82,164,273,0.12585722,0.25121655,0.41871409,0.18273923,0.26675931,0.37084338
39081,0,USOhioJefferson,Ohio,Jefferson,2021-01-05 13:12:46.426724,2020-07-19 00:00:00.000000,0.25048476,0.48365136,0.77851691,163,315,508,80,168,280,0.12391544,0.25738225,0.42920574,0.17496445,0.26062135,0.35127671
39081,0,USOhioJefferson,Ohio,Jefferson,2021-01-05 13:12:46.426724,2020-07-20 00:00:00.000000,0.25812162,0.49078687,0.77955876,168,320,509,79,170,285,0.12209474,0.26138812,0.43694005,0.17246598,0.25413639,0.33886559
39081,0,USOhioJefferson,Ohio,Jefferson,2021-01-05 13:12:46.426724,2020-07-21 00:00:00.000000,0.26171195,0.49572774,0.77865376,170,323,508,80,173,288,0.12297295,0.26605364,0.44183136,0.17183297,0.24979471,0.33256258
39081,0,USOhioJefferson,Ohio,Jefferson,2021-01-05 13:12:46.426724,2020-07-22 00:00:00.000000,0.26016695,0.50067838,0.78345941,169,327,511,80,176,290,0.12385907,0.27020116,0.44454872,0.16996216,0.24003725,0.33326641
39081,0,USOhioJefferson,Ohio,Jefferson,2021-01-05 13:12:46.426724,2020-07-23 00:00:00.000000,0.25894786,0.50335778,0.79322328,169,328,518,81,179,291,0.12421163,0.27523184,0.44573178,0.17000552,0.23743765,0.32874440
39081,0,USOhioJefferson,Ohio,Jefferson,2021-01-05 13:12:46.426724,2020-07-24 00:00:00.000000,0.26185053,0.50492848,0.80294523,171,329,524,81,182,297,0.12421566,0.27942186,0.45565894,0.16870383,0.23571969,0.34637647
39081,0,USOhioJefferson,Ohio,Jefferson,2021-01-05 13:12:46.426724,2020-07-25 00:00:00.000000,0.26939032,0.50367398,0.81245207,175,329,530,81,183,307,0.12406483,0.28147829,0.47086268,0.16774143,0.23179345,0.37820513
39081,0,USOhioJefferson,Ohio,Jefferson,2021-01-05 13:12:46.426724,2020-07-26 00:00:00.000000,0.27466224,0.50192565,0.82110840,179,327,536,80,184,316,0.12396409,0.28226761,0.48472716,0.16555505,0.22879881,0.37386776
39081,0,USOhioJefferson,Ohio,Jefferson,2021-01-05 13:12:46.426724,2020-07-27 00:00:00.000000,0.27583856,0.50493996,0.82954517,180,329,541,81,183,317,0.12414117,0.28161243,0.48559298,0.16336324,0.22394605,0.36148985
39081,0,USOhioJefferson,Ohio,Jefferson,2021-01-05 13:12:46.426724,2020-07-28 00:00:00.000000,0.27660957,0.50716431,0.83216974,180,331,543,81,184,316,0.12466896,0.28175334,0.48472667,0.16135155,0.22102427,0.36632796
39081,0,USOhioJefferson,Ohio,Jefferson,2021-01-05 13:12:46.426724,2020-07-29 00:00:00.000000,0.27715635,0.50536613,0.82992391,181,330,542,81,185,315,0.12547402,0.28445214,0.48254928,0.15810787,0.21790013,0.36794512
39081,0,USOhioJefferson,Ohio,Jefferson,2021-01-05 13:12:46.426724,2020-07-30 00:00:00.000000,0.27745804,0.50081992,0.82497740,181,327,538,82,186,313,0.12651053,0.28506830,0.47940482,0.15406881,0.21560030,0.36868755
39081,0,USOhioJefferson,Ohio,Jefferson,2021-01-05 13:12:46.426724,2020-07-31 00:00:00.000000,0.27739728,0.49964270,0.81904746,181,326,535,83,187,310,0.12772286,0.28685585,0.47556205,0.14979067,0.21123839,0.36892501
39081,0,USOhioJefferson,Ohio,Jefferson,2021-01-05 13:12:46.426724,2020-08-01 00:00:00.000000,0.27827896,0.50040483,0.81275825,181,326,530,84,186,310,0.12905946,0.28609489,0.47579825,0.15218826,0.21217130,0.32660704
39081,0,USOhioJefferson,Ohio,Jefferson,2021-01-05 13:12:46.426724,2020-08-02 00:00:00.000000,0.28143112,0.49751751,0.81836090,183,325,534,85,185,311,0.13047577,0.28468652,0.47760036,0.14835252,0.21026422,0.31448006
39081,0,USOhioJefferson,Ohio,Jefferson,2021-01-05 13:12:46.426724,2020-08-03 00:00:00.000000,0.28377502,0.49812886,0.81921479,185,325,535,86,183,313,0.13193317,0.28108794,0.47988625,0.14357834,0.20816273,0.30338458
39081,0,USOhioJefferson,Ohio,Jefferson,2021-01-05 13:12:46.426724,2020-08-04 00:00:00.000000,0.28151293,0.49788745,0.81989873,183,325,535,87,180,315,0.13329915,0.27657051,0.48247447,0.14175382,0.20625224,0.30047124
39081,0,USOhioJefferson,Ohio,Jefferson,2021-01-05 13:12:46.426724,2020-08-05 00:00:00.000000,0.27726919,0.49354012,0.82020328,181,322,535,87,179,316,0.13457922,0.27466414,0.48420204,0.14103919,0.20137737,0.28693898
39081,0,USOhioJefferson,Ohio,Jefferson,2021-01-05 13:12:46.426724,2020-08-06 00:00:00.000000,0.27298283,0.48754871,0.82019674,178,318,535,88,177,317,0.13578816,0.27156138,0.48531979,0.13927636,0.19823369,0.28690628
39081,0,USOhioJefferson,Ohio,Jefferson,2021-01-05 13:12:46.426724,2020-08-07 00:00:00.000000,0.26839363,0.48734962,0.81992811,175,318,535,89,174,317,0.13696069,0.26695795,0.48599380,0.13438546,0.19146620,0.28682164
39081,0,USOhioJefferson,Ohio,Jefferson,2021-01-05 13:12:46.426724,2020-08-08 00:00:00.000000,0.26596960,0.48148606,0.81932421,173,314,535,90,171,317,0.13815024,0.26238964,0.48633642,0.12588782,0.19305743,0.28602155
39081,0,USOhioJefferson,Ohio,Jefferson,2021-01-05 13:12:46.426724,2020-08-09 00:00:00.000000,0.26790689,0.47533844,0.81803051,175,310,534,91,169,317,0.13940740,0.25982768,0.48639988,0.11993535,0.19018363,0.28422266
39081,0,USOhioJefferson,Ohio,Jefferson,2021-01-05 13:12:46.426724,2020-08-10 00:00:00.000000,0.26964556,0.47520168,0.81535830,176,310,532,91,170,317,0.14075684,0.26053195,0.48613539,0.11806113,0.19040304,0.28513534
39081,0,USOhioJefferson,Ohio,Jefferson,2021-01-05 13:12:46.426724,2020-08-11 00:00:00.000000,0.26950650,0.47472220,0.80976359,176,310,528,93,169,317,0.14268927,0.25996005,0.48535991,0.11803104,0.18975599,0.29726718
39081,0,USOhioJefferson,Ohio,Jefferson,2021-01-05 13:12:46.426724,2020-08-12 00:00:00.000000,0.26892569,0.46910896,0.80099677,175,306,523,93,168,315,0.14274195,0.25810897,0.48360430,0.11871143,0.19124968,0.30008902
39081,0,USOhioJefferson,Ohio,Jefferson,2021-01-05 13:12:46.426724,2020-08-13 00:00:00.000000,0.25984772,0.45925158,0.79024384,169,300,516,91,167,313,0.14055222,0.25606165,0.48051474,0.11876940,0.19117429,0.29905234
39081,0,USOhioJefferson,Ohio,Jefferson,2021-01-05 13:12:46.426724,2020-08-14 00:00:00.000000,0.25395514,0.45363113,0.77860307,165,296,508,91,165,311,0.13945929,0.25358698,0.47614302,0.12015271,0.19266621,0.29480577
39081,0,USOhioJefferson,Ohio,Jefferson,2021-01-05 13:12:46.426724,2020-08-15 00:00:00.000000,0.24915234,0.45008058,0.76652224,162,294,500,88,163,307,0.13545624,0.25096842,0.47077989,0.12565420,0.19220370,0.29534783
39081,0,USOhioJefferson,Ohio,Jefferson,2021-01-05 13:12:46.426724,2020-08-16 00:00:00.000000,0.24456271,0.44547137,0.75258834,159,291,491,86,162,303,0.13178166,0.24866144,0.46471237,0.12840506,0.19257335,0.28871672
39081,0,USOhioJefferson,Ohio,Jefferson,2021-01-05 13:12:46.426724,2020-08-17 00:00:00.000000,0.23883925,0.44163264,0.73129783,156,288,477,86,162,299,0.13172981,0.24825357,0.45779932,0.12743413,0.19283158,0.27959468
39081,0,USOhioJefferson,Ohio,Jefferson,2021-01-05 13:12:46.426724,2020-08-18 00:00:00.000000,0.23329587,0.43973473,0.71815726,152,287,469,86,160,293,0.13294371,0.24537473,0.44869729,0.12492516,0.19311596,0.27117328
39081,0,USOhioJefferson,Ohio,Jefferson,2021-01-05 13:12:46.426724,2020-08-19 00:00:00.000000,0.22789768,0.43293245,0.71089036,148,282,464,87,158,285,0.13458968,0.24216540,0.43745133,0.12418968,0.19410186,0.27525185
39081,0,USOhioJefferson,Ohio,Jefferson,2021-01-05 13:12:46.426724,2020-08-20 00:00:00.000000,0.22270661,0.42722619,0.70363406,145,279,459,86,158,281,0.13181765,0.24218014,0.43139263,0.12584293,0.19494655,0.28443748
39081,0,USOhioJefferson,Ohio,Jefferson,2021-01-05 13:12:46.426724,2020-08-21 00:00:00.000000,0.21780295,0.42210287,0.69628123,142,275,454,84,158,278,0.12896012,0.24220374,0.42673109,0.13006782,0.19651447,0.29018855
39081,0,USOhioJefferson,Ohio,Jefferson,2021-01-05 13:12:46.426724,2020-08-22 00:00:00.000000,0.21309718,0.42002162,0.69116330,139,274,451,82,157,275,0.12621141,0.24132106,0.42216770,0.13335427,0.20591420,0.29623586
39081,0,USOhioJefferson,Ohio,Jefferson,2021-01-05 13:12:46.426724,2020-08-23 00:00:00.000000,0.20858896,0.41975453,0.68660055,136,274,448,80,157,275,0.12357161,0.24040979,0.42195982,0.13270045,0.20476579,0.31182705
39081,0,USOhioJefferson,Ohio,Jefferson,2021-01-05 13:12:46.426724,2020-08-24 00:00:00.000000,0.20736687,0.42445714,0.67924307,135,277,443,79,156,276,0.12106342,0.23890303,0.42301493,0.13216452,0.20390008,0.31915377
39081,0,USOhioJefferson,Ohio,Jefferson,2021-01-05 13:12:46.426724,2020-08-25 00:00:00.000000,0.20629846,0.42151079,0.68312042,134,275,446,77,154,277,0.11872947,0.23641449,0.42522528,0.13192206,0.20366906,0.32150584
39081,0,USOhioJefferson,Ohio,Jefferson,2021-01-05 13:12:46.426724,2020-08-26 00:00:00.000000,0.20543655,0.42312783,0.68041020,134,276,444,76,152,279,0.11676221,0.23359428,0.42793560,0.13235995,0.20518190,0.32455599
39081,0,USOhioJefferson,Ohio,Jefferson,2021-01-05 13:12:46.426724,2020-08-27 00:00:00.000000,0.20477812,0.42379411,0.67744477,133,276,442,75,153,281,0.11524304,0.23428414,0.43038030,0.13293216,0.21190800,0.32582951
39081,0,USOhioJefferson,Ohio,Jefferson,2021-01-05 13:12:46.426724,2020-08-28 00:00:00.000000,0.20442051,0.42183972,0.67477384,133,275,440,74,152,282,0.11408676,0.23310031,0.43225933,0.13390300,0.21523526,0.32221527
39081,0,USOhioJefferson,Ohio,Jefferson,2021-01-05 13:12:46.426724,2020-08-29 00:00:00.000000,0.20461665,0.42420055,0.67241047,133,277,439,73,153,283,0.11317183,0.23461715,0.43364215,0.13179936,0.21600375,0.30183457
39081,0,USOhioJefferson,Ohio,Jefferson,2021-01-05 13:12:46.426724,2020-08-30 00:00:00.000000,0.20552925,0.42228466,0.67000208,134,275,437,74,152,283,0.11379127,0.23402229,0.43467623,0.13360714,0.21545164,0.30161673
39081,0,USOhioJefferson,Ohio,Jefferson,2021-01-05 13:12:46.426724,2020-08-31 00:00:00.000000,0.20572873,0.42339646,0.66220888,134,276,432,75,151,284,0.11606094,0.23243234,0.43549127,0.13999536,0.21796633,0.30227119
39081,0,USOhioJefferson,Ohio,Jefferson,2021-01-05 13:12:46.426724,2020-09-01 00:00:00.000000,0.20631963,0.42468932,0.66280813,134,277,432,77,153,285,0.11787359,0.23524917,0.43739569,0.14373848,0.21950100,0.30367824
39081,0,USOhioJefferson,Ohio,Jefferson,2021-01-05 13:12:46.426724,2020-09-02 00:00:00.000000,0.20710786,0.42405484,0.66785519,135,277,436,78,153,283,0.11945832,0.23514061,0.43390717,0.14586110,0.22132252,0.30216028
39081,0,USOhioJefferson,Ohio,Jefferson,2021-01-05 13:12:46.426724,2020-09-03 00:00:00.000000,0.20802429,0.42633568,0.67430561,135,278,440,79,152,280,0.12095539,0.23372007,0.42952040,0.14506792,0.22328110,0.30178129
39081,0,USOhioJefferson,Ohio,Jefferson,2021-01-05 13:12:46.426724,2020-09-04 00:00:00.000000,0.20903197,0.42770006,0.68207927,136,279,445,79,152,277,0.12137242,0.23342967,0.42497701,0.14433711,0.22126352,0.31214691
39081,0,USOhioJefferson,Ohio,Jefferson,2021-01-05 13:12:46.426724,2020-09-05 00:00:00.000000,0.21018306,0.42912979,0.69051538,137,280,451,78,153,274,0.12069712,0.23547359,0.42057706,0.14442368,0.22600018,0.31106290
39081,0,USOhioJefferson,Ohio,Jefferson,2021-01-05 13:12:46.426724,2020-09-06 00:00:00.000000,0.21178788,0.42849280,0.69920830,138,279,456,78,152,275,0.12009576,0.23415378,0.42249920,0.14938207,0.22664287,0.31581061
39081,0,USOhioJefferson,Ohio,Jefferson,2021-01-05 13:12:46.426724,2020-09-07 00:00:00.000000,0.21372327,0.42495264,0.70440538,139,277,460,78,152,278,0.11955153,0.23329606,0.42632572,0.14620536,0.22960677,0.32430182
39081,0,USOhioJefferson,Ohio,Jefferson,2021-01-05 13:12:46.426724,2020-09-08 00:00:00.000000,0.21566611,0.42576784,0.72352745,140,278,472,77,152,281,0.11905574,0.23343029,0.43019927,0.14870649,0.23328693,0.34025832
39081,0,USOhioJefferson,Ohio,Jefferson,2021-01-05 13:12:46.426724,2020-09-09 00:00:00.000000,0.21542970,0.43115098,0.73662390,140,281,481,77,151,283,0.11860064,0.23196300,0.43423879,0.15273023,0.23508077,0.34078321
39081,0,USOhioJefferson,Ohio,Jefferson,2021-01-05 13:12:46.426724,2020-09-10 00:00:00.000000,0.21766523,0.43196086,0.74198495,142,282,484,77,151,286,0.11818114,0.23136385,0.43848211,0.15889853,0.23907824,0.34098708
39081,0,USOhioJefferson,Ohio,Jefferson,2021-01-05 13:12:46.426724,2020-09-11 00:00:00.000000,0.21707831,0.43531004,0.74791334,141,284,488,76,150,289,0.11779345,0.22988048,0.44293483,0.16786065,0.24847378,0.34142111
39081,0,USOhioJefferson,Ohio,Jefferson,2021-01-05 13:12:46.426724,2020-09-12 00:00:00.000000,0.22038539,0.43882044,0.75434862,143,286,492,77,150,292,0.11804789,0.23075008,0.44766259,0.17344413,0.25331672,0.34539514
39081,0,USOhioJefferson,Ohio,Jefferson,2021-01-05 13:12:46.426724,2020-09-13 00:00:00.000000,0.22494460,0.44122958,0.76117878,146,288,497,77,152,295,0.11902595,0.23310546,0.45304803,0.17010587,0.25589457,0.35486872
39081,0,USOhioJefferson,Ohio,Jefferson,2021-01-05 13:12:46.426724,2020-09-14 00:00:00.000000,0.22323723,0.44693659,0.77444912,145,291,505,78,154,300,0.11998979,0.23603379,0.46046598,0.16322799,0.25996461,0.36590441
39081,0,USOhioJefferson,Ohio,Jefferson,2021-01-05 13:12:46.426724,2020-09-15 00:00:00.000000,0.22770889,0.44878648,0.78797910,148,293,514,78,156,307,0.12011853,0.23910308,0.47148624,0.16551659,0.26291617,0.37675442
39081,0,USOhioJefferson,Ohio,Jefferson,2021-01-05 13:12:46.426724,2020-09-16 00:00:00.000000,0.23154977,0.45399045,0.80202409,151,296,523,78,157,317,0.12015183,0.24112249,0.48659580,0.17003708,0.26865970,0.38680215
39081,0,USOhioJefferson,Ohio,Jefferson,2021-01-05 13:12:46.426724,2020-09-17 00:00:00.000000,0.23001887,0.45424031,0.81722745,150,296,533,78,159,322,0.12079435,0.24426984,0.49332716,0.17706805,0.27126237,0.40447661
39081,0,USOhioJefferson,Ohio,Jefferson,2021-01-05 13:12:46.426724,2020-09-18 00:00:00.000000,0.23187756,0.46727134,0.83604416,151,305,546,79,161,324,0.12184480,0.24718709,0.49697383,0.18557958,0.27842420,0.40985539
39081,0,USOhioJefferson,Ohio,Jefferson,2021-01-05 13:12:46.426724,2020-09-19 00:00:00.000000,0.23507132,0.47776800,0.86007854,153,312,561,80,163,327,0.12318387,0.25011910,0.50071706,0.19350905,0.28678053,0.41154331
39081,0,USOhioJefferson,Ohio,Jefferson,2021-01-05 13:12:46.426724,2020-09-20 00:00:00.000000,0.23918226,0.49049558,0.88665601,156,320,579,81,166,333,0.12476138,0.25520559,0.50997938,0.19704987,0.29703652,0.42439732
39081,0,USOhioJefferson,Ohio,Jefferson,2021-01-05 13:12:46.426724,2020-09-21 00:00:00.000000,0.24308915,0.50526641,0.92082061,158,330,601,82,169,341,0.12667051,0.25988660,0.52224243,0.20361247,0.29833653,0.43904914
39081,0,USOhioJefferson,Ohio,Jefferson,2021-01-05 13:12:46.426724,2020-09-22 00:00:00.000000,0.24750669,0.51688785,0.95962437,161,337,626,84,173,347,0.12873912,0.26545296,0.53223934,0.20379432,0.30458380,0.44784547
39081,0,USOhioJefferson,Ohio,Jefferson,2021-01-05 13:12:46.426724,2020-09-23 00:00:00.000000,0.25539521,0.53371909,0.99829018,166,348,652,86,177,353,0.13256124,0.27196787,0.54055415,0.20393230,0.30990656,0.45007574
39081,0,USOhioJefferson,Ohio,Jefferson,2021-01-05 13:12:46.426724,2020-09-24 00:00:00.000000,0.26657526,0.54803769,1.03501600,174,358,676,89,184,357,0.13665555,0.28279462,0.54781772,0.20421206,0.31447942,0.45081854
39081,0,USOhioJefferson,Ohio,Jefferson,2021-01-05 13:12:46.426724,2020-09-25 00:00:00.000000,0.27900727,0.55634108,1.05081033,182,363,686,92,191,366,0.14110357,0.29275322,0.56103899,0.21087004,0.31910584,0.45094316
39081,0,USOhioJefferson,Ohio,Jefferson,2021-01-05 13:12:46.426724,2020-09-26 00:00:00.000000,0.29309602,0.57266440,1.06793529,191,374,697,95,196,380,0.14605212,0.30112906,0.58230008,0.21485850,0.32390636,0.45993952
39081,0,USOhioJefferson,Ohio,Jefferson,2021-01-05 13:12:46.426724,2020-09-27 00:00:00.000000,0.30852839,0.59542550,1.08792054,201,388,710,99,201,393,0.15167325,0.30801224,0.60313811,0.21839581,0.32661710,0.46757127
39081,0,USOhioJefferson,Ohio,Jefferson,2021-01-05 13:12:46.426724,2020-09-28 00:00:00.000000,0.32643262,0.61936019,1.10953412,213,404,724,103,204,407,0.15808709,0.31310138,0.62369594,0.22568175,0.34247410,0.47163162
39081,0,USOhioJefferson,Ohio,Jefferson,2021-01-05 13:12:46.426724,2020-09-29 00:00:00.000000,0.34477911,0.64335438,1.15457758,225,420,754,107,208,420,0.16517611,0.31845941,0.64414341,0.23157980,0.34965660,0.47672969
39081,0,USOhioJefferson,Ohio,Jefferson,2021-01-05 13:12:46.426724,2020-09-30 00:00:00.000000,0.36346656,0.66333468,1.21557949,237,433,794,112,216,427,0.17294704,0.33201740,0.65380588,0.23418831,0.35156223,0.48728304
39081,0,USOhioJefferson,Ohio,Jefferson,2021-01-05 13:12:46.426724,2020-10-01 00:00:00.000000,0.38245651,0.68252190,1.27601392,249,445,833,118,223,433,0.18136068,0.34253610,0.66332334,0.23841267,0.35751367,0.49965799
39081,0,USOhioJefferson,Ohio,Jefferson,2021-01-05 13:12:46.426724,2020-10-02 00:00:00.000000,0.40210658,0.70429221,1.33365197,262,460,871,124,231,440,0.19037287,0.35419481,0.67428427,0.24878806,0.35929034,0.51211082
39081,0,USOhioJefferson,Ohio,Jefferson,2021-01-05 13:12:46.426724,2020-10-03 00:00:00.000000,0.42486097,0.72464730,1.36315000,277,473,890,130,238,449,0.19996194,0.36451636,0.68734357,0.26496521,0.35887657,0.52017597
39081,0,USOhioJefferson,Ohio,Jefferson,2021-01-05 13:12:46.426724,2020-10-04 00:00:00.000000,0.44352561,0.74643070,1.39180267,289,487,909,137,243,458,0.21013172,0.37230700,0.70260264,0.27398405,0.35735924,0.52308455
39081,0,USOhioJefferson,Ohio,Jefferson,2021-01-05 13:12:46.426724,2020-10-05 00:00:00.000000,0.45413552,0.77771286,1.42484761,296,508,930,144,250,470,0.22065621,0.38376697,0.71981304,0.27815248,0.36909667,0.52625634
39081,0,USOhioJefferson,Ohio,Jefferson,2021-01-05 13:12:46.426724,2020-10-06 00:00:00.000000,0.46541036,0.81835135,1.46137541,304,534,954,151,264,482,0.23136557,0.40422199,0.73854947,0.27981137,0.37665049,0.52724548
39081,0,USOhioJefferson,Ohio,Jefferson,2021-01-05 13:12:46.426724,2020-10-07 00:00:00.000000,0.47734110,0.85901965,1.50048625,311,561,980,158,274,495,0.24188313,0.42072574,0.75834160,0.28041622,0.37751323,0.53338032
39081,0,USOhioJefferson,Ohio,Jefferson,2021-01-05 13:12:46.426724,2020-10-08 00:00:00.000000,0.49051775,0.89269309,1.54214906,320,583,1007,162,286,510,0.24817586,0.43796989,0.78071825,0.27899156,0.38102425,0.53844400
39081,0,USOhioJefferson,Ohio,Jefferson,2021-01-05 13:12:46.426724,2020-10-09 00:00:00.000000,0.50557113,0.94066622,1.58742234,330,614,1036,166,298,523,0.25477543,0.45734968,0.80164568,0.27441417,0.38343268,0.54121034
39081,0,USOhioJefferson,Ohio,Jefferson,2021-01-05 13:12:46.426724,2020-10-10 00:00:00.000000,0.52256158,0.95811075,1.63778763,341,625,1069,171,310,537,0.26193814,0.47579413,0.82304939,0.28124526,0.38348746,0.53826376
39081,0,USOhioJefferson,Ohio,Jefferson,2021-01-05 13:12:46.426724,2020-10-11 00:00:00.000000,0.54895132,1.00497137,1.69339333,358,656,1106,176,322,552,0.26984300,0.49361979,0.84650156,0.29225000,0.38411116,0.53383833
39081,0,USOhioJefferson,Ohio,Jefferson,2021-01-05 13:12:46.426724,2020-10-12 00:00:00.000000,0.57343776,1.05597037,1.75257212,374,689,1144,181,335,569,0.27853039,0.51369219,0.87227990,0.29766382,0.39418030,0.55178102
39081,0,USOhioJefferson,Ohio,Jefferson,2021-01-05 13:12:46.426724,2020-10-13 00:00:00.000000,0.59365219,1.09238995,1.81457918,387,713,1185,188,351,588,0.28799235,0.53826260,0.90027632,0.30255587,0.39521523,0.56927762
39081,0,USOhioJefferson,Ohio,Jefferson,2021-01-05 13:12:46.426724,2020-10-14 00:00:00.000000,0.61701186,1.13962873,1.87884523,403,744,1227,200,364,607,0.30683202,0.55797517,0.93025779,0.30398705,0.39825307,0.57493146
39081,0,USOhioJefferson,Ohio,Jefferson,2021-01-05 13:12:46.426724,2020-10-15 00:00:00.000000,0.64578782,1.18134919,1.94508265,421,771,1270,215,380,628,0.32964277,0.58197276,0.96196348,0.30418752,0.39757123,0.57505270
39081,0,USOhioJefferson,Ohio,Jefferson,2021-01-05 13:12:46.426724,2020-10-16 00:00:00.000000,0.67915590,1.21284594,2.02648025,443,792,1323,229,394,650,0.35139067,0.60319407,0.99516741,0.31011274,0.40537690,0.57567679
39081,0,USOhioJefferson,Ohio,Jefferson,2021-01-05 13:12:46.426724,2020-10-17 00:00:00.000000,0.71501616,1.26564401,2.12465566,467,826,1387,240,408,672,0.36770904,0.62506961,1.02957050,0.31019404,0.42032226,0.57192056
39081,0,USOhioJefferson,Ohio,Jefferson,2021-01-05 13:12:46.426724,2020-10-18 00:00:00.000000,0.75290309,1.32704868,2.22909646,491,866,1456,252,424,695,0.38600045,0.65026078,1.06406047,0.31035140,0.42629147,0.57590862
39081,0,USOhioJefferson,Ohio,Jefferson,2021-01-05 13:12:46.426724,2020-10-19 00:00:00.000000,0.79295274,1.40722416,2.34372015,517,919,1531,265,445,716,0.40584877,0.68186809,1.09630699,0.33069955,0.43076950,0.60295002
39081,0,USOhioJefferson,Ohio,Jefferson,2021-01-05 13:12:46.426724,2020-10-20 00:00:00.000000,0.83587607,1.50327377,2.46437632,546,982,1609,278,469,735,0.42706236,0.71887954,1.12653292,0.33220042,0.43248142,0.62646230
39081,0,USOhioJefferson,Ohio,Jefferson,2021-01-05 13:12:46.426724,2020-10-21 00:00:00.000000,0.89718282,1.59892068,2.59124258,586,1044,1692,293,487,755,0.44959168,0.74656018,1.15586009,0.33203224,0.44173289,0.64626153
39081,0,USOhioJefferson,Ohio,Jefferson,2021-01-05 13:12:46.426724,2020-10-22 00:00:00.000000,0.96373169,1.70432844,2.72503255,629,1113,1780,309,509,789,0.47360651,0.77936054,1.20788203,0.33214442,0.45235226,0.66113501
39081,0,USOhioJefferson,Ohio,Jefferson,2021-01-05 13:12:46.426724,2020-10-23 00:00:00.000000,1.03702002,1.81519430,2.86623116,677,1185,1872,326,535,826,0.49974292,0.81928586,1.26580437,0.33303544,0.46936347,0.67241663
39081,0,USOhioJefferson,Ohio,Jefferson,2021-01-05 13:12:46.426724,2020-10-24 00:00:00.000000,1.12382777,1.92662158,3.01218276,734,1258,1967,345,569,868,0.52955464,0.87148084,1.32916088,0.33911004,0.48640715,0.67999959
39081,0,USOhioJefferson,Ohio,Jefferson,2021-01-05 13:12:46.426724,2020-10-25 00:00:00.000000,1.17888615,2.05133799,3.16492994,770,1340,2067,369,609,912,0.56531711,0.93251842,1.39747541,0.34917383,0.49843801,0.68471020
39081,0,USOhioJefferson,Ohio,Jefferson,2021-01-05 13:12:46.426724,2020-10-26 00:00:00.000000,1.27697993,2.17999364,3.32256679,834,1424,2170,391,651,966,0.59855965,0.99806391,1.48003948,0.35624679,0.51184878,0.68786357
39081,0,USOhioJefferson,Ohio,Jefferson,2021-01-05 13:12:46.426724,2020-10-27 00:00:00.000000,1.36341823,2.29786426,3.49086321,890,1501,2280,420,696,1032,0.64392316,1.06622413,1.58031852,0.35579260,0.51482995,0.71980988
39081,0,USOhioJefferson,Ohio,Jefferson,2021-01-05 13:12:46.426724,2020-10-28 00:00:00.000000,1.48266283,2.44994366,3.75536138,968,1600,2453,461,740,1102,0.70682910,1.13414790,1.68754272,0.36328971,0.52048338,0.75114553
39081,0,USOhioJefferson,Ohio,Jefferson,2021-01-05 13:12:46.426724,2020-10-29 00:00:00.000000,1.61178830,2.60439399,4.07982641,1052,1701,2665,496,787,1177,0.76019833,1.20536614,1.80177809,0.36929903,0.52993170,0.76252812
39081,0,USOhioJefferson,Ohio,Jefferson,2021-01-05 13:12:46.426724,2020-10-30 00:00:00.000000,1.74630122,2.79561814,4.46981351,1140,1826,2919,522,838,1255,0.80046338,1.28331516,1.92190261,0.37039965,0.54223197,0.76561022
39081,0,USOhioJefferson,Ohio,Jefferson,2021-01-05 13:12:46.426724,2020-10-31 00:00:00.000000,1.86908989,3.00547691,4.93963240,1220,1963,3226,564,893,1353,0.86416403,1.36744074,2.07149657,0.40090753,0.56124906,0.76831281
39081,0,USOhioJefferson,Ohio,Jefferson,2021-01-05 13:12:46.426724,2020-11-01 00:00:00.000000,2.01268793,3.22805889,5.31034921,1314,2108,3468,601,965,1465,0.92078396,1.47820141,2.24329264,0.41151257,0.57105312,0.77392821
39081,0,USOhioJefferson,Ohio,Jefferson,2021-01-05 13:12:46.426724,2020-11-02 00:00:00.000000,2.18431343,3.42442690,5.62615893,1426,2237,3675,649,1036,1592,0.99427059,1.58675605,2.43826364,0.42235374,0.58937018,0.78898411
39081,0,USOhioJefferson,Ohio,Jefferson,2021-01-05 13:12:46.426724,2020-11-03 00:00:00.000000,2.33139934,3.66286716,5.96151937,1522,2392,3894,704,1103,1737,1.07917921,1.68941910,2.66019155,0.43847470,0.60902470,0.80551125
39081,0,USOhioJefferson,Ohio,Jefferson,2021-01-05 13:12:46.426724,2020-11-04 00:00:00.000000,2.45450335,3.97013467,6.34262495,1603,2593,4143,766,1193,1902,1.17293268,1.82738779,2.91193631,0.43793634,0.62519586,0.82077593
39081,0,USOhioJefferson,Ohio,Jefferson,2021-01-05 13:12:46.426724,2020-11-05 00:00:00.000000,2.63798767,4.33849814,6.99674072,1723,2834,4570,825,1292,2087,1.26325240,1.97820226,3.19613169,0.44096650,0.64385579,0.82934879
39081,0,USOhioJefferson,Ohio,Jefferson,2021-01-05 13:12:46.426724,2020-11-06 00:00:00.000000,2.92107619,4.75864664,7.70668906,1908,3108,5034,900,1378,2295,1.37787919,2.10963321,3.51452405,0.45169392,0.65549215,0.84921065
39081,0,USOhioJefferson,Ohio,Jefferson,2021-01-05 13:12:46.426724,2020-11-07 00:00:00.000000,3.23890305,5.23019565,8.46984511,2115,3416,5532,984,1486,2528,1.50703175,2.27604951,3.87039325,0.47210221,0.67082428,0.90506143
39081,0,USOhioJefferson,Ohio,Jefferson,2021-01-05 13:12:46.426724,2020-11-08 00:00:00.000000,3.50258743,5.72492928,9.28009933,2288,3739,6062,1069,1603,2783,1.63760202,2.45430532,4.26050689,0.48594553,0.68630393,0.93497914
39081,0,USOhioJefferson,Ohio,Jefferson,2021-01-05 13:12:46.426724,2020-11-09 00:00:00.000000,3.79397291,6.25344746,10.13126396,2478,4085,6618,1162,1721,3058,1.77904204,2.63519347,4.68235227,0.50307096,0.71747783,0.95525152
39081,0,USOhioJefferson,Ohio,Jefferson,2021-01-05 13:12:46.426724,2020-11-10 00:00:00.000000,4.14147275,6.84679475,11.03381742,2705,4472,7207,1262,1865,3350,1.93245996,2.85497761,5.12950377,0.53057709,0.72522082,0.96617402
39081,0,USOhioJefferson,Ohio,Jefferson,2021-01-05 13:12:46.426724,2020-11-11 00:00:00.000000,4.56736888,7.41751652,12.07265575,2983,4845,7886,1372,2043,3662,2.10170248,3.12817213,5.60597170,0.57355815,0.73863734,0.97678576
39081,0,USOhioJefferson,Ohio,Jefferson,2021-01-05 13:12:46.426724,2020-11-12 00:00:00.000000,5.07180938,7.98747156,13.23968568,3313,5217,8648,1500,2231,3993,2.29639552,3.41548723,6.11363734,0.57310441,0.75648459,0.99211221
39081,0,USOhioJefferson,Ohio,Jefferson,2021-01-05 13:12:46.426724,2020-11-13 00:00:00.000000,5.64353479,8.63882344,14.48063691,3686,5643,9459,1626,2427,4347,2.48910439,3.71587760,6.65525532,0.57319537,0.76734520,1.01491265
39081,0,USOhioJefferson,Ohio,Jefferson,2021-01-05 13:12:46.426724,2020-11-14 00:00:00.000000,6.27685720,9.47561893,15.79237554,4100,6189,10316,1770,2646,4726,2.71052576,4.05116154,7.23537792,0.57330822,0.77640149,1.04302298
39081,0,USOhioJefferson,Ohio,Jefferson,2021-01-05 13:12:46.426724,2020-11-15 00:00:00.000000,6.80569603,10.38839229,17.16958174,4445,6786,11216,1941,2886,5134,2.97179871,4.41908959,7.85979926,0.57721233,0.78315148,1.07042809
39081,0,USOhioJefferson,Ohio,Jefferson,2021-01-05 13:12:46.426724,2020-11-16 00:00:00.000000,7.41519151,11.40797933,18.60994007,4843,7452,12156,2102,3172,5572,3.21836102,4.85716261,8.53105022,0.58440231,0.78507685,1.09066239
39081,0,USOhioJefferson,Ohio,Jefferson,2021-01-05 13:12:46.426724,2020-11-17 00:00:00.000000,7.99156533,12.50149063,20.09736077,5220,8166,13128,2282,3505,6041,3.49359660,5.36560259,9.24771186,0.59015849,0.78662914,1.10659039
39081,0,USOhioJefferson,Ohio,Jefferson,2021-01-05 13:12:46.426724,2020-11-18 00:00:00.000000,8.60647792,13.62661746,21.61876164,5622,8901,14122,2503,3863,6535,3.83265107,5.91397765,10.00412741,0.59930646,0.78695492,1.10166363
39081,0,USOhioJefferson,Ohio,Jefferson,2021-01-05 13:12:46.426724,2020-11-19 00:00:00.000000,9.25824423,14.84686396,23.08593972,6047,9698,15080,2771,4221,7050,4.24316312,6.46244533,10.79348831,0.61073481,0.78159463,1.08038825
39081,0,USOhioJefferson,Ohio,Jefferson,2021-01-05 13:12:46.426724,2020-11-20 00:00:00.000000,9.94065923,16.12107100,24.42948565,6493,10531,15958,3067,4605,7582,4.69603165,7.04940428,11.60762973,0.59549636,0.77207384,1.02117216
39081,0,USOhioJefferson,Ohio,Jefferson,2021-01-05 13:12:46.426724,2020-11-21 00:00:00.000000,10.64400572,17.19844414,25.61028380,6953,11234,16729,3360,5024,8122,5.14420932,7.69228759,12.43471857,0.58039614,0.74306927,0.97804606
39081,0,USOhioJefferson,Ohio,Jefferson,2021-01-05 13:12:46.426724,2020-11-22 00:00:00.000000,11.49151399,18.42071235,26.60788979,7506,12033,17381,3637,5449,8657,5.56768033,8.34140541,13.25233265,0.52552605,0.72105306,0.91207152
39081,0,USOhioJefferson,Ohio,Jefferson,2021-01-05 13:12:46.426724,2020-11-23 00:00:00.000000,12.47892526,19.57375374,27.42425286,8151,12786,17914,3938,5913,9160,6.02869531,9.05228763,14.02243485,0.50464438,0.69860114,0.88620760
39081,0,USOhioJefferson,Ohio,Jefferson,2021-01-05 13:12:46.426724,2020-11-24 00:00:00.000000,13.36779643,20.55218668,28.09620427,8732,13425,18353,4229,6249,9613,6.47488910,9.56684679,14.71593428,0.48494301,0.66091978,0.84611159
39081,0,USOhioJefferson,Ohio,Jefferson,2021-01-05 13:12:46.426724,2020-11-25 00:00:00.000000,14.07517083,21.33481168,29.20829405,9194,13936,19080,4490,6672,10012,6.87421683,10.21498234,15.32711915,0.46357323,0.61330075,0.78368054
39081,0,USOhioJefferson,Ohio,Jefferson,2021-01-05 13:12:46.426724,2020-11-26 00:00:00.000000,14.53608935,21.96783624,30.14454289,9495,14350,19691,4720,6961,10356,7.22560040,10.65642890,15.85366915,0.40645504,0.57805126,0.75439522
39081,0,USOhioJefferson,Ohio,Jefferson,2021-01-05 13:12:46.426724,2020-11-27 00:00:00.000000,14.83497085,22.39099370,30.85859344,9690,14626,20158,4931,7320,10644,7.54864972,11.20583751,16.29512550,0.37574900,0.55608244,0.74289442
39081,0,USOhioJefferson,Ohio,Jefferson,2021-01-05 13:12:46.426724,2020-11-28 00:00:00.000000,15.05812929,22.65349471,31.34947099,9836,14798,20479,5121,7532,10878,7.84021146,11.53047975,16.65248526,0.36799179,0.54340614,0.70928344
39081,0,USOhioJefferson,Ohio,Jefferson,2021-01-05 13:12:46.426724,2020-11-29 00:00:00.000000,15.23507467,22.80897950,31.61348737,9952,14899,20651,5297,7696,11079,8.10999002,11.78226034,16.96017844,0.36570534,0.51606679,0.69687874
39081,0,USOhioJefferson,Ohio,Jefferson,2021-01-05 13:12:46.426724,2020-11-30 00:00:00.000000,15.36587328,22.95002354,31.68081148,10037,14992,20695,5445,7884,11358,8.33580491,12.07040308,17.38798160,0.35976611,0.51175340,0.69512704
39081,0,USOhioJefferson,Ohio,Jefferson,2021-01-05 13:12:46.426724,2020-12-01 00:00:00.000000,15.42823123,22.95389195,31.97027455,10078,14994,20884,5527,8039,11596,8.46106290,12.30703102,17.75267057,0.34799611,0.50785671,0.68609625
39081,0,USOhioJefferson,Ohio,Jefferson,2021-01-05 13:12:46.426724,2020-12-02 00:00:00.000000,15.39831912,22.93388133,32.15797389,10058,14981,21007,5603,8126,11798,8.57765414,12.44014298,18.06167304,0.34742276,0.50113511,0.68399481
39081,0,USOhioJefferson,Ohio,Jefferson,2021-01-05 13:12:46.426724,2020-12-03 00:00:00.000000,15.27954718,23.01689968,32.24387016,9981,15035,21063,5650,8189,11872,8.65051047,12.53580482,18.17414661,0.32728863,0.48529430,0.68835963
39081,0,USOhioJefferson,Ohio,Jefferson,2021-01-05 13:12:46.426724,2020-12-04 00:00:00.000000,15.17277271,22.96520821,32.07578973,9911,15002,20953,5670,8239,11871,8.68075663,12.61320132,18.17283723,0.31978906,0.48234212,0.69984526
39081,0,USOhioJefferson,Ohio,Jefferson,2021-01-05 13:12:46.426724,2020-12-05 00:00:00.000000,15.27852299,22.82825354,31.35140035,9980,14912,20480,5663,8271,11933,8.66962165,12.66282329,18.26719599,0.31771733,0.47760780,0.69834189
39081,0,USOhioJefferson,Ohio,Jefferson,2021-01-05 13:12:46.426724,2020-12-06 00:00:00.000000,15.35685069,22.64532416,30.59436213,10031,14793,19985,5629,8289,11951,8.61824568,12.68991139,18.29493476,0.31428815,0.46494138,0.68523891
39081,0,USOhioJefferson,Ohio,Jefferson,2021-01-05 13:12:46.426724,2020-12-07 00:00:00.000000,15.40323156,22.30804714,29.83964178,10062,14572,19492,5570,8293,11927,8.52773357,12.69534506,18.25799800,0.30582650,0.45522716,0.67735343
39081,0,USOhioJefferson,Ohio,Jefferson,2021-01-05 13:12:46.426724,2020-12-08 00:00:00.000000,15.04194420,21.82064570,29.49192079,9826,14254,19265,5486,8227,11864,8.39871643,12.59478874,18.16165459,0.30105855,0.44846187,0.69356907
39081,0,USOhioJefferson,Ohio,Jefferson,2021-01-05 13:12:46.426724,2020-12-09 00:00:00.000000,14.60015492,21.23016505,29.14561506,9537,13868,19039,5378,8128,11770,8.23358506,12.44266303,18.01787579,0.28577479,0.45015134,0.71365477
39081,0,USOhioJefferson,Ohio,Jefferson,2021-01-05 13:12:46.426724,2020-12-10 00:00:00.000000,14.12004370,20.66787123,28.24506272,9223,13501,18451,5249,7937,11715,8.03612923,12.15076749,17.93402080,0.28442280,0.45054830,0.71332277
39081,0,USOhioJefferson,Ohio,Jefferson,2021-01-05 13:12:46.426724,2020-12-11 00:00:00.000000,13.61437485,20.06471845,27.53533685,8893,13107,17987,5102,7696,11659,7.81161897,11.78112257,17.84769531,0.27447365,0.45187373,0.72931328
39081,0,USOhioJefferson,Ohio,Jefferson,2021-01-05 13:12:46.426724,2020-12-12 00:00:00.000000,13.09367910,19.49473943,26.90781292,8553,12734,17577,4942,7470,11546,7.56606260,11.43619855,17.67614318,0.26463226,0.45690964,0.73531584
39081,0,USOhioJefferson,Ohio,Jefferson,2021-01-05 13:12:46.426724,2020-12-13 00:00:00.000000,12.63676979,18.90622306,26.21825997,8254,12350,17127,4772,7308,11373,7.30533963,11.18750416,17.41022120,0.25589352,0.45184191,0.73947655
39081,0,USOhioJefferson,Ohio,Jefferson,2021-01-05 13:12:46.426724,2020-12-14 00:00:00.000000,12.32678978,18.27964111,25.46926475,8052,11941,16637,4595,7081,11141,7.03468249,10.83983836,17.05499793,0.24884896,0.45911441,0.80064422
39081,0,USOhioJefferson,Ohio,Jefferson,2021-01-05 13:12:46.426724,2020-12-15 00:00:00.000000,12.01430004,17.57814218,24.67841808,7848,11482,16121,4415,6885,10861,6.75860244,10.54103368,16.62636231,0.24365096,0.46635447,0.87416861
39081,0,USOhioJefferson,Ohio,Jefferson,2021-01-05 13:12:46.426724,2020-12-16 00:00:00.000000,11.70003268,17.01674229,23.86124219,7643,11116,15587,4233,6661,10544,6.48078843,10.19780622,16.14211095,0.24046620,0.48313283,0.89225624
39081,0,USOhioJefferson,Ohio,Jefferson,2021-01-05 13:12:46.426724,2020-12-17 00:00:00.000000,11.38483193,16.52605502,23.01505832,7437,10795,15034,4053,6497,10202,6.20458694,9.94684575,15.61839686,0.24128198,0.49193245,0.89548192
39081,0,USOhioJefferson,Ohio,Jefferson,2021-01-05 13:12:46.426724,2020-12-18 00:00:00.000000,11.06983822,15.88410980,22.19339296,7231,10376,14497,3895,6265,9845,5.96365353,9.59085085,15.07120235,0.25583075,0.50322945,0.89642610
39081,0,USOhioJefferson,Ohio,Jefferson,2021-01-05 13:12:46.426724,2020-12-19 00:00:00.000000,10.75659150,15.27719546,21.35934481,7026,9979,13952,3771,6012,9518,5.77322331,9.20398812,14.57026840,0.29921055,0.51928357,0.89734827
39081,0,USOhioJefferson,Ohio,Jefferson,2021-01-05 13:12:46.426724,2020-12-20 00:00:00.000000,10.44648158,14.80999141,20.55560690,6824,9674,13427,3647,5760,9204,5.58397851,8.81889289,14.08975954,0.32024920,0.51549783,0.89967834
39081,0,USOhioJefferson,Ohio,Jefferson,2021-01-05 13:12:46.426724,2020-12-21 00:00:00.000000,10.13028825,14.31528190,19.94789393,6617,9351,13030,3523,5525,8886,5.39438136,8.45882157,13.60329181,0.32006464,0.53332986,0.90545735
39081,0,USOhioJefferson,Ohio,Jefferson,2021-01-05 13:12:46.426724,2020-12-22 00:00:00.000000,9.71512814,13.74978241,19.13467819,6346,8982,12499,3398,5336,8568,5.20280996,8.16965369,13.11615960,0.32001273,0.54740614,0.91116932
39081,0,USOhioJefferson,Ohio,Jefferson,2021-01-05 13:12:46.426724,2020-12-23 00:00:00.000000,9.29441631,13.16860836,18.72303689,6071,8602,12230,3271,5117,8251,5.00812203,7.83454292,12.63174997,0.32016375,0.55805524,0.91887978
39081,0,USOhioJefferson,Ohio,Jefferson,2021-01-05 13:12:46.426724,2020-12-24 00:00:00.000000,8.71395630,12.68825417,18.14388288,5692,8288,11852,3142,4938,7940,4.81049866,7.55993869,12.15487736,0.32163816,0.56548796,1.05004646
39081,0,USOhioJefferson,Ohio,Jefferson,2021-01-05 13:12:46.426724,2020-12-25 00:00:00.000000,8.45551575,12.19776267,17.51131607,5523,7968,11439,3073,4770,7646,4.70446687,7.30336401,11.70599389,0.33076268,0.57672830,1.05684753
39081,0,USOhioJefferson,Ohio,Jefferson,2021-01-05 13:12:46.426724,2020-12-26 00:00:00.000000,8.04455827,11.76286242,16.89604840,5255,7684,11037,3018,4606,7354,4.62061292,7.05105122,11.25855704,0.34559715,0.59475455,1.06179109
39081,0,USOhioJefferson,Ohio,Jefferson,2021-01-05 13:12:46.426724,2020-12-27 00:00:00.000000,7.65170303,11.30899274,16.35678713,4998,7387,10685,2836,4397,7094,4.34247926,6.73156847,10.86079659,0.35299150,0.61664619,1.06970897
39081,0,USOhioJefferson,Ohio,Jefferson,2021-01-05 13:12:46.426724,2020-12-28 00:00:00.000000,7.28338548,10.82822055,15.88899531,4757,7073,10379,2670,4273,6859,4.08795318,6.54232139,10.50024344,0.34922681,0.62976327,1.08791242
39081,0,USOhioJefferson,Ohio,Jefferson,2021-01-05 13:12:46.426724,2020-12-29 00:00:00.000000,6.94152460,10.40669407,15.41325683,4534,6798,10068,2517,4152,6678,3.85324375,6.35664243,10.22379897,0.34558432,0.64288660,1.11610910
39081,0,USOhioJefferson,Ohio,Jefferson,2021-01-05 13:12:46.426724,2020-12-30 00:00:00.000000,6.61915168,9.94086315,14.93042394,4323,6493,9753,2379,3994,6489,3.64282672,6.11541526,9.93493134,0.34586731,0.64576726,1.13715035
39081,0,USOhioJefferson,Ohio,Jefferson,2021-01-05 13:12:46.426724,2020-12-31 00:00:00.000000,6.31408388,9.57480123,14.44349498,4124,6254,9435,2268,3849,6289,3.47207718,5.89327695,9.62851287,0.33595378,0.64784324,1.14549185
39081,0,USOhioJefferson,Ohio,Jefferson,2021-01-05 13:12:46.426724,2021-01-01 00:00:00.000000,6.02599813,9.14486592,13.95590946,3936,5973,9116,2162,3748,6090,3.31038655,5.73832178,9.32269791,0.33168070,0.65550881,1.14910246
39081,0,USOhioJefferson,Ohio,Jefferson,2021-01-05 13:12:46.426724,2021-01-02 00:00:00.000000,5.75443136,8.75013914,13.46981191,3759,5716,8799,2062,3613,5902,3.15740676,5.53232946,9.03597495,0.33030693,0.64932408,1.18901913
39081,0,USOhioJefferson,Ohio,Jefferson,2021-01-05 13:12:46.426724,2021-01-03 00:00:00.000000,5.48315766,8.41157243,13.04155942,3581,5494,8519,1968,3444,5708,3.01284664,5.27334873,8.73927595,0.32982636,0.64406356,1.20663239
39081,0,USOhioJefferson,Ohio,Jefferson,2021-01-05 13:12:46.426724,2021-01-04 00:00:00.000000,5.18080060,8.08051878,12.66339765,3384,5278,8272,1878,3299,5548,2.87632235,5.05138289,8.49326070,0.31146217,0.64417815,1.21288722
39081,0,USOhioJefferson,Ohio,Jefferson,2021-01-05 13:12:46.426724,2021-01-05 00:00:00.000000,4.89176491,7.68467145,12.27542687,3195,5020,8018,1794,3146,5386,2.74727017,4.81594472,8.24617340,0.30280597,0.64416616,1.21530464
39081,0,USOhioJefferson,Ohio,Jefferson,2021-01-05 13:12:46.426724,2021-01-06 00:00:00.000000,4.59832400,7.33940085,11.70246683,3003,4794,7644,1714,2994,5195,2.62499462,4.58350985,7.95332712,0.27993757,0.64153713,1.21625504
39081,0,USOhioJefferson,Ohio,Jefferson,2021-01-05 13:12:46.426724,2021-01-07 00:00:00.000000,4.19413687,6.99804847,11.13223859,2739,4571,7272,1639,2832,5004,2.50939240,4.33638269,7.66165394,0.27731905,0.63394876,1.21660034
39081,0,USOhioJefferson,Ohio,Jefferson,2021-01-05 13:12:46.426724,2021-01-08 00:00:00.000000,4.06753261,6.66243335,10.61473182,2657,4352,6934,1567,2705,4815,2.39964142,4.14129306,7.37156773,0.27708586,0.62714773,1.21671796
39081,0,USOhioJefferson,Ohio,Jefferson,2021-01-05 13:12:46.426724,2021-01-09 00:00:00.000000,3.87153981,6.29202808,10.15539930,2529,4110,6634,1483,2608,4627,2.27075017,3.99238757,7.08362457,0.27706357,0.62686861,1.21675688
39081,0,USOhioJefferson,Ohio,Jefferson,2021-01-05 13:12:46.426724,2021-01-10 00:00:00.000000,3.64914695,6.00999106,9.81030442,2383,3926,6408,1431,2472,4441,2.19067434,3.78451719,6.79847618,0.27706068,0.62670338,1.21676965
39081,0,USOhioJefferson,Ohio,Jefferson,2021-01-05 13:12:46.426724,2021-01-11 00:00:00.000000,3.44707247,5.71269878,9.46148397,2251,3731,6180,1367,2325,4256,2.09337308,3.55956375,6.51539166,0.27706000,0.62660505,1.21677384
39081,0,USOhioJefferson,Ohio,Jefferson,2021-01-05 13:12:46.426724,2021-01-12 00:00:00.000000,3.28518127,5.40523475,8.99432996,2146,3530,5875,1306,2222,4073,1.99994248,3.40235535,6.23641439,0.27705975,0.62654645,1.21677521
39081,0,USOhioJefferson,Ohio,Jefferson,2021-01-05 13:12:46.426724,2021-01-13 00:00:00.000000,3.05000379,5.15663461,8.53871875,1992,3368,5577,1247,2113,3894,1.91017950,3.23494901,5.96246815,0.27705964,0.62651153,1.21677567
39081,0,USOhioJefferson,Ohio,Jefferson,2021-01-05 13:12:46.426724,2021-01-14 00:00:00.000000,2.80646067,4.86495509,8.09639353,1833,3178,5288,1150,1979,3719,1.76139801,3.03027556,5.69418358,0.27705959,0.62649073,1.21677582
39081,0,USOhioJefferson,Ohio,Jefferson,2021-01-05 13:12:46.426724,2021-01-15 00:00:00.000000,2.58549057,4.61939583,7.66970263,1688,3017,5010,1080,1874,3548,1.65461991,2.86963112,5.43212783,0.27705957,0.62647835,1.21677586
39081,0,USOhioJefferson,Ohio,Jefferson,2021-01-05 13:12:46.426724,2021-01-16 00:00:00.000000,2.38126623,4.38302545,7.38400793,1555,2863,4823,1030,1791,3381,1.57787400,2.74314556,5.17679706,0.27705955,0.62647098,1.21677588
39081,0,USOhioJefferson,Ohio,Jefferson,2021-01-05 13:12:46.426724,2021-01-17 00:00:00.000000,2.19263184,4.14979454,7.18839458,1432,2710,4695,958,1722,3219,1.46772197,2.63633177,4.92861326,0.27705955,0.62646660,1.21677589
