FIPS,HR_UID,nameid,province,region,analysisTime,dates,pointprevalence_025,pointprevalence_50,pointprevalence_975,pointinfections_025,pointinfections_50,pointinfections_975,pointinfectious_025,pointinfectious_50,pointinfectious_975,pointinfectiousprevalence_05,pointinfectiousprevalence_50,pointinfectiousprevalence_95,infectrate_025,infectrate_50,infectrate_975
0,0,Laos,,,2021-01-05 02:42:42.796463,2020-03-09 00:00:00.000000,0.00001969,0.00009184,0.00021952,1,6,15,0,3,8,0.00000965,0.00004398,0.00012217,0.42036793,0.58700610,0.77707314
0,0,Laos,,,2021-01-05 02:42:42.796463,2020-03-10 00:00:00.000000,0.00002019,0.00009890,0.00023209,1,7,16,0,3,9,0.00001033,0.00004933,0.00012493,0.42036793,0.58699184,0.77707295
0,0,Laos,,,2021-01-05 02:42:42.796463,2020-03-11 00:00:00.000000,0.00002162,0.00011037,0.00025028,1,8,18,0,3,9,0.00001146,0.00005475,0.00013202,0.42036793,0.58696083,0.77707251
0,0,Laos,,,2021-01-05 02:42:42.796463,2020-03-12 00:00:00.000000,0.00002330,0.00011860,0.00027453,1,8,19,0,4,10,0.00001263,0.00005917,0.00014390,0.42036793,0.58689363,0.77707105
0,0,Laos,,,2021-01-05 02:42:42.796463,2020-03-13 00:00:00.000000,0.00002512,0.00012739,0.00030035,1,9,21,1,4,11,0.00001380,0.00006437,0.00015648,0.42036792,0.58674861,0.77706215
0,0,Laos,,,2021-01-05 02:42:42.796463,2020-03-14 00:00:00.000000,0.00002708,0.00013559,0.00032793,1,9,23,1,5,12,0.00001499,0.00006983,0.00016998,0.42036792,0.58646946,0.77698346
0,0,Laos,,,2021-01-05 02:42:42.796463,2020-03-15 00:00:00.000000,0.00002917,0.00014328,0.00035749,2,10,26,1,5,13,0.00001623,0.00007507,0.00018451,0.42036801,0.58579519,0.77620974
0,0,Laos,,,2021-01-05 02:42:42.796463,2020-03-16 00:00:00.000000,0.00006998,0.00018591,0.00041198,5,13,29,1,5,14,0.00001754,0.00007953,0.00020017,0.42036929,0.58501530,0.76860484
0,0,Laos,,,2021-01-05 02:42:42.796463,2020-03-17 00:00:00.000000,0.00010741,0.00022411,0.00046895,7,16,34,2,6,16,0.00003583,0.00009611,0.00022940,0.42038538,0.58453297,0.75348721
0,0,Laos,,,2021-01-05 02:42:42.796463,2020-03-18 00:00:00.000000,0.00012746,0.00028920,0.00056828,9,21,41,3,8,19,0.00004803,0.00012169,0.00026527,0.40915510,0.57412554,0.75344375
0,0,Laos,,,2021-01-05 02:42:42.796463,2020-03-19 00:00:00.000000,0.00014340,0.00035330,0.00073565,10,25,53,4,11,22,0.00006737,0.00015436,0.00030741,0.38533013,0.55576251,0.75335820
0,0,Laos,,,2021-01-05 02:42:42.796463,2020-03-20 00:00:00.000000,0.00016568,0.00040770,0.00089862,12,29,65,5,14,27,0.00007773,0.00019491,0.00037440,0.35599249,0.53962329,0.75322487
0,0,Laos,,,2021-01-05 02:42:42.796463,2020-03-21 00:00:00.000000,0.00019006,0.00045834,0.00105680,13,33,76,6,16,33,0.00009388,0.00022195,0.00046262,0.32994189,0.50667507,0.75320481
0,0,Laos,,,2021-01-05 02:42:42.796463,2020-03-22 00:00:00.000000,0.00021450,0.00050261,0.00119642,15,36,87,8,18,39,0.00011056,0.00025353,0.00054963,0.32306345,0.47417751,0.73630034
0,0,Laos,,,2021-01-05 02:42:42.796463,2020-03-23 00:00:00.000000,0.00028273,0.00054352,0.00123882,20,39,90,9,20,45,0.00012688,0.00028012,0.00062925,0.31310460,0.45967691,0.70938797
0,0,Laos,,,2021-01-05 02:42:42.796463,2020-03-24 00:00:00.000000,0.00035149,0.00059899,0.00127209,25,43,92,11,22,48,0.00015192,0.00030439,0.00066997,0.30865994,0.44115592,0.67899072
0,0,Laos,,,2021-01-05 02:42:42.796463,2020-03-25 00:00:00.000000,0.00042241,0.00067627,0.00129155,30,49,93,13,24,51,0.00018015,0.00034210,0.00070522,0.27988740,0.41449034,0.66853424
0,0,Laos,,,2021-01-05 02:42:42.796463,2020-03-26 00:00:00.000000,0.00045423,0.00071924,0.00135657,33,52,98,14,27,60,0.00019841,0.00037622,0.00082704,0.25201373,0.37249523,0.60334802
0,0,Laos,,,2021-01-05 02:42:42.796463,2020-03-27 00:00:00.000000,0.00046632,0.00076555,0.00145356,33,55,105,15,30,67,0.00020909,0.00041299,0.00092421,0.23916293,0.34868561,0.59506840
0,0,Laos,,,2021-01-05 02:42:42.796463,2020-03-28 00:00:00.000000,0.00047888,0.00080760,0.00154396,34,58,112,16,31,72,0.00023045,0.00043032,0.00099622,0.22992894,0.33695673,0.54315844
0,0,Laos,,,2021-01-05 02:42:42.796463,2020-03-29 00:00:00.000000,0.00049150,0.00083632,0.00163036,35,60,118,18,32,77,0.00024912,0.00044868,0.00105949,0.21684927,0.32945154,0.49610176
0,0,Laos,,,2021-01-05 02:42:42.796463,2020-03-30 00:00:00.000000,0.00049748,0.00085259,0.00166416,36,62,121,18,33,78,0.00024873,0.00046446,0.00108535,0.20752009,0.31688397,0.47519248
0,0,Laos,,,2021-01-05 02:42:42.796463,2020-03-31 00:00:00.000000,0.00050279,0.00086517,0.00164887,36,62,119,18,34,78,0.00025583,0.00047580,0.00108005,0.19396794,0.30869377,0.43366417
0,0,Laos,,,2021-01-05 02:42:42.796463,2020-04-01 00:00:00.000000,0.00050464,0.00087931,0.00163160,36,63,118,19,35,77,0.00026253,0.00048972,0.00107120,0.18697765,0.30163664,0.41641750
0,0,Laos,,,2021-01-05 02:42:42.796463,2020-04-02 00:00:00.000000,0.00050666,0.00087153,0.00161152,36,63,117,18,36,77,0.00025957,0.00049947,0.00106068,0.18154639,0.28874287,0.39953932
0,0,Laos,,,2021-01-05 02:42:42.796463,2020-04-03 00:00:00.000000,0.00050462,0.00086274,0.00162080,36,62,117,18,36,76,0.00025861,0.00050251,0.00104850,0.17631639,0.26117908,0.37333855
0,0,Laos,,,2021-01-05 02:42:42.796463,2020-04-04 00:00:00.000000,0.00049752,0.00084419,0.00163838,36,61,119,18,35,75,0.00026100,0.00049467,0.00103126,0.16921467,0.25056295,0.34429756
0,0,Laos,,,2021-01-05 02:42:42.796463,2020-04-05 00:00:00.000000,0.00048994,0.00082242,0.00166360,35,59,121,19,35,73,0.00026273,0.00048433,0.00100464,0.15852076,0.22649736,0.32464888
0,0,Laos,,,2021-01-05 02:42:42.796463,2020-04-06 00:00:00.000000,0.00048529,0.00080513,0.00165688,35,58,120,18,34,71,0.00025871,0.00048059,0.00098260,0.15169729,0.22019715,0.31706961
0,0,Laos,,,2021-01-05 02:42:42.796463,2020-04-07 00:00:00.000000,0.00047069,0.00078442,0.00164182,34,57,119,18,33,71,0.00025598,0.00046619,0.00098319,0.15029659,0.20957593,0.31654083
0,0,Laos,,,2021-01-05 02:42:42.796463,2020-04-08 00:00:00.000000,0.00045045,0.00076342,0.00161330,32,55,117,18,32,70,0.00025331,0.00045206,0.00097529,0.14969265,0.20067234,0.29870220
0,0,Laos,,,2021-01-05 02:42:42.796463,2020-04-09 00:00:00.000000,0.00043393,0.00073224,0.00156846,31,53,114,18,32,69,0.00025037,0.00044000,0.00095992,0.14312493,0.19521639,0.27139352
0,0,Laos,,,2021-01-05 02:42:42.796463,2020-04-10 00:00:00.000000,0.00041387,0.00070136,0.00150838,30,51,109,17,30,68,0.00024707,0.00042416,0.00093551,0.12731436,0.18125982,0.26932075
0,0,Laos,,,2021-01-05 02:42:42.796463,2020-04-11 00:00:00.000000,0.00038722,0.00068071,0.00143989,28,49,104,17,29,65,0.00023771,0.00040660,0.00090181,0.12126084,0.17018953,0.26256954
0,0,Laos,,,2021-01-05 02:42:42.796463,2020-04-12 00:00:00.000000,0.00035568,0.00064872,0.00136915,25,47,99,15,29,62,0.00021820,0.00040164,0.00086198,0.11855167,0.16637279,0.24993718
0,0,Laos,,,2021-01-05 02:42:42.796463,2020-04-13 00:00:00.000000,0.00032280,0.00060014,0.00127395,23,43,92,14,28,59,0.00020060,0.00038790,0.00081988,0.12083583,0.16041430,0.23998905
0,0,Laos,,,2021-01-05 02:42:42.796463,2020-04-14 00:00:00.000000,0.00029613,0.00055170,0.00118169,21,40,85,13,26,55,0.00018035,0.00035970,0.00076648,0.12061313,0.15964978,0.23669870
0,0,Laos,,,2021-01-05 02:42:42.796463,2020-04-15 00:00:00.000000,0.00026888,0.00050635,0.00109094,19,36,79,11,24,51,0.00016023,0.00033353,0.00071183,0.11450734,0.15924015,0.22491126
0,0,Laos,,,2021-01-05 02:42:42.796463,2020-04-16 00:00:00.000000,0.00023750,0.00046410,0.00100101,17,33,72,10,22,48,0.00014315,0.00031143,0.00066754,0.10649652,0.15692333,0.22620890
0,0,Laos,,,2021-01-05 02:42:42.796463,2020-04-17 00:00:00.000000,0.00020815,0.00042437,0.00091085,15,30,66,9,20,45,0.00012928,0.00028028,0.00062426,0.10026976,0.15467705,0.22311268
0,0,Laos,,,2021-01-05 02:42:42.796463,2020-04-18 00:00:00.000000,0.00018680,0.00038614,0.00082092,13,28,59,8,18,42,0.00011591,0.00025410,0.00058281,0.09405161,0.15227410,0.22156866
0,0,Laos,,,2021-01-05 02:42:42.796463,2020-04-19 00:00:00.000000,0.00016634,0.00034912,0.00076227,12,25,55,7,16,39,0.00010255,0.00023076,0.00054337,0.08809757,0.15106641,0.22094530
0,0,Laos,,,2021-01-05 02:42:42.796463,2020-04-20 00:00:00.000000,0.00014157,0.00031428,0.00070772,10,22,51,6,15,36,0.00008770,0.00020954,0.00050585,0.08762625,0.14639609,0.22064610
0,0,Laos,,,2021-01-05 02:42:42.796463,2020-04-21 00:00:00.000000,0.00012028,0.00028427,0.00065577,8,20,47,5,13,33,0.00007470,0.00019069,0.00046238,0.08775104,0.14659642,0.22031047
0,0,Laos,,,2021-01-05 02:42:42.796463,2020-04-22 00:00:00.000000,0.00010206,0.00025626,0.00060689,7,18,44,4,12,30,0.00006462,0.00017067,0.00042087,0.08232848,0.14573555,0.22063996
0,0,Laos,,,2021-01-05 02:42:42.796463,2020-04-23 00:00:00.000000,0.00008816,0.00023087,0.00055958,6,16,40,4,11,27,0.00005679,0.00015266,0.00038312,0.07154874,0.14377985,0.21956861
0,0,Laos,,,2021-01-05 02:42:42.796463,2020-04-24 00:00:00.000000,0.00007626,0.00020742,0.00050808,5,15,36,3,9,25,0.00004990,0.00013559,0.00035303,0.07022976,0.14235373,0.20737554
0,0,Laos,,,2021-01-05 02:42:42.796463,2020-04-25 00:00:00.000000,0.00006647,0.00018673,0.00046006,4,13,33,3,8,24,0.00004380,0.00012050,0.00033106,0.06955808,0.14119274,0.20465689
0,0,Laos,,,2021-01-05 02:42:42.796463,2020-04-26 00:00:00.000000,0.00005820,0.00016800,0.00043107,4,12,31,2,7,22,0.00003839,0.00010829,0.00031056,0.06532880,0.13987626,0.20840077
0,0,Laos,,,2021-01-05 02:42:42.796463,2020-04-27 00:00:00.000000,0.00005091,0.00015035,0.00040498,3,10,29,2,7,21,0.00003362,0.00009821,0.00029151,0.06082769,0.13786772,0.21243333
0,0,Laos,,,2021-01-05 02:42:42.796463,2020-04-28 00:00:00.000000,0.00004450,0.00013320,0.00038050,3,9,27,2,6,19,0.00002940,0.00008874,0.00027378,0.06001850,0.13941393,0.21824785
0,0,Laos,,,2021-01-05 02:42:42.796463,2020-04-29 00:00:00.000000,0.00003874,0.00011925,0.00035722,2,8,25,1,5,18,0.00002571,0.00007976,0.00025721,0.05990013,0.13957407,0.22452026
0,0,Laos,,,2021-01-05 02:42:42.796463,2020-04-30 00:00:00.000000,0.00003359,0.00010647,0.00033467,2,7,24,1,5,17,0.00002245,0.00007177,0.00024154,0.06001998,0.13883878,0.22151417
0,0,Laos,,,2021-01-05 02:42:42.796463,2020-05-01 00:00:00.000000,0.00002928,0.00009519,0.00031243,2,6,22,1,4,16,0.00001956,0.00006460,0.00022537,0.06047502,0.13653832,0.21718831
0,0,Laos,,,2021-01-05 02:42:42.796463,2020-05-02 00:00:00.000000,0.00002530,0.00008606,0.00029029,1,6,21,1,4,15,0.00001699,0.00005852,0.00020977,0.06160836,0.13405254,0.21164494
0,0,Laos,,,2021-01-05 02:42:42.796463,2020-05-03 00:00:00.000000,0.00002181,0.00007799,0.00026848,1,5,19,1,3,14,0.00001472,0.00005283,0.00019515,0.06192254,0.13316292,0.21208208
0,0,Laos,,,2021-01-05 02:42:42.796463,2020-05-04 00:00:00.000000,0.00001877,0.00006927,0.00024742,1,5,18,0,3,13,0.00001271,0.00004643,0.00018135,0.06336747,0.13119555,0.21940934
0,0,Laos,,,2021-01-05 02:42:42.796463,2020-05-05 00:00:00.000000,0.00001613,0.00006113,0.00022745,1,4,16,0,2,12,0.00001085,0.00004117,0.00016813,0.06422887,0.13018887,0.22263776
0,0,Laos,,,2021-01-05 02:42:42.796463,2020-05-06 00:00:00.000000,0.00001386,0.00005394,0.00020882,1,3,15,0,2,11,0.00000924,0.00003671,0.00015535,0.06466020,0.13013594,0.22294719
0,0,Laos,,,2021-01-05 02:42:42.796463,2020-05-07 00:00:00.000000,0.00001190,0.00004757,0.00019166,0,3,13,0,2,10,0.00000787,0.00003272,0.00014309,0.06485751,0.12911512,0.22118213
0,0,Laos,,,2021-01-05 02:42:42.796463,2020-05-08 00:00:00.000000,0.00001008,0.00004202,0.00017593,0,3,12,0,2,9,0.00000670,0.00002915,0.00013151,0.06494819,0.12968328,0.22203730
0,0,Laos,,,2021-01-05 02:42:42.796463,2020-05-09 00:00:00.000000,0.00000848,0.00003709,0.00016153,0,2,11,0,1,8,0.00000571,0.00002578,0.00012070,0.06216652,0.12732187,0.22399040
0,0,Laos,,,2021-01-05 02:42:42.796463,2020-05-10 00:00:00.000000,0.00000711,0.00003259,0.00014834,0,2,10,0,1,8,0.00000499,0.00002275,0.00011071,0.06383224,0.12964048,0.22586490
0,0,Laos,,,2021-01-05 02:42:42.796463,2020-05-11 00:00:00.000000,0.00000595,0.00002919,0.00013623,0,2,9,0,1,7,0.00000422,0.00002000,0.00010152,0.06516519,0.12924209,0.22766167
0,0,Laos,,,2021-01-05 02:42:42.796463,2020-05-12 00:00:00.000000,0.00000497,0.00002614,0.00012510,0,1,9,0,1,6,0.00000356,0.00001769,0.00009304,0.06519072,0.12804602,0.22914459
0,0,Laos,,,2021-01-05 02:42:42.796463,2020-05-13 00:00:00.000000,0.00000425,0.00002352,0.00011487,0,1,8,0,1,6,0.00000308,0.00001585,0.00008514,0.06501140,0.12973079,0.23014148
0,0,Laos,,,2021-01-05 02:42:42.796463,2020-05-14 00:00:00.000000,0.00000368,0.00002081,0.00010435,0,1,7,0,1,5,0.00000266,0.00001389,0.00007760,0.06389753,0.13117120,0.23042567
0,0,Laos,,,2021-01-05 02:42:42.796463,2020-05-15 00:00:00.000000,0.00000319,0.00001846,0.00009384,0,1,6,0,0,5,0.00000231,0.00001221,0.00007030,0.06193933,0.13229362,0.22974758
0,0,Laos,,,2021-01-05 02:42:42.796463,2020-05-16 00:00:00.000000,0.00000276,0.00001635,0.00008416,0,1,6,0,0,4,0.00000199,0.00001084,0.00006335,0.06121970,0.13254175,0.22794649
0,0,Laos,,,2021-01-05 02:42:42.796463,2020-05-17 00:00:00.000000,0.00000238,0.00001440,0.00007536,0,1,5,0,0,4,0.00000173,0.00000962,0.00005689,0.06113004,0.13251203,0.22513992
0,0,Laos,,,2021-01-05 02:42:42.796463,2020-05-18 00:00:00.000000,0.00000206,0.00001255,0.00006878,0,0,5,0,0,3,0.00000147,0.00000856,0.00005098,0.06111723,0.13284686,0.22181903
0,0,Laos,,,2021-01-05 02:42:42.796463,2020-05-19 00:00:00.000000,0.00000178,0.00001092,0.00006342,0,0,4,0,0,3,0.00000126,0.00000762,0.00004587,0.06111407,0.13254252,0.21839189
0,0,Laos,,,2021-01-05 02:42:42.796463,2020-05-20 00:00:00.000000,0.00000153,0.00000951,0.00005849,0,0,4,0,0,3,0.00000106,0.00000676,0.00004268,0.06110951,0.13275022,0.21692456
0,0,Laos,,,2021-01-05 02:42:42.796463,2020-05-21 00:00:00.000000,0.00000128,0.00000847,0.00005395,0,0,3,0,0,2,0.00000089,0.00000598,0.00003955,0.06084467,0.12996955,0.21804870
0,0,Laos,,,2021-01-05 02:42:42.796463,2020-05-22 00:00:00.000000,0.00000108,0.00000753,0.00004976,0,0,3,0,0,2,0.00000074,0.00000529,0.00003657,0.05808619,0.12773360,0.22257949
0,0,Laos,,,2021-01-05 02:42:42.796463,2020-05-23 00:00:00.000000,0.00000090,0.00000669,0.00004591,0,0,3,0,0,2,0.00000062,0.00000467,0.00003377,0.05691953,0.12749579,0.22920959
0,0,Laos,,,2021-01-05 02:42:42.796463,2020-05-24 00:00:00.000000,0.00000076,0.00000601,0.00004226,0,0,3,0,0,2,0.00000052,0.00000414,0.00003118,0.05679523,0.12490226,0.23348386
0,0,Laos,,,2021-01-05 02:42:42.796463,2020-05-25 00:00:00.000000,0.00000063,0.00000539,0.00003871,0,0,2,0,0,2,0.00000044,0.00000370,0.00002878,0.04912620,0.12296367,0.23860993
0,0,Laos,,,2021-01-05 02:42:42.796463,2020-05-26 00:00:00.000000,0.00000053,0.00000483,0.00003548,0,0,2,0,0,1,0.00000036,0.00000331,0.00002657,0.04505111,0.12288345,0.23476225
0,0,Laos,,,2021-01-05 02:42:42.796463,2020-05-27 00:00:00.000000,0.00000044,0.00000433,0.00003254,0,0,2,0,0,1,0.00000031,0.00000297,0.00002447,0.04982382,0.12183422,0.22526743
0,0,Laos,,,2021-01-05 02:42:42.796463,2020-05-28 00:00:00.000000,0.00000037,0.00000387,0.00002996,0,0,2,0,0,1,0.00000026,0.00000266,0.00002243,0.04434254,0.11923385,0.22952229
0,0,Laos,,,2021-01-05 02:42:42.796463,2020-05-29 00:00:00.000000,0.00000031,0.00000346,0.00002739,0,0,1,0,0,1,0.00000021,0.00000237,0.00002057,0.04311440,0.11756296,0.24412431
0,0,Laos,,,2021-01-05 02:42:42.796463,2020-05-30 00:00:00.000000,0.00000026,0.00000307,0.00002515,0,0,1,0,0,1,0.00000018,0.00000210,0.00001887,0.04353286,0.11511779,0.24898310
0,0,Laos,,,2021-01-05 02:42:42.796463,2020-05-31 00:00:00.000000,0.00000022,0.00000272,0.00002310,0,0,1,0,0,1,0.00000015,0.00000186,0.00001732,0.04565904,0.11707372,0.24745069
0,0,Laos,,,2021-01-05 02:42:42.796463,2020-06-01 00:00:00.000000,0.00000018,0.00000241,0.00002122,0,0,1,0,0,1,0.00000013,0.00000165,0.00001591,0.04979957,0.11767243,0.24939991
0,0,Laos,,,2021-01-05 02:42:42.796463,2020-06-02 00:00:00.000000,0.00000015,0.00000214,0.00001960,0,0,1,0,0,1,0.00000010,0.00000146,0.00001461,0.05095130,0.11651685,0.25325391
0,0,Laos,,,2021-01-05 02:42:42.796463,2020-06-03 00:00:00.000000,0.00000013,0.00000189,0.00001840,0,0,1,0,0,0,0.00000009,0.00000130,0.00001342,0.04958277,0.11540806,0.25489253
0,0,Laos,,,2021-01-05 02:42:42.796463,2020-06-04 00:00:00.000000,0.00000010,0.00000167,0.00001724,0,0,1,0,0,0,0.00000007,0.00000115,0.00001233,0.04926103,0.11250503,0.24267642
0,0,Laos,,,2021-01-05 02:42:42.796463,2020-06-05 00:00:00.000000,0.00000009,0.00000147,0.00001592,0,0,1,0,0,0,0.00000006,0.00000101,0.00001154,0.04793737,0.11052594,0.24479010
0,0,Laos,,,2021-01-05 02:42:42.796463,2020-06-06 00:00:00.000000,0.00000007,0.00000130,0.00001461,0,0,1,0,0,0,0.00000005,0.00000090,0.00001056,0.04442037,0.10975307,0.24710806
0,0,Laos,,,2021-01-05 02:42:42.796463,2020-06-07 00:00:00.000000,0.00000006,0.00000115,0.00001336,0,0,0,0,0,0,0.00000004,0.00000079,0.00000964,0.04291271,0.10991579,0.23856068
0,0,Laos,,,2021-01-05 02:42:42.796463,2020-06-08 00:00:00.000000,0.00000005,0.00000101,0.00001219,0,0,0,0,0,0,0.00000004,0.00000070,0.00000882,0.04251389,0.10819039,0.23146413
0,0,Laos,,,2021-01-05 02:42:42.796463,2020-06-09 00:00:00.000000,0.00000004,0.00000089,0.00001111,0,0,0,0,0,0,0.00000003,0.00000061,0.00000811,0.04229394,0.10806387,0.22829775
0,0,Laos,,,2021-01-05 02:42:42.796463,2020-06-10 00:00:00.000000,0.00000004,0.00000078,0.00001012,0,0,0,0,0,0,0.00000003,0.00000054,0.00000746,0.04200875,0.10797083,0.22243821
0,0,Laos,,,2021-01-05 02:42:42.796463,2020-06-11 00:00:00.000000,0.00000003,0.00000069,0.00000919,0,0,0,0,0,0,0.00000002,0.00000048,0.00000685,0.04137720,0.10888566,0.21370804
0,0,Laos,,,2021-01-05 02:42:42.796463,2020-06-12 00:00:00.000000,0.00000002,0.00000061,0.00000842,0,0,0,0,0,0,0.00000002,0.00000042,0.00000630,0.03983468,0.11005447,0.22054036
0,0,Laos,,,2021-01-05 02:42:42.796463,2020-06-13 00:00:00.000000,0.00000002,0.00000054,0.00000773,0,0,0,0,0,0,0.00000001,0.00000037,0.00000578,0.03701793,0.11116402,0.23312443
0,0,Laos,,,2021-01-05 02:42:42.796463,2020-06-14 00:00:00.000000,0.00000002,0.00000048,0.00000709,0,0,0,0,0,0,0.00000001,0.00000033,0.00000531,0.03493264,0.11317835,0.23284368
0,0,Laos,,,2021-01-05 02:42:42.796463,2020-06-15 00:00:00.000000,0.00000001,0.00000043,0.00000649,0,0,0,0,0,0,0.00000001,0.00000029,0.00000487,0.03874189,0.11539545,0.21905954
0,0,Laos,,,2021-01-05 02:42:42.796463,2020-06-16 00:00:00.000000,0.00000001,0.00000038,0.00000592,0,0,0,0,0,0,0.00000001,0.00000026,0.00000446,0.03965668,0.11680423,0.20660576
0,0,Laos,,,2021-01-05 02:42:42.796463,2020-06-17 00:00:00.000000,0.00000001,0.00000034,0.00000540,0,0,0,0,0,0,0.00000001,0.00000023,0.00000408,0.03867321,0.11766259,0.20528006
0,0,Laos,,,2021-01-05 02:42:42.796463,2020-06-18 00:00:00.000000,0.00000001,0.00000030,0.00000491,0,0,0,0,0,0,0.00000001,0.00000021,0.00000372,0.03716261,0.11790958,0.20704798
0,0,Laos,,,2021-01-05 02:42:42.796463,2020-06-19 00:00:00.000000,0.00000001,0.00000027,0.00000446,0,0,0,0,0,0,0.00000001,0.00000019,0.00000339,0.03580022,0.11427907,0.21020083
0,0,Laos,,,2021-01-05 02:42:42.796463,2020-06-20 00:00:00.000000,0.00000001,0.00000024,0.00000412,0,0,0,0,0,0,0.00000000,0.00000017,0.00000308,0.03616816,0.11488588,0.21459139
0,0,Laos,,,2021-01-05 02:42:42.796463,2020-06-21 00:00:00.000000,0.00000000,0.00000022,0.00000388,0,0,0,0,0,0,0.00000000,0.00000015,0.00000280,0.03632832,0.11282704,0.21895949
0,0,Laos,,,2021-01-05 02:42:42.796463,2020-06-22 00:00:00.000000,0.00000000,0.00000020,0.00000367,0,0,0,0,0,0,0.00000000,0.00000014,0.00000254,0.03477408,0.11349330,0.22210411
0,0,Laos,,,2021-01-05 02:42:42.796463,2020-06-23 00:00:00.000000,0.00000000,0.00000018,0.00000349,0,0,0,0,0,0,0.00000000,0.00000012,0.00000230,0.03452191,0.11199748,0.22389378
0,0,Laos,,,2021-01-05 02:42:42.796463,2020-06-24 00:00:00.000000,0.00000000,0.00000016,0.00000333,0,0,0,0,0,0,0.00000000,0.00000011,0.00000208,0.03500843,0.11077100,0.22459054
0,0,Laos,,,2021-01-05 02:42:42.796463,2020-06-25 00:00:00.000000,0.00000000,0.00000014,0.00000319,0,0,0,0,0,0,0.00000000,0.00000010,0.00000188,0.03588317,0.11031079,0.22333845
0,0,Laos,,,2021-01-05 02:42:42.796463,2020-06-26 00:00:00.000000,0.00000000,0.00000013,0.00000305,0,0,0,0,0,0,0.00000000,0.00000009,0.00000170,0.03718869,0.11311083,0.21538925
0,0,Laos,,,2021-01-05 02:42:42.796463,2020-06-27 00:00:00.000000,0.00000000,0.00000011,0.00000293,0,0,0,0,0,0,0.00000000,0.00000008,0.00000158,0.03873351,0.11070790,0.21771056
0,0,Laos,,,2021-01-05 02:42:42.796463,2020-06-28 00:00:00.000000,0.00000000,0.00000010,0.00000281,0,0,0,0,0,0,0.00000000,0.00000007,0.00000152,0.03936717,0.10969950,0.22203691
0,0,Laos,,,2021-01-05 02:42:42.796463,2020-06-29 00:00:00.000000,0.00000000,0.00000009,0.00000269,0,0,0,0,0,0,0.00000000,0.00000006,0.00000146,0.03952519,0.11025732,0.22652685
0,0,Laos,,,2021-01-05 02:42:42.796463,2020-06-30 00:00:00.000000,0.00000000,0.00000008,0.00000258,0,0,0,0,0,0,0.00000000,0.00000005,0.00000140,0.03977010,0.10957099,0.22885202
0,0,Laos,,,2021-01-05 02:42:42.796463,2020-07-01 00:00:00.000000,0.00000000,0.00000007,0.00000247,0,0,0,0,0,0,0.00000000,0.00000005,0.00000134,0.04088119,0.10936014,0.22972681
0,0,Laos,,,2021-01-05 02:42:42.796463,2020-07-02 00:00:00.000000,0.00000000,0.00000006,0.00000236,0,0,0,0,0,0,0.00000000,0.00000004,0.00000128,0.04309267,0.10583361,0.23022953
0,0,Laos,,,2021-01-05 02:42:42.796463,2020-07-03 00:00:00.000000,0.00000000,0.00000005,0.00000225,0,0,0,0,0,0,0.00000000,0.00000004,0.00000122,0.04364873,0.10490229,0.23119151
0,0,Laos,,,2021-01-05 02:42:42.796463,2020-07-04 00:00:00.000000,0.00000000,0.00000005,0.00000213,0,0,0,0,0,0,0.00000000,0.00000003,0.00000117,0.04390005,0.10392035,0.23385284
0,0,Laos,,,2021-01-05 02:42:42.796463,2020-07-05 00:00:00.000000,0.00000000,0.00000004,0.00000201,0,0,0,0,0,0,0.00000000,0.00000003,0.00000111,0.04344184,0.10357858,0.23911379
0,0,Laos,,,2021-01-05 02:42:42.796463,2020-07-06 00:00:00.000000,0.00000696,0.00001711,0.00004375,0,1,3,0,0,0,0.00000000,0.00000003,0.00000105,0.04536823,0.10323622,0.23376738
0,0,Laos,,,2021-01-05 02:42:42.796463,2020-07-07 00:00:00.000000,0.00001388,0.00003338,0.00008730,1,2,6,0,0,1,0.00000288,0.00000753,0.00001958,0.04669798,0.10023849,0.23836910
0,0,Laos,,,2021-01-05 02:42:42.796463,2020-07-08 00:00:00.000000,0.00002098,0.00004999,0.00013255,1,3,9,0,1,3,0.00000679,0.00001752,0.00004447,0.04757107,0.10045828,0.24336893
0,0,Laos,,,2021-01-05 02:42:42.796463,2020-07-09 00:00:00.000000,0.00002765,0.00006587,0.00017606,2,4,12,0,1,5,0.00001072,0.00002727,0.00006953,0.04648104,0.10073019,0.22961204
0,0,Laos,,,2021-01-05 02:42:42.796463,2020-07-10 00:00:00.000000,0.00003368,0.00008103,0.00021617,2,5,15,1,2,6,0.00001475,0.00003703,0.00009302,0.04456692,0.10005168,0.21185517
0,0,Laos,,,2021-01-05 02:42:42.796463,2020-07-11 00:00:00.000000,0.00003905,0.00009502,0.00025235,2,6,18,1,3,8,0.00001847,0.00004563,0.00011445,0.04421104,0.10079147,0.20561287
0,0,Laos,,,2021-01-05 02:42:42.796463,2020-07-12 00:00:00.000000,0.00004384,0.00010704,0.00028469,3,7,20,1,3,9,0.00002181,0.00005319,0.00013374,0.04540575,0.10115339,0.20416638
0,0,Laos,,,2021-01-05 02:42:42.796463,2020-07-13 00:00:00.000000,0.00005312,0.00011925,0.00029604,3,8,21,1,4,10,0.00002476,0.00006042,0.00015098,0.04726704,0.10159758,0.20381680
0,0,Laos,,,2021-01-05 02:42:42.796463,2020-07-14 00:00:00.000000,0.00005975,0.00013065,0.00030415,4,9,22,2,4,12,0.00002882,0.00006627,0.00016756,0.04893250,0.09902945,0.20370858
0,0,Laos,,,2021-01-05 02:42:42.796463,2020-07-15 00:00:00.000000,0.00006450,0.00013656,0.00031188,4,9,22,2,5,13,0.00003185,0.00007221,0.00018256,0.04974744,0.09903424,0.20366220
0,0,Laos,,,2021-01-05 02:42:42.796463,2020-07-16 00:00:00.000000,0.00006768,0.00014438,0.00034077,4,10,24,2,5,14,0.00003187,0.00007649,0.00019572,0.04864412,0.09866987,0.20363072
0,0,Laos,,,2021-01-05 02:42:42.796463,2020-07-17 00:00:00.000000,0.00006848,0.00015123,0.00034595,4,11,25,2,6,15,0.00003194,0.00008360,0.00021035,0.04997678,0.09869890,0.20358789
0,0,Laos,,,2021-01-05 02:42:42.796463,2020-07-18 00:00:00.000000,0.00006909,0.00015756,0.00035884,5,11,26,2,6,15,0.00003457,0.00008835,0.00021749,0.04929850,0.09887491,0.20347086
0,0,Laos,,,2021-01-05 02:42:42.796463,2020-07-19 00:00:00.000000,0.00007047,0.00016386,0.00037053,5,11,26,2,6,15,0.00003690,0.00009324,0.00021910,0.04880867,0.09739662,0.20282643
0,0,Laos,,,2021-01-05 02:42:42.796463,2020-07-20 00:00:00.000000,0.00006460,0.00014966,0.00034030,4,10,24,2,7,16,0.00003894,0.00009718,0.00022965,0.04850555,0.09548488,0.20261711
0,0,Laos,,,2021-01-05 02:42:42.796463,2020-07-21 00:00:00.000000,0.00005834,0.00013666,0.00030881,4,9,22,2,6,15,0.00003681,0.00009207,0.00021871,0.04830027,0.09559274,0.20204695
0,0,Laos,,,2021-01-05 02:42:42.796463,2020-07-22 00:00:00.000000,0.00004985,0.00012135,0.00027492,3,8,20,2,6,14,0.00003129,0.00008263,0.00019745,0.04807181,0.09385916,0.19915386
0,0,Laos,,,2021-01-05 02:42:42.796463,2020-07-23 00:00:00.000000,0.00004184,0.00010526,0.00024270,3,7,17,1,5,12,0.00002623,0.00007213,0.00017546,0.04764561,0.09439369,0.19821986
0,0,Laos,,,2021-01-05 02:42:42.796463,2020-07-24 00:00:00.000000,0.00003520,0.00009239,0.00021794,2,6,15,1,4,11,0.00002253,0.00006317,0.00015483,0.04676186,0.09861606,0.19668274
0,0,Laos,,,2021-01-05 02:42:42.796463,2020-07-25 00:00:00.000000,0.00003003,0.00008064,0.00020281,2,5,14,1,4,9,0.00001959,0.00005565,0.00013619,0.04525002,0.09516734,0.19615587
0,0,Laos,,,2021-01-05 02:42:42.796463,2020-07-26 00:00:00.000000,0.00002524,0.00007049,0.00018991,1,5,13,1,3,9,0.00001604,0.00004899,0.00012502,0.04295812,0.09516290,0.19834623
0,0,Laos,,,2021-01-05 02:42:42.796463,2020-07-27 00:00:00.000000,0.00003465,0.00008321,0.00018783,2,6,13,0,3,8,0.00001309,0.00004377,0.00011749,0.04024572,0.09531865,0.20629309
0,0,Laos,,,2021-01-05 02:42:42.796463,2020-07-28 00:00:00.000000,0.00003823,0.00009045,0.00018528,2,6,13,1,3,8,0.00001826,0.00004485,0.00011932,0.03941977,0.09524543,0.21015493
0,0,Laos,,,2021-01-05 02:42:42.796463,2020-07-29 00:00:00.000000,0.00004186,0.00009864,0.00020244,3,7,14,1,3,8,0.00002250,0.00005155,0.00012090,0.03909924,0.09521209,0.21174196
0,0,Laos,,,2021-01-05 02:42:42.796463,2020-07-30 00:00:00.000000,0.00004521,0.00010610,0.00022037,3,7,16,1,4,9,0.00002427,0.00005814,0.00012426,0.03914512,0.09698828,0.21318409
0,0,Laos,,,2021-01-05 02:42:42.796463,2020-07-31 00:00:00.000000,0.00004843,0.00011377,0.00024690,3,8,17,1,4,9,0.00002447,0.00006177,0.00013438,0.03938854,0.09729374,0.21580518
0,0,Laos,,,2021-01-05 02:42:42.796463,2020-08-01 00:00:00.000000,0.00004913,0.00012234,0.00027132,3,8,19,1,4,10,0.00002448,0.00006603,0.00013962,0.03967331,0.09881222,0.21875573
0,0,Laos,,,2021-01-05 02:42:42.796463,2020-08-02 00:00:00.000000,0.00004938,0.00012938,0.00029392,3,9,21,1,5,10,0.00002457,0.00007089,0.00014886,0.03990267,0.10185218,0.22022556
0,0,Laos,,,2021-01-05 02:42:42.796463,2020-08-03 00:00:00.000000,0.00005877,0.00014574,0.00028816,4,10,20,1,5,11,0.00002469,0.00007388,0.00016150,0.04005213,0.10362514,0.21934289
0,0,Laos,,,2021-01-05 02:42:42.796463,2020-08-04 00:00:00.000000,0.00006786,0.00015267,0.00029741,4,11,21,2,5,12,0.00003174,0.00008209,0.00016778,0.04013704,0.10310264,0.21433375
0,0,Laos,,,2021-01-05 02:42:42.796463,2020-08-05 00:00:00.000000,0.00007724,0.00016152,0.00029666,5,11,21,2,6,12,0.00003555,0.00008658,0.00017521,0.04018101,0.10598030,0.21145066
0,0,Laos,,,2021-01-05 02:42:42.796463,2020-08-06 00:00:00.000000,0.00008606,0.00016425,0.00032136,6,11,23,2,6,12,0.00003787,0.00009287,0.00017567,0.04020824,0.10636646,0.20492183
0,0,Laos,,,2021-01-05 02:42:42.796463,2020-08-07 00:00:00.000000,0.00009401,0.00017743,0.00033342,6,12,24,3,6,13,0.00004235,0.00009327,0.00018366,0.04026969,0.10676763,0.20519549
0,0,Laos,,,2021-01-05 02:42:42.796463,2020-08-08 00:00:00.000000,0.00009039,0.00018149,0.00034399,6,13,25,3,6,14,0.00004639,0.00009604,0.00019322,0.04056288,0.10848052,0.20520525
0,0,Laos,,,2021-01-05 02:42:42.796463,2020-08-09 00:00:00.000000,0.00008656,0.00018235,0.00036255,6,13,26,3,7,14,0.00004997,0.00009950,0.00020531,0.04166379,0.10759391,0.20502597
0,0,Laos,,,2021-01-05 02:42:42.796463,2020-08-10 00:00:00.000000,0.00007762,0.00016458,0.00034788,5,11,25,3,7,16,0.00004698,0.00009834,0.00022359,0.04357856,0.10871371,0.20485188
0,0,Laos,,,2021-01-05 02:42:42.796463,2020-08-11 00:00:00.000000,0.00006678,0.00014800,0.00033627,4,10,24,3,6,15,0.00004200,0.00009338,0.00021882,0.04527648,0.10744388,0.20469719
0,0,Laos,,,2021-01-05 02:42:42.796463,2020-08-12 00:00:00.000000,0.00005680,0.00013106,0.00032043,4,9,23,2,6,15,0.00003838,0.00008494,0.00020656,0.04723079,0.10632287,0.20393499
0,0,Laos,,,2021-01-05 02:42:42.796463,2020-08-13 00:00:00.000000,0.00005112,0.00011503,0.00029581,3,8,21,2,5,13,0.00003504,0.00007623,0.00019220,0.04731186,0.10670287,0.20142881
0,0,Laos,,,2021-01-05 02:42:42.796463,2020-08-14 00:00:00.000000,0.00004574,0.00010040,0.00027180,3,7,19,2,4,12,0.00003136,0.00006805,0.00017764,0.04521539,0.10734590,0.19696206
0,0,Laos,,,2021-01-05 02:42:42.796463,2020-08-15 00:00:00.000000,0.00004078,0.00008604,0.00024872,2,6,18,1,4,11,0.00002648,0.00005990,0.00016342,0.04401073,0.10669515,0.19209020
0,0,Laos,,,2021-01-05 02:42:42.796463,2020-08-16 00:00:00.000000,0.00003500,0.00007685,0.00022674,2,5,16,1,3,10,0.00002226,0.00005332,0.00014964,0.04350035,0.10712895,0.20523743
0,0,Laos,,,2021-01-05 02:42:42.796463,2020-08-17 00:00:00.000000,0.00002929,0.00006926,0.00020619,2,5,15,1,3,9,0.00001866,0.00004835,0.00013657,0.04303849,0.10819258,0.21099832
0,0,Laos,,,2021-01-05 02:42:42.796463,2020-08-18 00:00:00.000000,0.00002449,0.00006264,0.00018715,1,4,13,1,3,9,0.00001562,0.00004382,0.00012431,0.04272409,0.10865278,0.21272427
0,0,Laos,,,2021-01-05 02:42:42.796463,2020-08-19 00:00:00.000000,0.00002046,0.00005732,0.00016968,1,4,12,0,2,8,0.00001306,0.00003955,0.00011344,0.04280060,0.10957761,0.20903465
0,0,Laos,,,2021-01-05 02:42:42.796463,2020-08-20 00:00:00.000000,0.00001707,0.00005152,0.00015372,1,3,11,0,2,7,0.00001091,0.00003542,0.00010403,0.04301089,0.10945936,0.20346065
0,0,Laos,,,2021-01-05 02:42:42.796463,2020-08-21 00:00:00.000000,0.00001422,0.00004629,0.00013921,1,3,10,0,2,6,0.00000911,0.00003155,0.00009551,0.04373842,0.11108132,0.20153790
0,0,Laos,,,2021-01-05 02:42:42.796463,2020-08-22 00:00:00.000000,0.00001182,0.00004004,0.00012605,0,2,9,0,2,6,0.00000759,0.00002821,0.00008781,0.04439183,0.11155197,0.20373448
0,0,Laos,,,2021-01-05 02:42:42.796463,2020-08-23 00:00:00.000000,0.00000981,0.00003447,0.00011412,0,2,8,0,1,5,0.00000631,0.00002526,0.00008086,0.04471991,0.11200127,0.20249903
0,0,Laos,,,2021-01-05 02:42:42.796463,2020-08-24 00:00:00.000000,0.00002147,0.00004835,0.00012879,1,3,9,0,1,5,0.00000523,0.00002174,0.00007458,0.04539123,0.11405741,0.20213755
0,0,Laos,,,2021-01-05 02:42:42.796463,2020-08-25 00:00:00.000000,0.00002970,0.00005949,0.00014490,2,4,10,0,1,5,0.00001056,0.00002662,0.00007408,0.04587123,0.11441617,0.20269817
0,0,Laos,,,2021-01-05 02:42:42.796463,2020-08-26 00:00:00.000000,0.00003360,0.00007360,0.00017175,2,5,12,1,2,6,0.00001444,0.00003349,0.00008371,0.04614946,0.11784067,0.20216375
0,0,Laos,,,2021-01-05 02:42:42.796463,2020-08-27 00:00:00.000000,0.00003833,0.00008568,0.00021781,2,6,15,1,3,6,0.00001727,0.00004142,0.00009423,0.04627771,0.12000980,0.20011160
0,0,Laos,,,2021-01-05 02:42:42.796463,2020-08-28 00:00:00.000000,0.00004277,0.00009554,0.00025323,3,6,18,1,3,8,0.00001934,0.00004803,0.00012117,0.04628193,0.11954508,0.19804610
0,0,Laos,,,2021-01-05 02:42:42.796463,2020-08-29 00:00:00.000000,0.00004678,0.00010697,0.00027310,3,7,19,1,3,10,0.00002006,0.00005386,0.00014576,0.04610036,0.12007346,0.20066739
0,0,Laos,,,2021-01-05 02:42:42.796463,2020-08-30 00:00:00.000000,0.00005032,0.00011645,0.00029988,3,8,21,1,4,11,0.00002178,0.00006015,0.00016167,0.04561508,0.11959743,0.20099529
0,0,Laos,,,2021-01-05 02:42:42.796463,2020-08-31 00:00:00.000000,0.00006007,0.00012760,0.00030018,4,9,21,1,4,13,0.00002357,0.00006607,0.00018378,0.04532631,0.12039004,0.20101609
0,0,Laos,,,2021-01-05 02:42:42.796463,2020-09-01 00:00:00.000000,0.00006889,0.00013265,0.00033148,5,9,24,2,5,13,0.00003077,0.00007084,0.00018699,0.04524648,0.12063374,0.20095746
0,0,Laos,,,2021-01-05 02:42:42.796463,2020-09-02 00:00:00.000000,0.00007489,0.00014508,0.00035813,5,10,26,2,5,15,0.00003574,0.00007430,0.00020751,0.04524909,0.12147940,0.20074900
0,0,Laos,,,2021-01-05 02:42:42.796463,2020-09-03 00:00:00.000000,0.00007900,0.00014640,0.00036525,5,10,26,2,5,16,0.00004053,0.00007830,0.00022519,0.04637845,0.12289846,0.20007456
0,0,Laos,,,2021-01-05 02:42:42.796463,2020-09-04 00:00:00.000000,0.00008266,0.00014944,0.00037211,6,10,27,3,5,17,0.00004288,0.00008168,0.00023415,0.04804774,0.12584475,0.20010336
0,0,Laos,,,2021-01-05 02:42:42.796463,2020-09-05 00:00:00.000000,0.00008462,0.00015475,0.00038161,6,11,27,3,6,17,0.00004507,0.00008589,0.00024138,0.04992513,0.12815414,0.20614136
0,0,Laos,,,2021-01-05 02:42:42.796463,2020-09-06 00:00:00.000000,0.00008565,0.00015807,0.00039290,6,11,28,3,6,17,0.00004630,0.00008975,0.00024714,0.05092877,0.13078024,0.21138049
0,0,Laos,,,2021-01-05 02:42:42.796463,2020-09-07 00:00:00.000000,0.00007735,0.00014417,0.00037866,5,10,27,3,6,18,0.00004493,0.00008983,0.00025194,0.05026629,0.13164581,0.21327059
0,0,Laos,,,2021-01-05 02:42:42.796463,2020-09-08 00:00:00.000000,0.00006696,0.00013336,0.00035760,4,9,26,3,6,17,0.00004225,0.00008536,0.00024160,0.04924458,0.13343869,0.21440947
0,0,Laos,,,2021-01-05 02:42:42.796463,2020-09-09 00:00:00.000000,0.00005730,0.00011988,0.00031959,4,8,23,2,5,16,0.00003888,0.00007956,0.00022350,0.04756942,0.13446632,0.21903592
0,0,Laos,,,2021-01-05 02:42:42.796463,2020-09-10 00:00:00.000000,0.00005040,0.00010481,0.00028267,3,7,20,2,5,14,0.00003597,0.00007219,0.00020230,0.04634632,0.13658830,0.21634410
0,0,Laos,,,2021-01-05 02:42:42.796463,2020-09-11 00:00:00.000000,0.00004614,0.00009368,0.00024856,3,6,18,2,4,13,0.00003297,0.00006238,0.00018063,0.04730898,0.13761262,0.21504290
0,0,Laos,,,2021-01-05 02:42:42.796463,2020-09-12 00:00:00.000000,0.00004238,0.00008504,0.00021777,3,6,15,2,4,11,0.00002935,0.00005683,0.00015988,0.04856504,0.14042905,0.21043932
0,0,Laos,,,2021-01-05 02:42:42.796463,2020-09-13 00:00:00.000000,0.00003915,0.00007828,0.00019710,2,5,14,1,3,10,0.00002562,0.00005026,0.00014071,0.05002282,0.13851587,0.21051305
0,0,Laos,,,2021-01-05 02:42:42.796463,2020-09-14 00:00:00.000000,0.00003591,0.00007120,0.00017999,2,5,13,1,3,9,0.00002233,0.00004556,0.00012407,0.05152177,0.14115816,0.21881389
0,0,Laos,,,2021-01-05 02:42:42.796463,2020-09-15 00:00:00.000000,0.00003137,0.00006249,0.00016448,2,4,11,1,2,8,0.00001948,0.00004110,0.00011434,0.05283995,0.14373066,0.22569635
0,0,Laos,,,2021-01-05 02:42:42.796463,2020-09-16 00:00:00.000000,0.00002745,0.00005638,0.00015861,1,4,11,1,2,7,0.00001702,0.00003655,0.00010102,0.05323735,0.14741348,0.23323673
0,0,Laos,,,2021-01-05 02:42:42.796463,2020-09-17 00:00:00.000000,0.00002403,0.00005077,0.00015248,1,3,11,1,2,7,0.00001489,0.00003207,0.00009736,0.05342104,0.14995228,0.24227023
0,0,Laos,,,2021-01-05 02:42:42.796463,2020-09-18 00:00:00.000000,0.00002054,0.00004529,0.00014592,1,3,10,0,2,6,0.00001304,0.00002901,0.00009377,0.05409955,0.14984373,0.24943132
0,0,Laos,,,2021-01-05 02:42:42.796463,2020-09-19 00:00:00.000000,0.00001756,0.00004077,0.00013906,1,2,10,0,1,6,0.00001144,0.00002624,0.00009001,0.05523956,0.14900759,0.25455790
0,0,Laos,,,2021-01-05 02:42:42.796463,2020-09-20 00:00:00.000000,0.00001500,0.00003633,0.00013215,1,2,9,0,1,6,0.00000993,0.00002358,0.00008609,0.05619797,0.14967763,0.25795381
0,0,Laos,,,2021-01-05 02:42:42.796463,2020-09-21 00:00:00.000000,0.00001281,0.00003221,0.00012536,0,2,9,0,1,5,0.00000838,0.00002096,0.00008208,0.05708956,0.15025627,0.26005025
0,0,Laos,,,2021-01-05 02:42:42.796463,2020-09-22 00:00:00.000000,0.00001093,0.00002886,0.00011881,0,2,8,0,1,5,0.00000708,0.00001871,0.00007807,0.05851125,0.15207644,0.26121867
0,0,Laos,,,2021-01-05 02:42:42.796463,2020-09-23 00:00:00.000000,0.00000933,0.00002591,0.00011254,0,1,8,0,1,5,0.00000603,0.00001699,0.00007414,0.06034024,0.15939102,0.26171195
0,0,Laos,,,2021-01-05 02:42:42.796463,2020-09-24 00:00:00.000000,0.00000797,0.00002354,0.00010658,0,1,7,0,1,5,0.00000519,0.00001495,0.00007034,0.06192088,0.16461758,0.26165570
0,0,Laos,,,2021-01-05 02:42:42.796463,2020-09-25 00:00:00.000000,0.00000684,0.00002145,0.00010091,0,1,7,0,0,4,0.00000443,0.00001341,0.00006669,0.06492792,0.16583896,0.26102876
0,0,Laos,,,2021-01-05 02:42:42.796463,2020-09-26 00:00:00.000000,0.00000589,0.00001935,0.00009550,0,1,6,0,0,4,0.00000380,0.00001229,0.00006320,0.06419644,0.16574252,0.25945039
0,0,Laos,,,2021-01-05 02:42:42.796463,2020-09-27 00:00:00.000000,0.00000508,0.00001776,0.00009028,0,1,6,0,0,4,0.00000326,0.00001124,0.00005986,0.06376649,0.16689429,0.26043795
0,0,Laos,,,2021-01-05 02:42:42.796463,2020-09-28 00:00:00.000000,0.00000435,0.00001643,0.00008520,0,1,6,0,0,4,0.00000281,0.00001021,0.00005666,0.06374593,0.16747830,0.27166450
0,0,Laos,,,2021-01-05 02:42:42.796463,2020-09-29 00:00:00.000000,0.00000371,0.00001486,0.00008027,0,1,5,0,0,3,0.00000242,0.00000939,0.00005355,0.06419971,0.17013747,0.28011883
0,0,Laos,,,2021-01-05 02:42:42.796463,2020-09-30 00:00:00.000000,0.00000316,0.00001349,0.00007554,0,0,5,0,0,3,0.00000209,0.00000863,0.00005053,0.06534742,0.17652898,0.27965567
0,0,Laos,,,2021-01-05 02:42:42.796463,2020-10-01 00:00:00.000000,0.00000270,0.00001203,0.00007103,0,0,5,0,0,3,0.00000180,0.00000791,0.00004763,0.06766910,0.17341576,0.28113248
0,0,Laos,,,2021-01-05 02:42:42.796463,2020-10-02 00:00:00.000000,0.00000232,0.00001074,0.00006675,0,0,4,0,0,3,0.00000155,0.00000707,0.00004484,0.06987815,0.17864760,0.28188294
0,0,Laos,,,2021-01-05 02:42:42.796463,2020-10-03 00:00:00.000000,0.00000201,0.00000959,0.00006269,0,0,4,0,0,3,0.00000134,0.00000648,0.00004218,0.07330580,0.18502810,0.28202676
0,0,Laos,,,2021-01-05 02:42:42.796463,2020-10-04 00:00:00.000000,0.00000174,0.00000880,0.00005883,0,0,4,0,0,2,0.00000116,0.00000578,0.00003965,0.08143738,0.18499121,0.28208243
0,0,Laos,,,2021-01-05 02:42:42.796463,2020-10-05 00:00:00.000000,0.00001020,0.00002437,0.00007031,0,1,5,0,0,2,0.00000100,0.00000517,0.00003725,0.08917760,0.18490269,0.28211769
0,0,Laos,,,2021-01-05 02:42:42.796463,2020-10-06 00:00:00.000000,0.00001614,0.00003699,0.00009274,1,2,6,0,0,2,0.00000372,0.00001154,0.00003938,0.09570300,0.18763951,0.28335071
0,0,Laos,,,2021-01-05 02:42:42.796463,2020-10-07 00:00:00.000000,0.00002088,0.00004920,0.00013764,1,3,10,0,1,4,0.00000731,0.00001919,0.00005987,0.09966440,0.18850125,0.28376133
0,0,Laos,,,2021-01-05 02:42:42.796463,2020-10-08 00:00:00.000000,0.00002556,0.00006061,0.00018139,1,4,13,0,1,6,0.00001005,0.00002651,0.00008870,0.10004703,0.19291419,0.28454594
0,0,Laos,,,2021-01-05 02:42:42.796463,2020-10-09 00:00:00.000000,0.00003087,0.00006998,0.00022298,2,5,16,0,2,8,0.00001328,0.00003390,0.00011622,0.10067198,0.19775477,0.28326630
0,0,Laos,,,2021-01-05 02:42:42.796463,2020-10-10 00:00:00.000000,0.00003586,0.00008124,0.00026233,2,5,19,1,2,10,0.00001630,0.00003961,0.00014227,0.10182688,0.19747637,0.28907939
0,0,Laos,,,2021-01-05 02:42:42.796463,2020-10-11 00:00:00.000000,0.00004043,0.00009187,0.00029952,2,6,21,1,3,12,0.00001911,0.00004563,0.00016690,0.10398907,0.19556791,0.29357011
0,0,Laos,,,2021-01-05 02:42:42.796463,2020-10-12 00:00:00.000000,0.00006048,0.00010323,0.00029675,4,7,21,1,3,13,0.00002169,0.00005088,0.00019021,0.10801324,0.19693223,0.30422782
0,0,Laos,,,2021-01-05 02:42:42.796463,2020-10-13 00:00:00.000000,0.00007151,0.00012415,0.00031150,5,9,22,2,4,13,0.00003058,0.00005780,0.00018944,0.11351736,0.19976732,0.31004130
0,0,Laos,,,2021-01-05 02:42:42.796463,2020-10-14 00:00:00.000000,0.00007436,0.00013479,0.00032328,5,9,23,2,4,14,0.00003528,0.00006664,0.00019587,0.11723420,0.20245306,0.31219459
0,0,Laos,,,2021-01-05 02:42:42.796463,2020-10-15 00:00:00.000000,0.00007699,0.00014151,0.00031386,5,10,22,2,5,14,0.00003701,0.00007420,0.00019495,0.12141015,0.20654938,0.31915578
0,0,Laos,,,2021-01-05 02:42:42.796463,2020-10-16 00:00:00.000000,0.00007945,0.00015018,0.00030522,5,10,22,2,6,13,0.00003857,0.00008269,0.00019012,0.12797275,0.20968361,0.32722664
0,0,Laos,,,2021-01-05 02:42:42.796463,2020-10-17 00:00:00.000000,0.00008188,0.00015711,0.00035299,5,11,25,2,6,13,0.00004003,0.00008750,0.00018380,0.13674685,0.21535082,0.32919649
0,0,Laos,,,2021-01-05 02:42:42.796463,2020-10-18 00:00:00.000000,0.00008463,0.00016408,0.00039854,6,11,28,3,6,13,0.00004154,0.00009226,0.00018573,0.14027800,0.22175291,0.34376446
0,0,Laos,,,2021-01-05 02:42:42.796463,2020-10-19 00:00:00.000000,0.00008307,0.00015615,0.00038868,6,11,28,3,6,14,0.00004337,0.00009418,0.00019625,0.14392089,0.22429109,0.35712122
0,0,Laos,,,2021-01-05 02:42:42.796463,2020-10-20 00:00:00.000000,0.00007895,0.00014855,0.00037745,5,10,27,3,6,14,0.00004268,0.00009286,0.00019316,0.14686132,0.22561375,0.36512956
0,0,Laos,,,2021-01-05 02:42:42.796463,2020-10-21 00:00:00.000000,0.00007469,0.00014329,0.00036128,5,10,26,2,6,13,0.00004091,0.00008885,0.00018770,0.14995046,0.22961999,0.37781940
0,0,Laos,,,2021-01-05 02:42:42.796463,2020-10-22 00:00:00.000000,0.00007030,0.00013589,0.00034416,5,9,25,2,6,13,0.00004092,0.00008286,0.00017968,0.15793590,0.23300591,0.37907128
0,0,Laos,,,2021-01-05 02:42:42.796463,2020-10-23 00:00:00.000000,0.00006628,0.00012885,0.00032763,4,9,23,2,5,12,0.00003949,0.00007826,0.00017600,0.16463339,0.23886682,0.40762549
0,0,Laos,,,2021-01-05 02:42:42.796463,2020-10-24 00:00:00.000000,0.00006256,0.00012503,0.00031810,4,9,23,2,5,12,0.00003605,0.00007497,0.00017552,0.17065616,0.24471916,0.41722997
0,0,Laos,,,2021-01-05 02:42:42.796463,2020-10-25 00:00:00.000000,0.00005773,0.00012031,0.00031794,4,8,23,2,5,12,0.00003305,0.00007382,0.00017520,0.17983883,0.24854511,0.42054858
0,0,Laos,,,2021-01-05 02:42:42.796463,2020-10-26 00:00:00.000000,0.00005203,0.00011618,0.00031810,3,8,23,2,5,12,0.00003056,0.00007068,0.00017505,0.19005046,0.25865596,0.42350237
0,0,Laos,,,2021-01-05 02:42:42.796463,2020-10-27 00:00:00.000000,0.00004705,0.00011057,0.00031435,3,8,22,2,4,12,0.00002843,0.00006753,0.00017508,0.19024400,0.26589995,0.42758029
0,0,Laos,,,2021-01-05 02:42:42.796463,2020-10-28 00:00:00.000000,0.00004307,0.00010379,0.00030603,3,7,22,1,4,12,0.00002670,0.00006575,0.00017532,0.19521732,0.26968289,0.43573409
0,0,Laos,,,2021-01-05 02:42:42.796463,2020-10-29 00:00:00.000000,0.00004034,0.00010135,0.00029887,2,7,21,1,4,12,0.00002523,0.00006255,0.00017592,0.20451552,0.28139341,0.45151097
0,0,Laos,,,2021-01-05 02:42:42.796463,2020-10-30 00:00:00.000000,0.00003825,0.00009685,0.00029283,2,7,21,1,4,12,0.00002395,0.00005903,0.00017720,0.21015082,0.28862661,0.47847366
0,0,Laos,,,2021-01-05 02:42:42.796463,2020-10-31 00:00:00.000000,0.00003657,0.00009646,0.00028800,2,7,20,1,4,13,0.00002280,0.00005641,0.00017970,0.21180556,0.30472395,0.50400258
0,0,Laos,,,2021-01-05 02:42:42.796463,2020-11-01 00:00:00.000000,0.00003515,0.00009610,0.00029486,2,6,21,1,4,13,0.00002177,0.00005540,0.00018405,0.22223108,0.31848770,0.50723059
0,0,Laos,,,2021-01-05 02:42:42.796463,2020-11-02 00:00:00.000000,0.00005711,0.00011306,0.00032540,4,8,23,1,3,13,0.00002060,0.00005497,0.00018411,0.22642948,0.33268708,0.50885080
0,0,Laos,,,2021-01-05 02:42:42.796463,2020-11-03 00:00:00.000000,0.00006416,0.00012807,0.00036738,4,9,26,2,4,14,0.00002889,0.00006300,0.00020131,0.22997892,0.34538219,0.54360625
0,0,Laos,,,2021-01-05 02:42:42.796463,2020-11-04 00:00:00.000000,0.00007237,0.00015228,0.00041366,5,11,30,2,5,16,0.00003282,0.00007283,0.00022675,0.23380439,0.35537950,0.57670009
0,0,Laos,,,2021-01-05 02:42:42.796463,2020-11-05 00:00:00.000000,0.00008763,0.00017454,0.00049704,6,12,36,2,6,18,0.00003640,0.00008339,0.00025259,0.23816291,0.36868679,0.61030004
0,0,Laos,,,2021-01-05 02:42:42.796463,2020-11-06 00:00:00.000000,0.00009847,0.00019667,0.00057728,7,14,42,2,6,20,0.00004009,0.00009596,0.00027884,0.25127079,0.37603843,0.60209878
0,0,Laos,,,2021-01-05 02:42:42.796463,2020-11-07 00:00:00.000000,0.00010965,0.00021719,0.00062973,7,15,45,3,7,23,0.00004381,0.00010994,0.00032572,0.25776366,0.39507191,0.61110301
0,0,Laos,,,2021-01-05 02:42:42.796463,2020-11-08 00:00:00.000000,0.00012089,0.00024162,0.00068284,8,17,49,3,9,28,0.00004845,0.00012623,0.00038671,0.26366861,0.41386507,0.61493594
0,0,Laos,,,2021-01-05 02:42:42.796463,2020-11-09 00:00:00.000000,0.00016399,0.00030912,0.00078991,11,22,57,3,10,32,0.00005496,0.00013831,0.00044292,0.27530491,0.42829085,0.63260500
0,0,Laos,,,2021-01-05 02:42:42.796463,2020-11-10 00:00:00.000000,0.00018818,0.00037208,0.00093703,13,27,68,6,11,37,0.00008579,0.00016298,0.00051102,0.29212190,0.44851177,0.63497105
0,0,Laos,,,2021-01-05 02:42:42.796463,2020-11-11 00:00:00.000000,0.00022506,0.00044662,0.00110566,16,32,80,7,14,41,0.00009937,0.00019393,0.00057035,0.30070842,0.45864876,0.64790625
0,0,Laos,,,2021-01-05 02:42:42.796463,2020-11-12 00:00:00.000000,0.00027327,0.00051712,0.00126708,19,37,92,8,17,47,0.00011445,0.00024516,0.00064912,0.30709191,0.46690954,0.71043867
0,0,Laos,,,2021-01-05 02:42:42.796463,2020-11-13 00:00:00.000000,0.00030376,0.00059405,0.00140890,22,43,102,9,20,53,0.00012945,0.00028858,0.00073611,0.30705862,0.48345051,0.77101247
0,0,Laos,,,2021-01-05 02:42:42.796463,2020-11-14 00:00:00.000000,0.00032743,0.00069710,0.00156411,23,50,113,10,24,63,0.00014583,0.00033402,0.00087154,0.30692880,0.50149843,0.80948425
0,0,Laos,,,2021-01-05 02:42:42.796463,2020-11-15 00:00:00.000000,0.00035247,0.00079070,0.00173217,25,57,126,12,27,74,0.00016627,0.00038317,0.00102368,0.30647623,0.50348497,0.82795094
0,0,Laos,,,2021-01-05 02:42:42.796463,2020-11-16 00:00:00.000000,0.00050769,0.00095696,0.00203586,36,69,148,13,31,84,0.00018967,0.00043460,0.00116601,0.30514744,0.50752788,0.83509090
0,0,Laos,,,2021-01-05 02:42:42.796463,2020-11-17 00:00:00.000000,0.00066046,0.00111364,0.00238460,48,81,173,19,37,99,0.00026226,0.00050934,0.00136566,0.30264795,0.51974097,0.83759240
0,0,Laos,,,2021-01-05 02:42:42.796463,2020-11-18 00:00:00.000000,0.00081549,0.00129191,0.00278191,59,93,202,24,44,116,0.00033775,0.00061013,0.00160276,0.28733151,0.52102071,0.83807388
0,0,Laos,,,2021-01-05 02:42:42.796463,2020-11-19 00:00:00.000000,0.00097700,0.00150460,0.00322730,71,109,234,29,53,136,0.00040830,0.00073649,0.00187283,0.28432809,0.52164335,0.83700143
0,0,Laos,,,2021-01-05 02:42:42.796463,2020-11-20 00:00:00.000000,0.00114078,0.00174750,0.00372264,82,127,270,36,62,158,0.00049515,0.00085237,0.00217517,0.28114665,0.52188570,0.81515347
0,0,Laos,,,2021-01-05 02:42:42.796463,2020-11-21 00:00:00.000000,0.00130538,0.00197889,0.00426730,94,143,310,42,71,182,0.00058422,0.00097614,0.00251187,0.26676551,0.49894482,0.75737423
0,0,Laos,,,2021-01-05 02:42:42.796463,2020-11-22 00:00:00.000000,0.00146262,0.00222413,0.00485040,106,161,352,49,79,209,0.00067389,0.00109895,0.00288312,0.22232966,0.46220995,0.72556547
0,0,Laos,,,2021-01-05 02:42:42.796463,2020-11-23 00:00:00.000000,0.00147738,0.00232771,0.00516969,107,169,376,55,88,230,0.00076110,0.00122156,0.00317119,0.21292746,0.37356345,0.61520680
0,0,Laos,,,2021-01-05 02:42:42.796463,2020-11-24 00:00:00.000000,0.00145053,0.00234562,0.00517970,105,170,376,56,94,240,0.00077392,0.00129903,0.00330686,0.15426713,0.28690072,0.50902435
0,0,Laos,,,2021-01-05 02:42:42.796463,2020-11-25 00:00:00.000000,0.00135857,0.00220653,0.00507359,98,160,369,54,95,242,0.00075113,0.00131839,0.00333989,0.10861954,0.20656560,0.35632253
0,0,Laos,,,2021-01-05 02:42:42.796463,2020-11-26 00:00:00.000000,0.00125234,0.00203381,0.00488049,91,147,355,51,91,239,0.00071019,0.00125574,0.00329442,0.10415963,0.16231143,0.27256467
0,0,Laos,,,2021-01-05 02:42:42.796463,2020-11-27 00:00:00.000000,0.00114953,0.00187104,0.00464222,83,136,337,47,84,228,0.00065915,0.00115820,0.00314236,0.09948545,0.14745711,0.24934446
0,0,Laos,,,2021-01-05 02:42:42.796463,2020-11-28 00:00:00.000000,0.00103647,0.00171746,0.00424114,75,124,308,43,79,210,0.00060427,0.00109171,0.00288878,0.09920602,0.14312283,0.23300532
0,0,Laos,,,2021-01-05 02:42:42.796463,2020-11-29 00:00:00.000000,0.00093766,0.00158106,0.00384563,68,115,279,40,73,191,0.00054991,0.00101526,0.00263530,0.09870241,0.14058616,0.21560617
0,0,Laos,,,2021-01-05 02:42:42.796463,2020-11-30 00:00:00.000000,0.00084678,0.00142799,0.00347943,61,103,253,36,68,174,0.00049855,0.00093481,0.00239397,0.09835406,0.13962662,0.20813190
0,0,Laos,,,2021-01-05 02:42:42.796463,2020-12-01 00:00:00.000000,0.00076566,0.00130628,0.00314535,55,95,228,32,62,157,0.00045096,0.00085362,0.00216907,0.09824708,0.13799685,0.20742318
0,0,Laos,,,2021-01-05 02:42:42.796463,2020-12-02 00:00:00.000000,0.00069464,0.00119278,0.00284165,50,86,206,29,56,142,0.00040789,0.00077613,0.00196258,0.08926909,0.13603846,0.20036681
0,0,Laos,,,2021-01-05 02:42:42.796463,2020-12-03 00:00:00.000000,0.00063351,0.00109554,0.00256534,46,79,186,26,51,129,0.00036976,0.00070140,0.00177432,0.08573993,0.13449159,0.19928332
0,0,Laos,,,2021-01-05 02:42:42.796463,2020-12-04 00:00:00.000000,0.00058068,0.00100988,0.00231194,42,73,168,24,46,116,0.00033670,0.00063848,0.00160289,0.07825976,0.13068788,0.19328970
0,0,Laos,,,2021-01-05 02:42:42.796463,2020-12-05 00:00:00.000000,0.00053448,0.00092886,0.00207989,38,67,151,22,42,105,0.00030834,0.00058137,0.00144636,0.07533259,0.12773024,0.19110317
0,0,Laos,,,2021-01-05 02:42:42.796463,2020-12-06 00:00:00.000000,0.00048256,0.00086102,0.00186894,35,62,135,20,38,94,0.00028361,0.00053511,0.00130316,0.07484556,0.12661160,0.18840843
0,0,Laos,,,2021-01-05 02:42:42.796463,2020-12-07 00:00:00.000000,0.00042036,0.00077139,0.00167099,30,56,121,19,36,85,0.00026188,0.00049882,0.00117253,0.07478004,0.12496318,0.18492010
0,0,Laos,,,2021-01-05 02:42:42.796463,2020-12-08 00:00:00.000000,0.00037730,0.00068521,0.00149226,27,49,108,17,33,76,0.00023840,0.00045593,0.00105100,0.07479599,0.12156357,0.17973489
0,0,Laos,,,2021-01-05 02:42:42.796463,2020-12-09 00:00:00.000000,0.00033343,0.00060138,0.00133095,24,43,96,15,29,68,0.00021535,0.00040832,0.00093972,0.07251043,0.11970255,0.17206403
0,0,Laos,,,2021-01-05 02:42:42.796463,2020-12-10 00:00:00.000000,0.00028817,0.00053666,0.00118580,20,39,86,13,26,61,0.00019211,0.00036140,0.00083870,0.07181284,0.11806923,0.18727276
0,0,Laos,,,2021-01-05 02:42:42.796463,2020-12-11 00:00:00.000000,0.00025439,0.00047368,0.00105519,18,34,76,12,23,54,0.00017258,0.00032463,0.00074770,0.07272538,0.11800961,0.18994300
0,0,Laos,,,2021-01-05 02:42:42.796463,2020-12-12 00:00:00.000000,0.00023034,0.00041706,0.00093741,16,30,68,11,20,48,0.00015497,0.00028786,0.00066579,0.07533683,0.11835866,0.19119397
0,0,Laos,,,2021-01-05 02:42:42.796463,2020-12-13 00:00:00.000000,0.00020036,0.00037002,0.00083089,14,26,60,9,18,43,0.00013467,0.00025568,0.00059198,0.07588483,0.11639104,0.19382803
0,0,Laos,,,2021-01-05 02:42:42.796463,2020-12-14 00:00:00.000000,0.00017453,0.00032864,0.00074949,12,23,54,8,16,39,0.00011714,0.00022707,0.00054227,0.06888136,0.11520785,0.19733033
0,0,Laos,,,2021-01-05 02:42:42.796463,2020-12-15 00:00:00.000000,0.00015229,0.00029366,0.00069926,11,21,50,7,14,36,0.00010204,0.00020165,0.00050578,0.06586711,0.11399552,0.19751730
0,0,Laos,,,2021-01-05 02:42:42.796463,2020-12-16 00:00:00.000000,0.00013312,0.00026014,0.00065254,9,18,47,6,13,34,0.00008902,0.00017945,0.00047185,0.06535691,0.11404768,0.19661596
0,0,Laos,,,2021-01-05 02:42:42.796463,2020-12-17 00:00:00.000000,0.00011649,0.00023099,0.00060902,8,16,44,5,11,32,0.00007715,0.00016124,0.00044028,0.06456819,0.11426686,0.19544912
0,0,Laos,,,2021-01-05 02:42:42.796463,2020-12-18 00:00:00.000000,0.00010047,0.00020388,0.00056848,7,14,41,4,10,29,0.00006635,0.00014510,0.00041088,0.06344817,0.11338236,0.19581099
0,0,Laos,,,2021-01-05 02:42:42.796463,2020-12-19 00:00:00.000000,0.00008546,0.00017947,0.00053064,6,13,38,4,9,27,0.00005705,0.00012976,0.00038349,0.06214328,0.11262143,0.20152593
0,0,Laos,,,2021-01-05 02:42:42.796463,2020-12-20 00:00:00.000000,0.00007278,0.00015722,0.00049504,5,11,36,3,8,26,0.00004904,0.00011352,0.00035794,0.06094804,0.11285775,0.20463759
0,0,Laos,,,2021-01-05 02:42:42.796463,2020-12-21 00:00:00.000000,0.00006205,0.00013895,0.00046039,4,10,33,3,7,24,0.00004214,0.00009750,0.00033399,0.06010729,0.11320479,0.20640573
0,0,Laos,,,2021-01-05 02:42:42.796463,2020-12-22 00:00:00.000000,0.00005293,0.00012477,0.00042619,3,9,31,2,6,22,0.00003621,0.00008553,0.00031105,0.05981242,0.11260860,0.20714195
0,0,Laos,,,2021-01-05 02:42:42.796463,2020-12-23 00:00:00.000000,0.00004517,0.00010987,0.00039372,3,7,28,2,5,21,0.00003113,0.00007523,0.00028868,0.06078008,0.11281495,0.20777239
0,0,Laos,,,2021-01-05 02:42:42.796463,2020-12-24 00:00:00.000000,0.00003928,0.00009576,0.00036340,2,6,26,1,4,19,0.00002673,0.00006536,0.00026719,0.06531150,0.11340886,0.20812953
0,0,Laos,,,2021-01-05 02:42:42.796463,2020-12-25 00:00:00.000000,0.00003411,0.00008348,0.00033531,2,6,24,1,4,17,0.00002289,0.00005710,0.00024692,0.06610120,0.11472876,0.20860264
0,0,Laos,,,2021-01-05 02:42:42.796463,2020-12-26 00:00:00.000000,0.00002904,0.00007310,0.00030942,2,5,22,1,3,16,0.00001946,0.00005004,0.00022802,0.06513562,0.11564292,0.20854424
0,0,Laos,,,2021-01-05 02:42:42.796463,2020-12-27 00:00:00.000000,0.00002447,0.00006404,0.00028566,1,4,20,1,3,15,0.00001661,0.00004377,0.00021051,0.06468244,0.11309083,0.21407973
0,0,Laos,,,2021-01-05 02:42:42.796463,2020-12-28 00:00:00.000000,0.00002065,0.00005729,0.00026397,1,4,19,1,2,14,0.00001418,0.00003780,0.00019437,0.06465340,0.11056198,0.21668378
0,0,Laos,,,2021-01-05 02:42:42.796463,2020-12-29 00:00:00.000000,0.00001746,0.00005089,0.00024177,1,3,17,0,2,13,0.00001210,0.00003283,0.00017958,0.06433094,0.11072443,0.21725529
0,0,Laos,,,2021-01-05 02:42:42.796463,2020-12-30 00:00:00.000000,0.00001480,0.00004461,0.00022001,1,3,16,0,2,12,0.00001030,0.00003000,0.00016608,0.06415673,0.11311748,0.21707369
0,0,Laos,,,2021-01-05 02:42:42.796463,2020-12-31 00:00:00.000000,0.00001257,0.00003918,0.00020042,0,2,14,0,1,11,0.00000875,0.00002673,0.00015384,0.06399942,0.11254770,0.21630677
0,0,Laos,,,2021-01-05 02:42:42.796463,2021-01-01 00:00:00.000000,0.00001071,0.00003488,0.00018287,0,2,13,0,1,10,0.00000741,0.00002347,0.00014284,0.05882118,0.10987653,0.21451411
0,0,Laos,,,2021-01-05 02:42:42.796463,2021-01-02 00:00:00.000000,0.00000913,0.00003105,0.00016735,0,2,12,0,1,9,0.00000627,0.00002085,0.00013040,0.05301318,0.11253103,0.21122900
0,0,Laos,,,2021-01-05 02:42:42.796463,2021-01-03 00:00:00.000000,0.00000780,0.00002763,0.00015389,0,2,11,0,1,8,0.00000531,0.00001826,0.00011923,0.05206965,0.11550591,0.20714200
0,0,Laos,,,2021-01-05 02:42:42.796463,2021-01-04 00:00:00.000000,0.00000668,0.00002459,0.00014228,0,1,10,0,1,7,0.00000449,0.00001594,0.00010949,0.05120469,0.11319343,0.20396955
0,0,Laos,,,2021-01-05 02:42:42.796463,2021-01-05 00:00:00.000000,0.00000572,0.00002188,0.00013210,0,1,9,0,1,7,0.00000380,0.00001402,0.00010109,0.05013548,0.11358640,0.20229569
0,0,Laos,,,2021-01-05 02:42:42.796463,2021-01-06 00:00:00.000000,0.00000490,0.00001950,0.00012296,0,1,8,0,0,6,0.00000321,0.00001240,0.00009375,0.04993464,0.11516690,0.20262791
0,0,Laos,,,2021-01-05 02:42:42.796463,2021-01-07 00:00:00.000000,0.00000420,0.00001728,0.00011462,0,1,8,0,0,6,0.00000272,0.00001096,0.00008720,0.04989835,0.11593647,0.20332308
0,0,Laos,,,2021-01-05 02:42:42.796463,2021-01-08 00:00:00.000000,0.00000360,0.00001510,0.00010691,0,1,7,0,0,5,0.00000233,0.00000969,0.00008125,0.04989134,0.11606108,0.20377085
0,0,Laos,,,2021-01-05 02:42:42.796463,2021-01-09 00:00:00.000000,0.00000309,0.00001320,0.00009976,0,0,7,0,0,5,0.00000200,0.00000867,0.00007576,0.04988978,0.11613937,0.20405491
0,0,Laos,,,2021-01-05 02:42:42.796463,2021-01-10 00:00:00.000000,0.00000265,0.00001153,0.00009310,0,0,6,0,0,5,0.00000171,0.00000767,0.00007067,0.04988936,0.11618857,0.20423338
0,0,Laos,,,2021-01-05 02:42:42.796463,2021-01-11 00:00:00.000000,0.00000228,0.00001008,0.00008689,0,0,6,0,0,4,0.00000147,0.00000670,0.00006593,0.04988922,0.11621930,0.20434482
0,0,Laos,,,2021-01-05 02:42:42.796463,2021-01-12 00:00:00.000000,0.00000195,0.00000881,0.00008109,0,0,5,0,0,4,0.00000126,0.00000586,0.00006152,0.04988917,0.11623843,0.20441415
0,0,Laos,,,2021-01-05 02:42:42.796463,2021-01-13 00:00:00.000000,0.00000168,0.00000770,0.00007568,0,0,5,0,0,4,0.00000106,0.00000512,0.00005741,0.04988915,0.11625029,0.20445717
0,0,Laos,,,2021-01-05 02:42:42.796463,2021-01-14 00:00:00.000000,0.00000143,0.00000674,0.00007063,0,0,5,0,0,3,0.00000089,0.00000454,0.00005357,0.04988914,0.11625765,0.20448383
0,0,Laos,,,2021-01-05 02:42:42.796463,2021-01-15 00:00:00.000000,0.00000121,0.00000590,0.00006592,0,0,4,0,0,3,0.00000075,0.00000404,0.00004999,0.04988914,0.11626219,0.20450034
0,0,Laos,,,2021-01-05 02:42:42.796463,2021-01-16 00:00:00.000000,0.00000103,0.00000522,0.00006152,0,0,4,0,0,3,0.00000063,0.00000359,0.00004665,0.04988914,0.11626501,0.20451056
0,0,Laos,,,2021-01-05 02:42:42.796463,2021-01-17 00:00:00.000000,0.00000087,0.00000463,0.00005742,0,0,4,0,0,3,0.00000053,0.00000319,0.00004354,0.04988914,0.11626675,0.20451687
0,0,Laos,,,2021-01-05 02:42:42.796463,2021-01-18 00:00:00.000000,0.00000074,0.00000410,0.00005359,0,0,3,0,0,2,0.00000045,0.00000283,0.00004063,0.04988914,0.11626782,0.20452078
