FIPS,HR_UID,nameid,province,region,analysisTime,dates,pointprevalence_025,pointprevalence_50,pointprevalence_975,pointinfections_025,pointinfections_50,pointinfections_975,pointinfectious_025,pointinfectious_50,pointinfectious_975,pointinfectiousprevalence_05,pointinfectiousprevalence_50,pointinfectiousprevalence_95,infectrate_025,infectrate_50,infectrate_975
24003,0,USMarylandAnneArundel,Maryland,Anne Arundel,2021-01-05 20:17:48.202926,2020-03-09 00:00:00.000000,0.00325140,0.00630065,0.01136897,18,36,65,6,15,28,0.00110404,0.00264993,0.00485891,0.68617359,0.87023446,1.17516904
24003,0,USMarylandAnneArundel,Maryland,Anne Arundel,2021-01-05 20:17:48.202926,2020-03-10 00:00:00.000000,0.00416416,0.00783514,0.01341632,24,45,77,9,18,33,0.00156711,0.00327175,0.00570945,0.68612828,0.87024237,1.17516293
24003,0,USMarylandAnneArundel,Maryland,Anne Arundel,2021-01-05 20:17:48.202926,2020-03-11 00:00:00.000000,0.00514967,0.00978665,0.01584765,29,56,91,12,23,40,0.00213009,0.00401943,0.00692864,0.68607309,0.87025572,1.17515102
24003,0,USMarylandAnneArundel,Maryland,Anne Arundel,2021-01-05 20:17:48.202926,2020-03-12 00:00:00.000000,0.00631728,0.01202336,0.01871335,36,69,108,15,28,48,0.00264508,0.00498551,0.00838185,0.68601667,0.87027793,1.17512712
24003,0,USMarylandAnneArundel,Maryland,Anne Arundel,2021-01-05 20:17:48.202926,2020-03-13 00:00:00.000000,0.00771256,0.01473036,0.02229273,44,85,129,18,35,58,0.00325630,0.00618797,0.01008996,0.68599815,0.87031390,1.17507764
24003,0,USMarylandAnneArundel,Maryland,Anne Arundel,2021-01-05 20:17:48.202926,2020-03-14 00:00:00.000000,0.00938474,0.01760854,0.02660019,54,101,154,23,43,70,0.00399018,0.00749136,0.01208748,0.68616106,0.87036890,1.17497153
24003,0,USMarylandAnneArundel,Maryland,Anne Arundel,2021-01-05 20:17:48.202926,2020-03-15 00:00:00.000000,0.01139084,0.02107255,0.03177959,65,122,184,28,51,83,0.00487166,0.00893211,0.01441984,0.68699641,0.87044179,1.17473566
24003,0,USMarylandAnneArundel,Maryland,Anne Arundel,2021-01-05 20:17:48.202926,2020-03-16 00:00:00.000000,0.01380578,0.02479158,0.03771567,79,143,218,34,62,100,0.00593010,0.01083960,0.01729746,0.68803821,0.87049784,1.17419363
24003,0,USMarylandAnneArundel,Maryland,Anne Arundel,2021-01-05 20:17:48.202926,2020-03-17 00:00:00.000000,0.01751295,0.02901869,0.04461481,101,168,258,42,74,120,0.00732485,0.01281164,0.02073492,0.66889551,0.87037309,1.17291358
24003,0,USMarylandAnneArundel,Maryland,Anne Arundel,2021-01-05 20:17:48.202926,2020-03-18 00:00:00.000000,0.02224711,0.03451271,0.05284202,128,199,306,54,87,143,0.00941557,0.01508995,0.02482880,0.67601567,0.86904724,1.16984045
24003,0,USMarylandAnneArundel,Maryland,Anne Arundel,2021-01-05 20:17:48.202926,2020-03-19 00:00:00.000000,0.02629077,0.04136838,0.06282363,152,239,363,66,104,171,0.01140019,0.01809138,0.02966930,0.67467121,0.86627008,1.16249239
24003,0,USMarylandAnneArundel,Maryland,Anne Arundel,2021-01-05 20:17:48.202926,2020-03-20 00:00:00.000000,0.03098357,0.04955676,0.07472049,179,287,432,80,125,204,0.01391568,0.02161079,0.03538052,0.64570919,0.86917658,1.15464564
24003,0,USMarylandAnneArundel,Maryland,Anne Arundel,2021-01-05 20:17:48.202926,2020-03-21 00:00:00.000000,0.03639329,0.05917770,0.08882545,210,342,514,98,150,246,0.01705583,0.02598211,0.04257775,0.60974424,0.86096683,1.15481777
24003,0,USMarylandAnneArundel,Maryland,Anne Arundel,2021-01-05 20:17:48.202926,2020-03-22 00:00:00.000000,0.04402575,0.07017586,0.10552562,255,406,611,117,178,293,0.02020786,0.03077915,0.05071211,0.58436612,0.85718261,1.15650624
24003,0,USMarylandAnneArundel,Maryland,Anne Arundel,2021-01-05 20:17:48.202926,2020-03-23 00:00:00.000000,0.05383804,0.08154777,0.12450211,311,472,721,140,210,344,0.02421422,0.03641403,0.05951747,0.57265883,0.84897256,1.16361916
24003,0,USMarylandAnneArundel,Maryland,Anne Arundel,2021-01-05 20:17:48.202926,2020-03-24 00:00:00.000000,0.06448703,0.09531173,0.14751544,373,552,854,167,251,408,0.02883131,0.04338973,0.07046945,0.56826275,0.83777796,1.18028302
24003,0,USMarylandAnneArundel,Maryland,Anne Arundel,2021-01-05 20:17:48.202926,2020-03-25 00:00:00.000000,0.07479237,0.11154409,0.17385886,433,646,1007,195,299,482,0.03373006,0.05166059,0.08335320,0.56664194,0.83645314,1.15946729
24003,0,USMarylandAnneArundel,Maryland,Anne Arundel,2021-01-05 20:17:48.202926,2020-03-26 00:00:00.000000,0.08666737,0.12913638,0.20545274,502,748,1190,226,350,570,0.03913279,0.06042578,0.09855815,0.56577085,0.81814980,1.14055860
24003,0,USMarylandAnneArundel,Maryland,Anne Arundel,2021-01-05 20:17:48.202926,2020-03-27 00:00:00.000000,0.10185558,0.14850462,0.24220546,589,860,1402,261,408,674,0.04511467,0.07045353,0.11649842,0.56443229,0.79793081,1.11232395
24003,0,USMarylandAnneArundel,Maryland,Anne Arundel,2021-01-05 20:17:48.202926,2020-03-28 00:00:00.000000,0.11949883,0.17256146,0.28404835,692,999,1645,300,475,796,0.05190064,0.08216576,0.13750188,0.54102007,0.76491380,0.99850567
24003,0,USMarylandAnneArundel,Maryland,Anne Arundel,2021-01-05 20:17:48.202926,2020-03-29 00:00:00.000000,0.13512061,0.19830255,0.32541410,782,1148,1884,351,558,938,0.06064912,0.09634366,0.16194654,0.52064528,0.71570735,0.91715006
24003,0,USMarylandAnneArundel,Maryland,Anne Arundel,2021-01-05 20:17:48.202926,2020-03-30 00:00:00.000000,0.15411041,0.22488281,0.36730591,892,1302,2127,407,637,1089,0.07036557,0.11011740,0.18801348,0.50260388,0.66286525,0.88754327
24003,0,USMarylandAnneArundel,Maryland,Anne Arundel,2021-01-05 20:17:48.202926,2020-03-31 00:00:00.000000,0.17680384,0.25628020,0.41547958,1024,1484,2406,464,737,1244,0.08017323,0.12735230,0.21492554,0.45998820,0.62975348,0.87952953
24003,0,USMarylandAnneArundel,Maryland,Anne Arundel,2021-01-05 20:17:48.202926,2020-04-01 00:00:00.000000,0.19959174,0.29104615,0.45967376,1156,1685,2662,539,841,1419,0.09311589,0.14527931,0.24512999,0.43531395,0.60315433,0.84228550
24003,0,USMarylandAnneArundel,Maryland,Anne Arundel,2021-01-05 20:17:48.202926,2020-04-02 00:00:00.000000,0.21894363,0.32459240,0.51873555,1268,1880,3004,630,951,1634,0.10880872,0.16430960,0.28218626,0.40770332,0.57882751,0.83815027
24003,0,USMarylandAnneArundel,Maryland,Anne Arundel,2021-01-05 20:17:48.202926,2020-04-03 00:00:00.000000,0.25261335,0.36384701,0.56837583,1463,2107,3292,724,1065,1830,0.12499762,0.18399761,0.31594797,0.38087747,0.55316174,0.81813861
24003,0,USMarylandAnneArundel,Maryland,Anne Arundel,2021-01-05 20:17:48.202926,2020-04-04 00:00:00.000000,0.27674646,0.40714121,0.62104063,1603,2358,3597,814,1215,2021,0.14058720,0.20982925,0.34898478,0.37667145,0.51177241,0.77111608
24003,0,USMarylandAnneArundel,Maryland,Anne Arundel,2021-01-05 20:17:48.202926,2020-04-05 00:00:00.000000,0.30110510,0.44415435,0.67459555,1744,2572,3907,910,1358,2207,0.15719279,0.23460612,0.38114749,0.34241812,0.47189081,0.72331769
24003,0,USMarylandAnneArundel,Maryland,Anne Arundel,2021-01-05 20:17:48.202926,2020-04-06 00:00:00.000000,0.32847239,0.47728181,0.73316924,1902,2764,4246,1017,1482,2395,0.17565722,0.25600128,0.41355196,0.32045800,0.44267091,0.64380466
24003,0,USMarylandAnneArundel,Maryland,Anne Arundel,2021-01-05 20:17:48.202926,2020-04-07 00:00:00.000000,0.36627741,0.51186064,0.78839188,2121,2964,4566,1097,1600,2649,0.18938947,0.27637888,0.45747072,0.29284094,0.42432417,0.58263807
24003,0,USMarylandAnneArundel,Maryland,Anne Arundel,2021-01-05 20:17:48.202926,2020-04-08 00:00:00.000000,0.39327479,0.54338615,0.84099403,2277,3147,4871,1171,1746,2935,0.20232116,0.30148069,0.50672593,0.28992634,0.39805912,0.49857743
24003,0,USMarylandAnneArundel,Maryland,Anne Arundel,2021-01-05 20:17:48.202926,2020-04-09 00:00:00.000000,0.41505702,0.57098223,0.89200638,2404,3307,5166,1248,1887,3169,0.21553322,0.32578282,0.54720353,0.27086867,0.35938631,0.48398297
24003,0,USMarylandAnneArundel,Maryland,Anne Arundel,2021-01-05 20:17:48.202926,2020-04-10 00:00:00.000000,0.42677076,0.60185266,0.93951732,2472,3486,5442,1314,2032,3398,0.22693303,0.35091569,0.58665462,0.24218579,0.33751744,0.47625919
24003,0,USMarylandAnneArundel,Maryland,Anne Arundel,2021-01-05 20:17:48.202926,2020-04-11 00:00:00.000000,0.43943357,0.62603502,0.99151385,2545,3626,5743,1373,2141,3617,0.23709280,0.36972572,0.62457174,0.22831582,0.31700886,0.43828619
24003,0,USMarylandAnneArundel,Maryland,Anne Arundel,2021-01-05 20:17:48.202926,2020-04-12 00:00:00.000000,0.45173997,0.64694439,1.02723926,2616,3747,5950,1448,2248,3788,0.25008431,0.38824921,0.65403885,0.22227704,0.29228314,0.41785896
24003,0,USMarylandAnneArundel,Maryland,Anne Arundel,2021-01-05 20:17:48.202926,2020-04-13 00:00:00.000000,0.46367344,0.66803617,1.06647802,2685,3869,6177,1520,2344,3887,0.26254800,0.40471816,0.67112227,0.21941013,0.28081670,0.39333392
24003,0,USMarylandAnneArundel,Maryland,Anne Arundel,2021-01-05 20:17:48.202926,2020-04-14 00:00:00.000000,0.47577159,0.68995150,1.10130450,2755,3996,6379,1591,2432,4043,0.27473567,0.41992061,0.69803373,0.21547653,0.28024672,0.38012925
24003,0,USMarylandAnneArundel,Maryland,Anne Arundel,2021-01-05 20:17:48.202926,2020-04-15 00:00:00.000000,0.48798072,0.70993094,1.13209590,2826,4112,6557,1641,2512,4235,0.28332776,0.43370183,0.73115925,0.20096295,0.26820137,0.37949714
24003,0,USMarylandAnneArundel,Maryland,Anne Arundel,2021-01-05 20:17:48.202926,2020-04-16 00:00:00.000000,0.50036349,0.72581615,1.15963285,2898,4204,6716,1683,2582,4339,0.29063176,0.44582776,0.74924287,0.19522855,0.25842422,0.36971158
24003,0,USMarylandAnneArundel,Maryland,Anne Arundel,2021-01-05 20:17:48.202926,2020-04-17 00:00:00.000000,0.51291979,0.73796980,1.18488154,2971,4274,6863,1723,2624,4413,0.29755309,0.45314418,0.76197311,0.19321127,0.25225861,0.35969445
24003,0,USMarylandAnneArundel,Maryland,Anne Arundel,2021-01-05 20:17:48.202926,2020-04-18 00:00:00.000000,0.52532448,0.74991510,1.20864963,3042,4343,7000,1762,2694,4477,0.30423897,0.46515280,0.77303977,0.18357576,0.24804693,0.34619290
24003,0,USMarylandAnneArundel,Maryland,Anne Arundel,2021-01-05 20:17:48.202926,2020-04-19 00:00:00.000000,0.53584876,0.76588190,1.22248619,3103,4436,7081,1790,2766,4575,0.30913020,0.47767583,0.78995474,0.18214936,0.24354470,0.34402837
24003,0,USMarylandAnneArundel,Maryland,Anne Arundel,2021-01-05 20:17:48.202926,2020-04-20 00:00:00.000000,0.54388442,0.77889738,1.23747134,3150,4511,7167,1817,2835,4669,0.31374639,0.48950077,0.80612532,0.18072051,0.24045733,0.34483101
24003,0,USMarylandAnneArundel,Maryland,Anne Arundel,2021-01-05 20:17:48.202926,2020-04-21 00:00:00.000000,0.55155968,0.78944841,1.25270906,3194,4572,7256,1843,2897,4752,0.31828129,0.50015052,0.82043999,0.17922730,0.23623943,0.34488440
24003,0,USMarylandAnneArundel,Maryland,Anne Arundel,2021-01-05 20:17:48.202926,2020-04-22 00:00:00.000000,0.55888538,0.79834265,1.26902787,3237,4624,7350,1869,2944,4827,0.32279109,0.50828231,0.83335763,0.18051402,0.23088236,0.33848548
24003,0,USMarylandAnneArundel,Maryland,Anne Arundel,2021-01-05 20:17:48.202926,2020-04-23 00:00:00.000000,0.56542388,0.80602807,1.28559480,3275,4668,7446,1895,2984,4937,0.32728952,0.51525549,0.85245793,0.17541231,0.22919817,0.33813799
24003,0,USMarylandAnneArundel,Maryland,Anne Arundel,2021-01-05 20:17:48.202926,2020-04-24 00:00:00.000000,0.57084903,0.81861125,1.30311103,3306,4741,7548,1920,3022,4994,0.33163963,0.52187839,0.86230596,0.17413868,0.22910499,0.34410486
24003,0,USMarylandAnneArundel,Maryland,Anne Arundel,2021-01-05 20:17:48.202926,2020-04-25 00:00:00.000000,0.57521076,0.82576331,1.32254624,3331,4783,7660,1942,3058,5034,0.33542546,0.52804909,0.86923558,0.16914857,0.22678257,0.33526039
24003,0,USMarylandAnneArundel,Maryland,Anne Arundel,2021-01-05 20:17:48.202926,2020-04-26 00:00:00.000000,0.57887337,0.82684708,1.34398770,3353,4789,7784,1972,3092,5107,0.34054558,0.53384730,0.88179828,0.16517876,0.22421719,0.32886000
24003,0,USMarylandAnneArundel,Maryland,Anne Arundel,2021-01-05 20:17:48.202926,2020-04-27 00:00:00.000000,0.58248284,0.82910839,1.36221570,3373,4802,7890,2005,3125,5185,0.34618102,0.53964968,0.89530064,0.16328225,0.22382118,0.32542122
24003,0,USMarylandAnneArundel,Maryland,Anne Arundel,2021-01-05 20:17:48.202926,2020-04-28 00:00:00.000000,0.58615020,0.83338167,1.38395500,3395,4827,8016,2027,3148,5269,0.35000304,0.54362182,0.90972923,0.15897084,0.21985403,0.32043979
24003,0,USMarylandAnneArundel,Maryland,Anne Arundel,2021-01-05 20:17:48.202926,2020-04-29 00:00:00.000000,0.59040531,0.84762253,1.40367707,3419,4909,8130,2030,3156,5341,0.35061130,0.54499949,0.92210467,0.15724595,0.21639781,0.31321324
24003,0,USMarylandAnneArundel,Maryland,Anne Arundel,2021-01-05 20:17:48.202926,2020-04-30 00:00:00.000000,0.59678480,0.85690182,1.42150137,3456,4963,8233,2060,3164,5363,0.35579773,0.54626149,0.92590713,0.15755642,0.21565068,0.30635371
24003,0,USMarylandAnneArundel,Maryland,Anne Arundel,2021-01-05 20:17:48.202926,2020-05-01 00:00:00.000000,0.60368502,0.85755914,1.43775466,3496,4967,8327,2083,3219,5376,0.35977952,0.55579678,0.92826761,0.16182376,0.21800822,0.30456608
24003,0,USMarylandAnneArundel,Maryland,Anne Arundel,2021-01-05 20:17:48.202926,2020-05-02 00:00:00.000000,0.61037327,0.86692089,1.45280110,3535,5021,8415,2101,3241,5382,0.36275238,0.55963578,0.92929930,0.16215255,0.21714801,0.30078186
24003,0,USMarylandAnneArundel,Maryland,Anne Arundel,2021-01-05 20:17:48.202926,2020-05-03 00:00:00.000000,0.61687299,0.87849342,1.46689567,3573,5088,8496,2118,3264,5438,0.36566813,0.56357347,0.93884065,0.16209574,0.21376382,0.29825199
24003,0,USMarylandAnneArundel,Maryland,Anne Arundel,2021-01-05 20:17:48.202926,2020-05-04 00:00:00.000000,0.62062219,0.88523163,1.47877401,3594,5127,8565,2134,3281,5500,0.36850170,0.56648033,0.94955103,0.15839344,0.21372490,0.29962766
24003,0,USMarylandAnneArundel,Maryland,Anne Arundel,2021-01-05 20:17:48.202926,2020-05-05 00:00:00.000000,0.62704257,0.88981730,1.48349908,3632,5154,8592,2149,3318,5556,0.37105722,0.57292156,0.95928892,0.15695090,0.21249660,0.30313243
24003,0,USMarylandAnneArundel,Maryland,Anne Arundel,2021-01-05 20:17:48.202926,2020-05-06 00:00:00.000000,0.63328406,0.89446468,1.48072986,3668,5181,8576,2156,3346,5599,0.37234363,0.57766571,0.96676911,0.15384195,0.21376975,0.30413641
24003,0,USMarylandAnneArundel,Maryland,Anne Arundel,2021-01-05 20:17:48.202926,2020-05-07 00:00:00.000000,0.63894305,0.89905040,1.47549575,3700,5207,8546,2152,3374,5624,0.37159406,0.58251932,0.97105948,0.14953624,0.21359948,0.30436151
24003,0,USMarylandAnneArundel,Maryland,Anne Arundel,2021-01-05 20:17:48.202926,2020-05-08 00:00:00.000000,0.63932220,0.90215832,1.46948197,3703,5225,8511,2139,3403,5634,0.36944334,0.58750363,0.97270441,0.14530099,0.21037951,0.30434548
24003,0,USMarylandAnneArundel,Maryland,Anne Arundel,2021-01-05 20:17:48.202926,2020-05-09 00:00:00.000000,0.63574753,0.90459496,1.46309575,3682,5239,8474,2124,3410,5632,0.36681067,0.58881737,0.97246586,0.14299585,0.20566312,0.30411486
24003,0,USMarylandAnneArundel,Maryland,Anne Arundel,2021-01-05 20:17:48.202926,2020-05-10 00:00:00.000000,0.63480978,0.90728024,1.45650409,3677,5255,8436,2111,3416,5676,0.36450247,0.58975461,0.97992651,0.14160682,0.20506341,0.29767689
24003,0,USMarylandAnneArundel,Maryland,Anne Arundel,2021-01-05 20:17:48.202926,2020-05-11 00:00:00.000000,0.63645890,0.91004010,1.44991572,3686,5271,8398,2103,3439,5755,0.36313889,0.59388401,0.99366244,0.14111916,0.20303328,0.29728423
24003,0,USMarylandAnneArundel,Maryland,Anne Arundel,2021-01-05 20:17:48.202926,2020-05-12 00:00:00.000000,0.63727657,0.91717423,1.44335718,3691,5312,8360,2102,3459,5831,0.36299812,0.59723999,1.00672013,0.14108704,0.20033995,0.29935631
24003,0,USMarylandAnneArundel,Maryland,Anne Arundel,2021-01-05 20:17:48.202926,2020-05-13 00:00:00.000000,0.63310489,0.91912174,1.43702778,3667,5323,8323,2108,3472,5898,0.36402078,0.59955203,1.01832368,0.14156512,0.19974350,0.30008589
24003,0,USMarylandAnneArundel,Maryland,Anne Arundel,2021-01-05 20:17:48.202926,2020-05-14 00:00:00.000000,0.62882888,0.91167068,1.43131117,3642,5280,8290,2119,3462,5954,0.36595132,0.59772172,1.02792338,0.14274896,0.19750392,0.30031949
24003,0,USMarylandAnneArundel,Maryland,Anne Arundel,2021-01-05 20:17:48.202926,2020-05-15 00:00:00.000000,0.62465480,0.90421341,1.42695453,3618,5237,8265,2134,3444,5997,0.36845962,0.59474137,1.03549554,0.14199799,0.19791815,0.30038806
24003,0,USMarylandAnneArundel,Maryland,Anne Arundel,2021-01-05 20:17:48.202926,2020-05-16 00:00:00.000000,0.62076652,0.89790623,1.42893306,3595,5200,8276,2147,3446,6031,0.37082888,0.59501398,1.04132418,0.14131602,0.19958024,0.30032412
24003,0,USMarylandAnneArundel,Maryland,Anne Arundel,2021-01-05 20:17:48.202926,2020-05-17 00:00:00.000000,0.61729981,0.89542911,1.43444175,3575,5186,8308,2154,3428,6056,0.37193366,0.59196893,1.04567531,0.13819639,0.20063170,0.29812078
24003,0,USMarylandAnneArundel,Maryland,Anne Arundel,2021-01-05 20:17:48.202926,2020-05-18 00:00:00.000000,0.61433209,0.90476055,1.43661041,3558,5240,8321,2154,3413,6074,0.37201056,0.58924185,1.04870399,0.13809514,0.20430322,0.29784201
24003,0,USMarylandAnneArundel,Maryland,Anne Arundel,2021-01-05 20:17:48.202926,2020-05-19 00:00:00.000000,0.61269397,0.91281601,1.44605103,3548,5287,8376,2151,3422,6085,0.37138116,0.59091734,1.05053159,0.13830308,0.20625276,0.29789355
24003,0,USMarylandAnneArundel,Maryland,Anne Arundel,2021-01-05 20:17:48.202926,2020-05-20 00:00:00.000000,0.61911596,0.91588303,1.45983959,3586,5305,8455,2145,3433,6090,0.37037304,0.59273451,1.05141707,0.13872986,0.20424923,0.29789247
24003,0,USMarylandAnneArundel,Maryland,Anne Arundel,2021-01-05 20:17:48.202926,2020-05-21 00:00:00.000000,0.62518254,0.92017313,1.47498622,3621,5329,8543,2138,3445,6091,0.36915478,0.59485943,1.05164322,0.13926026,0.20447426,0.29785517
24003,0,USMarylandAnneArundel,Maryland,Anne Arundel,2021-01-05 20:17:48.202926,2020-05-22 00:00:00.000000,0.63054122,0.92592240,1.49078267,3652,5363,8635,2130,3466,6090,0.36780905,0.59852903,1.05146555,0.13993034,0.20508870,0.29775587
24003,0,USMarylandAnneArundel,Maryland,Anne Arundel,2021-01-05 20:17:48.202926,2020-05-23 00:00:00.000000,0.63502541,0.92173172,1.50687779,3678,5338,8728,2122,3463,6088,0.36637672,0.59787148,1.05110878,0.14047558,0.20089234,0.30031201
24003,0,USMarylandAnneArundel,Maryland,Anne Arundel,2021-01-05 20:17:48.202926,2020-05-24 00:00:00.000000,0.63343467,0.91652659,1.52311214,3669,5308,8822,2113,3490,6086,0.36486897,0.60254516,1.05079407,0.14071602,0.19583345,0.29652931
24003,0,USMarylandAnneArundel,Maryland,Anne Arundel,2021-01-05 20:17:48.202926,2020-05-25 00:00:00.000000,0.63026021,0.91759177,1.53911952,3650,5315,8915,2098,3488,6086,0.36232583,0.60230225,1.05077636,0.14043659,0.19609432,0.29474692
24003,0,USMarylandAnneArundel,Maryland,Anne Arundel,2021-01-05 20:17:48.202926,2020-05-26 00:00:00.000000,0.62695610,0.90761287,1.53653190,3631,5257,8900,2084,3487,6089,0.35989516,0.60204053,1.05129521,0.13979504,0.19403761,0.29417204
24003,0,USMarylandAnneArundel,Maryland,Anne Arundel,2021-01-05 20:17:48.202926,2020-05-27 00:00:00.000000,0.62361007,0.90080264,1.52862692,3612,5217,8854,2072,3483,6081,0.35786797,0.60148182,1.05000366,0.13209070,0.19076321,0.28836103
24003,0,USMarylandAnneArundel,Maryland,Anne Arundel,2021-01-05 20:17:48.202926,2020-05-28 00:00:00.000000,0.62022693,0.90010563,1.51998829,3592,5213,8804,2065,3477,6053,0.35658889,0.60031204,1.04512620,0.13545240,0.18937376,0.28627444
24003,0,USMarylandAnneArundel,Maryland,Anne Arundel,2021-01-05 20:17:48.202926,2020-05-29 00:00:00.000000,0.61522485,0.89704534,1.51093591,3563,5195,8751,2053,3467,6023,0.35450238,0.59863803,1.03994021,0.13197605,0.18831944,0.28615571
24003,0,USMarylandAnneArundel,Maryland,Anne Arundel,2021-01-05 20:17:48.202926,2020-05-30 00:00:00.000000,0.60507469,0.89034012,1.50148967,3504,5157,8697,2047,3440,6031,0.35354589,0.59402899,1.04129884,0.13175471,0.18628690,0.28578424
24003,0,USMarylandAnneArundel,Maryland,Anne Arundel,2021-01-05 20:17:48.202926,2020-05-31 00:00:00.000000,0.59578480,0.88553489,1.49162591,3450,5129,8640,2037,3416,6090,0.35179161,0.58987127,1.05146219,0.12551437,0.18142258,0.28462808
24003,0,USMarylandAnneArundel,Maryland,Anne Arundel,2021-01-05 20:17:48.202926,2020-06-01 00:00:00.000000,0.58320555,0.87661669,1.48098807,3378,5077,8578,2025,3404,6145,0.34964870,0.58768408,1.06104499,0.12360576,0.17809156,0.28108032
24003,0,USMarylandAnneArundel,Maryland,Anne Arundel,2021-01-05 20:17:48.202926,2020-06-02 00:00:00.000000,0.57040364,0.87323972,1.47532117,3303,5058,8545,2012,3386,6194,0.34744692,0.58460003,1.06941267,0.11869478,0.17251423,0.27109858
24003,0,USMarylandAnneArundel,Maryland,Anne Arundel,2021-01-05 20:17:48.202926,2020-06-03 00:00:00.000000,0.55756935,0.86257001,1.48285285,3229,4996,8589,1999,3360,6230,0.34511113,0.58015235,1.07569368,0.11803756,0.17128491,0.25282748
24003,0,USMarylandAnneArundel,Maryland,Anne Arundel,2021-01-05 20:17:48.202926,2020-06-04 00:00:00.000000,0.54488157,0.85104867,1.46687000,3156,4929,8496,1983,3321,6248,0.34245111,0.57337399,1.07877851,0.11844321,0.16967945,0.24184167
24003,0,USMarylandAnneArundel,Maryland,Anne Arundel,2021-01-05 20:17:48.202926,2020-06-05 00:00:00.000000,0.53241895,0.83682441,1.44909172,3083,4847,8393,1964,3283,6240,0.33910405,0.56681971,1.07738057,0.11552910,0.16964113,0.24430269
24003,0,USMarylandAnneArundel,Maryland,Anne Arundel,2021-01-05 20:17:48.202926,2020-06-06 00:00:00.000000,0.52016033,0.82348505,1.42937605,3012,4769,8279,1924,3254,6206,0.33216647,0.56178309,1.07150148,0.11211568,0.16713296,0.23342078
24003,0,USMarylandAnneArundel,Maryland,Anne Arundel,2021-01-05 20:17:48.202926,2020-06-07 00:00:00.000000,0.50811961,0.81080447,1.40790444,2943,4696,8155,1883,3223,6150,0.32520430,0.55649792,1.06177199,0.10936036,0.16181272,0.23332510
24003,0,USMarylandAnneArundel,Maryland,Anne Arundel,2021-01-05 20:17:48.202926,2020-06-08 00:00:00.000000,0.49626431,0.79814443,1.38495466,2874,4623,8022,1846,3174,6076,0.31881595,0.54799367,1.04903867,0.10803272,0.15937579,0.23314385
24003,0,USMarylandAnneArundel,Maryland,Anne Arundel,2021-01-05 20:17:48.202926,2020-06-09 00:00:00.000000,0.48462257,0.78482683,1.36123986,2807,4545,7884,1811,3117,5990,0.31272874,0.53813921,1.03417690,0.10664867,0.15699352,0.23290722
24003,0,USMarylandAnneArundel,Maryland,Anne Arundel,2021-01-05 20:17:48.202926,2020-06-10 00:00:00.000000,0.47346482,0.76854387,1.33716824,2742,4451,7745,1777,3069,5895,0.30686066,0.53000230,1.01785279,0.10711921,0.15539934,0.23547665
24003,0,USMarylandAnneArundel,Maryland,Anne Arundel,2021-01-05 20:17:48.202926,2020-06-11 00:00:00.000000,0.46477307,0.75448771,1.31298238,2692,4370,7605,1744,3020,5795,0.30116193,0.52145511,1.00056785,0.10616112,0.15241399,0.23450828
24003,0,USMarylandAnneArundel,Maryland,Anne Arundel,2021-01-05 20:17:48.202926,2020-06-12 00:00:00.000000,0.45624295,0.73954935,1.28875091,2642,4283,7464,1712,2972,5691,0.29560212,0.51323226,0.98264018,0.10341815,0.14615993,0.23089413
24003,0,USMarylandAnneArundel,Maryland,Anne Arundel,2021-01-05 20:17:48.202926,2020-06-13 00:00:00.000000,0.44787130,0.72288042,1.26434748,2594,4187,7323,1677,2926,5583,0.28957832,0.50524034,0.96402283,0.10080705,0.14076454,0.22094257
24003,0,USMarylandAnneArundel,Maryland,Anne Arundel,2021-01-05 20:17:48.202926,2020-06-14 00:00:00.000000,0.43966551,0.70748851,1.23914809,2546,4098,7177,1625,2877,5466,0.28060653,0.49677999,0.94381071,0.09875728,0.13908278,0.22569721
24003,0,USMarylandAnneArundel,Maryland,Anne Arundel,2021-01-05 20:17:48.202926,2020-06-15 00:00:00.000000,0.43081549,0.69140689,1.21295903,2495,4004,7025,1569,2825,5335,0.27101818,0.48775434,0.92118258,0.09628531,0.13526327,0.22817760
24003,0,USMarylandAnneArundel,Maryland,Anne Arundel,2021-01-05 20:17:48.202926,2020-06-16 00:00:00.000000,0.41842873,0.67210087,1.18558047,2423,3893,6867,1512,2770,5193,0.26105790,0.47825847,0.89657706,0.09277908,0.13319225,0.22810913
24003,0,USMarylandAnneArundel,Maryland,Anne Arundel,2021-01-05 20:17:48.202926,2020-06-17 00:00:00.000000,0.40554091,0.65329250,1.15716336,2349,3784,6702,1454,2708,5043,0.25107118,0.46753646,0.87076662,0.08953456,0.13362742,0.22869127
24003,0,USMarylandAnneArundel,Maryland,Anne Arundel,2021-01-05 20:17:48.202926,2020-06-18 00:00:00.000000,0.39084276,0.63530951,1.12852554,2263,3679,6536,1397,2638,4890,0.24129866,0.45543961,0.84437297,0.08978112,0.13447471,0.22316361
24003,0,USMarylandAnneArundel,Maryland,Anne Arundel,2021-01-05 20:17:48.202926,2020-06-19 00:00:00.000000,0.37873784,0.61829852,1.10072763,2193,3581,6375,1343,2568,4737,0.23197990,0.44341994,0.81784998,0.09344946,0.13641114,0.22076819
24003,0,USMarylandAnneArundel,Maryland,Anne Arundel,2021-01-05 20:17:48.202926,2020-06-20 00:00:00.000000,0.36945819,0.60328257,1.07384088,2140,3494,6220,1293,2494,4584,0.22338922,0.43067005,0.79153500,0.09464699,0.13962628,0.22198322
24003,0,USMarylandAnneArundel,Maryland,Anne Arundel,2021-01-05 20:17:48.202926,2020-06-21 00:00:00.000000,0.35807260,0.59164779,1.03898043,2074,3427,6018,1249,2414,4435,0.21564177,0.41685708,0.76569890,0.09627817,0.14256399,0.22696105
24003,0,USMarylandAnneArundel,Maryland,Anne Arundel,2021-01-05 20:17:48.202926,2020-06-22 00:00:00.000000,0.34694369,0.57976230,1.00534274,2009,3358,5823,1208,2338,4289,0.20863528,0.40368988,0.74060179,0.09845113,0.14453204,0.23007927
24003,0,USMarylandAnneArundel,Maryland,Anne Arundel,2021-01-05 20:17:48.202926,2020-06-23 00:00:00.000000,0.33721835,0.56839766,0.97412799,1953,3292,5642,1175,2281,4150,0.20287764,0.39380959,0.71649627,0.09936229,0.14554936,0.23358878
24003,0,USMarylandAnneArundel,Maryland,Anne Arundel,2021-01-05 20:17:48.202926,2020-06-24 00:00:00.000000,0.32951824,0.55571550,0.94491409,1908,3218,5473,1148,2227,4017,0.19829651,0.38462233,0.69357996,0.10044976,0.14746248,0.23902934
24003,0,USMarylandAnneArundel,Maryland,Anne Arundel,2021-01-05 20:17:48.202926,2020-06-25 00:00:00.000000,0.32358722,0.54307330,0.91731036,1874,3145,5313,1120,2177,3891,0.19337772,0.37598607,0.67188679,0.10048510,0.15133840,0.24940222
24003,0,USMarylandAnneArundel,Maryland,Anne Arundel,2021-01-05 20:17:48.202926,2020-06-26 00:00:00.000000,0.31801936,0.53167952,0.89150172,1842,3079,5163,1093,2130,3772,0.18885522,0.36776960,0.65134976,0.10061116,0.15769494,0.26954063
24003,0,USMarylandAnneArundel,Maryland,Anne Arundel,2021-01-05 20:17:48.202926,2020-06-27 00:00:00.000000,0.31607077,0.52638636,0.86896056,1830,3049,5033,1075,2084,3660,0.18566011,0.35990355,0.63196852,0.10096147,0.16590341,0.28715646
24003,0,USMarylandAnneArundel,Maryland,Anne Arundel,2021-01-05 20:17:48.202926,2020-06-28 00:00:00.000000,0.31657547,0.52656134,0.85201944,1833,3050,4935,1064,2060,3556,0.18381348,0.35567249,0.61408109,0.10194535,0.17595919,0.28977010
24003,0,USMarylandAnneArundel,Maryland,Anne Arundel,2021-01-05 20:17:48.202926,2020-06-29 00:00:00.000000,0.31703409,0.52766331,0.84153577,1836,3056,4874,1055,2020,3466,0.18230685,0.34875014,0.59844533,0.11172033,0.18433102,0.29192359
24003,0,USMarylandAnneArundel,Maryland,Anne Arundel,2021-01-05 20:17:48.202926,2020-06-30 00:00:00.000000,0.31770344,0.51964780,0.83399556,1840,3009,4830,1048,1997,3394,0.18093283,0.34485545,0.58605933,0.11119932,0.19645285,0.29371450
24003,0,USMarylandAnneArundel,Maryland,Anne Arundel,2021-01-05 20:17:48.202926,2020-07-01 00:00:00.000000,0.31769179,0.51140906,0.82924928,1840,2962,4803,1049,1989,3350,0.18124499,0.34348155,0.57841469,0.11845436,0.20943126,0.30481787
24003,0,USMarylandAnneArundel,Maryland,Anne Arundel,2021-01-05 20:17:48.202926,2020-07-02 00:00:00.000000,0.31790409,0.50963907,0.82936571,1841,2952,4803,1052,1984,3307,0.18167325,0.34263794,0.57094186,0.13443748,0.21962943,0.31844202
24003,0,USMarylandAnneArundel,Maryland,Anne Arundel,2021-01-05 20:17:48.202926,2020-07-03 00:00:00.000000,0.31947251,0.51532930,0.83712297,1850,2984,4848,1055,1966,3292,0.18226647,0.33943323,0.56838077,0.14307883,0.22812576,0.32436625
24003,0,USMarylandAnneArundel,Maryland,Anne Arundel,2021-01-05 20:17:48.202926,2020-07-04 00:00:00.000000,0.32305467,0.52669179,0.85219119,1871,3050,4936,1060,1958,3282,0.18311724,0.33811890,0.56662720,0.15731648,0.24431290,0.35596910
24003,0,USMarylandAnneArundel,Maryland,Anne Arundel,2021-01-05 20:17:48.202926,2020-07-05 00:00:00.000000,0.32818956,0.53927546,0.86703734,1900,3123,5022,1067,1960,3276,0.18434427,0.33854660,0.56573144,0.16699145,0.25874479,0.37236048
24003,0,USMarylandAnneArundel,Maryland,Anne Arundel,2021-01-05 20:17:48.202926,2020-07-06 00:00:00.000000,0.33284062,0.55315342,0.87282840,1927,3204,5055,1063,1973,3299,0.18361571,0.34067710,0.56956380,0.17268330,0.27149159,0.37805636
24003,0,USMarylandAnneArundel,Maryland,Anne Arundel,2021-01-05 20:17:48.202926,2020-07-07 00:00:00.000000,0.33808323,0.56294346,0.87884251,1958,3260,5090,1075,2026,3348,0.18567685,0.34983403,0.57804898,0.17831989,0.27917838,0.40555138
24003,0,USMarylandAnneArundel,Maryland,Anne Arundel,2021-01-05 20:17:48.202926,2020-07-08 00:00:00.000000,0.34742944,0.57733246,0.90112522,2012,3344,5219,1103,2076,3409,0.19045415,0.35842402,0.58856120,0.18493126,0.28463675,0.41924119
24003,0,USMarylandAnneArundel,Maryland,Anne Arundel,2021-01-05 20:17:48.202926,2020-07-09 00:00:00.000000,0.36405108,0.59436625,0.93172938,2108,3442,5396,1129,2133,3479,0.19492370,0.36837957,0.60065569,0.19329118,0.29045240,0.43928869
24003,0,USMarylandAnneArundel,Maryland,Anne Arundel,2021-01-05 20:17:48.202926,2020-07-10 00:00:00.000000,0.38192654,0.61088718,0.96374004,2212,3538,5582,1164,2179,3556,0.20105190,0.37627248,0.61405437,0.19987669,0.29754426,0.44395078
24003,0,USMarylandAnneArundel,Maryland,Anne Arundel,2021-01-05 20:17:48.202926,2020-07-11 00:00:00.000000,0.40091230,0.63059882,0.98648420,2322,3652,5714,1212,2218,3656,0.20930664,0.38306574,0.63121581,0.20239296,0.30106300,0.45322326
24003,0,USMarylandAnneArundel,Maryland,Anne Arundel,2021-01-05 20:17:48.202926,2020-07-12 00:00:00.000000,0.42085228,0.65469173,1.01107307,2437,3792,5856,1270,2271,3782,0.21938604,0.39208331,0.65293344,0.20716397,0.30310275,0.46447806
24003,0,USMarylandAnneArundel,Maryland,Anne Arundel,2021-01-05 20:17:48.202926,2020-07-13 00:00:00.000000,0.44137212,0.67627967,1.03703679,2556,3917,6006,1332,2351,3917,0.23011689,0.40600618,0.67640898,0.20571727,0.30559725,0.46149542
24003,0,USMarylandAnneArundel,Maryland,Anne Arundel,2021-01-05 20:17:48.202926,2020-07-14 00:00:00.000000,0.45360757,0.69404606,1.06418640,2627,4020,6164,1397,2420,4055,0.24134399,0.41781801,0.70014224,0.20505478,0.30539185,0.44779358
24003,0,USMarylandAnneArundel,Maryland,Anne Arundel,2021-01-05 20:17:48.202926,2020-07-15 00:00:00.000000,0.46587550,0.71624122,1.09312748,2698,4148,6331,1465,2492,4123,0.25308524,0.43023840,0.71181621,0.20480306,0.30564456,0.42878605
24003,0,USMarylandAnneArundel,Maryland,Anne Arundel,2021-01-05 20:17:48.202926,2020-07-16 00:00:00.000000,0.47968385,0.73864493,1.12374657,2778,4278,6509,1531,2582,4194,0.26440358,0.44586386,0.72421842,0.20463966,0.30290658,0.41058134
24003,0,USMarylandAnneArundel,Maryland,Anne Arundel,2021-01-05 20:17:48.202926,2020-07-17 00:00:00.000000,0.49470928,0.75784564,1.15547040,2865,4389,6692,1599,2659,4302,0.27610265,0.45917039,0.74275365,0.20458063,0.29492657,0.40712853
24003,0,USMarylandAnneArundel,Maryland,Anne Arundel,2021-01-05 20:17:48.202926,2020-07-18 00:00:00.000000,0.51115456,0.78084067,1.18777545,2960,4522,6879,1669,2756,4435,0.28821269,0.47581476,0.76570196,0.20457747,0.28708266,0.41808344
24003,0,USMarylandAnneArundel,Maryland,Anne Arundel,2021-01-05 20:17:48.202926,2020-07-19 00:00:00.000000,0.53283097,0.79858507,1.22077359,3086,4625,7071,1738,2845,4567,0.30022081,0.49127907,0.78849322,0.20363855,0.28088205,0.42914007
24003,0,USMarylandAnneArundel,Maryland,Anne Arundel,2021-01-05 20:17:48.202926,2020-07-20 00:00:00.000000,0.55210668,0.81268959,1.25452883,3197,4707,7266,1769,2916,4695,0.30551893,0.50355140,0.81067547,0.20266230,0.27809384,0.42775350
24003,0,USMarylandAnneArundel,Maryland,Anne Arundel,2021-01-05 20:17:48.202926,2020-07-21 00:00:00.000000,0.56859269,0.82463567,1.27462733,3293,4776,7383,1796,3002,4820,0.31016183,0.51834775,0.83221005,0.20068690,0.27315690,0.38899474
24003,0,USMarylandAnneArundel,Maryland,Anne Arundel,2021-01-05 20:17:48.202926,2020-07-22 00:00:00.000000,0.57682726,0.84250318,1.30349570,3341,4880,7550,1825,3080,4916,0.31512784,0.53190668,0.84879110,0.19371673,0.26987124,0.37806496
24003,0,USMarylandAnneArundel,Maryland,Anne Arundel,2021-01-05 20:17:48.202926,2020-07-23 00:00:00.000000,0.58191062,0.85974670,1.33100115,3370,4979,7709,1871,3121,5030,0.32316098,0.53898109,0.86851107,0.18009516,0.25691965,0.37628958
24003,0,USMarylandAnneArundel,Maryland,Anne Arundel,2021-01-05 20:17:48.202926,2020-07-24 00:00:00.000000,0.58526511,0.86563438,1.35454371,3390,5014,7845,1918,3158,5135,0.33116599,0.54531418,0.88663468,0.17250673,0.24217006,0.36815972
24003,0,USMarylandAnneArundel,Maryland,Anne Arundel,2021-01-05 20:17:48.202926,2020-07-25 00:00:00.000000,0.58439595,0.87209232,1.37017660,3385,5051,7936,1963,3205,5233,0.33898982,0.55340374,0.90359523,0.16510537,0.23274862,0.35470150
24003,0,USMarylandAnneArundel,Maryland,Anne Arundel,2021-01-05 20:17:48.202926,2020-07-26 00:00:00.000000,0.58223944,0.87768144,1.37638348,3372,5083,7972,2005,3236,5328,0.34620189,0.55874954,0.91988403,0.15694789,0.21651452,0.34671542
24003,0,USMarylandAnneArundel,Maryland,Anne Arundel,2021-01-05 20:17:48.202926,2020-07-27 00:00:00.000000,0.58294491,0.87563236,1.37577499,3376,5071,7968,2041,3283,5420,0.35249087,0.56692205,0.93586774,0.15330449,0.20673343,0.33774593
24003,0,USMarylandAnneArundel,Maryland,Anne Arundel,2021-01-05 20:17:48.202926,2020-07-28 00:00:00.000000,0.58748567,0.87213514,1.37188886,3402,5051,7946,2069,3293,5485,0.35722525,0.56867080,0.94700388,0.14807225,0.20521261,0.30968191
24003,0,USMarylandAnneArundel,Maryland,Anne Arundel,2021-01-05 20:17:48.202926,2020-07-29 00:00:00.000000,0.59129130,0.87389262,1.37452143,3424,5061,7961,2061,3313,5505,0.35588356,0.57205406,0.95046981,0.14162207,0.19662065,0.30577578
24003,0,USMarylandAnneArundel,Maryland,Anne Arundel,2021-01-05 20:17:48.202926,2020-07-30 00:00:00.000000,0.59344548,0.86647625,1.39258257,3437,5018,8066,2051,3326,5509,0.35410403,0.57434977,0.95123466,0.13833386,0.18920772,0.28772964
24003,0,USMarylandAnneArundel,Maryland,Anne Arundel,2021-01-05 20:17:48.202926,2020-07-31 00:00:00.000000,0.59315962,0.86206607,1.41035182,3435,4993,8169,2039,3341,5502,0.35202873,0.57690661,0.95004751,0.13534397,0.18555387,0.27310763
24003,0,USMarylandAnneArundel,Maryland,Anne Arundel,2021-01-05 20:17:48.202926,2020-08-01 00:00:00.000000,0.59014166,0.85332867,1.42387332,3418,4942,8247,2025,3347,5487,0.34974785,0.57789334,0.94729065,0.13385131,0.17674593,0.26128968
24003,0,USMarylandAnneArundel,Maryland,Anne Arundel,2021-01-05 20:17:48.202926,2020-08-02 00:00:00.000000,0.58471905,0.84091661,1.41156122,3386,4870,8176,2011,3321,5518,0.34730438,0.57341810,0.95270001,0.12401959,0.17527121,0.25778278
24003,0,USMarylandAnneArundel,Maryland,Anne Arundel,2021-01-05 20:17:48.202926,2020-08-03 00:00:00.000000,0.57808859,0.83496956,1.38903668,3348,4836,8045,1996,3286,5543,0.34464831,0.56742784,0.95699550,0.12376237,0.17126683,0.25767044
24003,0,USMarylandAnneArundel,Maryland,Anne Arundel,2021-01-05 20:17:48.202926,2020-08-04 00:00:00.000000,0.57037794,0.82116845,1.36520420,3303,4756,7907,1978,3245,5526,0.34157942,0.56036173,0.95414810,0.12138497,0.16842849,0.25763542
24003,0,USMarylandAnneArundel,Maryland,Anne Arundel,2021-01-05 20:17:48.202926,2020-08-05 00:00:00.000000,0.56211208,0.80687606,1.34079752,3255,4673,7766,1958,3201,5488,0.33814338,0.55272103,0.94748559,0.12157796,0.16830041,0.25596880
24003,0,USMarylandAnneArundel,Maryland,Anne Arundel,2021-01-05 20:17:48.202926,2020-08-06 00:00:00.000000,0.55364772,0.79213006,1.31627737,3206,4588,7624,1937,3163,5487,0.33442557,0.54609260,0.94734261,0.12207267,0.16553907,0.24811554
24003,0,USMarylandAnneArundel,Maryland,Anne Arundel,2021-01-05 20:17:48.202926,2020-08-07 00:00:00.000000,0.54121934,0.77834684,1.29209913,3134,4508,7484,1914,3108,5473,0.33049803,0.53672650,0.94493287,0.12277783,0.16162198,0.24475502
24003,0,USMarylandAnneArundel,Maryland,Anne Arundel,2021-01-05 20:17:48.202926,2020-08-08 00:00:00.000000,0.52749546,0.76531057,1.26884987,3055,4432,7349,1890,3058,5436,0.32645251,0.52805312,0.93854199,0.11898645,0.16157212,0.24366822
24003,0,USMarylandAnneArundel,Maryland,Anne Arundel,2021-01-05 20:17:48.202926,2020-08-09 00:00:00.000000,0.51438433,0.75208352,1.24734632,2979,4356,7225,1844,3012,5377,0.31840280,0.52014321,0.92842255,0.11805054,0.16354326,0.24684917
24003,0,USMarylandAnneArundel,Maryland,Anne Arundel,2021-01-05 20:17:48.202926,2020-08-10 00:00:00.000000,0.50296266,0.74114914,1.22849373,2913,4292,7115,1793,2953,5304,0.30960543,0.50987657,0.91579632,0.11735866,0.16365795,0.24823922
24003,0,USMarylandAnneArundel,Maryland,Anne Arundel,2021-01-05 20:17:48.202926,2020-08-11 00:00:00.000000,0.49475374,0.72983772,1.21343684,2865,4227,7028,1742,2914,5223,0.30081968,0.50314989,0.90182130,0.11813873,0.16447642,0.25538242
24003,0,USMarylandAnneArundel,Maryland,Anne Arundel,2021-01-05 20:17:48.202926,2020-08-12 00:00:00.000000,0.48437810,0.71673769,1.20248307,2805,4151,6965,1692,2871,5138,0.29214924,0.49582250,0.88708851,0.11903100,0.16603490,0.26316305
24003,0,USMarylandAnneArundel,Maryland,Anne Arundel,2021-01-05 20:17:48.202926,2020-08-13 00:00:00.000000,0.47797660,0.70533850,1.19554958,2768,4085,6925,1643,2822,5050,0.28366751,0.48727613,0.87198883,0.11914695,0.16884945,0.26878237
24003,0,USMarylandAnneArundel,Maryland,Anne Arundel,2021-01-05 20:17:48.202926,2020-08-14 00:00:00.000000,0.46794188,0.69533655,1.19259963,2710,4027,6907,1595,2773,4962,0.27548278,0.47889427,0.85678182,0.11941266,0.17326664,0.27046684
24003,0,USMarylandAnneArundel,Maryland,Anne Arundel,2021-01-05 20:17:48.202926,2020-08-15 00:00:00.000000,0.45533867,0.68889046,1.19263220,2637,3990,6908,1571,2732,4876,0.27130545,0.47175277,0.84192787,0.11999937,0.17767104,0.29289089
24003,0,USMarylandAnneArundel,Maryland,Anne Arundel,2021-01-05 20:17:48.202926,2020-08-16 00:00:00.000000,0.45229798,0.68567304,1.19412068,2619,3971,6916,1554,2699,4795,0.26834994,0.46603363,0.82786867,0.12115216,0.18419553,0.30112832
24003,0,USMarylandAnneArundel,Maryland,Anne Arundel,2021-01-05 20:17:48.202926,2020-08-17 00:00:00.000000,0.45659490,0.68789241,1.19603448,2644,3984,6927,1541,2670,4752,0.26620264,0.46099772,0.82046478,0.12630337,0.19091050,0.33454922
24003,0,USMarylandAnneArundel,Maryland,Anne Arundel,2021-01-05 20:17:48.202926,2020-08-18 00:00:00.000000,0.45451826,0.68371020,1.19701574,2632,3960,6933,1532,2660,4747,0.26456560,0.45931332,0.81961104,0.12847604,0.19685803,0.33915810
24003,0,USMarylandAnneArundel,Maryland,Anne Arundel,2021-01-05 20:17:48.202926,2020-08-19 00:00:00.000000,0.45252861,0.67896467,1.19568624,2621,3932,6925,1525,2653,4745,0.26337276,0.45815916,0.81931421,0.13108769,0.19811607,0.33864060
24003,0,USMarylandAnneArundel,Maryland,Anne Arundel,2021-01-05 20:17:48.202926,2020-08-20 00:00:00.000000,0.45222110,0.67471135,1.18601414,2619,3908,6869,1521,2639,4706,0.26269008,0.45569080,0.81249713,0.13190068,0.20195113,0.33594044
24003,0,USMarylandAnneArundel,Maryland,Anne Arundel,2021-01-05 20:17:48.202926,2020-08-21 00:00:00.000000,0.45361297,0.67143700,1.17627258,2627,3889,6813,1522,2594,4656,0.26290519,0.44791509,0.80383509,0.14226938,0.21044299,0.34129210
24003,0,USMarylandAnneArundel,Maryland,Anne Arundel,2021-01-05 20:17:48.202926,2020-08-22 00:00:00.000000,0.45673612,0.67037508,1.17326594,2645,3883,6795,1529,2554,4610,0.26401038,0.44095344,0.79590488,0.14570038,0.21868039,0.35499899
24003,0,USMarylandAnneArundel,Maryland,Anne Arundel,2021-01-05 20:17:48.202926,2020-08-23 00:00:00.000000,0.46110163,0.67281438,1.17817083,2670,3897,6824,1539,2549,4575,0.26577800,0.44016023,0.78998394,0.15056172,0.22776016,0.34517893
24003,0,USMarylandAnneArundel,Maryland,Anne Arundel,2021-01-05 20:17:48.202926,2020-08-24 00:00:00.000000,0.46347048,0.67889044,1.17385755,2684,3932,6799,1552,2554,4561,0.26800056,0.44104029,0.78749169,0.15283511,0.23618913,0.33510885
24003,0,USMarylandAnneArundel,Maryland,Anne Arundel,2021-01-05 20:17:48.202926,2020-08-25 00:00:00.000000,0.46603617,0.68684251,1.16957958,2699,3978,6774,1567,2572,4563,0.27060268,0.44410279,0.78790712,0.15765424,0.23817739,0.33567410
24003,0,USMarylandAnneArundel,Maryland,Anne Arundel,2021-01-05 20:17:48.202926,2020-08-26 00:00:00.000000,0.46875956,0.69590724,1.16544370,2715,4030,6750,1584,2584,4577,0.27348838,0.44612822,0.79032946,0.16311451,0.24068868,0.33613969
24003,0,USMarylandAnneArundel,Maryland,Anne Arundel,2021-01-05 20:17:48.202926,2020-08-27 00:00:00.000000,0.47173761,0.70279020,1.17999474,2732,4070,6834,1602,2602,4599,0.27663763,0.44928337,0.79409761,0.17048647,0.24029689,0.34750196
24003,0,USMarylandAnneArundel,Maryland,Anne Arundel,2021-01-05 20:17:48.202926,2020-08-28 00:00:00.000000,0.47535672,0.71442182,1.20458072,2753,4138,6977,1622,2621,4626,0.28011834,0.45257396,0.79876763,0.17392309,0.24135558,0.35067670
24003,0,USMarylandAnneArundel,Maryland,Anne Arundel,2021-01-05 20:17:48.202926,2020-08-29 00:00:00.000000,0.48043348,0.72373190,1.22943428,2782,4192,7121,1645,2657,4618,0.28410299,0.45887328,0.79729816,0.17499483,0.24487936,0.34706000
24003,0,USMarylandAnneArundel,Maryland,Anne Arundel,2021-01-05 20:17:48.202926,2020-08-30 00:00:00.000000,0.48753957,0.73308026,1.25071215,2823,4246,7244,1673,2680,4694,0.28883355,0.46271056,0.81052377,0.17539906,0.24585310,0.35529307
24003,0,USMarylandAnneArundel,Maryland,Anne Arundel,2021-01-05 20:17:48.202926,2020-08-31 00:00:00.000000,0.49641045,0.73929857,1.26049262,2875,4282,7301,1701,2717,4781,0.29371293,0.46919454,0.82554648,0.17929169,0.24496110,0.36412143
24003,0,USMarylandAnneArundel,Maryland,Anne Arundel,2021-01-05 20:17:48.202926,2020-09-01 00:00:00.000000,0.50604025,0.74993044,1.26995692,2931,4343,7356,1720,2756,4872,0.29699908,0.47596286,0.84111743,0.17858877,0.24400629,0.36734867
24003,0,USMarylandAnneArundel,Maryland,Anne Arundel,2021-01-05 20:17:48.202926,2020-09-02 00:00:00.000000,0.51499930,0.76000243,1.27922096,2983,4402,7409,1737,2797,4964,0.29990539,0.48290933,0.85709397,0.17844125,0.24372631,0.36803052
24003,0,USMarylandAnneArundel,Maryland,Anne Arundel,2021-01-05 20:17:48.202926,2020-09-03 00:00:00.000000,0.52007658,0.77175037,1.28820233,3012,4470,7461,1742,2824,5058,0.30075371,0.48758921,0.87331039,0.17858519,0.24295632,0.36586938
24003,0,USMarylandAnneArundel,Maryland,Anne Arundel,2021-01-05 20:17:48.202926,2020-09-04 00:00:00.000000,0.52618774,0.78282094,1.29712149,3047,4534,7513,1746,2850,5151,0.30153957,0.49206342,0.88934523,0.17696506,0.24028969,0.36676792
24003,0,USMarylandAnneArundel,Maryland,Anne Arundel,2021-01-05 20:17:48.202926,2020-09-05 00:00:00.000000,0.53241458,0.79181331,1.30577402,3083,4586,7563,1751,2876,5224,0.30232497,0.49656411,0.90204053,0.17558422,0.23623393,0.36094216
24003,0,USMarylandAnneArundel,Maryland,Anne Arundel,2021-01-05 20:17:48.202926,2020-09-06 00:00:00.000000,0.53660034,0.80424510,1.31430680,3108,4658,7612,1756,2895,5251,0.30333026,0.49995001,0.90659242,0.17544123,0.23424994,0.35459349
24003,0,USMarylandAnneArundel,Maryland,Anne Arundel,2021-01-05 20:17:48.202926,2020-09-07 00:00:00.000000,0.54286364,0.80814628,1.32275965,3144,4681,7661,1774,2926,5254,0.30631318,0.50528978,0.90712916,0.17538554,0.23036970,0.35517577
24003,0,USMarylandAnneArundel,Maryland,Anne Arundel,2021-01-05 20:17:48.202926,2020-09-08 00:00:00.000000,0.54350607,0.81359625,1.31576744,3148,4712,7621,1803,2954,5240,0.31128942,0.51008056,0.90470033,0.17535926,0.22982263,0.35205150
24003,0,USMarylandAnneArundel,Maryland,Anne Arundel,2021-01-05 20:17:48.202926,2020-09-09 00:00:00.000000,0.54189729,0.81441505,1.30499203,3138,4717,7558,1830,2977,5214,0.31599057,0.51410288,0.90032260,0.17533817,0.22957379,0.34592357
24003,0,USMarylandAnneArundel,Maryland,Anne Arundel,2021-01-05 20:17:48.202926,2020-09-10 00:00:00.000000,0.54053482,0.81430322,1.29362873,3130,4716,7493,1856,2997,5182,0.32045094,0.51751588,0.89468683,0.17212765,0.22780485,0.33318794
24003,0,USMarylandAnneArundel,Maryland,Anne Arundel,2021-01-05 20:17:48.202926,2020-09-11 00:00:00.000000,0.53952416,0.81375751,1.28498830,3125,4713,7443,1880,3007,5144,0.32458224,0.51913605,0.88817940,0.16655486,0.22366726,0.32586742
24003,0,USMarylandAnneArundel,Maryland,Anne Arundel,2021-01-05 20:17:48.202926,2020-09-12 00:00:00.000000,0.54479488,0.81333765,1.29134341,3155,4711,7479,1896,3022,5148,0.32749358,0.52181233,0.88882709,0.16064153,0.22030352,0.32859778
24003,0,USMarylandAnneArundel,Maryland,Anne Arundel,2021-01-05 20:17:48.202926,2020-09-13 00:00:00.000000,0.53795188,0.81519152,1.29663612,3116,4721,7510,1895,3038,5182,0.32727511,0.52463318,0.89475716,0.15670595,0.21443064,0.33116034
24003,0,USMarylandAnneArundel,Maryland,Anne Arundel,2021-01-05 20:17:48.202926,2020-09-14 00:00:00.000000,0.53503644,0.81248493,1.30074249,3099,4706,7534,1878,3064,5218,0.32430477,0.52907752,0.90087064,0.15501072,0.20863186,0.31880523
24003,0,USMarylandAnneArundel,Maryland,Anne Arundel,2021-01-05 20:17:48.202926,2020-09-15 00:00:00.000000,0.53296527,0.81053798,1.30304040,3087,4694,7547,1851,3085,5256,0.31971228,0.53269111,0.90744673,0.15405967,0.20672614,0.30503488
24003,0,USMarylandAnneArundel,Maryland,Anne Arundel,2021-01-05 20:17:48.202926,2020-09-16 00:00:00.000000,0.53072599,0.80813132,1.30405947,3074,4680,7553,1820,3102,5297,0.31421441,0.53559118,0.91462868,0.15144965,0.20105223,0.29505397
24003,0,USMarylandAnneArundel,Maryland,Anne Arundel,2021-01-05 20:17:48.202926,2020-09-17 00:00:00.000000,0.52821136,0.80681574,1.30447043,3059,4673,7555,1785,3096,5342,0.30826280,0.53463988,0.92241025,0.14784925,0.19966124,0.29924177
24003,0,USMarylandAnneArundel,Maryland,Anne Arundel,2021-01-05 20:17:48.202926,2020-09-18 00:00:00.000000,0.52205005,0.80523712,1.30476671,3023,4664,7557,1751,3084,5390,0.30237402,0.53250361,0.93068619,0.14756382,0.19779372,0.29362569
24003,0,USMarylandAnneArundel,Maryland,Anne Arundel,2021-01-05 20:17:48.202926,2020-09-19 00:00:00.000000,0.51121046,0.80090470,1.30490870,2961,4639,7558,1722,3069,5440,0.29741401,0.52995154,0.93932109,0.14226719,0.19738763,0.29326282
24003,0,USMarylandAnneArundel,Maryland,Anne Arundel,2021-01-05 20:17:48.202926,2020-09-20 00:00:00.000000,0.50063191,0.80078931,1.30495036,2899,4638,7558,1698,3053,5492,0.29328174,0.52716084,0.94814935,0.14233122,0.19892691,0.29535846
24003,0,USMarylandAnneArundel,Maryland,Anne Arundel,2021-01-05 20:17:48.202926,2020-09-21 00:00:00.000000,0.49165905,0.79652396,1.30436297,2847,4613,7555,1677,3037,5542,0.28966775,0.52437233,0.95693374,0.13801287,0.19640088,0.29656384
24003,0,USMarylandAnneArundel,Maryland,Anne Arundel,2021-01-05 20:17:48.202926,2020-09-22 00:00:00.000000,0.48721331,0.79388872,1.30314012,2822,4598,7548,1646,3021,5591,0.28425352,0.52168970,0.96526052,0.13765573,0.19621730,0.29698989
24003,0,USMarylandAnneArundel,Maryland,Anne Arundel,2021-01-05 20:17:48.202926,2020-09-23 00:00:00.000000,0.48807809,0.79142773,1.29984579,2827,4584,7529,1617,3024,5633,0.27923085,0.52218770,0.97254600,0.13813516,0.19870378,0.29748199
24003,0,USMarylandAnneArundel,Maryland,Anne Arundel,2021-01-05 20:17:48.202926,2020-09-24 00:00:00.000000,0.48926417,0.78717685,1.29207424,2833,4559,7484,1615,3024,5665,0.27887429,0.52223594,0.97808933,0.13915747,0.20006578,0.30231531
24003,0,USMarylandAnneArundel,Maryland,Anne Arundel,2021-01-05 20:17:48.202926,2020-09-25 00:00:00.000000,0.48458113,0.78071671,1.27849823,2806,4522,7405,1605,3017,5674,0.27714993,0.52097339,0.97958931,0.13709051,0.20093763,0.30736580
24003,0,USMarylandAnneArundel,Maryland,Anne Arundel,2021-01-05 20:17:48.202926,2020-09-26 00:00:00.000000,0.48020054,0.77311613,1.26081315,2781,4478,7303,1589,3008,5640,0.27434322,0.51933824,0.97380494,0.13702258,0.20326555,0.30701304
24003,0,USMarylandAnneArundel,Maryland,Anne Arundel,2021-01-05 20:17:48.202926,2020-09-27 00:00:00.000000,0.47909925,0.76667106,1.24133203,2775,4440,7190,1573,2976,5589,0.27170223,0.51379156,0.96496387,0.13745826,0.20758642,0.31704290
24003,0,USMarylandAnneArundel,Maryland,Anne Arundel,2021-01-05 20:17:48.202926,2020-09-28 00:00:00.000000,0.48198833,0.76053092,1.22148594,2791,4405,7075,1559,2943,5524,0.26924049,0.50809030,0.95376926,0.13886655,0.21134375,0.31603053
24003,0,USMarylandAnneArundel,Maryland,Anne Arundel,2021-01-05 20:17:48.202926,2020-09-29 00:00:00.000000,0.48508077,0.75649495,1.22471997,2809,4381,7093,1565,2911,5451,0.27027556,0.50263453,0.94109053,0.15292119,0.21570449,0.32036865
24003,0,USMarylandAnneArundel,Maryland,Anne Arundel,2021-01-05 20:17:48.202926,2020-09-30 00:00:00.000000,0.48246703,0.75512429,1.23196419,2794,4373,7135,1594,2888,5373,0.27519843,0.49863833,0.92764997,0.15367179,0.22046072,0.33434764
24003,0,USMarylandAnneArundel,Maryland,Anne Arundel,2021-01-05 20:17:48.202926,2020-10-01 00:00:00.000000,0.47971033,0.75493171,1.23903089,2778,4372,7176,1600,2869,5294,0.27632699,0.49536940,0.91408633,0.15632211,0.22200943,0.34197904
24003,0,USMarylandAnneArundel,Maryland,Anne Arundel,2021-01-05 20:17:48.202926,2020-10-02 00:00:00.000000,0.47706002,0.75985154,1.24573594,2763,4401,7215,1592,2852,5218,0.27489320,0.49250701,0.90101578,0.15815958,0.22616992,0.33516162
24003,0,USMarylandAnneArundel,Maryland,Anne Arundel,2021-01-05 20:17:48.202926,2020-10-03 00:00:00.000000,0.47727746,0.76591974,1.25180058,2764,4436,7250,1583,2847,5149,0.27342072,0.49161466,0.88893865,0.15847921,0.22844752,0.33367748
24003,0,USMarylandAnneArundel,Maryland,Anne Arundel,2021-01-05 20:17:48.202926,2020-10-04 00:00:00.000000,0.48569784,0.76926489,1.25694961,2813,4455,7280,1579,2861,5085,0.27275880,0.49409544,0.87804277,0.15913796,0.22915548,0.36604226
24003,0,USMarylandAnneArundel,Maryland,Anne Arundel,2021-01-05 20:17:48.202926,2020-10-05 00:00:00.000000,0.49220503,0.77387200,1.26090595,2851,4482,7303,1592,2882,5046,0.27493607,0.49758135,0.87128652,0.16052361,0.22809593,0.36721672
24003,0,USMarylandAnneArundel,Maryland,Anne Arundel,2021-01-05 20:17:48.202926,2020-10-06 00:00:00.000000,0.49053159,0.78755881,1.26408154,2841,4561,7321,1616,2902,5067,0.27900278,0.50107438,0.87488182,0.16205133,0.23271362,0.37372291
24003,0,USMarylandAnneArundel,Maryland,Anne Arundel,2021-01-05 20:17:48.202926,2020-10-07 00:00:00.000000,0.50272659,0.79569831,1.26673602,2911,4608,7337,1645,2922,5085,0.28409097,0.50450807,0.87792451,0.16287589,0.23880632,0.38656034
24003,0,USMarylandAnneArundel,Maryland,Anne Arundel,2021-01-05 20:17:48.202926,2020-10-08 00:00:00.000000,0.51577276,0.80033798,1.28358263,2987,4635,7434,1678,2965,5100,0.28973923,0.51194529,0.88048982,0.16341921,0.24197071,0.39122902
24003,0,USMarylandAnneArundel,Maryland,Anne Arundel,2021-01-05 20:17:48.202926,2020-10-09 00:00:00.000000,0.52804531,0.80289630,1.30772319,3058,4650,7574,1712,3009,5112,0.29567757,0.51951471,0.88268889,0.16569310,0.24745041,0.39083347
24003,0,USMarylandAnneArundel,Maryland,Anne Arundel,2021-01-05 20:17:48.202926,2020-10-10 00:00:00.000000,0.53628964,0.80757830,1.33195013,3106,4677,7715,1747,3039,5124,0.30171528,0.52470116,0.88464321,0.16925950,0.24995090,0.37793483
24003,0,USMarylandAnneArundel,Maryland,Anne Arundel,2021-01-05 20:17:48.202926,2020-10-11 00:00:00.000000,0.54242371,0.81097204,1.35612842,3141,4697,7855,1782,3073,5134,0.30776653,0.53064410,0.88650654,0.16984814,0.25030702,0.37234865
24003,0,USMarylandAnneArundel,Maryland,Anne Arundel,2021-01-05 20:17:48.202926,2020-10-12 00:00:00.000000,0.54713451,0.81523330,1.37377646,3169,4722,7957,1816,3106,5147,0.31366394,0.53634230,0.88863798,0.16991115,0.25047694,0.36503121
24003,0,USMarylandAnneArundel,Maryland,Anne Arundel,2021-01-05 20:17:48.202926,2020-10-13 00:00:00.000000,0.54857870,0.82218745,1.37817244,3177,4762,7982,1850,3119,5209,0.31942088,0.53861384,0.89941439,0.16997488,0.24871941,0.35209691
24003,0,USMarylandAnneArundel,Maryland,Anne Arundel,2021-01-05 20:17:48.202926,2020-10-14 00:00:00.000000,0.55062028,0.83084581,1.38256982,3189,4812,8008,1882,3129,5301,0.32501601,0.54021214,0.91521781,0.17014155,0.25093771,0.34648132
24003,0,USMarylandAnneArundel,Maryland,Anne Arundel,2021-01-05 20:17:48.202926,2020-10-15 00:00:00.000000,0.56004125,0.84139032,1.38700106,3243,4873,8033,1914,3139,5391,0.33047771,0.54204297,0.93072356,0.17063726,0.25299785,0.35181969
24003,0,USMarylandAnneArundel,Maryland,Anne Arundel,2021-01-05 20:17:48.202926,2020-10-16 00:00:00.000000,0.57490452,0.85660757,1.39187096,3330,4961,8062,1945,3152,5477,0.33585514,0.54421884,0.94558364,0.17214941,0.25494092,0.35937042
24003,0,USMarylandAnneArundel,Maryland,Anne Arundel,2021-01-05 20:17:48.202926,2020-10-17 00:00:00.000000,0.58470219,0.86559884,1.39893942,3386,5013,8103,1976,3194,5519,0.34119735,0.55142621,0.95285870,0.17390924,0.25606409,0.36450535
24003,0,USMarylandAnneArundel,Maryland,Anne Arundel,2021-01-05 20:17:48.202926,2020-10-18 00:00:00.000000,0.59481025,0.87625207,1.41205052,3445,5075,8179,2007,3245,5554,0.34653944,0.56034957,0.95888690,0.17574507,0.26289766,0.36942950
24003,0,USMarylandAnneArundel,Maryland,Anne Arundel,2021-01-05 20:17:48.202926,2020-10-19 00:00:00.000000,0.60607023,0.88942066,1.43643197,3510,5151,8320,2038,3299,5591,0.35190840,0.56966704,0.96530107,0.17764659,0.26737422,0.37715495
24003,0,USMarylandAnneArundel,Maryland,Anne Arundel,2021-01-05 20:17:48.202926,2020-10-20 00:00:00.000000,0.61924119,0.90072419,1.47216669,3586,5217,8527,2069,3351,5631,0.35732532,0.57854409,0.97218396,0.18661427,0.27036300,0.38841633
24003,0,USMarylandAnneArundel,Maryland,Anne Arundel,2021-01-05 20:17:48.202926,2020-10-21 00:00:00.000000,0.63610002,0.91989066,1.51377093,3684,5328,8768,2103,3385,5674,0.36307999,0.58448827,0.97968272,0.20008191,0.27360124,0.40563573
24003,0,USMarylandAnneArundel,Maryland,Anne Arundel,2021-01-05 20:17:48.202926,2020-10-22 00:00:00.000000,0.65536291,0.93708841,1.51918886,3796,5427,8799,2144,3447,5725,0.37019764,0.59515899,0.98838824,0.20230466,0.27475026,0.41713081
24003,0,USMarylandAnneArundel,Maryland,Anne Arundel,2021-01-05 20:17:48.202926,2020-10-23 00:00:00.000000,0.67588367,0.95025672,1.52391089,3914,5504,8827,2198,3501,5790,0.37957919,0.60458531,0.99970814,0.21312121,0.28135332,0.42073999
24003,0,USMarylandAnneArundel,Maryland,Anne Arundel,2021-01-05 20:17:48.202926,2020-10-24 00:00:00.000000,0.69729714,0.96673125,1.52898557,4038,5599,8856,2263,3535,5833,0.39079404,0.61037650,1.00703372,0.21913833,0.28629669,0.42427308
24003,0,USMarylandAnneArundel,Maryland,Anne Arundel,2021-01-05 20:17:48.202926,2020-10-25 00:00:00.000000,0.71948706,0.99147589,1.55508554,4167,5742,9007,2335,3588,5884,0.40327405,0.61950961,1.01592770,0.22454694,0.29910797,0.43821283
24003,0,USMarylandAnneArundel,Maryland,Anne Arundel,2021-01-05 20:17:48.202926,2020-10-26 00:00:00.000000,0.74214132,1.02901267,1.61085474,4298,5960,9330,2413,3673,6031,0.41671574,0.63421581,1.04136514,0.23118905,0.30788559,0.44596989
24003,0,USMarylandAnneArundel,Maryland,Anne Arundel,2021-01-05 20:17:48.202926,2020-10-27 00:00:00.000000,0.76552923,1.06919395,1.67418682,4434,6193,9697,2496,3769,6207,0.43105257,0.65076036,1.07173377,0.23253273,0.31572095,0.44986447
24003,0,USMarylandAnneArundel,Maryland,Anne Arundel,2021-01-05 20:17:48.202926,2020-10-28 00:00:00.000000,0.78968701,1.10271096,1.74393668,4574,6387,10101,2585,3885,6413,0.44633070,0.67086543,1.10716464,0.23583457,0.32496210,0.45175770
24003,0,USMarylandAnneArundel,Maryland,Anne Arundel,2021-01-05 20:17:48.202926,2020-10-29 00:00:00.000000,0.81475290,1.14635345,1.81930450,4719,6640,10538,2680,3977,6605,0.46270315,0.68674292,1.14030890,0.24367923,0.33556373,0.45301718
24003,0,USMarylandAnneArundel,Maryland,Anne Arundel,2021-01-05 20:17:48.202926,2020-10-30 00:00:00.000000,0.84101471,1.18198429,1.89984062,4871,6846,11004,2760,4062,6803,0.47654505,0.70140178,1.17449987,0.25710453,0.34440087,0.45474082
24003,0,USMarylandAnneArundel,Maryland,Anne Arundel,2021-01-05 20:17:48.202926,2020-10-31 00:00:00.000000,0.86899783,1.22598939,1.98458620,5033,7101,11495,2839,4184,7049,0.49023999,0.72234891,1.21695936,0.25608077,0.35227424,0.45716506
24003,0,USMarylandAnneArundel,Maryland,Anne Arundel,2021-01-05 20:17:48.202926,2020-11-01 00:00:00.000000,0.91410587,1.28329777,2.07335545,5294,7433,12009,2929,4362,7341,0.50583537,0.75306558,1.26745860,0.26448371,0.36371277,0.50255142
24003,0,USMarylandAnneArundel,Maryland,Anne Arundel,2021-01-05 20:17:48.202926,2020-11-02 00:00:00.000000,0.96551024,1.34640534,2.16584802,5592,7798,12545,3031,4554,7669,0.52329432,0.78633593,1.32415392,0.27034039,0.36788353,0.50616360
24003,0,USMarylandAnneArundel,Maryland,Anne Arundel,2021-01-05 20:17:48.202926,2020-11-03 00:00:00.000000,1.00785159,1.40951517,2.26231072,5837,8164,13104,3142,4754,8024,0.54257080,0.82089360,1.38540951,0.27348542,0.36876787,0.50778785
24003,0,USMarylandAnneArundel,Maryland,Anne Arundel,2021-01-05 20:17:48.202926,2020-11-04 00:00:00.000000,1.05485177,1.47742326,2.36257949,6110,8557,13684,3263,4977,8399,0.56343575,0.85935666,1.45006109,0.28202533,0.36799235,0.50700766
24003,0,USMarylandAnneArundel,Maryland,Anne Arundel,2021-01-05 20:17:48.202926,2020-11-05 00:00:00.000000,1.10355236,1.53414637,2.46628133,6392,8886,14285,3393,5207,8787,0.58579100,0.89902601,1.51716023,0.28959288,0.36857484,0.50008003
24003,0,USMarylandAnneArundel,Maryland,Anne Arundel,2021-01-05 20:17:48.202926,2020-11-06 00:00:00.000000,1.15208121,1.58692319,2.57259354,6673,9191,14901,3531,5466,9185,0.60975567,0.94372481,1.58585065,0.29471845,0.36296312,0.49520790
24003,0,USMarylandAnneArundel,Maryland,Anne Arundel,2021-01-05 20:17:48.202926,2020-11-07 00:00:00.000000,1.19978634,1.64522355,2.67987286,6949,9529,15522,3681,5732,9588,0.63561792,0.98966745,1.65531034,0.26625394,0.35735502,0.49871169
24003,0,USMarylandAnneArundel,Maryland,Anne Arundel,2021-01-05 20:17:48.202926,2020-11-08 00:00:00.000000,1.24586685,1.71233723,2.78537553,7216,9918,16133,3843,5936,9990,0.66354614,1.02493728,1.72475003,0.25858900,0.35202208,0.49811758
24003,0,USMarylandAnneArundel,Maryland,Anne Arundel,2021-01-05 20:17:48.202926,2020-11-09 00:00:00.000000,1.29199381,1.77498675,2.88528180,7483,10281,16712,4013,6109,10388,0.69295333,1.05472990,1.79344596,0.26103866,0.34235939,0.49395583
24003,0,USMarylandAnneArundel,Maryland,Anne Arundel,2021-01-05 20:17:48.202926,2020-11-10 00:00:00.000000,1.33777935,1.84245948,2.97619003,7748,10672,17239,4190,6327,10778,0.72346790,1.09241573,1.86079685,0.26229957,0.33850730,0.49309427
24003,0,USMarylandAnneArundel,Maryland,Anne Arundel,2021-01-05 20:17:48.202926,2020-11-11 00:00:00.000000,1.38375725,1.90199670,3.05589437,8015,11017,17700,4370,6561,11157,0.75454697,1.13273309,1.92622481,0.25124484,0.32937557,0.49277162
24003,0,USMarylandAnneArundel,Maryland,Anne Arundel,2021-01-05 20:17:48.202926,2020-11-12 00:00:00.000000,1.42985625,1.95226503,3.12466766,8282,11308,18099,4549,6794,11520,0.78537630,1.17304370,1.98897648,0.24142849,0.32405697,0.49128192
24003,0,USMarylandAnneArundel,Maryland,Anne Arundel,2021-01-05 20:17:48.202926,2020-11-13 00:00:00.000000,1.47449485,1.99825532,3.18450457,8540,11574,18445,4719,7014,11860,0.81482724,1.21106193,2.04758297,0.23838037,0.32023637,0.47757736
24003,0,USMarylandAnneArundel,Maryland,Anne Arundel,2021-01-05 20:17:48.202926,2020-11-14 00:00:00.000000,1.51214673,2.05469978,3.23684324,8758,11901,18748,4875,7231,12163,0.84165294,1.24838811,2.09991757,0.22892367,0.31335246,0.41970016
24003,0,USMarylandAnneArundel,Maryland,Anne Arundel,2021-01-05 20:17:48.202926,2020-11-15 00:00:00.000000,1.53586580,2.09634748,3.28488588,8896,12142,19027,5009,7446,12424,0.86489326,1.28560314,2.14503548,0.22246983,0.30639481,0.41021740
24003,0,USMarylandAnneArundel,Maryland,Anne Arundel,2021-01-05 20:17:48.202926,2020-11-16 00:00:00.000000,1.54779158,2.14142683,3.33038561,8965,12403,19290,5121,7628,12649,0.88422073,1.31707312,2.18378527,0.22109808,0.29672295,0.40219292
24003,0,USMarylandAnneArundel,Maryland,Anne Arundel,2021-01-05 20:17:48.202926,2020-11-17 00:00:00.000000,1.55499765,2.18381781,3.37425251,9007,12649,19544,5211,7790,12845,0.89976214,1.34497888,2.21764989,0.21952880,0.29243645,0.40112647
24003,0,USMarylandAnneArundel,Maryland,Anne Arundel,2021-01-05 20:17:48.202926,2020-11-18 00:00:00.000000,1.56037116,2.21976289,3.41725455,9038,12857,19793,5284,7992,13021,0.91230129,1.37982833,2.24807017,0.21564625,0.28708535,0.39822997
24003,0,USMarylandAnneArundel,Maryland,Anne Arundel,2021-01-05 20:17:48.202926,2020-11-19 00:00:00.000000,1.56542804,2.25498048,3.46167397,9067,13061,20051,5346,8125,13185,0.92299897,1.40278100,2.27629872,0.21653657,0.28410742,0.38736273
24003,0,USMarylandAnneArundel,Maryland,Anne Arundel,2021-01-05 20:17:48.202926,2020-11-20 00:00:00.000000,1.57150873,2.27436681,3.51558687,9102,13173,20363,5401,8265,13342,0.93248048,1.42699234,2.30350086,0.21438463,0.28363133,0.38524540
24003,0,USMarylandAnneArundel,Maryland,Anne Arundel,2021-01-05 20:17:48.202926,2020-11-21 00:00:00.000000,1.57955001,2.29101000,3.57888126,9149,13270,20730,5454,8412,13501,0.94169172,1.45233987,2.33090849,0.21136897,0.28738274,0.38421924
24003,0,USMarylandAnneArundel,Maryland,Anne Arundel,2021-01-05 20:17:48.202926,2020-11-22 00:00:00.000000,1.58944369,2.33090678,3.64158935,9206,13501,21093,5512,8556,13669,0.95162153,1.47722121,2.35986956,0.21209584,0.28942275,0.38509799
24003,0,USMarylandAnneArundel,Maryland,Anne Arundel,2021-01-05 20:17:48.202926,2020-11-23 00:00:00.000000,1.60116475,2.35900206,3.70428663,9274,13664,21456,5578,8711,13888,0.96309948,1.50400138,2.39768830,0.21700623,0.28921828,0.38667467
24003,0,USMarylandAnneArundel,Maryland,Anne Arundel,2021-01-05 20:17:48.202926,2020-11-24 00:00:00.000000,1.61510264,2.39020937,3.76714062,9355,13844,21820,5656,8870,14113,0.97651371,1.53141886,2.43659699,0.21732121,0.28906851,0.39203743
24003,0,USMarylandAnneArundel,Maryland,Anne Arundel,2021-01-05 20:17:48.202926,2020-11-25 00:00:00.000000,1.63377911,2.43407950,3.83117953,9463,14099,22191,5713,9010,14340,0.98633535,1.55551799,2.47584822,0.21978161,0.29383389,0.42129216
24003,0,USMarylandAnneArundel,Maryland,Anne Arundel,2021-01-05 20:17:48.202926,2020-11-26 00:00:00.000000,1.66190027,2.47707395,3.89885822,9626,14348,22583,5768,9111,14602,0.99579838,1.57301496,2.52098122,0.22376933,0.29981015,0.42549471
24003,0,USMarylandAnneArundel,Maryland,Anne Arundel,2021-01-05 20:17:48.202926,2020-11-27 00:00:00.000000,1.70379488,2.53661942,3.97413091,9868,14692,23019,5844,9234,14934,1.00901279,1.59418349,2.57827690,0.23307114,0.30494704,0.44167494
24003,0,USMarylandAnneArundel,Maryland,Anne Arundel,2021-01-05 20:17:48.202926,2020-11-28 00:00:00.000000,1.75888508,2.59655701,4.05898990,10188,15040,23511,5955,9375,15314,1.02822244,1.61859195,2.64390071,0.24278087,0.31180107,0.45647170
24003,0,USMarylandAnneArundel,Maryland,Anne Arundel,2021-01-05 20:17:48.202926,2020-11-29 00:00:00.000000,1.82299178,2.65523541,4.15356947,10559,15380,24058,6107,9534,15686,1.05445028,1.64610716,2.70812702,0.24132906,0.32000387,0.46188299
24003,0,USMarylandAnneArundel,Maryland,Anne Arundel,2021-01-05 20:17:48.202926,2020-11-30 00:00:00.000000,1.89206224,2.73101318,4.28774059,10959,15818,24836,6296,9726,16079,1.08698216,1.67912046,2.77596338,0.24915384,0.33210313,0.46163816
24003,0,USMarylandAnneArundel,Maryland,Anne Arundel,2021-01-05 20:17:48.202926,2020-12-01 00:00:00.000000,1.96358910,2.80880330,4.42569191,11373,16269,25635,6511,10003,16526,1.12422176,1.72708439,2.85315698,0.25249337,0.33463712,0.46103942
24003,0,USMarylandAnneArundel,Maryland,Anne Arundel,2021-01-05 20:17:48.202926,2020-12-02 00:00:00.000000,2.03444602,2.89573523,4.56069922,11784,16773,26417,6723,10361,17001,1.16079655,1.78875174,2.93521218,0.25100713,0.33001033,0.46236853
24003,0,USMarylandAnneArundel,Maryland,Anne Arundel,2021-01-05 20:17:48.202926,2020-12-03 00:00:00.000000,2.09984825,2.96567934,4.68926677,12163,17178,27161,6896,10649,17501,1.19066441,1.83847320,3.02148186,0.25104985,0.32449149,0.45956455
24003,0,USMarylandAnneArundel,Maryland,Anne Arundel,2021-01-05 20:17:48.202926,2020-12-04 00:00:00.000000,2.15479810,3.05762078,4.80950497,12481,17710,27858,7058,10941,18135,1.21859360,1.88902257,3.13086841,0.24497523,0.32137131,0.45859635
24003,0,USMarylandAnneArundel,Maryland,Anne Arundel,2021-01-05 20:17:48.202926,2020-12-05 00:00:00.000000,2.19730860,3.12729696,4.92166029,12727,18114,28507,7207,11220,18770,1.24432308,1.93707512,3.24062136,0.24244760,0.31020132,0.45710671
24003,0,USMarylandAnneArundel,Maryland,Anne Arundel,2021-01-05 20:17:48.202926,2020-12-06 00:00:00.000000,2.23078979,3.18364212,5.02857479,12921,18440,29127,7346,11447,19329,1.26827543,1.97628843,3.33700348,0.22563933,0.30011098,0.42475488
24003,0,USMarylandAnneArundel,Maryland,Anne Arundel,2021-01-05 20:17:48.202926,2020-12-07 00:00:00.000000,2.25874256,3.22554438,5.13289476,13083,18683,29731,7477,11698,19718,1.29093793,2.01965254,3.40429707,0.21581746,0.28880575,0.39431429
24003,0,USMarylandAnneArundel,Maryland,Anne Arundel,2021-01-05 20:17:48.202926,2020-12-08 00:00:00.000000,2.28319497,3.27442014,5.23549869,13225,18966,30325,7602,11964,19959,1.31253251,2.06557089,3.44592938,0.20955718,0.27995797,0.38688274
24003,0,USMarylandAnneArundel,Maryland,Anne Arundel,2021-01-05 20:17:48.202926,2020-12-09 00:00:00.000000,2.30308739,3.33575555,5.33663297,13340,19321,30911,7718,12279,20101,1.33259981,2.11995207,3.47037902,0.20313119,0.26946411,0.38450729
24003,0,USMarylandAnneArundel,Maryland,Anne Arundel,2021-01-05 20:17:48.202926,2020-12-10 00:00:00.000000,2.31590020,3.34943214,5.43542223,13414,19401,31483,7817,12467,20425,1.34962473,2.15249024,3.52626269,0.19860095,0.26158096,0.38049722
24003,0,USMarylandAnneArundel,Maryland,Anne Arundel,2021-01-05 20:17:48.202926,2020-12-11 00:00:00.000000,2.32270887,3.36122854,5.52836185,13453,19469,32022,7890,12571,20782,1.36216353,2.17029975,3.58789861,0.19759915,0.25340236,0.37802769
24003,0,USMarylandAnneArundel,Maryland,Anne Arundel,2021-01-05 20:17:48.202926,2020-12-12 00:00:00.000000,2.32697360,3.37147916,5.60523853,13478,19528,32467,7937,12663,21176,1.37041545,2.18623272,3.65596526,0.19195665,0.24929927,0.37818502
24003,0,USMarylandAnneArundel,Maryland,Anne Arundel,2021-01-05 20:17:48.202926,2020-12-13 00:00:00.000000,2.32990882,3.36975648,5.60268120,13495,19518,32452,7954,12767,21526,1.37322726,2.20418830,3.71641238,0.18649044,0.24742202,0.37573477
24003,0,USMarylandAnneArundel,Maryland,Anne Arundel,2021-01-05 20:17:48.202926,2020-12-14 00:00:00.000000,2.33223219,3.36153990,5.58591659,13509,19471,32355,7965,12851,21504,1.37522657,2.21872131,3.71259777,0.17519924,0.24267081,0.36208394
24003,0,USMarylandAnneArundel,Maryland,Anne Arundel,2021-01-05 20:17:48.202926,2020-12-15 00:00:00.000000,2.33393394,3.35535803,5.56829982,13518,19435,32253,7975,12841,21470,1.37685697,2.21700245,3.70672203,0.17225865,0.24022140,0.36641737
24003,0,USMarylandAnneArundel,Maryland,Anne Arundel,2021-01-05 20:17:48.202926,2020-12-16 00:00:00.000000,2.33562195,3.35239956,5.50002829,13528,19418,31858,7983,12788,21465,1.37820956,2.20776165,3.70582938,0.17461820,0.24065581,0.37565993
24003,0,USMarylandAnneArundel,Maryland,Anne Arundel,2021-01-05 20:17:48.202926,2020-12-17 00:00:00.000000,2.34016080,3.35886193,5.41708598,13555,19455,31377,7989,12711,21425,1.37933585,2.19460468,3.69887602,0.17691852,0.24185297,0.37731726
24003,0,USMarylandAnneArundel,Maryland,Anne Arundel,2021-01-05 20:17:48.202926,2020-12-18 00:00:00.000000,2.35395680,3.36556848,5.33769825,13634,19494,30917,7995,12698,21367,1.38027871,2.19225008,3.68889237,0.18120855,0.24973839,0.37903978
24003,0,USMarylandAnneArundel,Maryland,Anne Arundel,2021-01-05 20:17:48.202926,2020-12-19 00:00:00.000000,2.35738106,3.37803365,5.27598434,13654,19566,30560,8000,12685,21318,1.38122073,2.18996261,3.68040372,0.19473644,0.25660763,0.37822312
24003,0,USMarylandAnneArundel,Maryland,Anne Arundel,2021-01-05 20:17:48.202926,2020-12-20 00:00:00.000000,2.36996312,3.39401469,5.28819000,13727,19659,30630,8016,12675,21289,1.38399453,2.18838384,3.67553457,0.20169264,0.26232155,0.39720367
24003,0,USMarylandAnneArundel,Maryland,Anne Arundel,2021-01-05 20:17:48.202926,2020-12-21 00:00:00.000000,2.39280106,3.41228211,5.33678670,13859,19765,30912,8080,12691,21245,1.39503837,2.19114107,3.66791319,0.20657368,0.26678002,0.40070382
24003,0,USMarylandAnneArundel,Maryland,Anne Arundel,2021-01-05 20:17:48.202926,2020-12-22 00:00:00.000000,2.42151310,3.42516218,5.38410297,14026,19839,31186,8181,12726,21276,1.41255241,2.19707647,3.67320671,0.21065813,0.27081071,0.40148763
24003,0,USMarylandAnneArundel,Maryland,Anne Arundel,2021-01-05 20:17:48.202926,2020-12-23 00:00:00.000000,2.45454993,3.43912857,5.43047721,14217,19920,31455,8247,12752,21308,1.42389032,2.20163118,3.67881497,0.21349008,0.27599509,0.40188043
24003,0,USMarylandAnneArundel,Maryland,Anne Arundel,2021-01-05 20:17:48.202926,2020-12-24 00:00:00.000000,2.48586255,3.45856849,5.47653055,14398,20033,31721,8316,12820,21397,1.43578681,2.21329952,3.69415371,0.21546182,0.28011757,0.40670593
24003,0,USMarylandAnneArundel,Maryland,Anne Arundel,2021-01-05 20:17:48.202926,2020-12-25 00:00:00.000000,2.50747682,3.48788071,5.52295956,14524,20202,31990,8387,12922,21479,1.44811339,2.23099063,3.70819838,0.21817101,0.28874902,0.42529557
24003,0,USMarylandAnneArundel,Maryland,Anne Arundel,2021-01-05 20:17:48.202926,2020-12-26 00:00:00.000000,2.52898340,3.53301590,5.57011844,14648,20464,32264,8462,13045,21566,1.46098623,2.25221945,3.72334096,0.22440236,0.30114205,0.43587072
24003,0,USMarylandAnneArundel,Maryland,Anne Arundel,2021-01-05 20:17:48.202926,2020-12-27 00:00:00.000000,2.55250531,3.59037265,5.61790880,14784,20796,32540,8542,13179,21689,1.47482665,2.27530867,3.74453376,0.23428536,0.30285218,0.44933005
24003,0,USMarylandAnneArundel,Maryland,Anne Arundel,2021-01-05 20:17:48.202926,2020-12-28 00:00:00.000000,2.58481003,3.65370901,5.67971562,14972,21163,32898,8631,13274,21879,1.49009261,2.29181774,3.77724660,0.23678817,0.30496932,0.45295012
24003,0,USMarylandAnneArundel,Maryland,Anne Arundel,2021-01-05 20:17:48.202926,2020-12-29 00:00:00.000000,2.64189244,3.71608751,5.76023773,15302,21524,33365,8724,13479,22065,1.50624714,2.32720822,3.80941733,0.23167399,0.30803072,0.45103109
24003,0,USMarylandAnneArundel,Maryland,Anne Arundel,2021-01-05 20:17:48.202926,2020-12-30 00:00:00.000000,2.72785745,3.74625518,5.84075239,15800,21699,33831,8814,13707,22366,1.52178667,2.36651735,3.86145484,0.23177572,0.31107650,0.45729321
24003,0,USMarylandAnneArundel,Maryland,Anne Arundel,2021-01-05 20:17:48.202926,2020-12-31 00:00:00.000000,2.78009721,3.77920926,5.91969225,16103,21890,34288,8895,13941,22850,1.53572809,2.40682112,3.94498428,0.22783332,0.31198300,0.46452305
24003,0,USMarylandAnneArundel,Maryland,Anne Arundel,2021-01-05 20:17:48.202926,2021-01-01 00:00:00.000000,2.79080296,3.81755286,5.99548845,16165,22112,34727,8966,14132,23444,1.54801269,2.43990325,4.04753302,0.22878375,0.31176506,0.47260708
24003,0,USMarylandAnneArundel,Maryland,Anne Arundel,2021-01-05 20:17:48.202926,2021-01-02 00:00:00.000000,2.80471207,3.88624685,6.06437937,16245,22510,35126,9029,14301,24124,1.55894198,2.46905666,4.16494066,0.22679388,0.30796617,0.48756966
24003,0,USMarylandAnneArundel,Maryland,Anne Arundel,2021-01-05 20:17:48.202926,2021-01-03 00:00:00.000000,2.82343672,3.92268446,6.12827316,16354,22721,35497,9087,14502,24887,1.56882491,2.50380658,4.29663859,0.21668397,0.30986251,0.51163337
24003,0,USMarylandAnneArundel,Maryland,Anne Arundel,2021-01-05 20:17:48.202926,2021-01-04 00:00:00.000000,2.84422743,3.98516877,6.27394057,16474,23083,36340,9139,14716,25751,1.57788283,2.54074402,4.44583955,0.19787893,0.30920637,0.52176776
24003,0,USMarylandAnneArundel,Maryland,Anne Arundel,2021-01-05 20:17:48.202926,2021-01-05 00:00:00.000000,2.86483626,4.03758221,6.42706040,16594,23387,37227,9188,14912,26464,1.58624673,2.57458234,4.56888251,0.19122940,0.30568986,0.52439694
24003,0,USMarylandAnneArundel,Maryland,Anne Arundel,2021-01-05 20:17:48.202926,2021-01-06 00:00:00.000000,2.86670882,4.08482638,6.58082260,16604,23660,38118,9232,15018,27112,1.59397679,2.59281353,4.68076491,0.19013069,0.30529737,0.52504880
24003,0,USMarylandAnneArundel,Maryland,Anne Arundel,2021-01-05 20:17:48.202926,2021-01-07 00:00:00.000000,2.87467157,4.17994585,6.73459019,16651,24211,39009,9274,15260,27775,1.60109820,2.63468220,4.79516004,0.18995310,0.30517343,0.52526916
24003,0,USMarylandAnneArundel,Maryland,Anne Arundel,2021-01-05 20:17:48.202926,2021-01-08 00:00:00.000000,2.88645862,4.20585032,6.88793083,16719,24361,39897,9311,15514,28446,1.60763900,2.67848306,4.91111512,0.18991272,0.30513836,0.52533371
24003,0,USMarylandAnneArundel,Maryland,Anne Arundel,2021-01-05 20:17:48.202926,2021-01-09 00:00:00.000000,2.87147007,4.22718267,7.04050141,16632,24485,40780,9346,15716,29123,1.61363588,2.71330274,5.02794118,0.18989791,0.30512878,0.52535752
24003,0,USMarylandAnneArundel,Maryland,Anne Arundel,2021-01-05 20:17:48.202926,2021-01-10 00:00:00.000000,2.84594202,4.31133564,7.19199522,16484,24972,41658,9352,16051,29788,1.61455036,2.77118325,5.14270643,0.18989067,0.30512620,0.52536633
24003,0,USMarylandAnneArundel,Maryland,Anne Arundel,2021-01-05 20:17:48.202926,2021-01-11 00:00:00.000000,2.81948075,4.36619518,7.34211821,16331,25290,42528,9383,16058,30449,1.62007032,2.77242396,5.25679006,0.18988678,0.30512552,0.52536961
24003,0,USMarylandAnneArundel,Maryland,Anne Arundel,2021-01-05 20:17:48.202926,2021-01-12 00:00:00.000000,2.79214066,4.35858227,7.49057853,16173,25246,43387,9407,16158,31107,1.62417882,2.78955291,5.37041168,0.18988464,0.30512535,0.52537082
24003,0,USMarylandAnneArundel,Maryland,Anne Arundel,2021-01-05 20:17:48.202926,2021-01-13 00:00:00.000000,2.76397289,4.38059083,7.63708224,16009,25373,44236,9425,16362,31761,1.62719123,2.82481097,5.48329040,0.18988346,0.30512531,0.52537128
24003,0,USMarylandAnneArundel,Maryland,Anne Arundel,2021-01-05 20:17:48.202926,2021-01-14 00:00:00.000000,2.71468366,4.41110491,7.78133189,15724,25550,45072,9437,16551,32409,1.62929663,2.85756698,5.59516565,0.18988280,0.30512531,0.52537144
24003,0,USMarylandAnneArundel,Maryland,Anne Arundel,2021-01-05 20:17:48.202926,2021-01-15 00:00:00.000000,2.65778618,4.44691922,7.92302668,15394,25758,45892,9378,16672,33049,1.61905698,2.87836204,5.70578782,0.18988244,0.30512531,0.52537151
24003,0,USMarylandAnneArundel,Maryland,Anne Arundel,2021-01-05 20:17:48.202926,2021-01-16 00:00:00.000000,2.60352536,4.43650735,8.06186321,15080,25697,46697,9279,16753,33681,1.60206095,2.89234853,5.81491307,0.18988223,0.30512531,0.52537153
24003,0,USMarylandAnneArundel,Maryland,Anne Arundel,2021-01-05 20:17:48.202926,2021-01-17 00:00:00.000000,2.57337800,4.45347049,8.19753669,14905,25796,47482,9178,16922,34303,1.58463742,2.92145590,5.92230054,0.18988212,0.30512532,0.52537154
