FIPS,HR_UID,nameid,province,region,analysisTime,dates,pointprevalence_025,pointprevalence_50,pointprevalence_975,pointinfections_025,pointinfections_50,pointinfections_975,pointinfectious_025,pointinfectious_50,pointinfectious_975,pointinfectiousprevalence_05,pointinfectiousprevalence_50,pointinfectiousprevalence_95,infectrate_025,infectrate_50,infectrate_975
0,0,Cuba,,,2021-01-05 04:36:28.644932,2020-03-09 00:00:00.000000,0.00012670,0.00023614,0.00053607,14,26,60,3,10,23,0.00003363,0.00009421,0.00021144,0.71070127,0.86930790,1.10265403
0,0,Cuba,,,2021-01-05 04:36:28.644932,2020-03-10 00:00:00.000000,0.00017204,0.00030746,0.00064303,19,34,72,6,13,29,0.00005922,0.00012243,0.00026091,0.71106667,0.86926167,1.10265207
0,0,Cuba,,,2021-01-05 04:36:28.644932,2020-03-11 00:00:00.000000,0.00021502,0.00040315,0.00076337,24,45,86,9,17,36,0.00008772,0.00015818,0.00032486,0.71166595,0.86917734,1.10264817
0,0,Cuba,,,2021-01-05 04:36:28.644932,2020-03-12 00:00:00.000000,0.00026482,0.00051183,0.00091984,29,57,104,13,23,45,0.00011690,0.00020570,0.00040054,0.71264463,0.86902320,1.10263992
0,0,Cuba,,,2021-01-05 04:36:28.644932,2020-03-13 00:00:00.000000,0.00032212,0.00062994,0.00109899,36,71,124,16,29,55,0.00014864,0.00025837,0.00048986,0.71396447,0.86874127,1.10262152
0,0,Cuba,,,2021-01-05 04:36:28.644932,2020-03-14 00:00:00.000000,0.00038803,0.00077262,0.00130365,43,87,147,20,36,67,0.00018157,0.00032341,0.00059521,0.71401358,0.86822609,1.10257854
0,0,Cuba,,,2021-01-05 04:36:28.644932,2020-03-15 00:00:00.000000,0.00046398,0.00094555,0.00153751,52,107,174,24,45,81,0.00021948,0.00039877,0.00071947,0.71407793,0.86728896,1.10247476
0,0,Cuba,,,2021-01-05 04:36:28.644932,2020-03-16 00:00:00.000000,0.00060594,0.00112803,0.00175252,68,127,198,29,55,98,0.00026317,0.00048999,0.00086606,0.71400152,0.86560320,1.10221873
0,0,Cuba,,,2021-01-05 04:36:28.644932,2020-03-17 00:00:00.000000,0.00076984,0.00134620,0.00202773,87,152,229,38,67,118,0.00034016,0.00059210,0.00104464,0.71314274,0.86405149,1.10158141
0,0,Cuba,,,2021-01-05 04:36:28.644932,2020-03-18 00:00:00.000000,0.00090936,0.00159756,0.00238450,102,180,270,46,80,142,0.00041485,0.00071467,0.00125658,0.70822085,0.86199018,1.09895554
0,0,Cuba,,,2021-01-05 04:36:28.644932,2020-03-19 00:00:00.000000,0.00107023,0.00188503,0.00282766,121,213,320,55,96,170,0.00049152,0.00085362,0.00150673,0.68253217,0.86392571,1.09583199
0,0,Cuba,,,2021-01-05 04:36:28.644932,2020-03-20 00:00:00.000000,0.00125772,0.00222310,0.00336766,142,251,381,65,116,204,0.00057984,0.00102680,0.00180138,0.63704513,0.85576264,1.08827785
0,0,Cuba,,,2021-01-05 04:36:28.644932,2020-03-21 00:00:00.000000,0.00152872,0.00262147,0.00400000,173,296,453,77,138,243,0.00068529,0.00122105,0.00214778,0.64742750,0.84685060,1.07446189
0,0,Cuba,,,2021-01-05 04:36:28.644932,2020-03-22 00:00:00.000000,0.00187169,0.00306148,0.00473777,211,346,536,94,162,289,0.00083814,0.00143811,0.00255392,0.63092566,0.85011338,1.05738400
0,0,Cuba,,,2021-01-05 04:36:28.644932,2020-03-23 00:00:00.000000,0.00222069,0.00360222,0.00556474,251,408,630,115,190,343,0.00102030,0.00168597,0.00302845,0.63014099,0.82973883,1.04226008
0,0,Cuba,,,2021-01-05 04:36:28.644932,2020-03-24 00:00:00.000000,0.00264717,0.00416322,0.00652297,299,471,738,134,224,404,0.00118892,0.00197953,0.00356721,0.62788659,0.81587334,1.03446288
0,0,Cuba,,,2021-01-05 04:36:28.644932,2020-03-25 00:00:00.000000,0.00315499,0.00488375,0.00769286,357,553,871,161,259,474,0.00142792,0.00229303,0.00418659,0.62036566,0.79368468,1.03087075
0,0,Cuba,,,2021-01-05 04:36:28.644932,2020-03-26 00:00:00.000000,0.00361695,0.00555069,0.00905135,409,628,1025,193,304,554,0.00170646,0.00268653,0.00489506,0.60202524,0.77952025,1.02857858
0,0,Cuba,,,2021-01-05 04:36:28.644932,2020-03-27 00:00:00.000000,0.00415749,0.00636270,0.01054379,470,720,1194,229,356,644,0.00202291,0.00314443,0.00569410,0.57306511,0.75614899,0.97610045
0,0,Cuba,,,2021-01-05 04:36:28.644932,2020-03-28 00:00:00.000000,0.00488962,0.00724896,0.01208660,553,821,1369,268,406,744,0.00237260,0.00359260,0.00657555,0.53055629,0.70201782,0.91546676
0,0,Cuba,,,2021-01-05 04:36:28.644932,2020-03-29 00:00:00.000000,0.00563520,0.00821552,0.01362430,638,930,1543,311,464,852,0.00274890,0.00410493,0.00752305,0.50242862,0.66822481,0.89977535
0,0,Cuba,,,2021-01-05 04:36:28.644932,2020-03-30 00:00:00.000000,0.00641446,0.00932213,0.01540860,726,1055,1745,354,532,964,0.00313136,0.00469987,0.00851279,0.49563016,0.64540483,0.81020212
0,0,Cuba,,,2021-01-05 04:36:28.644932,2020-03-31 00:00:00.000000,0.00711665,0.01052251,0.01695433,806,1191,1920,401,600,1079,0.00354740,0.00530554,0.00952815,0.47946663,0.61834575,0.76878484
0,0,Cuba,,,2021-01-05 04:36:28.644932,2020-04-01 00:00:00.000000,0.00785354,0.01173995,0.01824157,889,1329,2066,449,678,1195,0.00396599,0.00598740,0.01055174,0.46420314,0.58909329,0.75392186
0,0,Cuba,,,2021-01-05 04:36:28.644932,2020-04-02 00:00:00.000000,0.00865091,0.01304886,0.01962250,979,1477,2222,499,759,1311,0.00441310,0.00670731,0.01157471,0.43808635,0.56767420,0.73467043
0,0,Cuba,,,2021-01-05 04:36:28.644932,2020-04-03 00:00:00.000000,0.00950877,0.01457266,0.02099560,1077,1650,2378,554,844,1462,0.00489186,0.00745195,0.01291619,0.41545019,0.53396654,0.72985754
0,0,Cuba,,,2021-01-05 04:36:28.644932,2020-04-04 00:00:00.000000,0.01021587,0.01607056,0.02239790,1157,1820,2536,601,926,1637,0.00530613,0.00817959,0.01446136,0.38816630,0.50377201,0.72615123
0,0,Cuba,,,2021-01-05 04:36:28.644932,2020-04-05 00:00:00.000000,0.01096892,0.01741000,0.02398452,1242,1971,2716,651,1018,1792,0.00575487,0.00898801,0.01582443,0.36282182,0.47498193,0.68254389
0,0,Cuba,,,2021-01-05 04:36:28.644932,2020-04-06 00:00:00.000000,0.01178335,0.01882065,0.02568095,1334,2131,2908,712,1126,1933,0.00628910,0.00994304,0.01707061,0.35007183,0.45124824,0.67221997
0,0,Cuba,,,2021-01-05 04:36:28.644932,2020-04-07 00:00:00.000000,0.01269230,0.02033950,0.02781029,1437,2303,3149,775,1217,2074,0.00684796,0.01074579,0.01831772,0.32305069,0.42263676,0.63505412
0,0,Cuba,,,2021-01-05 04:36:28.644932,2020-04-08 00:00:00.000000,0.01365858,0.02162379,0.02968043,1547,2449,3361,842,1301,2222,0.00743853,0.01149161,0.01961798,0.31178899,0.40594470,0.55734432
0,0,Cuba,,,2021-01-05 04:36:28.644932,2020-04-09 00:00:00.000000,0.01468923,0.02262341,0.03152163,1663,2562,3570,903,1391,2377,0.00797922,0.01228220,0.02099131,0.29968578,0.37933803,0.54626367
0,0,Cuba,,,2021-01-05 04:36:28.644932,2020-04-10 00:00:00.000000,0.01550054,0.02348317,0.03312380,1755,2659,3751,966,1481,2539,0.00853140,0.01308182,0.02242343,0.28379847,0.34698365,0.51068832
0,0,Cuba,,,2021-01-05 04:36:28.644932,2020-04-11 00:00:00.000000,0.01625277,0.02441482,0.03464056,1840,2765,3923,1022,1576,2694,0.00902466,0.01391854,0.02378804,0.25859222,0.32147556,0.50038303
0,0,Cuba,,,2021-01-05 04:36:28.644932,2020-04-12 00:00:00.000000,0.01691601,0.02533030,0.03641278,1916,2869,4124,1072,1661,2803,0.00947233,0.01466637,0.02475516,0.23187064,0.30506123,0.48707453
0,0,Cuba,,,2021-01-05 04:36:28.644932,2020-04-13 00:00:00.000000,0.01743386,0.02574550,0.03765109,1974,2916,4264,1114,1722,2863,0.00983917,0.01520501,0.02528401,0.21650491,0.29418848,0.43200904
0,0,Cuba,,,2021-01-05 04:36:28.644932,2020-04-14 00:00:00.000000,0.01778259,0.02603484,0.03857389,2014,2948,4369,1146,1753,2895,0.01011861,0.01547846,0.02556363,0.21231167,0.28664847,0.38788910
0,0,Cuba,,,2021-01-05 04:36:28.644932,2020-04-15 00:00:00.000000,0.01789305,0.02635798,0.03940340,2026,2985,4463,1168,1786,2914,0.01031654,0.01577699,0.02573067,0.19551196,0.27940493,0.36281815
0,0,Cuba,,,2021-01-05 04:36:28.644932,2020-04-16 00:00:00.000000,0.01777300,0.02686805,0.04019925,2013,3043,4553,1183,1831,2927,0.01045151,0.01616794,0.02584663,0.18533914,0.26837422,0.33495243
0,0,Cuba,,,2021-01-05 04:36:28.644932,2020-04-17 00:00:00.000000,0.01778508,0.02674439,0.04097255,2014,3029,4640,1194,1842,2998,0.01054290,0.01627110,0.02647667,0.16556383,0.24724023,0.32966187
0,0,Cuba,,,2021-01-05 04:36:28.644932,2020-04-18 00:00:00.000000,0.01770623,0.02643866,0.04171664,2005,2994,4725,1201,1846,3065,0.01060633,0.01629790,0.02706447,0.15600678,0.23488144,0.31352641
0,0,Cuba,,,2021-01-05 04:36:28.644932,2020-04-19 00:00:00.000000,0.01760679,0.02609515,0.04241323,1994,2955,4803,1206,1877,3128,0.01065182,0.01657611,0.02761836,0.14951048,0.21962198,0.29712224
0,0,Cuba,,,2021-01-05 04:36:28.644932,2020-04-20 00:00:00.000000,0.01755786,0.02566698,0.04305160,1988,2907,4876,1209,1883,3187,0.01067946,0.01662591,0.02813877,0.14638509,0.20910393,0.28514012
0,0,Cuba,,,2021-01-05 04:36:28.644932,2020-04-21 00:00:00.000000,0.01742434,0.02557138,0.04244958,1973,2896,4808,1209,1892,3237,0.01067538,0.01671049,0.02858170,0.13781799,0.19942454,0.27821514
0,0,Cuba,,,2021-01-05 04:36:28.644932,2020-04-22 00:00:00.000000,0.01726737,0.02535486,0.04152765,1955,2871,4703,1203,1877,3202,0.01062847,0.01657395,0.02827214,0.12856762,0.18804757,0.25294034
0,0,Cuba,,,2021-01-05 04:36:28.644932,2020-04-23 00:00:00.000000,0.01709803,0.02493589,0.04048093,1936,2824,4585,1195,1853,3167,0.01055389,0.01636074,0.02796305,0.12690365,0.18119278,0.25216622
0,0,Cuba,,,2021-01-05 04:36:28.644932,2020-04-24 00:00:00.000000,0.01690469,0.02431509,0.03929321,1914,2754,4450,1185,1809,3184,0.01046370,0.01597820,0.02811533,0.12606736,0.17615232,0.24608128
0,0,Cuba,,,2021-01-05 04:36:28.644932,2020-04-25 00:00:00.000000,0.01659792,0.02358352,0.03792858,1879,2671,4296,1173,1775,3102,0.01035940,0.01567841,0.02739150,0.12510938,0.17029982,0.24426887
0,0,Cuba,,,2021-01-05 04:36:28.644932,2020-04-26 00:00:00.000000,0.01604759,0.02281443,0.03709850,1817,2584,4202,1156,1730,2995,0.01021183,0.01527461,0.02645055,0.12332150,0.16556943,0.23318418
0,0,Cuba,,,2021-01-05 04:36:28.644932,2020-04-27 00:00:00.000000,0.01538350,0.02201090,0.03656295,1742,2493,4141,1126,1683,2889,0.00994936,0.01486032,0.02551079,0.11741203,0.16070130,0.21875751
0,0,Cuba,,,2021-01-05 04:36:28.644932,2020-04-28 00:00:00.000000,0.01468471,0.02123318,0.03518609,1663,2405,3985,1083,1632,2796,0.00956864,0.01441674,0.02468933,0.11140933,0.15636904,0.20662646
0,0,Cuba,,,2021-01-05 04:36:28.644932,2020-04-29 00:00:00.000000,0.01398252,0.02048067,0.03385048,1583,2319,3834,1037,1567,2731,0.00916345,0.01383908,0.02411290,0.10731213,0.14906229,0.20408655
0,0,Cuba,,,2021-01-05 04:36:28.644932,2020-04-30 00:00:00.000000,0.01327947,0.01970584,0.03255635,1504,2232,3687,989,1512,2663,0.00873996,0.01335440,0.02351558,0.10057724,0.14761499,0.20170557
0,0,Cuba,,,2021-01-05 04:36:28.644932,2020-05-01 00:00:00.000000,0.01257576,0.01869145,0.03130609,1424,2117,3545,941,1451,2594,0.00831306,0.01281778,0.02290635,0.09898288,0.14444306,0.19850952
0,0,Cuba,,,2021-01-05 04:36:28.644932,2020-05-02 00:00:00.000000,0.01188011,0.01769139,0.03010002,1345,2003,3409,893,1412,2524,0.00788502,0.01246733,0.02229006,0.09431975,0.13900404,0.19312128
0,0,Cuba,,,2021-01-05 04:36:28.644932,2020-05-03 00:00:00.000000,0.01120518,0.01676786,0.02893364,1269,1899,3277,844,1357,2454,0.00745953,0.01198475,0.02166855,0.09053464,0.13806256,0.18503492
0,0,Cuba,,,2021-01-05 04:36:28.644932,2020-05-04 00:00:00.000000,0.01054864,0.01605232,0.02779365,1194,1818,3148,797,1300,2383,0.00704294,0.01147748,0.02104279,0.08964757,0.13678436,0.18681760
0,0,Cuba,,,2021-01-05 04:36:28.644932,2020-05-05 00:00:00.000000,0.00995289,0.01540112,0.02673227,1127,1744,3027,751,1238,2311,0.00663696,0.01093766,0.02040623,0.08814443,0.13563379,0.18751809
0,0,Cuba,,,2021-01-05 04:36:28.644932,2020-05-06 00:00:00.000000,0.00950299,0.01460758,0.02583282,1076,1654,2925,707,1178,2238,0.00624783,0.01040635,0.01976651,0.08710878,0.13473444,0.18794148
0,0,Cuba,,,2021-01-05 04:36:28.644932,2020-05-07 00:00:00.000000,0.00907240,0.01389099,0.02494917,1027,1573,2825,665,1121,2166,0.00587859,0.00989800,0.01912979,0.08678704,0.13546748,0.18855900
0,0,Cuba,,,2021-01-05 04:36:28.644932,2020-05-08 00:00:00.000000,0.00866248,0.01325761,0.02407486,981,1501,2726,626,1067,2095,0.00553040,0.00942596,0.01849953,0.08686976,0.13358214,0.18982759
0,0,Cuba,,,2021-01-05 04:36:28.644932,2020-05-09 00:00:00.000000,0.00828322,0.01275321,0.02314114,938,1444,2621,589,1022,2024,0.00520365,0.00902550,0.01787564,0.08790689,0.13891917,0.19369102
0,0,Cuba,,,2021-01-05 04:36:28.644932,2020-05-10 00:00:00.000000,0.00797030,0.01223815,0.02230427,902,1386,2526,554,971,1954,0.00489894,0.00857282,0.01725529,0.08821616,0.14292893,0.19780285
0,0,Cuba,,,2021-01-05 04:36:28.644932,2020-05-11 00:00:00.000000,0.00772230,0.01177420,0.02148333,874,1333,2433,523,924,1884,0.00461816,0.00816561,0.01663687,0.08599935,0.14432412,0.20048897
0,0,Cuba,,,2021-01-05 04:36:28.644932,2020-05-12 00:00:00.000000,0.00749990,0.01123064,0.02066217,849,1272,2340,493,884,1815,0.00435861,0.00780883,0.01602823,0.08402402,0.14546058,0.20569559
0,0,Cuba,,,2021-01-05 04:36:28.644932,2020-05-13 00:00:00.000000,0.00717845,0.01074501,0.01987332,813,1217,2250,467,843,1747,0.00412878,0.00744608,0.01542581,0.08352658,0.14886937,0.21305304
0,0,Cuba,,,2021-01-05 04:36:28.644932,2020-05-14 00:00:00.000000,0.00684688,0.01030434,0.01912559,775,1167,2166,448,799,1680,0.00395649,0.00706067,0.01484075,0.08663308,0.15403780,0.21538871
0,0,Cuba,,,2021-01-05 04:36:28.644932,2020-05-15 00:00:00.000000,0.00653464,0.00992745,0.01843203,740,1124,2087,435,767,1617,0.00384152,0.00677854,0.01427925,0.08755957,0.15633996,0.22281238
0,0,Cuba,,,2021-01-05 04:36:28.644932,2020-05-16 00:00:00.000000,0.00624319,0.00968488,0.01780656,707,1096,2016,425,741,1557,0.00375326,0.00654748,0.01374836,0.09763163,0.15941980,0.23353027
0,0,Cuba,,,2021-01-05 04:36:28.644932,2020-05-17 00:00:00.000000,0.00597439,0.00936338,0.01725060,676,1060,1953,416,719,1501,0.00367883,0.00635524,0.01325585,0.10669701,0.16280106,0.24470248
0,0,Cuba,,,2021-01-05 04:36:28.644932,2020-05-18 00:00:00.000000,0.00573782,0.00906030,0.01672737,649,1026,1894,409,694,1450,0.00361631,0.00612789,0.01280639,0.10974186,0.17417933,0.25635020
0,0,Cuba,,,2021-01-05 04:36:28.644932,2020-05-19 00:00:00.000000,0.00552452,0.00881360,0.01625178,625,998,1840,403,675,1403,0.00356151,0.00596043,0.01239180,0.10982885,0.18223555,0.26633949
0,0,Cuba,,,2021-01-05 04:36:28.644932,2020-05-20 00:00:00.000000,0.00542088,0.00866979,0.01582651,614,981,1792,397,651,1355,0.00351309,0.00575288,0.01197050,0.11073309,0.18503982,0.27433799
0,0,Cuba,,,2021-01-05 04:36:28.644932,2020-05-21 00:00:00.000000,0.00538777,0.00852142,0.01546179,610,965,1751,393,632,1311,0.00346993,0.00558411,0.01158084,0.11277431,0.18748720,0.27711278
0,0,Cuba,,,2021-01-05 04:36:28.644932,2020-05-22 00:00:00.000000,0.00535975,0.00833481,0.01516405,607,944,1717,388,620,1272,0.00343165,0.00547759,0.01123317,0.11647034,0.19592982,0.28294975
0,0,Cuba,,,2021-01-05 04:36:28.644932,2020-05-23 00:00:00.000000,0.00533440,0.00823044,0.01492598,604,932,1690,384,604,1238,0.00339648,0.00533509,0.01093381,0.12203287,0.19519159,0.29249943
0,0,Cuba,,,2021-01-05 04:36:28.644932,2020-05-24 00:00:00.000000,0.00530986,0.00808115,0.01473039,601,915,1668,374,587,1209,0.00330642,0.00518536,0.01068133,0.12553000,0.20170477,0.30358127
0,0,Cuba,,,2021-01-05 04:36:28.644932,2020-05-25 00:00:00.000000,0.00527668,0.00810721,0.01456253,597,918,1649,365,579,1185,0.00322319,0.00511305,0.01046722,0.12620932,0.20312752,0.30979785
0,0,Cuba,,,2021-01-05 04:36:28.644932,2020-05-26 00:00:00.000000,0.00524381,0.00796611,0.01440980,593,902,1632,358,573,1164,0.00316216,0.00506519,0.01028204,0.12726327,0.20560114,0.30989422
0,0,Cuba,,,2021-01-05 04:36:28.644932,2020-05-27 00:00:00.000000,0.00515605,0.00793946,0.01426559,584,899,1615,353,568,1145,0.00311673,0.00502123,0.01011689,0.13054741,0.20520547,0.31043291
0,0,Cuba,,,2021-01-05 04:36:28.644932,2020-05-28 00:00:00.000000,0.00517108,0.00794210,0.01412555,585,899,1599,349,568,1128,0.00308464,0.00501728,0.00996572,0.13111327,0.20044949,0.30776657
0,0,Cuba,,,2021-01-05 04:36:28.644932,2020-05-29 00:00:00.000000,0.00512725,0.00787981,0.01398549,580,892,1584,346,559,1112,0.00306256,0.00494144,0.00982491,0.13270259,0.20072889,0.29847975
0,0,Cuba,,,2021-01-05 04:36:28.644932,2020-05-30 00:00:00.000000,0.00507374,0.00774687,0.01377196,574,877,1559,344,556,1097,0.00303872,0.00490977,0.00969259,0.13203870,0.19220345,0.29521517
0,0,Cuba,,,2021-01-05 04:36:28.644932,2020-05-31 00:00:00.000000,0.00500332,0.00759757,0.01350127,566,860,1529,341,551,1083,0.00301425,0.00486685,0.00956795,0.12971803,0.19026972,0.27943023
0,0,Cuba,,,2021-01-05 04:36:28.644932,2020-06-01 00:00:00.000000,0.00490638,0.00735133,0.01321501,555,832,1496,341,545,1070,0.00301159,0.00481340,0.00945058,0.12288387,0.19072590,0.27643366
0,0,Cuba,,,2021-01-05 04:36:28.644932,2020-06-02 00:00:00.000000,0.00478528,0.00713832,0.01290656,542,808,1461,339,538,1059,0.00300027,0.00475398,0.00935774,0.11658823,0.19067891,0.26596447
0,0,Cuba,,,2021-01-05 04:36:28.644932,2020-06-03 00:00:00.000000,0.00464491,0.00693772,0.01258550,526,785,1425,338,525,1051,0.00298415,0.00464073,0.00928065,0.11315139,0.18724975,0.24067764
0,0,Cuba,,,2021-01-05 04:36:28.644932,2020-06-04 00:00:00.000000,0.00449105,0.00674968,0.01226394,508,764,1389,333,514,1043,0.00294763,0.00454040,0.00921376,0.11195113,0.17968740,0.23649350
0,0,Cuba,,,2021-01-05 04:36:28.644932,2020-06-05 00:00:00.000000,0.00441182,0.00659127,0.01195205,499,746,1353,326,499,1036,0.00288272,0.00441311,0.00915228,0.11264165,0.17043059,0.23535535
0,0,Cuba,,,2021-01-05 04:36:28.644932,2020-06-06 00:00:00.000000,0.00436703,0.00636200,0.01165188,494,720,1319,317,483,1028,0.00280433,0.00426525,0.00908194,0.11181698,0.16155339,0.23086775
0,0,Cuba,,,2021-01-05 04:36:28.644932,2020-06-07 00:00:00.000000,0.00429795,0.00613405,0.01135846,486,694,1286,307,470,1014,0.00271741,0.00415551,0.00895532,0.11094629,0.15414694,0.22195755
0,0,Cuba,,,2021-01-05 04:36:28.644932,2020-06-08 00:00:00.000000,0.00419225,0.00591734,0.01107618,474,670,1254,294,458,988,0.00260308,0.00405026,0.00873133,0.10975119,0.15102529,0.21051638
0,0,Cuba,,,2021-01-05 04:36:28.644932,2020-06-09 00:00:00.000000,0.00402246,0.00570794,0.01078466,455,646,1221,282,439,964,0.00249778,0.00388454,0.00851346,0.10931669,0.14890539,0.20803757
0,0,Cuba,,,2021-01-05 04:36:28.644932,2020-06-10 00:00:00.000000,0.00384436,0.00549145,0.01047769,435,621,1186,271,420,933,0.00239824,0.00371417,0.00823907,0.10525500,0.14486145,0.19949001
0,0,Cuba,,,2021-01-05 04:36:28.644932,2020-06-11 00:00:00.000000,0.00373049,0.00525079,0.01015938,422,594,1150,260,404,900,0.00230229,0.00357182,0.00794651,0.09877918,0.14414504,0.19402695
0,0,Cuba,,,2021-01-05 04:36:28.644932,2020-06-12 00:00:00.000000,0.00353000,0.00502893,0.00983945,399,569,1114,250,389,866,0.00221213,0.00343739,0.00764847,0.09588525,0.14324139,0.18843918
0,0,Cuba,,,2021-01-05 04:36:28.644932,2020-06-13 00:00:00.000000,0.00333811,0.00484545,0.00952458,378,548,1078,240,377,832,0.00212719,0.00333533,0.00734864,0.09528799,0.14331055,0.19103406
0,0,Cuba,,,2021-01-05 04:36:28.644932,2020-06-14 00:00:00.000000,0.00315467,0.00466353,0.00921647,357,528,1043,230,362,798,0.00203309,0.00319836,0.00704669,0.09279313,0.14009357,0.19265823
0,0,Cuba,,,2021-01-05 04:36:28.644932,2020-06-15 00:00:00.000000,0.00297412,0.00448778,0.00891142,336,508,1009,218,346,763,0.00192922,0.00305892,0.00674411,0.09174613,0.13790364,0.18873326
0,0,Cuba,,,2021-01-05 04:36:28.644932,2020-06-16 00:00:00.000000,0.00280288,0.00429484,0.00853932,317,486,967,207,330,730,0.00183526,0.00291976,0.00644671,0.09141844,0.13827538,0.19058804
0,0,Cuba,,,2021-01-05 04:36:28.644932,2020-06-17 00:00:00.000000,0.00263998,0.00412139,0.00818162,299,466,926,197,317,697,0.00174337,0.00279942,0.00616152,0.09143924,0.13683582,0.19215374
0,0,Cuba,,,2021-01-05 04:36:28.644932,2020-06-18 00:00:00.000000,0.00248535,0.00395260,0.00787219,281,447,891,187,304,667,0.00165628,0.00268658,0.00589631,0.09208989,0.13653301,0.19093869
0,0,Cuba,,,2021-01-05 04:36:28.644932,2020-06-19 00:00:00.000000,0.00233925,0.00379095,0.00760372,264,429,861,177,293,640,0.00156693,0.00259017,0.00565698,0.09515811,0.13792473,0.19139711
0,0,Cuba,,,2021-01-05 04:36:28.644932,2020-06-20 00:00:00.000000,0.00221467,0.00364716,0.00736334,250,413,834,167,282,616,0.00147511,0.00249593,0.00544424,0.09558657,0.13923551,0.19092737
0,0,Cuba,,,2021-01-05 04:36:28.644932,2020-06-21 00:00:00.000000,0.00212459,0.00350650,0.00714125,240,397,808,157,273,595,0.00138849,0.00241476,0.00525425,0.09511386,0.14092946,0.19143259
0,0,Cuba,,,2021-01-05 04:36:28.644932,2020-06-22 00:00:00.000000,0.00202470,0.00338231,0.00693534,229,383,785,148,261,575,0.00130703,0.00231261,0.00508185,0.09399769,0.14483014,0.19492066
0,0,Cuba,,,2021-01-05 04:36:28.644932,2020-06-23 00:00:00.000000,0.00193323,0.00326973,0.00673972,218,370,763,140,251,557,0.00124126,0.00221958,0.00492353,0.09216810,0.14830111,0.20655508
0,0,Cuba,,,2021-01-05 04:36:28.644932,2020-06-24 00:00:00.000000,0.00184928,0.00318009,0.00655291,209,360,742,134,243,540,0.00118486,0.00214631,0.00477586,0.08979496,0.14908649,0.20911974
0,0,Cuba,,,2021-01-05 04:36:28.644932,2020-06-25 00:00:00.000000,0.00177366,0.00310322,0.00636028,200,351,720,128,233,525,0.00113470,0.00205973,0.00463697,0.08748696,0.15515014,0.21436493
0,0,Cuba,,,2021-01-05 04:36:28.644932,2020-06-26 00:00:00.000000,0.00170678,0.00302654,0.00610737,193,342,691,123,223,510,0.00108926,0.00197644,0.00450644,0.09832474,0.16014733,0.22447610
0,0,Cuba,,,2021-01-05 04:36:28.644932,2020-06-27 00:00:00.000000,0.00164853,0.00292438,0.00585995,186,331,663,118,216,496,0.00104794,0.00191106,0.00438494,0.10698007,0.16821350,0.23413547
0,0,Cuba,,,2021-01-05 04:36:28.644932,2020-06-28 00:00:00.000000,0.00159820,0.00286326,0.00561879,181,324,636,114,212,483,0.00101091,0.00187231,0.00427300,0.11434918,0.17520052,0.28500962
0,0,Cuba,,,2021-01-05 04:36:28.644932,2020-06-29 00:00:00.000000,0.00159755,0.00282223,0.00538105,180,319,609,110,209,472,0.00097913,0.00184704,0.00416989,0.11544243,0.17900222,0.29385549
0,0,Cuba,,,2021-01-05 04:36:28.644932,2020-06-30 00:00:00.000000,0.00159992,0.00279385,0.00515604,181,316,584,107,205,457,0.00094505,0.00181695,0.00403647,0.11396914,0.18332427,0.29457282
0,0,Cuba,,,2021-01-05 04:36:28.644932,2020-07-01 00:00:00.000000,0.00159564,0.00275945,0.00506450,180,312,573,106,200,438,0.00093891,0.00177247,0.00386990,0.11380042,0.19171899,0.29541177
0,0,Cuba,,,2021-01-05 04:36:28.644932,2020-07-02 00:00:00.000000,0.00163058,0.00272767,0.00508745,184,308,576,105,197,420,0.00093342,0.00174670,0.00371226,0.11754092,0.19727565,0.29707876
0,0,Cuba,,,2021-01-05 04:36:28.644932,2020-07-03 00:00:00.000000,0.00164729,0.00271744,0.00511597,186,307,579,107,194,406,0.00094638,0.00171885,0.00359103,0.12062547,0.20804761,0.30065876
0,0,Cuba,,,2021-01-05 04:36:28.644932,2020-07-04 00:00:00.000000,0.00166573,0.00270030,0.00515400,188,305,583,108,193,408,0.00095392,0.00170555,0.00360628,0.12232731,0.21496522,0.30802136
0,0,Cuba,,,2021-01-05 04:36:28.644932,2020-07-05 00:00:00.000000,0.00168594,0.00269190,0.00520496,190,304,589,109,191,410,0.00096310,0.00169423,0.00362640,0.12533261,0.22715802,0.32146716
0,0,Cuba,,,2021-01-05 04:36:28.644932,2020-07-06 00:00:00.000000,0.00168754,0.00271056,0.00517752,191,307,586,110,192,410,0.00097358,0.00169664,0.00362137,0.13618929,0.23477833,0.33716745
0,0,Cuba,,,2021-01-05 04:36:28.644932,2020-07-07 00:00:00.000000,0.00168355,0.00272214,0.00517082,190,308,585,111,195,405,0.00098151,0.00172399,0.00357926,0.14492209,0.23777477,0.34433160
0,0,Cuba,,,2021-01-05 04:36:28.644932,2020-07-08 00:00:00.000000,0.00168106,0.00272886,0.00518528,190,309,587,112,196,402,0.00098898,0.00173337,0.00355464,0.15261948,0.24505242,0.35154201
0,0,Cuba,,,2021-01-05 04:36:28.644932,2020-07-09 00:00:00.000000,0.00168193,0.00277656,0.00523857,190,314,593,112,196,401,0.00099720,0.00173087,0.00354597,0.16849479,0.25899946,0.38553876
0,0,Cuba,,,2021-01-05 04:36:28.644932,2020-07-10 00:00:00.000000,0.00168848,0.00283192,0.00534895,191,320,605,113,198,402,0.00100347,0.00175567,0.00354950,0.17928148,0.26708059,0.39862444
0,0,Cuba,,,2021-01-05 04:36:28.644932,2020-07-11 00:00:00.000000,0.00170291,0.00289605,0.00546118,192,328,618,112,201,403,0.00099365,0.00177864,0.00356161,0.18199994,0.28275995,0.41609490
0,0,Cuba,,,2021-01-05 04:36:28.644932,2020-07-12 00:00:00.000000,0.00172622,0.00304038,0.00557540,195,344,631,111,205,405,0.00098593,0.00181314,0.00357986,0.20016130,0.29753188,0.42989897
0,0,Cuba,,,2021-01-05 04:36:28.644932,2020-07-13 00:00:00.000000,0.00178666,0.00306453,0.00569482,202,347,645,111,211,408,0.00098174,0.00186459,0.00360291,0.21987624,0.31333364,0.45308830
0,0,Cuba,,,2021-01-05 04:36:28.644932,2020-07-14 00:00:00.000000,0.00185136,0.00319237,0.00594864,209,361,673,111,216,411,0.00098752,0.00191064,0.00363638,0.22886757,0.33172378,0.45475969
0,0,Cuba,,,2021-01-05 04:36:28.644932,2020-07-15 00:00:00.000000,0.00189707,0.00339096,0.00629456,214,384,712,113,223,416,0.00100098,0.00197106,0.00367725,0.23721196,0.34987605,0.45654450
0,0,Cuba,,,2021-01-05 04:36:28.644932,2020-07-16 00:00:00.000000,0.00194830,0.00355979,0.00646743,220,403,732,115,232,421,0.00102015,0.00205365,0.00372510,0.24148130,0.36912609,0.51389843
0,0,Cuba,,,2021-01-05 04:36:28.644932,2020-07-17 00:00:00.000000,0.00200854,0.00377456,0.00666677,227,427,755,118,241,428,0.00104372,0.00213241,0.00378426,0.25326777,0.37692156,0.54123741
0,0,Cuba,,,2021-01-05 04:36:28.644932,2020-07-18 00:00:00.000000,0.00209266,0.00404574,0.00694349,237,458,786,121,251,451,0.00107191,0.00222220,0.00399007,0.27825117,0.38353544,0.54699673
0,0,Cuba,,,2021-01-05 04:36:28.644932,2020-07-19 00:00:00.000000,0.00221741,0.00433987,0.00730273,251,491,827,125,264,479,0.00110869,0.00233831,0.00423300,0.30277585,0.41308350,0.56581748
0,0,Cuba,,,2021-01-05 04:36:28.644932,2020-07-20 00:00:00.000000,0.00236921,0.00464554,0.00771922,268,526,874,131,282,509,0.00116060,0.00249111,0.00449451,0.32412823,0.43368418,0.58391847
0,0,Cuba,,,2021-01-05 04:36:28.644932,2020-07-21 00:00:00.000000,0.00264081,0.00495928,0.00829074,299,561,939,139,306,541,0.00122784,0.00270686,0.00477907,0.34117808,0.44781219,0.62267903
0,0,Cuba,,,2021-01-05 04:36:28.644932,2020-07-22 00:00:00.000000,0.00298252,0.00534862,0.00924010,337,605,1046,151,330,575,0.00133446,0.00291969,0.00508398,0.34689971,0.45921190,0.63630482
0,0,Cuba,,,2021-01-05 04:36:28.644932,2020-07-23 00:00:00.000000,0.00336656,0.00584276,0.01025651,381,661,1161,167,360,615,0.00148074,0.00318182,0.00543580,0.36445687,0.47408835,0.63933441
0,0,Cuba,,,2021-01-05 04:36:28.644932,2020-07-24 00:00:00.000000,0.00378404,0.00631635,0.01090356,428,715,1235,187,387,685,0.00165888,0.00342009,0.00605069,0.37202734,0.49096025,0.67054351
0,0,Cuba,,,2021-01-05 04:36:28.644932,2020-07-25 00:00:00.000000,0.00415309,0.00686255,0.01157895,470,777,1311,211,413,731,0.00186573,0.00365023,0.00646074,0.37937002,0.50183849,0.69082580
0,0,Cuba,,,2021-01-05 04:36:28.644932,2020-07-26 00:00:00.000000,0.00461368,0.00743167,0.01227782,522,841,1390,238,445,778,0.00210160,0.00393214,0.00686940,0.37697466,0.50355035,0.73949478
0,0,Cuba,,,2021-01-05 04:36:28.644932,2020-07-27 00:00:00.000000,0.00518527,0.00811074,0.01298449,587,918,1470,268,487,830,0.00236883,0.00430088,0.00733509,0.36790597,0.50448616,0.73993224
0,0,Cuba,,,2021-01-05 04:36:28.644932,2020-07-28 00:00:00.000000,0.00582997,0.00888771,0.01404626,660,1006,1590,302,533,905,0.00267135,0.00471109,0.00799372,0.36335033,0.50049554,0.74021129
0,0,Cuba,,,2021-01-05 04:36:28.644932,2020-07-29 00:00:00.000000,0.00628945,0.00980671,0.01529463,712,1110,1732,341,590,986,0.00301346,0.00520951,0.00871112,0.36127451,0.50182048,0.73980391
0,0,Cuba,,,2021-01-05 04:36:28.644932,2020-07-30 00:00:00.000000,0.00670701,0.01078617,0.01665695,759,1221,1886,385,645,1075,0.00339971,0.00570199,0.00949308,0.36051603,0.50795682,0.73961612
0,0,Cuba,,,2021-01-05 04:36:28.644932,2020-07-31 00:00:00.000000,0.00716221,0.01164736,0.01815067,811,1319,2055,424,710,1171,0.00374690,0.00626904,0.01034640,0.36115928,0.50496614,0.73959654
0,0,Cuba,,,2021-01-05 04:36:28.644932,2020-08-01 00:00:00.000000,0.00768668,0.01273113,0.01980264,870,1442,2242,463,786,1277,0.00409200,0.00693977,0.01127971,0.36687465,0.50141103,0.73932935
0,0,Cuba,,,2021-01-05 04:36:28.644932,2020-08-02 00:00:00.000000,0.00864720,0.01397582,0.02166693,979,1582,2454,505,855,1392,0.00446483,0.00755226,0.01229803,0.38218997,0.49796594,0.73592873
0,0,Cuba,,,2021-01-05 04:36:28.644932,2020-08-03 00:00:00.000000,0.00984138,0.01514886,0.02379155,1114,1715,2694,566,929,1520,0.00500321,0.00820583,0.01342598,0.36983724,0.48978928,0.70972278
0,0,Cuba,,,2021-01-05 04:36:28.644932,2020-08-04 00:00:00.000000,0.01119345,0.01625551,0.02616788,1267,1841,2963,644,1021,1701,0.00568990,0.00901578,0.01502430,0.36634364,0.48392692,0.66461654
0,0,Cuba,,,2021-01-05 04:36:28.644932,2020-08-05 00:00:00.000000,0.01229724,0.01747016,0.02875745,1392,1978,3257,707,1116,1907,0.00624762,0.00985828,0.01684132,0.35113344,0.47322943,0.66085220
0,0,Cuba,,,2021-01-05 04:36:28.644932,2020-08-06 00:00:00.000000,0.01311046,0.01876527,0.03089459,1484,2125,3499,763,1207,2078,0.00674500,0.01066481,0.01834746,0.34810258,0.46147378,0.61415007
0,0,Cuba,,,2021-01-05 04:36:28.644932,2020-08-07 00:00:00.000000,0.01382239,0.01998675,0.03213258,1565,2263,3639,823,1287,2198,0.00727428,0.01136704,0.01940674,0.32798149,0.43899070,0.60823919
0,0,Cuba,,,2021-01-05 04:36:28.644932,2020-08-08 00:00:00.000000,0.01450348,0.02136590,0.03311798,1642,2420,3751,887,1384,2384,0.00783258,0.01221960,0.02105483,0.30212019,0.41210525,0.59539876
0,0,Cuba,,,2021-01-05 04:36:28.644932,2020-08-09 00:00:00.000000,0.01514716,0.02256929,0.03387877,1715,2556,3837,953,1455,2534,0.00841689,0.01284931,0.02237523,0.27613786,0.38063553,0.54562799
0,0,Cuba,,,2021-01-05 04:36:28.644932,2020-08-10 00:00:00.000000,0.01571288,0.02354655,0.03515469,1779,2667,3981,1015,1526,2662,0.00896614,0.01347773,0.02350995,0.26868460,0.35664691,0.50833704
0,0,Cuba,,,2021-01-05 04:36:28.644932,2020-08-11 00:00:00.000000,0.01623330,0.02439021,0.03595109,1838,2762,4072,1054,1583,2758,0.00931304,0.01398045,0.02435513,0.24013805,0.33740595,0.46375189
0,0,Cuba,,,2021-01-05 04:36:28.644932,2020-08-12 00:00:00.000000,0.01670115,0.02515756,0.03779853,1891,2849,4281,1096,1648,2831,0.00968027,0.01455266,0.02499739,0.23363155,0.32268796,0.42317582
0,0,Cuba,,,2021-01-05 04:36:28.644932,2020-08-13 00:00:00.000000,0.01748091,0.02593136,0.03965116,1979,2937,4491,1146,1711,2890,0.01011920,0.01511138,0.02552305,0.23165153,0.30752294,0.40107905
0,0,Cuba,,,2021-01-05 04:36:28.644932,2020-08-14 00:00:00.000000,0.01835487,0.02640740,0.04092923,2078,2991,4635,1185,1767,2942,0.01047016,0.01560612,0.02597741,0.22886957,0.29308306,0.36737060
0,0,Cuba,,,2021-01-05 04:36:28.644932,2020-08-15 00:00:00.000000,0.01908660,0.02677326,0.04112612,2161,3032,4658,1215,1813,3004,0.01073564,0.01601332,0.02652367,0.22290040,0.27818043,0.35307089
0,0,Cuba,,,2021-01-05 04:36:28.644932,2020-08-16 00:00:00.000000,0.01953188,0.02723281,0.04130174,2212,3084,4678,1237,1847,3108,0.01092504,0.01631121,0.02744650,0.20831979,0.26466781,0.34947361
0,0,Cuba,,,2021-01-05 04:36:28.644932,2020-08-17 00:00:00.000000,0.01970300,0.02765970,0.04164680,2231,3132,4717,1262,1871,3142,0.01114197,0.01652535,0.02774097,0.19370516,0.26090232,0.34920227
0,0,Cuba,,,2021-01-05 04:36:28.644932,2020-08-18 00:00:00.000000,0.01977490,0.02799008,0.04185652,2239,3170,4740,1279,1888,3159,0.01129582,0.01667289,0.02789205,0.18869621,0.25610626,0.34921010
0,0,Cuba,,,2021-01-05 04:36:28.644932,2020-08-19 00:00:00.000000,0.01975549,0.02822831,0.04200441,2237,3197,4757,1289,1884,3172,0.01138425,0.01663514,0.02800925,0.18774783,0.25433469,0.32598112
0,0,Cuba,,,2021-01-05 04:36:28.644932,2020-08-20 00:00:00.000000,0.01988546,0.02832143,0.04212191,2252,3207,4770,1292,1884,3183,0.01141331,0.01663682,0.02810423,0.18788724,0.25361072,0.30882735
0,0,Cuba,,,2021-01-05 04:36:28.644932,2020-08-21 00:00:00.000000,0.01972681,0.02821052,0.04222216,2234,3195,4782,1290,1903,3191,0.01139173,0.01680672,0.02818019,0.18826112,0.24839972,0.31229377
0,0,Cuba,,,2021-01-05 04:36:28.644932,2020-08-22 00:00:00.000000,0.01935242,0.02804193,0.04231030,2191,3176,4792,1283,1926,3197,0.01133084,0.01700741,0.02822613,0.18916450,0.24556250,0.31744900
0,0,Cuba,,,2021-01-05 04:36:28.644932,2020-08-23 00:00:00.000000,0.01917395,0.02797398,0.04238772,2171,3168,4801,1273,1932,3196,0.01124712,0.01706303,0.02821809,0.18992998,0.24364580,0.32184806
0,0,Cuba,,,2021-01-05 04:36:28.644932,2020-08-24 00:00:00.000000,0.01921857,0.02824333,0.04229268,2176,3199,4790,1269,1946,3186,0.01120960,0.01718892,0.02813683,0.18815069,0.24368635,0.31659459
0,0,Cuba,,,2021-01-05 04:36:28.644932,2020-08-25 00:00:00.000000,0.01936532,0.02816655,0.04248450,2193,3190,4812,1262,1957,3170,0.01115022,0.01728511,0.02799077,0.18663654,0.24502911,0.32303352
0,0,Cuba,,,2021-01-05 04:36:28.644932,2020-08-26 00:00:00.000000,0.01955282,0.02824260,0.04274781,2214,3198,4841,1267,1949,3149,0.01118978,0.01721197,0.02780187,0.18645829,0.24679084,0.32710808
0,0,Cuba,,,2021-01-05 04:36:28.644932,2020-08-27 00:00:00.000000,0.01976130,0.02843612,0.04284565,2238,3220,4852,1276,1962,3162,0.01126939,0.01732743,0.02792448,0.18557826,0.24829024,0.32791118
0,0,Cuba,,,2021-01-05 04:36:28.644932,2020-08-28 00:00:00.000000,0.01976736,0.02839821,0.04291890,2238,3216,4861,1288,1991,3179,0.01137243,0.01758622,0.02807420,0.18434795,0.25065739,0.33330004
0,0,Cuba,,,2021-01-05 04:36:28.644932,2020-08-29 00:00:00.000000,0.01966385,0.02844992,0.04294840,2227,3222,4864,1298,2014,3198,0.01146197,0.01778420,0.02823700,0.18391762,0.25076401,0.32855424
0,0,Cuba,,,2021-01-05 04:36:28.644932,2020-08-30 00:00:00.000000,0.01983456,0.02834124,0.04292576,2246,3210,4862,1305,2030,3218,0.01152302,0.01792350,0.02841582,0.18355981,0.25151265,0.34688976
0,0,Cuba,,,2021-01-05 04:36:28.644932,2020-08-31 00:00:00.000000,0.02028192,0.02849671,0.04309089,2297,3227,4880,1312,2037,3242,0.01158521,0.01799288,0.02862988,0.18341741,0.25268839,0.34777966
0,0,Cuba,,,2021-01-05 04:36:28.644932,2020-09-01 00:00:00.000000,0.02051542,0.02859428,0.04341358,2323,3238,4917,1319,2044,3276,0.01164546,0.01805433,0.02892395,0.18349095,0.25188851,0.34775145
0,0,Cuba,,,2021-01-05 04:36:28.644932,2020-09-02 00:00:00.000000,0.02061522,0.02884702,0.04366389,2335,3267,4945,1344,2046,3309,0.01186615,0.01806657,0.02921722,0.18009213,0.25305798,0.34757960
0,0,Cuba,,,2021-01-05 04:36:28.644932,2020-09-03 00:00:00.000000,0.02043558,0.02899346,0.04374204,2314,3283,4954,1369,2043,3328,0.01208770,0.01804503,0.02938915,0.18108839,0.25519241,0.34709962
0,0,Cuba,,,2021-01-05 04:36:28.644932,2020-09-04 00:00:00.000000,0.02027227,0.02935160,0.04368803,2296,3324,4948,1375,2018,3348,0.01214414,0.01782277,0.02956752,0.18237977,0.25499902,0.34426617
0,0,Cuba,,,2021-01-05 04:36:28.644932,2020-09-05 00:00:00.000000,0.02042432,0.02940947,0.04358798,2313,3331,4937,1381,2018,3369,0.01219551,0.01782449,0.02974913,0.18336656,0.25679289,0.33983417
0,0,Cuba,,,2021-01-05 04:36:28.644932,2020-09-06 00:00:00.000000,0.02059313,0.02958374,0.04348095,2332,3350,4924,1386,2041,3390,0.01224077,0.01802607,0.02993802,0.18547978,0.25554269,0.33673131
0,0,Cuba,,,2021-01-05 04:36:28.644932,2020-09-07 00:00:00.000000,0.02074859,0.02983947,0.04454634,2350,3379,5045,1375,2087,3387,0.01214614,0.01843436,0.02991159,0.18693846,0.25539007,0.33577664
0,0,Cuba,,,2021-01-05 04:36:28.644932,2020-09-08 00:00:00.000000,0.02093755,0.02988866,0.04568124,2371,3385,5174,1361,2100,3388,0.01202396,0.01854358,0.02991423,0.19013218,0.25648412,0.33498106
0,0,Cuba,,,2021-01-05 04:36:28.644932,2020-09-09 00:00:00.000000,0.02094624,0.02988106,0.04618535,2372,3384,5231,1351,2088,3425,0.01193172,0.01844013,0.03024407,0.19230089,0.25241194,0.33763855
0,0,Cuba,,,2021-01-05 04:36:28.644932,2020-09-10 00:00:00.000000,0.02090090,0.02987986,0.04603996,2367,3384,5214,1346,2086,3487,0.01188624,0.01842353,0.03078722,0.19407082,0.25161975,0.33086396
0,0,Cuba,,,2021-01-05 04:36:28.644932,2020-09-11 00:00:00.000000,0.02080996,0.02976291,0.04578329,2357,3371,5185,1335,2110,3513,0.01178902,0.01863376,0.03102224,0.19263082,0.24857859,0.32965020
0,0,Cuba,,,2021-01-05 04:36:28.644932,2020-09-12 00:00:00.000000,0.02067305,0.02967362,0.04620633,2341,3361,5233,1319,2127,3540,0.01164984,0.01878445,0.03125781,0.18745273,0.24392130,0.32186712
0,0,Cuba,,,2021-01-05 04:36:28.644932,2020-09-13 00:00:00.000000,0.02048898,0.02957073,0.04677118,2320,3349,5297,1300,2133,3566,0.01148339,0.01883625,0.03148452,0.18341096,0.24313940,0.31586113
0,0,Cuba,,,2021-01-05 04:36:28.644932,2020-09-14 00:00:00.000000,0.02028086,0.02961612,0.04752215,2297,3354,5382,1280,2121,3586,0.01130123,0.01873209,0.03166022,0.17658882,0.23820351,0.31623790
0,0,Cuba,,,2021-01-05 04:36:28.644932,2020-09-15 00:00:00.000000,0.02005157,0.02977452,0.04846105,2271,3372,5488,1276,2112,3592,0.01127190,0.01865017,0.03171525,0.17187108,0.23315403,0.31574109
0,0,Cuba,,,2021-01-05 04:36:28.644932,2020-09-16 00:00:00.000000,0.01981552,0.02961053,0.04820189,2244,3353,5459,1285,2117,3585,0.01135207,0.01869789,0.03165705,0.16961538,0.22962975,0.30788122
0,0,Cuba,,,2021-01-05 04:36:28.644932,2020-09-17 00:00:00.000000,0.01973051,0.02939792,0.04791202,2234,3329,5426,1295,2117,3571,0.01143519,0.01869354,0.03153097,0.16878467,0.22647834,0.29523258
0,0,Cuba,,,2021-01-05 04:36:28.644932,2020-09-18 00:00:00.000000,0.01938950,0.02925776,0.04760026,2196,3313,5391,1304,2118,3552,0.01151936,0.01870427,0.03136848,0.16423312,0.22475052,0.29155474
0,0,Cuba,,,2021-01-05 04:36:28.644932,2020-09-19 00:00:00.000000,0.01925249,0.02899656,0.04727908,2180,3284,5355,1300,2124,3532,0.01147753,0.01875474,0.03118641,0.16208554,0.22041097,0.28558355
0,0,Cuba,,,2021-01-05 04:36:28.644932,2020-09-20 00:00:00.000000,0.01916750,0.02867409,0.04695555,2171,3247,5318,1288,2124,3510,0.01137711,0.01876059,0.03099329,0.15744221,0.21530817,0.27767344
0,0,Cuba,,,2021-01-05 04:36:28.644932,2020-09-21 00:00:00.000000,0.01912106,0.02825637,0.04663042,2165,3200,5281,1280,2110,3487,0.01130593,0.01863137,0.03079371,0.15459225,0.21450291,0.27241849
0,0,Cuba,,,2021-01-05 04:36:28.644932,2020-09-22 00:00:00.000000,0.01908885,0.02778422,0.04634163,2162,3147,5248,1275,2087,3464,0.01126038,0.01842977,0.03058969,0.15345813,0.21305587,0.27744103
0,0,Cuba,,,2021-01-05 04:36:28.644932,2020-09-23 00:00:00.000000,0.01906230,0.02727295,0.04616168,2159,3089,5228,1272,2060,3442,0.01123061,0.01819291,0.03039630,0.15037238,0.20947056,0.28001729
0,0,Cuba,,,2021-01-05 04:36:28.644932,2020-09-24 00:00:00.000000,0.01901333,0.02687335,0.04601679,2153,3043,5212,1269,2031,3426,0.01120904,0.01793167,0.03024759,0.14612416,0.20619236,0.27744905
0,0,Cuba,,,2021-01-05 04:36:28.644932,2020-09-25 00:00:00.000000,0.01885622,0.02648139,0.04578063,2135,2999,5185,1266,1999,3413,0.01118365,0.01765432,0.03013277,0.14239160,0.20512693,0.26925286
0,0,Cuba,,,2021-01-05 04:36:28.644932,2020-09-26 00:00:00.000000,0.01845903,0.02623085,0.04526028,2090,2971,5126,1259,1977,3397,0.01112137,0.01745880,0.02999894,0.13960772,0.19792484,0.26518089
0,0,Cuba,,,2021-01-05 04:36:28.644932,2020-09-27 00:00:00.000000,0.01788026,0.02583715,0.04426863,2025,2926,5014,1241,1944,3369,0.01096398,0.01716613,0.02974958,0.13783812,0.19852895,0.25672555
0,0,Cuba,,,2021-01-05 04:36:28.644932,2020-09-28 00:00:00.000000,0.01722383,0.02551906,0.04289848,1950,2890,4858,1212,1914,3315,0.01070262,0.01690257,0.02927218,0.13649812,0.19836642,0.25666416
0,0,Cuba,,,2021-01-05 04:36:28.644932,2020-09-29 00:00:00.000000,0.01656064,0.02519950,0.04136930,1875,2854,4685,1174,1887,3234,0.01036909,0.01666411,0.02855446,0.13452249,0.19791069,0.25712081
0,0,Cuba,,,2021-01-05 04:36:28.644932,2020-09-30 00:00:00.000000,0.01591920,0.02487787,0.03979926,1803,2817,4507,1132,1859,3134,0.01000249,0.01641747,0.02767438,0.13399446,0.19434202,0.25804166
0,0,Cuba,,,2021-01-05 04:36:28.644932,2020-10-01 00:00:00.000000,0.01532807,0.02455030,0.03824438,1736,2780,4331,1091,1831,3063,0.00963402,0.01616595,0.02704939,0.13376079,0.19363884,0.25954973
0,0,Cuba,,,2021-01-05 04:36:28.644932,2020-10-02 00:00:00.000000,0.01482029,0.02403746,0.03673290,1678,2722,4160,1051,1802,3020,0.00928085,0.01591299,0.02666443,0.12659064,0.19161909,0.26181720
0,0,Cuba,,,2021-01-05 04:36:28.644932,2020-10-03 00:00:00.000000,0.01442239,0.02350402,0.03569958,1633,2662,4043,1015,1774,2974,0.00896195,0.01566227,0.02625958,0.12538176,0.19302527,0.26164918
0,0,Cuba,,,2021-01-05 04:36:28.644932,2020-10-04 00:00:00.000000,0.01413175,0.02296239,0.03582831,1600,2600,4058,984,1746,2926,0.00869455,0.01541872,0.02583855,0.12569624,0.19699979,0.26109884
0,0,Cuba,,,2021-01-05 04:36:28.644932,2020-10-05 00:00:00.000000,0.01391924,0.02247637,0.03593043,1576,2545,4069,961,1713,2877,0.00848555,0.01513106,0.02540790,0.12702410,0.19823904,0.26037207
0,0,Cuba,,,2021-01-05 04:36:28.644932,2020-10-06 00:00:00.000000,0.01375823,0.02182625,0.03603256,1558,2472,4081,942,1660,2828,0.00832524,0.01465739,0.02497615,0.13067024,0.20241742,0.28150673
0,0,Cuba,,,2021-01-05 04:36:28.644932,2020-10-07 00:00:00.000000,0.01363227,0.02158999,0.03553316,1544,2445,4024,929,1617,2780,0.00820281,0.01427794,0.02454687,0.13828621,0.20542903,0.29785343
0,0,Cuba,,,2021-01-05 04:36:28.644932,2020-10-08 00:00:00.000000,0.01354005,0.02112796,0.03504271,1533,2393,3969,918,1580,2732,0.00810822,0.01395160,0.02412318,0.14196163,0.20792631,0.30466836
0,0,Cuba,,,2021-01-05 04:36:28.644932,2020-10-09 00:00:00.000000,0.01349517,0.02089032,0.03474726,1528,2366,3935,910,1549,2685,0.00803653,0.01367968,0.02370899,0.14700930,0.21562109,0.30752759
0,0,Cuba,,,2021-01-05 04:36:28.644932,2020-10-10 00:00:00.000000,0.01352224,0.02075508,0.03460682,1531,2350,3919,905,1521,2640,0.00799015,0.01343038,0.02331192,0.15093342,0.22212271,0.31175174
0,0,Cuba,,,2021-01-05 04:36:28.644932,2020-10-11 00:00:00.000000,0.01363754,0.02062445,0.03455269,1544,2336,3913,903,1487,2623,0.00797848,0.01313126,0.02316194,0.16170056,0.23487274,0.32270590
0,0,Cuba,,,2021-01-05 04:36:28.644932,2020-10-12 00:00:00.000000,0.01382431,0.02064165,0.03454191,1565,2338,3912,907,1460,2631,0.00801139,0.01289345,0.02322918,0.17528678,0.24346707,0.33967545
0,0,Cuba,,,2021-01-05 04:36:28.644932,2020-10-13 00:00:00.000000,0.01404150,0.02073771,0.03454860,1590,2348,3913,916,1442,2635,0.00808799,0.01273788,0.02326755,0.17865643,0.24521134,0.34690288
0,0,Cuba,,,2021-01-05 04:36:28.644932,2020-10-14 00:00:00.000000,0.01409651,0.02092672,0.03457585,1596,2370,3916,928,1449,2634,0.00820176,0.01279501,0.02325583,0.18933269,0.25886987,0.35731822
0,0,Cuba,,,2021-01-05 04:36:28.644932,2020-10-15 00:00:00.000000,0.01421425,0.02110643,0.03467989,1609,2390,3928,939,1448,2628,0.00829247,0.01279232,0.02321067,0.19040614,0.26835842,0.36984147
0,0,Cuba,,,2021-01-05 04:36:28.644932,2020-10-16 00:00:00.000000,0.01424696,0.02133220,0.03500330,1613,2416,3964,951,1455,2623,0.00840482,0.01284671,0.02315870,0.19712347,0.28416913,0.37532736
0,0,Cuba,,,2021-01-05 04:36:28.644932,2020-10-17 00:00:00.000000,0.01461707,0.02170141,0.03550558,1655,2458,4021,964,1470,2619,0.00851470,0.01298300,0.02312594,0.20825599,0.29344817,0.38284384
0,0,Cuba,,,2021-01-05 04:36:28.644932,2020-10-18 00:00:00.000000,0.01490951,0.02223454,0.03606508,1688,2518,4084,974,1508,2619,0.00860651,0.01331684,0.02312350,0.21106116,0.29817219,0.39108042
0,0,Cuba,,,2021-01-05 04:36:28.644932,2020-10-19 00:00:00.000000,0.01519949,0.02286159,0.03644538,1721,2589,4128,988,1550,2621,0.00872871,0.01369184,0.02314761,0.21103240,0.30088225,0.39358251
0,0,Cuba,,,2021-01-05 04:36:28.644932,2020-10-20 00:00:00.000000,0.01564019,0.02343111,0.03697360,1771,2653,4187,1006,1594,2639,0.00889004,0.01408129,0.02330349,0.21087124,0.30206454,0.39400449
0,0,Cuba,,,2021-01-05 04:36:28.644932,2020-10-21 00:00:00.000000,0.01599912,0.02409127,0.03764553,1812,2728,4263,1029,1624,2691,0.00908853,0.01434158,0.02376506,0.21081590,0.30398830,0.39452625
0,0,Cuba,,,2021-01-05 04:36:28.644932,2020-10-22 00:00:00.000000,0.01633910,0.02448166,0.03831703,1850,2772,4340,1055,1655,2742,0.00931713,0.01461712,0.02420872,0.21077944,0.30051553,0.39477821
0,0,Cuba,,,2021-01-05 04:36:28.644932,2020-10-23 00:00:00.000000,0.01669099,0.02489719,0.03899634,1890,2820,4416,1083,1687,2791,0.00956988,0.01490227,0.02464537,0.21002825,0.29850020,0.39480750
0,0,Cuba,,,2021-01-05 04:36:28.644932,2020-10-24 00:00:00.000000,0.01704570,0.02530192,0.03972820,1930,2865,4499,1114,1732,2840,0.00984238,0.01529144,0.02508224,0.21007128,0.29438491,0.39414770
0,0,Cuba,,,2021-01-05 04:36:28.644932,2020-10-25 00:00:00.000000,0.01746338,0.02566677,0.04049290,1978,2907,4586,1147,1772,2892,0.01013137,0.01564510,0.02553831,0.20766055,0.28835123,0.38948524
0,0,Cuba,,,2021-01-05 04:36:28.644932,2020-10-26 00:00:00.000000,0.01814076,0.02595127,0.04123807,2054,2939,4670,1181,1809,2948,0.01043458,0.01597181,0.02603164,0.20620451,0.28372040,0.36558838
0,0,Cuba,,,2021-01-05 04:36:28.644932,2020-10-27 00:00:00.000000,0.01868660,0.02627915,0.04198264,2116,2976,4755,1212,1817,3007,0.01070243,0.01604513,0.02654900,0.20011757,0.28100726,0.34647853
0,0,Cuba,,,2021-01-05 04:36:28.644932,2020-10-28 00:00:00.000000,0.01901699,0.02665896,0.04270234,2153,3019,4836,1230,1829,3067,0.01085972,0.01615218,0.02708164,0.20148386,0.27432101,0.34824241
0,0,Cuba,,,2021-01-05 04:36:28.644932,2020-10-29 00:00:00.000000,0.01923992,0.02682781,0.04289489,2179,3038,4858,1241,1853,3128,0.01096303,0.01636494,0.02762278,0.18906145,0.26654552,0.33867008
0,0,Cuba,,,2021-01-05 04:36:28.644932,2020-10-30 00:00:00.000000,0.01929342,0.02694917,0.04307843,2185,3052,4879,1245,1870,3189,0.01099801,0.01650996,0.02816124,0.17979206,0.25971195,0.32816072
0,0,Cuba,,,2021-01-05 04:36:28.644932,2020-10-31 00:00:00.000000,0.01907806,0.02710598,0.04326429,2160,3070,4900,1243,1902,3247,0.01097602,0.01679663,0.02867125,0.17911682,0.25033713,0.32004830
0,0,Cuba,,,2021-01-05 04:36:28.644932,2020-11-01 00:00:00.000000,0.01885457,0.02716917,0.04345230,2135,3077,4921,1236,1929,3295,0.01091540,0.01703456,0.02909912,0.17328280,0.23789128,0.31227225
0,0,Cuba,,,2021-01-05 04:36:28.644932,2020-11-02 00:00:00.000000,0.01860334,0.02709597,0.04365956,2107,3069,4945,1226,1941,3326,0.01083141,0.01713779,0.02936484,0.16971155,0.22932358,0.30117782
0,0,Cuba,,,2021-01-05 04:36:28.644932,2020-11-03 00:00:00.000000,0.01835487,0.02691495,0.04386659,2078,3048,4968,1216,1933,3338,0.01073973,0.01706656,0.02947169,0.16789148,0.22751207,0.29211230
0,0,Cuba,,,2021-01-05 04:36:28.644932,2020-11-04 00:00:00.000000,0.01811090,0.02665289,0.04407118,2051,3018,4991,1205,1922,3331,0.01064329,0.01697771,0.02941238,0.16582985,0.22163934,0.28786357
0,0,Cuba,,,2021-01-05 04:36:28.644932,2020-11-05 00:00:00.000000,0.01787446,0.02636322,0.04396989,2024,2986,4980,1194,1910,3312,0.01054591,0.01686863,0.02924115,0.16469590,0.21704396,0.28660167
0,0,Cuba,,,2021-01-05 04:36:28.644932,2020-11-06 00:00:00.000000,0.01764798,0.02611191,0.04376125,1998,2957,4956,1183,1889,3284,0.01044801,0.01668285,0.02900231,0.16207132,0.21591059,0.28549187
0,0,Cuba,,,2021-01-05 04:36:28.644932,2020-11-07 00:00:00.000000,0.01734753,0.02582651,0.04332670,1964,2925,4907,1171,1870,3253,0.01034654,0.01651470,0.02872659,0.16021185,0.21098132,0.27420092
0,0,Cuba,,,2021-01-05 04:36:28.644932,2020-11-08 00:00:00.000000,0.01703693,0.02552150,0.04292923,1929,2890,4862,1159,1850,3220,0.01024045,0.01633724,0.02843581,0.15611989,0.20999424,0.27169515
0,0,Cuba,,,2021-01-05 04:36:28.644932,2020-11-09 00:00:00.000000,0.01677176,0.02515373,0.04259165,1899,2849,4824,1147,1814,3190,0.01012956,0.01602015,0.02817029,0.15542955,0.20958424,0.27057897
0,0,Cuba,,,2021-01-05 04:36:28.644932,2020-11-10 00:00:00.000000,0.01667900,0.02486147,0.04213592,1889,2815,4772,1132,1786,3164,0.00999921,0.01577578,0.02793916,0.15670157,0.20924405,0.27034242
0,0,Cuba,,,2021-01-05 04:36:28.644932,2020-11-11 00:00:00.000000,0.01643921,0.02459514,0.04151288,1862,2785,4702,1116,1767,3141,0.00986004,0.01560086,0.02773170,0.16065783,0.21162170,0.28255257
0,0,Cuba,,,2021-01-05 04:36:28.644932,2020-11-12 00:00:00.000000,0.01621205,0.02429570,0.04093282,1836,2751,4636,1106,1753,3119,0.00977102,0.01547687,0.02754226,0.16440785,0.21475324,0.28844927
0,0,Cuba,,,2021-01-05 04:36:28.644932,2020-11-13 00:00:00.000000,0.01608355,0.02418821,0.04093896,1821,2739,4636,1100,1742,3100,0.00971917,0.01538287,0.02737777,0.16780338,0.21957471,0.29238577
0,0,Cuba,,,2021-01-05 04:36:28.644932,2020-11-14 00:00:00.000000,0.01604492,0.02413793,0.04100123,1817,2734,4644,1094,1728,3087,0.00966748,0.01526458,0.02726306,0.17255982,0.22430938,0.30491504
0,0,Cuba,,,2021-01-05 04:36:28.644932,2020-11-15 00:00:00.000000,0.01604308,0.02422761,0.04114909,1817,2744,4660,1089,1721,3085,0.00962041,0.01520286,0.02723852,0.17797158,0.23273257,0.31473794
0,0,Cuba,,,2021-01-05 04:36:28.644932,2020-11-16 00:00:00.000000,0.01607589,0.02415718,0.04136924,1820,2736,4685,1085,1714,3095,0.00958422,0.01513401,0.02732887,0.18153258,0.24341247,0.32579792
0,0,Cuba,,,2021-01-05 04:36:28.644932,2020-11-17 00:00:00.000000,0.01596877,0.02423263,0.04166253,1808,2744,4718,1084,1719,3117,0.00957089,0.01517687,0.02752401,0.18660156,0.25323500,0.33025794
0,0,Cuba,,,2021-01-05 04:36:28.644932,2020-11-18 00:00:00.000000,0.01617969,0.02437571,0.04149571,1832,2760,4700,1086,1729,3148,0.00959028,0.01526747,0.02779308,0.19166237,0.26093603,0.33266117
0,0,Cuba,,,2021-01-05 04:36:28.644932,2020-11-19 00:00:00.000000,0.01630718,0.02456063,0.04101347,1847,2781,4645,1093,1737,3183,0.00965139,0.01533687,0.02810857,0.19898616,0.27235752,0.33875601
0,0,Cuba,,,2021-01-05 04:36:28.644932,2020-11-20 00:00:00.000000,0.01642764,0.02494894,0.04180687,1860,2825,4735,1105,1745,3201,0.00975723,0.01541133,0.02826269,0.20348128,0.28897481,0.35585834
0,0,Cuba,,,2021-01-05 04:36:28.644932,2020-11-21 00:00:00.000000,0.01698509,0.02558838,0.04267587,1923,2898,4833,1121,1769,3163,0.00990416,0.01562400,0.02792555,0.21320514,0.30071243,0.37041460
0,0,Cuba,,,2021-01-05 04:36:28.644932,2020-11-22 00:00:00.000000,0.01780496,0.02616342,0.04271865,2016,2963,4838,1142,1798,3172,0.01008621,0.01588125,0.02801181,0.21880025,0.30622714,0.39520944
0,0,Cuba,,,2021-01-05 04:36:28.644932,2020-11-23 00:00:00.000000,0.01829468,0.02697613,0.04279275,2072,3055,4846,1166,1837,3179,0.01030147,0.01622049,0.02806675,0.22977158,0.31658077,0.40454264
0,0,Cuba,,,2021-01-05 04:36:28.644932,2020-11-24 00:00:00.000000,0.01886214,0.02772806,0.04430810,2136,3140,5018,1195,1891,3223,0.01055530,0.01669593,0.02845822,0.23529421,0.32558748,0.41697894
0,0,Cuba,,,2021-01-05 04:36:28.644932,2020-11-25 00:00:00.000000,0.01950888,0.02886395,0.04609357,2209,3269,5220,1229,1957,3312,0.01085465,0.01728081,0.02924871,0.24548373,0.33101575,0.42599075
0,0,Cuba,,,2021-01-05 04:36:28.644932,2020-11-26 00:00:00.000000,0.02023873,0.02991039,0.04801881,2292,3387,5438,1268,2000,3423,0.01120002,0.01766149,0.03022624,0.25161336,0.33448277,0.43216495
0,0,Cuba,,,2021-01-05 04:36:28.644932,2020-11-27 00:00:00.000000,0.02105809,0.03097378,0.05005594,2385,3508,5669,1313,2051,3550,0.01159265,0.01810859,0.03135026,0.25415617,0.33565264,0.43828532
0,0,Cuba,,,2021-01-05 04:36:28.644932,2020-11-28 00:00:00.000000,0.02196757,0.03207960,0.05219001,2488,3633,5911,1363,2130,3691,0.01203516,0.01881018,0.03258978,0.25527857,0.34009536,0.43657873
0,0,Cuba,,,2021-01-05 04:36:28.644932,2020-11-29 00:00:00.000000,0.02296003,0.03322866,0.05380878,2600,3763,6094,1419,2203,3833,0.01252865,0.01945607,0.03384593,0.25733963,0.34373359,0.43524557
0,0,Cuba,,,2021-01-05 04:36:28.644932,2020-11-30 00:00:00.000000,0.02395170,0.03438574,0.05515040,2712,3894,6246,1480,2258,3968,0.01307088,0.01994201,0.03503851,0.25995590,0.33897739,0.43533970
0,0,Cuba,,,2021-01-05 04:36:28.644932,2020-12-01 00:00:00.000000,0.02429175,0.03549235,0.05648664,2751,4020,6398,1548,2332,4109,0.01367195,0.02059478,0.03628447,0.25867247,0.34020305,0.43366800
0,0,Cuba,,,2021-01-05 04:36:28.644932,2020-12-02 00:00:00.000000,0.02536483,0.03703863,0.05782952,2872,4195,6550,1575,2419,4239,0.01390967,0.02136411,0.03743030,0.25496650,0.33991426,0.43238360
0,0,Cuba,,,2021-01-05 04:36:28.644932,2020-12-03 00:00:00.000000,0.02673559,0.03843809,0.05919419,3028,4353,6704,1598,2498,4359,0.01411277,0.02205545,0.03848993,0.25445790,0.33958665,0.43059211
0,0,Cuba,,,2021-01-05 04:36:28.644932,2020-12-04 00:00:00.000000,0.02803386,0.03957185,0.06060610,3175,4482,6864,1619,2572,4476,0.01430053,0.02270977,0.03952316,0.25268034,0.33324821,0.42648868
0,0,Cuba,,,2021-01-05 04:36:28.644932,2020-12-05 00:00:00.000000,0.02884589,0.04071969,0.06232848,3267,4612,7059,1640,2665,4592,0.01448780,0.02353233,0.04054583,0.24408344,0.32623649,0.42580101
0,0,Cuba,,,2021-01-05 04:36:28.644932,2020-12-06 00:00:00.000000,0.02965220,0.04166542,0.06476688,3358,4719,7335,1682,2761,4708,0.01485278,0.02437688,0.04157240,0.23553101,0.32357584,0.41890448
0,0,Cuba,,,2021-01-05 04:36:28.644932,2020-12-07 00:00:00.000000,0.03042019,0.04284693,0.06757586,3445,4853,7654,1762,2855,4826,0.01556324,0.02520643,0.04261234,0.23572666,0.31884704,0.40460482
0,0,Cuba,,,2021-01-05 04:36:28.644932,2020-12-08 00:00:00.000000,0.03118161,0.04428081,0.07037249,3531,5015,7970,1842,2954,4947,0.01626345,0.02608118,0.04367621,0.23676358,0.31294268,0.40135885
0,0,Cuba,,,2021-01-05 04:36:28.644932,2020-12-09 00:00:00.000000,0.03192043,0.04601134,0.07316108,3615,5211,8286,1919,3046,5110,0.01695039,0.02689784,0.04511805,0.24022948,0.31220577,0.41060382
0,0,Cuba,,,2021-01-05 04:36:28.644932,2020-12-10 00:00:00.000000,0.03264032,0.04736821,0.07592033,3697,5365,8599,1995,3141,5289,0.01761741,0.02773936,0.04670392,0.24250579,0.31172909,0.41083910
0,0,Cuba,,,2021-01-05 04:36:28.644932,2020-12-11 00:00:00.000000,0.03335365,0.04900602,0.07794354,3777,5550,8828,2066,3226,5470,0.01824496,0.02848985,0.04830108,0.24217452,0.31258829,0.39494237
0,0,Cuba,,,2021-01-05 04:36:28.644932,2020-12-12 00:00:00.000000,0.03407047,0.05026089,0.07919874,3859,5692,8970,2131,3329,5654,0.01881451,0.02939196,0.04992168,0.24653095,0.31191595,0.39532874
0,0,Cuba,,,2021-01-05 04:36:28.644932,2020-12-13 00:00:00.000000,0.03505065,0.05159483,0.08195084,3970,5843,9282,2188,3430,5742,0.01931964,0.03028512,0.05069492,0.25326109,0.31891657,0.39853168
0,0,Cuba,,,2021-01-05 04:36:28.644932,2020-12-14 00:00:00.000000,0.03695977,0.05323409,0.08478844,4186,6029,9603,2240,3543,5908,0.01977898,0.03128450,0.05216080,0.25389530,0.32408976,0.41584149
0,0,Cuba,,,2021-01-05 04:36:28.644932,2020-12-15 00:00:00.000000,0.03897308,0.05524476,0.08761193,4414,6257,9923,2324,3630,6129,0.02052158,0.03205446,0.05411791,0.25572001,0.32630042,0.42359036
0,0,Cuba,,,2021-01-05 04:36:28.644932,2020-12-16 00:00:00.000000,0.03958935,0.05691878,0.08958541,4484,6446,10146,2372,3750,6357,0.02094525,0.03311532,0.05612517,0.26283853,0.33303668,0.42700668
0,0,Cuba,,,2021-01-05 04:36:28.644932,2020-12-17 00:00:00.000000,0.04013996,0.05905441,0.09194504,4546,6688,10414,2421,3869,6519,0.02138245,0.03416529,0.05755486,0.27911303,0.33605370,0.42810398
0,0,Cuba,,,2021-01-05 04:36:28.644932,2020-12-18 00:00:00.000000,0.04089756,0.06122085,0.09686202,4632,6934,10971,2477,3997,6694,0.02187221,0.03529529,0.05910820,0.28312801,0.34239200,0.42923486
0,0,Cuba,,,2021-01-05 04:36:28.644932,2020-12-19 00:00:00.000000,0.04187591,0.06348115,0.10028300,4743,7190,11358,2541,4118,6895,0.02243660,0.03636011,0.06088013,0.28306375,0.34735844,0.43403965
0,0,Cuba,,,2021-01-05 04:36:28.644932,2020-12-20 00:00:00.000000,0.04305961,0.06648534,0.10337717,4877,7530,11709,2610,4298,7163,0.02304937,0.03794743,0.06324252,0.28494365,0.34925482,0.44082994
0,0,Cuba,,,2021-01-05 04:36:28.644932,2020-12-21 00:00:00.000000,0.04442004,0.06919136,0.10647695,5031,7837,12060,2705,4458,7517,0.02389017,0.03936559,0.06636873,0.28331564,0.35070550,0.44383478
0,0,Cuba,,,2021-01-05 04:36:28.644932,2020-12-22 00:00:00.000000,0.04592885,0.07147614,0.10964648,5202,8095,12419,2812,4646,7863,0.02483259,0.04102137,0.06942118,0.28295161,0.34604648,0.44429271
0,0,Cuba,,,2021-01-05 04:36:28.644932,2020-12-23 00:00:00.000000,0.04759720,0.07350779,0.11292297,5391,8325,12790,2943,4831,8200,0.02599049,0.04265204,0.07239996,0.27810508,0.34505737,0.44442872
0,0,Cuba,,,2021-01-05 04:36:28.644932,2020-12-24 00:00:00.000000,0.04946195,0.07625758,0.11634598,5602,8637,13178,3046,4993,8497,0.02689587,0.04408771,0.07502335,0.27478540,0.34204170,0.43401244
0,0,Cuba,,,2021-01-05 04:36:28.644932,2020-12-25 00:00:00.000000,0.05166312,0.07904668,0.11998319,5851,8953,13590,3171,5187,8785,0.02800003,0.04580117,0.07756090,0.27140728,0.33741602,0.43738197
0,0,Cuba,,,2021-01-05 04:36:28.644932,2020-12-26 00:00:00.000000,0.05423802,0.08152039,0.12394005,6143,9233,14038,3300,5425,9080,0.02913908,0.04790252,0.08017295,0.26824705,0.33262238,0.42870057
0,0,Cuba,,,2021-01-05 04:36:28.644932,2020-12-27 00:00:00.000000,0.05708080,0.08381968,0.12832123,6465,9493,14534,3438,5622,9380,0.03036151,0.04963755,0.08281732,0.26018200,0.32738656,0.40422609
0,0,Cuba,,,2021-01-05 04:36:28.644932,2020-12-28 00:00:00.000000,0.06013077,0.08672287,0.13382875,6810,9822,15158,3588,5806,9613,0.03168330,0.05126785,0.08487417,0.24414709,0.31994507,0.40279802
0,0,Cuba,,,2021-01-05 04:36:28.644932,2020-12-29 00:00:00.000000,0.06340102,0.08896045,0.13793302,7181,10076,15623,3687,5989,9776,0.03255904,0.05287937,0.08631589,0.23266119,0.31635083,0.40687786
0,0,Cuba,,,2021-01-05 04:36:28.644932,2020-12-30 00:00:00.000000,0.06446059,0.09102500,0.14150746,7301,10310,16028,3775,6171,9906,0.03333690,0.05448509,0.08746617,0.23160191,0.31593715,0.42035607
0,0,Cuba,,,2021-01-05 04:36:28.644932,2020-12-31 00:00:00.000000,0.06529092,0.09331654,0.14497770,7395,10569,16421,3854,6288,10006,0.03402679,0.05552063,0.08834594,0.23088214,0.31413362,0.42584460
0,0,Cuba,,,2021-01-05 04:36:28.644932,2021-01-01 00:00:00.000000,0.06609663,0.09569481,0.14838782,7486,10838,16807,3922,6383,10418,0.03463355,0.05635413,0.09198081,0.22606908,0.31336401,0.42652364
0,0,Cuba,,,2021-01-05 04:36:28.644932,2021-01-02 00:00:00.000000,0.06688850,0.09908194,0.15170643,7576,11222,17183,3974,6587,10841,0.03509360,0.05816190,0.09571870,0.21857921,0.31114155,0.42297249
0,0,Cuba,,,2021-01-05 04:36:28.644932,2021-01-03 00:00:00.000000,0.06770054,0.10155726,0.15501585,7668,11503,17558,3986,6846,11267,0.03519411,0.06044641,0.09948048,0.21327104,0.30851141,0.43183406
0,0,Cuba,,,2021-01-05 04:36:28.644932,2021-01-04 00:00:00.000000,0.06807288,0.10444013,0.15836094,7710,11829,17936,3988,7070,11595,0.03521738,0.06242202,0.10237241,0.21159022,0.30850657,0.43861581
0,0,Cuba,,,2021-01-05 04:36:28.644932,2021-01-05 00:00:00.000000,0.06772040,0.10809551,0.16252269,7670,12243,18408,4038,7314,11850,0.03565679,0.06457988,0.10462648,0.21092487,0.30792768,0.46143626
0,0,Cuba,,,2021-01-05 04:36:28.644932,2021-01-06 00:00:00.000000,0.06712361,0.11098521,0.16625816,7602,12570,18831,4094,7524,12141,0.03615195,0.06642970,0.10719786,0.21066123,0.30789712,0.47064299
0,0,Cuba,,,2021-01-05 04:36:28.644932,2021-01-07 00:00:00.000000,0.06642096,0.11366254,0.16985615,7523,12874,19238,4164,7639,12696,0.03676578,0.06744969,0.11209278,0.21055740,0.30766943,0.47218271
0,0,Cuba,,,2021-01-05 04:36:28.644932,2021-01-08 00:00:00.000000,0.06567099,0.11898641,0.17345086,7438,13477,19646,4255,7823,12898,0.03757239,0.06907472,0.11388135,0.21042546,0.30760247,0.47243080
0,0,Cuba,,,2021-01-05 04:36:28.644932,2021-01-09 00:00:00.000000,0.06489710,0.12190771,0.18247226,7350,13808,20667,4364,8021,13097,0.03853510,0.07082163,0.11563429,0.21004794,0.30755872,0.47248223
0,0,Cuba,,,2021-01-05 04:36:28.644932,2021-01-10 00:00:00.000000,0.06411472,0.12310464,0.19368127,7262,13943,21937,4315,8225,13308,0.03810428,0.07261882,0.11749717,0.20980831,0.30753016,0.47249894
0,0,Cuba,,,2021-01-05 04:36:28.644932,2021-01-11 00:00:00.000000,0.06333184,0.12550419,0.20686321,7173,14215,23430,4265,8555,14125,0.03766004,0.07553366,0.12471243,0.20965465,0.30751154,0.47250665
0,0,Cuba,,,2021-01-05 04:36:28.644932,2021-01-12 00:00:00.000000,0.06255265,0.12873114,0.22439836,7085,14580,25416,4215,8761,14993,0.03721456,0.07734906,0.13237284,0.20955552,0.30749940,0.47251075
0,0,Cuba,,,2021-01-05 04:36:28.644932,2021-01-13 00:00:00.000000,0.06177939,0.13029233,0.24342436,6997,14757,27571,4164,8973,15914,0.03676641,0.07922332,0.14050460,0.20949163,0.30749150,0.47251301
0,0,Cuba,,,2021-01-05 04:36:28.644932,2021-01-14 00:00:00.000000,0.06101331,0.13386524,0.25671814,6910,15162,29077,4113,9151,16892,0.03631875,0.08079876,0.14913567,0.20945048,0.30748635,0.47251427
0,0,Cuba,,,2021-01-05 04:36:28.644932,2021-01-15 00:00:00.000000,0.06025505,0.13616324,0.26667552,6824,15422,30205,4063,9266,17620,0.03587337,0.08180740,0.15556306,0.20942399,0.30748300,0.47251498
0,0,Cuba,,,2021-01-05 04:36:28.644932,2021-01-16 00:00:00.000000,0.05950498,0.13923720,0.27837655,6739,15770,31530,4013,9610,18293,0.03543128,0.08484515,0.16150536,0.20940694,0.30748082,0.47251537
0,0,Cuba,,,2021-01-05 04:36:28.644932,2021-01-17 00:00:00.000000,0.05876330,0.14219000,0.29999258,6655,16105,33979,3963,9976,19587,0.03499309,0.08808159,0.17293460,0.20939596,0.30747940,0.47251559
0,0,Cuba,,,2021-01-05 04:36:28.644932,2021-01-18 00:00:00.000000,0.05803011,0.14434766,0.32327330,6572,16349,36615,3914,10220,21257,0.03455918,0.09023114,0.18768085,0.20938890,0.30747847,0.47251571
