FIPS,HR_UID,nameid,province,region,analysisTime,dates,pointprevalence_025,pointprevalence_50,pointprevalence_975,pointinfections_025,pointinfections_50,pointinfections_975,pointinfectious_025,pointinfectious_50,pointinfectious_975,pointinfectiousprevalence_05,pointinfectiousprevalence_50,pointinfectiousprevalence_95,infectrate_025,infectrate_50,infectrate_975
37013,0,USNorthCarolinaBeaufort,North Carolina,Beaufort,2021-01-05 14:34:50.342290,2020-03-09 00:00:00.000000,0.00089323,0.00528362,0.02134215,0,2,10,0,1,5,0.00044145,0.00312009,0.01146354,0.34535524,0.48698189,0.64517337
37013,0,USNorthCarolinaBeaufort,North Carolina,Beaufort,2021-01-05 14:34:50.342290,2020-03-10 00:00:00.000000,0.00100452,0.00578577,0.02308960,0,2,10,0,1,5,0.00044810,0.00295262,0.01114205,0.34535490,0.48675054,0.64516911
37013,0,USNorthCarolinaBeaufort,North Carolina,Beaufort,2021-01-05 14:34:50.342290,2020-03-11 00:00:00.000000,0.00111375,0.00619001,0.02482785,0,2,11,0,1,5,0.00047509,0.00296027,0.01167433,0.34535360,0.48572089,0.64514723
37013,0,USNorthCarolinaBeaufort,North Carolina,Beaufort,2021-01-05 14:34:50.342290,2020-03-12 00:00:00.000000,0.00122209,0.00665610,0.02658515,0,3,12,0,1,5,0.00051327,0.00314937,0.01218213,0.34534850,0.48412797,0.64502045
37013,0,USNorthCarolinaBeaufort,North Carolina,Beaufort,2021-01-05 14:34:50.342290,2020-03-13 00:00:00.000000,0.00133065,0.00715125,0.02838244,0,3,13,0,1,6,0.00055768,0.00334475,0.01279364,0.34532849,0.48366029,0.64425088
37013,0,USNorthCarolinaBeaufort,North Carolina,Beaufort,2021-01-05 14:34:50.342290,2020-03-14 00:00:00.000000,0.00144041,0.00767971,0.03023583,0,3,14,0,1,6,0.00060575,0.00363014,0.01352934,0.34010160,0.48307305,0.63962542
37013,0,USNorthCarolinaBeaufort,North Carolina,Beaufort,2021-01-05 14:34:50.342290,2020-03-15 00:00:00.000000,0.00157918,0.00824506,0.03215690,0,3,15,0,1,6,0.00065625,0.00392752,0.01435468,0.33388662,0.48233852,0.63174204
37013,0,USNorthCarolinaBeaufort,North Carolina,Beaufort,2021-01-05 14:34:50.342290,2020-03-16 00:00:00.000000,0.00429278,0.01324350,0.03606309,2,6,16,0,1,7,0.00070861,0.00422831,0.01524975,0.33336928,0.47912352,0.62644930
37013,0,USNorthCarolinaBeaufort,North Carolina,Beaufort,2021-01-05 14:34:50.342290,2020-03-17 00:00:00.000000,0.00561951,0.01633428,0.03987280,2,7,18,0,2,7,0.00144344,0.00519323,0.01654844,0.33310662,0.47497585,0.62615468
37013,0,USNorthCarolinaBeaufort,North Carolina,Beaufort,2021-01-05 14:34:50.342290,2020-03-18 00:00:00.000000,0.00678352,0.01952292,0.04302975,3,9,20,1,3,8,0.00224125,0.00670951,0.01810276,0.32761986,0.46432366,0.62529081
37013,0,USNorthCarolinaBeaufort,North Carolina,Beaufort,2021-01-05 14:34:50.342290,2020-03-19 00:00:00.000000,0.00830574,0.02342136,0.04565702,3,11,21,1,3,9,0.00276869,0.00835895,0.01970290,0.28952153,0.44703277,0.62278390
37013,0,USNorthCarolinaBeaufort,North Carolina,Beaufort,2021-01-05 14:34:50.342290,2020-03-20 00:00:00.000000,0.00984138,0.02807315,0.05167335,4,13,24,1,4,9,0.00354704,0.00986045,0.02123192,0.28565397,0.41558869,0.61572635
37013,0,USNorthCarolinaBeaufort,North Carolina,Beaufort,2021-01-05 14:34:50.342290,2020-03-21 00:00:00.000000,0.01117321,0.03180849,0.06111632,5,14,28,2,5,11,0.00429398,0.01168976,0.02393294,0.26462775,0.38871960,0.59745081
37013,0,USNorthCarolinaBeaufort,North Carolina,Beaufort,2021-01-05 14:34:50.342290,2020-03-22 00:00:00.000000,0.01251730,0.03520446,0.07106669,5,16,33,2,6,12,0.00496240,0.01394312,0.02757302,0.25964120,0.36879682,0.56469796
37013,0,USNorthCarolinaBeaufort,North Carolina,Beaufort,2021-01-05 14:34:50.342290,2020-03-23 00:00:00.000000,0.01476834,0.03804167,0.07644303,6,17,35,2,7,14,0.00565679,0.01559001,0.03147730,0.25430273,0.35535284,0.51853812
37013,0,USNorthCarolinaBeaufort,North Carolina,Beaufort,2021-01-05 14:34:50.342290,2020-03-24 00:00:00.000000,0.01748869,0.04195800,0.07981511,8,19,37,3,8,16,0.00671103,0.01751505,0.03486526,0.24401898,0.33015752,0.49948067
37013,0,USNorthCarolinaBeaufort,North Carolina,Beaufort,2021-01-05 14:34:50.342290,2020-03-25 00:00:00.000000,0.01872631,0.04469092,0.08269955,8,21,38,3,9,17,0.00801059,0.01938271,0.03793934,0.23799558,0.31623305,0.49096777
37013,0,USNorthCarolinaBeaufort,North Carolina,Beaufort,2021-01-05 14:34:50.342290,2020-03-26 00:00:00.000000,0.01943153,0.04828467,0.08863709,9,22,41,4,9,19,0.00899092,0.02078795,0.04085513,0.23006609,0.30568712,0.48124704
37013,0,USNorthCarolinaBeaufort,North Carolina,Beaufort,2021-01-05 14:34:50.342290,2020-03-27 00:00:00.000000,0.02002857,0.05295786,0.09435730,9,24,44,4,10,20,0.00991076,0.02300763,0.04366047,0.21917541,0.28871946,0.43817813
37013,0,USNorthCarolinaBeaufort,North Carolina,Beaufort,2021-01-05 14:34:50.342290,2020-03-28 00:00:00.000000,0.02145821,0.05823258,0.09949484,10,27,46,5,11,21,0.01088890,0.02543884,0.04637554,0.20343476,0.27191803,0.40896394
37013,0,USNorthCarolinaBeaufort,North Carolina,Beaufort,2021-01-05 14:34:50.342290,2020-03-29 00:00:00.000000,0.02290099,0.06184890,0.10468543,10,29,49,5,12,24,0.01174937,0.02719196,0.05137701,0.19595420,0.25944491,0.37561876
37013,0,USNorthCarolinaBeaufort,North Carolina,Beaufort,2021-01-05 14:34:50.342290,2020-03-30 00:00:00.000000,0.02736292,0.06581887,0.10984459,12,30,51,5,13,25,0.01266296,0.02936478,0.05492493,0.18091158,0.25292888,0.35901801
37013,0,USNorthCarolinaBeaufort,North Carolina,Beaufort,2021-01-05 14:34:50.342290,2020-03-31 00:00:00.000000,0.02997277,0.06904027,0.11514912,14,32,54,6,14,26,0.01416416,0.03159086,0.05719581,0.17140760,0.24587541,0.34899546
37013,0,USNorthCarolinaBeaufort,North Carolina,Beaufort,2021-01-05 14:34:50.342290,2020-04-01 00:00:00.000000,0.03289764,0.07082900,0.12042485,15,33,56,7,16,27,0.01608344,0.03408081,0.05917805,0.15262279,0.23478045,0.33950227
37013,0,USNorthCarolinaBeaufort,North Carolina,Beaufort,2021-01-05 14:34:50.342290,2020-04-02 00:00:00.000000,0.03658726,0.07340063,0.12558085,17,34,59,8,17,29,0.01815761,0.03618784,0.06273030,0.14723248,0.22239554,0.33236096
37013,0,USNorthCarolinaBeaufort,North Carolina,Beaufort,2021-01-05 14:34:50.342290,2020-04-03 00:00:00.000000,0.04038270,0.07779827,0.13050686,18,36,61,9,17,31,0.01938182,0.03783425,0.06627996,0.14611740,0.21330874,0.32652649
37013,0,USNorthCarolinaBeaufort,North Carolina,Beaufort,2021-01-05 14:34:50.342290,2020-04-04 00:00:00.000000,0.04428351,0.08005783,0.13506741,20,37,63,9,18,32,0.02018384,0.03947627,0.06982992,0.14400528,0.20300483,0.31374085
37013,0,USNorthCarolinaBeaufort,North Carolina,Beaufort,2021-01-05 14:34:50.342290,2020-04-05 00:00:00.000000,0.04826265,0.08268137,0.13921485,22,38,65,9,19,34,0.02094200,0.04117006,0.07338273,0.13950046,0.19524931,0.30971543
37013,0,USNorthCarolinaBeaufort,North Carolina,Beaufort,2021-01-05 14:34:50.342290,2020-04-06 00:00:00.000000,0.05048697,0.08582288,0.14507814,23,40,68,10,20,35,0.02164740,0.04300561,0.07616589,0.13091166,0.18790089,0.30561720
37013,0,USNorthCarolinaBeaufort,North Carolina,Beaufort,2021-01-05 14:34:50.342290,2020-04-07 00:00:00.000000,0.05241515,0.08935861,0.14996159,24,41,70,10,21,37,0.02230913,0.04486734,0.07917113,0.12027832,0.17951871,0.29709790
37013,0,USNorthCarolinaBeaufort,North Carolina,Beaufort,2021-01-05 14:34:50.342290,2020-04-08 00:00:00.000000,0.05388214,0.09196016,0.15169679,25,43,71,11,22,38,0.02404143,0.04718452,0.08215089,0.11653050,0.17690844,0.28861314
37013,0,USNorthCarolinaBeaufort,North Carolina,Beaufort,2021-01-05 14:34:50.342290,2020-04-09 00:00:00.000000,0.05448338,0.09253344,0.14952469,25,43,70,12,22,39,0.02557372,0.04876319,0.08450430,0.11114336,0.17400174,0.28761694
37013,0,USNorthCarolinaBeaufort,North Carolina,Beaufort,2021-01-05 14:34:50.342290,2020-04-10 00:00:00.000000,0.05497428,0.09330442,0.14878229,25,43,69,12,23,39,0.02579409,0.05017782,0.08394490,0.10553953,0.17262133,0.28494516
37013,0,USNorthCarolinaBeaufort,North Carolina,Beaufort,2021-01-05 14:34:50.342290,2020-04-11 00:00:00.000000,0.05535990,0.09344382,0.15908650,26,43,74,12,24,39,0.02601272,0.05142091,0.08310899,0.10167709,0.16665035,0.27449232
37013,0,USNorthCarolinaBeaufort,North Carolina,Beaufort,2021-01-05 14:34:50.342290,2020-04-12 00:00:00.000000,0.05566306,0.09490408,0.16120631,26,44,75,12,24,40,0.02622006,0.05270971,0.08575400,0.10048126,0.16253681,0.25456173
37013,0,USNorthCarolinaBeaufort,North Carolina,Beaufort,2021-01-05 14:34:50.342290,2020-04-13 00:00:00.000000,0.05694406,0.09721404,0.16389594,26,45,77,12,25,42,0.02642916,0.05335665,0.09019915,0.10016629,0.15939573,0.25547769
37013,0,USNorthCarolinaBeaufort,North Carolina,Beaufort,2021-01-05 14:34:50.342290,2020-04-14 00:00:00.000000,0.05818985,0.09813577,0.16631107,27,46,78,12,25,43,0.02742809,0.05463257,0.09360998,0.10005867,0.15801301,0.24673602
37013,0,USNorthCarolinaBeaufort,North Carolina,Beaufort,2021-01-05 14:34:50.342290,2020-04-15 00:00:00.000000,0.05967590,0.09941780,0.16932751,28,46,79,13,26,45,0.02939669,0.05599063,0.09623775,0.09988323,0.15680797,0.24177028
37013,0,USNorthCarolinaBeaufort,North Carolina,Beaufort,2021-01-05 14:34:50.342290,2020-04-16 00:00:00.000000,0.06051776,0.10269871,0.17307933,28,48,81,14,26,46,0.03008520,0.05713550,0.09824019,0.09910926,0.15641227,0.23749637
37013,0,USNorthCarolinaBeaufort,North Carolina,Beaufort,2021-01-05 14:34:50.342290,2020-04-17 00:00:00.000000,0.06016377,0.10423492,0.17639614,28,48,82,14,27,46,0.03030884,0.05759274,0.09979151,0.09685282,0.15504782,0.23019949
37013,0,USNorthCarolinaBeaufort,North Carolina,Beaufort,2021-01-05 14:34:50.342290,2020-04-18 00:00:00.000000,0.05961727,0.10619080,0.17883349,28,49,84,14,27,47,0.03052482,0.05822601,0.10101990,0.09413495,0.15043812,0.21890015
37013,0,USNorthCarolinaBeaufort,North Carolina,Beaufort,2021-01-05 14:34:50.342290,2020-04-19 00:00:00.000000,0.05912048,0.10738953,0.18064579,27,50,84,14,27,47,0.03100709,0.05879249,0.10201507,0.09058333,0.14907337,0.22109884
37013,0,USNorthCarolinaBeaufort,North Carolina,Beaufort,2021-01-05 14:34:50.342290,2020-04-20 00:00:00.000000,0.06033738,0.11123612,0.18432022,28,52,86,14,28,48,0.03178484,0.06000301,0.10283893,0.09634816,0.14490370,0.22124590
37013,0,USNorthCarolinaBeaufort,North Carolina,Beaufort,2021-01-05 14:34:50.342290,2020-04-21 00:00:00.000000,0.06113948,0.11109686,0.18627808,28,52,87,15,29,48,0.03235680,0.06234636,0.10356680,0.09585518,0.14655963,0.21209409
37013,0,USNorthCarolinaBeaufort,North Carolina,Beaufort,2021-01-05 14:34:50.342290,2020-04-22 00:00:00.000000,0.05996501,0.11202565,0.18816434,28,52,88,15,30,48,0.03224431,0.06441390,0.10422101,0.09608261,0.14622696,0.21210479
37013,0,USNorthCarolinaBeaufort,North Carolina,Beaufort,2021-01-05 14:34:50.342290,2020-04-23 00:00:00.000000,0.06065713,0.11690151,0.18991861,28,54,89,15,30,49,0.03209071,0.06494361,0.10481666,0.09609604,0.14302156,0.20903851
37013,0,USNorthCarolinaBeaufort,North Carolina,Beaufort,2021-01-05 14:34:50.342290,2020-04-24 00:00:00.000000,0.06191435,0.12100249,0.19233851,29,56,90,15,30,50,0.03252846,0.06538704,0.10711832,0.09339260,0.13975095,0.20667472
37013,0,USNorthCarolinaBeaufort,North Carolina,Beaufort,2021-01-05 14:34:50.342290,2020-04-25 00:00:00.000000,0.06316576,0.12138802,0.19718008,29,57,92,15,31,52,0.03306491,0.06649071,0.11269879,0.09078743,0.13883080,0.20959620
37013,0,USNorthCarolinaBeaufort,North Carolina,Beaufort,2021-01-05 14:34:50.342290,2020-04-26 00:00:00.000000,0.06441896,0.12137461,0.20161974,30,57,94,15,32,55,0.03355069,0.06848201,0.11817965,0.09160762,0.13802454,0.20336421
37013,0,USNorthCarolinaBeaufort,North Carolina,Beaufort,2021-01-05 14:34:50.342290,2020-04-27 00:00:00.000000,0.06515821,0.12011769,0.20352446,30,56,95,15,32,56,0.03360598,0.06895503,0.11969079,0.09242893,0.13804597,0.20095699
37013,0,USNorthCarolinaBeaufort,North Carolina,Beaufort,2021-01-05 14:34:50.342290,2020-04-28 00:00:00.000000,0.06428399,0.11858991,0.20484172,30,55,96,16,32,56,0.03431786,0.06890704,0.12036119,0.08949982,0.13911586,0.20080799
37013,0,USNorthCarolinaBeaufort,North Carolina,Beaufort,2021-01-05 14:34:50.342290,2020-04-29 00:00:00.000000,0.06258454,0.11792769,0.20547762,29,55,96,15,32,56,0.03343012,0.06949402,0.12070286,0.08796804,0.13830828,0.19725407
37013,0,USNorthCarolinaBeaufort,North Carolina,Beaufort,2021-01-05 14:34:50.342290,2020-04-30 00:00:00.000000,0.06076126,0.11795739,0.20557203,28,55,96,15,32,56,0.03304963,0.06949528,0.12082047,0.08428824,0.13677491,0.19370797
37013,0,USNorthCarolinaBeaufort,North Carolina,Beaufort,2021-01-05 14:34:50.342290,2020-05-01 00:00:00.000000,0.06228493,0.11604292,0.20527522,29,54,96,15,32,56,0.03342971,0.06859339,0.12080657,0.08332796,0.13913907,0.19647515
37013,0,USNorthCarolinaBeaufort,North Carolina,Beaufort,2021-01-05 14:34:50.342290,2020-05-02 00:00:00.000000,0.06217426,0.11584320,0.20524465,29,54,96,15,32,56,0.03344929,0.06948580,0.12068062,0.08451435,0.14123910,0.19340517
37013,0,USNorthCarolinaBeaufort,North Carolina,Beaufort,2021-01-05 14:34:50.342290,2020-05-03 00:00:00.000000,0.06180414,0.11504729,0.20476197,29,54,96,15,33,56,0.03253116,0.07026965,0.12059032,0.08871050,0.14076880,0.19750885
37013,0,USNorthCarolinaBeaufort,North Carolina,Beaufort,2021-01-05 14:34:50.342290,2020-05-04 00:00:00.000000,0.06129025,0.11550151,0.21061846,28,54,98,14,32,56,0.03169869,0.06880662,0.12060111,0.08457909,0.13722782,0.19826075
37013,0,USNorthCarolinaBeaufort,North Carolina,Beaufort,2021-01-05 14:34:50.342290,2020-05-05 00:00:00.000000,0.06115259,0.11829135,0.22215632,28,55,104,14,32,56,0.03134968,0.06826904,0.12078591,0.08267285,0.13528700,0.20274883
37013,0,USNorthCarolinaBeaufort,North Carolina,Beaufort,2021-01-05 14:34:50.342290,2020-05-06 00:00:00.000000,0.06422198,0.11902103,0.23220984,30,55,109,14,31,56,0.03131515,0.06797345,0.12111383,0.08296060,0.13509761,0.20547760
37013,0,USNorthCarolinaBeaufort,North Carolina,Beaufort,2021-01-05 14:34:50.342290,2020-05-07 00:00:00.000000,0.06730749,0.12103250,0.23176391,31,56,108,14,31,57,0.03150235,0.06757070,0.12189920,0.08316972,0.13671281,0.20546135
37013,0,USNorthCarolinaBeaufort,North Carolina,Beaufort,2021-01-05 14:34:50.342290,2020-05-08 00:00:00.000000,0.07046637,0.12073776,0.23155298,33,56,108,15,31,57,0.03275936,0.06769738,0.12284863,0.08160871,0.13790418,0.20368352
37013,0,USNorthCarolinaBeaufort,North Carolina,Beaufort,2021-01-05 14:34:50.342290,2020-05-09 00:00:00.000000,0.07125000,0.11967015,0.23155400,33,56,108,16,32,58,0.03427912,0.06972852,0.12364673,0.08068193,0.14288166,0.19742924
37013,0,USNorthCarolinaBeaufort,North Carolina,Beaufort,2021-01-05 14:34:50.342290,2020-05-10 00:00:00.000000,0.07199204,0.11875054,0.23193128,33,55,108,16,32,59,0.03584156,0.06998538,0.12614225,0.08164464,0.14343735,0.20525410
37013,0,USNorthCarolinaBeaufort,North Carolina,Beaufort,2021-01-05 14:34:50.342290,2020-05-11 00:00:00.000000,0.07435112,0.11841062,0.23080425,34,55,108,17,32,59,0.03740676,0.06968992,0.12659056,0.08447910,0.14358712,0.21119739
37013,0,USNorthCarolinaBeaufort,North Carolina,Beaufort,2021-01-05 14:34:50.342290,2020-05-12 00:00:00.000000,0.07227372,0.12007645,0.22995991,33,56,108,17,32,59,0.03815936,0.06982352,0.12629819,0.08475609,0.14341590,0.21593665
37013,0,USNorthCarolinaBeaufort,North Carolina,Beaufort,2021-01-05 14:34:50.342290,2020-05-13 00:00:00.000000,0.07016758,0.12464671,0.22933187,32,58,107,18,33,59,0.03838459,0.07028818,0.12731688,0.08532841,0.14508572,0.21545556
37013,0,USNorthCarolinaBeaufort,North Carolina,Beaufort,2021-01-05 14:34:50.342290,2020-05-14 00:00:00.000000,0.06805903,0.12595854,0.22952502,31,59,107,17,33,60,0.03827356,0.07051620,0.12875307,0.08531644,0.14678499,0.21403871
37013,0,USNorthCarolinaBeaufort,North Carolina,Beaufort,2021-01-05 14:34:50.342290,2020-05-15 00:00:00.000000,0.06597041,0.12507876,0.23102350,31,58,108,17,33,61,0.03795619,0.07102754,0.13032227,0.08531587,0.15041158,0.21135377
37013,0,USNorthCarolinaBeaufort,North Carolina,Beaufort,2021-01-05 14:34:50.342290,2020-05-16 00:00:00.000000,0.06626229,0.12547858,0.23284027,31,58,109,17,33,62,0.03735475,0.07128643,0.13195184,0.08481446,0.15233135,0.20797480
37013,0,USNorthCarolinaBeaufort,North Carolina,Beaufort,2021-01-05 14:34:50.342290,2020-05-17 00:00:00.000000,0.06737714,0.12808091,0.23471764,31,60,110,17,33,62,0.03641543,0.07164004,0.13364084,0.08075985,0.15334623,0.22095872
37013,0,USNorthCarolinaBeaufort,North Carolina,Beaufort,2021-01-05 14:34:50.342290,2020-05-18 00:00:00.000000,0.06923851,0.13019062,0.23620034,32,61,110,16,33,63,0.03577691,0.07190354,0.13539221,0.08346114,0.15620277,0.21898764
37013,0,USNorthCarolinaBeaufort,North Carolina,Beaufort,2021-01-05 14:34:50.342290,2020-05-19 00:00:00.000000,0.06847089,0.13318967,0.23770548,32,62,111,16,33,64,0.03579788,0.07193018,0.13664216,0.09433358,0.15698893,0.21954214
37013,0,USNorthCarolinaBeaufort,North Carolina,Beaufort,2021-01-05 14:34:50.342290,2020-05-20 00:00:00.000000,0.06818452,0.13530044,0.23923481,32,63,112,16,34,64,0.03573239,0.07300414,0.13761129,0.09620602,0.16068922,0.21970726
37013,0,USNorthCarolinaBeaufort,North Carolina,Beaufort,2021-01-05 14:34:50.342290,2020-05-21 00:00:00.000000,0.06834040,0.13714634,0.24487452,32,64,115,16,34,65,0.03561303,0.07417395,0.13847649,0.09850679,0.16410683,0.21981140
37013,0,USNorthCarolinaBeaufort,North Carolina,Beaufort,2021-01-05 14:34:50.342290,2020-05-22 00:00:00.000000,0.06866894,0.14022394,0.25115407,32,65,118,17,35,65,0.03656169,0.07522794,0.13928972,0.10123072,0.16660408,0.22011669
37013,0,USNorthCarolinaBeaufort,North Carolina,Beaufort,2021-01-05 14:34:50.342290,2020-05-23 00:00:00.000000,0.06906651,0.14333847,0.25767667,32,67,121,17,35,66,0.03751989,0.07648957,0.14251800,0.10406246,0.17082292,0.23790304
37013,0,USNorthCarolinaBeaufort,North Carolina,Beaufort,2021-01-05 14:34:50.342290,2020-05-24 00:00:00.000000,0.06951207,0.14658670,0.26570919,32,68,124,17,36,68,0.03771743,0.07761347,0.14630911,0.10694327,0.17382941,0.25171326
37013,0,USNorthCarolinaBeaufort,North Carolina,Beaufort,2021-01-05 14:34:50.342290,2020-05-25 00:00:00.000000,0.07093239,0.14995978,0.27535549,33,70,129,17,36,70,0.03784147,0.07802110,0.15042235,0.11362211,0.17598556,0.26111339
37013,0,USNorthCarolinaBeaufort,North Carolina,Beaufort,2021-01-05 14:34:50.342290,2020-05-26 00:00:00.000000,0.07236534,0.15328569,0.28545739,34,72,134,17,38,72,0.03822823,0.08098652,0.15506166,0.11372871,0.18089305,0.27480698
37013,0,USNorthCarolinaBeaufort,North Carolina,Beaufort,2021-01-05 14:34:50.342290,2020-05-27 00:00:00.000000,0.07384491,0.15418912,0.29580303,34,72,139,18,39,75,0.03878145,0.08474504,0.16015210,0.11477353,0.18633459,0.28426638
37013,0,USNorthCarolinaBeaufort,North Carolina,Beaufort,2021-01-05 14:34:50.342290,2020-05-28 00:00:00.000000,0.07543835,0.15769182,0.30637956,35,74,143,18,40,76,0.03944193,0.08591403,0.16343104,0.11511507,0.18807738,0.29861746
37013,0,USNorthCarolinaBeaufort,North Carolina,Beaufort,2021-01-05 14:34:50.342290,2020-05-29 00:00:00.000000,0.07741705,0.16178167,0.31718923,36,76,149,18,40,78,0.03970264,0.08577877,0.16696099,0.11684233,0.19121818,0.32566755
37013,0,USNorthCarolinaBeaufort,North Carolina,Beaufort,2021-01-05 14:34:50.342290,2020-05-30 00:00:00.000000,0.07740961,0.16541186,0.32823725,36,77,154,18,40,80,0.03952517,0.08716649,0.17074742,0.11747179,0.19413267,0.35162346
37013,0,USNorthCarolinaBeaufort,North Carolina,Beaufort,2021-01-05 14:34:50.342290,2020-05-31 00:00:00.000000,0.07899558,0.16906695,0.33954710,37,79,159,18,42,82,0.03999748,0.08955639,0.17478897,0.11881918,0.20044677,0.36802838
37013,0,USNorthCarolinaBeaufort,North Carolina,Beaufort,2021-01-05 14:34:50.342290,2020-06-01 00:00:00.000000,0.08078939,0.17553744,0.34836990,37,82,163,19,42,85,0.04124388,0.09139243,0.18122269,0.12253083,0.20680106,0.37608371
37013,0,USNorthCarolinaBeaufort,North Carolina,Beaufort,2021-01-05 14:34:50.342290,2020-06-02 00:00:00.000000,0.08261687,0.18194296,0.35098337,38,85,164,19,43,88,0.04220509,0.09274515,0.18852079,0.13120461,0.21159823,0.37985440
37013,0,USNorthCarolinaBeaufort,North Carolina,Beaufort,2021-01-05 14:34:50.342290,2020-06-03 00:00:00.000000,0.08442307,0.18592198,0.35746719,39,87,167,20,44,91,0.04360505,0.09427622,0.19533238,0.13765806,0.21250460,0.38228000
37013,0,USNorthCarolinaBeaufort,North Carolina,Beaufort,2021-01-05 14:34:50.342290,2020-06-04 00:00:00.000000,0.08620674,0.19406506,0.36438293,40,91,171,20,45,94,0.04371652,0.09751297,0.20177204,0.14279951,0.21755062,0.38542086
37013,0,USNorthCarolinaBeaufort,North Carolina,Beaufort,2021-01-05 14:34:50.342290,2020-06-05 00:00:00.000000,0.08797290,0.19906210,0.37183912,41,93,174,20,47,97,0.04450776,0.10107833,0.20795138,0.15323784,0.22323524,0.38822537
37013,0,USNorthCarolinaBeaufort,North Carolina,Beaufort,2021-01-05 14:34:50.342290,2020-06-06 00:00:00.000000,0.08979639,0.20813835,0.38010025,42,97,178,21,50,100,0.04537011,0.10646287,0.21408325,0.15889887,0.22493696,0.38081321
37013,0,USNorthCarolinaBeaufort,North Carolina,Beaufort,2021-01-05 14:34:50.342290,2020-06-07 00:00:00.000000,0.09238097,0.21471381,0.39047621,43,100,183,21,53,103,0.04630927,0.11303522,0.22048056,0.16099296,0.23767841,0.38223805
37013,0,USNorthCarolinaBeaufort,North Carolina,Beaufort,2021-01-05 14:34:50.342290,2020-06-08 00:00:00.000000,0.11085797,0.22495673,0.41603588,52,105,195,22,56,106,0.04732636,0.11933741,0.22754309,0.16439198,0.23933139,0.38451619
37013,0,USNorthCarolinaBeaufort,North Carolina,Beaufort,2021-01-05 14:34:50.342290,2020-06-09 00:00:00.000000,0.11246286,0.23763146,0.42821379,52,111,201,23,58,110,0.05045543,0.12454927,0.23562227,0.17900890,0.24341961,0.38106231
37013,0,USNorthCarolinaBeaufort,North Carolina,Beaufort,2021-01-05 14:34:50.342290,2020-06-10 00:00:00.000000,0.11436461,0.24716321,0.44684801,53,116,209,26,60,115,0.05680988,0.12858594,0.24471632,0.18866606,0.25337044,0.38918214
37013,0,USNorthCarolinaBeaufort,North Carolina,Beaufort,2021-01-05 14:34:50.342290,2020-06-11 00:00:00.000000,0.12206407,0.25696066,0.45864369,57,120,215,28,62,119,0.05981177,0.13220876,0.25475070,0.19037251,0.26019918,0.39194054
37013,0,USNorthCarolinaBeaufort,North Carolina,Beaufort,2021-01-05 14:34:50.342290,2020-06-12 00:00:00.000000,0.13305351,0.26554176,0.47511967,62,124,223,28,64,122,0.06085666,0.13755017,0.26131779,0.19498566,0.26925517,0.39592083
37013,0,USNorthCarolinaBeaufort,North Carolina,Beaufort,2021-01-05 14:34:50.342290,2020-06-13 00:00:00.000000,0.13996473,0.27723853,0.49950440,65,130,234,30,67,126,0.06399734,0.14350537,0.26834905,0.20470699,0.28219553,0.41131238
37013,0,USNorthCarolinaBeaufort,North Carolina,Beaufort,2021-01-05 14:34:50.342290,2020-06-14 00:00:00.000000,0.14354082,0.29222457,0.52699854,67,137,247,30,69,129,0.06525670,0.14828760,0.27617283,0.20580599,0.29302806,0.43383716
37013,0,USNorthCarolinaBeaufort,North Carolina,Beaufort,2021-01-05 14:34:50.342290,2020-06-15 00:00:00.000000,0.15953485,0.30903659,0.55600493,74,145,261,31,72,133,0.06692080,0.15367849,0.28481552,0.20945908,0.30479694,0.43940047
37013,0,USNorthCarolinaBeaufort,North Carolina,Beaufort,2021-01-05 14:34:50.342290,2020-06-16 00:00:00.000000,0.16944603,0.32307076,0.58686433,79,151,275,34,76,138,0.07265412,0.16278581,0.29410461,0.22203826,0.31167009,0.43950642
37013,0,USNorthCarolinaBeaufort,North Carolina,Beaufort,2021-01-05 14:34:50.342290,2020-06-17 00:00:00.000000,0.17874673,0.34035081,0.61943416,84,159,291,37,81,144,0.07923318,0.17383129,0.30642759,0.23524121,0.31713722,0.45188148
37013,0,USNorthCarolinaBeaufort,North Carolina,Beaufort,2021-01-05 14:34:50.342290,2020-06-18 00:00:00.000000,0.18923241,0.35989379,0.65400470,88,169,307,40,86,151,0.08512288,0.18442805,0.32152930,0.24498541,0.32961788,0.46243216
37013,0,USNorthCarolinaBeaufort,North Carolina,Beaufort,2021-01-05 14:34:50.342290,2020-06-19 00:00:00.000000,0.20065536,0.37974359,0.69097283,94,178,324,42,91,158,0.08983735,0.19568258,0.33677945,0.24857715,0.33815096,0.47163242
37013,0,USNorthCarolinaBeaufort,North Carolina,Beaufort,2021-01-05 14:34:50.342290,2020-06-20 00:00:00.000000,0.21295391,0.40986399,0.73072732,100,192,343,45,98,165,0.09597841,0.20860520,0.35260591,0.25000475,0.35399322,0.46649053
37013,0,USNorthCarolinaBeaufort,North Carolina,Beaufort,2021-01-05 14:34:50.342290,2020-06-21 00:00:00.000000,0.22595256,0.44242301,0.77405134,106,207,363,49,103,173,0.10435797,0.22060598,0.36932585,0.25114431,0.36663525,0.50837830
37013,0,USNorthCarolinaBeaufort,North Carolina,Beaufort,2021-01-05 14:34:50.342290,2020-06-22 00:00:00.000000,0.23574135,0.47083013,0.82202704,110,221,386,51,110,181,0.10946424,0.23459830,0.38694829,0.25178398,0.37095455,0.51462775
37013,0,USNorthCarolinaBeaufort,North Carolina,Beaufort,2021-01-05 14:34:50.342290,2020-06-23 00:00:00.000000,0.24579334,0.49488556,0.87416513,115,232,410,53,117,190,0.11473564,0.24936543,0.40514964,0.25224536,0.37319533,0.51553670
37013,0,USNorthCarolinaBeaufort,North Carolina,Beaufort,2021-01-05 14:34:50.342290,2020-06-24 00:00:00.000000,0.26273669,0.52158632,0.92982062,123,245,436,57,123,202,0.12256457,0.26265347,0.42997076,0.25355322,0.37933661,0.51543187
37013,0,USNorthCarolinaBeaufort,North Carolina,Beaufort,2021-01-05 14:34:50.342290,2020-06-25 00:00:00.000000,0.28633406,0.54874740,0.98711083,134,257,463,61,130,215,0.13175501,0.27757560,0.45813902,0.26004689,0.38095034,0.51899862
37013,0,USNorthCarolinaBeaufort,North Carolina,Beaufort,2021-01-05 14:34:50.342290,2020-06-26 00:00:00.000000,0.31153907,0.58386926,1.04311789,146,274,490,65,138,225,0.14018984,0.29375674,0.48067210,0.26757061,0.37422940,0.51918235
37013,0,USNorthCarolinaBeaufort,North Carolina,Beaufort,2021-01-05 14:34:50.342290,2020-06-27 00:00:00.000000,0.32515152,0.61676490,1.08056195,152,289,507,68,145,237,0.14656550,0.30927585,0.50449862,0.28799059,0.37989781,0.50960543
37013,0,USNorthCarolinaBeaufort,North Carolina,Beaufort,2021-01-05 14:34:50.342290,2020-06-28 00:00:00.000000,0.33320891,0.65227193,1.11657302,156,306,524,71,154,250,0.15311510,0.32832127,0.53345422,0.29119721,0.38058238,0.49652851
37013,0,USNorthCarolinaBeaufort,North Carolina,Beaufort,2021-01-05 14:34:50.342290,2020-06-29 00:00:00.000000,0.35884404,0.69316319,1.15094166,168,325,540,75,162,264,0.16004772,0.34476791,0.56280354,0.29130248,0.38456835,0.50059453
37013,0,USNorthCarolinaBeaufort,North Carolina,Beaufort,2021-01-05 14:34:50.342290,2020-06-30 00:00:00.000000,0.38713471,0.73874335,1.18512666,181,347,556,78,171,278,0.16731923,0.36404455,0.59251969,0.28690612,0.38476066,0.49849234
37013,0,USNorthCarolinaBeaufort,North Carolina,Beaufort,2021-01-05 14:34:50.342290,2020-07-01 00:00:00.000000,0.41098054,0.78323282,1.21948349,193,368,573,83,186,292,0.17676734,0.39581208,0.62250589,0.28791040,0.39051863,0.49757859
37013,0,USNorthCarolinaBeaufort,North Carolina,Beaufort,2021-01-05 14:34:50.342290,2020-07-02 00:00:00.000000,0.43131317,0.83340244,1.28144228,202,391,602,88,200,306,0.18768560,0.42636001,0.65254953,0.28839800,0.38800831,0.50862050
37013,0,USNorthCarolinaBeaufort,North Carolina,Beaufort,2021-01-05 14:34:50.342290,2020-07-03 00:00:00.000000,0.45944341,0.87489134,1.35276747,215,411,635,94,211,320,0.20029432,0.44990245,0.68239074,0.27314428,0.38139277,0.54706256
37013,0,USNorthCarolinaBeaufort,North Carolina,Beaufort,2021-01-05 14:34:50.342290,2020-07-04 00:00:00.000000,0.49373455,0.92877593,1.42711497,232,436,670,101,223,334,0.21513646,0.47470107,0.71176328,0.26187130,0.37402950,0.56099355
37013,0,USNorthCarolinaBeaufort,North Carolina,Beaufort,2021-01-05 14:34:50.342290,2020-07-05 00:00:00.000000,0.53182698,0.96756427,1.50418478,249,454,706,109,235,350,0.23297896,0.50108823,0.74522082,0.26612283,0.37538096,0.57868724
37013,0,USNorthCarolinaBeaufort,North Carolina,Beaufort,2021-01-05 14:34:50.342290,2020-07-06 00:00:00.000000,0.58656982,1.02718851,1.56931468,275,482,737,119,247,369,0.25367446,0.52711140,0.78535515,0.27650831,0.37078085,0.58394458
37013,0,USNorthCarolinaBeaufort,North Carolina,Beaufort,2021-01-05 14:34:50.342290,2020-07-07 00:00:00.000000,0.62910804,1.08608207,1.62560115,295,510,763,130,258,387,0.27670089,0.55053062,0.82504097,0.26187109,0.36742731,0.58540670
37013,0,USNorthCarolinaBeaufort,North Carolina,Beaufort,2021-01-05 14:34:50.342290,2020-07-08 00:00:00.000000,0.68359249,1.13901026,1.68591753,321,535,792,144,272,407,0.30642695,0.57911121,0.86609191,0.27128628,0.36365500,0.58586219
37013,0,USNorthCarolinaBeaufort,North Carolina,Beaufort,2021-01-05 14:34:50.342290,2020-07-09 00:00:00.000000,0.75707972,1.19234979,1.74771867,355,560,821,159,283,425,0.33984470,0.60426409,0.90598948,0.28067168,0.36117837,0.58637098
37013,0,USNorthCarolinaBeaufort,North Carolina,Beaufort,2021-01-05 14:34:50.342290,2020-07-10 00:00:00.000000,0.82211957,1.24965234,1.81173898,386,587,851,170,295,445,0.36304550,0.62935988,0.94803568,0.26505088,0.35778588,0.57163608
37013,0,USNorthCarolinaBeaufort,North Carolina,Beaufort,2021-01-05 14:34:50.342290,2020-07-11 00:00:00.000000,0.85253600,1.30939895,1.88147634,400,615,884,177,308,473,0.37727323,0.65616999,1.00847017,0.25693231,0.35007565,0.54519537
37013,0,USNorthCarolinaBeaufort,North Carolina,Beaufort,2021-01-05 14:34:50.342290,2020-07-12 00:00:00.000000,0.88774350,1.37472376,1.96190453,417,646,921,184,325,494,0.39206364,0.69327644,1.05194888,0.25630584,0.34351175,0.51252899
37013,0,USNorthCarolinaBeaufort,North Carolina,Beaufort,2021-01-05 14:34:50.342290,2020-07-13 00:00:00.000000,0.92438309,1.44284052,2.04739680,434,678,962,191,345,511,0.40767224,0.73525720,1.08905715,0.25319462,0.34089127,0.48354046
37013,0,USNorthCarolinaBeaufort,North Carolina,Beaufort,2021-01-05 14:34:50.342290,2020-07-14 00:00:00.000000,0.96320585,1.51293224,2.14432332,452,710,1007,199,356,529,0.42434844,0.75861991,1.12681489,0.25117535,0.33924578,0.49368641
37013,0,USNorthCarolinaBeaufort,North Carolina,Beaufort,2021-01-05 14:34:50.342290,2020-07-15 00:00:00.000000,1.00518532,1.58557777,2.23116710,472,745,1048,202,373,549,0.43192195,0.79407884,1.17009575,0.25093219,0.33757448,0.51078890
37013,0,USNorthCarolinaBeaufort,North Carolina,Beaufort,2021-01-05 14:34:50.342290,2020-07-16 00:00:00.000000,1.04804943,1.64792496,2.28883132,492,774,1075,215,391,569,0.45811732,0.83361239,1.21111133,0.24372882,0.33569249,0.51752146
37013,0,USNorthCarolinaBeaufort,North Carolina,Beaufort,2021-01-05 14:34:50.342290,2020-07-17 00:00:00.000000,1.07998755,1.70927399,2.32976753,507,803,1094,223,404,586,0.47485652,0.86085822,1.24823756,0.23989121,0.33072082,0.51948109
37013,0,USNorthCarolinaBeaufort,North Carolina,Beaufort,2021-01-05 14:34:50.342290,2020-07-18 00:00:00.000000,1.12798177,1.76632082,2.39406303,530,830,1125,231,420,604,0.49239864,0.89436850,1.28685148,0.23117774,0.32003033,0.51948906
37013,0,USNorthCarolinaBeaufort,North Carolina,Beaufort,2021-01-05 14:34:50.342290,2020-07-19 00:00:00.000000,1.16636600,1.81058539,2.45971813,548,850,1155,239,437,626,0.51040571,0.93040178,1.33288478,0.22548809,0.30861554,0.50409435
37013,0,USNorthCarolinaBeaufort,North Carolina,Beaufort,2021-01-05 14:34:50.342290,2020-07-20 00:00:00.000000,1.18319302,1.86170212,2.56072688,556,874,1203,248,458,650,0.52852934,0.97478219,1.38483817,0.21772652,0.30045922,0.46358286
37013,0,USNorthCarolinaBeaufort,North Carolina,Beaufort,2021-01-05 14:34:50.342290,2020-07-21 00:00:00.000000,1.19981650,1.91014081,2.61118734,563,897,1227,256,476,674,0.54587548,1.01290711,1.43585097,0.21618251,0.29508919,0.45523308
37013,0,USNorthCarolinaBeaufort,North Carolina,Beaufort,2021-01-05 14:34:50.342290,2020-07-22 00:00:00.000000,1.21634790,1.93627628,2.66390091,571,909,1251,264,495,697,0.56311103,1.05408448,1.48475393,0.21101562,0.28159601,0.44690101
37013,0,USNorthCarolinaBeaufort,North Carolina,Beaufort,2021-01-05 14:34:50.342290,2020-07-23 00:00:00.000000,1.23280838,1.97446244,2.73301588,579,927,1284,272,507,719,0.58061946,1.07908241,1.53083125,0.19969094,0.27366825,0.44151244
37013,0,USNorthCarolinaBeaufort,North Carolina,Beaufort,2021-01-05 14:34:50.342290,2020-07-24 00:00:00.000000,1.24921981,2.02055893,2.79720550,587,949,1314,281,512,740,0.59846475,1.09054252,1.57511188,0.18821321,0.26812232,0.41632510
37013,0,USNorthCarolinaBeaufort,North Carolina,Beaufort,2021-01-05 14:34:50.342290,2020-07-25 00:00:00.000000,1.26562902,2.03724143,2.85362213,594,957,1341,289,526,760,0.61631530,1.11945410,1.61854879,0.17407627,0.26029319,0.37612831
37013,0,USNorthCarolinaBeaufort,North Carolina,Beaufort,2021-01-05 14:34:50.342290,2020-07-26 00:00:00.000000,1.28705782,2.04241986,2.90460111,604,959,1364,297,535,771,0.63366544,1.13876968,1.64069581,0.15997714,0.24904889,0.32993166
37013,0,USNorthCarolinaBeaufort,North Carolina,Beaufort,2021-01-05 14:34:50.342290,2020-07-27 00:00:00.000000,1.30200445,2.05243516,2.93081432,611,964,1377,305,534,792,0.65019303,1.13692740,1.68667113,0.15649815,0.24222747,0.32382471
37013,0,USNorthCarolinaBeaufort,North Carolina,Beaufort,2021-01-05 14:34:50.342290,2020-07-28 00:00:00.000000,1.31195498,2.06529709,2.99925145,616,970,1409,312,537,814,0.66486380,1.14308456,1.73259550,0.15483352,0.23648154,0.32302988
37013,0,USNorthCarolinaBeaufort,North Carolina,Beaufort,2021-01-05 14:34:50.342290,2020-07-29 00:00:00.000000,1.31707172,2.07361811,3.06126721,618,974,1438,318,540,835,0.67815663,1.15087832,1.77826967,0.15414960,0.23336288,0.32176918
37013,0,USNorthCarolinaBeaufort,North Carolina,Beaufort,2021-01-05 14:34:50.342290,2020-07-30 00:00:00.000000,1.32697574,2.07948359,3.11416435,623,977,1463,324,544,856,0.69047610,1.15866563,1.82281779,0.15401051,0.22666242,0.31983873
37013,0,USNorthCarolinaBeaufort,North Carolina,Beaufort,2021-01-05 14:34:50.342290,2020-07-31 00:00:00.000000,1.33366555,2.09558641,3.15676844,626,984,1483,329,549,876,0.70213495,1.17030178,1.86505002,0.15448663,0.22460380,0.31341256
37013,0,USNorthCarolinaBeaufort,North Carolina,Beaufort,2021-01-05 14:34:50.342290,2020-08-01 00:00:00.000000,1.31033271,2.11523374,3.17455084,615,994,1491,335,555,895,0.71336770,1.18136411,1.90475658,0.15477704,0.22562984,0.31306426
37013,0,USNorthCarolinaBeaufort,North Carolina,Beaufort,2021-01-05 14:34:50.342290,2020-08-02 00:00:00.000000,1.29427530,2.12538270,3.18420446,608,998,1496,340,560,912,0.72406369,1.19333548,1.94246521,0.16008589,0.22315549,0.31400705
37013,0,USNorthCarolinaBeaufort,North Carolina,Beaufort,2021-01-05 14:34:50.342290,2020-08-03 00:00:00.000000,1.28215168,2.13999718,3.17312654,602,1005,1491,334,562,929,0.71279712,1.19639014,1.97887325,0.15865937,0.22126223,0.31474597
37013,0,USNorthCarolinaBeaufort,North Carolina,Beaufort,2021-01-05 14:34:50.342290,2020-08-04 00:00:00.000000,1.27024604,2.15127048,3.16045529,596,1010,1485,329,564,941,0.70016211,1.20143376,2.00427834,0.15838197,0.22177061,0.31530786
37013,0,USNorthCarolinaBeaufort,North Carolina,Beaufort,2021-01-05 14:34:50.342290,2020-08-05 00:00:00.000000,1.26049473,2.15298156,3.14668211,592,1011,1478,322,568,946,0.68677024,1.20988242,2.01371860,0.15847792,0.22178658,0.31561383
37013,0,USNorthCarolinaBeaufort,North Carolina,Beaufort,2021-01-05 14:34:50.342290,2020-08-06 00:00:00.000000,1.25874778,2.16095982,3.19006485,591,1015,1499,316,571,948,0.67305384,1.21656832,2.01833961,0.15903353,0.22297919,0.31602733
37013,0,USNorthCarolinaBeaufort,North Carolina,Beaufort,2021-01-05 14:34:50.342290,2020-08-07 00:00:00.000000,1.26443045,2.17823852,3.23518550,594,1023,1520,309,574,949,0.65942213,1.22264695,2.01959699,0.16096531,0.22675655,0.31697346
37013,0,USNorthCarolinaBeaufort,North Carolina,Beaufort,2021-01-05 14:34:50.342290,2020-08-08 00:00:00.000000,1.27286474,2.19348234,3.28113205,598,1030,1541,303,576,948,0.64659360,1.22745602,2.01875273,0.16715378,0.22920639,0.31919780
37013,0,USNorthCarolinaBeaufort,North Carolina,Beaufort,2021-01-05 14:34:50.342290,2020-08-09 00:00:00.000000,1.28208792,2.19795590,3.32745299,602,1032,1563,299,575,947,0.63638110,1.22439932,2.01647052,0.17117350,0.23174305,0.32266839
37013,0,USNorthCarolinaBeaufort,North Carolina,Beaufort,2021-01-05 14:34:50.342290,2020-08-10 00:00:00.000000,1.30988286,2.20759676,3.35963650,615,1037,1578,296,574,945,0.63139975,1.22181584,2.01294562,0.17090457,0.23316332,0.33175556
37013,0,USNorthCarolinaBeaufort,North Carolina,Beaufort,2021-01-05 14:34:50.342290,2020-08-11 00:00:00.000000,1.34678769,2.20319270,3.37376328,632,1035,1585,300,573,945,0.63912822,1.22001632,2.01207786,0.16973244,0.23674099,0.33558018
37013,0,USNorthCarolinaBeaufort,North Carolina,Beaufort,2021-01-05 14:34:50.342290,2020-08-12 00:00:00.000000,1.39021791,2.21116837,3.36778535,653,1039,1582,307,573,946,0.65347787,1.22028852,2.01347719,0.17469459,0.24217061,0.34449229
37013,0,USNorthCarolinaBeaufort,North Carolina,Beaufort,2021-01-05 14:34:50.342290,2020-08-13 00:00:00.000000,1.42016419,2.20508717,3.36077069,667,1036,1579,315,578,947,0.67111988,1.23041330,2.01714973,0.18342905,0.24504285,0.34816113
37013,0,USNorthCarolinaBeaufort,North Carolina,Beaufort,2021-01-05 14:34:50.342290,2020-08-14 00:00:00.000000,1.42599444,2.22158069,3.35297533,670,1044,1575,324,584,950,0.68985349,1.24452402,2.02360810,0.18428139,0.25011934,0.35926530
37013,0,USNorthCarolinaBeaufort,North Carolina,Beaufort,2021-01-05 14:34:50.342290,2020-08-15 00:00:00.000000,1.43719650,2.26126081,3.34460521,675,1062,1571,332,592,955,0.70731815,1.26149016,2.03387554,0.18439823,0.25745198,0.35349465
37013,0,USNorthCarolinaBeaufort,North Carolina,Beaufort,2021-01-05 14:34:50.342290,2020-08-16 00:00:00.000000,1.45786844,2.31660968,3.33594980,685,1088,1567,340,603,962,0.72360565,1.28447665,2.04916965,0.18384807,0.25969317,0.35791802
37013,0,USNorthCarolinaBeaufort,North Carolina,Beaufort,2021-01-05 14:34:50.342290,2020-08-17 00:00:00.000000,1.47194966,2.33458036,3.34549945,691,1097,1572,347,609,972,0.73943899,1.29700615,2.07031614,0.18374626,0.26893310,0.36851978
37013,0,USNorthCarolinaBeaufort,North Carolina,Beaufort,2021-01-05 14:34:50.342290,2020-08-18 00:00:00.000000,1.51353186,2.35873332,3.40304747,711,1108,1599,355,612,984,0.75546307,1.30349898,2.09452971,0.18405794,0.27158003,0.37390159
37013,0,USNorthCarolinaBeaufort,North Carolina,Beaufort,2021-01-05 14:34:50.342290,2020-08-19 00:00:00.000000,1.57467582,2.38537579,3.46423641,740,1120,1627,368,617,997,0.78391993,1.31497731,2.12204769,0.18541940,0.27518835,0.37525222
37013,0,USNorthCarolinaBeaufort,North Carolina,Beaufort,2021-01-05 14:34:50.342290,2020-08-20 00:00:00.000000,1.63654797,2.41554712,3.52778798,769,1135,1657,380,621,1011,0.80945723,1.32315639,2.15264723,0.19290433,0.27871495,0.38154832
37013,0,USNorthCarolinaBeaufort,North Carolina,Beaufort,2021-01-05 14:34:50.342290,2020-08-21 00:00:00.000000,1.69846661,2.44994777,3.59361552,798,1151,1688,383,621,1021,0.81708854,1.32324846,2.17421294,0.19070136,0.28202363,0.38750231
37013,0,USNorthCarolinaBeaufort,North Carolina,Beaufort,2021-01-05 14:34:50.342290,2020-08-22 00:00:00.000000,1.75134492,2.50402001,3.68168651,823,1176,1730,389,631,1025,0.82883558,1.34378984,2.18145443,0.19083177,0.28525544,0.39216660
37013,0,USNorthCarolinaBeaufort,North Carolina,Beaufort,2021-01-05 14:34:50.342290,2020-08-23 00:00:00.000000,1.75771643,2.56594360,3.75739228,826,1205,1765,395,641,1030,0.84115824,1.36497631,2.19184053,0.19205692,0.28541348,0.39100644
37013,0,USNorthCarolinaBeaufort,North Carolina,Beaufort,2021-01-05 14:34:50.342290,2020-08-24 00:00:00.000000,1.77244364,2.60754348,3.82124123,832,1225,1795,395,648,1040,0.84141585,1.38089032,2.21425101,0.19268327,0.28829244,0.38165733
37013,0,USNorthCarolinaBeaufort,North Carolina,Beaufort,2021-01-05 14:34:50.342290,2020-08-25 00:00:00.000000,1.83370555,2.64422394,3.90170933,861,1242,1833,409,657,1063,0.87160593,1.39855735,2.26378523,0.19314049,0.28936184,0.39280766
37013,0,USNorthCarolinaBeaufort,North Carolina,Beaufort,2021-01-05 14:34:50.342290,2020-08-26 00:00:00.000000,1.93229656,2.66253664,3.98526764,908,1251,1872,424,667,1085,0.90426345,1.42108586,2.30923535,0.19353659,0.29075036,0.40011850
37013,0,USNorthCarolinaBeaufort,North Carolina,Beaufort,2021-01-05 14:34:50.342290,2020-08-27 00:00:00.000000,1.99201865,2.68388875,4.06975627,936,1261,1912,429,679,1104,0.91485862,1.44511323,2.35100762,0.19392485,0.29100061,0.39999797
37013,0,USNorthCarolinaBeaufort,North Carolina,Beaufort,2021-01-05 14:34:50.342290,2020-08-28 00:00:00.000000,2.03001832,2.70177116,4.11292273,953,1269,1932,434,688,1123,0.92386732,1.46542120,2.38966786,0.19434774,0.28856453,0.39755472
37013,0,USNorthCarolinaBeaufort,North Carolina,Beaufort,2021-01-05 14:34:50.342290,2020-08-29 00:00:00.000000,2.06628353,2.72131803,4.15286935,971,1278,1951,447,698,1139,0.95226205,1.48712494,2.42571248,0.19489689,0.28391409,0.39257672
37013,0,USNorthCarolinaBeaufort,North Carolina,Beaufort,2021-01-05 14:34:50.342290,2020-08-30 00:00:00.000000,2.10077257,2.73508918,4.25303348,987,1285,1998,466,709,1155,0.99165916,1.50989228,2.45945521,0.19557201,0.28417598,0.38877735
37013,0,USNorthCarolinaBeaufort,North Carolina,Beaufort,2021-01-05 14:34:50.342290,2020-08-31 00:00:00.000000,2.10883701,2.75187214,4.35147435,991,1293,2044,485,718,1170,1.03292092,1.52877472,2.49097698,0.20007667,0.28133414,0.37060321
37013,0,USNorthCarolinaBeaufort,North Carolina,Beaufort,2021-01-05 14:34:50.342290,2020-09-01 00:00:00.000000,2.11569187,2.78233461,4.44949162,994,1307,2090,502,722,1184,1.06918409,1.53787208,2.52078075,0.20407370,0.27804956,0.37057218
37013,0,USNorthCarolinaBeaufort,North Carolina,Beaufort,2021-01-05 14:34:50.342290,2020-09-02 00:00:00.000000,2.13465767,2.79014014,4.49627085,1003,1311,2112,516,725,1197,1.09959930,1.54390682,2.54837102,0.20604580,0.26936910,0.36917278
37013,0,USNorthCarolinaBeaufort,North Carolina,Beaufort,2021-01-05 14:34:50.342290,2020-09-03 00:00:00.000000,2.17239396,2.79909444,4.53817683,1020,1315,2132,526,731,1209,1.11970631,1.55677720,2.57336612,0.20303244,0.26483882,0.36649457
37013,0,USNorthCarolinaBeaufort,North Carolina,Beaufort,2021-01-05 14:34:50.342290,2020-09-04 00:00:00.000000,2.20907765,2.81408065,4.56931113,1038,1322,2147,531,740,1219,1.13187540,1.57542001,2.59558153,0.19840344,0.26187723,0.36042225
37013,0,USNorthCarolinaBeaufort,North Carolina,Beaufort,2021-01-05 14:34:50.342290,2020-09-05 00:00:00.000000,2.20013361,2.83076165,4.58431376,1033,1330,2154,535,750,1230,1.14054164,1.59683814,2.61755397,0.18916385,0.25916758,0.34476497
37013,0,USNorthCarolinaBeaufort,North Carolina,Beaufort,2021-01-05 14:34:50.342290,2020-09-06 00:00:00.000000,2.18821718,2.85378299,4.59096290,1028,1341,2157,537,758,1242,1.14408818,1.61451398,2.64423651,0.18344708,0.25224077,0.32570432
37013,0,USNorthCarolinaBeaufort,North Carolina,Beaufort,2021-01-05 14:34:50.342290,2020-09-07 00:00:00.000000,2.17444581,2.87776800,4.59444337,1021,1352,2159,538,767,1253,1.14685750,1.63309877,2.66631247,0.17964118,0.24569942,0.32871817
37013,0,USNorthCarolinaBeaufort,North Carolina,Beaufort,2021-01-05 14:34:50.342290,2020-09-08 00:00:00.000000,2.15878223,2.91403792,4.59518157,1014,1369,2159,539,770,1262,1.14887626,1.64044753,2.68557583,0.17698590,0.23939590,0.33003282
37013,0,USNorthCarolinaBeaufort,North Carolina,Beaufort,2021-01-05 14:34:50.342290,2020-09-09 00:00:00.000000,2.14175026,2.93659562,4.59269557,1006,1380,2158,536,771,1270,1.14215242,1.64219160,2.70265298,0.17544111,0.23517435,0.33029562
37013,0,USNorthCarolinaBeaufort,North Carolina,Beaufort,2021-01-05 14:34:50.342290,2020-09-10 00:00:00.000000,2.12314604,2.97128356,4.58820111,997,1396,2156,537,776,1277,1.14313460,1.65340251,2.71800906,0.17211630,0.23128528,0.32899253
37013,0,USNorthCarolinaBeaufort,North Carolina,Beaufort,2021-01-05 14:34:50.342290,2020-09-11 00:00:00.000000,2.11315999,2.98537754,4.58159022,993,1402,2153,539,784,1283,1.14820716,1.66881904,2.73192964,0.17053550,0.22790026,0.31519476
37013,0,USNorthCarolinaBeaufort,North Carolina,Beaufort,2021-01-05 14:34:50.342290,2020-09-12 00:00:00.000000,2.09488024,2.99139799,4.57322115,984,1405,2149,538,790,1289,1.14562942,1.68135573,2.74445681,0.16176604,0.22207044,0.29942190
37013,0,USNorthCarolinaBeaufort,North Carolina,Beaufort,2021-01-05 14:34:50.342290,2020-09-13 00:00:00.000000,2.04598669,2.98751477,4.56361081,961,1403,2144,536,791,1294,1.14186224,1.68431924,2.75532238,0.15946156,0.22522287,0.29463829
37013,0,USNorthCarolinaBeaufort,North Carolina,Beaufort,2021-01-05 14:34:50.342290,2020-09-14 00:00:00.000000,2.01386422,2.96639311,4.56034998,946,1394,2143,530,791,1299,1.12972538,1.68458035,2.76426901,0.15829484,0.22099125,0.28770184
37013,0,USNorthCarolinaBeaufort,North Carolina,Beaufort,2021-01-05 14:34:50.342290,2020-09-15 00:00:00.000000,1.98021598,2.91423726,4.55649013,930,1369,2141,523,792,1307,1.11462243,1.68547125,2.78255147,0.15661145,0.21703889,0.28490321
37013,0,USNorthCarolinaBeaufort,North Carolina,Beaufort,2021-01-05 14:34:50.342290,2020-09-16 00:00:00.000000,1.94605771,2.88300070,4.55223979,914,1354,2139,515,789,1315,1.09594863,1.67968211,2.80010854,0.15558732,0.21680503,0.28556110
37013,0,USNorthCarolinaBeaufort,North Carolina,Beaufort,2021-01-05 14:34:50.342290,2020-09-17 00:00:00.000000,1.91191371,2.89849194,4.54859677,898,1362,2137,501,781,1321,1.06751133,1.66210913,2.81233135,0.15561873,0.21362167,0.28563799
37013,0,USNorthCarolinaBeaufort,North Carolina,Beaufort,2021-01-05 14:34:50.342290,2020-09-18 00:00:00.000000,1.87834161,2.89837495,4.54772135,882,1362,2137,488,771,1324,1.03944504,1.64183729,2.81950598,0.15626753,0.21234548,0.28581644
37013,0,USNorthCarolinaBeaufort,North Carolina,Beaufort,2021-01-05 14:34:50.342290,2020-09-19 00:00:00.000000,1.84549467,2.87077656,4.55347280,867,1349,2139,476,761,1326,1.01436240,1.61993566,2.82168460,0.15776551,0.21750224,0.28622472
37013,0,USNorthCarolinaBeaufort,North Carolina,Beaufort,2021-01-05 14:34:50.342290,2020-09-20 00:00:00.000000,1.81368821,2.84486907,4.56804537,852,1336,2146,466,751,1324,0.99282628,1.59915009,2.81864556,0.16008710,0.21913532,0.28959555
37013,0,USNorthCarolinaBeaufort,North Carolina,Beaufort,2021-01-05 14:34:50.342290,2020-09-21 00:00:00.000000,1.78540963,2.84001098,4.58267595,839,1334,2153,458,741,1320,0.97568779,1.57851499,2.81038177,0.16022199,0.21873347,0.29069610
37013,0,USNorthCarolinaBeaufort,North Carolina,Beaufort,2021-01-05 14:34:50.342290,2020-09-22 00:00:00.000000,1.76104520,2.82469552,4.59953733,827,1327,2161,452,735,1314,0.96311150,1.56501894,2.79752718,0.16203202,0.21892365,0.29918541
37013,0,USNorthCarolinaBeaufort,North Carolina,Beaufort,2021-01-05 14:34:50.342290,2020-09-23 00:00:00.000000,1.74116888,2.81057929,4.61679923,818,1320,2169,448,731,1312,0.95394943,1.55674054,2.79255884,0.16229749,0.22590286,0.30732971
37013,0,USNorthCarolinaBeaufort,North Carolina,Beaufort,2021-01-05 14:34:50.342290,2020-09-24 00:00:00.000000,1.72550582,2.78787380,4.63424988,810,1310,2177,445,734,1308,0.94800793,1.56329550,2.78468361,0.17099089,0.23044726,0.31711143
37013,0,USNorthCarolinaBeaufort,North Carolina,Beaufort,2021-01-05 14:34:50.342290,2020-09-25 00:00:00.000000,1.72331634,2.76333396,4.65497207,809,1298,2187,444,725,1303,0.94484532,1.54356090,2.77402748,0.17241435,0.23248206,0.33042009
37013,0,USNorthCarolinaBeaufort,North Carolina,Beaufort,2021-01-05 14:34:50.342290,2020-09-26 00:00:00.000000,1.73534968,2.74507563,4.71260440,815,1290,2214,443,722,1297,0.94432963,1.53758327,2.76188085,0.16924919,0.24537648,0.33610128
37013,0,USNorthCarolinaBeaufort,North Carolina,Beaufort,2021-01-05 14:34:50.342290,2020-09-27 00:00:00.000000,1.75114896,2.73782624,4.83074919,822,1286,2270,440,716,1292,0.93763860,1.52467751,2.75029467,0.17208915,0.25418240,0.35495019
37013,0,USNorthCarolinaBeaufort,North Carolina,Beaufort,2021-01-05 14:34:50.342290,2020-09-28 00:00:00.000000,1.75654478,2.75102105,4.85135468,825,1292,2279,439,711,1288,0.93574437,1.51495507,2.74215611,0.18121127,0.26285263,0.35796667
37013,0,USNorthCarolinaBeaufort,North Carolina,Beaufort,2021-01-05 14:34:50.342290,2020-09-29 00:00:00.000000,1.77875287,2.76546113,4.84326114,835,1299,2276,437,709,1288,0.93179020,1.51071435,2.74105823,0.18637328,0.26648325,0.35862467
37013,0,USNorthCarolinaBeaufort,North Carolina,Beaufort,2021-01-05 14:34:50.342290,2020-09-30 00:00:00.000000,1.80163269,2.77084421,4.83276485,846,1302,2271,438,713,1292,0.93220235,1.51830708,2.75036219,0.18504056,0.27436409,0.36234089
37013,0,USNorthCarolinaBeaufort,North Carolina,Beaufort,2021-01-05 14:34:50.342290,2020-10-01 00:00:00.000000,1.82470890,2.79694253,4.82176237,857,1314,2265,438,720,1298,0.93407206,1.53252606,2.76359104,0.18110132,0.27745120,0.38338079
37013,0,USNorthCarolinaBeaufort,North Carolina,Beaufort,2021-01-05 14:34:50.342290,2020-10-02 00:00:00.000000,1.84807982,2.81925451,4.80995986,868,1324,2260,439,729,1309,0.93618412,1.55272512,2.78709151,0.19506005,0.28174575,0.41413862
37013,0,USNorthCarolinaBeaufort,North Carolina,Beaufort,2021-01-05 14:34:50.342290,2020-10-03 00:00:00.000000,1.87212366,2.85751378,4.79709817,879,1342,2254,440,742,1323,0.93769777,1.57950580,2.81715951,0.20014126,0.28582509,0.43959420
37013,0,USNorthCarolinaBeaufort,North Carolina,Beaufort,2021-01-05 14:34:50.342290,2020-10-04 00:00:00.000000,1.89269216,2.90071450,4.80190755,889,1363,2256,441,757,1341,0.93852497,1.61243048,2.85423854,0.20365054,0.29198552,0.44787634
37013,0,USNorthCarolinaBeaufort,North Carolina,Beaufort,2021-01-05 14:34:50.342290,2020-10-05 00:00:00.000000,1.91748782,2.90539263,4.89645365,901,1365,2301,450,765,1361,0.95860679,1.62903096,2.89741461,0.20418732,0.29257568,0.45162929
37013,0,USNorthCarolinaBeaufort,North Carolina,Beaufort,2021-01-05 14:34:50.342290,2020-10-06 00:00:00.000000,1.94327818,2.92543744,4.98817925,913,1374,2344,463,778,1384,0.98624799,1.65657167,2.94516720,0.20419797,0.29415594,0.45080291
37013,0,USNorthCarolinaBeaufort,North Carolina,Beaufort,2021-01-05 14:34:50.342290,2020-10-07 00:00:00.000000,1.96967929,2.95341038,5.06844477,925,1387,2381,477,784,1407,1.01607375,1.66872368,2.99562741,0.20239053,0.29355690,0.44193069
37013,0,USNorthCarolinaBeaufort,North Carolina,Beaufort,2021-01-05 14:34:50.342290,2020-10-08 00:00:00.000000,1.99638975,3.01169423,5.12630097,938,1415,2409,491,781,1431,1.04672971,1.66290490,3.04590367,0.19162941,0.29191499,0.41797941
37013,0,USNorthCarolinaBeaufort,North Carolina,Beaufort,2021-01-05 14:34:50.342290,2020-10-09 00:00:00.000000,2.02337835,3.06115993,5.15875179,950,1438,2424,505,785,1453,1.07594311,1.67067500,3.09194061,0.19274834,0.29059257,0.38189089
37013,0,USNorthCarolinaBeaufort,North Carolina,Beaufort,2021-01-05 14:34:50.342290,2020-10-10 00:00:00.000000,2.05174992,3.10847296,5.17393529,964,1460,2431,517,795,1471,1.10098334,1.69273984,3.13031217,0.19391807,0.28489634,0.37871338
37013,0,USNorthCarolinaBeaufort,North Carolina,Beaufort,2021-01-05 14:34:50.342290,2020-10-11 00:00:00.000000,2.07460430,3.12367988,5.18015045,974,1467,2434,526,808,1485,1.12072200,1.71954914,3.16010129,0.19421060,0.27605852,0.38507675
37013,0,USNorthCarolinaBeaufort,North Carolina,Beaufort,2021-01-05 14:34:50.342290,2020-10-12 00:00:00.000000,2.11081701,3.12594185,5.17884254,991,1469,2433,533,812,1495,1.13582049,1.72979282,3.18221517,0.18617137,0.27475997,0.38896103
37013,0,USNorthCarolinaBeaufort,North Carolina,Beaufort,2021-01-05 14:34:50.342290,2020-10-13 00:00:00.000000,2.14426188,3.11771189,5.17378251,1007,1465,2431,538,814,1502,1.14627304,1.73376515,3.19758171,0.18271764,0.27058567,0.38442719
37013,0,USNorthCarolinaBeaufort,North Carolina,Beaufort,2021-01-05 14:34:50.342290,2020-10-14 00:00:00.000000,2.17593591,3.09284858,5.16431695,1022,1453,2426,542,816,1507,1.15349978,1.73795074,3.20753161,0.17924571,0.26729688,0.36620713
37013,0,USNorthCarolinaBeaufort,North Carolina,Beaufort,2021-01-05 14:34:50.342290,2020-10-15 00:00:00.000000,2.20174450,3.08110236,5.14813984,1034,1447,2419,544,823,1509,1.15846870,1.75333895,3.21288345,0.17770905,0.25791917,0.35433545
37013,0,USNorthCarolinaBeaufort,North Carolina,Beaufort,2021-01-05 14:34:50.342290,2020-10-16 00:00:00.000000,2.22424971,3.08234867,5.12150712,1045,1448,2406,545,833,1510,1.16171283,1.77282837,3.21378083,0.17489053,0.25601622,0.33206564
37013,0,USNorthCarolinaBeaufort,North Carolina,Beaufort,2021-01-05 14:34:50.342290,2020-10-17 00:00:00.000000,2.23015875,3.07696515,5.08160844,1048,1445,2388,546,834,1508,1.16335077,1.77617594,3.20962920,0.16920843,0.24895334,0.32495811
37013,0,USNorthCarolinaBeaufort,North Carolina,Beaufort,2021-01-05 14:34:50.342290,2020-10-18 00:00:00.000000,2.20275929,3.06508608,5.02962605,1035,1440,2363,540,836,1503,1.14914518,1.78049241,3.19948401,0.15918396,0.24496714,0.32257822
37013,0,USNorthCarolinaBeaufort,North Carolina,Beaufort,2021-01-05 14:34:50.342290,2020-10-19 00:00:00.000000,2.18632155,3.06007277,4.96929024,1027,1438,2335,531,841,1495,1.13148450,1.79096832,3.18288821,0.14801102,0.23598170,0.32066982
37013,0,USNorthCarolinaBeaufort,North Carolina,Beaufort,2021-01-05 14:34:50.342290,2020-10-20 00:00:00.000000,2.17413070,3.02886754,4.90449583,1021,1423,2304,524,841,1485,1.11519326,1.79112129,3.16020411,0.14570159,0.23269324,0.32030471
37013,0,USNorthCarolinaBeaufort,North Carolina,Beaufort,2021-01-05 14:34:50.342290,2020-10-21 00:00:00.000000,2.16173937,3.00862939,4.83740705,1015,1413,2273,517,838,1472,1.10028758,1.78350085,3.13240971,0.14455816,0.23244190,0.31958139
37013,0,USNorthCarolinaBeaufort,North Carolina,Beaufort,2021-01-05 14:34:50.342290,2020-10-22 00:00:00.000000,2.13794309,2.99094010,4.76916294,1004,1405,2241,510,830,1457,1.08710955,1.76771557,3.10059518,0.14397923,0.22801281,0.31780564
37013,0,USNorthCarolinaBeaufort,North Carolina,Beaufort,2021-01-05 14:34:50.342290,2020-10-23 00:00:00.000000,2.09912442,2.98192497,4.70034857,986,1401,2208,505,818,1442,1.07632830,1.74093245,3.06862682,0.14360435,0.22370488,0.30957492
37013,0,USNorthCarolinaBeaufort,North Carolina,Beaufort,2021-01-05 14:34:50.342290,2020-10-24 00:00:00.000000,2.06086455,2.94277188,4.65766822,968,1382,2188,502,802,1436,1.06867810,1.70809226,3.05592760,0.14257532,0.21976809,0.30648877
37013,0,USNorthCarolinaBeaufort,North Carolina,Beaufort,2021-01-05 14:34:50.342290,2020-10-25 00:00:00.000000,2.02742464,2.90386885,4.60929480,952,1364,2166,497,787,1427,1.05821997,1.67507788,3.03830305,0.14096574,0.21587591,0.30018565
37013,0,USNorthCarolinaBeaufort,North Carolina,Beaufort,2021-01-05 14:34:50.342290,2020-10-26 00:00:00.000000,2.01013346,2.85901511,4.55718017,944,1343,2141,488,779,1417,1.04036988,1.65959516,3.01634311,0.13928571,0.21392128,0.30195948
37013,0,USNorthCarolinaBeaufort,North Carolina,Beaufort,2021-01-05 14:34:50.342290,2020-10-27 00:00:00.000000,1.99529914,2.81340799,4.50249935,937,1322,2115,481,774,1405,1.02553115,1.64911406,2.98984066,0.13623070,0.21402965,0.29766641
37013,0,USNorthCarolinaBeaufort,North Carolina,Beaufort,2021-01-05 14:34:50.342290,2020-10-28 00:00:00.000000,1.98087312,2.76421953,4.44693625,930,1299,2089,476,773,1390,1.01315412,1.64556118,2.95989970,0.13556372,0.21301069,0.29159770
37013,0,USNorthCarolinaBeaufort,North Carolina,Beaufort,2021-01-05 14:34:50.342290,2020-10-29 00:00:00.000000,1.96687036,2.70751770,4.36855580,924,1272,2052,471,768,1375,1.00249753,1.63509029,2.92742196,0.13775410,0.21376721,0.29403430
37013,0,USNorthCarolinaBeaufort,North Carolina,Beaufort,2021-01-05 14:34:50.342290,2020-10-30 00:00:00.000000,1.95299491,2.65293588,4.27479052,917,1246,2008,466,758,1359,0.99306962,1.61450598,2.89311952,0.13945002,0.21477917,0.30127872
37013,0,USNorthCarolinaBeaufort,North Carolina,Beaufort,2021-01-05 14:34:50.342290,2020-10-31 00:00:00.000000,1.93787330,2.60812953,4.19534586,910,1225,1971,462,752,1342,0.98449434,1.60135881,2.85717021,0.14322475,0.21495856,0.30943515
37013,0,USNorthCarolinaBeaufort,North Carolina,Beaufort,2021-01-05 14:34:50.342290,2020-11-01 00:00:00.000000,1.90280755,2.56854992,4.13775395,894,1207,1944,458,747,1325,0.97629793,1.59160384,2.82014553,0.14716625,0.21495234,0.31700434
37013,0,USNorthCarolinaBeaufort,North Carolina,Beaufort,2021-01-05 14:34:50.342290,2020-11-02 00:00:00.000000,1.85412375,2.54254027,4.08125365,871,1194,1917,454,741,1307,0.96740535,1.57866755,2.78284400,0.15472583,0.21798016,0.32440030
37013,0,USNorthCarolinaBeaufort,North Carolina,Beaufort,2021-01-05 14:34:50.342290,2020-11-03 00:00:00.000000,1.80720737,2.51981604,4.03179742,849,1184,1894,449,734,1290,0.95614806,1.56358043,2.74557704,0.15533797,0.22356390,0.32517078
37013,0,USNorthCarolinaBeaufort,North Carolina,Beaufort,2021-01-05 14:34:50.342290,2020-11-04 00:00:00.000000,1.76297263,2.49142480,3.99031292,828,1170,1875,443,722,1270,0.94285211,1.53683931,2.70376151,0.16604042,0.22826667,0.33262118
37013,0,USNorthCarolinaBeaufort,North Carolina,Beaufort,2021-01-05 14:34:50.342290,2020-11-05 00:00:00.000000,1.73209421,2.46965614,3.95374358,813,1160,1858,436,708,1247,0.92835231,1.50793399,2.65500050,0.16931323,0.23664565,0.33584565
37013,0,USNorthCarolinaBeaufort,North Carolina,Beaufort,2021-01-05 14:34:50.342290,2020-11-06 00:00:00.000000,1.71595075,2.47533124,3.91943288,806,1163,1841,429,697,1228,0.91375327,1.48440788,2.61331757,0.17680902,0.24384923,0.34709930
37013,0,USNorthCarolinaBeaufort,North Carolina,Beaufort,2021-01-05 14:34:50.342290,2020-11-07 00:00:00.000000,1.70360951,2.48876774,3.88731393,800,1169,1826,423,689,1211,0.90060053,1.46631745,2.57851853,0.19067115,0.25463702,0.36162490
37013,0,USNorthCarolinaBeaufort,North Carolina,Beaufort,2021-01-05 14:34:50.342290,2020-11-08 00:00:00.000000,1.70989212,2.50481242,3.86012143,803,1177,1814,418,681,1198,0.89054266,1.45109803,2.54933561,0.19603430,0.26510435,0.37578593
37013,0,USNorthCarolinaBeaufort,North Carolina,Beaufort,2021-01-05 14:34:50.342290,2020-11-09 00:00:00.000000,1.70181696,2.49614508,3.84757120,799,1173,1808,415,674,1186,0.88439804,1.43503318,2.52444295,0.19637792,0.27880049,0.40900721
37013,0,USNorthCarolinaBeaufort,North Carolina,Beaufort,2021-01-05 14:34:50.342290,2020-11-10 00:00:00.000000,1.71518062,2.49518066,3.90276218,806,1172,1834,414,669,1176,0.88248745,1.42517115,2.50312950,0.19671202,0.28824433,0.41625343
37013,0,USNorthCarolinaBeaufort,North Carolina,Beaufort,2021-01-05 14:34:50.342290,2020-11-11 00:00:00.000000,1.73429095,2.52316648,3.86473830,815,1185,1816,415,668,1167,0.88384449,1.42341046,2.48447507,0.19751366,0.29970228,0.41760442
37013,0,USNorthCarolinaBeaufort,North Carolina,Beaufort,2021-01-05 14:34:50.342290,2020-11-12 00:00:00.000000,1.73678928,2.54007594,3.82606899,816,1193,1798,417,669,1159,0.88756874,1.42428532,2.46786028,0.20301612,0.30705803,0.42179641
37013,0,USNorthCarolinaBeaufort,North Carolina,Beaufort,2021-01-05 14:34:50.342290,2020-11-13 00:00:00.000000,1.74649391,2.54936088,3.90300721,820,1198,1834,422,671,1163,0.89958906,1.42972870,2.47689194,0.21037793,0.31171865,0.43610191
37013,0,USNorthCarolinaBeaufort,North Carolina,Beaufort,2021-01-05 14:34:50.342290,2020-11-14 00:00:00.000000,1.76393619,2.58186805,4.00017132,828,1213,1879,427,669,1168,0.90992196,1.42545871,2.48560960,0.21704077,0.32088357,0.46284895
37013,0,USNorthCarolinaBeaufort,North Carolina,Beaufort,2021-01-05 14:34:50.342290,2020-11-15 00:00:00.000000,1.78893174,2.60895677,4.09905676,840,1226,1926,429,675,1162,0.91499014,1.43717708,2.47374448,0.22512935,0.34073331,0.47092476
37013,0,USNorthCarolinaBeaufort,North Carolina,Beaufort,2021-01-05 14:34:50.342290,2020-11-16 00:00:00.000000,1.82481606,2.63757567,4.19866446,857,1239,1973,434,686,1157,0.92441438,1.46004787,2.46395575,0.23061961,0.35295176,0.47873892
37013,0,USNorthCarolinaBeaufort,North Carolina,Beaufort,2021-01-05 14:34:50.342290,2020-11-17 00:00:00.000000,1.86724309,2.64963187,4.29877575,877,1245,2020,441,700,1160,0.93881646,1.49024296,2.46992334,0.24136957,0.35510844,0.48227124
37013,0,USNorthCarolinaBeaufort,North Carolina,Beaufort,2021-01-05 14:34:50.342290,2020-11-18 00:00:00.000000,1.91637369,2.68168544,4.39751334,900,1260,2066,448,709,1179,0.95400709,1.51044132,2.51006294,0.25392861,0.35937850,0.48533014
37013,0,USNorthCarolinaBeaufort,North Carolina,Beaufort,2021-01-05 14:34:50.342290,2020-11-19 00:00:00.000000,1.97326994,2.74529050,4.49186023,927,1290,2110,456,722,1198,0.97053855,1.53834248,2.55026686,0.26762177,0.36493953,0.51834212
37013,0,USNorthCarolinaBeaufort,North Carolina,Beaufort,2021-01-05 14:34:50.342290,2020-11-20 00:00:00.000000,2.01163070,2.82691895,4.57721964,945,1328,2151,464,737,1217,0.98924351,1.56927690,2.59085660,0.27720925,0.38225253,0.52218927
37013,0,USNorthCarolinaBeaufort,North Carolina,Beaufort,2021-01-05 14:34:50.342290,2020-11-21 00:00:00.000000,2.04726049,2.90882328,4.65371631,962,1366,2186,475,745,1236,1.01274028,1.58682238,2.63197108,0.27926449,0.39531617,0.53367377
37013,0,USNorthCarolinaBeaufort,North Carolina,Beaufort,2021-01-05 14:34:50.342290,2020-11-22 00:00:00.000000,2.13108149,2.99112442,4.79056701,1001,1405,2251,494,760,1256,1.05281869,1.61759688,2.67357535,0.28567653,0.40856959,0.53489190
37013,0,USNorthCarolinaBeaufort,North Carolina,Beaufort,2021-01-05 14:34:50.342290,2020-11-23 00:00:00.000000,2.23522367,3.06963086,4.92994768,1050,1442,2316,516,780,1276,1.09858288,1.66139949,2.71557778,0.28753763,0.41857991,0.53521896
37013,0,USNorthCarolinaBeaufort,North Carolina,Beaufort,2021-01-05 14:34:50.342290,2020-11-24 00:00:00.000000,2.34475151,3.17738097,5.06726869,1101,1493,2381,535,798,1305,1.13873898,1.70015139,2.77852743,0.28637600,0.42588700,0.53534780
37013,0,USNorthCarolinaBeaufort,North Carolina,Beaufort,2021-01-05 14:34:50.342290,2020-11-25 00:00:00.000000,2.41466481,3.30858169,5.20129429,1134,1554,2444,550,818,1367,1.17191847,1.74197163,2.91022982,0.28727759,0.42550522,0.54179786
37013,0,USNorthCarolinaBeaufort,North Carolina,Beaufort,2021-01-05 14:34:50.342290,2020-11-26 00:00:00.000000,2.42339282,3.42431931,5.33288680,1138,1609,2506,557,838,1435,1.18563823,1.78407468,3.05527573,0.28673171,0.42685857,0.55299531
37013,0,USNorthCarolinaBeaufort,North Carolina,Beaufort,2021-01-05 14:34:50.342290,2020-11-27 00:00:00.000000,2.46089930,3.54385087,5.45733294,1156,1665,2564,577,858,1508,1.22992933,1.82601168,3.21103850,0.28663317,0.43347900,0.57036588
37013,0,USNorthCarolinaBeaufort,North Carolina,Beaufort,2021-01-05 14:34:50.342290,2020-11-28 00:00:00.000000,2.54681358,3.65863189,5.57369673,1196,1719,2619,599,879,1551,1.27624603,1.87131814,3.30131830,0.28666991,0.43799276,0.57026710
37013,0,USNorthCarolinaBeaufort,North Carolina,Beaufort,2021-01-05 14:34:50.342290,2020-11-29 00:00:00.000000,2.63171580,3.83185934,5.68022662,1236,1800,2669,619,905,1582,1.31750647,1.92745578,3.36658896,0.30861554,0.43809879,0.56970444
37013,0,USNorthCarolinaBeaufort,North Carolina,Beaufort,2021-01-05 14:34:50.342290,2020-11-30 00:00:00.000000,2.70767234,3.96200265,5.82230310,1272,1861,2736,633,934,1614,1.34806603,1.98880228,3.43483063,0.31359530,0.43616562,0.57759503
37013,0,USNorthCarolinaBeaufort,North Carolina,Beaufort,2021-01-05 14:34:50.342290,2020-12-01 00:00:00.000000,2.78123730,4.05328409,6.01667265,1307,1904,2827,648,964,1649,1.37891782,2.05323288,3.50964219,0.32778718,0.43636251,0.56732228
37013,0,USNorthCarolinaBeaufort,North Carolina,Beaufort,2021-01-05 14:34:50.342290,2020-12-02 00:00:00.000000,2.85138390,4.20568565,6.23544768,1339,1976,2930,672,996,1689,1.43112294,2.12077151,3.59568283,0.34111661,0.43778822,0.56643264
37013,0,USNorthCarolinaBeaufort,North Carolina,Beaufort,2021-01-05 14:34:50.342290,2020-12-03 00:00:00.000000,2.91787420,4.34375517,6.46409099,1371,2041,3037,696,1029,1735,1.48309312,2.19118230,3.69396723,0.34707082,0.44103681,0.56758916
37013,0,USNorthCarolinaBeaufort,North Carolina,Beaufort,2021-01-05 14:34:50.342290,2020-12-04 00:00:00.000000,2.98086256,4.46399865,6.69683729,1400,2097,3147,717,1064,1787,1.52667381,2.26449697,3.80313566,0.35818420,0.45061050,0.57236443
37013,0,USNorthCarolinaBeaufort,North Carolina,Beaufort,2021-01-05 14:34:50.342290,2020-12-05 00:00:00.000000,3.09749604,4.60838598,6.91457462,1455,2165,3249,738,1103,1842,1.57121893,2.34729680,3.92148604,0.36140454,0.45716580,0.58931984
37013,0,USNorthCarolinaBeaufort,North Carolina,Beaufort,2021-01-05 14:34:50.342290,2020-12-06 00:00:00.000000,3.19370253,4.78231941,7.18960300,1500,2247,3378,754,1144,1904,1.60560556,2.43547016,4.05287863,0.36230248,0.46606475,0.60560204
37013,0,USNorthCarolinaBeaufort,North Carolina,Beaufort,2021-01-05 14:34:50.342290,2020-12-07 00:00:00.000000,3.27187910,4.92870736,7.45361334,1537,2316,3502,770,1176,1965,1.63871535,2.50340931,4.18232459,0.36256959,0.47336231,0.62159089
37013,0,USNorthCarolinaBeaufort,North Carolina,Beaufort,2021-01-05 14:34:50.342290,2020-12-08 00:00:00.000000,3.36676203,5.12280289,7.75221131,1582,2407,3643,785,1214,2032,1.67181877,2.58513185,4.32552211,0.36254714,0.47688053,0.62899522
37013,0,USNorthCarolinaBeaufort,North Carolina,Beaufort,2021-01-05 14:34:50.342290,2020-12-09 00:00:00.000000,3.48011959,5.36205675,8.05866774,1635,2519,3787,802,1259,2105,1.70740831,2.67918424,4.47996898,0.36254152,0.47984813,0.65834318
37013,0,USNorthCarolinaBeaufort,North Carolina,Beaufort,2021-01-05 14:34:50.342290,2020-12-10 00:00:00.000000,3.61096934,5.55711053,8.47629919,1696,2611,3983,822,1302,2185,1.74922593,2.77094138,4.65042398,0.36270473,0.48845043,0.68765769
37013,0,USNorthCarolinaBeaufort,North Carolina,Beaufort,2021-01-05 14:34:50.342290,2020-12-11 00:00:00.000000,3.76172285,5.78311382,8.86429588,1767,2717,4165,845,1348,2273,1.79997703,2.86858154,4.83691927,0.37025573,0.49683101,0.73189842
37013,0,USNorthCarolinaBeaufort,North Carolina,Beaufort,2021-01-05 14:34:50.342290,2020-12-12 00:00:00.000000,3.89968233,6.08694735,9.22245527,1832,2860,4334,874,1399,2367,1.85999564,2.97707678,5.03764528,0.38529547,0.50173226,0.74254883
37013,0,USNorthCarolinaBeaufort,North Carolina,Beaufort,2021-01-05 14:34:50.342290,2020-12-13 00:00:00.000000,3.99078053,6.33054031,9.59564085,1875,2974,4509,906,1469,2467,1.92863913,3.12698102,5.24962895,0.39815807,0.51200553,0.75545217
37013,0,USNorthCarolinaBeaufort,North Carolina,Beaufort,2021-01-05 14:34:50.342290,2020-12-14 00:00:00.000000,4.08404555,6.57575028,9.99726878,1919,3090,4698,942,1535,2571,2.00552674,3.26767753,5.47243177,0.40656224,0.52529264,0.76668341
37013,0,USNorthCarolinaBeaufort,North Carolina,Beaufort,2021-01-05 14:34:50.342290,2020-12-15 00:00:00.000000,4.27096455,6.87485072,10.44291000,2007,3230,4907,983,1597,2657,2.09282615,3.40016106,5.65520886,0.42223781,0.54220270,0.76553882
37013,0,USNorthCarolinaBeaufort,North Carolina,Beaufort,2021-01-05 14:34:50.342290,2020-12-16 00:00:00.000000,4.50244009,7.17928954,10.92820536,2115,3373,5135,1029,1670,2737,2.18998079,3.55408177,5.82436631,0.43187181,0.56145006,0.76467772
37013,0,USNorthCarolinaBeaufort,North Carolina,Beaufort,2021-01-05 14:34:50.342290,2020-12-17 00:00:00.000000,4.73121578,7.45565619,11.46006404,2223,3503,5385,1079,1738,2820,2.29672282,3.69875651,6.00095655,0.44544207,0.58881542,0.78859998
37013,0,USNorthCarolinaBeaufort,North Carolina,Beaufort,2021-01-05 14:34:50.342290,2020-12-18 00:00:00.000000,4.98454312,7.87477532,12.04236826,2342,3700,5659,1133,1823,2908,2.41110859,3.88066823,6.18866760,0.45131745,0.62274109,0.82628319
37013,0,USNorthCarolinaBeaufort,North Carolina,Beaufort,2021-01-05 14:34:50.342290,2020-12-19 00:00:00.000000,5.25599500,8.24516931,12.67232631,2470,3874,5955,1185,1914,3003,2.52163435,4.07308214,6.39225242,0.46797899,0.64894585,0.90788343
37013,0,USNorthCarolinaBeaufort,North Carolina,Beaufort,2021-01-05 14:34:50.342290,2020-12-20 00:00:00.000000,5.54677600,8.57699825,13.34132041,2606,4030,6269,1235,2010,3109,2.62827777,4.27725249,6.61641416,0.50229919,0.68228230,0.94000109
37013,0,USNorthCarolinaBeaufort,North Carolina,Beaufort,2021-01-05 14:34:50.342290,2020-12-21 00:00:00.000000,5.85222693,9.05728893,14.03732517,2750,4256,6596,1286,2099,3226,2.73854979,4.46802295,6.86533901,0.51884765,0.71790365,0.98774284
37013,0,USNorthCarolinaBeaufort,North Carolina,Beaufort,2021-01-05 14:34:50.342290,2020-12-22 00:00:00.000000,6.17869367,9.71613100,14.75312330,2903,4565,6933,1371,2203,3369,2.91946822,4.68836151,7.16976334,0.56257326,0.75117997,1.01768280
37013,0,USNorthCarolinaBeaufort,North Carolina,Beaufort,2021-01-05 14:34:50.342290,2020-12-23 00:00:00.000000,6.72513228,10.28148948,15.48882491,3160,4831,7278,1475,2327,3562,3.14052502,4.95280263,7.57994748,0.59431956,0.76887091,1.02436216
37013,0,USNorthCarolinaBeaufort,North Carolina,Beaufort,2021-01-05 14:34:50.342290,2020-12-24 00:00:00.000000,7.36715545,10.90741320,16.27062233,3462,5125,7646,1558,2448,3759,3.31688245,5.21109412,8.00080522,0.59488269,0.79088612,1.07488359
37013,0,USNorthCarolinaBeaufort,North Carolina,Beaufort,2021-01-05 14:34:50.342290,2020-12-25 00:00:00.000000,8.04968092,11.68078578,17.13617853,3782,5489,8052,1695,2588,3960,3.60752604,5.50801582,8.42689824,0.63808898,0.82372823,1.09242633
37013,0,USNorthCarolinaBeaufort,North Carolina,Beaufort,2021-01-05 14:34:50.342290,2020-12-26 00:00:00.000000,8.77439032,12.42452222,18.04908402,4123,5838,8481,1824,2754,4161,3.88155924,5.86137011,8.85573809,0.64486475,0.84337698,1.09861407
37013,0,USNorthCarolinaBeaufort,North Carolina,Beaufort,2021-01-05 14:34:50.342290,2020-12-27 00:00:00.000000,9.54140695,13.14061645,18.96712670,4483,6175,8913,1951,2914,4391,4.15233224,6.20154865,9.34385630,0.67775418,0.86632271,1.12453897
37013,0,USNorthCarolinaBeaufort,North Carolina,Beaufort,2021-01-05 14:34:50.342290,2020-12-28 00:00:00.000000,10.32251994,13.93630092,19.86772710,4850,6549,9336,2084,3102,4669,4.43510815,6.60151737,9.93657004,0.69852343,0.87113504,1.12157218
37013,0,USNorthCarolinaBeaufort,North Carolina,Beaufort,2021-01-05 14:34:50.342290,2020-12-29 00:00:00.000000,10.95108924,14.77612089,20.75428514,5146,6943,9753,2224,3316,4957,4.73362551,7.05629214,10.54969957,0.69743921,0.87855248,1.11355629
37013,0,USNorthCarolinaBeaufort,North Carolina,Beaufort,2021-01-05 14:34:50.342290,2020-12-30 00:00:00.000000,11.58969864,15.67553884,21.62273096,5446,7366,10161,2371,3509,5250,5.04699067,7.46869736,11.17290039,0.68657281,0.89802670,1.12648250
37013,0,USNorthCarolinaBeaufort,North Carolina,Beaufort,2021-01-05 14:34:50.342290,2020-12-31 00:00:00.000000,12.23326109,16.50010600,22.46827824,5748,7754,10558,2524,3708,5543,5.37182860,7.89196827,11.79680126,0.66649350,0.92317231,1.16340640
37013,0,USNorthCarolinaBeaufort,North Carolina,Beaufort,2021-01-05 14:34:50.342290,2021-01-01 00:00:00.000000,12.87139743,17.35216542,23.28421110,6048,8154,10942,2701,3913,5833,5.74771985,8.32712774,12.41249925,0.66168478,0.92666700,1.20038295
37013,0,USNorthCarolinaBeaufort,North Carolina,Beaufort,2021-01-05 14:34:50.342290,2021-01-02 00:00:00.000000,13.47274764,18.34493582,24.06694053,6331,8621,11310,2893,4140,6114,6.15643195,8.81006047,13.01132529,0.61789489,0.93696987,1.22255858
37013,0,USNorthCarolinaBeaufort,North Carolina,Beaufort,2021-01-05 14:34:50.342290,2021-01-03 00:00:00.000000,13.99122229,19.12561104,24.80793880,6575,8987,11658,3040,4310,6384,6.47086581,9.17291911,13.58478643,0.59267333,0.94955536,1.26949231
37013,0,USNorthCarolinaBeaufort,North Carolina,Beaufort,2021-01-05 14:34:50.342290,2021-01-04 00:00:00.000000,14.55743487,19.81119771,26.06767819,6841,9310,12250,3187,4501,6637,6.78325248,9.57834061,14.12462573,0.58820815,0.92257169,1.32197956
37013,0,USNorthCarolinaBeaufort,North Carolina,Beaufort,2021-01-05 14:34:50.342290,2021-01-05 00:00:00.000000,14.84253468,20.31892265,27.09757792,6975,9548,12734,3332,4724,6871,7.09088000,10.05242382,14.62294977,0.56923245,0.92015205,1.34137396
37013,0,USNorthCarolinaBeaufort,North Carolina,Beaufort,2021-01-05 14:34:50.342290,2021-01-06 00:00:00.000000,15.21067737,20.84728780,27.98434537,7148,9796,13150,3473,4926,7083,7.39110058,10.48307783,15.07232842,0.54894017,0.92389829,1.38823375
37013,0,USNorthCarolinaBeaufort,North Carolina,Beaufort,2021-01-05 14:34:50.342290,2021-01-07 00:00:00.000000,15.26270128,21.27794308,28.77887664,7172,9999,13524,3573,5135,7268,7.60501122,10.92721450,15.46615768,0.54063907,0.92719673,1.48598437
37013,0,USNorthCarolinaBeaufort,North Carolina,Beaufort,2021-01-05 14:34:50.342290,2021-01-08 00:00:00.000000,15.23474748,21.59955785,29.46454193,7159,10150,13846,3690,5345,7450,7.85262567,11.37546147,15.85392128,0.54026322,0.92735000,1.49946781
37013,0,USNorthCarolinaBeaufort,North Carolina,Beaufort,2021-01-05 14:34:50.342290,2021-01-09 00:00:00.000000,15.17611957,21.80422335,30.02774236,7131,10246,14111,3759,5476,7768,8.00019490,11.65330249,16.53099388,0.54014566,0.92739986,1.50095672
37013,0,USNorthCarolinaBeaufort,North Carolina,Beaufort,2021-01-05 14:34:50.342290,2021-01-10 00:00:00.000000,15.08817547,22.00901163,30.44995326,7090,10342,14309,3761,5549,7924,8.00359973,11.80838830,16.86228765,0.54010779,0.92741616,1.50111649
37013,0,USNorthCarolinaBeaufort,North Carolina,Beaufort,2021-01-05 14:34:50.342290,2021-01-11 00:00:00.000000,14.96551194,22.15374421,30.73229264,7032,10410,14442,3765,5637,8005,8.01255814,11.99631440,17.03576025,0.54009549,0.92742155,1.50113361
37013,0,USNorthCarolinaBeaufort,North Carolina,Beaufort,2021-01-05 14:34:50.342290,2021-01-12 00:00:00.000000,14.81406767,22.27903430,30.87376879,6961,10469,14508,3778,5694,8080,8.03952564,12.11725831,17.19417529,0.54009147,0.92742336,1.50113545
37013,0,USNorthCarolinaBeaufort,North Carolina,Beaufort,2021-01-05 14:34:50.342290,2021-01-13 00:00:00.000000,14.63596993,22.12710611,30.87565719,6878,10398,14509,3776,5700,8217,8.03627271,12.13110937,17.48621409,0.54009016,0.92742399,1.50113564
37013,0,USNorthCarolinaBeaufort,North Carolina,Beaufort,2021-01-05 14:34:50.342290,2021-01-14 00:00:00.000000,14.43270480,21.88969090,30.74176646,6782,10286,14446,3721,5735,8321,7.91899055,12.20482322,17.70668386,0.54008974,0.92742421,1.50113567
37013,0,USNorthCarolinaBeaufort,North Carolina,Beaufort,2021-01-05 14:34:50.342290,2021-01-15 00:00:00.000000,14.20588970,21.67816868,30.47821372,6675,10187,14322,3647,5789,8389,7.76221489,12.32024303,17.85322899,0.54008960,0.92742430,1.50113567
37013,0,USNorthCarolinaBeaufort,North Carolina,Beaufort,2021-01-05 14:34:50.342290,2021-01-16 00:00:00.000000,13.95725260,21.41901653,30.09310873,6559,10065,14141,3602,5823,8423,7.66530605,12.39099658,17.92498915,0.54008955,0.92742433,1.50113567
37013,0,USNorthCarolinaBeaufort,North Carolina,Beaufort,2021-01-05 14:34:50.342290,2021-01-17 00:00:00.000000,13.68860963,21.08877752,29.59617818,6432,9910,13908,3551,5835,8422,7.55672958,12.41676328,17.92252333,0.54008954,0.92742435,1.50113567
