FIPS,HR_UID,nameid,province,region,analysisTime,dates,pointprevalence_025,pointprevalence_50,pointprevalence_975,pointinfections_025,pointinfections_50,pointinfections_975,pointinfectious_025,pointinfectious_50,pointinfectious_975,pointinfectiousprevalence_05,pointinfectiousprevalence_50,pointinfectiousprevalence_95,infectrate_025,infectrate_50,infectrate_975
20035,0,USKansasCowley,Kansas,Cowley,2021-01-05 23:02:47.061406,2020-03-09 00:00:00.000000,0.00623013,0.01264443,0.02046418,2,4,7,1,2,4,0.00364308,0.00792551,0.01238083,0.44958684,0.49965726,0.54576145
20035,0,USKansasCowley,Kansas,Cowley,2021-01-05 23:02:47.061406,2020-03-10 00:00:00.000000,0.00691895,0.01362276,0.02165429,2,4,7,1,2,3,0.00320296,0.00694150,0.01087102,0.44958684,0.49961437,0.54575336
20035,0,USKansasCowley,Kansas,Cowley,2021-01-05 23:02:47.061406,2020-03-11 00:00:00.000000,0.00759830,0.01452121,0.02279354,2,5,7,1,2,3,0.00293076,0.00629264,0.00989147,0.44958684,0.49953057,0.54573406
20035,0,USKansasCowley,Kansas,Cowley,2021-01-05 23:02:47.061406,2020-03-12 00:00:00.000000,0.00824200,0.01527606,0.02391735,2,5,8,0,2,3,0.00277740,0.00585675,0.00936755,0.44958684,0.49936656,0.54568803
20035,0,USKansasCowley,Kansas,Cowley,2021-01-05 23:02:47.061406,2020-03-13 00:00:00.000000,0.00883977,0.01598107,0.02504951,3,5,8,0,1,3,0.00270798,0.00558453,0.00912633,0.44958684,0.49904530,0.54557830
20035,0,USKansasCowley,Kansas,Cowley,2021-01-05 23:02:47.061406,2020-03-14 00:00:00.000000,0.00940425,0.01666255,0.02620622,3,5,9,0,1,3,0.00269775,0.00544327,0.00903988,0.44958684,0.49861522,0.54531709
20035,0,USKansasCowley,Kansas,Cowley,2021-01-05 23:02:47.061406,2020-03-15 00:00:00.000000,0.00994404,0.01724268,0.02739871,3,6,9,0,1,3,0.00272924,0.00539918,0.00914572,0.44958684,0.49818175,0.54495208
20035,0,USKansasCowley,Kansas,Cowley,2021-01-05 23:02:47.061406,2020-03-16 00:00:00.000000,0.01253629,0.02401794,0.03486428,4,8,12,0,1,3,0.00279013,0.00542756,0.00934962,0.44958684,0.49689694,0.54495185
20035,0,USKansasCowley,Kansas,Cowley,2021-01-05 23:02:47.061406,2020-03-17 00:00:00.000000,0.01531933,0.02996125,0.04248578,5,10,14,1,2,3,0.00305932,0.00579897,0.01033118,0.44958684,0.49323669,0.54424664
20035,0,USKansasCowley,Kansas,Cowley,2021-01-05 23:02:47.061406,2020-03-18 00:00:00.000000,0.01811254,0.03547149,0.05225839,6,12,18,1,2,4,0.00348469,0.00700708,0.01184690,0.44958683,0.48776158,0.53639706
20035,0,USKansasCowley,Kansas,Cowley,2021-01-05 23:02:47.061406,2020-03-19 00:00:00.000000,0.02068386,0.04147271,0.06229866,7,14,21,1,2,4,0.00400840,0.00806760,0.01377063,0.44958677,0.47720475,0.53637909
20035,0,USKansasCowley,Kansas,Cowley,2021-01-05 23:02:47.061406,2020-03-20 00:00:00.000000,0.02324239,0.04761024,0.07268280,8,16,25,1,3,5,0.00455784,0.00948524,0.01601326,0.43856011,0.46111277,0.53619311
20035,0,USKansasCowley,Kansas,Cowley,2021-01-05 23:02:47.061406,2020-03-21 00:00:00.000000,0.02578210,0.05386200,0.08383923,9,18,29,1,3,6,0.00516103,0.01098611,0.01851439,0.41350225,0.45027947,0.53419089
20035,0,USKansasCowley,Kansas,Cowley,2021-01-05 23:02:47.061406,2020-03-22 00:00:00.000000,0.02829160,0.06020078,0.09579782,9,21,33,2,4,7,0.00580207,0.01261865,0.02123352,0.38963096,0.42326281,0.51616883
20035,0,USKansasCowley,Kansas,Cowley,2021-01-05 23:02:47.061406,2020-03-23 00:00:00.000000,0.03224762,0.06405452,0.09991169,11,22,34,2,5,8,0.00647140,0.01435587,0.02412517,0.36298860,0.39576753,0.46412625
20035,0,USKansasCowley,Kansas,Cowley,2021-01-05 23:02:47.061406,2020-03-24 00:00:00.000000,0.03645174,0.06770602,0.10402376,12,23,36,2,5,9,0.00725263,0.01596080,0.02680047,0.34846692,0.37973246,0.44555031
20035,0,USKansasCowley,Kansas,Cowley,2021-01-05 23:02:47.061406,2020-03-25 00:00:00.000000,0.03993295,0.07133859,0.10817921,13,24,37,2,6,10,0.00813293,0.01744770,0.02930236,0.34346891,0.37347336,0.43100471
20035,0,USKansasCowley,Kansas,Cowley,2021-01-05 23:02:47.061406,2020-03-26 00:00:00.000000,0.04342365,0.07500486,0.11219105,15,26,39,3,6,11,0.00916054,0.01884689,0.03169388,0.34034930,0.36834092,0.42973791
20035,0,USKansasCowley,Kansas,Cowley,2021-01-05 23:02:47.061406,2020-03-27 00:00:00.000000,0.04694263,0.07869556,0.11632638,16,27,40,3,7,11,0.01025396,0.02018542,0.03402286,0.32757583,0.36290252,0.42963415
20035,0,USKansasCowley,Kansas,Cowley,2021-01-05 23:02:47.061406,2020-03-28 00:00:00.000000,0.05056867,0.08234508,0.12266347,17,28,42,3,7,12,0.01129814,0.02148280,0.03632170,0.29465199,0.34871480,0.42942866
20035,0,USKansasCowley,Kansas,Cowley,2021-01-05 23:02:47.061406,2020-03-29 00:00:00.000000,0.05384359,0.08666654,0.12905076,18,30,45,4,7,13,0.01226973,0.02274948,0.03861034,0.26887262,0.33426859,0.42640577
20035,0,USKansasCowley,Kansas,Cowley,2021-01-05 23:02:47.061406,2020-03-30 00:00:00.000000,0.05409297,0.08752298,0.13169671,18,30,45,4,8,14,0.01324017,0.02398467,0.04089768,0.25858302,0.31422925,0.42450857
20035,0,USKansasCowley,Kansas,Cowley,2021-01-05 23:02:47.061406,2020-03-31 00:00:00.000000,0.05417142,0.08843852,0.13427085,18,30,46,4,8,14,0.01397177,0.02507997,0.04278283,0.25627453,0.30480933,0.41869296
20035,0,USKansasCowley,Kansas,Cowley,2021-01-05 23:02:47.061406,2020-04-01 00:00:00.000000,0.05419029,0.08928640,0.13667532,18,31,47,5,9,15,0.01452187,0.02610871,0.04437203,0.25193900,0.29746908,0.40532255
20035,0,USKansasCowley,Kansas,Cowley,2021-01-05 23:02:47.061406,2020-04-02 00:00:00.000000,0.05415962,0.08981151,0.13895904,18,31,48,5,9,15,0.01493322,0.02695857,0.04573832,0.24776390,0.29224843,0.39809626
20035,0,USKansasCowley,Kansas,Cowley,2021-01-05 23:02:47.061406,2020-04-03 00:00:00.000000,0.05402512,0.08996125,0.14117676,18,31,49,5,9,16,0.01523445,0.02767512,0.04693720,0.23347977,0.28326681,0.39743226
20035,0,USKansasCowley,Kansas,Cowley,2021-01-05 23:02:47.061406,2020-04-04 00:00:00.000000,0.05368804,0.08980689,0.14335590,18,31,50,5,9,16,0.01545745,0.02819688,0.04801290,0.20868281,0.27063078,0.39186382
20035,0,USKansasCowley,Kansas,Cowley,2021-01-05 23:02:47.061406,2020-04-05 00:00:00.000000,0.05321014,0.08961518,0.14534602,18,31,50,5,9,17,0.01559844,0.02852143,0.04899900,0.19543658,0.25752812,0.37339688
20035,0,USKansasCowley,Kansas,Cowley,2021-01-05 23:02:47.061406,2020-04-06 00:00:00.000000,0.05495934,0.09232117,0.14783467,19,32,51,5,10,17,0.01566793,0.02872521,0.04990261,0.18713767,0.23780402,0.33548513
20035,0,USKansasCowley,Kansas,Cowley,2021-01-05 23:02:47.061406,2020-04-07 00:00:00.000000,0.05726887,0.09473200,0.14922882,19,33,52,5,10,17,0.01583919,0.02899824,0.05080197,0.18475878,0.22370796,0.28985649
20035,0,USKansasCowley,Kansas,Cowley,2021-01-05 23:02:47.061406,2020-04-08 00:00:00.000000,0.05879796,0.09704556,0.15046921,20,33,52,5,10,18,0.01608759,0.02930904,0.05158211,0.18093967,0.21933026,0.28483439
20035,0,USKansasCowley,Kansas,Cowley,2021-01-05 23:02:47.061406,2020-04-09 00:00:00.000000,0.06013587,0.09931518,0.15163494,20,34,52,5,10,18,0.01639416,0.02964074,0.05226017,0.17997822,0.21721185,0.28414889
20035,0,USKansasCowley,Kansas,Cowley,2021-01-05 23:02:47.061406,2020-04-10 00:00:00.000000,0.06184240,0.10154583,0.15268514,21,35,53,5,10,18,0.01680496,0.02999470,0.05285908,0.18129651,0.21499289,0.28311256
20035,0,USKansasCowley,Kansas,Cowley,2021-01-05 23:02:47.061406,2020-04-11 00:00:00.000000,0.06349384,0.10369101,0.15349953,22,36,53,6,10,18,0.01726579,0.03059344,0.05339056,0.17520899,0.21293602,0.28018521
20035,0,USKansasCowley,Kansas,Cowley,2021-01-05 23:02:47.061406,2020-04-12 00:00:00.000000,0.06459614,0.10564938,0.15418444,22,36,53,6,10,18,0.01775722,0.03120825,0.05384971,0.16510212,0.20588000,0.27698078
20035,0,USKansasCowley,Kansas,Cowley,2021-01-05 23:02:47.061406,2020-04-13 00:00:00.000000,0.06973561,0.10973457,0.16489227,24,38,57,6,11,18,0.01823687,0.03182126,0.05421049,0.15931789,0.19822438,0.27186129
20035,0,USKansasCowley,Kansas,Cowley,2021-01-05 23:02:47.061406,2020-04-14 00:00:00.000000,0.07444600,0.11371541,0.17386094,25,39,60,6,11,19,0.01891401,0.03262153,0.05543692,0.15822623,0.19221642,0.26319491
20035,0,USKansasCowley,Kansas,Cowley,2021-01-05 23:02:47.061406,2020-04-15 00:00:00.000000,0.07917129,0.11769104,0.18257231,27,41,63,6,11,19,0.01977206,0.03355366,0.05723223,0.15988988,0.18861171,0.25199866
20035,0,USKansasCowley,Kansas,Cowley,2021-01-05 23:02:47.061406,2020-04-16 00:00:00.000000,0.08388591,0.12171253,0.19253173,29,42,67,7,12,20,0.02075557,0.03458107,0.05940131,0.16549464,0.18643397,0.23459513
20035,0,USKansasCowley,Kansas,Cowley,2021-01-05 23:02:47.061406,2020-04-17 00:00:00.000000,0.08859518,0.12578272,0.20139050,30,43,70,7,12,21,0.02182117,0.03568062,0.06181156,0.16367248,0.18858543,0.21639152
20035,0,USKansasCowley,Kansas,Cowley,2021-01-05 23:02:47.061406,2020-04-18 00:00:00.000000,0.09327199,0.12981166,0.20994065,32,45,73,8,12,22,0.02297271,0.03683552,0.06436845,0.15742458,0.17924627,0.20205264
20035,0,USKansasCowley,Kansas,Cowley,2021-01-05 23:02:47.061406,2020-04-19 00:00:00.000000,0.09787264,0.13374696,0.21928555,34,46,76,8,13,23,0.02425760,0.03802689,0.06699755,0.14769991,0.17392653,0.20279269
20035,0,USKansasCowley,Kansas,Cowley,2021-01-05 23:02:47.061406,2020-04-20 00:00:00.000000,0.09940018,0.13622676,0.21929689,34,47,76,8,13,24,0.02557062,0.03923696,0.06962421,0.13913964,0.17130568,0.20316450
20035,0,USKansasCowley,Kansas,Cowley,2021-01-05 23:02:47.061406,2020-04-21 00:00:00.000000,0.10059316,0.13861744,0.21886831,35,48,76,9,14,24,0.02669203,0.04033931,0.07133245,0.13570085,0.16839433,0.20312379
20035,0,USKansasCowley,Kansas,Cowley,2021-01-05 23:02:47.061406,2020-04-22 00:00:00.000000,0.10167216,0.14090861,0.21812890,35,49,76,9,14,25,0.02766041,0.04135270,0.07270772,0.13432450,0.16575089,0.20276491
20035,0,USKansasCowley,Kansas,Cowley,2021-01-05 23:02:47.061406,2020-04-23 00:00:00.000000,0.10266111,0.14309053,0.21718217,35,49,75,9,14,25,0.02850628,0.04229216,0.07379665,0.13344517,0.16533697,0.20169092
20035,0,USKansasCowley,Kansas,Cowley,2021-01-05 23:02:47.061406,2020-04-24 00:00:00.000000,0.10358615,0.14510049,0.21603389,36,50,75,10,15,25,0.02921766,0.04316798,0.07395202,0.13166841,0.16545945,0.19883002
20035,0,USKansasCowley,Kansas,Cowley,2021-01-05 23:02:47.061406,2020-04-25 00:00:00.000000,0.10449582,0.14679272,0.21474367,36,51,74,10,15,25,0.02980809,0.04398243,0.07405568,0.12564296,0.16670723,0.19516428
20035,0,USKansasCowley,Kansas,Cowley,2021-01-05 23:02:47.061406,2020-04-26 00:00:00.000000,0.10547237,0.14808946,0.21332547,36,51,74,10,15,25,0.03033735,0.04472459,0.07399561,0.11190196,0.16908928,0.18781671
20035,0,USKansasCowley,Kansas,Cowley,2021-01-05 23:02:47.061406,2020-04-27 00:00:00.000000,0.11228838,0.14841698,0.21581408,39,51,75,10,15,25,0.03081815,0.04537963,0.07385389,0.10630864,0.16458041,0.18218743
20035,0,USKansasCowley,Kansas,Cowley,2021-01-05 23:02:47.061406,2020-04-28 00:00:00.000000,0.11914654,0.14819248,0.21730865,41,51,75,11,16,25,0.03173933,0.04589122,0.07375065,0.10513272,0.16144457,0.18173809
20035,0,USKansasCowley,Kansas,Cowley,2021-01-05 23:02:47.061406,2020-04-29 00:00:00.000000,0.12603374,0.14723971,0.21797553,43,51,76,11,16,25,0.03272632,0.04628329,0.07362432,0.10479817,0.15704844,0.18176263
20035,0,USKansasCowley,Kansas,Cowley,2021-01-05 23:02:47.061406,2020-04-30 00:00:00.000000,0.13115392,0.14711111,0.21873536,45,51,76,11,16,25,0.03387815,0.04657915,0.07368867,0.10571808,0.15149483,0.18070023
20035,0,USKansasCowley,Kansas,Cowley,2021-01-05 23:02:47.061406,2020-05-01 00:00:00.000000,0.13560071,0.15183871,0.21985811,47,53,76,12,16,25,0.03516007,0.04679868,0.07405903,0.10753894,0.14724981,0.17931295
20035,0,USKansasCowley,Kansas,Cowley,2021-01-05 23:02:47.061406,2020-05-02 00:00:00.000000,0.14008702,0.15692237,0.22079788,48,54,77,12,16,25,0.03653304,0.04695853,0.07443929,0.11142541,0.14249078,0.17821974
20035,0,USKansasCowley,Kansas,Cowley,2021-01-05 23:02:47.061406,2020-05-03 00:00:00.000000,0.14142649,0.16213597,0.22214719,49,56,77,13,16,26,0.03803003,0.04707416,0.07480411,0.11630030,0.14291669,0.17746606
20035,0,USKansasCowley,Kansas,Cowley,2021-01-05 23:02:47.061406,2020-05-04 00:00:00.000000,0.14135844,0.16226457,0.22132605,49,56,77,13,16,26,0.03982322,0.04715955,0.07514772,0.11868053,0.14367806,0.17778817
20035,0,USKansasCowley,Kansas,Cowley,2021-01-05 23:02:47.061406,2020-05-05 00:00:00.000000,0.14158657,0.16192701,0.22041812,49,56,76,14,16,26,0.04117380,0.04740557,0.07531827,0.11996304,0.14398141,0.17866078
20035,0,USKansasCowley,Kansas,Cowley,2021-01-05 23:02:47.061406,2020-05-06 00:00:00.000000,0.14063347,0.16187251,0.21940187,49,56,76,14,16,26,0.04236553,0.04825757,0.07543980,0.12067522,0.14564073,0.17965707
20035,0,USKansasCowley,Kansas,Cowley,2021-01-05 23:02:47.061406,2020-05-07 00:00:00.000000,0.13994781,0.16162831,0.21858151,48,56,76,15,17,26,0.04301554,0.04917734,0.07548881,0.12091761,0.14653572,0.18103979
20035,0,USKansasCowley,Kansas,Cowley,2021-01-05 23:02:47.061406,2020-05-08 00:00:00.000000,0.13835167,0.16123091,0.21799904,48,56,76,15,17,26,0.04323695,0.04963520,0.07547086,0.12018277,0.14751524,0.18284864
20035,0,USKansasCowley,Kansas,Cowley,2021-01-05 23:02:47.061406,2020-05-09 00:00:00.000000,0.13724765,0.16274772,0.21740207,47,56,75,15,17,26,0.04362906,0.04980020,0.07540248,0.12003543,0.14976960,0.18487715
20035,0,USKansasCowley,Kansas,Cowley,2021-01-05 23:02:47.061406,2020-05-10 00:00:00.000000,0.13619685,0.16381872,0.21677433,47,57,75,15,17,26,0.04386445,0.05038246,0.07529632,0.12074249,0.15117063,0.18676941
20035,0,USKansasCowley,Kansas,Cowley,2021-01-05 23:02:47.061406,2020-05-11 00:00:00.000000,0.13698225,0.16561384,0.21966374,47,57,76,15,17,26,0.04393542,0.05088200,0.07516188,0.12133512,0.15271791,0.18907827
20035,0,USKansasCowley,Kansas,Cowley,2021-01-05 23:02:47.061406,2020-05-12 00:00:00.000000,0.13781377,0.16577374,0.22366931,48,57,78,15,17,26,0.04408035,0.05146623,0.07538697,0.12138703,0.15394532,0.19042153
20035,0,USKansasCowley,Kansas,Cowley,2021-01-05 23:02:47.061406,2020-05-13 00:00:00.000000,0.13871413,0.16680428,0.22716755,48,58,79,15,18,26,0.04428794,0.05189985,0.07587837,0.12121906,0.15420655,0.19300245
20035,0,USKansasCowley,Kansas,Cowley,2021-01-05 23:02:47.061406,2020-05-14 00:00:00.000000,0.13969028,0.16868029,0.23237345,48,58,81,15,18,26,0.04454771,0.05231795,0.07656584,0.12263282,0.15387484,0.19518784
20035,0,USKansasCowley,Kansas,Cowley,2021-01-05 23:02:47.061406,2020-05-15 00:00:00.000000,0.14075667,0.17059365,0.23795362,49,59,83,15,18,27,0.04485116,0.05285862,0.07753249,0.12289265,0.15528257,0.19671585
20035,0,USKansasCowley,Kansas,Cowley,2021-01-05 23:02:47.061406,2020-05-16 00:00:00.000000,0.14190900,0.17250913,0.24348564,49,60,84,15,18,27,0.04519397,0.05331721,0.07869498,0.12433918,0.15715696,0.19804615
20035,0,USKansasCowley,Kansas,Cowley,2021-01-05 23:02:47.061406,2020-05-17 00:00:00.000000,0.14311878,0.17471406,0.24820162,49,60,86,15,18,27,0.04557982,0.05389072,0.07977843,0.12366259,0.16024104,0.19794242
20035,0,USKansasCowley,Kansas,Cowley,2021-01-05 23:02:47.061406,2020-05-18 00:00:00.000000,0.15146020,0.18003280,0.25252283,52,62,88,16,19,28,0.04602308,0.05447852,0.08143853,0.12383915,0.16284046,0.20997931
20035,0,USKansasCowley,Kansas,Cowley,2021-01-05 23:02:47.061406,2020-05-19 00:00:00.000000,0.15947818,0.18808707,0.25905189,55,65,90,16,19,29,0.04662978,0.05530796,0.08314521,0.12443030,0.16330069,0.21868643
20035,0,USKansasCowley,Kansas,Cowley,2021-01-05 23:02:47.061406,2020-05-20 00:00:00.000000,0.16434142,0.19490510,0.26395501,57,68,92,16,19,29,0.04738469,0.05641820,0.08477776,0.12547267,0.16269551,0.22307245
20035,0,USKansasCowley,Kansas,Cowley,2021-01-05 23:02:47.061406,2020-05-21 00:00:00.000000,0.16835292,0.20381778,0.27284386,58,71,95,16,20,30,0.04826179,0.05788066,0.08654005,0.12772882,0.16252561,0.22222617
20035,0,USKansasCowley,Kansas,Cowley,2021-01-05 23:02:47.061406,2020-05-22 00:00:00.000000,0.17220635,0.20882211,0.28455892,60,72,99,17,20,30,0.04922911,0.05953156,0.08817479,0.13318184,0.16471664,0.21718507
20035,0,USKansasCowley,Kansas,Cowley,2021-01-05 23:02:47.061406,2020-05-23 00:00:00.000000,0.17581565,0.21491062,0.29833587,61,75,104,17,21,31,0.05025253,0.06136503,0.09003677,0.14149368,0.17200053,0.20969317
20035,0,USKansasCowley,Kansas,Cowley,2021-01-05 23:02:47.061406,2020-05-24 00:00:00.000000,0.17919097,0.21956495,0.31046738,62,76,108,17,22,32,0.05129974,0.06337669,0.09239113,0.14537733,0.18406898,0.20276167
20035,0,USKansasCowley,Kansas,Cowley,2021-01-05 23:02:47.061406,2020-05-25 00:00:00.000000,0.18185206,0.22164394,0.31008795,63,77,108,18,22,33,0.05234704,0.06569555,0.09513864,0.15710218,0.19135646,0.20292293
20035,0,USKansasCowley,Kansas,Cowley,2021-01-05 23:02:47.061406,2020-05-26 00:00:00.000000,0.18453588,0.22346157,0.30965105,64,78,108,18,23,33,0.05334048,0.06731052,0.09720679,0.16506515,0.19258641,0.20878616
20035,0,USKansasCowley,Kansas,Cowley,2021-01-05 23:02:47.061406,2020-05-27 00:00:00.000000,0.18735601,0.22516074,0.30859854,65,78,107,18,23,34,0.05429421,0.06847336,0.09874994,0.16186305,0.19452626,0.21421769
20035,0,USKansasCowley,Kansas,Cowley,2021-01-05 23:02:47.061406,2020-05-28 00:00:00.000000,0.19064927,0.22697999,0.30692223,66,79,107,19,24,34,0.05522828,0.06961386,0.09975299,0.16120798,0.19469264,0.22196575
20035,0,USKansasCowley,Kansas,Cowley,2021-01-05 23:02:47.061406,2020-05-29 00:00:00.000000,0.19422013,0.22877766,0.30496354,67,79,106,19,24,35,0.05616297,0.07052580,0.10030926,0.16139241,0.19717192,0.22883990
20035,0,USKansasCowley,Kansas,Cowley,2021-01-05 23:02:47.061406,2020-05-30 00:00:00.000000,0.19800896,0.22827215,0.30284730,69,79,105,19,24,35,0.05711447,0.07136222,0.10051932,0.16146975,0.20148387,0.23450408
20035,0,USKansasCowley,Kansas,Cowley,2021-01-05 23:02:47.061406,2020-05-31 00:00:00.000000,0.20195915,0.23034475,0.30062726,70,80,104,20,25,35,0.05803394,0.07215968,0.10046948,0.16149453,0.20398538,0.23884818
20035,0,USKansasCowley,Kansas,Cowley,2021-01-05 23:02:47.061406,2020-06-01 00:00:00.000000,0.20994421,0.23483085,0.30100990,73,81,105,20,25,34,0.05871239,0.07292849,0.10022594,0.16150286,0.20562558,0.24177590
20035,0,USKansasCowley,Kansas,Cowley,2021-01-05 23:02:47.061406,2020-06-02 00:00:00.000000,0.21658947,0.23598983,0.30256431,75,82,105,20,25,35,0.06005038,0.07374879,0.10043213,0.16150921,0.20625021,0.24364617
20035,0,USKansasCowley,Kansas,Cowley,2021-01-05 23:02:47.061406,2020-06-03 00:00:00.000000,0.21862656,0.23974078,0.30664163,76,83,107,21,26,35,0.06190687,0.07456780,0.10093932,0.16152796,0.20638003,0.24480193
20035,0,USKansasCowley,Kansas,Cowley,2021-01-05 23:02:47.061406,2020-06-04 00:00:00.000000,0.22060725,0.24523661,0.30940075,77,85,108,22,26,35,0.06378410,0.07525346,0.10156385,0.16160513,0.20622292,0.24550644
20035,0,USKansasCowley,Kansas,Cowley,2021-01-05 23:02:47.061406,2020-06-05 00:00:00.000000,0.22255241,0.25181578,0.31196472,77,87,108,22,26,35,0.06564990,0.07626028,0.10248711,0.16192291,0.20557515,0.24624801
20035,0,USKansasCowley,Kansas,Cowley,2021-01-05 23:02:47.061406,2020-06-06 00:00:00.000000,0.22410147,0.25914633,0.31418848,78,90,109,23,27,36,0.06737052,0.07739767,0.10397384,0.16311013,0.20309167,0.24811462
20035,0,USKansasCowley,Kansas,Cowley,2021-01-05 23:02:47.061406,2020-06-07 00:00:00.000000,0.22338298,0.26615971,0.32169043,77,92,112,24,27,36,0.06913986,0.07744474,0.10556157,0.16642095,0.19818124,0.25286697
20035,0,USKansasCowley,Kansas,Cowley,2021-01-05 23:02:47.061406,2020-06-08 00:00:00.000000,0.22637574,0.27151999,0.31879140,79,94,111,24,27,37,0.07093480,0.07902145,0.10702422,0.16527800,0.19398925,0.25744851
20035,0,USKansasCowley,Kansas,Cowley,2021-01-05 23:02:47.061406,2020-06-09 00:00:00.000000,0.22952454,0.27658775,0.31576319,80,96,110,25,27,37,0.07262366,0.07968196,0.10799380,0.16161597,0.19376109,0.25901716
20035,0,USKansasCowley,Kansas,Cowley,2021-01-05 23:02:47.061406,2020-06-10 00:00:00.000000,0.23134534,0.28421376,0.31271602,80,99,109,25,28,37,0.07388756,0.08083539,0.10832839,0.16165239,0.19417879,0.25766368
20035,0,USKansasCowley,Kansas,Cowley,2021-01-05 23:02:47.061406,2020-06-11 00:00:00.000000,0.23290947,0.28579879,0.31104865,81,99,108,26,28,37,0.07505750,0.08291718,0.10824508,0.16423788,0.19709912,0.25300063
20035,0,USKansasCowley,Kansas,Cowley,2021-01-05 23:02:47.061406,2020-06-12 00:00:00.000000,0.23530201,0.28987921,0.32110906,82,101,112,26,29,37,0.07593711,0.08497236,0.10785988,0.16971237,0.20468582,0.25261072
20035,0,USKansasCowley,Kansas,Cowley,2021-01-05 23:02:47.061406,2020-06-13 00:00:00.000000,0.23825260,0.29433827,0.33007070,83,102,115,26,30,37,0.07658826,0.08711371,0.10726766,0.17310340,0.20895241,0.27029774
20035,0,USKansasCowley,Kansas,Cowley,2021-01-05 23:02:47.061406,2020-06-14 00:00:00.000000,0.23988166,0.29697805,0.33705654,83,103,117,26,31,37,0.07725369,0.08906673,0.10654233,0.17660192,0.20971574,0.28254140
20035,0,USKansasCowley,Kansas,Cowley,2021-01-05 23:02:47.061406,2020-06-15 00:00:00.000000,0.23926578,0.29709060,0.33842755,83,103,118,27,31,36,0.07794299,0.09037606,0.10573746,0.17713035,0.21706741,0.28885770
20035,0,USKansasCowley,Kansas,Cowley,2021-01-05 23:02:47.061406,2020-06-16 00:00:00.000000,0.23519036,0.29638090,0.33978702,82,103,118,27,31,36,0.07853484,0.09138369,0.10501515,0.17742505,0.21756515,0.29080580
20035,0,USKansasCowley,Kansas,Cowley,2021-01-05 23:02:47.061406,2020-06-17 00:00:00.000000,0.23264280,0.29612203,0.34101339,81,103,119,27,31,36,0.07906046,0.09087231,0.10436540,0.17763939,0.21820405,0.29090927
20035,0,USKansasCowley,Kansas,Cowley,2021-01-05 23:02:47.061406,2020-06-18 00:00:00.000000,0.23126012,0.29564090,0.34212683,80,103,119,27,32,36,0.07953855,0.09185440,0.10405872,0.17782339,0.21868175,0.28972697
20035,0,USKansasCowley,Kansas,Cowley,2021-01-05 23:02:47.061406,2020-06-19 00:00:00.000000,0.22779230,0.29513672,0.34368665,79,103,119,27,32,36,0.07997879,0.09245537,0.10531683,0.17781737,0.21821148,0.28733838
20035,0,USKansasCowley,Kansas,Cowley,2021-01-05 23:02:47.061406,2020-06-20 00:00:00.000000,0.22442049,0.29457169,0.34694780,78,102,121,28,32,36,0.08038329,0.09275799,0.10485270,0.17802973,0.21626781,0.27750590
20035,0,USKansasCowley,Kansas,Cowley,2021-01-05 23:02:47.061406,2020-06-21 00:00:00.000000,0.22115299,0.29386153,0.34960766,77,102,122,27,32,36,0.08019571,0.09289671,0.10588177,0.17865546,0.21000704,0.26152687
20035,0,USKansasCowley,Kansas,Cowley,2021-01-05 23:02:47.061406,2020-06-22 00:00:00.000000,0.21694480,0.29399654,0.35676037,75,102,124,27,32,37,0.08011105,0.09348138,0.10680612,0.18005767,0.20390419,0.24262702
20035,0,USKansasCowley,Kansas,Cowley,2021-01-05 23:02:47.061406,2020-06-23 00:00:00.000000,0.21291000,0.29396807,0.36363922,74,102,126,27,32,37,0.07895202,0.09393009,0.10829907,0.18056822,0.19875274,0.22955781
20035,0,USKansasCowley,Kansas,Cowley,2021-01-05 23:02:47.061406,2020-06-24 00:00:00.000000,0.20911119,0.29430242,0.37045319,72,102,129,27,33,38,0.07754537,0.09487938,0.11016965,0.17910853,0.19649805,0.22369398
20035,0,USKansasCowley,Kansas,Cowley,2021-01-05 23:02:47.061406,2020-06-25 00:00:00.000000,0.20562929,0.29488959,0.37695682,71,102,131,26,33,38,0.07615576,0.09579603,0.11166461,0.17796709,0.19833328,0.22182334
20035,0,USKansasCowley,Kansas,Cowley,2021-01-05 23:02:47.061406,2020-06-26 00:00:00.000000,0.20249152,0.29544194,0.38578441,70,103,134,26,33,39,0.07481310,0.09624800,0.11315955,0.17488428,0.19976212,0.22240092
20035,0,USKansasCowley,Kansas,Cowley,2021-01-05 23:02:47.061406,2020-06-27 00:00:00.000000,0.19964210,0.29599793,0.39443018,69,103,137,25,33,40,0.07355036,0.09691342,0.11472026,0.17222162,0.19986714,0.22293684
20035,0,USKansasCowley,Kansas,Cowley,2021-01-05 23:02:47.061406,2020-06-28 00:00:00.000000,0.19698244,0.29656748,0.40199094,68,103,140,25,33,40,0.07238517,0.09570240,0.11632781,0.17088244,0.20026899,0.22324539
20035,0,USKansasCowley,Kansas,Cowley,2021-01-05 23:02:47.061406,2020-06-29 00:00:00.000000,0.20059505,0.30179263,0.40781507,70,105,142,24,33,41,0.07130478,0.09565211,0.11796790,0.16989471,0.20053789,0.22363884
20035,0,USKansasCowley,Kansas,Cowley,2021-01-05 23:02:47.061406,2020-06-30 00:00:00.000000,0.20428753,0.30705073,0.41366273,71,107,144,24,33,41,0.07098391,0.09604329,0.11990721,0.16991267,0.20098063,0.22452840
20035,0,USKansasCowley,Kansas,Cowley,2021-01-05 23:02:47.061406,2020-07-01 00:00:00.000000,0.20810072,0.31244619,0.41963025,72,109,146,24,33,42,0.07121408,0.09678465,0.12201887,0.17068556,0.20233856,0.22672735
20035,0,USKansasCowley,Kansas,Cowley,2021-01-05 23:02:47.061406,2020-07-02 00:00:00.000000,0.21187819,0.31810989,0.43026723,73,111,150,25,34,43,0.07183178,0.09778075,0.12408853,0.17046482,0.20715408,0.23154437
20035,0,USKansasCowley,Kansas,Cowley,2021-01-05 23:02:47.061406,2020-07-03 00:00:00.000000,0.21549954,0.32423849,0.43876167,75,113,153,25,34,44,0.07269316,0.09897937,0.12615457,0.16891478,0.21580911,0.23968164
20035,0,USKansasCowley,Kansas,Cowley,2021-01-05 23:02:47.061406,2020-07-04 00:00:00.000000,0.21901559,0.33075634,0.44730518,76,115,156,25,35,44,0.07371838,0.10035522,0.12826198,0.16709325,0.21836007,0.24867262
20035,0,USKansasCowley,Kansas,Cowley,2021-01-05 23:02:47.061406,2020-07-05 00:00:00.000000,0.22247607,0.33745899,0.45653519,77,117,159,26,35,45,0.07484520,0.10189356,0.13044772,0.16581542,0.22213050,0.25493465
20035,0,USKansasCowley,Kansas,Cowley,2021-01-05 23:02:47.061406,2020-07-06 00:00:00.000000,0.22479419,0.33895353,0.45905350,78,118,160,26,36,46,0.07581558,0.10357121,0.13272838,0.16608320,0.22414716,0.25807198
20035,0,USKansasCowley,Kansas,Cowley,2021-01-05 23:02:47.061406,2020-07-07 00:00:00.000000,0.22706477,0.34055814,0.46262153,79,118,161,26,36,46,0.07674347,0.10503142,0.13460039,0.16950666,0.22692783,0.25946758
20035,0,USKansasCowley,Kansas,Cowley,2021-01-05 23:02:47.061406,2020-07-08 00:00:00.000000,0.22932066,0.34235268,0.46623821,80,119,162,27,37,47,0.07755600,0.10634229,0.13620215,0.17954006,0.23281832,0.26057071
20035,0,USKansasCowley,Kansas,Cowley,2021-01-05 23:02:47.061406,2020-07-09 00:00:00.000000,0.23189371,0.34454491,0.46993656,80,120,164,27,37,48,0.07825543,0.10757436,0.13797907,0.19615351,0.24351916,0.26203385
20035,0,USKansasCowley,Kansas,Cowley,2021-01-05 23:02:47.061406,2020-07-10 00:00:00.000000,0.23580947,0.34858404,0.47377264,82,121,165,27,37,48,0.07883951,0.10880329,0.13959386,0.21610090,0.25124053,0.26412220
20035,0,USKansasCowley,Kansas,Cowley,2021-01-05 23:02:47.061406,2020-07-11 00:00:00.000000,0.24110083,0.35324275,0.47780127,84,123,166,27,38,49,0.07967836,0.11008252,0.14109761,0.23360906,0.25791292,0.27035908
20035,0,USKansasCowley,Kansas,Cowley,2021-01-05 23:02:47.061406,2020-07-12 00:00:00.000000,0.24632873,0.35810704,0.48205050,85,125,168,28,38,49,0.08065689,0.11143056,0.14253278,0.24651593,0.26145293,0.28050342
20035,0,USKansasCowley,Kansas,Cowley,2021-01-05 23:02:47.061406,2020-07-13 00:00:00.000000,0.25128560,0.36460596,0.49075653,87,127,171,28,39,50,0.08180036,0.11284655,0.14393334,0.25205972,0.26386218,0.28251433
20035,0,USKansasCowley,Kansas,Cowley,2021-01-05 23:02:47.061406,2020-07-14 00:00:00.000000,0.25631053,0.37119657,0.49963203,89,129,174,29,39,50,0.08309747,0.11444047,0.14564879,0.25258593,0.26554647,0.28369975
20035,0,USKansasCowley,Kansas,Cowley,2021-01-05 23:02:47.061406,2020-07-15 00:00:00.000000,0.26141772,0.37786685,0.50867911,91,131,177,29,40,51,0.08453129,0.11617529,0.14761845,0.25302226,0.26668619,0.29090287
20035,0,USKansasCowley,Kansas,Cowley,2021-01-05 23:02:47.061406,2020-07-16 00:00:00.000000,0.26846380,0.38458376,0.51783690,93,134,180,30,41,52,0.08606041,0.11802067,0.14979192,0.25327677,0.26790176,0.31124517
20035,0,USKansasCowley,Kansas,Cowley,2021-01-05 23:02:47.061406,2020-07-17 00:00:00.000000,0.27584291,0.39127715,0.52697203,96,136,183,30,41,53,0.08769613,0.11995155,0.15212673,0.25408312,0.26709986,0.34600183
20035,0,USKansasCowley,Kansas,Cowley,2021-01-05 23:02:47.061406,2020-07-18 00:00:00.000000,0.28144524,0.39763462,0.53525762,98,138,186,31,42,53,0.08953608,0.12194362,0.15458102,0.23218591,0.26040406,0.36147255
20035,0,USKansasCowley,Kansas,Cowley,2021-01-05 23:02:47.061406,2020-07-19 00:00:00.000000,0.28951266,0.40300574,0.54115991,101,140,188,31,43,54,0.09166604,0.12395292,0.15717937,0.21527318,0.25679202,0.36313944
20035,0,USKansasCowley,Kansas,Cowley,2021-01-05 23:02:47.061406,2020-07-20 00:00:00.000000,0.29963856,0.40884128,0.54532371,104,142,190,33,43,56,0.09492120,0.12589423,0.16046279,0.21012056,0.24815904,0.36017907
20035,0,USKansasCowley,Kansas,Cowley,2021-01-05 23:02:47.061406,2020-07-21 00:00:00.000000,0.31224429,0.41459244,0.54939053,108,144,191,34,44,57,0.09764449,0.12782389,0.16332054,0.20936809,0.24645069,0.35505454
20035,0,USKansasCowley,Kansas,Cowley,2021-01-05 23:02:47.061406,2020-07-22 00:00:00.000000,0.31620208,0.42054005,0.55355492,110,146,193,34,45,57,0.09900412,0.12974064,0.16577322,0.20968431,0.25018456,0.34844982
20035,0,USKansasCowley,Kansas,Cowley,2021-01-05 23:02:47.061406,2020-07-23 00:00:00.000000,0.32220974,0.42689256,0.55761733,112,149,194,35,45,58,0.10087502,0.13166666,0.16791053,0.21048369,0.25530415,0.34089792
20035,0,USKansasCowley,Kansas,Cowley,2021-01-05 23:02:47.061406,2020-07-24 00:00:00.000000,0.32778673,0.43385376,0.56128153,114,151,195,35,46,59,0.10249391,0.13363740,0.16982697,0.21215286,0.26155258,0.33311206
20035,0,USKansasCowley,Kansas,Cowley,2021-01-05 23:02:47.061406,2020-07-25 00:00:00.000000,0.33381570,0.44154227,0.56508127,116,154,197,36,47,59,0.10417487,0.13569741,0.17160404,0.21549051,0.26694583,0.33584724
20035,0,USKansasCowley,Kansas,Cowley,2021-01-05 23:02:47.061406,2020-07-26 00:00:00.000000,0.34024502,0.44993993,0.57004641,118,157,198,36,48,60,0.10594198,0.13788950,0.17330363,0.22144513,0.27308993,0.34008232
20035,0,USKansasCowley,Kansas,Cowley,2021-01-05 23:02:47.061406,2020-07-27 00:00:00.000000,0.34505590,0.45646432,0.57253521,120,159,199,37,48,61,0.10780802,0.14025024,0.17496604,0.22955915,0.27734830,0.34043356
20035,0,USKansasCowley,Kansas,Cowley,2021-01-05 23:02:47.061406,2020-07-28 00:00:00.000000,0.35006352,0.46340793,0.57532083,122,161,200,38,49,61,0.10960194,0.14304164,0.17625348,0.23727854,0.27814151,0.34246307
20035,0,USKansasCowley,Kansas,Cowley,2021-01-05 23:02:47.061406,2020-07-29 00:00:00.000000,0.35502664,0.47056492,0.57823003,123,164,201,38,50,61,0.11135855,0.14581240,0.17717383,0.23920390,0.27826002,0.34133475
20035,0,USKansasCowley,Kansas,Cowley,2021-01-05 23:02:47.061406,2020-07-30 00:00:00.000000,0.35951326,0.47620576,0.58119721,125,166,202,39,51,62,0.11308468,0.14775543,0.17792725,0.24024382,0.27805587,0.33818318
20035,0,USKansasCowley,Kansas,Cowley,2021-01-05 23:02:47.061406,2020-07-31 00:00:00.000000,0.36270662,0.48010268,0.58418218,126,167,203,40,52,62,0.11474624,0.14955506,0.17855910,0.24081146,0.27740012,0.33334246
20035,0,USKansasCowley,Kansas,Cowley,2021-01-05 23:02:47.061406,2020-08-01 00:00:00.000000,0.36378221,0.48377313,0.58711666,126,168,204,40,52,62,0.11624491,0.15129320,0.17910289,0.24353333,0.26886564,0.32196184
20035,0,USKansasCowley,Kansas,Cowley,2021-01-05 23:02:47.061406,2020-08-02 00:00:00.000000,0.36286119,0.48694631,0.58998514,126,169,205,40,53,62,0.11743447,0.15186442,0.17959634,0.24373116,0.26221176,0.29912718
20035,0,USKansasCowley,Kansas,Cowley,2021-01-05 23:02:47.061406,2020-08-03 00:00:00.000000,0.37357617,0.49682595,0.60139129,130,173,209,41,53,62,0.11821854,0.15237517,0.18010671,0.23810006,0.26128354,0.28228664
20035,0,USKansasCowley,Kansas,Cowley,2021-01-05 23:02:47.061406,2020-08-04 00:00:00.000000,0.38371414,0.50610301,0.61303272,133,176,213,41,53,63,0.11974462,0.15406925,0.18188639,0.23078245,0.25336382,0.28183146
20035,0,USKansasCowley,Kansas,Cowley,2021-01-05 23:02:47.061406,2020-08-05 00:00:00.000000,0.39348247,0.51537623,0.62513387,137,179,218,42,54,64,0.12177586,0.15610606,0.18515416,0.22607031,0.24851443,0.28879267
20035,0,USKansasCowley,Kansas,Cowley,2021-01-05 23:02:47.061406,2020-08-06 00:00:00.000000,0.40300575,0.53333165,0.64406807,140,186,224,43,55,66,0.12415652,0.15892006,0.18928517,0.22002119,0.24688730,0.29567609
20035,0,USKansasCowley,Kansas,Cowley,2021-01-05 23:02:47.061406,2020-08-07 00:00:00.000000,0.40439387,0.55294890,0.66392766,141,193,231,44,56,67,0.12677348,0.16297622,0.19424508,0.21469554,0.24707566,0.30533892
20035,0,USKansasCowley,Kansas,Cowley,2021-01-05 23:02:47.061406,2020-08-08 00:00:00.000000,0.40422857,0.57145315,0.68834065,141,199,240,45,57,69,0.12953823,0.16574199,0.19989900,0.20864258,0.24644026,0.31081655
20035,0,USKansasCowley,Kansas,Cowley,2021-01-05 23:02:47.061406,2020-08-09 00:00:00.000000,0.41301677,0.58880447,0.70525588,144,205,246,46,59,71,0.13240754,0.16950103,0.20402410,0.19948979,0.24459928,0.31316740
20035,0,USKansasCowley,Kansas,Cowley,2021-01-05 23:02:47.061406,2020-08-10 00:00:00.000000,0.41075587,0.59750047,0.72109299,143,208,251,47,60,73,0.13519633,0.17247943,0.20916745,0.19267317,0.24359382,0.31407240
20035,0,USKansasCowley,Kansas,Cowley,2021-01-05 23:02:47.061406,2020-08-11 00:00:00.000000,0.40833770,0.60051388,0.73702573,142,209,257,47,61,74,0.13704383,0.17521051,0.21484658,0.18967081,0.24373721,0.31440720
20035,0,USKansasCowley,Kansas,Cowley,2021-01-05 23:02:47.061406,2020-08-12 00:00:00.000000,0.40408563,0.60134974,0.75305573,141,209,262,48,62,76,0.13816843,0.17834534,0.22035392,0.18784057,0.24645472,0.31453016
20035,0,USKansasCowley,Kansas,Cowley,2021-01-05 23:02:47.061406,2020-08-13 00:00:00.000000,0.39832151,0.60631464,0.76917524,139,211,268,48,63,78,0.13861923,0.18293977,0.22574282,0.18724029,0.25304390,0.31457697
20035,0,USKansasCowley,Kansas,Cowley,2021-01-05 23:02:47.061406,2020-08-14 00:00:00.000000,0.39256765,0.61275633,0.78778446,137,213,274,48,65,80,0.13861563,0.18676354,0.23105197,0.18805689,0.25642709,0.33505794
20035,0,USKansasCowley,Kansas,Cowley,2021-01-05 23:02:47.061406,2020-08-15 00:00:00.000000,0.38687536,0.62063107,0.80825339,135,216,282,47,66,82,0.13748526,0.19067125,0.23630960,0.18915479,0.26125510,0.36517079
20035,0,USKansasCowley,Kansas,Cowley,2021-01-05 23:02:47.061406,2020-08-16 00:00:00.000000,0.38131407,0.62857853,0.83155138,133,219,290,47,67,84,0.13567327,0.19410480,0.24153604,0.18994869,0.27201126,0.37372158
20035,0,USKansasCowley,Kansas,Cowley,2021-01-05 23:02:47.061406,2020-08-17 00:00:00.000000,0.38188226,0.63266396,0.85214603,133,220,297,46,68,86,0.13380873,0.19648149,0.24674712,0.19131649,0.27879014,0.42172381
20035,0,USKansasCowley,Kansas,Cowley,2021-01-05 23:02:47.061406,2020-08-18 00:00:00.000000,0.38487140,0.63643719,0.87616320,134,222,305,46,69,87,0.13256679,0.19973889,0.25165961,0.19313558,0.29130396,0.43687766
20035,0,USKansasCowley,Kansas,Cowley,2021-01-05 23:02:47.061406,2020-08-19 00:00:00.000000,0.38722288,0.64108988,0.90221485,135,223,314,46,70,89,0.13181295,0.20333874,0.25751067,0.19251184,0.29482480,0.43721103
20035,0,USKansasCowley,Kansas,Cowley,2021-01-05 23:02:47.061406,2020-08-20 00:00:00.000000,0.38907761,0.64594740,0.92643779,135,225,323,46,71,92,0.13218919,0.20597455,0.26408189,0.19128948,0.29674034,0.42382330
20035,0,USKansasCowley,Kansas,Cowley,2021-01-05 23:02:47.061406,2020-08-21 00:00:00.000000,0.39170884,0.65075874,0.94902796,136,227,331,46,71,94,0.13319034,0.20585010,0.27108944,0.19179514,0.29792683,0.40816342
20035,0,USKansasCowley,Kansas,Cowley,2021-01-05 23:02:47.061406,2020-08-22 00:00:00.000000,0.39510603,0.65566981,0.97090763,137,228,338,46,72,97,0.13445821,0.20712436,0.27826933,0.19565495,0.30022292,0.40023145
20035,0,USKansasCowley,Kansas,Cowley,2021-01-05 23:02:47.061406,2020-08-23 00:00:00.000000,0.39899145,0.66116669,0.99272381,139,230,346,47,72,99,0.13478158,0.20851514,0.28545882,0.20506651,0.30186966,0.39808114
20035,0,USKansasCowley,Kansas,Cowley,2021-01-05 23:02:47.061406,2020-08-24 00:00:00.000000,0.40344883,0.66957260,1.01395831,140,233,353,47,73,102,0.13475671,0.21013198,0.29260611,0.22429970,0.30269176,0.39716739
20035,0,USKansasCowley,Kansas,Cowley,2021-01-05 23:02:47.061406,2020-08-25 00:00:00.000000,0.40800226,0.68000622,1.03551340,142,237,361,47,74,104,0.13510089,0.21203104,0.29970859,0.24912255,0.30316188,0.39676452
20035,0,USKansasCowley,Kansas,Cowley,2021-01-05 23:02:47.061406,2020-08-26 00:00:00.000000,0.41259629,0.69184286,1.05737474,144,241,369,47,74,107,0.13590665,0.21432315,0.30679559,0.24979739,0.31372999,0.39635354
20035,0,USKansasCowley,Kansas,Cowley,2021-01-05 23:02:47.061406,2020-08-27 00:00:00.000000,0.41722041,0.70471189,1.07927482,145,246,376,47,75,109,0.13716562,0.21703079,0.31389469,0.25114752,0.32043511,0.39451364
20035,0,USKansasCowley,Kansas,Cowley,2021-01-05 23:02:47.061406,2020-08-28 00:00:00.000000,0.42199996,0.71867907,1.09996385,147,250,383,48,76,112,0.13883153,0.22013417,0.32100414,0.25843251,0.32758410,0.38503721
20035,0,USKansasCowley,Kansas,Cowley,2021-01-05 23:02:47.061406,2020-08-29 00:00:00.000000,0.42765462,0.73358422,1.11865016,149,256,390,49,78,114,0.14089805,0.22362304,0.32801773,0.27053012,0.33259078,0.37393801
20035,0,USKansasCowley,Kansas,Cowley,2021-01-05 23:02:47.061406,2020-08-30 00:00:00.000000,0.43588858,0.74906234,1.13681556,152,261,396,50,79,116,0.14338114,0.22747698,0.33486379,0.30174274,0.34203255,0.37002332
20035,0,USKansasCowley,Kansas,Cowley,2021-01-05 23:02:47.061406,2020-08-31 00:00:00.000000,0.44207138,0.77278636,1.16940499,154,269,408,51,80,119,0.14639902,0.23164986,0.34158307,0.32276897,0.34698578,0.36935001
20035,0,USKansasCowley,Kansas,Cowley,2021-01-05 23:02:47.061406,2020-09-01 00:00:00.000000,0.44901222,0.79682018,1.20251142,156,278,419,52,82,121,0.14989269,0.23668319,0.34884587,0.32357285,0.34818893,0.37124868
20035,0,USKansasCowley,Kansas,Cowley,2021-01-05 23:02:47.061406,2020-09-02 00:00:00.000000,0.45612740,0.82138020,1.23698359,159,286,431,53,84,124,0.15340371,0.24239297,0.35655504,0.32390482,0.35055439,0.37180914
20035,0,USKansasCowley,Kansas,Cowley,2021-01-05 23:02:47.061406,2020-09-03 00:00:00.000000,0.46336327,0.84673410,1.27698889,161,295,445,54,86,127,0.15651049,0.24864882,0.36464892,0.32432386,0.35461898,0.37435890
20035,0,USKansasCowley,Kansas,Cowley,2021-01-05 23:02:47.061406,2020-09-04 00:00:00.000000,0.47081496,0.87327586,1.32189509,164,304,461,55,89,130,0.15890381,0.25537447,0.37310345,0.32553091,0.36246401,0.38489468
20035,0,USKansasCowley,Kansas,Cowley,2021-01-05 23:02:47.061406,2020-09-05 00:00:00.000000,0.47880674,0.90123780,1.37016085,167,314,478,56,91,133,0.16139627,0.26254424,0.38193198,0.32942723,0.37004652,0.39752175
20035,0,USKansasCowley,Kansas,Cowley,2021-01-05 23:02:47.061406,2020-09-06 00:00:00.000000,0.48810336,0.93077115,1.42061889,170,324,495,57,94,136,0.16401255,0.27015909,0.39116354,0.33676984,0.37529398,0.40374867
20035,0,USKansasCowley,Kansas,Cowley,2021-01-05 23:02:47.061406,2020-09-07 00:00:00.000000,0.50875099,0.95603462,1.45744181,177,333,508,58,97,139,0.16683578,0.27823685,0.40080800,0.34859268,0.38299641,0.40707288
20035,0,USKansasCowley,Kansas,Cowley,2021-01-05 23:02:47.061406,2020-09-08 00:00:00.000000,0.53178702,0.98427768,1.49530384,185,343,521,59,99,143,0.17105082,0.28636920,0.41204189,0.36302179,0.39299110,0.41085218
20035,0,USKansasCowley,Kansas,Cowley,2021-01-05 23:02:47.061406,2020-09-09 00:00:00.000000,0.55657769,1.01485385,1.53227230,194,354,534,61,102,148,0.17647567,0.29479593,0.42436842,0.37628981,0.39982911,0.42612400
20035,0,USKansasCowley,Kansas,Cowley,2021-01-05 23:02:47.061406,2020-09-10 00:00:00.000000,0.58237566,1.04658561,1.56392421,203,365,545,63,105,152,0.18291473,0.30364837,0.43647396,0.37726106,0.41001926,0.43830954
20035,0,USKansasCowley,Kansas,Cowley,2021-01-05 23:02:47.061406,2020-09-11 00:00:00.000000,0.60877087,1.07875145,1.59271064,212,376,555,66,109,156,0.19015705,0.31291948,0.44801373,0.37251721,0.41249615,0.44869817
20035,0,USKansasCowley,Kansas,Cowley,2021-01-05 23:02:47.061406,2020-09-12 00:00:00.000000,0.63557664,1.11126201,1.62150389,221,387,566,69,112,160,0.19799964,0.32253958,0.45890652,0.37247943,0.40979545,0.45242198
20035,0,USKansasCowley,Kansas,Cowley,2021-01-05 23:02:47.061406,2020-09-13 00:00:00.000000,0.66280788,1.14429924,1.65082923,231,399,576,72,116,163,0.20629396,0.33244682,0.46930911,0.37150411,0.40597314,0.45325004
20035,0,USKansasCowley,Kansas,Cowley,2021-01-05 23:02:47.061406,2020-09-14 00:00:00.000000,0.68303285,1.18141866,1.68274664,238,412,587,75,119,167,0.21490463,0.34260978,0.47938235,0.37123449,0.40505141,0.45334152
20035,0,USKansasCowley,Kansas,Cowley,2021-01-05 23:02:47.061406,2020-09-15 00:00:00.000000,0.70383049,1.21945794,1.71577327,245,425,598,77,123,170,0.22287825,0.35330738,0.48940223,0.37304147,0.40575022,0.45344576
20035,0,USKansasCowley,Kansas,Cowley,2021-01-05 23:02:47.061406,2020-09-16 00:00:00.000000,0.72511659,1.25882204,1.75302256,253,439,611,80,127,174,0.23043645,0.36448249,0.49946944,0.37650485,0.40764059,0.45416317
20035,0,USKansasCowley,Kansas,Cowley,2021-01-05 23:02:47.061406,2020-09-17 00:00:00.000000,0.74752537,1.30042637,1.80149102,260,453,628,82,131,177,0.23776159,0.37612268,0.50968449,0.38066638,0.42097774,0.46001836
20035,0,USKansasCowley,Kansas,Cowley,2021-01-05 23:02:47.061406,2020-09-18 00:00:00.000000,0.77360889,1.34651330,1.85321679,270,470,646,85,135,181,0.24508540,0.38829924,0.52063476,0.38891112,0.43861976,0.50094851
20035,0,USKansasCowley,Kansas,Cowley,2021-01-05 23:02:47.061406,2020-09-19 00:00:00.000000,0.80460773,1.39875510,1.90832089,280,488,666,88,140,186,0.25278460,0.40126493,0.53358446,0.39781452,0.45965775,0.52417524
20035,0,USKansasCowley,Kansas,Cowley,2021-01-05 23:02:47.061406,2020-09-20 00:00:00.000000,0.83728213,1.45557490,1.96657788,292,508,686,91,144,191,0.26189887,0.41535747,0.54722433,0.40638239,0.47069353,0.53605511
20035,0,USKansasCowley,Kansas,Cowley,2021-01-05 23:02:47.061406,2020-09-21 00:00:00.000000,0.87129926,1.50967583,2.02725936,304,526,707,95,150,196,0.27345963,0.43068579,0.56159532,0.41486331,0.47173578,0.53651595
20035,0,USKansasCowley,Kansas,Cowley,2021-01-05 23:02:47.061406,2020-09-22 00:00:00.000000,0.90301982,1.56638767,2.09033072,315,546,729,99,155,201,0.28532951,0.44670117,0.57690620,0.41852926,0.46595419,0.53817562
20035,0,USKansasCowley,Kansas,Cowley,2021-01-05 23:02:47.061406,2020-09-23 00:00:00.000000,0.93315170,1.62539031,2.15552246,325,567,752,103,161,207,0.29753297,0.46344048,0.59306475,0.42160801,0.46129059,0.53829750
20035,0,USKansasCowley,Kansas,Cowley,2021-01-05 23:02:47.061406,2020-09-24 00:00:00.000000,0.96302487,1.68653218,2.22274279,336,588,775,108,167,212,0.31008657,0.48091312,0.60998804,0.42311010,0.45717069,0.53847529
20035,0,USKansasCowley,Kansas,Cowley,2021-01-05 23:02:47.061406,2020-09-25 00:00:00.000000,0.99325562,1.74957790,2.29281612,346,610,800,112,174,219,0.32220140,0.49911355,0.62764256,0.42521284,0.46468792,0.55292081
20035,0,USKansasCowley,Kansas,Cowley,2021-01-05 23:02:47.061406,2020-09-26 00:00:00.000000,1.02403863,1.81571217,2.37379518,357,633,828,116,179,225,0.33338884,0.51394102,0.64643155,0.42415130,0.49749584,0.56373610
20035,0,USKansasCowley,Kansas,Cowley,2021-01-05 23:02:47.061406,2020-09-27 00:00:00.000000,1.05543494,1.89762662,2.47621631,368,662,864,120,184,233,0.34489133,0.52925079,0.66795382,0.42340986,0.53735820,0.64668385
20035,0,USKansasCowley,Kansas,Cowley,2021-01-05 23:02:47.061406,2020-09-28 00:00:00.000000,1.08234340,1.99075172,2.58497518,377,694,902,124,192,241,0.35670418,0.55030348,0.69246836,0.42322692,0.54691100,0.69587233
20035,0,USKansasCowley,Kansas,Cowley,2021-01-05 23:02:47.061406,2020-09-29 00:00:00.000000,1.10990872,2.08829891,2.69740951,387,728,941,128,199,251,0.36824129,0.57160557,0.71930347,0.42323329,0.54852103,0.70281685
20035,0,USKansasCowley,Kansas,Cowley,2021-01-05 23:02:47.061406,2020-09-30 00:00:00.000000,1.13802439,2.18972401,2.82843146,397,764,987,132,207,261,0.37966359,0.59375585,0.74824193,0.42333813,0.55128404,0.70280036
20035,0,USKansasCowley,Kansas,Cowley,2021-01-05 23:02:47.061406,2020-10-01 00:00:00.000000,1.16678289,2.28090936,2.96546348,407,796,1035,136,216,272,0.39108544,0.61981692,0.77922537,0.42357471,0.55216156,0.69967926
20035,0,USKansasCowley,Kansas,Cowley,2021-01-05 23:02:47.061406,2020-10-02 00:00:00.000000,1.19650759,2.36574629,3.10528670,417,825,1083,140,225,283,0.40233636,0.64692389,0.81233657,0.42573464,0.55443577,0.68575227
20035,0,USKansasCowley,Kansas,Cowley,2021-01-05 23:02:47.061406,2020-10-03 00:00:00.000000,1.22835957,2.45458022,3.24918865,428,856,1134,144,235,295,0.41293326,0.67343087,0.84765920,0.43123902,0.55729677,0.66243674
20035,0,USKansasCowley,Kansas,Cowley,2021-01-05 23:02:47.061406,2020-10-04 00:00:00.000000,1.26581688,2.54800886,3.39830620,441,889,1186,147,244,308,0.42384713,0.70088657,0.88517961,0.44241170,0.56058739,0.65623715
20035,0,USKansasCowley,Kansas,Cowley,2021-01-05 23:02:47.061406,2020-10-05 00:00:00.000000,1.32282228,2.64772426,3.55117333,461,924,1239,152,254,322,0.43560408,0.72927029,0.92487323,0.46783726,0.56730011,0.65966235
20035,0,USKansasCowley,Kansas,Cowley,2021-01-05 23:02:47.061406,2020-10-06 00:00:00.000000,1.39147870,2.75407673,3.75774814,485,961,1311,157,264,337,0.45011594,0.75806978,0.96664529,0.51070339,0.57551998,0.66045805
20035,0,USKansasCowley,Kansas,Cowley,2021-01-05 23:02:47.061406,2020-10-07 00:00:00.000000,1.46753427,2.86860413,3.98419021,512,1001,1390,163,274,352,0.46786669,0.78699584,1.01045266,0.53512961,0.58368010,0.66527523
20035,0,USKansasCowley,Kansas,Cowley,2021-01-05 23:02:47.061406,2020-10-08 00:00:00.000000,1.54849330,2.99046345,4.22249996,540,1043,1473,170,285,371,0.48869694,0.81683402,1.06376946,0.54436190,0.58974681,0.67285705
20035,0,USKansasCowley,Kansas,Cowley,2021-01-05 23:02:47.061406,2020-10-09 00:00:00.000000,1.63399815,3.11978358,4.47330448,570,1089,1561,178,295,391,0.51117813,0.84763481,1.12071997,0.55058150,0.59919037,0.68079542
20035,0,USKansasCowley,Kansas,Cowley,2021-01-05 23:02:47.061406,2020-10-10 00:00:00.000000,1.72463084,3.25928791,4.73779190,602,1137,1653,186,307,412,0.53511133,0.87950768,1.18047924,0.55732044,0.60506947,0.68999044
20035,0,USKansasCowley,Kansas,Cowley,2021-01-05 23:02:47.061406,2020-10-11 00:00:00.000000,1.82151066,3.41537049,5.02153240,635,1192,1752,195,320,433,0.56108382,0.91733676,1.24290811,0.56178001,0.61494386,0.70793635
20035,0,USKansasCowley,Kansas,Cowley,2021-01-05 23:02:47.061406,2020-10-12 00:00:00.000000,1.92521680,3.59112399,5.23559350,672,1253,1827,205,333,459,0.58918384,0.95457023,1.31501611,0.55693568,0.62692255,0.73174236
20035,0,USKansasCowley,Kansas,Cowley,2021-01-05 23:02:47.061406,2020-10-13 00:00:00.000000,2.03846203,3.78143721,5.44426615,711,1320,1900,216,346,486,0.61934612,0.99335907,1.39472788,0.55176602,0.63493002,0.73904894
20035,0,USKansasCowley,Kansas,Cowley,2021-01-05 23:02:47.061406,2020-10-14 00:00:00.000000,2.16286457,3.96760568,5.65872014,755,1385,1975,227,361,517,0.65207951,1.03599188,1.48108590,0.55060338,0.64359470,0.75089460
20035,0,USKansasCowley,Kansas,Cowley,2021-01-05 23:02:47.061406,2020-10-15 00:00:00.000000,2.29990731,4.17663022,5.90378331,802,1457,2060,240,377,549,0.68798434,1.08184593,1.57403272,0.55038327,0.64931904,0.75967659
20035,0,USKansasCowley,Kansas,Cowley,2021-01-05 23:02:47.061406,2020-10-16 00:00:00.000000,2.45136667,4.40875187,6.20258076,855,1539,2165,254,395,584,0.72766540,1.13317186,1.67345128,0.55041760,0.65397887,0.76309762
20035,0,USKansasCowley,Kansas,Cowley,2021-01-05 23:02:47.061406,2020-10-17 00:00:00.000000,2.61961805,4.63165413,6.43681851,914,1616,2246,269,415,621,0.77160240,1.18988946,1.77930420,0.55161273,0.65916144,0.76265505
20035,0,USKansasCowley,Kansas,Cowley,2021-01-05 23:02:47.061406,2020-10-18 00:00:00.000000,2.80683739,4.81741410,6.67822289,979,1681,2331,286,432,648,0.82004489,1.23999290,1.85715620,0.55338797,0.66894001,0.75948729
20035,0,USKansasCowley,Kansas,Cowley,2021-01-05 23:02:47.061406,2020-10-19 00:00:00.000000,3.01285450,5.05061889,6.96242461,1051,1763,2430,304,454,673,0.87303326,1.30240803,1.93029250,0.56716619,0.67155795,0.75699050
20035,0,USKansasCowley,Kansas,Cowley,2021-01-05 23:02:47.061406,2020-10-20 00:00:00.000000,3.24265912,5.30207180,7.38605756,1131,1850,2578,324,479,700,0.93061679,1.37504010,2.00718155,0.62091133,0.69131782,0.77555701
20035,0,USKansasCowley,Kansas,Cowley,2021-01-05 23:02:47.061406,2020-10-21 00:00:00.000000,3.50313482,5.58921933,7.90500438,1222,1951,2759,346,507,731,0.99307646,1.45478551,2.09555189,0.63312132,0.72267561,0.80533466
20035,0,USKansasCowley,Kansas,Cowley,2021-01-05 23:02:47.061406,2020-10-22 00:00:00.000000,3.80505832,5.91001380,8.45510670,1328,2063,2951,370,535,769,1.06121493,1.53464432,2.20394573,0.64189721,0.73534263,0.84732859
20035,0,USKansasCowley,Kansas,Cowley,2021-01-05 23:02:47.061406,2020-10-23 00:00:00.000000,4.15502980,6.28745815,8.99279564,1450,2194,3139,396,565,813,1.13660524,1.61860115,2.32985929,0.65855847,0.76098145,0.89899000
20035,0,USKansasCowley,Kansas,Cowley,2021-01-05 23:02:47.061406,2020-10-24 00:00:00.000000,4.52270812,6.66302392,9.50361837,1578,2325,3317,424,596,862,1.21560300,1.70982051,2.47080099,0.68445788,0.81079558,0.96741541
20035,0,USKansasCowley,Kansas,Cowley,2021-01-05 23:02:47.061406,2020-10-25 00:00:00.000000,4.90619479,7.15100622,10.08149528,1712,2496,3519,459,631,916,1.31745330,1.80856684,2.62507327,0.71431869,0.86752136,1.06761860
20035,0,USKansasCowley,Kansas,Cowley,2021-01-05 23:02:47.061406,2020-10-26 00:00:00.000000,5.31097446,7.62711427,10.70988453,1853,2662,3738,496,670,974,1.42352886,1.92196877,2.79153142,0.73587756,0.89367577,1.12591173
20035,0,USKansasCowley,Kansas,Cowley,2021-01-05 23:02:47.061406,2020-10-27 00:00:00.000000,5.74432031,8.12382929,11.38325702,2005,2835,3973,537,717,1036,1.53902817,2.05533306,2.96789516,0.74477995,0.90709747,1.34214967
20035,0,USKansasCowley,Kansas,Cowley,2021-01-05 23:02:47.061406,2020-10-28 00:00:00.000000,6.20773526,8.58183803,12.10839265,2166,2995,4226,580,767,1101,1.66402811,2.19943733,3.15421884,0.75382815,0.91958163,1.48417694
20035,0,USKansasCowley,Kansas,Cowley,2021-01-05 23:02:47.061406,2020-10-29 00:00:00.000000,6.70271121,9.15222073,12.89830667,2339,3194,4502,627,821,1170,1.79874846,2.35443683,3.35173852,0.80103544,0.94137243,1.49413336
20035,0,USKansasCowley,Kansas,Cowley,2021-01-05 23:02:47.061406,2020-10-30 00:00:00.000000,7.22400169,9.80743919,13.76811647,2521,3423,4806,678,884,1244,1.94363208,2.53405932,3.56596507,0.87460084,1.00087833,1.49486964
20035,0,USKansasCowley,Kansas,Cowley,2021-01-05 23:02:47.061406,2020-10-31 00:00:00.000000,7.75620512,10.49718757,14.66779272,2707,3664,5120,732,952,1325,2.09916822,2.72991384,3.79683795,0.89706416,1.05771663,1.49492776
20035,0,USKansasCowley,Kansas,Cowley,2021-01-05 23:02:47.061406,2020-11-01 00:00:00.000000,8.31986826,11.21982512,15.59808684,2904,3916,5444,790,1024,1411,2.26550085,2.93387918,4.04270249,0.90126139,1.08768718,1.49488266
20035,0,USKansasCowley,Kansas,Cowley,2021-01-05 23:02:47.061406,2020-11-02 00:00:00.000000,8.91768490,11.97807679,16.55969843,3112,4181,5780,852,1097,1501,2.44300038,3.14372621,4.30226275,0.90496604,1.10499837,1.49472702
20035,0,USKansasCowley,Kansas,Cowley,2021-01-05 23:02:47.061406,2020-11-03 00:00:00.000000,9.59646251,12.76949924,17.54893155,3349,4457,6125,918,1174,1596,2.63215197,3.36591235,4.57452185,0.91011188,1.11485032,1.49425965
20035,0,USKansasCowley,Kansas,Cowley,2021-01-05 23:02:47.061406,2020-11-04 00:00:00.000000,10.32163548,13.59379961,18.56306117,3603,4745,6479,989,1256,1695,2.83322123,3.60026096,4.85843206,0.91700751,1.11875626,1.49271478
20035,0,USKansasCowley,Kansas,Cowley,2021-01-05 23:02:47.061406,2020-11-05 00:00:00.000000,11.08581696,14.50192096,19.59854499,3869,5062,6841,1063,1342,1798,3.04642901,3.84656207,5.15294754,0.92969988,1.11761314,1.48722132
20035,0,USKansasCowley,Kansas,Cowley,2021-01-05 23:02:47.061406,2020-11-06 00:00:00.000000,11.88846910,15.44393230,20.65108795,4150,5391,7208,1131,1432,1904,3.24183961,4.10457047,5.45696205,0.95194780,1.11257687,1.46744567
20035,0,USKansasCowley,Kansas,Cowley,2021-01-05 23:02:47.061406,2020-11-07 00:00:00.000000,12.72853241,16.41702256,21.71567689,4443,5730,7580,1207,1527,2013,3.45879497,4.37719162,5.76926474,0.99316562,1.09750619,1.40334174
20035,0,USKansasCowley,Kansas,Cowley,2021-01-05 23:02:47.061406,2020-11-08 00:00:00.000000,13.58650987,17.41766842,22.78661995,4742,6080,7954,1296,1626,2125,3.71495368,4.66080354,6.08850975,1.03604003,1.09312607,1.29060571
20035,0,USKansasCowley,Kansas,Cowley,2021-01-05 23:02:47.061406,2020-11-09 00:00:00.000000,14.46828693,18.41348500,23.85588130,5050,6427,8327,1390,1730,2238,3.98415463,4.95835943,6.41319682,1.04039446,1.12771936,1.21247154
20035,0,USKansasCowley,Kansas,Cowley,2021-01-05 23:02:47.061406,2020-11-10 00:00:00.000000,15.37956790,19.40105630,24.91828875,5368,6772,8698,1469,1832,2353,4.20917017,5.24915982,6.74147751,1.01212250,1.14360161,1.24475093
20035,0,USKansasCowley,Kansas,Cowley,2021-01-05 23:02:47.061406,2020-11-11 00:00:00.000000,16.31719325,20.39985066,25.96642936,5696,7121,9064,1550,1933,2468,4.44074957,5.53971324,7.07156370,0.96714563,1.15396254,1.32158627
20035,0,USKansasCowley,Kansas,Cowley,2021-01-05 23:02:47.061406,2020-11-12 00:00:00.000000,17.27729350,21.40426524,26.99253529,6031,7471,9422,1633,2037,2583,4.67824150,5.83814639,7.40149490,0.92759024,1.13664545,1.37867683
20035,0,USKansasCowley,Kansas,Cowley,2021-01-05 23:02:47.061406,2020-11-13 00:00:00.000000,18.25529345,22.40811440,27.98856950,6372,7822,9770,1717,2144,2698,4.92088832,6.14464607,7.72915524,0.88963134,1.11868921,1.42326855
20035,0,USKansasCowley,Kansas,Cowley,2021-01-05 23:02:47.061406,2020-11-14 00:00:00.000000,19.24691972,23.40468257,28.94635461,6718,8170,10104,1804,2257,2810,5.16798556,6.46703745,8.05229616,0.84224683,1.09652253,1.45263294
20035,0,USKansasCowley,Kansas,Cowley,2021-01-05 23:02:47.061406,2020-11-15 00:00:00.000000,20.17688885,24.30821815,29.85406757,7043,8485,10421,1891,2367,2921,5.41906700,6.78304035,8.36856463,0.78798478,1.06718693,1.46005360
20035,0,USKansasCowley,Kansas,Cowley,2021-01-05 23:02:47.061406,2020-11-16 00:00:00.000000,21.02561168,25.10642814,30.63677558,7339,8764,10694,1980,2478,3028,5.67206376,7.09963252,8.67553644,0.73328197,1.05243331,1.45844809
20035,0,USKansasCowley,Kansas,Cowley,2021-01-05 23:02:47.061406,2020-11-17 00:00:00.000000,21.79423305,25.75194385,31.35103027,7607,8989,10944,2068,2586,3131,5.92572120,7.41009594,8.97101905,0.68584871,1.04788167,1.45416849
20035,0,USKansasCowley,Kansas,Cowley,2021-01-05 23:02:47.061406,2020-11-18 00:00:00.000000,22.49039891,26.17612148,31.99023320,7850,9137,11167,2156,2682,3229,6.17861090,7.68367036,9.25250139,0.65078783,1.05392773,1.44504904
20035,0,USKansasCowley,Kansas,Cowley,2021-01-05 23:02:47.061406,2020-11-19 00:00:00.000000,22.80778033,26.59693026,32.54848672,7961,9284,11362,2244,2777,3322,6.42930224,7.95584701,9.51754039,0.62583056,1.07087723,1.43019008
20035,0,USKansasCowley,Kansas,Cowley,2021-01-05 23:02:47.061406,2020-11-20 00:00:00.000000,23.37303998,27.08974835,33.02076982,8159,9456,11526,2331,2869,3408,6.67799028,8.21929939,9.76380113,0.61177473,1.08919502,1.42119635
20035,0,USKansasCowley,Kansas,Cowley,2021-01-05 23:02:47.061406,2020-11-21 00:00:00.000000,23.61184667,27.37604077,33.40304502,8242,9556,11660,2416,2949,3486,6.92202034,8.45014161,9.98909807,0.60585207,1.10369547,1.40849081
20035,0,USKansasCowley,Kansas,Cowley,2021-01-05 23:02:47.061406,2020-11-22 00:00:00.000000,23.83654482,28.09638364,33.69233904,8320,9807,11761,2499,3024,3557,7.15979599,8.66278176,10.19143547,0.61245991,1.11515950,1.41004732
20035,0,USKansasCowley,Kansas,Cowley,2021-01-05 23:02:47.061406,2020-11-23 00:00:00.000000,24.02268516,28.58206092,33.88518001,8385,9977,11828,2579,3088,3619,7.38969739,8.84723834,10.36904496,0.62366572,1.14221506,1.40972428
20035,0,USKansasCowley,Kansas,Cowley,2021-01-05 23:02:47.061406,2020-11-24 00:00:00.000000,24.11659519,29.17337939,34.19430745,8418,10183,11936,2656,3158,3672,7.61000741,9.04893334,10.52028448,0.62958055,1.17559460,1.40614385
20035,0,USKansasCowley,Kansas,Cowley,2021-01-05 23:02:47.061406,2020-11-25 00:00:00.000000,24.17074655,29.71235606,34.43691871,8437,10371,12021,2729,3204,3715,7.81915070,9.18119594,10.64396590,0.63233033,1.18609931,1.40050148
20035,0,USKansasCowley,Kansas,Cowley,2021-01-05 23:02:47.061406,2020-11-26 00:00:00.000000,24.18290082,30.18957551,34.58633904,8441,10538,12073,2760,3245,3748,7.90731705,9.29610550,10.73920270,0.63326874,1.17911322,1.38882775
20035,0,USKansasCowley,Kansas,Cowley,2021-01-05 23:02:47.061406,2020-11-27 00:00:00.000000,24.15723188,30.59829170,34.64247094,8432,10681,12092,2785,3292,3771,7.97916398,9.43093024,10.80542517,0.63599108,1.16402604,1.37068350
20035,0,USKansasCowley,Kansas,Cowley,2021-01-05 23:02:47.061406,2020-11-28 00:00:00.000000,24.10791674,30.93546550,34.60626215,8415,10798,12080,2796,3309,3784,8.01245962,9.48168837,10.84238711,0.64501984,1.14618788,1.34527884
20035,0,USKansasCowley,Kansas,Cowley,2021-01-05 23:02:47.061406,2020-11-29 00:00:00.000000,24.07200844,31.17248711,34.46654555,8403,10881,12031,2804,3320,3801,8.03435581,9.51093971,10.88985545,0.66632024,1.12683074,1.35057457
20035,0,USKansasCowley,Kansas,Cowley,2021-01-05 23:02:47.061406,2020-11-30 00:00:00.000000,24.10412468,31.37711468,34.24174980,8414,10953,11953,2809,3328,3824,8.04902786,9.53599188,10.95454209,0.68706306,1.10519614,1.44465656
20035,0,USKansasCowley,Kansas,Cowley,2021-01-05 23:02:47.061406,2020-12-01 00:00:00.000000,24.20495232,31.42695331,33.95308073,8449,10970,11852,2815,3339,3831,8.06439335,9.56794307,10.97672276,0.72375977,1.08301534,1.57598665
20035,0,USKansasCowley,Kansas,Cowley,2021-01-05 23:02:47.061406,2020-12-02 00:00:00.000000,24.45341419,31.47734008,33.59155588,8536,10988,11726,2823,3346,3826,8.08709004,9.58549018,10.96161782,0.74168212,1.07188634,1.62178582
20035,0,USKansasCowley,Kansas,Cowley,2021-01-05 23:02:47.061406,2020-12-03 00:00:00.000000,24.68279558,31.26520063,33.14646191,8616,10914,11570,2833,3350,3793,8.11708071,9.59793668,10.86674686,0.75018303,1.06943409,1.63395625
20035,0,USKansasCowley,Kansas,Cowley,2021-01-05 23:02:47.061406,2020-12-04 00:00:00.000000,24.68411896,30.82189080,32.63003743,8616,10759,11390,2845,3349,3757,8.15053986,9.59383891,10.76542318,0.76222676,1.09844750,1.76028250
20035,0,USKansasCowley,Kansas,Cowley,2021-01-05 23:02:47.061406,2020-12-05 00:00:00.000000,24.65769475,30.30917849,32.03392771,8607,10580,11182,2856,3343,3726,8.18398453,9.57704539,10.67564017,0.78082454,1.30411035,1.77034853
20035,0,USKansasCowley,Kansas,Cowley,2021-01-05 23:02:47.061406,2020-12-06 00:00:00.000000,24.49245455,29.73312070,31.39314127,8549,10379,10958,2860,3330,3686,8.19528305,9.53950809,10.56149883,0.81450319,1.28753110,1.78019121
20035,0,USKansasCowley,Kansas,Cowley,2021-01-05 23:02:47.061406,2020-12-07 00:00:00.000000,24.36425960,29.10064437,30.89183889,8505,10158,10783,2830,3303,3646,8.10786891,9.46288543,10.44536735,0.85207370,1.27559866,1.76344052
20035,0,USKansasCowley,Kansas,Cowley,2021-01-05 23:02:47.061406,2020-12-08 00:00:00.000000,24.20028323,28.39095847,30.43048463,8447,9910,10622,2815,3266,3613,8.06564254,9.35758854,10.35227416,0.85589412,1.25359307,1.68967060
20035,0,USKansasCowley,Kansas,Cowley,2021-01-05 23:02:47.061406,2020-12-09 00:00:00.000000,23.96021886,27.62559348,30.01443331,8364,9643,10477,2791,3224,3572,7.99628973,9.23574459,10.23431644,0.86899848,1.24521736,1.60450878
20035,0,USKansasCowley,Kansas,Cowley,2021-01-05 23:02:47.061406,2020-12-10 00:00:00.000000,23.49323702,26.82283227,29.53840937,8201,9363,10311,2766,3191,3516,7.92493115,9.14132600,10.07271681,0.88745879,1.24728647,1.60463972
20035,0,USKansasCowley,Kansas,Cowley,2021-01-05 23:02:47.061406,2020-12-11 00:00:00.000000,22.97002076,26.15064935,28.98331063,8018,9128,10117,2741,3143,3454,7.85286782,9.00494546,9.89714663,0.89013556,1.25181931,1.60467228
20035,0,USKansasCowley,Kansas,Cowley,2021-01-05 23:02:47.061406,2020-12-12 00:00:00.000000,22.50456266,25.41608419,28.41646092,7855,8872,9919,2714,3074,3397,7.77573253,8.80855543,9.73351764,0.89581512,1.25856752,1.60473422
20035,0,USKansasCowley,Kansas,Cowley,2021-01-05 23:02:47.061406,2020-12-13 00:00:00.000000,22.00939402,24.83656533,27.80951824,7683,8669,9707,2684,3026,3310,7.69150754,8.67109937,9.48428266,0.90659133,1.26846042,1.60497061
20035,0,USKansasCowley,Kansas,Cowley,2021-01-05 23:02:47.061406,2020-12-14 00:00:00.000000,21.45044054,24.19979572,27.16693579,7487,8447,9483,2652,2965,3238,7.59893451,8.49617026,9.27692448,0.92161907,1.31613695,1.60589970
20035,0,USKansasCowley,Kansas,Cowley,2021-01-05 23:02:47.061406,2020-12-15 00:00:00.000000,20.67367683,23.45522372,26.49405409,7216,8187,9248,2617,2891,3161,7.49770482,8.28222727,9.05544415,0.93565593,1.35494217,1.60952954
20035,0,USKansasCowley,Kansas,Cowley,2021-01-05 23:02:47.061406,2020-12-16 00:00:00.000000,20.04440863,22.70507057,25.79564780,6997,7925,9004,2578,2827,3079,7.38682097,8.09919910,8.82154111,0.94538155,1.37342096,1.62336664
20035,0,USKansasCowley,Kansas,Cowley,2021-01-05 23:02:47.061406,2020-12-17 00:00:00.000000,19.19360100,21.94911110,25.07635096,6700,7661,8753,2536,2754,2994,7.26640317,7.89145576,8.57697620,0.95477622,1.38067918,1.67910824
20035,0,USKansasCowley,Kansas,Cowley,2021-01-05 23:02:47.061406,2020-12-18 00:00:00.000000,18.35835732,21.16523183,24.34060822,6408,7388,8496,2480,2675,2905,7.10565101,7.66524531,8.32352694,0.97955968,1.38449979,1.85637679
20035,0,USKansasCowley,Kansas,Cowley,2021-01-05 23:02:47.061406,2020-12-19 00:00:00.000000,17.54089984,20.37550184,23.59264139,6123,7112,8235,2394,2590,2814,6.86084673,7.42171043,8.06295103,1.04561094,1.39304801,2.01151127
20035,0,USKansasCowley,Kansas,Cowley,2021-01-05 23:02:47.061406,2020-12-20 00:00:00.000000,16.74310753,19.55321318,22.83642366,5844,6825,7971,2298,2517,2726,6.58552435,7.21283802,7.81019920,1.08411737,1.40541264,2.12544882
20035,0,USKansasCowley,Kansas,Cowley,2021-01-05 23:02:47.061406,2020-12-21 00:00:00.000000,15.96636330,18.78821224,22.08004294,5573,6558,7707,2203,2433,2637,6.31363681,6.97047309,7.55578418,1.11088367,1.52478791,2.14312323
20035,0,USKansasCowley,Kansas,Cowley,2021-01-05 23:02:47.061406,2020-12-22 00:00:00.000000,15.21306838,17.99318229,21.32254267,5310,6281,7443,2110,2351,2573,6.04642069,6.73549137,7.37190765,1.11672004,1.62966408,2.15262860
20035,0,USKansasCowley,Kansas,Cowley,2021-01-05 23:02:47.061406,2020-12-23 00:00:00.000000,14.49788316,17.26427537,20.56708278,5060,6026,7179,2040,2267,2479,5.84676795,6.49645134,7.10249461,1.15371593,1.66142245,2.15545211
20035,0,USKansasCowley,Kansas,Cowley,2021-01-05 23:02:47.061406,2020-12-24 00:00:00.000000,13.80084954,16.58634633,19.81647201,4817,5789,6917,1975,2192,2400,5.66044469,6.28066882,6.87718672,1.31248780,1.70761888,2.15361075
20035,0,USKansasCowley,Kansas,Cowley,2021-01-05 23:02:47.061406,2020-12-25 00:00:00.000000,13.12018743,15.89240541,19.08358730,4579,5547,6661,1910,2101,2322,5.47310530,6.01906063,6.65197506,1.47437273,1.89175875,2.16595404
20035,0,USKansasCowley,Kansas,Cowley,2021-01-05 23:02:47.061406,2020-12-26 00:00:00.000000,12.45774376,15.21161257,18.39085007,4348,5310,6419,1831,2011,2242,5.24631247,5.76153069,6.42464759,1.78016152,2.03263197,2.20242331
20035,0,USKansasCowley,Kansas,Cowley,2021-01-05 23:02:47.061406,2020-12-27 00:00:00.000000,11.81503092,14.53639455,17.67110208,4124,5074,6168,1741,1930,2162,4.98796061,5.53147445,6.19585286,1.92168248,2.09681597,2.33491762
20035,0,USKansasCowley,Kansas,Cowley,2021-01-05 23:02:47.061406,2020-12-28 00:00:00.000000,11.19671940,13.87082698,16.95149052,3908,4842,5917,1653,1854,2088,4.73634937,5.31387041,5.98234500,1.98516401,2.17990166,2.41650096
20035,0,USKansasCowley,Kansas,Cowley,2021-01-05 23:02:47.061406,2020-12-29 00:00:00.000000,10.60996203,13.20641041,16.24629836,3703,4610,5671,1567,1779,2014,4.49154332,5.09817001,5.77183465,2.02349878,2.22820711,2.54677096
20035,0,USKansasCowley,Kansas,Cowley,2021-01-05 23:02:47.061406,2020-12-30 00:00:00.000000,10.04787423,12.56517274,15.55678676,3507,4386,5430,1485,1699,1941,4.25417298,4.86751507,5.56222094,2.04271231,2.24780718,2.60370353
20035,0,USKansasCowley,Kansas,Cowley,2021-01-05 23:02:47.061406,2020-12-31 00:00:00.000000,9.51014832,11.94142186,14.88418034,3319,4168,5195,1404,1624,1869,4.02472240,4.65463651,5.35431006,2.04171829,2.22128812,2.60286135
20035,0,USKansasCowley,Kansas,Cowley,2021-01-05 23:02:47.061406,2021-01-01 00:00:00.000000,8.99637663,11.32544974,14.22947935,3140,3953,4967,1327,1552,1797,3.80354821,4.44834198,5.14880599,2.01993152,2.20243988,2.57203310
20035,0,USKansasCowley,Kansas,Cowley,2021-01-05 23:02:47.061406,2021-01-02 00:00:00.000000,8.50606797,10.75100572,13.59347936,2969,3752,4745,1253,1479,1726,3.59089633,4.23746212,4.94631960,1.95538638,2.21283736,2.54580723
20035,0,USKansasCowley,Kansas,Cowley,2021-01-05 23:02:47.061406,2021-01-03 00:00:00.000000,8.03866245,10.20127342,12.97679026,2806,3561,4529,1182,1410,1657,3.38691677,4.03990686,4.74737686,1.90234460,2.24962349,2.55517240
20035,0,USKansasCowley,Kansas,Cowley,2021-01-05 23:02:47.061406,2021-01-04 00:00:00.000000,7.59354461,9.67473011,12.37985441,2650,3377,4321,1114,1343,1589,3.19167676,3.84839093,4.55242615,1.88113616,2.25808375,2.56955052
20035,0,USKansasCowley,Kansas,Cowley,2021-01-05 23:02:47.061406,2021-01-05 00:00:00.000000,7.17005524,9.17096971,11.80296389,2502,3201,4120,1049,1278,1522,3.00517254,3.66148673,4.36184514,1.87407077,2.26182583,2.57670350
20035,0,USKansasCowley,Kansas,Cowley,2021-01-05 23:02:47.061406,2021-01-06 00:00:00.000000,6.76750167,8.70294078,11.24627679,2362,3038,3925,990,1213,1457,2.83834331,3.47593520,4.17594703,1.87180424,2.26349427,2.58020200
20035,0,USKansasCowley,Kansas,Cowley,2021-01-05 23:02:47.061406,2021-01-07 00:00:00.000000,6.38516695,8.26306153,10.70983244,2228,2884,3738,936,1150,1394,2.68405262,3.29713464,3.99498642,1.87108501,2.26428207,2.58189894
20035,0,USKansasCowley,Kansas,Cowley,2021-01-05 23:02:47.061406,2021-01-08 00:00:00.000000,6.02231780,7.82979027,10.19356568,2102,2733,3558,885,1090,1333,2.53691455,3.12515290,3.81916483,1.87085720,2.26467579,2.58271876
20035,0,USKansasCowley,Kansas,Cowley,2021-01-05 23:02:47.061406,2021-01-09 00:00:00.000000,5.67821157,7.40008696,9.69732007,1982,2583,3385,836,1033,1273,2.39674357,2.96001049,3.64863581,1.87078494,2.26488093,2.58311409
20035,0,USKansasCowley,Kansas,Cowley,2021-01-05 23:02:47.061406,2021-01-10 00:00:00.000000,5.35210226,6.98803467,9.22086006,1868,2439,3218,790,978,1216,2.26333952,2.80377890,3.48350977,1.87076195,2.26499073,2.58330455
20035,0,USKansasCowley,Kansas,Cowley,2021-01-05 23:02:47.061406,2021-01-11 00:00:00.000000,5.04324561,6.59674849,8.76388219,1760,2302,3059,745,926,1160,2.13649095,2.65522107,3.32385848,1.87075461,2.26505047,2.58339628
20035,0,USKansasCowley,Kansas,Cowley,2021-01-05 23:02:47.061406,2021-01-12 00:00:00.000000,4.75090357,6.23662571,8.32602533,1658,2177,2906,703,878,1106,2.01597810,2.51613994,3.16971930,1.87075226,2.26508327,2.58344045
20035,0,USKansasCowley,Kansas,Cowley,2021-01-05 23:02:47.061406,2021-01-13 00:00:00.000000,4.46492908,5.89440573,7.90687996,1558,2057,2760,663,829,1054,1.90157545,2.37658581,3.02109905,1.87075150,2.26510138,2.58346172
20035,0,USKansasCowley,Kansas,Cowley,2021-01-05 23:02:47.061406,2021-01-14 00:00:00.000000,4.18554959,5.56138718,7.50599660,1461,1941,2620,625,783,1004,1.79305394,2.24502736,2.87797767,1.87075125,2.26511141,2.58347197
20035,0,USKansasCowley,Kansas,Cowley,2021-01-05 23:02:47.061406,2021-01-15 00:00:00.000000,3.92241172,5.24661208,7.12289339,1369,1831,2486,588,740,956,1.68690948,2.11996535,2.74031158,1.87075117,2.26511697,2.58347690
20035,0,USKansasCowley,Kansas,Cowley,2021-01-05 23:02:47.061406,2021-01-16 00:00:00.000000,3.67472531,4.95228232,6.75706292,1282,1728,2358,554,697,910,1.58981305,1.99951241,2.60803676,1.87075115,2.26512006,2.58347928
20035,0,USKansasCowley,Kansas,Cowley,2021-01-05 23:02:47.061406,2021-01-17 00:00:00.000000,3.44171873,4.66916434,6.40797824,1201,1629,2236,522,658,866,1.49788251,1.88501941,2.48107161,1.87075114,2.26512177,2.58348042
