FIPS,HR_UID,nameid,province,region,analysisTime,dates,pointprevalence_025,pointprevalence_50,pointprevalence_975,pointinfections_025,pointinfections_50,pointinfections_975,pointinfectious_025,pointinfectious_50,pointinfectious_975,pointinfectiousprevalence_05,pointinfectiousprevalence_50,pointinfectiousprevalence_95,infectrate_025,infectrate_50,infectrate_975
20195,0,USKansasTrego,Kansas,Trego,2021-01-05 22:37:19.614710,2020-03-09 00:00:00.000000,0.01074153,0.05126451,0.13010688,0,1,3,0,0,1,0.00549201,0.02577774,0.06785164,0.42418871,0.53006798,0.71243316
20195,0,USKansasTrego,Kansas,Trego,2021-01-05 22:37:19.614710,2020-03-10 00:00:00.000000,0.01132386,0.05646871,0.14315345,0,1,4,0,0,1,0.00553229,0.02432127,0.06423336,0.42418870,0.53003339,0.71243308
20195,0,USKansasTrego,Kansas,Trego,2021-01-05 22:37:19.614710,2020-03-11 00:00:00.000000,0.01196323,0.06169240,0.15616522,0,1,4,0,0,1,0.00557482,0.02480637,0.06457576,0.42418868,0.52997575,0.71243292
20195,0,USKansasTrego,Kansas,Trego,2021-01-05 22:37:19.614710,2020-03-12 00:00:00.000000,0.01266600,0.06711019,0.16940375,0,1,4,0,0,1,0.00572198,0.02564688,0.06745797,0.42418860,0.52987980,0.71243257
20195,0,USKansasTrego,Kansas,Trego,2021-01-05 22:37:19.614710,2020-03-13 00:00:00.000000,0.01414162,0.07114934,0.18305724,0,1,5,0,0,2,0.00594620,0.02798032,0.07204867,0.42418836,0.52972031,0.71243184
20195,0,USKansasTrego,Kansas,Trego,2021-01-05 22:37:19.614710,2020-03-14 00:00:00.000000,0.01595249,0.07619121,0.19726942,0,2,5,0,0,2,0.00623111,0.02975349,0.07743690,0.42418756,0.52945580,0.71243029
20195,0,USKansasTrego,Kansas,Trego,2021-01-05 22:37:19.614710,2020-03-15 00:00:00.000000,0.01705437,0.08306327,0.20872303,0,2,5,0,0,2,0.00697798,0.03221386,0.08317642,0.42415490,0.52901882,0.71242697
20195,0,USKansasTrego,Kansas,Trego,2021-01-05 22:37:19.614710,2020-03-16 00:00:00.000000,0.01824844,0.09020283,0.22003928,0,2,6,0,0,2,0.00752457,0.03479721,0.08906683,0.42200591,0.52800638,0.71241959
20195,0,USKansasTrego,Kansas,Trego,2021-01-05 22:37:19.614710,2020-03-17 00:00:00.000000,0.01953484,0.09698441,0.23354117,0,2,6,0,1,2,0.00811124,0.03765808,0.09503472,0.41679973,0.52061470,0.71240031
20195,0,USKansasTrego,Kansas,Trego,2021-01-05 22:37:19.614710,2020-03-18 00:00:00.000000,0.02091091,0.10361719,0.24892668,0,2,6,0,1,2,0.00866680,0.04101644,0.10436500,0.40534861,0.52147682,0.71232026
20195,0,USKansasTrego,Kansas,Trego,2021-01-05 22:37:19.614710,2020-03-19 00:00:00.000000,0.02236951,0.11164450,0.26340933,0,3,7,0,1,3,0.00926777,0.04461514,0.11397913,0.38494547,0.51417587,0.71040563
20195,0,USKansasTrego,Kansas,Trego,2021-01-05 22:37:19.614710,2020-03-20 00:00:00.000000,0.02389756,0.11905343,0.27834177,0,3,7,0,1,3,0.00991236,0.04770140,0.12324467,0.37321471,0.49202663,0.68877988
20195,0,USKansasTrego,Kansas,Trego,2021-01-05 22:37:19.614710,2020-03-21 00:00:00.000000,0.02547582,0.12653038,0.29407106,0,3,8,0,1,3,0.01059709,0.05053541,0.13232272,0.34911416,0.47129830,0.66453249
20195,0,USKansasTrego,Kansas,Trego,2021-01-05 22:37:19.614710,2020-03-22 00:00:00.000000,0.02708181,0.13386366,0.31068354,0,3,8,0,1,3,0.01131626,0.05371589,0.14130626,0.32639079,0.45011439,0.68294525
20195,0,USKansasTrego,Kansas,Trego,2021-01-05 22:37:19.614710,2020-03-23 00:00:00.000000,0.02869611,0.13822670,0.32807249,0,3,9,0,1,4,0.01206218,0.05647718,0.15032015,0.32159752,0.43014432,0.67736389
20195,0,USKansasTrego,Kansas,Trego,2021-01-05 22:37:19.614710,2020-03-24 00:00:00.000000,0.03030895,0.14099802,0.34603102,0,3,9,0,1,4,0.01282644,0.06014758,0.15844308,0.31923301,0.41097139,0.67456254
20195,0,USKansasTrego,Kansas,Trego,2021-01-05 22:37:19.614710,2020-03-25 00:00:00.000000,0.03166506,0.14686584,0.36340564,0,4,10,0,1,4,0.01357922,0.06382407,0.16112492,0.31595379,0.39957861,0.62878198
20195,0,USKansasTrego,Kansas,Trego,2021-01-05 22:37:19.614710,2020-03-26 00:00:00.000000,0.03301825,0.15054803,0.36686321,0,4,10,0,1,4,0.01412844,0.06697682,0.16351456,0.28981768,0.39041277,0.62520120
20195,0,USKansasTrego,Kansas,Trego,2021-01-05 22:37:19.614710,2020-03-27 00:00:00.000000,0.03439146,0.15100590,0.36960320,0,4,10,0,1,4,0.01469656,0.06814780,0.16563653,0.26942689,0.37688399,0.61917406
20195,0,USKansasTrego,Kansas,Trego,2021-01-05 22:37:19.614710,2020-03-28 00:00:00.000000,0.03579170,0.15100756,0.37155074,1,4,10,0,1,4,0.01527581,0.06856638,0.16855178,0.24748005,0.36342746,0.61163143
20195,0,USKansasTrego,Kansas,Trego,2021-01-05 22:37:19.614710,2020-03-29 00:00:00.000000,0.03721632,0.14912078,0.37246740,1,4,10,0,1,4,0.01585920,0.06855418,0.17087397,0.22310910,0.35818102,0.57929944
20195,0,USKansasTrego,Kansas,Trego,2021-01-05 22:37:19.614710,2020-03-30 00:00:00.000000,0.03863188,0.14826087,0.37220164,1,4,10,0,1,4,0.01644807,0.06821345,0.17319331,0.21177520,0.34954219,0.53819950
20195,0,USKansasTrego,Kansas,Trego,2021-01-05 22:37:19.614710,2020-03-31 00:00:00.000000,0.03969038,0.15036559,0.37071832,1,4,10,0,1,4,0.01681757,0.06953629,0.17524549,0.20922512,0.33820442,0.50005671
20195,0,USKansasTrego,Kansas,Trego,2021-01-05 22:37:19.614710,2020-04-01 00:00:00.000000,0.04034248,0.15299858,0.36776896,1,4,10,0,2,4,0.01711034,0.07187164,0.17661008,0.19909300,0.32428463,0.48247549
20195,0,USKansasTrego,Kansas,Trego,2021-01-05 22:37:19.614710,2020-04-02 00:00:00.000000,0.04098899,0.15542065,0.37947004,1,4,10,0,2,4,0.01740279,0.07428467,0.17752620,0.19245949,0.31850292,0.47507859
20195,0,USKansasTrego,Kansas,Trego,2021-01-05 22:37:19.614710,2020-04-03 00:00:00.000000,0.04161228,0.15880708,0.38835691,1,4,10,0,2,5,0.01769413,0.07682103,0.18412459,0.19105620,0.31625658,0.46238321
20195,0,USKansasTrego,Kansas,Trego,2021-01-05 22:37:19.614710,2020-04-04 00:00:00.000000,0.04218687,0.16237625,0.38985743,1,4,10,0,2,5,0.01798161,0.07997507,0.19232770,0.18544554,0.31294034,0.45664411
20195,0,USKansasTrego,Kansas,Trego,2021-01-05 22:37:19.614710,2020-04-05 00:00:00.000000,0.04271365,0.16775303,0.39129701,1,4,10,0,2,5,0.01825992,0.08294342,0.20162199,0.18405545,0.30372220,0.44012000
20195,0,USKansasTrego,Kansas,Trego,2021-01-05 22:37:19.614710,2020-04-06 00:00:00.000000,0.04306367,0.17248515,0.39388611,1,4,11,0,2,5,0.01852543,0.08546900,0.21010624,0.18329073,0.28841184,0.44127539
20195,0,USKansasTrego,Kansas,Trego,2021-01-05 22:37:19.614710,2020-04-07 00:00:00.000000,0.04342432,0.17854899,0.40169337,1,5,11,0,2,6,0.01877885,0.08635811,0.21785336,0.18232037,0.28458303,0.44594951
20195,0,USKansasTrego,Kansas,Trego,2021-01-05 22:37:19.614710,2020-04-08 00:00:00.000000,0.04352552,0.18007457,0.41058893,1,5,11,0,2,6,0.01902302,0.08729211,0.21958907,0.18157101,0.27043907,0.44628664
20195,0,USKansasTrego,Kansas,Trego,2021-01-05 22:37:19.614710,2020-04-09 00:00:00.000000,0.04343075,0.17531612,0.41926420,1,4,11,0,2,6,0.01926073,0.09081801,0.22060969,0.18070737,0.26217047,0.42562878
20195,0,USKansasTrego,Kansas,Trego,2021-01-05 22:37:19.614710,2020-04-10 00:00:00.000000,0.04373421,0.17123843,0.42709654,1,4,11,0,2,6,0.01950833,0.09092528,0.22188493,0.17744121,0.25662563,0.40369432
20195,0,USKansasTrego,Kansas,Trego,2021-01-05 22:37:19.614710,2020-04-11 00:00:00.000000,0.04359594,0.17006364,0.43373536,1,4,12,0,2,6,0.01975557,0.09103847,0.22555747,0.16914055,0.25129271,0.38475976
20195,0,USKansasTrego,Kansas,Trego,2021-01-05 22:37:19.614710,2020-04-12 00:00:00.000000,0.04288549,0.16959264,0.43213162,1,4,12,0,2,6,0.01997329,0.08960458,0.22908546,0.16326073,0.24765637,0.38469073
20195,0,USKansasTrego,Kansas,Trego,2021-01-05 22:37:19.614710,2020-04-13 00:00:00.000000,0.04263222,0.16902208,0.43119388,1,4,12,0,2,6,0.02015585,0.08894267,0.23261630,0.15802955,0.24218957,0.38717649
20195,0,USKansasTrego,Kansas,Trego,2021-01-05 22:37:19.614710,2020-04-14 00:00:00.000000,0.04235186,0.16711325,0.43622819,1,4,12,0,2,6,0.02033333,0.08819236,0.23193351,0.15411483,0.24229839,0.39959809
20195,0,USKansasTrego,Kansas,Trego,2021-01-05 22:37:19.614710,2020-04-15 00:00:00.000000,0.04172761,0.16539407,0.44139279,1,4,12,0,2,6,0.02052472,0.08697030,0.22893728,0.15407004,0.23958355,0.38776741
20195,0,USKansasTrego,Kansas,Trego,2021-01-05 22:37:19.614710,2020-04-16 00:00:00.000000,0.04078742,0.16633660,0.44663724,1,4,12,0,2,6,0.02071739,0.08522228,0.22585540,0.15398913,0.23753908,0.36805942
20195,0,USKansasTrego,Kansas,Trego,2021-01-05 22:37:19.614710,2020-04-17 00:00:00.000000,0.03965554,0.16636415,0.45190430,1,4,12,0,2,6,0.02072950,0.08422040,0.22564858,0.15091772,0.23733390,0.36391535
20195,0,USKansasTrego,Kansas,Trego,2021-01-05 22:37:19.614710,2020-04-18 00:00:00.000000,0.03838781,0.16560507,0.45717931,1,4,12,0,2,6,0.02055298,0.08308187,0.22767436,0.14912124,0.23285778,0.36358429
20195,0,USKansasTrego,Kansas,Trego,2021-01-05 22:37:19.614710,2020-04-19 00:00:00.000000,0.03704419,0.16639259,0.46246660,1,4,12,0,2,6,0.02032706,0.08179626,0.22963326,0.14785764,0.22508912,0.36073754
20195,0,USKansasTrego,Kansas,Trego,2021-01-05 22:37:19.614710,2020-04-20 00:00:00.000000,0.03567048,0.16606496,0.46774236,0,4,13,0,2,6,0.01989444,0.08069907,0.23153841,0.14571848,0.21648641,0.35872321
20195,0,USKansasTrego,Kansas,Trego,2021-01-05 22:37:19.614710,2020-04-21 00:00:00.000000,0.03429738,0.16176295,0.46481975,0,4,13,0,2,6,0.01926538,0.08062953,0.23311871,0.14359483,0.21346547,0.35157915
20195,0,USKansasTrego,Kansas,Trego,2021-01-05 22:37:19.614710,2020-04-22 00:00:00.000000,0.03294397,0.15793806,0.45458167,0,4,12,0,2,6,0.01860765,0.08014144,0.23189623,0.14214987,0.20844538,0.35070730
20195,0,USKansasTrego,Kansas,Trego,2021-01-05 22:37:19.614710,2020-04-23 00:00:00.000000,0.03183611,0.15477070,0.45023183,0,4,12,0,2,6,0.01793652,0.07769833,0.22740124,0.14230677,0.20178004,0.34673295
20195,0,USKansasTrego,Kansas,Trego,2021-01-05 22:37:19.614710,2020-04-24 00:00:00.000000,0.03096594,0.15296487,0.46155667,0,4,12,0,2,6,0.01726323,0.07673157,0.22599297,0.14114478,0.19143927,0.34054752
20195,0,USKansasTrego,Kansas,Trego,2021-01-05 22:37:19.614710,2020-04-25 00:00:00.000000,0.03001709,0.14912818,0.46855391,0,4,13,0,2,6,0.01659389,0.07572916,0.22168793,0.13307650,0.18865023,0.32666005
20195,0,USKansasTrego,Kansas,Trego,2021-01-05 22:37:19.614710,2020-04-26 00:00:00.000000,0.02902224,0.14563009,0.47093797,0,4,13,0,2,6,0.01592650,0.07435611,0.21747714,0.13062126,0.18851303,0.31618909
20195,0,USKansasTrego,Kansas,Trego,2021-01-05 22:37:19.614710,2020-04-27 00:00:00.000000,0.02802688,0.14155433,0.47135569,0,3,13,0,2,6,0.01526147,0.07389407,0.21967570,0.12982538,0.18686673,0.30724022
20195,0,USKansasTrego,Kansas,Trego,2021-01-05 22:37:19.614710,2020-04-28 00:00:00.000000,0.02704949,0.13873864,0.47055383,0,3,13,0,2,6,0.01478305,0.07248545,0.22195165,0.12852226,0.18399950,0.30880169
20195,0,USKansasTrego,Kansas,Trego,2021-01-05 22:37:19.614710,2020-04-29 00:00:00.000000,0.02609670,0.13556420,0.46130132,0,3,12,0,1,6,0.01430607,0.07084511,0.22331957,0.12524449,0.18554378,0.30660707
20195,0,USKansasTrego,Kansas,Trego,2021-01-05 22:37:19.614710,2020-04-30 00:00:00.000000,0.02517125,0.13223072,0.45182732,0,3,12,0,1,6,0.01382941,0.06933174,0.22405941,0.12223738,0.18163892,0.30794223
20195,0,USKansasTrego,Kansas,Trego,2021-01-05 22:37:19.614710,2020-05-01 00:00:00.000000,0.02427027,0.12889645,0.44236704,0,3,12,0,1,6,0.01335808,0.06790595,0.22435464,0.11661434,0.17976832,0.30860614
20195,0,USKansasTrego,Kansas,Trego,2021-01-05 22:37:19.614710,2020-05-02 00:00:00.000000,0.02335779,0.12513590,0.43351392,0,3,12,0,1,6,0.01289472,0.06671070,0.22206998,0.11562540,0.17958668,0.30886228
20195,0,USKansasTrego,Kansas,Trego,2021-01-05 22:37:19.614710,2020-05-03 00:00:00.000000,0.02244313,0.12106014,0.42623404,0,3,11,0,1,6,0.01243445,0.06563671,0.22136394,0.11353715,0.17884503,0.30864464
20195,0,USKansasTrego,Kansas,Trego,2021-01-05 22:37:19.614710,2020-05-04 00:00:00.000000,0.06240199,0.16174954,0.47264502,1,4,13,0,1,6,0.01197562,0.06407988,0.22144519,0.11050677,0.17677634,0.30655161
20195,0,USKansasTrego,Kansas,Trego,2021-01-05 22:37:19.614710,2020-05-05 00:00:00.000000,0.08995300,0.20422834,0.53325894,2,5,14,0,1,6,0.01889559,0.06898160,0.22747694,0.10820731,0.17519814,0.30447325
20195,0,USKansasTrego,Kansas,Trego,2021-01-05 22:37:19.614710,2020-05-06 00:00:00.000000,0.12015852,0.24865872,0.59389286,3,6,16,0,2,6,0.03136164,0.07854110,0.23460601,0.10717126,0.17321941,0.30460725
20195,0,USKansasTrego,Kansas,Trego,2021-01-05 22:37:19.614710,2020-05-07 00:00:00.000000,0.14753236,0.29432784,0.65364380,4,8,18,1,2,7,0.03841568,0.09129048,0.25059459,0.10662944,0.16912162,0.30411133
20195,0,USKansasTrego,Kansas,Trego,2021-01-05 22:37:19.614710,2020-05-08 00:00:00.000000,0.16260945,0.33670214,0.71532512,4,9,20,1,3,7,0.04853550,0.10796917,0.26576580,0.10648321,0.16681950,0.29599791
20195,0,USKansasTrego,Kansas,Trego,2021-01-05 22:37:19.614710,2020-05-09 00:00:00.000000,0.17506952,0.37704122,0.81135903,4,10,22,1,3,8,0.06059210,0.12723226,0.30908194,0.10654719,0.16239895,0.28418926
20195,0,USKansasTrego,Kansas,Trego,2021-01-05 22:37:19.614710,2020-05-10 00:00:00.000000,0.18532874,0.40956012,0.89706818,5,11,25,1,4,10,0.06574830,0.14581120,0.36030677,0.10605807,0.16196184,0.27154098
20195,0,USKansasTrego,Kansas,Trego,2021-01-05 22:37:19.614710,2020-05-11 00:00:00.000000,0.22439420,0.44886060,0.96061596,6,12,26,2,4,11,0.07502400,0.16678768,0.41272157,0.10724425,0.15853764,0.26829071
20195,0,USKansasTrego,Kansas,Trego,2021-01-05 22:37:19.614710,2020-05-12 00:00:00.000000,0.25095380,0.50288347,0.97815380,7,14,27,2,5,12,0.08344243,0.18467393,0.45193221,0.10805988,0.15919211,0.26473587
20195,0,USKansasTrego,Kansas,Trego,2021-01-05 22:37:19.614710,2020-05-13 00:00:00.000000,0.27070565,0.54952585,1.00013001,7,15,28,2,5,13,0.09372312,0.20908843,0.48191299,0.10893568,0.15814685,0.25583907
20195,0,USKansasTrego,Kansas,Trego,2021-01-05 22:37:19.614710,2020-05-14 00:00:00.000000,0.28562131,0.56021622,1.04094324,8,15,29,2,6,14,0.10628176,0.22368851,0.50552982,0.10416835,0.15720010,0.25078325
20195,0,USKansasTrego,Kansas,Trego,2021-01-05 22:37:19.614710,2020-05-15 00:00:00.000000,0.30002065,0.57348085,1.08196284,8,16,30,3,6,14,0.11682063,0.24561742,0.52476958,0.09852018,0.15503136,0.24009893
20195,0,USKansasTrego,Kansas,Trego,2021-01-05 22:37:19.614710,2020-05-16 00:00:00.000000,0.31378434,0.59743494,1.12039282,8,16,31,3,7,15,0.12386159,0.25627710,0.54126183,0.09767336,0.15304943,0.22892068
20195,0,USKansasTrego,Kansas,Trego,2021-01-05 22:37:19.614710,2020-05-17 00:00:00.000000,0.32703658,0.62498299,1.16278477,9,17,32,3,7,15,0.12791525,0.26115191,0.55690915,0.09754026,0.14959122,0.22913499
20195,0,USKansasTrego,Kansas,Trego,2021-01-05 22:37:19.614710,2020-05-18 00:00:00.000000,0.32391206,0.59450338,1.14696488,9,16,32,3,7,16,0.13158618,0.26542179,0.58511728,0.09757600,0.14724922,0.22358289
20195,0,USKansasTrego,Kansas,Trego,2021-01-05 22:37:19.614710,2020-05-19 00:00:00.000000,0.32046183,0.56774719,1.13960075,8,15,31,3,7,16,0.13465267,0.26332674,0.60439809,0.09773946,0.14520624,0.22109312
20195,0,USKansasTrego,Kansas,Trego,2021-01-05 22:37:19.614710,2020-05-20 00:00:00.000000,0.31638528,0.53569679,1.13055623,8,15,31,3,7,17,0.13708166,0.25940178,0.61602738,0.09289802,0.14458027,0.22061775
20195,0,USKansasTrego,Kansas,Trego,2021-01-05 22:37:19.614710,2020-05-21 00:00:00.000000,0.31162687,0.50820958,1.10364923,8,14,30,3,7,17,0.13822470,0.25459200,0.62217712,0.09017722,0.14557917,0.21929353
20195,0,USKansasTrego,Kansas,Trego,2021-01-05 22:37:19.614710,2020-05-22 00:00:00.000000,0.30251638,0.48802727,1.10198398,8,13,30,3,7,17,0.13723001,0.25087736,0.62430943,0.09266706,0.14574170,0.21843146
20195,0,USKansasTrego,Kansas,Trego,2021-01-05 22:37:19.614710,2020-05-23 00:00:00.000000,0.28913982,0.46188234,1.09019855,8,12,30,3,6,17,0.13103515,0.24527790,0.62339371,0.09158804,0.14657441,0.21573642
20195,0,USKansasTrego,Kansas,Trego,2021-01-05 22:37:19.614710,2020-05-24 00:00:00.000000,0.27609665,0.43733627,1.06251878,7,12,29,3,6,17,0.12488657,0.23844596,0.62005416,0.09113466,0.14811549,0.21253177
20195,0,USKansasTrego,Kansas,Trego,2021-01-05 22:37:19.614710,2020-05-25 00:00:00.000000,0.26638340,0.41736324,1.02731056,7,11,28,3,6,17,0.11893720,0.22548294,0.61472962,0.09111042,0.14439861,0.21398835
20195,0,USKansasTrego,Kansas,Trego,2021-01-05 22:37:19.614710,2020-05-26 00:00:00.000000,0.25809868,0.39750750,0.99252553,7,11,27,3,5,16,0.11530308,0.21075173,0.60452612,0.08628986,0.14504840,0.21538990
20195,0,USKansasTrego,Kansas,Trego,2021-01-05 22:37:19.614710,2020-05-27 00:00:00.000000,0.24670620,0.37809543,0.96507464,6,10,27,3,5,16,0.11224988,0.20014522,0.58038540,0.08283704,0.14226943,0.21689931
20195,0,USKansasTrego,Kansas,Trego,2021-01-05 22:37:19.614710,2020-05-28 00:00:00.000000,0.23608976,0.35938114,0.94509597,6,10,26,3,5,15,0.10924796,0.19062330,0.56580447,0.08459630,0.14268398,0.21906807
20195,0,USKansasTrego,Kansas,Trego,2021-01-05 22:37:19.614710,2020-05-29 00:00:00.000000,0.22613380,0.34158263,0.92188505,6,9,25,2,5,15,0.10630091,0.18290028,0.55984121,0.08695148,0.14382157,0.22246330
20195,0,USKansasTrego,Kansas,Trego,2021-01-05 22:37:19.614710,2020-05-30 00:00:00.000000,0.21103620,0.32241245,0.89580286,5,9,25,2,4,15,0.10340182,0.17423679,0.54880999,0.08960636,0.14374965,0.21231443
20195,0,USKansasTrego,Kansas,Trego,2021-01-05 22:37:19.614710,2020-05-31 00:00:00.000000,0.19819382,0.30598161,0.87920703,5,8,24,2,4,14,0.10053542,0.16649322,0.53490624,0.08810322,0.14169912,0.20940843
20195,0,USKansasTrego,Kansas,Trego,2021-01-05 22:37:19.614710,2020-06-01 00:00:00.000000,0.18872616,0.28624596,0.85828223,5,8,24,2,4,14,0.09771075,0.15889559,0.52584540,0.09091283,0.14173731,0.20902190
20195,0,USKansasTrego,Kansas,Trego,2021-01-05 22:37:19.614710,2020-06-02 00:00:00.000000,0.17492805,0.27271530,0.83324352,4,7,23,2,4,14,0.09492739,0.15230637,0.51566042,0.09041639,0.14074348,0.20894452
20195,0,USKansasTrego,Kansas,Trego,2021-01-05 22:37:19.614710,2020-06-03 00:00:00.000000,0.16632508,0.25876619,0.80552730,4,7,22,2,4,14,0.09217485,0.14429677,0.50440079,0.09016739,0.13884570,0.21045136
20195,0,USKansasTrego,Kansas,Trego,2021-01-05 22:37:19.614710,2020-06-04 00:00:00.000000,0.16116590,0.24529553,0.77676263,4,6,21,2,3,13,0.08651731,0.13736584,0.49230008,0.09348421,0.14051600,0.21098128
20195,0,USKansasTrego,Kansas,Trego,2021-01-05 22:37:19.614710,2020-06-05 00:00:00.000000,0.15625061,0.23408568,0.74767311,4,6,20,2,3,13,0.07995925,0.13085731,0.47959495,0.09072607,0.14748853,0.21124306
20195,0,USKansasTrego,Kansas,Trego,2021-01-05 22:37:19.614710,2020-06-06 00:00:00.000000,0.14902372,0.22350252,0.71851357,4,6,20,2,3,13,0.07805880,0.12719642,0.46637443,0.08980751,0.14843992,0.21287973
20195,0,USKansasTrego,Kansas,Trego,2021-01-05 22:37:19.614710,2020-06-07 00:00:00.000000,0.13720149,0.21469452,0.68977655,3,6,19,2,3,12,0.07214356,0.11998351,0.45265329,0.08982450,0.14322453,0.21607581
20195,0,USKansasTrego,Kansas,Trego,2021-01-05 22:37:19.614710,2020-06-08 00:00:00.000000,0.12623946,0.20930567,0.67353657,3,5,18,1,3,12,0.06664572,0.11366101,0.43859678,0.08986461,0.14258449,0.21974957
20195,0,USKansasTrego,Kansas,Trego,2021-01-05 22:37:19.614710,2020-06-09 00:00:00.000000,0.11611624,0.20083140,0.65204664,3,5,18,1,3,11,0.06307480,0.10874514,0.42442028,0.08991835,0.14250135,0.23056824
20195,0,USKansasTrego,Kansas,Trego,2021-01-05 22:37:19.614710,2020-06-10 00:00:00.000000,0.10679841,0.19410981,0.62887876,2,5,17,1,2,11,0.05820463,0.10372946,0.41029581,0.08999936,0.14130912,0.23471129
20195,0,USKansasTrego,Kansas,Trego,2021-01-05 22:37:19.614710,2020-06-11 00:00:00.000000,0.09824620,0.19015180,0.60639581,2,5,16,1,2,11,0.05358773,0.09877752,0.39582557,0.09014332,0.14447095,0.25152856
20195,0,USKansasTrego,Kansas,Trego,2021-01-05 22:37:19.614710,2020-06-12 00:00:00.000000,0.09041265,0.18476904,0.58439416,2,5,16,1,2,10,0.04932200,0.09474178,0.38272459,0.09036505,0.14449511,0.25531641
20195,0,USKansasTrego,Kansas,Trego,2021-01-05 22:37:19.614710,2020-06-13 00:00:00.000000,0.08324234,0.17993566,0.56246382,2,5,15,1,2,10,0.04539344,0.09055971,0.36947400,0.09059087,0.14524521,0.25830362
20195,0,USKansasTrego,Kansas,Trego,2021-01-05 22:37:19.614710,2020-06-14 00:00:00.000000,0.07667255,0.17468565,0.54024611,2,4,15,1,2,9,0.04178363,0.08722967,0.35639365,0.08981073,0.14638801,0.26462763
20195,0,USKansasTrego,Kansas,Trego,2021-01-05 22:37:19.614710,2020-06-15 00:00:00.000000,0.07063336,0.16712707,0.51795466,1,4,14,1,2,9,0.03847027,0.08486758,0.34336216,0.08931986,0.14612169,0.27234992
20195,0,USKansasTrego,Kansas,Trego,2021-01-05 22:37:19.614710,2020-06-16 00:00:00.000000,0.06503996,0.16047340,0.49607905,1,4,13,0,2,9,0.03542748,0.08175333,0.33034484,0.08920454,0.14776984,0.27880429
20195,0,USKansasTrego,Kansas,Trego,2021-01-05 22:37:19.614710,2020-06-17 00:00:00.000000,0.05979248,0.15441104,0.49383613,1,4,13,0,2,8,0.03262460,0.07871912,0.31741890,0.08942847,0.15400044,0.28717615
20195,0,USKansasTrego,Kansas,Trego,2021-01-05 22:37:19.614710,2020-06-18 00:00:00.000000,0.05484001,0.14930179,0.49297222,1,4,13,0,2,8,0.03002540,0.07650136,0.30469994,0.09017151,0.15477960,0.30110459
20195,0,USKansasTrego,Kansas,Trego,2021-01-05 22:37:19.614710,2020-06-19 00:00:00.000000,0.05020979,0.14503480,0.49263257,1,4,13,0,2,8,0.02759905,0.07484469,0.29229884,0.09161953,0.15455187,0.30837872
20195,0,USKansasTrego,Kansas,Trego,2021-01-05 22:37:19.614710,2020-06-20 00:00:00.000000,0.04592405,0.13872912,0.49260027,1,3,13,0,2,7,0.02533224,0.07320242,0.28030691,0.09151466,0.15615256,0.31154983
20195,0,USKansasTrego,Kansas,Trego,2021-01-05 22:37:19.614710,2020-06-21 00:00:00.000000,0.04197999,0.13407515,0.49272407,1,3,13,0,2,7,0.02322159,0.07159081,0.26877925,0.08899894,0.15787579,0.31284535
20195,0,USKansasTrego,Kansas,Trego,2021-01-05 22:37:19.614710,2020-06-22 00:00:00.000000,0.08453435,0.16943054,0.54023286,2,4,15,0,1,7,0.02126490,0.06999637,0.25772638,0.09092883,0.15802263,0.31336480
20195,0,USKansasTrego,Kansas,Trego,2021-01-05 22:37:19.614710,2020-06-23 00:00:00.000000,0.10773025,0.20875782,0.58771241,3,5,16,0,2,7,0.03115922,0.07448889,0.26306477,0.09245446,0.16041097,0.31360917
20195,0,USKansasTrego,Kansas,Trego,2021-01-05 22:37:19.614710,2020-06-24 00:00:00.000000,0.12322224,0.24886914,0.63663612,3,6,17,1,2,7,0.03970183,0.08739285,0.27876182,0.08948788,0.16055853,0.31401741
20195,0,USKansasTrego,Kansas,Trego,2021-01-05 22:37:19.614710,2020-06-25 00:00:00.000000,0.13920166,0.28706856,0.68610932,3,8,19,1,2,8,0.04745421,0.10358800,0.30260090,0.08665825,0.15977962,0.31651391
20195,0,USKansasTrego,Kansas,Trego,2021-01-05 22:37:19.614710,2020-06-26 00:00:00.000000,0.15562892,0.32628161,0.74766210,4,9,20,1,3,9,0.05334764,0.12333348,0.33225257,0.08578383,0.15875954,0.33079548
20195,0,USKansasTrego,Kansas,Trego,2021-01-05 22:37:19.614710,2020-06-27 00:00:00.000000,0.17246379,0.36240740,0.83131382,4,10,23,1,3,10,0.05985749,0.13867996,0.36456093,0.08550955,0.15866755,0.34934528
20195,0,USKansasTrego,Kansas,Trego,2021-01-05 22:37:19.614710,2020-06-28 00:00:00.000000,0.18906736,0.40448491,0.88429504,5,11,24,1,4,10,0.06677184,0.15549660,0.38688943,0.08298382,0.15687970,0.34125382
20195,0,USKansasTrego,Kansas,Trego,2021-01-05 22:37:19.614710,2020-06-29 00:00:00.000000,0.21624186,0.44753808,0.90705948,6,12,25,2,4,12,0.07397797,0.17291117,0.43355181,0.08265253,0.15653079,0.34600541
20195,0,USKansasTrego,Kansas,Trego,2021-01-05 22:37:19.614710,2020-06-30 00:00:00.000000,0.24307757,0.49065215,0.96115560,6,13,26,2,5,13,0.08352983,0.18979452,0.46843669,0.08287263,0.15730051,0.34812626
20195,0,USKansasTrego,Kansas,Trego,2021-01-05 22:37:19.614710,2020-07-01 00:00:00.000000,0.28970284,0.53538506,1.01671763,8,15,28,2,5,14,0.09429520,0.20914307,0.50237518,0.08342410,0.16033324,0.34921300
20195,0,USKansasTrego,Kansas,Trego,2021-01-05 22:37:19.614710,2020-07-02 00:00:00.000000,0.33815448,0.57947621,1.07031544,9,16,30,3,6,14,0.11054170,0.22310435,0.52130903,0.08442367,0.16443836,0.35326550
20195,0,USKansasTrego,Kansas,Trego,2021-01-05 22:37:19.614710,2020-07-03 00:00:00.000000,0.36354120,0.63002332,1.12192748,10,17,31,3,6,14,0.12395714,0.24054593,0.53502506,0.08513481,0.17397694,0.35588596
20195,0,USKansasTrego,Kansas,Trego,2021-01-05 22:37:19.614710,2020-07-04 00:00:00.000000,0.38012249,0.66160657,1.17195277,10,18,32,3,7,15,0.13012711,0.25887514,0.54783582,0.08481804,0.18009829,0.37471839
20195,0,USKansasTrego,Kansas,Trego,2021-01-05 22:37:19.614710,2020-07-05 00:00:00.000000,0.39208856,0.70805513,1.20310283,10,19,33,3,7,15,0.14257550,0.27591386,0.55994868,0.08450342,0.17433888,0.36809142
20195,0,USKansasTrego,Kansas,Trego,2021-01-05 22:37:19.614710,2020-07-06 00:00:00.000000,0.41576341,0.73499874,1.22744568,11,20,34,4,8,16,0.15525485,0.29741324,0.58838969,0.08578100,0.18259448,0.39267818
20195,0,USKansasTrego,Kansas,Trego,2021-01-05 22:37:19.614710,2020-07-07 00:00:00.000000,0.45085977,0.75459586,1.28189833,12,21,35,4,8,17,0.16865525,0.30978771,0.62073031,0.08659919,0.18245230,0.38060999
20195,0,USKansasTrego,Kansas,Trego,2021-01-05 22:37:19.614710,2020-07-08 00:00:00.000000,0.47037384,0.79450737,1.35366362,13,22,37,5,9,18,0.17945979,0.32554463,0.64794968,0.08790397,0.18065543,0.38573611
20195,0,USKansasTrego,Kansas,Trego,2021-01-05 22:37:19.614710,2020-07-09 00:00:00.000000,0.50246339,0.82766670,1.46288523,14,23,41,5,9,19,0.19411149,0.34487508,0.68460556,0.08887025,0.17770834,0.40176131
20195,0,USKansasTrego,Kansas,Trego,2021-01-05 22:37:19.614710,2020-07-10 00:00:00.000000,0.53479381,0.84916062,1.58196405,14,23,44,5,10,20,0.20946163,0.36330999,0.73517973,0.09162063,0.17932693,0.40238949
20195,0,USKansasTrego,Kansas,Trego,2021-01-05 22:37:19.614710,2020-07-11 00:00:00.000000,0.55317940,0.88448914,1.67600834,15,24,46,6,10,21,0.22508922,0.37864187,0.77113353,0.09225467,0.18192963,0.40266761
20195,0,USKansasTrego,Kansas,Trego,2021-01-05 22:37:19.614710,2020-07-12 00:00:00.000000,0.55593575,0.91002248,1.77905072,15,25,49,6,10,22,0.24057836,0.39128281,0.81305286,0.09376012,0.18437511,0.40266583
20195,0,USKansasTrego,Kansas,Trego,2021-01-05 22:37:19.614710,2020-07-13 00:00:00.000000,0.52732314,0.88723098,1.75030575,14,24,49,7,11,24,0.25495910,0.40751639,0.88414036,0.09319972,0.18726761,0.40253873
20195,0,USKansasTrego,Kansas,Trego,2021-01-05 22:37:19.614710,2020-07-14 00:00:00.000000,0.49862892,0.87949036,1.71701332,13,24,48,7,11,24,0.26056692,0.41291282,0.88072663,0.08744538,0.19121759,0.40281043
20195,0,USKansasTrego,Kansas,Trego,2021-01-05 22:37:19.614710,2020-07-15 00:00:00.000000,0.46922593,0.87083951,1.67750146,13,24,47,6,11,24,0.24923001,0.41305558,0.85925698,0.08454119,0.19335491,0.40490078
20195,0,USKansasTrego,Kansas,Trego,2021-01-05 22:37:19.614710,2020-07-16 00:00:00.000000,0.43277070,0.87252199,1.63318757,12,24,45,6,11,23,0.23532888,0.40435723,0.82615929,0.08291014,0.19819915,0.40783244
20195,0,USKansasTrego,Kansas,Trego,2021-01-05 22:37:19.614710,2020-07-17 00:00:00.000000,0.39594312,0.85820029,1.63506123,11,24,45,6,11,22,0.22046428,0.39808390,0.78618336,0.08065625,0.19553329,0.44410311
20195,0,USKansasTrego,Kansas,Trego,2021-01-05 22:37:19.614710,2020-07-18 00:00:00.000000,0.36171717,0.86213706,1.69059045,10,24,47,5,10,21,0.20532789,0.39178050,0.75800247,0.07885163,0.19070294,0.45096219
20195,0,USKansasTrego,Kansas,Trego,2021-01-05 22:37:19.614710,2020-07-19 00:00:00.000000,0.33026371,0.86660247,1.65091024,9,24,46,5,10,22,0.19039232,0.38517129,0.79061037,0.07844212,0.18597882,0.45417968
20195,0,USKansasTrego,Kansas,Trego,2021-01-05 22:37:19.614710,2020-07-20 00:00:00.000000,0.36881163,0.90452658,1.67569544,10,25,46,4,10,23,0.17596208,0.38000478,0.82511798,0.07666949,0.18187723,0.45100102
20195,0,USKansasTrego,Kansas,Trego,2021-01-05 22:37:19.614710,2020-07-21 00:00:00.000000,0.38542554,0.94801366,1.70098875,10,26,47,4,11,23,0.16986166,0.40032847,0.82632901,0.07713060,0.17716739,0.44809041
20195,0,USKansasTrego,Kansas,Trego,2021-01-05 22:37:19.614710,2020-07-22 00:00:00.000000,0.41340083,0.97614999,1.77531758,11,27,49,5,11,22,0.17956123,0.42040232,0.81222511,0.07824596,0.17541294,0.43987421
20195,0,USKansasTrego,Kansas,Trego,2021-01-05 22:37:19.614710,2020-07-23 00:00:00.000000,0.41807249,1.00399910,1.89830882,11,28,53,5,12,22,0.19342583,0.43708822,0.80044017,0.08029365,0.17587393,0.42289004
20195,0,USKansasTrego,Kansas,Trego,2021-01-05 22:37:19.614710,2020-07-24 00:00:00.000000,0.41779971,1.03439369,2.02164350,11,28,56,5,12,23,0.20183652,0.45591258,0.82238856,0.08377670,0.17747658,0.41122205
20195,0,USKansasTrego,Kansas,Trego,2021-01-05 22:37:19.614710,2020-07-25 00:00:00.000000,0.41862961,1.06898813,2.14457559,11,29,60,5,13,24,0.20908227,0.48539234,0.85916052,0.08612218,0.18219516,0.41035343
20195,0,USKansasTrego,Kansas,Trego,2021-01-05 22:37:19.614710,2020-07-26 00:00:00.000000,0.41444938,1.10770456,2.26227959,11,31,63,5,13,25,0.21217782,0.48793761,0.89830034,0.08724236,0.18720356,0.40849470
20195,0,USKansasTrego,Kansas,Trego,2021-01-05 22:37:19.614710,2020-07-27 00:00:00.000000,0.47065997,1.19867985,2.31432857,13,33,64,6,14,26,0.22077571,0.50906799,0.93884355,0.09148800,0.19336040,0.41487245
20195,0,USKansasTrego,Kansas,Trego,2021-01-05 22:37:19.614710,2020-07-28 00:00:00.000000,0.50714378,1.24418555,2.36196700,14,34,66,6,14,27,0.23999803,0.53244543,0.97633584,0.09193441,0.20162527,0.40550303
20195,0,USKansasTrego,Kansas,Trego,2021-01-05 22:37:19.614710,2020-07-29 00:00:00.000000,0.53922335,1.26436663,2.40703251,15,35,67,7,15,28,0.26039787,0.56056938,1.01390297,0.09225188,0.20651372,0.40437594
20195,0,USKansasTrego,Kansas,Trego,2021-01-05 22:37:19.614710,2020-07-30 00:00:00.000000,0.57055962,1.36079733,2.45021911,15,38,68,7,16,29,0.27842349,0.58690898,1.05194466,0.09303939,0.20952810,0.41262313
20195,0,USKansasTrego,Kansas,Trego,2021-01-05 22:37:19.614710,2020-07-31 00:00:00.000000,0.61737597,1.41540226,2.49178679,17,39,69,8,17,30,0.30753446,0.61315224,1.08958355,0.09488579,0.21081700,0.40408116
20195,0,USKansasTrego,Kansas,Trego,2021-01-05 22:37:19.614710,2020-08-01 00:00:00.000000,0.66551329,1.48978213,2.63037553,18,41,73,9,17,31,0.32421009,0.64203976,1.13502249,0.09605841,0.20996789,0.39131727
20195,0,USKansasTrego,Kansas,Trego,2021-01-05 22:37:19.614710,2020-08-02 00:00:00.000000,0.70856135,1.57654245,2.80262814,19,44,78,9,18,33,0.34024795,0.66759339,1.19364053,0.10136586,0.21757884,0.39982280
20195,0,USKansasTrego,Kansas,Trego,2021-01-05 22:37:19.614710,2020-08-03 00:00:00.000000,0.78394691,1.66695971,2.91757731,21,46,81,9,19,35,0.35628471,0.70429679,1.26821390,0.10730884,0.22121118,0.40806377
20195,0,USKansasTrego,Kansas,Trego,2021-01-05 22:37:19.614710,2020-08-04 00:00:00.000000,0.90788208,1.72254737,2.96580295,25,48,83,11,20,37,0.40373706,0.74324531,1.34126082,0.11208223,0.22575877,0.41517640
20195,0,USKansasTrego,Kansas,Trego,2021-01-05 22:37:19.614710,2020-08-05 00:00:00.000000,1.03397389,1.78270159,2.99044088,28,49,83,12,21,39,0.43640313,0.76474517,1.41672950,0.11490300,0.21959469,0.41744158
20195,0,USKansasTrego,Kansas,Trego,2021-01-05 22:37:19.614710,2020-08-06 00:00:00.000000,1.07151340,1.82142623,3.11030058,30,51,87,13,21,41,0.46851075,0.77795578,1.49321893,0.11777943,0.21925613,0.41800020
20195,0,USKansasTrego,Kansas,Trego,2021-01-05 22:37:19.614710,2020-08-07 00:00:00.000000,1.07556375,1.85892978,3.43322357,30,52,96,13,22,44,0.48485157,0.80794566,1.57045163,0.12172311,0.22359730,0.41788160
20195,0,USKansasTrego,Kansas,Trego,2021-01-05 22:37:19.614710,2020-08-08 00:00:00.000000,1.07942755,1.94692253,3.60856237,30,54,101,14,23,46,0.49996327,0.85502098,1.64358149,0.12476244,0.22667426,0.41709265
20195,0,USKansasTrego,Kansas,Trego,2021-01-05 22:37:19.614710,2020-08-09 00:00:00.000000,1.08475046,2.03320689,3.90689290,30,56,109,14,24,46,0.51491367,0.88870732,1.66670500,0.12723453,0.24018375,0.41484210
20195,0,USKansasTrego,Kansas,Trego,2021-01-05 22:37:19.614710,2020-08-10 00:00:00.000000,1.17320789,2.16432503,4.11829905,32,60,115,15,25,47,0.54526779,0.92152888,1.68514667,0.13052406,0.24068346,0.40902598
20195,0,USKansasTrego,Kansas,Trego,2021-01-05 22:37:19.614710,2020-08-11 00:00:00.000000,1.22102185,2.26980046,4.32853994,34,63,121,16,27,48,0.58577622,0.96676318,1.74694432,0.13188980,0.23709352,0.39568128
20195,0,USKansasTrego,Kansas,Trego,2021-01-05 22:37:19.614710,2020-08-12 00:00:00.000000,1.29758282,2.35118361,4.53764002,36,65,127,17,28,50,0.62724750,1.01613517,1.81421373,0.13995333,0.24104978,0.38616202
20195,0,USKansasTrego,Kansas,Trego,2021-01-05 22:37:19.614710,2020-08-13 00:00:00.000000,1.37887783,2.51391963,4.74523871,38,70,133,18,29,53,0.67019854,1.07008922,1.92154395,0.14255154,0.24747480,0.38132902
20195,0,USKansasTrego,Kansas,Trego,2021-01-05 22:37:19.614710,2020-08-14 00:00:00.000000,1.46281644,2.62462225,4.76515181,41,73,133,19,31,56,0.69594518,1.11194968,2.03339385,0.14627643,0.24972047,0.37757604
20195,0,USKansasTrego,Kansas,Trego,2021-01-05 22:37:19.614710,2020-08-15 00:00:00.000000,1.54753427,2.70774919,4.75853724,43,75,133,20,32,60,0.73509339,1.14710430,2.14198707,0.14629463,0.25447182,0.37667993
20195,0,USKansasTrego,Kansas,Trego,2021-01-05 22:37:19.614710,2020-08-16 00:00:00.000000,1.57978167,2.79372082,4.73403911,44,78,132,21,33,62,0.76646021,1.19441911,2.21296462,0.14656149,0.25612705,0.38505772
20195,0,USKansasTrego,Kansas,Trego,2021-01-05 22:37:19.614710,2020-08-17 00:00:00.000000,1.92872482,3.02360212,5.12027412,54,84,143,22,35,63,0.79064359,1.27687387,2.27675241,0.15083428,0.27166802,0.38627933
20195,0,USKansasTrego,Kansas,Trego,2021-01-05 22:37:19.614710,2020-08-18 00:00:00.000000,2.22169406,3.25600341,5.52601928,62,91,154,24,38,65,0.86243252,1.37095495,2.32713402,0.16179425,0.27757974,0.37003671
20195,0,USKansasTrego,Kansas,Trego,2021-01-05 22:37:19.614710,2020-08-19 00:00:00.000000,2.55500969,3.53760219,5.65556327,71,99,158,27,41,67,0.98811154,1.47927441,2.39743538,0.16137159,0.28450358,0.36617259
20195,0,USKansasTrego,Kansas,Trego,2021-01-05 22:37:19.614710,2020-08-20 00:00:00.000000,2.82116894,3.83022781,5.73459265,79,107,160,31,44,71,1.10649969,1.58361961,2.55016054,0.16076554,0.28786022,0.38443683
20195,0,USKansasTrego,Kansas,Trego,2021-01-05 22:37:19.614710,2020-08-21 00:00:00.000000,3.09317069,4.15070455,5.84417471,86,116,163,33,46,76,1.18637631,1.67130081,2.71141726,0.16352578,0.28656475,0.38890720
20195,0,USKansasTrego,Kansas,Trego,2021-01-05 22:37:19.614710,2020-08-22 00:00:00.000000,3.35981851,4.45326849,6.19541332,94,124,173,37,50,80,1.32266844,1.79979386,2.87723243,0.16402033,0.28421254,0.39059521
20195,0,USKansasTrego,Kansas,Trego,2021-01-05 22:37:19.614710,2020-08-23 00:00:00.000000,3.39717081,4.77383369,6.52111759,95,133,182,39,54,85,1.41367767,1.93820718,3.04510958,0.16451733,0.28064533,0.39072409
20195,0,USKansasTrego,Kansas,Trego,2021-01-05 22:37:19.614710,2020-08-24 00:00:00.000000,3.60065387,4.84650282,6.64835951,100,135,186,40,59,90,1.45576499,2.11326403,3.21654447,0.16153205,0.27656933,0.39062048
20195,0,USKansasTrego,Kansas,Trego,2021-01-05 22:37:19.614710,2020-08-25 00:00:00.000000,3.77084250,4.94907344,6.79162623,105,138,190,41,62,93,1.48479740,2.21985479,3.32474334,0.15748537,0.27642038,0.39012604
20195,0,USKansasTrego,Kansas,Trego,2021-01-05 22:37:19.614710,2020-08-26 00:00:00.000000,3.95747080,5.05823630,7.03979837,110,141,197,43,64,95,1.56433686,2.31099475,3.40013182,0.15323077,0.27776779,0.38825215
20195,0,USKansasTrego,Kansas,Trego,2021-01-05 22:37:19.614710,2020-08-27 00:00:00.000000,4.03706792,5.16830937,7.32333226,113,144,205,45,67,96,1.64055865,2.39328218,3.44644811,0.15247207,0.27487798,0.38159696
20195,0,USKansasTrego,Kansas,Trego,2021-01-05 22:37:19.614710,2020-08-28 00:00:00.000000,4.02369365,5.27595142,7.31543231,112,147,205,46,68,97,1.66050257,2.44044853,3.47064719,0.15256603,0.26653719,0.36228137
20195,0,USKansasTrego,Kansas,Trego,2021-01-05 22:37:19.614710,2020-08-29 00:00:00.000000,4.00529157,5.43211503,7.34631814,112,152,205,48,71,97,1.71289289,2.53766663,3.47555507,0.15194387,0.25462956,0.32780683
20195,0,USKansasTrego,Kansas,Trego,2021-01-05 22:37:19.614710,2020-08-30 00:00:00.000000,3.98391056,5.49732631,7.46216148,111,154,209,50,71,97,1.80733808,2.55834795,3.46601635,0.15182935,0.24879690,0.31122325
20195,0,USKansasTrego,Kansas,Trego,2021-01-05 22:37:19.614710,2020-08-31 00:00:00.000000,3.90420179,5.47842236,7.46724551,109,153,209,53,72,100,1.90179955,2.58541290,3.56969641,0.15210609,0.24948072,0.31099808
20195,0,USKansasTrego,Kansas,Trego,2021-01-05 22:37:19.614710,2020-09-01 00:00:00.000000,3.82359384,5.53573598,7.42175396,107,155,208,54,72,102,1.93186678,2.59938197,3.66763726,0.14923235,0.24245167,0.30391281
20195,0,USKansasTrego,Kansas,Trego,2021-01-05 22:37:19.614710,2020-09-02 00:00:00.000000,3.78921594,5.53415537,7.38181507,106,155,206,53,72,105,1.92293352,2.60105536,3.74980147,0.14679183,0.23428308,0.29947875
20195,0,USKansasTrego,Kansas,Trego,2021-01-05 22:37:19.614710,2020-09-03 00:00:00.000000,3.70692851,5.48509895,7.34500715,103,153,205,53,73,106,1.89111467,2.61708355,3.81600013,0.14590042,0.23210961,0.28886968
20195,0,USKansasTrego,Kansas,Trego,2021-01-05 22:37:19.614710,2020-09-04 00:00:00.000000,3.65904000,5.48111408,7.33612195,102,153,205,52,73,108,1.88239336,2.60680071,3.87213416,0.14797085,0.22995192,0.28200491
20195,0,USKansasTrego,Kansas,Trego,2021-01-05 22:37:19.614710,2020-09-05 00:00:00.000000,3.63475310,5.44694129,7.36938128,101,152,206,52,72,109,1.86751420,2.58933477,3.92000831,0.15212550,0.22440630,0.27827003
20195,0,USKansasTrego,Kansas,Trego,2021-01-05 22:37:19.614710,2020-09-06 00:00:00.000000,3.61834626,5.40913599,7.36807493,101,151,206,51,72,111,1.84465695,2.57259599,3.96031655,0.15052507,0.22057275,0.28049376
20195,0,USKansasTrego,Kansas,Trego,2021-01-05 22:37:19.614710,2020-09-07 00:00:00.000000,3.65157363,5.35919402,7.42272562,102,150,208,51,71,111,1.82086461,2.54780144,3.99337593,0.15077342,0.21948654,0.27774675
20195,0,USKansasTrego,Kansas,Trego,2021-01-05 22:37:19.614710,2020-09-08 00:00:00.000000,3.56420940,5.32413515,7.34770972,99,149,205,50,70,112,1.78606558,2.51275107,3.99798909,0.15152654,0.21590173,0.27547441
20195,0,USKansasTrego,Kansas,Trego,2021-01-05 22:37:19.614710,2020-09-09 00:00:00.000000,3.59642402,5.20809314,7.27143940,100,145,203,49,69,111,1.76362640,2.48871177,3.98326552,0.15022802,0.21226681,0.27511369
20195,0,USKansasTrego,Kansas,Trego,2021-01-05 22:37:19.614710,2020-09-10 00:00:00.000000,3.63533557,5.06341418,7.20954351,101,141,202,47,68,110,1.70926554,2.45921110,3.95333499,0.14798580,0.20989388,0.27509077
20195,0,USKansasTrego,Kansas,Trego,2021-01-05 22:37:19.614710,2020-09-11 00:00:00.000000,3.64177270,4.95926414,7.38843937,102,139,207,46,68,109,1.65987888,2.43280543,3.90987501,0.14846599,0.21102918,0.27500925
20195,0,USKansasTrego,Kansas,Trego,2021-01-05 22:37:19.614710,2020-09-12 00:00:00.000000,3.57005195,4.89929811,7.42112075,100,137,208,45,67,110,1.61885271,2.42123602,3.94924019,0.14379394,0.21358589,0.26897907
20195,0,USKansasTrego,Kansas,Trego,2021-01-05 22:37:19.614710,2020-09-13 00:00:00.000000,3.50255939,4.84579574,7.45498499,98,135,208,44,67,110,1.57811467,2.39108173,3.93926828,0.13916755,0.21694153,0.26971936
20195,0,USKansasTrego,Kansas,Trego,2021-01-05 22:37:19.614710,2020-09-14 00:00:00.000000,3.38521543,4.83788958,7.52287233,94,135,210,43,65,110,1.53639209,2.35379093,3.93521886,0.13566870,0.21830036,0.26974202
20195,0,USKansasTrego,Kansas,Trego,2021-01-05 22:37:19.614710,2020-09-15 00:00:00.000000,3.26420195,4.84041164,7.55724961,91,135,211,42,64,110,1.50652092,2.30425548,3.93197272,0.13328935,0.21843727,0.26972776
20195,0,USKansasTrego,Kansas,Trego,2021-01-05 22:37:19.614710,2020-09-16 00:00:00.000000,3.14705071,4.82655985,7.42177834,88,135,208,41,63,110,1.48473974,2.27277232,3.92922589,0.13191655,0.21977452,0.27368460
20195,0,USKansasTrego,Kansas,Trego,2021-01-05 22:37:19.614710,2020-09-17 00:00:00.000000,3.17321565,4.82524236,7.28377832,88,135,204,41,63,110,1.46648470,2.25795599,3.92649479,0.13168379,0.22221845,0.27368746
20195,0,USKansasTrego,Kansas,Trego,2021-01-05 22:37:19.614710,2020-09-18 00:00:00.000000,3.09112119,4.78676984,7.15334107,86,134,200,39,63,109,1.42238292,2.26138623,3.92333145,0.13343339,0.22181502,0.27113705
20195,0,USKansasTrego,Kansas,Trego,2021-01-05 22:37:19.614710,2020-09-19 00:00:00.000000,3.01715948,4.78139719,7.24580150,84,134,203,38,62,109,1.38348697,2.23741096,3.92211600,0.13810550,0.22467429,0.28131463
20195,0,USKansasTrego,Kansas,Trego,2021-01-05 22:37:19.614710,2020-09-20 00:00:00.000000,2.95312731,4.77939781,7.35183117,82,133,206,39,62,111,1.39180825,2.24647270,3.96815928,0.14198013,0.22674726,0.29844784
20195,0,USKansasTrego,Kansas,Trego,2021-01-05 22:37:19.614710,2020-09-21 00:00:00.000000,2.91189658,4.77023467,7.33643674,81,133,205,40,63,112,1.43816365,2.24767320,4.01458231,0.14913386,0.23148937,0.29965816
20195,0,USKansasTrego,Kansas,Trego,2021-01-05 22:37:19.614710,2020-09-22 00:00:00.000000,2.88223645,4.74956172,7.34754937,80,133,205,40,62,111,1.44919842,2.24474212,3.98343969,0.15749677,0.23655679,0.30030503
20195,0,USKansasTrego,Kansas,Trego,2021-01-05 22:37:19.614710,2020-09-23 00:00:00.000000,2.86275947,4.68360449,7.32902381,80,131,205,41,62,111,1.47129513,2.23372271,3.96285251,0.16398282,0.24188477,0.30633069
20195,0,USKansasTrego,Kansas,Trego,2021-01-05 22:37:19.614710,2020-09-24 00:00:00.000000,2.85213175,4.65135534,7.28233234,79,130,204,41,62,111,1.46326369,2.22216291,3.96807167,0.17218018,0.25060175,0.31817467
20195,0,USKansasTrego,Kansas,Trego,2021-01-05 22:37:19.614710,2020-09-25 00:00:00.000000,2.85343797,4.65089797,7.22191547,79,130,202,40,62,111,1.43922892,2.22163340,3.96675190,0.18141220,0.25513627,0.32196265
20195,0,USKansasTrego,Kansas,Trego,2021-01-05 22:37:19.614710,2020-09-26 00:00:00.000000,2.96510865,4.65724083,7.19988167,83,130,201,39,62,111,1.41959768,2.21349952,3.96160591,0.18916796,0.26460663,0.32828442
20195,0,USKansasTrego,Kansas,Trego,2021-01-05 22:37:19.614710,2020-09-27 00:00:00.000000,3.07855517,4.64183954,7.20777366,86,130,202,39,61,110,1.40395859,2.19626009,3.95606748,0.19422518,0.27397469,0.35226250
20195,0,USKansasTrego,Kansas,Trego,2021-01-05 22:37:19.614710,2020-09-28 00:00:00.000000,3.10212232,4.64969813,7.19361286,86,130,201,39,61,110,1.42422105,2.18665392,3.95391926,0.19855596,0.28681519,0.36715537
20195,0,USKansasTrego,Kansas,Trego,2021-01-05 22:37:19.614710,2020-09-29 00:00:00.000000,3.12817207,4.65986047,7.18868214,87,130,201,40,60,110,1.46073396,2.17007805,3.94938590,0.20214766,0.29852311,0.37506151
20195,0,USKansasTrego,Kansas,Trego,2021-01-05 22:37:19.614710,2020-09-30 00:00:00.000000,3.17962370,4.65249389,7.22155912,89,130,202,41,60,110,1.47444094,2.16835737,3.94469276,0.20300334,0.30360737,0.37858593
20195,0,USKansasTrego,Kansas,Trego,2021-01-05 22:37:19.614710,2020-10-01 00:00:00.000000,3.25318918,4.69425583,7.31442005,91,131,205,41,60,111,1.49368914,2.16288473,3.96492923,0.20309792,0.31302796,0.38969991
20195,0,USKansasTrego,Kansas,Trego,2021-01-05 22:37:19.614710,2020-10-02 00:00:00.000000,3.34912913,4.75108561,7.41146293,93,133,207,42,60,112,1.51662544,2.15542530,4.00271272,0.20330249,0.31428521,0.40976008
20195,0,USKansasTrego,Kansas,Trego,2021-01-05 22:37:19.614710,2020-10-03 00:00:00.000000,3.46631667,4.78342158,7.50968152,97,134,210,43,60,112,1.54189053,2.16189023,4.00495777,0.20394671,0.32157429,0.43791509
20195,0,USKansasTrego,Kansas,Trego,2021-01-05 22:37:19.614710,2020-10-04 00:00:00.000000,3.57877701,4.84755365,7.60715248,100,135,213,43,61,112,1.56556380,2.18190900,4.01017059,0.20635891,0.33335836,0.46327653
20195,0,USKansasTrego,Kansas,Trego,2021-01-05 22:37:19.614710,2020-10-05 00:00:00.000000,3.70799310,4.99177436,7.71490873,103,139,216,43,62,113,1.54436612,2.21527218,4.04629454,0.21316434,0.34155562,0.47691716
20195,0,USKansasTrego,Kansas,Trego,2021-01-05 22:37:19.614710,2020-10-06 00:00:00.000000,3.82021768,5.24227599,7.93031781,107,146,222,43,64,116,1.56745778,2.28952426,4.15025095,0.22271745,0.34624201,0.48032525
20195,0,USKansasTrego,Kansas,Trego,2021-01-05 22:37:19.614710,2020-10-07 00:00:00.000000,3.93816224,5.33796952,8.15065112,110,149,228,45,66,118,1.61396481,2.35629416,4.23409134,0.24740224,0.35403109,0.48741039
20195,0,USKansasTrego,Kansas,Trego,2021-01-05 22:37:19.614710,2020-10-08 00:00:00.000000,4.04104240,5.60350929,8.37903416,113,157,234,46,67,119,1.66292092,2.39988417,4.27472963,0.25638982,0.36527443,0.49151119
20195,0,USKansasTrego,Kansas,Trego,2021-01-05 22:37:19.614710,2020-10-09 00:00:00.000000,4.10694357,5.84873995,8.62087149,115,163,241,48,69,120,1.71592960,2.48670426,4.31462443,0.27258312,0.38409657,0.52345699
20195,0,USKansasTrego,Kansas,Trego,2021-01-05 22:37:19.614710,2020-10-10 00:00:00.000000,4.19302415,6.06113093,8.88179861,117,169,248,49,71,122,1.77708136,2.56866182,4.36402874,0.28598838,0.40487379,0.56291605
20195,0,USKansasTrego,Kansas,Trego,2021-01-05 22:37:19.614710,2020-10-11 00:00:00.000000,4.30862819,6.26672194,9.36462787,120,175,262,51,74,123,1.85230670,2.65544264,4.42311741,0.28977992,0.42325110,0.61864756
20195,0,USKansasTrego,Kansas,Trego,2021-01-05 22:37:19.614710,2020-10-12 00:00:00.000000,4.50744241,6.57109143,9.60714028,126,184,269,54,76,125,1.94441204,2.73842271,4.49131338,0.30458768,0.42695964,0.66657435
20195,0,USKansasTrego,Kansas,Trego,2021-01-05 22:37:19.614710,2020-10-13 00:00:00.000000,4.71662656,6.72160514,9.85861921,132,188,276,56,78,130,2.02928641,2.81551495,4.63898277,0.31488299,0.43364597,0.67526464
20195,0,USKansasTrego,Kansas,Trego,2021-01-05 22:37:19.614710,2020-10-14 00:00:00.000000,4.95986334,6.81535849,10.11000577,139,191,283,59,81,134,2.13945307,2.90165872,4.78886450,0.31789226,0.43650957,0.67683080
20195,0,USKansasTrego,Kansas,Trego,2021-01-05 22:37:19.614710,2020-10-15 00:00:00.000000,5.18415308,7.19448021,10.36248655,145,201,290,62,84,138,2.22050329,3.02335294,4.94077269,0.31812451,0.43997962,0.67424908
20195,0,USKansasTrego,Kansas,Trego,2021-01-05 22:37:19.614710,2020-10-16 00:00:00.000000,5.45923671,7.56942067,10.61594917,153,212,297,64,88,142,2.31130792,3.14801250,5.09440518,0.31944216,0.44622323,0.69067316
20195,0,USKansasTrego,Kansas,Trego,2021-01-05 22:37:19.614710,2020-10-17 00:00:00.000000,5.74794628,7.88745353,10.92868254,161,221,306,67,91,147,2.41329701,3.27420717,5.24950049,0.32921418,0.47554471,0.69075248
20195,0,USKansasTrego,Kansas,Trego,2021-01-05 22:37:19.614710,2020-10-18 00:00:00.000000,6.04727565,8.17593893,11.37670975,169,229,318,70,95,151,2.52771648,3.39315841,5.40608803,0.33459512,0.49780362,0.68047441
20195,0,USKansasTrego,Kansas,Trego,2021-01-05 22:37:19.614710,2020-10-19 00:00:00.000000,6.37331660,8.42125353,11.89909155,178,236,333,74,98,156,2.66834425,3.51147239,5.56580627,0.36644784,0.50660614,0.66253326
20195,0,USKansasTrego,Kansas,Trego,2021-01-05 22:37:19.614710,2020-10-20 00:00:00.000000,6.65187651,8.75779992,12.42074327,186,245,348,78,101,160,2.81323106,3.63887102,5.73961957,0.37098513,0.51718248,0.68407929
20195,0,USKansasTrego,Kansas,Trego,2021-01-05 22:37:19.614710,2020-10-21 00:00:00.000000,6.93282237,9.07241718,12.94114487,194,254,362,82,106,166,2.93668367,3.80822503,5.93479078,0.37195591,0.52630163,0.67971830
20195,0,USKansasTrego,Kansas,Trego,2021-01-05 22:37:19.614710,2020-10-22 00:00:00.000000,7.21416607,9.35831763,13.45359880,202,262,377,86,111,173,3.07103471,3.96177113,6.17208107,0.37270271,0.52902359,0.67894315
20195,0,USKansasTrego,Kansas,Trego,2021-01-05 22:37:19.614710,2020-10-23 00:00:00.000000,7.49462388,9.75943257,13.94540663,210,273,390,90,115,180,3.21402514,4.12678530,6.43091921,0.37436362,0.53013193,0.71162863
20195,0,USKansasTrego,Kansas,Trego,2021-01-05 22:37:19.614710,2020-10-24 00:00:00.000000,7.75087137,10.20016707,14.39760570,217,285,403,94,120,187,3.36341100,4.30841980,6.69433444,0.38254623,0.53233178,0.72512066
20195,0,USKansasTrego,Kansas,Trego,2021-01-05 22:37:19.614710,2020-10-25 00:00:00.000000,8.17312510,10.68532362,14.88049797,229,299,417,98,125,195,3.51933821,4.48882921,6.96389653,0.39677544,0.53447951,0.73482191
20195,0,USKansasTrego,Kansas,Trego,2021-01-05 22:37:19.614710,2020-10-26 00:00:00.000000,8.49617093,11.14527603,15.62423899,238,312,437,103,131,203,3.68550487,4.68936130,7.24917247,0.40405328,0.53594675,0.74063358
20195,0,USKansasTrego,Kansas,Trego,2021-01-05 22:37:19.614710,2020-10-27 00:00:00.000000,8.87988907,11.56396964,16.42795547,248,324,460,107,136,213,3.81785264,4.85456362,7.60222197,0.40158590,0.54062473,0.74325602
20195,0,USKansasTrego,Kansas,Trego,2021-01-05 22:37:19.614710,2020-10-28 00:00:00.000000,9.24207828,12.03357816,17.29165999,259,337,484,111,140,220,3.96114152,5.00712626,7.88124408,0.41071772,0.55595552,0.74900987
20195,0,USKansasTrego,Kansas,Trego,2021-01-05 22:37:19.614710,2020-10-29 00:00:00.000000,9.48843707,12.57812116,18.20577515,265,352,510,115,145,230,4.10723499,5.17554151,8.22393294,0.41634485,0.57055137,0.76830233
20195,0,USKansasTrego,Kansas,Trego,2021-01-05 22:37:19.614710,2020-10-30 00:00:00.000000,9.74410474,13.12857545,19.15409085,273,367,536,118,153,241,4.22104935,5.46085888,8.62445683,0.44203661,0.58519081,0.78629243
20195,0,USKansasTrego,Kansas,Trego,2021-01-05 22:37:19.614710,2020-10-31 00:00:00.000000,10.00321984,13.59340518,20.11936322,280,381,563,121,159,253,4.33134206,5.69435289,9.05167528,0.44654328,0.62596763,0.80982679
20195,0,USKansasTrego,Kansas,Trego,2021-01-05 22:37:19.614710,2020-11-01 00:00:00.000000,10.27340420,13.93520165,21.08618235,287,390,591,124,166,266,4.45481735,5.95694996,9.50232114,0.46201433,0.65960705,0.86365811
20195,0,USKansasTrego,Kansas,Trego,2021-01-05 22:37:19.614710,2020-11-02 00:00:00.000000,10.83617814,14.47893326,21.50372817,303,405,602,128,174,279,4.58096524,6.22802112,9.97190163,0.48968208,0.69733068,0.91739114
20195,0,USKansasTrego,Kansas,Trego,2021-01-05 22:37:19.614710,2020-11-03 00:00:00.000000,11.40207408,15.16077328,21.88386065,319,424,613,132,184,292,4.73515483,6.59832307,10.44499884,0.50590748,0.71099562,0.93783133
20195,0,USKansasTrego,Kansas,Trego,2021-01-05 22:37:19.614710,2020-11-04 00:00:00.000000,11.96968611,15.77385417,22.23083724,335,442,623,138,194,306,4.92685613,6.93707571,10.91905680,0.51069139,0.72264418,1.05965119
20195,0,USKansasTrego,Kansas,Trego,2021-01-05 22:37:19.614710,2020-11-05 00:00:00.000000,12.53258309,16.50118435,22.76656511,351,462,638,144,205,319,5.16953996,7.32695255,11.39045692,0.51314160,0.73516738,1.08857622
20195,0,USKansasTrego,Kansas,Trego,2021-01-05 22:37:19.614710,2020-11-06 00:00:00.000000,13.13344126,17.05585658,23.52076288,368,478,659,152,214,330,5.43875434,7.64522462,11.78923349,0.52382827,0.77487591,1.10204098
20195,0,USKansasTrego,Kansas,Trego,2021-01-05 22:37:19.614710,2020-11-07 00:00:00.000000,13.78766904,17.67206622,24.22577746,386,495,679,160,222,342,5.72661288,7.95454939,12.23457948,0.53392878,0.79611598,1.15333914
20195,0,USKansasTrego,Kansas,Trego,2021-01-05 22:37:19.614710,2020-11-08 00:00:00.000000,14.54788102,18.55225120,24.91168771,407,520,698,166,231,354,5.92381639,8.25894225,12.65028260,0.54551627,0.82827828,1.19627694
20195,0,USKansasTrego,Kansas,Trego,2021-01-05 22:37:19.614710,2020-11-09 00:00:00.000000,15.26845989,19.27944261,26.23332342,427,540,735,171,239,366,6.12636455,8.55627882,13.05748810,0.58558105,0.85547641,1.23106757
20195,0,USKansasTrego,Kansas,Trego,2021-01-05 22:37:19.614710,2020-11-10 00:00:00.000000,15.99746095,19.99723841,27.49457756,448,560,770,179,248,380,6.40037706,8.85475868,13.56796354,0.60495028,0.88005726,1.25935687
20195,0,USKansasTrego,Kansas,Trego,2021-01-05 22:37:19.614710,2020-11-11 00:00:00.000000,16.60029493,20.78361810,28.11757910,465,582,788,187,255,390,6.67832356,9.11678920,13.93877838,0.61549052,0.90873253,1.29206014
20195,0,USKansasTrego,Kansas,Trego,2021-01-05 22:37:19.614710,2020-11-12 00:00:00.000000,17.24882915,21.37834432,28.78403095,483,599,806,194,264,400,6.92261961,9.42739272,14.27679012,0.61788924,0.91684981,1.33026429
20195,0,USKansasTrego,Kansas,Trego,2021-01-05 22:37:19.614710,2020-11-13 00:00:00.000000,17.80947403,21.76078695,29.63533840,499,609,830,201,272,412,7.18184682,9.73374805,14.71057048,0.61792692,0.91609832,1.34753462
20195,0,USKansasTrego,Kansas,Trego,2021-01-05 22:37:19.614710,2020-11-14 00:00:00.000000,18.15924911,22.12619790,30.34055082,509,620,850,207,281,428,7.38912578,10.05093454,15.26987822,0.61750623,0.91692345,1.36888436
20195,0,USKansasTrego,Kansas,Trego,2021-01-05 22:37:19.614710,2020-11-15 00:00:00.000000,18.47597591,22.55581874,31.11979633,517,632,872,209,287,442,7.47026439,10.26321303,15.77961124,0.61996821,0.91769722,1.38084296
20195,0,USKansasTrego,Kansas,Trego,2021-01-05 22:37:19.614710,2020-11-16 00:00:00.000000,18.67675519,22.68347503,31.68183999,523,635,888,211,294,453,7.52901922,10.50269636,16.19449765,0.62496880,0.92900428,1.39658740
20195,0,USKansasTrego,Kansas,Trego,2021-01-05 22:37:19.614710,2020-11-17 00:00:00.000000,18.56073024,22.89346849,31.72352062,520,641,889,212,298,456,7.59099030,10.64620070,16.29032327,0.63243493,0.93856053,1.39673114
20195,0,USKansasTrego,Kansas,Trego,2021-01-05 22:37:19.614710,2020-11-18 00:00:00.000000,18.49509194,22.90454471,31.93956926,518,642,895,217,301,457,7.76922432,10.74701189,16.33784806,0.63763055,0.94308116,1.39242365
20195,0,USKansasTrego,Kansas,Trego,2021-01-05 22:37:19.614710,2020-11-19 00:00:00.000000,18.37198048,22.94023183,32.02193650,514,643,897,219,305,457,7.84437488,10.88203039,16.33622115,0.64375715,0.94001942,1.40165709
20195,0,USKansasTrego,Kansas,Trego,2021-01-05 22:37:19.614710,2020-11-20 00:00:00.000000,18.16525627,22.55592713,31.98139879,509,632,896,219,307,456,7.83577139,10.96030368,16.28802769,0.64698491,0.94161726,1.44313974
20195,0,USKansasTrego,Kansas,Trego,2021-01-05 22:37:19.614710,2020-11-21 00:00:00.000000,17.91432087,22.16445580,31.83246827,502,621,892,217,307,459,7.76761283,10.97585567,16.39501780,0.64649056,0.94615299,1.44553171
20195,0,USKansasTrego,Kansas,Trego,2021-01-05 22:37:19.614710,2020-11-22 00:00:00.000000,17.58773829,21.87260085,31.58613987,492,613,885,215,304,461,7.67857856,10.88028433,16.47918760,0.63251763,0.95861807,1.44091643
20195,0,USKansasTrego,Kansas,Trego,2021-01-05 22:37:19.614710,2020-11-23 00:00:00.000000,17.16071298,21.50641306,31.03968016,481,602,870,212,302,466,7.56435502,10.80968347,16.63254705,0.62382099,0.99053209,1.55555851
20195,0,USKansasTrego,Kansas,Trego,2021-01-05 22:37:19.614710,2020-11-24 00:00:00.000000,16.69927975,20.95431403,30.46197059,468,587,853,208,300,468,7.42921339,10.72483349,16.71010010,0.63891500,0.97138308,1.62670333
20195,0,USKansasTrego,Kansas,Trego,2021-01-05 22:37:19.614710,2020-11-25 00:00:00.000000,16.20392892,20.30130587,29.82699010,454,569,836,203,293,464,7.27401363,10.47473198,16.56354805,0.63581591,0.97210949,1.70440969
20195,0,USKansasTrego,Kansas,Trego,2021-01-05 22:37:19.614710,2020-11-26 00:00:00.000000,15.68426706,19.56261136,29.12453853,439,548,816,198,286,458,7.09615450,10.21429652,16.34324617,0.65301495,1.00351075,1.78931325
20195,0,USKansasTrego,Kansas,Trego,2021-01-05 22:37:19.614710,2020-11-27 00:00:00.000000,15.14054655,18.85924527,28.37656222,424,528,795,193,279,450,6.90387186,9.95516278,16.08028181,0.68593257,1.01337133,1.83380775
20195,0,USKansasTrego,Kansas,Trego,2021-01-05 22:37:19.614710,2020-11-28 00:00:00.000000,14.58872051,18.07291657,27.60868193,408,506,773,187,272,442,6.70027115,9.71988436,15.77614144,0.69298743,1.01296943,1.87299186
20195,0,USKansasTrego,Kansas,Trego,2021-01-05 22:37:19.614710,2020-11-29 00:00:00.000000,14.02158500,17.32893279,26.81948051,393,485,751,181,263,432,6.48608405,9.39197067,15.43414040,0.68980897,1.01761300,1.89529755
20195,0,USKansasTrego,Kansas,Trego,2021-01-05 22:37:19.614710,2020-11-30 00:00:00.000000,13.46554677,16.70836268,26.01568886,377,468,729,175,253,422,6.26267263,9.04805165,15.05874774,0.68799726,1.01562049,1.90417761
20195,0,USKansasTrego,Kansas,Trego,2021-01-05 22:37:19.614710,2020-12-01 00:00:00.000000,12.83539469,15.94177229,25.16942580,359,446,705,169,242,411,6.06052865,8.65162627,14.69439354,0.68992132,1.02037517,1.90473408
20195,0,USKansasTrego,Kansas,Trego,2021-01-05 22:37:19.614710,2020-12-02 00:00:00.000000,12.19347465,15.29315261,24.28703393,341,428,680,164,231,401,5.86359921,8.24478622,14.33505308,0.69799179,1.02273029,1.83575468
20195,0,USKansasTrego,Kansas,Trego,2021-01-05 22:37:19.614710,2020-12-03 00:00:00.000000,11.43615625,14.59765863,23.37835964,320,409,655,158,222,391,5.66736366,7.92506489,13.97734886,0.72278085,1.03566917,1.76514491
20195,0,USKansasTrego,Kansas,Trego,2021-01-05 22:37:19.614710,2020-12-04 00:00:00.000000,10.82655701,13.90699167,22.45469547,303,389,629,153,213,381,5.47232235,7.61233216,13.62005195,0.74974604,1.01920040,1.74242323
20195,0,USKansasTrego,Kansas,Trego,2021-01-05 22:37:19.614710,2020-12-05 00:00:00.000000,10.15179482,13.35297910,21.52790451,284,374,603,147,204,371,5.27826871,7.30577895,13.26758636,0.76662570,1.02695484,1.72656539
20195,0,USKansasTrego,Kansas,Trego,2021-01-05 22:37:19.614710,2020-12-06 00:00:00.000000,9.40151821,12.82911379,20.60939608,263,359,577,142,196,359,5.08539256,7.01989584,12.81372271,0.76981250,1.02184319,1.72327372
20195,0,USKansasTrego,Kansas,Trego,2021-01-05 22:37:19.614710,2020-12-07 00:00:00.000000,8.95230040,12.28415303,19.71401684,250,344,552,137,189,343,4.89713755,6.74852697,12.26925218,0.77771196,1.00433272,1.78286063
20195,0,USKansasTrego,Kansas,Trego,2021-01-05 22:37:19.614710,2020-12-08 00:00:00.000000,8.45076340,11.54714927,18.81985852,236,323,527,131,180,328,4.69330728,6.43138903,11.71246599,0.79367447,1.01507329,1.84348756
20195,0,USKansasTrego,Kansas,Trego,2021-01-05 22:37:19.614710,2020-12-09 00:00:00.000000,7.90117039,10.88944422,18.02751050,221,305,505,125,170,315,4.48300624,6.08664780,11.24585699,0.78031243,1.00603156,1.86955571
20195,0,USKansasTrego,Kansas,Trego,2021-01-05 22:37:19.614710,2020-12-10 00:00:00.000000,7.37725708,10.34105122,17.05986033,206,289,478,119,161,304,4.26127403,5.75891212,10.86546020,0.75928332,1.02432631,1.89027058
20195,0,USKansasTrego,Kansas,Trego,2021-01-05 22:37:19.614710,2020-12-11 00:00:00.000000,6.88019368,9.88185282,16.20363495,192,276,454,113,151,293,4.03772821,5.41242349,10.48157048,0.75193723,1.04902041,1.91957028
20195,0,USKansasTrego,Kansas,Trego,2021-01-05 22:37:19.614710,2020-12-12 00:00:00.000000,6.41051751,9.36171402,15.36855038,179,262,430,106,142,282,3.80534567,5.07572876,10.09511786,0.75157537,1.06719560,2.00269092
20195,0,USKansasTrego,Kansas,Trego,2021-01-05 22:37:19.614710,2020-12-13 00:00:00.000000,5.96831548,8.94888766,14.55776264,167,250,408,99,133,272,3.56475677,4.75393508,9.70744450,0.76411979,1.09189151,2.12686684
20195,0,USKansasTrego,Kansas,Trego,2021-01-05 22:37:19.614710,2020-12-14 00:00:00.000000,5.71397818,8.43910554,13.78792481,160,236,386,93,126,261,3.32919119,4.52267359,9.31957251,0.75453353,1.12676993,2.23697016
20195,0,USKansasTrego,Kansas,Trego,2021-01-05 22:37:19.614710,2020-12-15 00:00:00.000000,5.41366060,7.94606117,13.04690854,151,222,365,87,119,249,3.11349275,4.27309416,8.90741816,0.72787224,1.17333973,2.29779705
20195,0,USKansasTrego,Kansas,Trego,2021-01-05 22:37:19.614710,2020-12-16 00:00:00.000000,5.17383831,7.46891173,12.33622555,145,209,345,82,112,237,2.95899036,4.02816585,8.48237636,0.69542115,1.17648548,2.32254665
20195,0,USKansasTrego,Kansas,Trego,2021-01-05 22:37:19.614710,2020-12-17 00:00:00.000000,4.95667043,6.99531010,11.68128283,138,196,327,76,106,225,2.72853016,3.81237880,8.05295249,0.66242034,1.20906247,2.32766674
20195,0,USKansasTrego,Kansas,Trego,2021-01-05 22:37:19.614710,2020-12-18 00:00:00.000000,4.72131471,6.60797512,11.11734230,132,185,311,71,101,213,2.55619359,3.60781918,7.62551326,0.62828096,1.21001949,2.29071009
20195,0,USKansasTrego,Kansas,Trego,2021-01-05 22:37:19.614710,2020-12-19 00:00:00.000000,4.43789411,6.38190815,10.56700205,124,178,296,67,95,201,2.39675425,3.40944532,7.20487251,0.62683939,1.24328198,2.09481897
20195,0,USKansasTrego,Kansas,Trego,2021-01-05 22:37:19.614710,2020-12-20 00:00:00.000000,4.14024074,6.09770569,10.09358323,116,170,282,63,90,190,2.24925640,3.21838799,6.79478735,0.62649314,1.25668178,2.07018469
20195,0,USKansasTrego,Kansas,Trego,2021-01-05 22:37:19.614710,2020-12-21 00:00:00.000000,3.82595920,5.73214127,9.61550200,107,160,269,59,85,179,2.11285234,3.03539012,6.39807424,0.62638157,1.30260505,2.14740866
20195,0,USKansasTrego,Kansas,Trego,2021-01-05 22:37:19.614710,2020-12-22 00:00:00.000000,3.49351116,5.38512532,9.11820293,97,150,255,55,80,170,1.98312852,2.86794722,6.09215241,0.62634042,1.30296661,2.18477644
20195,0,USKansasTrego,Kansas,Trego,2021-01-05 22:37:19.614710,2020-12-23 00:00:00.000000,3.18533042,5.05165772,8.70765262,89,141,244,52,76,164,1.86068151,2.71623370,5.86178697,0.62633601,1.30770379,2.19193016
20195,0,USKansasTrego,Kansas,Trego,2021-01-05 22:37:19.614710,2020-12-24 00:00:00.000000,2.90146142,4.71999243,8.29632857,81,132,232,48,72,156,1.74577509,2.57639246,5.57384071,0.62639869,1.29485061,2.25969457
20195,0,USKansasTrego,Kansas,Trego,2021-01-05 22:37:19.614710,2020-12-25 00:00:00.000000,2.64129924,4.43656398,7.97919542,74,124,223,45,68,149,1.63844102,2.42708363,5.32866661,0.62674213,1.25812609,2.27015019
20195,0,USKansasTrego,Kansas,Trego,2021-01-05 22:37:19.614710,2020-12-26 00:00:00.000000,2.40042586,4.17997307,7.63315752,67,117,213,43,64,142,1.53855135,2.28978703,5.08619605,0.62849684,1.23508192,2.29919749
20195,0,USKansasTrego,Kansas,Trego,2021-01-05 22:37:19.614710,2020-12-27 00:00:00.000000,2.18534956,3.99855935,7.30319860,61,112,204,40,60,135,1.44587067,2.16909201,4.84881302,0.63508814,1.19900578,2.37473337
20195,0,USKansasTrego,Kansas,Trego,2021-01-05 22:37:19.614710,2020-12-28 00:00:00.000000,1.97156455,3.71802329,6.85957315,55,104,192,37,58,129,1.33681910,2.07645852,4.61827328,0.62688097,1.22963202,2.45925000
20195,0,USKansasTrego,Kansas,Trego,2021-01-05 22:37:19.614710,2020-12-29 00:00:00.000000,1.80994634,3.44146423,6.43272743,50,96,180,33,54,122,1.20714288,1.93666791,4.37895531,0.62808969,1.25806910,2.47993743
20195,0,USKansasTrego,Kansas,Trego,2021-01-05 22:37:19.614710,2020-12-30 00:00:00.000000,1.66252762,3.18112946,6.02205466,46,89,168,30,50,115,1.08654148,1.78700658,4.13645914,0.61926515,1.24822355,2.48100232
20195,0,USKansasTrego,Kansas,Trego,2021-01-05 22:37:19.614710,2020-12-31 00:00:00.000000,1.52222490,2.93707187,5.62910527,42,82,157,27,46,109,0.97549494,1.64804154,3.89500649,0.61694038,1.25864973,2.57612285
20195,0,USKansasTrego,Kansas,Trego,2021-01-05 22:37:19.614710,2021-01-01 00:00:00.000000,1.39046074,2.70903797,5.25483190,38,75,147,24,42,102,0.88594601,1.53360940,3.65773934,0.60452093,1.22749933,2.69403267
20195,0,USKansasTrego,Kansas,Trego,2021-01-05 22:37:19.614710,2021-01-02 00:00:00.000000,1.26788560,2.48704070,4.89360522,35,69,137,22,39,96,0.80625190,1.42227903,3.42695397,0.60861004,1.21179386,2.82101726
20195,0,USKansasTrego,Kansas,Trego,2021-01-05 22:37:19.614710,2021-01-03 00:00:00.000000,1.14190533,2.28100702,4.54683601,32,63,127,20,36,89,0.73161496,1.31255910,3.20428484,0.59212752,1.20757967,2.87426796
20195,0,USKansasTrego,Kansas,Trego,2021-01-05 22:37:19.614710,2021-01-04 00:00:00.000000,1.02632607,2.08524530,4.22251020,28,58,118,18,33,83,0.66200166,1.19907589,2.99084959,0.58455168,1.20558870,2.92889515
20195,0,USKansasTrego,Kansas,Trego,2021-01-05 22:37:19.614710,2021-01-05 00:00:00.000000,0.92135673,1.90505781,3.91955254,25,53,109,16,30,78,0.59913105,1.09073209,2.78736339,0.58182817,1.20454547,2.94922351
20195,0,USKansasTrego,Kansas,Trego,2021-01-05 22:37:19.614710,2021-01-06 00:00:00.000000,0.82631136,1.74012948,3.63686442,23,48,101,15,27,72,0.53824542,0.99158122,2.59422956,0.58093832,1.20343215,2.95733939
20195,0,USKansasTrego,Kansas,Trego,2021-01-05 22:37:19.614710,2021-01-07 00:00:00.000000,0.74046336,1.58845736,3.37334379,20,44,94,13,25,67,0.48401840,0.90326106,2.41161125,0.58065680,1.20295305,2.95953734
20195,0,USKansasTrego,Kansas,Trego,2021-01-05 22:37:19.614710,2021-01-08 00:00:00.000000,0.66307890,1.44920344,3.12790027,18,40,87,12,23,62,0.43469889,0.82161887,2.23948836,0.58056865,1.20274841,2.96012852
20195,0,USKansasTrego,Kansas,Trego,2021-01-05 22:37:19.614710,2021-01-09 00:00:00.000000,0.59343933,1.32152565,2.89946651,16,37,81,10,21,58,0.38999137,0.75166287,2.07770261,0.58054114,1.20266133,2.96031731
20195,0,USKansasTrego,Kansas,Trego,2021-01-05 22:37:19.614710,2021-01-10 00:00:00.000000,0.53085560,1.20178575,2.68700659,14,33,75,9,19,53,0.34957338,0.69126675,1.92599333,0.58053256,1.20262436,2.96037773
20195,0,USKansasTrego,Kansas,Trego,2021-01-05 22:37:19.614710,2021-01-11 00:00:00.000000,0.47467705,1.09189728,2.48952186,13,30,69,8,17,50,0.31311340,0.63804316,1.78402570,0.58052989,1.20260869,2.96039712
20195,0,USKansasTrego,Kansas,Trego,2021-01-05 22:37:19.614710,2021-01-12 00:00:00.000000,0.42429620,0.99393782,2.30605508,11,27,64,7,16,46,0.28028300,0.58719320,1.65141317,0.58052905,1.20260205,2.96040337
20195,0,USKansasTrego,Kansas,Trego,2021-01-05 22:37:19.614710,2021-01-13 00:00:00.000000,0.37915078,0.90629551,2.13569293,10,25,59,7,15,42,0.25076472,0.53739257,1.53334143,0.58052879,1.20259923,2.96040540
20195,0,USKansasTrego,Kansas,Trego,2021-01-05 22:37:19.614710,2021-01-14 00:00:00.000000,0.33872388,0.82309033,1.97756741,9,23,55,6,13,39,0.22425705,0.49164846,1.42540100,0.58052871,1.20259805,2.96040606
20195,0,USKansasTrego,Kansas,Trego,2021-01-05 22:37:19.614710,2021-01-15 00:00:00.000000,0.30254279,0.74811868,1.83085632,8,20,51,5,12,37,0.20047733,0.44840384,1.32454694,0.58052869,1.20259754,2.96040628
20195,0,USKansasTrego,Kansas,Trego,2021-01-05 22:37:19.614710,2021-01-16 00:00:00.000000,0.26561980,0.68039823,1.69478307,7,19,47,5,11,34,0.17916305,0.40764400,1.23039103,0.58052868,1.20259733,2.96040636
20195,0,USKansasTrego,Kansas,Trego,2021-01-05 22:37:19.614710,2021-01-17 00:00:00.000000,0.23308432,0.61869247,1.56861592,6,17,43,4,10,32,0.15872075,0.37049432,1.14255376,0.58052868,1.20259724,2.96040639
