FIPS,HR_UID,nameid,province,region,analysisTime,dates,pointprevalence_025,pointprevalence_50,pointprevalence_975,pointinfections_025,pointinfections_50,pointinfections_975,pointinfectious_025,pointinfectious_50,pointinfectious_975,pointinfectiousprevalence_05,pointinfectiousprevalence_50,pointinfectiousprevalence_95,infectrate_025,infectrate_50,infectrate_975
20003,0,USKansasAnderson,Kansas,Anderson,2021-01-05 23:03:15.163702,2020-03-09 00:00:00.000000,0.01275434,0.04051237,0.15441000,1,3,12,0,1,6,0.00638897,0.02339906,0.08694620,0.36728220,0.45527706,0.57609627
20003,0,USKansasAnderson,Kansas,Anderson,2021-01-05 23:03:15.163702,2020-03-10 00:00:00.000000,0.01372973,0.04462997,0.16198232,1,3,12,0,1,6,0.00671238,0.02300782,0.08762728,0.36728230,0.45527568,0.57609625
20003,0,USKansasAnderson,Kansas,Anderson,2021-01-05 23:03:15.163702,2020-03-11 00:00:00.000000,0.01473701,0.04804008,0.17005264,1,3,13,0,1,6,0.00688668,0.02387524,0.08819991,0.36728242,0.45527328,0.57609614
20003,0,USKansasAnderson,Kansas,Anderson,2021-01-05 23:03:15.163702,2020-03-12 00:00:00.000000,0.01579214,0.05236010,0.17863639,1,4,14,0,1,7,0.00715931,0.02535565,0.08948641,0.36728245,0.45509429,0.57609567
20003,0,USKansasAnderson,Kansas,Anderson,2021-01-05 23:03:15.163702,2020-03-13 00:00:00.000000,0.01690710,0.05716757,0.18774537,1,4,14,0,2,7,0.00752994,0.02705103,0.09212484,0.36728181,0.45454726,0.57609311
20003,0,USKansasAnderson,Kansas,Anderson,2021-01-05 23:03:15.163702,2020-03-14 00:00:00.000000,0.01809252,0.06111073,0.19738590,1,4,15,0,2,7,0.00797248,0.02941079,0.09567078,0.36727820,0.45442703,0.57607612
20003,0,USKansasAnderson,Kansas,Anderson,2021-01-05 23:03:15.163702,2020-03-15 00:00:00.000000,0.01985871,0.06472565,0.21437276,1,5,16,0,2,7,0.00853049,0.03124221,0.09982885,0.36726247,0.45354379,0.57594326
20003,0,USKansasAnderson,Kansas,Anderson,2021-01-05 23:03:15.163702,2020-03-16 00:00:00.000000,0.02910986,0.08325799,0.25506574,2,6,20,0,2,8,0.00947168,0.03335458,0.10995810,0.36719968,0.44994086,0.57479854
20003,0,USKansasAnderson,Kansas,Anderson,2021-01-05 23:03:15.163702,2020-03-17 00:00:00.000000,0.03511317,0.10090898,0.29028472,2,7,22,0,3,9,0.01167460,0.03819246,0.12181138,0.35258630,0.44837188,0.56681270
20003,0,USKansasAnderson,Kansas,Anderson,2021-01-05 23:03:15.163702,2020-03-18 00:00:00.000000,0.04143099,0.11847759,0.30947551,3,9,24,1,3,10,0.01555348,0.04586300,0.12964065,0.32362830,0.43814377,0.56256571
20003,0,USKansasAnderson,Kansas,Anderson,2021-01-05 23:03:15.163702,2020-03-19 00:00:00.000000,0.04803282,0.13457218,0.34528916,3,10,27,1,4,11,0.01936053,0.05488513,0.14300354,0.28103767,0.41612035,0.51615028
20003,0,USKansasAnderson,Kansas,Anderson,2021-01-05 23:03:15.163702,2020-03-20 00:00:00.000000,0.05422958,0.14995972,0.38154824,4,11,29,1,4,12,0.02316832,0.06220633,0.16005626,0.25385650,0.40668211,0.51524406
20003,0,USKansasAnderson,Kansas,Anderson,2021-01-05 23:03:15.163702,2020-03-21 00:00:00.000000,0.05969098,0.16679303,0.40260755,4,13,31,2,5,14,0.02734164,0.07011096,0.17821359,0.23472209,0.37534364,0.49315387
20003,0,USKansasAnderson,Kansas,Anderson,2021-01-05 23:03:15.163702,2020-03-22 00:00:00.000000,0.06606809,0.18372420,0.42217644,5,14,33,2,6,15,0.03078959,0.07924857,0.19448620,0.22880016,0.35459533,0.48280122
20003,0,USKansasAnderson,Kansas,Anderson,2021-01-05 23:03:15.163702,2020-03-23 00:00:00.000000,0.07683737,0.21236627,0.44309376,6,16,34,2,7,16,0.03416355,0.08951316,0.20602695,0.22621266,0.32697891,0.47343299
20003,0,USKansasAnderson,Kansas,Anderson,2021-01-05 23:03:15.163702,2020-03-24 00:00:00.000000,0.08778806,0.23385403,0.47952462,6,18,37,3,8,17,0.03874813,0.10322185,0.21738821,0.20779685,0.31415477,0.41471194
20003,0,USKansasAnderson,Kansas,Anderson,2021-01-05 23:03:15.163702,2020-03-25 00:00:00.000000,0.09902442,0.25673159,0.52441840,7,20,41,3,9,18,0.04469326,0.11543389,0.23987598,0.18764457,0.29767294,0.41400650
20003,0,USKansasAnderson,Kansas,Anderson,2021-01-05 23:03:15.163702,2020-03-26 00:00:00.000000,0.11054180,0.28482250,0.56895015,8,22,44,4,10,20,0.05101770,0.12888190,0.26613223,0.17210452,0.27761135,0.41275517
20003,0,USKansasAnderson,Kansas,Anderson,2021-01-05 23:03:15.163702,2020-03-27 00:00:00.000000,0.12234205,0.30787940,0.61235262,9,24,48,4,10,22,0.05763918,0.13807032,0.29233474,0.16830103,0.26325902,0.38387305
20003,0,USKansasAnderson,Kansas,Anderson,2021-01-05 23:03:15.163702,2020-03-28 00:00:00.000000,0.13443243,0.32672089,0.65226266,10,25,51,5,11,25,0.06450882,0.14977763,0.31856612,0.16255058,0.24951707,0.37197230
20003,0,USKansasAnderson,Kansas,Anderson,2021-01-05 23:03:15.163702,2020-03-29 00:00:00.000000,0.14682352,0.34061867,0.68291194,11,26,53,5,12,27,0.07159907,0.15858471,0.34425195,0.15129629,0.22620458,0.35994749
20003,0,USKansasAnderson,Kansas,Anderson,2021-01-05 23:03:15.163702,2020-03-30 00:00:00.000000,0.19906717,0.35579609,0.71123091,15,27,55,6,13,29,0.07889598,0.16895189,0.36924248,0.14710191,0.21681936,0.34467076
20003,0,USKansasAnderson,Kansas,Anderson,2021-01-05 23:03:15.163702,2020-03-31 00:00:00.000000,0.21532693,0.37304222,0.73749422,16,29,57,7,14,30,0.09036749,0.18034227,0.39069236,0.14227334,0.21142073,0.32958722
20003,0,USKansasAnderson,Kansas,Anderson,2021-01-05 23:03:15.163702,2020-04-01 00:00:00.000000,0.22581171,0.38929179,0.76075668,17,30,59,8,15,32,0.10229299,0.19153342,0.40930059,0.14086065,0.20644686,0.32673942
20003,0,USKansasAnderson,Kansas,Anderson,2021-01-05 23:03:15.163702,2020-04-02 00:00:00.000000,0.23623955,0.39577872,0.76000041,18,31,59,8,16,33,0.11069174,0.20429304,0.42540330,0.14037796,0.20382628,0.32163144
20003,0,USKansasAnderson,Kansas,Anderson,2021-01-05 23:03:15.163702,2020-04-03 00:00:00.000000,0.24664667,0.41694562,0.75364786,19,32,59,9,16,34,0.11944230,0.21438813,0.43913945,0.13948234,0.20037541,0.31288293
20003,0,USKansasAnderson,Kansas,Anderson,2021-01-05 23:03:15.163702,2020-04-04 00:00:00.000000,0.25818914,0.43593252,0.74548057,20,34,58,10,17,35,0.12830134,0.22267223,0.45057395,0.13235296,0.18569044,0.29280063
20003,0,USKansasAnderson,Kansas,Anderson,2021-01-05 23:03:15.163702,2020-04-05 00:00:00.000000,0.26427964,0.44906000,0.74549333,20,35,58,10,18,35,0.13611199,0.23455813,0.45652748,0.12602733,0.17047242,0.28397724
20003,0,USKansasAnderson,Kansas,Anderson,2021-01-05 23:03:15.163702,2020-04-06 00:00:00.000000,0.25564551,0.43895650,0.75730475,20,34,59,11,18,35,0.14114739,0.24163065,0.45322334,0.12102672,0.16473082,0.27962432
20003,0,USKansasAnderson,Kansas,Anderson,2021-01-05 23:03:15.163702,2020-04-07 00:00:00.000000,0.24586664,0.43152103,0.76801024,19,33,60,11,19,35,0.14109536,0.24394226,0.44792489,0.11226699,0.15957977,0.24452422
20003,0,USKansasAnderson,Kansas,Anderson,2021-01-05 23:03:15.163702,2020-04-08 00:00:00.000000,0.23554171,0.42446318,0.77376066,18,33,60,10,19,34,0.13345791,0.24281837,0.44123725,0.10531212,0.15481042,0.23195810
20003,0,USKansasAnderson,Kansas,Anderson,2021-01-05 23:03:15.163702,2020-04-09 00:00:00.000000,0.22664278,0.41187839,0.75749271,17,32,59,10,18,34,0.13420735,0.24135434,0.44530059,0.09343463,0.15192124,0.22452353
20003,0,USKansasAnderson,Kansas,Anderson,2021-01-05 23:03:15.163702,2020-04-10 00:00:00.000000,0.22865715,0.39692575,0.73752538,17,31,57,10,18,35,0.13266028,0.23842735,0.45410716,0.08567527,0.14776881,0.21976492
20003,0,USKansasAnderson,Kansas,Anderson,2021-01-05 23:03:15.163702,2020-04-11 00:00:00.000000,0.23050584,0.38163789,0.71308957,18,29,56,10,18,35,0.13343072,0.23426413,0.44842965,0.08311036,0.14287230,0.21062420
20003,0,USKansasAnderson,Kansas,Anderson,2021-01-05 23:03:15.163702,2020-04-12 00:00:00.000000,0.22910220,0.36603473,0.68745748,18,28,54,10,18,34,0.12889919,0.22948549,0.43789591,0.08165565,0.14003816,0.20775608
20003,0,USKansasAnderson,Kansas,Anderson,2021-01-05 23:03:15.163702,2020-04-13 00:00:00.000000,0.21955474,0.35521244,0.67418628,17,27,52,9,17,33,0.12420903,0.22269463,0.42783272,0.08026228,0.13569711,0.20269740
20003,0,USKansasAnderson,Kansas,Anderson,2021-01-05 23:03:15.163702,2020-04-14 00:00:00.000000,0.20315873,0.34293444,0.65620618,15,26,51,9,16,33,0.11944685,0.21426149,0.42353388,0.08057805,0.13242825,0.19802881
20003,0,USKansasAnderson,Kansas,Anderson,2021-01-05 23:03:15.163702,2020-04-15 00:00:00.000000,0.18794830,0.33357534,0.62914541,14,26,49,9,16,32,0.11464203,0.20778769,0.41822088,0.08225479,0.12992550,0.19484189
20003,0,USKansasAnderson,Kansas,Anderson,2021-01-05 23:03:15.163702,2020-04-16 00:00:00.000000,0.17402084,0.32434280,0.60181630,13,25,47,8,15,31,0.10823686,0.20236139,0.40413772,0.08120316,0.12402267,0.19240978
20003,0,USKansasAnderson,Kansas,Anderson,2021-01-05 23:03:15.163702,2020-04-17 00:00:00.000000,0.16122972,0.31511903,0.57483152,12,24,45,7,15,30,0.10038373,0.19900992,0.38881046,0.07801721,0.12041636,0.19121305
20003,0,USKansasAnderson,Kansas,Anderson,2021-01-05 23:03:15.163702,2020-04-18 00:00:00.000000,0.14940105,0.30234517,0.54853189,11,23,43,7,15,29,0.09306639,0.19386767,0.37314492,0.07549819,0.11450905,0.18856161
20003,0,USKansasAnderson,Kansas,Anderson,2021-01-05 23:03:15.163702,2020-04-19 00:00:00.000000,0.13843917,0.28978214,0.53256454,10,22,41,6,14,28,0.08626750,0.18768260,0.35742345,0.07175635,0.10763265,0.18541171
20003,0,USKansasAnderson,Kansas,Anderson,2021-01-05 23:03:15.163702,2020-04-20 00:00:00.000000,0.12827942,0.27769498,0.52122377,10,21,40,6,14,26,0.07995649,0.18094029,0.34185953,0.07006491,0.10521609,0.18411325
20003,0,USKansasAnderson,Kansas,Anderson,2021-01-05 23:03:15.163702,2020-04-21 00:00:00.000000,0.11887813,0.26697660,0.50993170,9,20,40,5,13,25,0.07410160,0.17505317,0.32659905,0.06880182,0.10390603,0.18816179
20003,0,USKansasAnderson,Kansas,Anderson,2021-01-05 23:03:15.163702,2020-04-22 00:00:00.000000,0.11027593,0.25440579,0.49875476,8,19,39,5,13,24,0.06867488,0.16937699,0.31287143,0.06777822,0.10352285,0.18772958
20003,0,USKansasAnderson,Kansas,Anderson,2021-01-05 23:03:15.163702,2020-04-23 00:00:00.000000,0.10255066,0.24177612,0.48773097,8,18,38,5,12,24,0.06366660,0.16296221,0.30609175,0.06640034,0.10187705,0.18736079
20003,0,USKansasAnderson,Kansas,Anderson,2021-01-05 23:03:15.163702,2020-04-24 00:00:00.000000,0.09546377,0.23216438,0.47688227,7,18,37,4,12,23,0.05908593,0.15666172,0.29998426,0.06490275,0.10198836,0.18688139
20003,0,USKansasAnderson,Kansas,Anderson,2021-01-05 23:03:15.163702,2020-04-25 00:00:00.000000,0.08890244,0.22034464,0.46621768,6,17,36,4,11,23,0.05489341,0.15155705,0.29383209,0.06223075,0.10159940,0.18425991
20003,0,USKansasAnderson,Kansas,Anderson,2021-01-05 23:03:15.163702,2020-04-26 00:00:00.000000,0.08281288,0.21088108,0.45573099,6,16,35,4,11,22,0.05104139,0.14435952,0.28767655,0.06114573,0.10223739,0.18619406
20003,0,USKansasAnderson,Kansas,Anderson,2021-01-05 23:03:15.163702,2020-04-27 00:00:00.000000,0.09007061,0.22538581,0.45694446,7,17,35,3,10,22,0.04748961,0.13686713,0.28154607,0.05935356,0.10249746,0.18649053
20003,0,USKansasAnderson,Kansas,Anderson,2021-01-05 23:03:15.163702,2020-04-28 00:00:00.000000,0.09788231,0.24100178,0.45841659,7,18,36,3,10,21,0.04670299,0.13430881,0.27737118,0.05972025,0.10222488,0.18652237
20003,0,USKansasAnderson,Kansas,Anderson,2021-01-05 23:03:15.163702,2020-04-29 00:00:00.000000,0.10604914,0.24888809,0.46555245,8,19,36,4,10,21,0.05124918,0.13673630,0.27465796,0.05844283,0.10073225,0.18645607
20003,0,USKansasAnderson,Kansas,Anderson,2021-01-05 23:03:15.163702,2020-04-30 00:00:00.000000,0.11441641,0.25760415,0.49252237,8,20,38,4,11,21,0.06086928,0.14676342,0.27306820,0.05382052,0.09917205,0.18621312
20003,0,USKansasAnderson,Kansas,Anderson,2021-01-05 23:03:15.163702,2020-05-01 00:00:00.000000,0.11748852,0.26028845,0.54612329,9,20,42,5,11,21,0.06363659,0.14995036,0.27716647,0.05384214,0.09781352,0.18566997
20003,0,USKansasAnderson,Kansas,Anderson,2021-01-05 23:03:15.163702,2020-05-02 00:00:00.000000,0.11733352,0.26750825,0.55984019,9,21,43,5,12,23,0.06660152,0.15303582,0.29275084,0.05109188,0.09602669,0.17427521
20003,0,USKansasAnderson,Kansas,Anderson,2021-01-05 23:03:15.163702,2020-05-03 00:00:00.000000,0.11873399,0.27788636,0.55912692,9,21,43,5,12,23,0.06956796,0.15658906,0.30094357,0.05104071,0.09340747,0.16760419
20003,0,USKansasAnderson,Kansas,Anderson,2021-01-05 23:03:15.163702,2020-05-04 00:00:00.000000,0.13334629,0.28319095,0.56392255,10,22,44,5,12,24,0.07243070,0.15740750,0.31456883,0.05103370,0.09012485,0.16301463
20003,0,USKansasAnderson,Kansas,Anderson,2021-01-05 23:03:15.163702,2020-05-05 00:00:00.000000,0.14191525,0.28765984,0.56845542,11,22,44,6,12,25,0.07648472,0.15870003,0.33019070,0.05106587,0.08759528,0.15813852
20003,0,USKansasAnderson,Kansas,Anderson,2021-01-05 23:03:15.163702,2020-05-06 00:00:00.000000,0.15302176,0.29113431,0.57304339,12,22,45,6,12,26,0.07795612,0.16112704,0.33844670,0.05119655,0.08719558,0.15796250
20003,0,USKansasAnderson,Kansas,Anderson,2021-01-05 23:03:15.163702,2020-05-07 00:00:00.000000,0.16146606,0.29926944,0.57790435,12,23,45,6,12,26,0.08740938,0.16163849,0.34145228,0.04952867,0.08882012,0.15788753
20003,0,USKansasAnderson,Kansas,Anderson,2021-01-05 23:03:15.163702,2020-05-08 00:00:00.000000,0.16854999,0.30910799,0.58347169,13,24,45,7,13,26,0.09153872,0.16716914,0.34163193,0.04615500,0.08855053,0.15717652
20003,0,USKansasAnderson,Kansas,Anderson,2021-01-05 23:03:15.163702,2020-05-09 00:00:00.000000,0.16951050,0.31471634,0.58999700,13,24,46,7,13,26,0.09426752,0.17030931,0.33931442,0.04519427,0.08911309,0.15451715
20003,0,USKansasAnderson,Kansas,Anderson,2021-01-05 23:03:15.163702,2020-05-10 00:00:00.000000,0.16900743,0.31700938,0.60008874,13,24,47,7,13,26,0.09802417,0.17656322,0.33545564,0.04515886,0.08979170,0.15850725
20003,0,USKansasAnderson,Kansas,Anderson,2021-01-05 23:03:15.163702,2020-05-11 00:00:00.000000,0.16065352,0.30315277,0.58772313,12,23,46,7,14,25,0.10045155,0.17860974,0.33058727,0.04551670,0.08776264,0.14908127
20003,0,USKansasAnderson,Kansas,Anderson,2021-01-05 23:03:15.163702,2020-05-12 00:00:00.000000,0.15239469,0.28998608,0.57524391,11,22,45,7,13,26,0.09836553,0.17491063,0.33132951,0.04561145,0.08693006,0.14157989
20003,0,USKansasAnderson,Kansas,Anderson,2021-01-05 23:03:15.163702,2020-05-13 00:00:00.000000,0.14412025,0.27628824,0.56282937,11,21,44,7,13,26,0.09514721,0.17214287,0.33201249,0.04404449,0.08606348,0.14053307
20003,0,USKansasAnderson,Kansas,Anderson,2021-01-05 23:03:15.163702,2020-05-14 00:00:00.000000,0.13600626,0.26288914,0.54961031,10,20,43,7,13,25,0.09125307,0.16828616,0.32996354,0.04272117,0.08620217,0.13942896
20003,0,USKansasAnderson,Kansas,Anderson,2021-01-05 23:03:15.163702,2020-05-15 00:00:00.000000,0.12814736,0.24825114,0.53451354,10,19,42,6,12,25,0.08699162,0.16292627,0.32562788,0.04199323,0.08552243,0.14213614
20003,0,USKansasAnderson,Kansas,Anderson,2021-01-05 23:03:15.163702,2020-05-16 00:00:00.000000,0.11673098,0.23417764,0.50604509,9,18,39,6,12,25,0.08256954,0.15490454,0.31938285,0.03851819,0.08287455,0.14636419
20003,0,USKansasAnderson,Kansas,Anderson,2021-01-05 23:03:15.163702,2020-05-17 00:00:00.000000,0.10525341,0.22159102,0.48247420,8,17,37,6,11,24,0.07815147,0.14770631,0.31164802,0.03604479,0.08248106,0.14829036
20003,0,USKansasAnderson,Kansas,Anderson,2021-01-05 23:03:15.163702,2020-05-18 00:00:00.000000,0.09471972,0.20916302,0.46272985,7,16,36,5,10,23,0.07206887,0.13920755,0.30276558,0.03327048,0.08288364,0.14057551
20003,0,USKansasAnderson,Kansas,Anderson,2021-01-05 23:03:15.163702,2020-05-19 00:00:00.000000,0.08781039,0.19714114,0.44332350,6,15,34,5,10,23,0.06660151,0.13080658,0.29318831,0.03221251,0.08450135,0.13626597
20003,0,USKansasAnderson,Kansas,Anderson,2021-01-05 23:03:15.163702,2020-05-20 00:00:00.000000,0.08244842,0.18558101,0.42696230,6,14,33,4,9,22,0.06290767,0.12133102,0.28317924,0.03185966,0.08234452,0.13502080
20003,0,USKansasAnderson,Kansas,Anderson,2021-01-05 23:03:15.163702,2020-05-21 00:00:00.000000,0.07743931,0.17362326,0.41152185,6,13,32,4,9,21,0.05936687,0.11561817,0.27292035,0.03168151,0.07964176,0.13592075
20003,0,USKansasAnderson,Kansas,Anderson,2021-01-05 23:03:15.163702,2020-05-22 00:00:00.000000,0.07270818,0.16074929,0.39583406,5,12,31,4,8,20,0.05596113,0.10829294,0.26252052,0.03148826,0.07920166,0.13603617
20003,0,USKansasAnderson,Kansas,Anderson,2021-01-05 23:03:15.163702,2020-05-23 00:00:00.000000,0.06824761,0.14994792,0.37850837,5,11,29,4,7,19,0.05270244,0.10029148,0.25200678,0.03119593,0.07778890,0.13095943
20003,0,USKansasAnderson,Kansas,Anderson,2021-01-05 23:03:15.163702,2020-05-24 00:00:00.000000,0.06404826,0.14107989,0.36494721,5,11,28,3,7,19,0.04864625,0.09280388,0.24387543,0.03075425,0.07700902,0.13342544
20003,0,USKansasAnderson,Kansas,Anderson,2021-01-05 23:03:15.163702,2020-05-25 00:00:00.000000,0.06009897,0.13272462,0.34996875,4,10,27,3,6,18,0.04454214,0.08645922,0.23902404,0.03015548,0.07708817,0.13422795
20003,0,USKansasAnderson,Kansas,Anderson,2021-01-05 23:03:15.163702,2020-05-26 00:00:00.000000,0.05638735,0.12396662,0.33535801,4,9,26,3,6,17,0.04075801,0.08049617,0.22816594,0.02946299,0.07686458,0.13455723
20003,0,USKansasAnderson,Kansas,Anderson,2021-01-05 23:03:15.163702,2020-05-27 00:00:00.000000,0.05250313,0.11664589,0.32127523,4,9,25,2,5,17,0.03727993,0.07553081,0.21694962,0.02879357,0.07721554,0.13482473
20003,0,USKansasAnderson,Kansas,Anderson,2021-01-05 23:03:15.163702,2020-05-28 00:00:00.000000,0.04797639,0.10976368,0.30615547,3,8,24,2,5,16,0.03409019,0.07121541,0.20604528,0.02823550,0.07677846,0.13518224
20003,0,USKansasAnderson,Kansas,Anderson,2021-01-05 23:03:15.163702,2020-05-29 00:00:00.000000,0.04384092,0.10330060,0.28999013,3,8,22,2,5,15,0.03112964,0.06714206,0.19552297,0.02776109,0.07477218,0.13571011
20003,0,USKansasAnderson,Kansas,Anderson,2021-01-05 23:03:15.163702,2020-05-30 00:00:00.000000,0.04006238,0.09684224,0.27434287,3,7,21,2,4,14,0.02824353,0.06335841,0.18540618,0.02760958,0.07331582,0.13640943
20003,0,USKansasAnderson,Kansas,Anderson,2021-01-05 23:03:15.163702,2020-05-31 00:00:00.000000,0.03661076,0.09031116,0.26215216,2,7,20,2,4,13,0.02560021,0.06004645,0.17565578,0.02740356,0.07457358,0.13682078
20003,0,USKansasAnderson,Kansas,Anderson,2021-01-05 23:03:15.163702,2020-06-01 00:00:00.000000,0.04135853,0.10062417,0.27105774,3,7,21,1,4,13,0.02357306,0.05692197,0.16612611,0.02696808,0.07434636,0.13446614
20003,0,USKansasAnderson,Kansas,Anderson,2021-01-05 23:03:15.163702,2020-06-02 00:00:00.000000,0.04617205,0.11250022,0.27892691,3,8,21,1,4,12,0.02462797,0.05697218,0.15918445,0.02670095,0.07275675,0.12869902
20003,0,USKansasAnderson,Kansas,Anderson,2021-01-05 23:03:15.163702,2020-06-03 00:00:00.000000,0.05135689,0.12600186,0.29140516,4,9,22,2,4,12,0.02600658,0.05900150,0.16054366,0.02651875,0.07338470,0.12730042
20003,0,USKansasAnderson,Kansas,Anderson,2021-01-05 23:03:15.163702,2020-06-04 00:00:00.000000,0.05672713,0.14277619,0.32453326,4,11,25,2,5,13,0.02618982,0.06544962,0.17130822,0.02643816,0.07304308,0.12741806
20003,0,USKansasAnderson,Kansas,Anderson,2021-01-05 23:03:15.163702,2020-06-05 00:00:00.000000,0.06201781,0.15716988,0.35213805,4,12,27,2,5,13,0.02921052,0.06887981,0.17573134,0.02638235,0.07415367,0.12809702
20003,0,USKansasAnderson,Kansas,Anderson,2021-01-05 23:03:15.163702,2020-06-06 00:00:00.000000,0.06712722,0.16847200,0.39313839,5,13,30,2,5,14,0.03328026,0.07546844,0.18048148,0.02632365,0.07453351,0.12857789
20003,0,USKansasAnderson,Kansas,Anderson,2021-01-05 23:03:15.163702,2020-06-07 00:00:00.000000,0.07024484,0.18398980,0.42774762,5,14,33,2,6,14,0.03623067,0.08195338,0.18930019,0.02618170,0.07462999,0.12886583
20003,0,USKansasAnderson,Kansas,Anderson,2021-01-05 23:03:15.163702,2020-06-08 00:00:00.000000,0.09359568,0.19761954,0.43487032,7,15,34,3,7,16,0.03920726,0.08975043,0.21377616,0.02526602,0.07464347,0.12901867
20003,0,USKansasAnderson,Kansas,Anderson,2021-01-05 23:03:15.163702,2020-06-09 00:00:00.000000,0.10390475,0.20808804,0.43562194,8,16,34,3,7,18,0.04375090,0.09823754,0.23479935,0.02173705,0.07288652,0.12908278
20003,0,USKansasAnderson,Kansas,Anderson,2021-01-05 23:03:15.163702,2020-06-10 00:00:00.000000,0.11055199,0.22145419,0.43915727,8,17,34,4,8,19,0.05160088,0.10762050,0.24868249,0.02209390,0.07293572,0.12912368
20003,0,USKansasAnderson,Kansas,Anderson,2021-01-05 23:03:15.163702,2020-06-11 00:00:00.000000,0.11717762,0.23430011,0.44330087,9,18,34,4,8,20,0.05668018,0.11348337,0.25657303,0.02325836,0.07229194,0.12905046
20003,0,USKansasAnderson,Kansas,Anderson,2021-01-05 23:03:15.163702,2020-06-12 00:00:00.000000,0.12537203,0.24683577,0.48684935,9,19,38,4,9,20,0.06021444,0.11859654,0.26098644,0.02549511,0.07128701,0.12681685
20003,0,USKansasAnderson,Kansas,Anderson,2021-01-05 23:03:15.163702,2020-06-13 00:00:00.000000,0.12871529,0.25814458,0.50547781,10,20,39,5,9,20,0.06801775,0.12518827,0.26557462,0.02688648,0.07212112,0.12754182
20003,0,USKansasAnderson,Kansas,Anderson,2021-01-05 23:03:15.163702,2020-06-14 00:00:00.000000,0.13426903,0.27025623,0.50611157,10,21,39,5,10,21,0.07159280,0.13273063,0.26887092,0.02603698,0.07228069,0.12880869
20003,0,USKansasAnderson,Kansas,Anderson,2021-01-05 23:03:15.163702,2020-06-15 00:00:00.000000,0.14469108,0.27839898,0.50948585,11,21,40,5,10,21,0.07058650,0.13833497,0.27220311,0.02166111,0.07277037,0.12682343
20003,0,USKansasAnderson,Kansas,Anderson,2021-01-05 23:03:15.163702,2020-06-16 00:00:00.000000,0.15519537,0.28841895,0.53942855,12,22,42,6,11,22,0.07760827,0.14527243,0.28734522,0.01858538,0.07223627,0.12681765
20003,0,USKansasAnderson,Kansas,Anderson,2021-01-05 23:03:15.163702,2020-06-17 00:00:00.000000,0.16498815,0.29783681,0.56199898,12,23,44,6,12,22,0.08120459,0.15440110,0.29120603,0.01801279,0.07165358,0.12683205
20003,0,USKansasAnderson,Kansas,Anderson,2021-01-05 23:03:15.163702,2020-06-18 00:00:00.000000,0.17096656,0.30876200,0.56911118,13,24,44,6,12,23,0.08517527,0.16070401,0.30056218,0.01799215,0.07249017,0.12687685
20003,0,USKansasAnderson,Kansas,Anderson,2021-01-05 23:03:15.163702,2020-06-19 00:00:00.000000,0.17455525,0.31544531,0.57540742,13,24,45,7,13,23,0.08934261,0.16574660,0.29989582,0.01813972,0.07156164,0.12984487
20003,0,USKansasAnderson,Kansas,Anderson,2021-01-05 23:03:15.163702,2020-06-20 00:00:00.000000,0.17722382,0.32202535,0.58195555,13,25,45,7,13,23,0.09358058,0.17031771,0.30250916,0.01850954,0.07254739,0.13279434
20003,0,USKansasAnderson,Kansas,Anderson,2021-01-05 23:03:15.163702,2020-06-21 00:00:00.000000,0.18239820,0.32719624,0.64057724,14,25,50,7,13,24,0.09779694,0.17569655,0.31029928,0.01922989,0.07368513,0.13417561
20003,0,USKansasAnderson,Kansas,Anderson,2021-01-05 23:03:15.163702,2020-06-22 00:00:00.000000,0.19190895,0.34272054,0.65796387,15,26,51,8,14,25,0.10191203,0.17932915,0.32179253,0.02062317,0.07392492,0.13694653
20003,0,USKansasAnderson,Kansas,Anderson,2021-01-05 23:03:15.163702,2020-06-23 00:00:00.000000,0.19249113,0.34982196,0.67304358,15,27,52,8,14,27,0.10552574,0.18410325,0.34781918,0.02203485,0.07291275,0.13684528
20003,0,USKansasAnderson,Kansas,Anderson,2021-01-05 23:03:15.163702,2020-06-24 00:00:00.000000,0.19593563,0.35633537,0.65846288,15,28,51,8,14,28,0.10868287,0.19082127,0.36699432,0.02295544,0.07381720,0.13562987
20003,0,USKansasAnderson,Kansas,Anderson,2021-01-05 23:03:15.163702,2020-06-25 00:00:00.000000,0.19904568,0.36186814,0.63924002,15,28,50,8,15,29,0.11144990,0.19720243,0.37442443,0.02355771,0.07430688,0.13546127
20003,0,USKansasAnderson,Kansas,Anderson,2021-01-05 23:03:15.163702,2020-06-26 00:00:00.000000,0.20187566,0.36776532,0.62996244,15,28,49,8,15,28,0.11332767,0.20156914,0.36802019,0.02427324,0.07388100,0.13535310
20003,0,USKansasAnderson,Kansas,Anderson,2021-01-05 23:03:15.163702,2020-06-27 00:00:00.000000,0.20413184,0.38062125,0.63890621,16,29,50,8,16,28,0.11152670,0.20485225,0.36016123,0.02552924,0.07311585,0.13513949
20003,0,USKansasAnderson,Kansas,Anderson,2021-01-05 23:03:15.163702,2020-06-28 00:00:00.000000,0.20339962,0.38624493,0.64775810,15,30,50,8,16,27,0.10986420,0.20468733,0.35136994,0.02577187,0.07198000,0.13470050
20003,0,USKansasAnderson,Kansas,Anderson,2021-01-05 23:03:15.163702,2020-06-29 00:00:00.000000,0.20604827,0.39306247,0.73389218,16,30,57,8,16,28,0.10830955,0.21329071,0.35868884,0.02309985,0.07194410,0.13377375
20003,0,USKansasAnderson,Kansas,Anderson,2021-01-05 23:03:15.163702,2020-06-30 00:00:00.000000,0.21034411,0.41161124,0.71934118,16,32,56,8,17,30,0.11140550,0.22011761,0.38460772,0.02170988,0.07225954,0.13198503
20003,0,USKansasAnderson,Kansas,Anderson,2021-01-05 23:03:15.163702,2020-07-01 00:00:00.000000,0.20896862,0.42122396,0.75879111,16,33,59,9,18,32,0.11651062,0.23214650,0.41055887,0.02227051,0.07260239,0.13310965
20003,0,USKansasAnderson,Kansas,Anderson,2021-01-05 23:03:15.163702,2020-07-02 00:00:00.000000,0.20742209,0.43985717,0.79060633,16,34,62,9,18,34,0.11526555,0.23860259,0.43593047,0.02394363,0.07197702,0.13415448
20003,0,USKansasAnderson,Kansas,Anderson,2021-01-05 23:03:15.163702,2020-07-03 00:00:00.000000,0.20618567,0.46123949,0.83485130,16,36,65,9,19,34,0.12036838,0.25005256,0.43835284,0.02580097,0.07322588,0.13503543
20003,0,USKansasAnderson,Kansas,Anderson,2021-01-05 23:03:15.163702,2020-07-04 00:00:00.000000,0.20379280,0.48573300,0.87047967,16,38,68,9,20,36,0.11983333,0.25992108,0.46056714,0.02748709,0.07486946,0.13620828
20003,0,USKansasAnderson,Kansas,Anderson,2021-01-05 23:03:15.163702,2020-07-05 00:00:00.000000,0.19636673,0.49202102,0.90335206,15,38,70,9,21,36,0.11901991,0.26866610,0.46755982,0.02898218,0.07437174,0.13750655
20003,0,USKansasAnderson,Kansas,Anderson,2021-01-05 23:03:15.163702,2020-07-06 00:00:00.000000,0.22967644,0.50301546,0.89945089,18,39,70,9,21,40,0.11814070,0.27467866,0.51067600,0.02894438,0.07503621,0.13701322
20003,0,USKansasAnderson,Kansas,Anderson,2021-01-05 23:03:15.163702,2020-07-07 00:00:00.000000,0.25876507,0.51143818,0.89275546,20,40,70,9,22,41,0.12486031,0.29099647,0.53374896,0.02892272,0.07434522,0.13565637
20003,0,USKansasAnderson,Kansas,Anderson,2021-01-05 23:03:15.163702,2020-07-08 00:00:00.000000,0.26299989,0.52632818,0.90012213,20,41,70,11,23,42,0.14068246,0.29945573,0.54310627,0.02891528,0.07555193,0.13489152
20003,0,USKansasAnderson,Kansas,Anderson,2021-01-05 23:03:15.163702,2020-07-09 00:00:00.000000,0.26737156,0.53067817,0.94460845,21,41,74,11,24,42,0.14050301,0.30758708,0.54312239,0.02894563,0.07671086,0.13454768
20003,0,USKansasAnderson,Kansas,Anderson,2021-01-05 23:03:15.163702,2020-07-10 00:00:00.000000,0.26194666,0.54662692,0.94278160,20,42,74,11,24,42,0.14202819,0.30907863,0.53686807,0.02866526,0.07833992,0.13471529
20003,0,USKansasAnderson,Kansas,Anderson,2021-01-05 23:03:15.163702,2020-07-11 00:00:00.000000,0.25664939,0.54742802,1.00508307,20,43,78,10,24,41,0.13992064,0.31252653,0.52655649,0.02693563,0.07914984,0.13587173
20003,0,USKansasAnderson,Kansas,Anderson,2021-01-05 23:03:15.163702,2020-07-12 00:00:00.000000,0.25166110,0.54657232,1.08481203,19,42,85,10,24,42,0.13799652,0.31555092,0.53619719,0.02606940,0.07957430,0.13580493
20003,0,USKansasAnderson,Kansas,Anderson,2021-01-05 23:03:15.163702,2020-07-13 00:00:00.000000,0.26094234,0.55063950,1.05513175,20,43,82,10,24,42,0.13916319,0.31402163,0.53812540,0.02570990,0.07956008,0.13358659
20003,0,USKansasAnderson,Kansas,Anderson,2021-01-05 23:03:15.163702,2020-07-14 00:00:00.000000,0.28899867,0.55451114,1.02175104,22,43,80,11,24,42,0.15190903,0.31668700,0.54496113,0.02559201,0.07987984,0.13020560
20003,0,USKansasAnderson,Kansas,Anderson,2021-01-05 23:03:15.163702,2020-07-15 00:00:00.000000,0.29955884,0.56034387,0.98390207,23,44,77,12,24,43,0.16170070,0.31188975,0.55785480,0.02562540,0.08052253,0.12825062
20003,0,USKansasAnderson,Kansas,Anderson,2021-01-05 23:03:15.163702,2020-07-16 00:00:00.000000,0.30234183,0.54866110,0.95553614,23,43,75,12,24,44,0.16172554,0.31379179,0.56200969,0.02589037,0.08108917,0.13019519
20003,0,USKansasAnderson,Kansas,Anderson,2021-01-05 23:03:15.163702,2020-07-17 00:00:00.000000,0.29652721,0.54596072,0.92896112,23,42,72,12,24,44,0.16141213,0.31301465,0.56000764,0.02987861,0.08317340,0.12736462
20003,0,USKansasAnderson,Kansas,Anderson,2021-01-05 23:03:15.163702,2020-07-18 00:00:00.000000,0.29543989,0.54477256,0.90092541,23,42,70,12,24,43,0.16261387,0.31418782,0.55365857,0.03523461,0.08310632,0.13115065
20003,0,USKansasAnderson,Kansas,Anderson,2021-01-05 23:03:15.163702,2020-07-19 00:00:00.000000,0.29449012,0.53908493,0.87211895,23,42,68,13,24,42,0.16984119,0.31411239,0.54422312,0.03880690,0.08393376,0.13701923
20003,0,USKansasAnderson,Kansas,Anderson,2021-01-05 23:03:15.163702,2020-07-20 00:00:00.000000,0.29400612,0.52781806,0.85789871,23,41,67,13,24,41,0.16780442,0.31145280,0.53276665,0.04034929,0.08527213,0.13821745
20003,0,USKansasAnderson,Kansas,Anderson,2021-01-05 23:03:15.163702,2020-07-21 00:00:00.000000,0.28633874,0.53241728,0.87973917,22,41,69,12,24,41,0.16299532,0.30981495,0.52233534,0.04051805,0.08680557,0.13782291
20003,0,USKansasAnderson,Kansas,Anderson,2021-01-05 23:03:15.163702,2020-07-22 00:00:00.000000,0.27905634,0.52364816,0.92353333,21,41,72,13,24,39,0.16607230,0.30697495,0.50583113,0.04114433,0.08775453,0.13751394
20003,0,USKansasAnderson,Kansas,Anderson,2021-01-05 23:03:15.163702,2020-07-23 00:00:00.000000,0.28397145,0.50990145,0.92698307,22,40,72,13,23,38,0.16700271,0.30356007,0.48627092,0.04255581,0.08825527,0.13604521
20003,0,USKansasAnderson,Kansas,Anderson,2021-01-05 23:03:15.163702,2020-07-24 00:00:00.000000,0.28158834,0.51094613,0.89934823,22,40,70,12,23,36,0.16211714,0.29988450,0.46799886,0.04420143,0.08829382,0.13995142
20003,0,USKansasAnderson,Kansas,Anderson,2021-01-05 23:03:15.163702,2020-07-25 00:00:00.000000,0.27799563,0.51874246,0.87280634,21,40,68,12,23,36,0.16210626,0.29735717,0.46749888,0.04645503,0.09024881,0.14503062
20003,0,USKansasAnderson,Kansas,Anderson,2021-01-05 23:03:15.163702,2020-07-26 00:00:00.000000,0.26559201,0.51271717,0.84725895,20,40,66,12,23,37,0.16424794,0.29706640,0.48200799,0.04723232,0.08981622,0.14992184
20003,0,USKansasAnderson,Kansas,Anderson,2021-01-05 23:03:15.163702,2020-07-27 00:00:00.000000,0.29050361,0.51749819,0.84378435,22,40,66,12,23,36,0.16042155,0.29802425,0.47070425,0.04622289,0.09078615,0.15380830
20003,0,USKansasAnderson,Kansas,Anderson,2021-01-05 23:03:15.163702,2020-07-28 00:00:00.000000,0.30166704,0.52075912,0.84125361,23,40,66,12,23,36,0.15794174,0.29641512,0.46066629,0.04533522,0.09103596,0.15647934
20003,0,USKansasAnderson,Kansas,Anderson,2021-01-05 23:03:15.163702,2020-07-29 00:00:00.000000,0.30710523,0.52069941,0.84806872,24,40,66,12,23,35,0.15871415,0.29338224,0.45341247,0.04562782,0.09284578,0.15811924
20003,0,USKansasAnderson,Kansas,Anderson,2021-01-05 23:03:15.163702,2020-07-30 00:00:00.000000,0.30582796,0.52312806,0.91033420,24,41,71,12,23,35,0.16439669,0.29495013,0.44832256,0.04670990,0.09540406,0.15875030
20003,0,USKansasAnderson,Kansas,Anderson,2021-01-05 23:03:15.163702,2020-07-31 00:00:00.000000,0.30018537,0.51171075,0.96922856,23,40,76,13,22,37,0.17542362,0.29232589,0.47658669,0.04863291,0.09863161,0.15917369
20003,0,USKansasAnderson,Kansas,Anderson,2021-01-05 23:03:15.163702,2020-08-01 00:00:00.000000,0.29406424,0.51169302,0.95713193,23,40,75,14,22,39,0.18215410,0.28765629,0.50644569,0.05077235,0.09902816,0.15823447
20003,0,USKansasAnderson,Kansas,Anderson,2021-01-05 23:03:15.163702,2020-08-02 00:00:00.000000,0.28904649,0.50212305,0.93729304,22,39,73,14,22,39,0.18398631,0.28830648,0.50505156,0.05228278,0.09901572,0.15463931
20003,0,USKansasAnderson,Kansas,Anderson,2021-01-05 23:03:15.163702,2020-08-03 00:00:00.000000,0.29486642,0.50550549,1.01276606,23,39,79,14,22,41,0.18300360,0.28540748,0.52810363,0.05318783,0.10288130,0.14632770
20003,0,USKansasAnderson,Kansas,Anderson,2021-01-05 23:03:15.163702,2020-08-04 00:00:00.000000,0.28877572,0.49851452,1.08932829,22,39,85,14,22,43,0.18304281,0.28737949,0.54791782,0.05396352,0.10435265,0.14506312
20003,0,USKansasAnderson,Kansas,Anderson,2021-01-05 23:03:15.163702,2020-08-05 00:00:00.000000,0.28303009,0.50043821,1.09208320,22,39,85,14,23,43,0.18324240,0.29373822,0.55964157,0.05510483,0.10757212,0.15744919
20003,0,USKansasAnderson,Kansas,Anderson,2021-01-05 23:03:15.163702,2020-08-06 00:00:00.000000,0.28519276,0.50545693,1.09174472,22,39,85,14,23,44,0.18376305,0.29301088,0.56569626,0.05698611,0.10806456,0.16433540
20003,0,USKansasAnderson,Kansas,Anderson,2021-01-05 23:03:15.163702,2020-08-07 00:00:00.000000,0.29119215,0.51014360,1.09010064,22,40,85,14,23,44,0.18449695,0.29649300,0.57126662,0.05743908,0.10915628,0.16726478
20003,0,USKansasAnderson,Kansas,Anderson,2021-01-05 23:03:15.163702,2020-08-08 00:00:00.000000,0.29077945,0.51650084,1.08620502,22,40,85,14,23,47,0.18550850,0.29834648,0.60385127,0.05765411,0.11405250,0.16876480
20003,0,USKansasAnderson,Kansas,Anderson,2021-01-05 23:03:15.163702,2020-08-09 00:00:00.000000,0.28815768,0.51873644,1.08288350,22,40,85,14,23,50,0.18219501,0.29737926,0.63910819,0.05778024,0.11612953,0.17241917
20003,0,USKansasAnderson,Kansas,Anderson,2021-01-05 23:03:15.163702,2020-08-10 00:00:00.000000,0.28889556,0.52757156,1.08282801,22,41,85,14,23,51,0.18465995,0.29698378,0.65066816,0.05915606,0.11808761,0.18045403
20003,0,USKansasAnderson,Kansas,Anderson,2021-01-05 23:03:15.163702,2020-08-11 00:00:00.000000,0.28979805,0.53792055,1.08504500,22,42,85,14,23,51,0.18373823,0.30379960,0.65336620,0.06598078,0.12092207,0.18435004
20003,0,USKansasAnderson,Kansas,Anderson,2021-01-05 23:03:15.163702,2020-08-12 00:00:00.000000,0.29091424,0.55471704,1.08814030,22,43,85,14,24,51,0.18273720,0.31201429,0.65567550,0.06586220,0.12499409,0.19113304
20003,0,USKansasAnderson,Kansas,Anderson,2021-01-05 23:03:15.163702,2020-08-13 00:00:00.000000,0.29647556,0.56613287,1.09143099,23,44,85,14,24,51,0.18314584,0.31495398,0.65754009,0.06479083,0.12422405,0.19726841
20003,0,USKansasAnderson,Kansas,Anderson,2021-01-05 23:03:15.163702,2020-08-14 00:00:00.000000,0.30347847,0.57260611,1.09474558,23,44,86,14,25,51,0.18319343,0.32279350,0.65947640,0.06463380,0.12923283,0.19875035
20003,0,USKansasAnderson,Kansas,Anderson,2021-01-05 23:03:15.163702,2020-08-15 00:00:00.000000,0.31043249,0.57872090,1.09818601,24,45,86,14,25,51,0.18324697,0.32618588,0.66147006,0.07177315,0.13319860,0.20038572
20003,0,USKansasAnderson,Kansas,Anderson,2021-01-05 23:03:15.163702,2020-08-16 00:00:00.000000,0.31774476,0.58608654,1.10501372,24,46,86,14,25,52,0.18040130,0.32962337,0.66352704,0.07393311,0.14145169,0.20669719
20003,0,USKansasAnderson,Kansas,Anderson,2021-01-05 23:03:15.163702,2020-08-17 00:00:00.000000,0.32086029,0.60086167,1.14339137,25,47,89,13,26,51,0.17812852,0.33905428,0.65872746,0.07670442,0.14626088,0.21428549
20003,0,USKansasAnderson,Kansas,Anderson,2021-01-05 23:03:15.163702,2020-08-18 00:00:00.000000,0.31769140,0.60316194,1.14728687,24,47,90,14,26,51,0.18339945,0.34204556,0.65474915,0.07846165,0.14884546,0.22193332
20003,0,USKansasAnderson,Kansas,Anderson,2021-01-05 23:03:15.163702,2020-08-19 00:00:00.000000,0.31439925,0.61422800,1.16477321,24,48,91,14,26,52,0.18236077,0.33953956,0.66955821,0.08121578,0.15088066,0.22663250
20003,0,USKansasAnderson,Kansas,Anderson,2021-01-05 23:03:15.163702,2020-08-20 00:00:00.000000,0.31120573,0.62620935,1.23677685,24,49,97,14,27,53,0.18099493,0.34590674,0.67596730,0.08339101,0.15227052,0.22860344
20003,0,USKansasAnderson,Kansas,Anderson,2021-01-05 23:03:15.163702,2020-08-21 00:00:00.000000,0.30911758,0.64145979,1.26137814,24,50,99,14,28,52,0.17943785,0.36157229,0.66751030,0.08703534,0.15951718,0.22901556
20003,0,USKansasAnderson,Kansas,Anderson,2021-01-05 23:03:15.163702,2020-08-22 00:00:00.000000,0.30730673,0.65510762,1.25583503,24,51,98,13,28,53,0.17778042,0.36757847,0.68064641,0.08721281,0.16239143,0.22905013
20003,0,USKansasAnderson,Kansas,Anderson,2021-01-05 23:03:15.163702,2020-08-23 00:00:00.000000,0.30729413,0.65913484,1.25054233,24,51,98,13,29,55,0.17581004,0.36911972,0.70423077,0.08731909,0.16517759,0.23380946
20003,0,USKansasAnderson,Kansas,Anderson,2021-01-05 23:03:15.163702,2020-08-24 00:00:00.000000,0.33073993,0.69122792,1.27763946,25,54,100,13,29,55,0.17584819,0.37119476,0.71077480,0.08737935,0.17188081,0.23855056
20003,0,USKansasAnderson,Kansas,Anderson,2021-01-05 23:03:15.163702,2020-08-25 00:00:00.000000,0.35160488,0.70926385,1.30462552,27,55,102,14,30,56,0.18239793,0.38264953,0.72352727,0.08742840,0.17378917,0.24144287
20003,0,USKansasAnderson,Kansas,Anderson,2021-01-05 23:03:15.163702,2020-08-26 00:00:00.000000,0.37112862,0.73204391,1.33223420,29,57,104,15,30,58,0.19445787,0.38837101,0.74006454,0.08752218,0.17565381,0.24311661
20003,0,USKansasAnderson,Kansas,Anderson,2021-01-05 23:03:15.163702,2020-08-27 00:00:00.000000,0.39285891,0.76591064,1.36050140,30,60,106,16,31,59,0.20607711,0.39993916,0.75873284,0.08778759,0.17820870,0.24546699
20003,0,USKansasAnderson,Kansas,Anderson,2021-01-05 23:03:15.163702,2020-08-28 00:00:00.000000,0.40173888,0.79482803,1.38939983,31,62,109,17,32,61,0.21792073,0.41732438,0.77854080,0.09944778,0.18141198,0.26082834
20003,0,USKansasAnderson,Kansas,Anderson,2021-01-05 23:03:15.163702,2020-08-29 00:00:00.000000,0.40906781,0.82242064,1.41902303,32,64,111,17,34,62,0.22580655,0.43472308,0.79948796,0.11399855,0.18712509,0.27779736
20003,0,USKansasAnderson,Kansas,Anderson,2021-01-05 23:03:15.163702,2020-08-30 00:00:00.000000,0.42922298,0.84765288,1.44950764,33,66,113,17,35,64,0.22888887,0.45069195,0.82239449,0.12051861,0.19707923,0.28922039
20003,0,USKansasAnderson,Kansas,Anderson,2021-01-05 23:03:15.163702,2020-08-31 00:00:00.000000,0.45365605,0.89215862,1.48706217,35,70,116,18,37,66,0.23420396,0.47244393,0.84760812,0.12036436,0.20384133,0.29537957
20003,0,USKansasAnderson,Kansas,Anderson,2021-01-05 23:03:15.163702,2020-09-01 00:00:00.000000,0.47112221,0.93630428,1.53523274,37,73,120,20,38,68,0.25478543,0.49286076,0.87424410,0.12523716,0.21214894,0.30578500
20003,0,USKansasAnderson,Kansas,Anderson,2021-01-05 23:03:15.163702,2020-09-02 00:00:00.000000,0.48359750,0.98578757,1.58296939,38,77,124,20,40,70,0.25846500,0.51267129,0.89144474,0.12718575,0.21599133,0.31252009
20003,0,USKansasAnderson,Kansas,Anderson,2021-01-05 23:03:15.163702,2020-09-03 00:00:00.000000,0.49879600,1.02606866,1.63054919,39,80,128,20,41,72,0.26717072,0.52339305,0.92126971,0.12725747,0.22597022,0.31636552
20003,0,USKansasAnderson,Kansas,Anderson,2021-01-05 23:03:15.163702,2020-09-04 00:00:00.000000,0.51521664,1.07349876,1.67814121,40,84,131,22,43,75,0.28623035,0.54742885,0.95634853,0.12735934,0.22821107,0.33025136
20003,0,USKansasAnderson,Kansas,Anderson,2021-01-05 23:03:15.163702,2020-09-05 00:00:00.000000,0.53213524,1.10937140,1.72584798,41,87,135,23,44,77,0.29498755,0.56747092,0.98953251,0.12838406,0.23160847,0.33427976
20003,0,USKansasAnderson,Kansas,Anderson,2021-01-05 23:03:15.163702,2020-09-06 00:00:00.000000,0.54927375,1.15499542,1.77375075,43,90,139,23,46,80,0.30379302,0.58954621,1.02157888,0.13903373,0.23411358,0.34220964
20003,0,USKansasAnderson,Kansas,Anderson,2021-01-05 23:03:15.163702,2020-09-07 00:00:00.000000,0.63895717,1.17602761,1.81645466,50,92,142,24,47,82,0.31274906,0.61025245,1.05298719,0.14499333,0.23636141,0.34866773
20003,0,USKansasAnderson,Kansas,Anderson,2021-01-05 23:03:15.163702,2020-09-08 00:00:00.000000,0.72013316,1.23129383,1.85962213,56,96,146,26,50,85,0.34212678,0.63704166,1.08251879,0.14542641,0.24200164,0.35335690
20003,0,USKansasAnderson,Kansas,Anderson,2021-01-05 23:03:15.163702,2020-09-09 00:00:00.000000,0.83469041,1.30075481,1.90331099,65,102,149,30,52,87,0.38481155,0.66239884,1.11094592,0.14833125,0.24792539,0.35797303
20003,0,USKansasAnderson,Kansas,Anderson,2021-01-05 23:03:15.163702,2020-09-10 00:00:00.000000,0.90166874,1.36604347,2.01149985,70,107,158,33,54,89,0.43222153,0.69021236,1.13881666,0.15038253,0.25300874,0.36306717
20003,0,USKansasAnderson,Kansas,Anderson,2021-01-05 23:03:15.163702,2020-09-11 00:00:00.000000,0.96677123,1.42549028,2.13410611,75,112,167,36,57,91,0.46936027,0.72684154,1.16655659,0.15445827,0.25432320,0.36870014
20003,0,USKansasAnderson,Kansas,Anderson,2021-01-05 23:03:15.163702,2020-09-12 00:00:00.000000,0.98969737,1.49493773,2.25811851,77,117,177,40,59,93,0.50904885,0.75203867,1.19451132,0.16089973,0.26087185,0.37463424
20003,0,USKansasAnderson,Kansas,Anderson,2021-01-05 23:03:15.163702,2020-09-13 00:00:00.000000,1.01476291,1.55739131,2.35602107,79,122,185,43,61,97,0.55020130,0.78645609,1.23856163,0.16862190,0.26377871,0.38026773
20003,0,USKansasAnderson,Kansas,Anderson,2021-01-05 23:03:15.163702,2020-09-14 00:00:00.000000,1.14107191,1.62541547,2.42371139,89,127,190,45,65,100,0.57399501,0.83706001,1.27873683,0.17747511,0.26833166,0.38429492
20003,0,USKansasAnderson,Kansas,Anderson,2021-01-05 23:03:15.163702,2020-09-15 00:00:00.000000,1.26296032,1.69811089,2.48664156,99,133,195,46,68,103,0.59653405,0.86841431,1.31905359,0.18414280,0.27120794,0.38396606
20003,0,USKansasAnderson,Kansas,Anderson,2021-01-05 23:03:15.163702,2020-09-16 00:00:00.000000,1.29336602,1.73807217,2.54722927,101,136,200,48,71,107,0.62302172,0.90780341,1.36270304,0.18713807,0.27560506,0.38116452
20003,0,USKansasAnderson,Kansas,Anderson,2021-01-05 23:03:15.163702,2020-09-17 00:00:00.000000,1.31389992,1.78496411,2.63466859,103,140,207,51,74,111,0.65218370,0.95057625,1.41978806,0.19004285,0.28152829,0.38129831
20003,0,USKansasAnderson,Kansas,Anderson,2021-01-05 23:03:15.163702,2020-09-18 00:00:00.000000,1.39613517,1.85740806,2.76103115,109,145,216,53,77,117,0.68316921,0.98719382,1.49035696,0.19474183,0.28677188,0.38774046
20003,0,USKansasAnderson,Kansas,Anderson,2021-01-05 23:03:15.163702,2020-09-19 00:00:00.000000,1.41505082,1.94260140,2.88358822,111,152,226,56,79,123,0.71895520,1.00813420,1.56620242,0.20186836,0.29145731,0.38993145
20003,0,USKansasAnderson,Kansas,Anderson,2021-01-05 23:03:15.163702,2020-09-20 00:00:00.000000,1.43323942,2.05336455,3.02652958,112,161,237,58,82,129,0.74764118,1.04615574,1.65238024,0.20739128,0.29553668,0.39051379
20003,0,USKansasAnderson,Kansas,Anderson,2021-01-05 23:03:15.163702,2020-09-21 00:00:00.000000,1.48750647,2.11257718,3.15597632,116,166,247,60,85,138,0.77444017,1.08506745,1.75666825,0.21418751,0.30081888,0.39955344
20003,0,USKansasAnderson,Kansas,Anderson,2021-01-05 23:03:15.163702,2020-09-22 00:00:00.000000,1.52176043,2.18062935,3.28880946,119,171,258,63,89,146,0.80382096,1.13457217,1.86544988,0.21914320,0.30866050,0.39684348
20003,0,USKansasAnderson,Kansas,Anderson,2021-01-05 23:03:15.163702,2020-09-23 00:00:00.000000,1.54919984,2.26270015,3.42513796,121,177,269,65,93,153,0.82947200,1.18954302,1.94842779,0.22337412,0.31477858,0.40110859
20003,0,USKansasAnderson,Kansas,Anderson,2021-01-05 23:03:15.163702,2020-09-24 00:00:00.000000,1.64268144,2.35246797,3.56556370,129,184,280,66,96,159,0.84252665,1.23266780,2.03285830,0.22531623,0.32081798,0.41041080
20003,0,USKansasAnderson,Kansas,Anderson,2021-01-05 23:03:15.163702,2020-09-25 00:00:00.000000,1.71315142,2.43773516,3.70982891,134,191,291,67,101,166,0.85790225,1.29447157,2.11915959,0.24356925,0.33382126,0.41943413
20003,0,USKansasAnderson,Kansas,Anderson,2021-01-05 23:03:15.163702,2020-09-26 00:00:00.000000,1.79525004,2.57698807,3.85727576,141,202,303,68,106,173,0.87788378,1.35975770,2.20754633,0.24775490,0.34505060,0.44089160
20003,0,USKansasAnderson,Kansas,Anderson,2021-01-05 23:03:15.163702,2020-09-27 00:00:00.000000,1.88642539,2.70407450,4.00756587,148,212,314,71,112,180,0.90677541,1.42666013,2.29800927,0.25569292,0.35574607,0.45322000
20003,0,USKansasAnderson,Kansas,Anderson,2021-01-05 23:03:15.163702,2020-09-28 00:00:00.000000,1.97514627,2.84788695,4.13077255,155,223,324,75,118,187,0.96557783,1.50854614,2.39046287,0.26536573,0.36161029,0.48031296
20003,0,USKansasAnderson,Kansas,Anderson,2021-01-05 23:03:15.163702,2020-09-29 00:00:00.000000,2.05151238,2.98569528,4.25708098,161,234,334,80,123,194,1.02610448,1.57687021,2.47829063,0.26603382,0.36477174,0.51103103
20003,0,USKansasAnderson,Kansas,Anderson,2021-01-05 23:03:15.163702,2020-09-30 00:00:00.000000,2.16768069,3.17699430,4.46031084,170,249,350,84,130,201,1.07859333,1.65890624,2.56364037,0.26844217,0.37006056,0.50915386
20003,0,USKansasAnderson,Kansas,Anderson,2021-01-05 23:03:15.163702,2020-10-01 00:00:00.000000,2.29357447,3.36821175,4.75031223,180,264,373,89,136,208,1.13532514,1.73318968,2.64817816,0.28014056,0.37616030,0.51277846
20003,0,USKansasAnderson,Kansas,Anderson,2021-01-05 23:03:15.163702,2020-10-02 00:00:00.000000,2.43144907,3.57852438,5.06706848,191,281,398,93,143,214,1.19487476,1.82857541,2.73382369,0.29424235,0.38636430,0.52034179
20003,0,USKansasAnderson,Kansas,Anderson,2021-01-05 23:03:15.163702,2020-10-03 00:00:00.000000,2.56130460,3.77608289,5.39025300,201,296,423,98,149,221,1.25375510,1.90292258,2.82378447,0.30526915,0.39461257,0.52929383
20003,0,USKansasAnderson,Kansas,Anderson,2021-01-05 23:03:15.163702,2020-10-04 00:00:00.000000,2.71209204,4.04223168,5.70076536,213,317,447,104,157,229,1.32990585,2.00714043,2.92286980,0.32010691,0.40694240,0.54498405
20003,0,USKansasAnderson,Kansas,Anderson,2021-01-05 23:03:15.163702,2020-10-05 00:00:00.000000,2.92222538,4.27477964,5.99597334,229,335,471,109,166,241,1.39275860,2.11653113,3.07158953,0.32432984,0.41247993,0.57498309
20003,0,USKansasAnderson,Kansas,Anderson,2021-01-05 23:03:15.163702,2020-10-06 00:00:00.000000,3.19701800,4.55848920,6.21640507,251,358,488,113,176,255,1.44995478,2.24936830,3.25356119,0.32367200,0.42031711,0.56414471
20003,0,USKansasAnderson,Kansas,Anderson,2021-01-05 23:03:15.163702,2020-10-07 00:00:00.000000,3.40342892,4.87149741,6.62337748,267,382,520,119,185,269,1.52557647,2.35941756,3.43430101,0.32290712,0.42914969,0.57008889
20003,0,USKansasAnderson,Kansas,Anderson,2021-01-05 23:03:15.163702,2020-10-08 00:00:00.000000,3.57160242,5.13004159,6.94394754,280,403,545,126,197,284,1.61552813,2.51828065,3.61489924,0.32223768,0.42357640,0.57232314
20003,0,USKansasAnderson,Kansas,Anderson,2021-01-05 23:03:15.163702,2020-10-09 00:00:00.000000,3.80504683,5.37698943,7.30778801,299,422,574,134,209,298,1.71656466,2.66357204,3.79697703,0.32175406,0.42411592,0.57308059
20003,0,USKansasAnderson,Kansas,Anderson,2021-01-05 23:03:15.163702,2020-10-10 00:00:00.000000,4.01055393,5.68568429,7.79418861,315,446,612,143,221,313,1.82746360,2.81478594,3.99573481,0.32217715,0.42411221,0.57333451
20003,0,USKansasAnderson,Kansas,Anderson,2021-01-05 23:03:15.163702,2020-10-11 00:00:00.000000,4.23170842,5.99992326,8.30346971,332,471,652,153,234,330,1.95359259,2.98117717,4.20609702,0.32448207,0.42535686,0.56838373
20003,0,USKansasAnderson,Kansas,Anderson,2021-01-05 23:03:15.163702,2020-10-12 00:00:00.000000,4.53432831,6.32621778,8.79054402,356,497,690,165,245,352,2.11029892,3.13026553,4.49141296,0.32615008,0.41381884,0.57214021
20003,0,USKansasAnderson,Kansas,Anderson,2021-01-05 23:03:15.163702,2020-10-13 00:00:00.000000,4.83798712,6.68294905,9.08797315,380,525,714,178,260,376,2.26875414,3.31075787,4.78960639,0.32382343,0.41102783,0.56337742
20003,0,USKansasAnderson,Kansas,Anderson,2021-01-05 23:03:15.163702,2020-10-14 00:00:00.000000,5.11312347,6.99572579,9.44309539,401,549,742,189,271,394,2.41056040,3.44959885,5.02099818,0.32048624,0.40684424,0.56232609
20003,0,USKansasAnderson,Kansas,Anderson,2021-01-05 23:03:15.163702,2020-10-15 00:00:00.000000,5.40934732,7.29173371,9.84082678,425,572,773,201,283,409,2.56993662,3.60799681,5.20523444,0.31863911,0.39936596,0.52953549
20003,0,USKansasAnderson,Kansas,Anderson,2021-01-05 23:03:15.163702,2020-10-16 00:00:00.000000,5.65782085,7.57135893,10.15790898,444,594,798,210,296,423,2.67739513,3.77592796,5.38964252,0.31317718,0.39478675,0.52076262
20003,0,USKansasAnderson,Kansas,Anderson,2021-01-05 23:03:15.163702,2020-10-17 00:00:00.000000,5.84035368,7.89313341,10.39153107,458,620,816,216,312,437,2.75240552,3.98204494,5.57362378,0.30281698,0.38149363,0.50182537
20003,0,USKansasAnderson,Kansas,Anderson,2021-01-05 23:03:15.163702,2020-10-18 00:00:00.000000,6.01899220,8.11170176,10.55974968,472,637,829,222,328,452,2.82616537,4.17995855,5.75357569,0.29301999,0.37151180,0.48143770
20003,0,USKansasAnderson,Kansas,Anderson,2021-01-05 23:03:15.163702,2020-10-19 00:00:00.000000,6.18239660,8.38926960,10.77641896,485,659,846,227,342,465,2.89943635,4.35877061,5.92147407,0.27774174,0.36708981,0.47053920
20003,0,USKansasAnderson,Kansas,Anderson,2021-01-05 23:03:15.163702,2020-10-20 00:00:00.000000,6.33337454,8.67116853,10.96847247,497,681,861,237,358,479,3.02295379,4.56764543,6.10537702,0.27203381,0.35596631,0.46287475
20003,0,USKansasAnderson,Kansas,Anderson,2021-01-05 23:03:15.163702,2020-10-21 00:00:00.000000,6.47331659,8.91585431,11.22534412,508,700,882,249,371,509,3.17043113,4.73061626,6.48828824,0.26917374,0.35381452,0.46205168
20003,0,USKansasAnderson,Kansas,Anderson,2021-01-05 23:03:15.163702,2020-10-22 00:00:00.000000,6.69708775,9.19635988,11.66523408,526,722,916,260,384,538,3.31761402,4.89316652,6.85711915,0.26856448,0.34444149,0.45942192
20003,0,USKansasAnderson,Kansas,Anderson,2021-01-05 23:03:15.163702,2020-10-23 00:00:00.000000,6.95814095,9.45036463,12.11517069,546,742,952,272,394,541,3.46443823,5.02493014,6.89429901,0.26752379,0.33419318,0.45209675
20003,0,USKansasAnderson,Kansas,Anderson,2021-01-05 23:03:15.163702,2020-10-24 00:00:00.000000,7.11880190,9.59757035,12.31374074,559,754,967,283,406,563,3.61007808,5.17432395,7.17712937,0.25799037,0.32358947,0.45002168
20003,0,USKansasAnderson,Kansas,Anderson,2021-01-05 23:03:15.163702,2020-10-25 00:00:00.000000,7.26082372,9.72714219,12.30640917,570,764,967,290,414,577,3.69674750,5.27973257,7.34851535,0.24971055,0.30940199,0.43101022
20003,0,USKansasAnderson,Kansas,Anderson,2021-01-05 23:03:15.163702,2020-10-26 00:00:00.000000,7.37223017,9.83630110,12.47704315,579,772,980,294,423,596,3.75313812,5.39566666,7.59227710,0.24441853,0.30669890,0.41703873
20003,0,USKansasAnderson,Kansas,Anderson,2021-01-05 23:03:15.163702,2020-10-27 00:00:00.000000,7.42639298,9.99396877,12.56594387,583,785,987,299,431,611,3.81518478,5.48487724,7.78672419,0.22878618,0.30251144,0.39553956
20003,0,USKansasAnderson,Kansas,Anderson,2021-01-05 23:03:15.163702,2020-10-28 00:00:00.000000,7.38969401,10.12357154,12.69616575,580,795,997,304,436,623,3.87836123,5.55602055,7.93507183,0.21832012,0.29830437,0.39084281
20003,0,USKansasAnderson,Kansas,Anderson,2021-01-05 23:03:15.163702,2020-10-29 00:00:00.000000,7.35403313,10.19785305,12.83692249,577,801,1008,309,443,631,3.94019626,5.64543643,8.03896986,0.21253300,0.29566965,0.37485622
20003,0,USKansasAnderson,Kansas,Anderson,2021-01-05 23:03:15.163702,2020-10-30 00:00:00.000000,7.44228054,10.24510104,12.93669898,584,805,1016,314,448,635,3.99914172,5.70542501,8.09158138,0.20687888,0.28977806,0.37494267
20003,0,USKansasAnderson,Kansas,Anderson,2021-01-05 23:03:15.163702,2020-10-31 00:00:00.000000,7.50863894,10.28150725,12.93160205,590,807,1016,316,455,636,4.03071184,5.79758926,8.09664351,0.20110259,0.28365321,0.37666848
20003,0,USKansasAnderson,Kansas,Anderson,2021-01-05 23:03:15.163702,2020-11-01 00:00:00.000000,7.49784811,10.27833978,12.77451330,589,807,1003,317,458,633,4.03918196,5.84064829,8.06532159,0.19830625,0.27755846,0.37604537
20003,0,USKansasAnderson,Kansas,Anderson,2021-01-05 23:03:15.163702,2020-11-02 00:00:00.000000,7.47173704,10.21919795,12.69769059,587,803,997,317,459,632,4.04318908,5.84620408,8.05263549,0.19761055,0.27172515,0.36639352
20003,0,USKansasAnderson,Kansas,Anderson,2021-01-05 23:03:15.163702,2020-11-03 00:00:00.000000,7.43548971,10.12467824,12.65169960,584,795,994,316,458,631,4.02527400,5.83916650,8.04217847,0.19590939,0.26979720,0.36670730
20003,0,USKansasAnderson,Kansas,Anderson,2021-01-05 23:03:15.163702,2020-11-04 00:00:00.000000,7.22895728,9.97704800,12.58926511,568,783,989,316,461,629,4.03051736,5.86913564,8.01691251,0.19445227,0.26414975,0.36650642
20003,0,USKansasAnderson,Kansas,Anderson,2021-01-05 23:03:15.163702,2020-11-05 00:00:00.000000,7.05182674,9.90889093,12.43717322,554,778,977,315,458,627,4.01616419,5.82945330,7.97966984,0.19420697,0.26124147,0.36046055
20003,0,USKansasAnderson,Kansas,Anderson,2021-01-05 23:03:15.163702,2020-11-06 00:00:00.000000,6.93791117,9.79037956,12.34861115,545,769,970,307,459,623,3.91006437,5.84560907,7.93161093,0.19416238,0.25749399,0.35572947
20003,0,USKansasAnderson,Kansas,Anderson,2021-01-05 23:03:15.163702,2020-11-07 00:00:00.000000,6.75080021,9.61175192,12.34268372,530,755,969,299,457,618,3.80598292,5.82434377,7.87171777,0.19067917,0.25794722,0.35464673
20003,0,USKansasAnderson,Kansas,Anderson,2021-01-05 23:03:15.163702,2020-11-08 00:00:00.000000,6.56872086,9.41155096,12.24783367,516,739,962,291,451,612,3.70689129,5.74381581,7.79538590,0.18503292,0.25475089,0.34425050
20003,0,USKansasAnderson,Kansas,Anderson,2021-01-05 23:03:15.163702,2020-11-09 00:00:00.000000,6.40950067,9.48727427,12.19580328,503,745,958,284,447,607,3.61430133,5.69332495,7.73137015,0.18481642,0.25205586,0.33478605
20003,0,USKansasAnderson,Kansas,Anderson,2021-01-05 23:03:15.163702,2020-11-10 00:00:00.000000,6.30824293,9.26783586,12.13937219,495,728,953,277,442,603,3.52598582,5.63727849,7.68458116,0.17590606,0.25215538,0.33723771
20003,0,USKansasAnderson,Kansas,Anderson,2021-01-05 23:03:15.163702,2020-11-11 00:00:00.000000,6.21402672,9.05447313,12.07713546,488,711,949,272,438,596,3.46739748,5.58292076,7.59207156,0.17617668,0.25198437,0.34886610
20003,0,USKansasAnderson,Kansas,Anderson,2021-01-05 23:03:15.163702,2020-11-12 00:00:00.000000,6.12411201,8.88293178,12.00568331,481,698,943,267,433,587,3.40546579,5.51651053,7.47603271,0.17553154,0.25299133,0.33934172
20003,0,USKansasAnderson,Kansas,Anderson,2021-01-05 23:03:15.163702,2020-11-13 00:00:00.000000,6.00924338,8.76630824,11.75480311,472,688,923,263,426,581,3.35084516,5.42412117,7.39639867,0.17308719,0.25458689,0.33519708
20003,0,USKansasAnderson,Kansas,Anderson,2021-01-05 23:03:15.163702,2020-11-14 00:00:00.000000,5.89882319,8.70319264,11.62025739,463,683,913,259,419,578,3.30465637,5.33235535,7.36511525,0.17462259,0.25341159,0.34080057
20003,0,USKansasAnderson,Kansas,Anderson,2021-01-05 23:03:15.163702,2020-11-15 00:00:00.000000,5.79044355,8.57790168,11.60396060,455,674,911,256,410,575,3.26586120,5.22950966,7.31927918,0.17687064,0.25558805,0.34669479
20003,0,USKansasAnderson,Kansas,Anderson,2021-01-05 23:03:15.163702,2020-11-16 00:00:00.000000,5.66571831,8.48214568,11.58113693,445,666,910,254,403,569,3.23238319,5.13784720,7.24814761,0.17862195,0.25442468,0.34789742
20003,0,USKansasAnderson,Kansas,Anderson,2021-01-05 23:03:15.163702,2020-11-17 00:00:00.000000,5.54121959,8.40479518,11.42708616,435,660,897,250,396,560,3.18361862,5.03992418,7.13641936,0.17557383,0.25919071,0.34857558
20003,0,USKansasAnderson,Kansas,Anderson,2021-01-05 23:03:15.163702,2020-11-18 00:00:00.000000,5.41616037,8.33690157,11.17179194,425,655,877,244,388,556,3.11622069,4.94484980,7.07689437,0.17046227,0.26347161,0.34961872
20003,0,USKansasAnderson,Kansas,Anderson,2021-01-05 23:03:15.163702,2020-11-19 00:00:00.000000,5.29362708,8.25781916,10.90400078,415,648,856,239,380,546,3.04778286,4.84654533,6.95983678,0.16740961,0.27051091,0.36533213
20003,0,USKansasAnderson,Kansas,Anderson,2021-01-05 23:03:15.163702,2020-11-20 00:00:00.000000,5.20021790,8.16163968,10.63170854,408,641,835,234,375,536,2.97958131,4.78004086,6.82817642,0.17165591,0.27597056,0.36611777
20003,0,USKansasAnderson,Kansas,Anderson,2021-01-05 23:03:15.163702,2020-11-21 00:00:00.000000,5.19010922,8.04278818,10.49654625,407,632,824,229,371,526,2.91962833,4.73347328,6.70333330,0.17992010,0.27856877,0.37860487
20003,0,USKansasAnderson,Kansas,Anderson,2021-01-05 23:03:15.163702,2020-11-22 00:00:00.000000,5.22602508,7.94179095,10.42459748,410,624,819,225,365,521,2.87025544,4.65302101,6.63715934,0.18849374,0.28176508,0.38116645
20003,0,USKansasAnderson,Kansas,Anderson,2021-01-05 23:03:15.163702,2020-11-23 00:00:00.000000,5.24138164,7.76096513,10.32648627,411,609,811,222,361,515,2.82678474,4.60111727,6.56507718,0.19333008,0.28255034,0.38705428
20003,0,USKansasAnderson,Kansas,Anderson,2021-01-05 23:03:15.163702,2020-11-24 00:00:00.000000,5.27816846,7.69793859,10.26040199,414,604,806,220,355,509,2.80844343,4.53021799,6.48619772,0.19522818,0.29383883,0.39556731
20003,0,USKansasAnderson,Kansas,Anderson,2021-01-05 23:03:15.163702,2020-11-25 00:00:00.000000,5.33316406,7.60049142,10.21330775,419,597,802,220,350,503,2.80363161,4.45579414,6.40440925,0.19575203,0.29571537,0.40028314
20003,0,USKansasAnderson,Kansas,Anderson,2021-01-05 23:03:15.163702,2020-11-26 00:00:00.000000,5.38327685,7.54459469,10.16259412,423,592,798,220,343,496,2.80614310,4.37768037,6.32056665,0.19175048,0.30064021,0.41573803
20003,0,USKansasAnderson,Kansas,Anderson,2021-01-05 23:03:15.163702,2020-11-27 00:00:00.000000,5.40838628,7.42234881,10.10727714,424,583,794,221,340,489,2.81321840,4.33704699,6.23558883,0.19784849,0.31643696,0.44602578
20003,0,USKansasAnderson,Kansas,Anderson,2021-01-05 23:03:15.163702,2020-11-28 00:00:00.000000,5.40470718,7.38367327,10.04661377,424,580,789,221,337,483,2.82474391,4.29760228,6.15054892,0.20531509,0.31852965,0.45774040
20003,0,USKansasAnderson,Kansas,Anderson,2021-01-05 23:03:15.163702,2020-11-29 00:00:00.000000,5.37609407,7.34800316,9.91236237,422,577,778,223,335,476,2.84136664,4.27516584,6.06644040,0.21889090,0.33259128,0.46788664
20003,0,USKansasAnderson,Kansas,Anderson,2021-01-05 23:03:15.163702,2020-11-30 00:00:00.000000,5.25503809,7.30179092,9.77537861,412,573,768,224,332,472,2.86257984,4.23531022,6.01855533,0.22200565,0.34874937,0.48559888
20003,0,USKansasAnderson,Kansas,Anderson,2021-01-05 23:03:15.163702,2020-12-01 00:00:00.000000,5.24727391,7.25594615,9.77139043,412,570,767,225,329,469,2.87505089,4.19495763,5.97585443,0.22370934,0.35810860,0.49307629
20003,0,USKansasAnderson,Kansas,Anderson,2021-01-05 23:03:15.163702,2020-12-02 00:00:00.000000,5.25282042,7.26762894,9.79293482,412,571,769,225,328,470,2.87567167,4.18476441,5.98313695,0.22552272,0.36384991,0.53054909
20003,0,USKansasAnderson,Kansas,Anderson,2021-01-05 23:03:15.163702,2020-12-03 00:00:00.000000,5.26206417,7.26817429,9.82027890,413,571,771,226,326,469,2.87818170,4.15962406,5.97053110,0.22753558,0.38202385,0.54074768
20003,0,USKansasAnderson,Kansas,Anderson,2021-01-05 23:03:15.163702,2020-12-04 00:00:00.000000,5.29395014,7.28071928,9.84699133,415,572,773,226,326,469,2.88579058,4.14965491,5.97170883,0.23118056,0.38377005,0.58726762
20003,0,USKansasAnderson,Kansas,Anderson,2021-01-05 23:03:15.163702,2020-12-05 00:00:00.000000,5.27942404,7.24594740,9.76619412,414,569,767,227,326,471,2.89955170,4.15676655,5.99616189,0.23320553,0.39085041,0.66523551
20003,0,USKansasAnderson,Kansas,Anderson,2021-01-05 23:03:15.163702,2020-12-06 00:00:00.000000,5.27263368,7.28152393,9.70079375,414,572,762,229,326,474,2.92076949,4.15363308,6.03625085,0.24768062,0.39857174,0.70035758
20003,0,USKansasAnderson,Kansas,Anderson,2021-01-05 23:03:15.163702,2020-12-07 00:00:00.000000,5.33819636,7.29664320,9.83347677,419,573,772,231,328,474,2.94620468,4.18558597,6.04390543,0.26676361,0.40815430,0.70694273
20003,0,USKansasAnderson,Kansas,Anderson,2021-01-05 23:03:15.163702,2020-12-08 00:00:00.000000,5.41537159,7.29817305,9.90796492,425,573,778,233,328,474,2.96872771,4.18071108,6.04295757,0.27872907,0.42883196,0.70752734
20003,0,USKansasAnderson,Kansas,Anderson,2021-01-05 23:03:15.163702,2020-12-09 00:00:00.000000,5.42969222,7.40423125,9.99092241,426,581,785,237,326,475,3.02032689,4.15790869,6.05290886,0.30510851,0.44484783,0.70955812
20003,0,USKansasAnderson,Kansas,Anderson,2021-01-05 23:03:15.163702,2020-12-10 00:00:00.000000,5.47020046,7.48818499,10.15910096,429,588,798,243,328,480,3.09496351,4.17913761,6.11668403,0.33084291,0.47501835,0.73415789
20003,0,USKansasAnderson,Kansas,Anderson,2021-01-05 23:03:15.163702,2020-12-11 00:00:00.000000,5.57706323,7.62306923,10.54904462,438,599,828,250,330,490,3.18366734,4.20105504,6.23573397,0.35746064,0.51808829,0.76656741
20003,0,USKansasAnderson,Kansas,Anderson,2021-01-05 23:03:15.163702,2020-12-12 00:00:00.000000,5.73910186,7.83801929,11.08385243,450,615,870,256,335,500,3.26064902,4.27299260,6.36342965,0.37240563,0.55181203,0.83143527
20003,0,USKansasAnderson,Kansas,Anderson,2021-01-05 23:03:15.163702,2020-12-13 00:00:00.000000,5.84581655,8.19726452,11.36502675,459,644,893,259,345,508,3.29992963,4.39303662,6.46900213,0.40218821,0.58221044,0.83960399
20003,0,USKansasAnderson,Kansas,Anderson,2021-01-05 23:03:15.163702,2020-12-14 00:00:00.000000,6.02273713,8.53154740,11.69151780,473,670,918,263,348,516,3.35258846,4.43147296,6.57154762,0.43373885,0.61624994,0.89039610
20003,0,USKansasAnderson,Kansas,Anderson,2021-01-05 23:03:15.163702,2020-12-15 00:00:00.000000,6.26063327,8.94015016,12.14952701,491,702,954,267,358,524,3.40954138,4.55830506,6.67600324,0.44368778,0.63759663,0.91086780
20003,0,USKansasAnderson,Kansas,Anderson,2021-01-05 23:03:15.163702,2020-12-16 00:00:00.000000,6.56473333,9.32629143,12.64037534,515,732,993,274,369,536,3.49739938,4.70399101,6.83097949,0.47312026,0.67625569,0.91789364
20003,0,USKansasAnderson,Kansas,Anderson,2021-01-05 23:03:15.163702,2020-12-17 00:00:00.000000,6.78086303,9.68024603,13.15427302,532,760,1033,283,380,555,3.61155553,4.84786700,7.06371696,0.52228641,0.71931308,1.02547175
20003,0,USKansasAnderson,Kansas,Anderson,2021-01-05 23:03:15.163702,2020-12-18 00:00:00.000000,6.99003430,10.09900871,13.67803487,549,793,1074,294,397,578,3.74968286,5.06027194,7.36524586,0.57846198,0.78538421,1.13257538
20003,0,USKansasAnderson,Kansas,Anderson,2021-01-05 23:03:15.163702,2020-12-19 00:00:00.000000,7.38467722,10.55190389,14.19767339,580,829,1115,307,416,607,3.91732087,5.30064150,7.73128665,0.62516559,0.83022889,1.13571239
20003,0,USKansasAnderson,Kansas,Anderson,2021-01-05 23:03:15.163702,2020-12-20 00:00:00.000000,8.04077638,11.04065680,14.69832617,631,867,1154,324,436,641,4.12695225,5.55837698,8.16844871,0.65526522,0.87334131,1.13547348
20003,0,USKansasAnderson,Kansas,Anderson,2021-01-05 23:03:15.163702,2020-12-21 00:00:00.000000,8.63816561,11.52111600,15.30790548,678,905,1202,341,457,680,4.34618538,5.82453012,8.66324213,0.67009603,0.88169558,1.17770875
20003,0,USKansasAnderson,Kansas,Anderson,2021-01-05 23:03:15.163702,2020-12-22 00:00:00.000000,9.14601774,11.96205811,16.16758264,718,939,1270,361,480,720,4.60222201,6.11256147,9.16665615,0.68300631,0.89376104,1.23101393
20003,0,USKansasAnderson,Kansas,Anderson,2021-01-05 23:03:15.163702,2020-12-23 00:00:00.000000,9.42823397,12.41816823,17.00087334,740,975,1335,381,504,760,4.85411415,6.41838762,9.67841347,0.69842965,0.89477889,1.31738484
20003,0,USKansasAnderson,Kansas,Anderson,2021-01-05 23:03:15.163702,2020-12-24 00:00:00.000000,9.89485068,12.99711901,17.79665278,777,1021,1398,394,527,800,5.01940371,6.71107585,10.19220974,0.74047037,0.89971936,1.46141160
20003,0,USKansasAnderson,Kansas,Anderson,2021-01-05 23:03:15.163702,2020-12-25 00:00:00.000000,10.55663152,13.55469391,18.75632263,829,1065,1473,411,548,840,5.23943486,6.97893375,10.69777354,0.74219411,0.91201792,1.49115717
20003,0,USKansasAnderson,Kansas,Anderson,2021-01-05 23:03:15.163702,2020-12-26 00:00:00.000000,10.91230596,13.92843904,19.71609760,857,1094,1549,435,572,879,5.53826083,7.28835396,11.18607627,0.75380772,0.91313725,1.57406601
20003,0,USKansasAnderson,Kansas,Anderson,2021-01-05 23:03:15.163702,2020-12-27 00:00:00.000000,11.21782182,14.27469502,20.64027031,881,1121,1621,446,593,915,5.67892749,7.54731870,11.64886317,0.74666625,0.91511983,1.84006610
20003,0,USKansasAnderson,Kansas,Anderson,2021-01-05 23:03:15.163702,2020-12-28 00:00:00.000000,11.47341381,14.64534298,21.22126329,901,1150,1667,453,613,949,5.77239099,7.81326364,12.07849231,0.69642946,0.92252048,1.95817355
20003,0,USKansasAnderson,Kansas,Anderson,2021-01-05 23:03:15.163702,2020-12-29 00:00:00.000000,11.66492387,15.03360606,21.58611597,916,1181,1696,458,630,979,5.83923256,8.02295904,12.46502437,0.69023100,0.94171494,2.00880147
20003,0,USKansasAnderson,Kansas,Anderson,2021-01-05 23:03:15.163702,2020-12-30 00:00:00.000000,11.65251002,15.37193446,21.86974104,915,1207,1718,464,649,1006,5.90855292,8.25933755,12.80318410,0.65705323,0.95791278,2.02727612
20003,0,USKansasAnderson,Kansas,Anderson,2021-01-05 23:03:15.163702,2020-12-31 00:00:00.000000,11.46927264,15.69501107,22.06881672,901,1233,1734,472,666,1028,6.01238300,8.48325138,13.08818639,0.67536324,0.95751351,2.03389437
20003,0,USKansasAnderson,Kansas,Anderson,2021-01-05 23:03:15.163702,2021-01-01 00:00:00.000000,11.25734803,15.95936540,22.18144490,884,1254,1743,479,680,1059,6.10052277,8.65621743,13.47742534,0.64133898,0.96499004,2.03630563
20003,0,USKansasAnderson,Kansas,Anderson,2021-01-05 23:03:15.163702,2021-01-02 00:00:00.000000,11.08623240,16.14250901,22.20717207,871,1268,1745,485,696,1086,6.17466046,8.85808401,13.82425751,0.63318096,0.95209664,2.03831806
20003,0,USKansasAnderson,Kansas,Anderson,2021-01-05 23:03:15.163702,2021-01-03 00:00:00.000000,11.00016423,16.21821892,22.14696241,864,1274,1740,489,703,1096,6.23316106,8.95528724,13.95545163,0.62310075,0.95844816,2.05471921
20003,0,USKansasAnderson,Kansas,Anderson,2021-01-05 23:03:15.163702,2021-01-04 00:00:00.000000,10.70576759,16.20173642,22.00312431,841,1273,1729,484,711,1116,6.17107056,9.05159062,14.20454599,0.61525617,0.96879098,2.21557481
20003,0,USKansasAnderson,Kansas,Anderson,2021-01-05 23:03:15.163702,2021-01-05 00:00:00.000000,10.38819986,16.16060530,21.77319533,816,1269,1710,486,718,1139,6.18631228,9.13914014,14.49898303,0.60642177,0.98372847,2.43615444
20003,0,USKansasAnderson,Kansas,Anderson,2021-01-05 23:03:15.163702,2021-01-06 00:00:00.000000,10.05106297,16.00900066,21.46632205,789,1257,1686,473,717,1156,6.02499303,9.12772828,14.72108842,0.60029621,0.99373081,2.48865645
20003,0,USKansasAnderson,Kansas,Anderson,2021-01-05 23:03:15.163702,2021-01-07 00:00:00.000000,9.69793995,15.77235228,21.09017699,762,1239,1657,459,710,1168,5.85041136,9.04244634,14.86480177,0.59929247,0.99667636,2.49183354
20003,0,USKansasAnderson,Kansas,Anderson,2021-01-05 23:03:15.163702,2021-01-08 00:00:00.000000,9.33233559,15.67373046,20.65106865,733,1231,1622,445,700,1173,5.66456666,8.91978384,14.93157076,0.59916163,0.99934368,2.49199998
20003,0,USKansasAnderson,Kansas,Anderson,2021-01-05 23:03:15.163702,2021-01-09 00:00:00.000000,8.95762339,15.47590501,20.65159635,703,1216,1622,429,703,1172,5.46944569,8.95630968,14.92334772,0.59914254,1.00046552,2.49200930
20003,0,USKansasAnderson,Kansas,Anderson,2021-01-05 23:03:15.163702,2021-01-10 00:00:00.000000,8.57700050,15.14846788,20.62307927,673,1190,1620,413,697,1166,5.26699400,8.87035413,14.84249231,0.59913970,1.00050079,2.49201002
20003,0,USKansasAnderson,Kansas,Anderson,2021-01-05 23:03:15.163702,2021-01-11 00:00:00.000000,8.19345151,14.80832107,20.50629175,643,1163,1611,397,683,1154,5.05908877,8.69713603,14.69277168,0.59913927,1.00050803,2.49201014
20003,0,USKansasAnderson,Kansas,Anderson,2021-01-05 23:03:15.163702,2021-01-12 00:00:00.000000,7.80972127,14.44200770,20.30489440,613,1134,1595,380,665,1137,4.84751480,8.46874057,14.47913458,0.59913919,1.00050957,2.49201017
20003,0,USKansasAnderson,Kansas,Anderson,2021-01-05 23:03:15.163702,2021-01-13 00:00:00.000000,7.42829644,14.08000078,20.02387232,583,1106,1573,364,651,1115,4.63394446,8.29136467,14.19198023,0.59913918,1.00050992,2.49201018
20003,0,USKansasAnderson,Kansas,Anderson,2021-01-05 23:03:15.163702,2021-01-14 00:00:00.000000,7.05139511,13.68677371,19.66931712,554,1075,1545,347,632,1089,4.41992227,8.04561919,13.86734596,0.59913918,1.00051001,2.49201019
20003,0,USKansasAnderson,Kansas,Anderson,2021-01-05 23:03:15.163702,2021-01-15 00:00:00.000000,6.70441925,13.26688176,19.24818535,526,1042,1512,330,614,1061,4.20685386,7.82478817,13.51223201,0.59913918,1.00051003,2.49201019
20003,0,USKansasAnderson,Kansas,Anderson,2021-01-05 23:03:15.163702,2021-01-16 00:00:00.000000,6.36854819,12.82488343,18.76804814,500,1007,1474,315,600,1030,4.01168326,7.64250437,13.11112332,0.59913918,1.00051004,2.49201019
20003,0,USKansasAnderson,Kansas,Anderson,2021-01-05 23:03:15.163702,2021-01-17 00:00:00.000000,6.04070015,12.36525728,18.10300845,474,971,1422,300,585,996,3.82083776,7.44622051,12.67523987,0.59913918,1.00051004,2.49201019
