FIPS,HR_UID,nameid,province,region,analysisTime,dates,pointprevalence_025,pointprevalence_50,pointprevalence_975,pointinfections_025,pointinfections_50,pointinfections_975,pointinfectious_025,pointinfectious_50,pointinfectious_975,pointinfectiousprevalence_05,pointinfectiousprevalence_50,pointinfectiousprevalence_95,infectrate_025,infectrate_50,infectrate_975
29173,0,USMissouriRalls,Missouri,Ralls,2021-01-05 16:56:40.265875,2020-03-09 00:00:00.000000,0.00235046,0.02457385,0.09011758,0,2,9,0,1,5,0.00102463,0.01357072,0.05124297,0.38129675,0.52543532,0.67838352
29173,0,USMissouriRalls,Missouri,Ralls,2021-01-05 16:56:40.265875,2020-03-10 00:00:00.000000,0.00255356,0.02649950,0.09915619,0,2,10,0,1,5,0.00109620,0.01344222,0.05058157,0.38129675,0.52541794,0.67838287
29173,0,USMissouriRalls,Missouri,Ralls,2021-01-05 16:56:40.265875,2020-03-11 00:00:00.000000,0.00275707,0.02879254,0.10906896,0,2,11,0,1,5,0.00119306,0.01391735,0.05068127,0.38006566,0.52538285,0.67838113
29173,0,USMissouriRalls,Missouri,Ralls,2021-01-05 16:56:40.265875,2020-03-12 00:00:00.000000,0.00296310,0.03057808,0.11420943,0,3,11,0,1,5,0.00130214,0.01449332,0.05384595,0.37721888,0.52531088,0.67837639
29173,0,USMissouriRalls,Missouri,Ralls,2021-01-05 16:56:40.265875,2020-03-13 00:00:00.000000,0.00319313,0.03284854,0.12449902,0,3,12,0,1,5,0.00141719,0.01527073,0.05727087,0.37293102,0.52516078,0.67836348
29173,0,USMissouriRalls,Missouri,Ralls,2021-01-05 16:56:40.265875,2020-03-14 00:00:00.000000,0.00352876,0.03553846,0.13245349,0,3,13,0,1,6,0.00153547,0.01613643,0.06296162,0.36686321,0.52484255,0.67832813
29173,0,USMissouriRalls,Missouri,Ralls,2021-01-05 16:56:40.265875,2020-03-15 00:00:00.000000,0.00385975,0.03821077,0.13940442,0,3,14,0,1,6,0.00167731,0.01751339,0.06610938,0.36662489,0.52417691,0.67822933
29173,0,USMissouriRalls,Missouri,Ralls,2021-01-05 16:56:40.265875,2020-03-16 00:00:00.000000,0.01366124,0.05154236,0.15182404,1,5,15,0,1,7,0.00184859,0.01901683,0.06948952,0.36626828,0.51674455,0.67793778
29173,0,USMissouriRalls,Missouri,Ralls,2021-01-05 16:56:40.265875,2020-03-17 00:00:00.000000,0.02152580,0.06660961,0.16450812,2,6,16,0,2,7,0.00361705,0.02366337,0.07415726,0.33941462,0.50704694,0.67696631
29173,0,USMissouriRalls,Missouri,Ralls,2021-01-05 16:56:40.265875,2020-03-18 00:00:00.000000,0.02796776,0.08196598,0.17763065,2,8,18,0,3,8,0.00722890,0.03025226,0.07965917,0.33312778,0.50082590,0.66882766
29173,0,USMissouriRalls,Missouri,Ralls,2021-01-05 16:56:40.265875,2020-03-19 00:00:00.000000,0.03644264,0.09522818,0.19924486,3,9,20,1,3,8,0.01153974,0.03566515,0.08577050,0.32233618,0.48829128,0.66081625
29173,0,USMissouriRalls,Missouri,Ralls,2021-01-05 16:56:40.265875,2020-03-20 00:00:00.000000,0.04389303,0.11005624,0.22349241,4,11,23,1,4,9,0.01419186,0.04193142,0.09288853,0.30357397,0.45937412,0.63449706
29173,0,USMissouriRalls,Missouri,Ralls,2021-01-05 16:56:40.265875,2020-03-21 00:00:00.000000,0.04912063,0.12374336,0.24696138,5,12,25,1,5,11,0.01807776,0.05059211,0.10752554,0.28849481,0.42469017,0.62103485
29173,0,USMissouriRalls,Missouri,Ralls,2021-01-05 16:56:40.265875,2020-03-22 00:00:00.000000,0.05420333,0.13883122,0.27001845,5,14,27,2,6,13,0.02246854,0.05842517,0.12646369,0.26498241,0.40328308,0.60377587
29173,0,USMissouriRalls,Missouri,Ralls,2021-01-05 16:56:40.265875,2020-03-23 00:00:00.000000,0.05576996,0.14503274,0.27642934,5,14,28,2,6,14,0.02512363,0.06614038,0.14449071,0.24838872,0.39030482,0.56028592
29173,0,USMissouriRalls,Missouri,Ralls,2021-01-05 16:56:40.265875,2020-03-24 00:00:00.000000,0.05724652,0.15018943,0.28797110,5,15,29,2,7,16,0.02697051,0.07204825,0.15565521,0.23898238,0.37979940,0.52901270
29173,0,USMissouriRalls,Missouri,Ralls,2021-01-05 16:56:40.265875,2020-03-25 00:00:00.000000,0.05850656,0.15390743,0.29869441,6,15,30,2,7,16,0.02831251,0.07641841,0.16283341,0.23226943,0.37145608,0.52392038
29173,0,USMissouriRalls,Missouri,Ralls,2021-01-05 16:56:40.265875,2020-03-26 00:00:00.000000,0.05957957,0.15729639,0.30851430,6,16,31,3,8,17,0.02933420,0.07869184,0.16734384,0.21480671,0.36173813,0.50549084
29173,0,USMissouriRalls,Missouri,Ralls,2021-01-05 16:56:40.265875,2020-03-27 00:00:00.000000,0.06045192,0.15946583,0.31703173,6,16,32,3,8,17,0.03014092,0.08139754,0.17272987,0.19309772,0.34518743,0.47293980
29173,0,USMissouriRalls,Missouri,Ralls,2021-01-05 16:56:40.265875,2020-03-28 00:00:00.000000,0.06113260,0.16392091,0.32431788,6,16,33,3,8,18,0.03133078,0.08340025,0.17928326,0.18579320,0.32819465,0.44724120
29173,0,USMissouriRalls,Missouri,Ralls,2021-01-05 16:56:40.265875,2020-03-29 00:00:00.000000,0.06310427,0.16195527,0.33090432,6,16,34,3,8,19,0.03263235,0.08487993,0.18483863,0.18422050,0.31194477,0.42807496
29173,0,USMissouriRalls,Missouri,Ralls,2021-01-05 16:56:40.265875,2020-03-30 00:00:00.000000,0.06469337,0.16366521,0.33714925,6,16,34,3,9,19,0.03386678,0.08762402,0.18968208,0.17604278,0.30084145,0.40452423
29173,0,USMissouriRalls,Missouri,Ralls,2021-01-05 16:56:40.265875,2020-03-31 00:00:00.000000,0.06461312,0.16306844,0.34311554,6,16,35,3,9,20,0.03496969,0.08760796,0.19403443,0.17387283,0.29177734,0.39988752
29173,0,USMissouriRalls,Missouri,Ralls,2021-01-05 16:56:40.265875,2020-04-01 00:00:00.000000,0.06271922,0.16228023,0.34856468,6,16,35,3,9,20,0.03592861,0.08754318,0.19801067,0.17308470,0.27893305,0.40389039
29173,0,USMissouriRalls,Missouri,Ralls,2021-01-05 16:56:40.265875,2020-04-02 00:00:00.000000,0.06160730,0.16200354,0.35036345,6,16,36,3,9,20,0.03677655,0.08799572,0.20159873,0.16719698,0.26572289,0.40971701
29173,0,USMissouriRalls,Missouri,Ralls,2021-01-05 16:56:40.265875,2020-04-03 00:00:00.000000,0.06044487,0.16201000,0.34805598,6,16,35,3,9,21,0.03655747,0.08805983,0.20466762,0.16249412,0.25764695,0.36993358
29173,0,USMissouriRalls,Missouri,Ralls,2021-01-05 16:56:40.265875,2020-04-04 00:00:00.000000,0.05917192,0.15907918,0.34543400,6,16,35,3,9,20,0.03544441,0.08770122,0.20264034,0.16371086,0.24543290,0.36920385
29173,0,USMissouriRalls,Missouri,Ralls,2021-01-05 16:56:40.265875,2020-04-05 00:00:00.000000,0.05803679,0.15707276,0.34231556,5,16,35,3,8,21,0.03431548,0.08598075,0.20597642,0.16360249,0.23762349,0.36422432
29173,0,USMissouriRalls,Missouri,Ralls,2021-01-05 16:56:40.265875,2020-04-06 00:00:00.000000,0.05767956,0.15423251,0.33900748,5,15,34,3,8,21,0.03317971,0.08402109,0.20745250,0.16062207,0.23043923,0.34993908
29173,0,USMissouriRalls,Missouri,Ralls,2021-01-05 16:56:40.265875,2020-04-07 00:00:00.000000,0.05719322,0.15049200,0.33562105,5,15,34,3,8,21,0.03206020,0.08232576,0.20569453,0.15976362,0.22576244,0.34962878
29173,0,USMissouriRalls,Missouri,Ralls,2021-01-05 16:56:40.265875,2020-04-08 00:00:00.000000,0.05665293,0.14656097,0.32890005,5,15,33,3,8,20,0.03106352,0.08068774,0.20287232,0.15790235,0.22231713,0.34891447
29173,0,USMissouriRalls,Missouri,Ralls,2021-01-05 16:56:40.265875,2020-04-09 00:00:00.000000,0.05608211,0.14602701,0.32146486,5,15,33,3,8,20,0.03090715,0.07908291,0.19939932,0.15701738,0.21680528,0.33415434
29173,0,USMissouriRalls,Missouri,Ralls,2021-01-05 16:56:40.265875,2020-04-10 00:00:00.000000,0.05549436,0.14064879,0.31395453,5,14,32,3,8,20,0.03067745,0.07803035,0.19552168,0.15570061,0.21064294,0.33421540
29173,0,USMissouriRalls,Missouri,Ralls,2021-01-05 16:56:40.265875,2020-04-11 00:00:00.000000,0.05488976,0.13986707,0.30639837,5,14,31,3,7,19,0.03040677,0.07735011,0.19139929,0.14752552,0.20482559,0.33331937
29173,0,USMissouriRalls,Missouri,Ralls,2021-01-05 16:56:40.265875,2020-04-12 00:00:00.000000,0.05201778,0.13857926,0.30022750,5,14,30,3,7,19,0.03011716,0.07704796,0.18789324,0.14138404,0.20228929,0.32179681
29173,0,USMissouriRalls,Missouri,Ralls,2021-01-05 16:56:40.265875,2020-04-13 00:00:00.000000,0.04830347,0.13595727,0.29955429,4,14,30,3,7,19,0.02941220,0.07627046,0.18857756,0.13466107,0.19920620,0.30498254
29173,0,USMissouriRalls,Missouri,Ralls,2021-01-05 16:56:40.265875,2020-04-14 00:00:00.000000,0.04604790,0.13108184,0.29875489,4,13,30,2,7,19,0.02744482,0.07358158,0.18888015,0.13166023,0.19689949,0.28886675
29173,0,USMissouriRalls,Missouri,Ralls,2021-01-05 16:56:40.265875,2020-04-15 00:00:00.000000,0.04319915,0.12764803,0.29789251,4,13,30,2,7,19,0.02544967,0.07171687,0.18890606,0.11310128,0.19479907,0.28039558
29173,0,USMissouriRalls,Missouri,Ralls,2021-01-05 16:56:40.265875,2020-04-16 00:00:00.000000,0.03937318,0.12635823,0.29467095,4,13,30,2,7,19,0.02406770,0.07009683,0.18873808,0.10459529,0.19257914,0.28511833
29173,0,USMissouriRalls,Missouri,Ralls,2021-01-05 16:56:40.265875,2020-04-17 00:00:00.000000,0.03537164,0.12111855,0.28891793,3,12,29,2,7,19,0.02229779,0.06945049,0.18843536,0.10372612,0.19045249,0.29766529
29173,0,USMissouriRalls,Missouri,Ralls,2021-01-05 16:56:40.265875,2020-04-18 00:00:00.000000,0.03168550,0.11698630,0.28247780,3,12,29,2,6,19,0.02062626,0.06755839,0.18591776,0.10140872,0.18621367,0.28389115
29173,0,USMissouriRalls,Missouri,Ralls,2021-01-05 16:56:40.265875,2020-04-19 00:00:00.000000,0.02832944,0.11392245,0.27573506,2,11,28,1,6,18,0.01900873,0.06695470,0.18242489,0.09502766,0.18018930,0.27828250
29173,0,USMissouriRalls,Missouri,Ralls,2021-01-05 16:56:40.265875,2020-04-20 00:00:00.000000,0.02532429,0.11091643,0.27418253,2,11,28,1,6,18,0.01705801,0.06476604,0.17871519,0.08759580,0.17532880,0.27823042
29173,0,USMissouriRalls,Missouri,Ralls,2021-01-05 16:56:40.265875,2020-04-21 00:00:00.000000,0.02282765,0.10667037,0.27331552,2,10,28,1,6,18,0.01527613,0.06288859,0.17485698,0.08750997,0.17041571,0.27819497
29173,0,USMissouriRalls,Missouri,Ralls,2021-01-05 16:56:40.265875,2020-04-22 00:00:00.000000,0.02137616,0.10256217,0.27138673,2,10,27,1,6,17,0.01429020,0.06147102,0.17090746,0.08737630,0.16551808,0.27816162
29173,0,USMissouriRalls,Missouri,Ralls,2021-01-05 16:56:40.265875,2020-04-23 00:00:00.000000,0.01999595,0.09853988,0.26671894,2,10,27,1,6,17,0.01338650,0.06004510,0.16689726,0.08715769,0.16048503,0.27809872
29173,0,USMissouriRalls,Missouri,Ralls,2021-01-05 16:56:40.265875,2020-04-24 00:00:00.000000,0.01866152,0.09614183,0.25942516,1,9,26,1,5,16,0.01253248,0.05799263,0.16358486,0.08703132,0.16131474,0.27751388
29173,0,USMissouriRalls,Missouri,Ralls,2021-01-05 16:56:40.265875,2020-04-25 00:00:00.000000,0.01737215,0.09484548,0.25135117,1,9,25,1,5,16,0.01171618,0.05591307,0.16064766,0.08814965,0.15721108,0.26742416
29173,0,USMissouriRalls,Missouri,Ralls,2021-01-05 16:56:40.265875,2020-04-26 00:00:00.000000,0.01613897,0.09001887,0.24309914,1,9,25,1,5,16,0.01078670,0.05472987,0.15684045,0.08962175,0.15599944,0.26740052
29173,0,USMissouriRalls,Missouri,Ralls,2021-01-05 16:56:40.265875,2020-04-27 00:00:00.000000,0.03249832,0.09894753,0.25232599,3,10,26,1,5,15,0.00990791,0.05355595,0.15249901,0.08944563,0.15470696,0.26494827
29173,0,USMissouriRalls,Missouri,Ralls,2021-01-05 16:56:40.265875,2020-04-28 00:00:00.000000,0.04749486,0.10552405,0.24622522,4,10,25,1,5,15,0.01358189,0.05316745,0.14954397,0.08550788,0.15377326,0.24641088
29173,0,USMissouriRalls,Missouri,Ralls,2021-01-05 16:56:40.265875,2020-04-29 00:00:00.000000,0.05508746,0.11603235,0.25888464,5,11,26,2,5,15,0.01975281,0.05607466,0.14748809,0.08451926,0.15358525,0.23797182
29173,0,USMissouriRalls,Missouri,Ralls,2021-01-05 16:56:40.265875,2020-04-30 00:00:00.000000,0.06273867,0.12884793,0.27155650,6,13,27,2,6,15,0.02535698,0.06111481,0.14911242,0.08374272,0.15338410,0.23445242
29173,0,USMissouriRalls,Missouri,Ralls,2021-01-05 16:56:40.265875,2020-05-01 00:00:00.000000,0.07024717,0.14161183,0.28407636,7,14,29,3,6,15,0.02938730,0.06697544,0.15165138,0.08080194,0.15632198,0.22895104
29173,0,USMissouriRalls,Missouri,Ralls,2021-01-05 16:56:40.265875,2020-05-02 00:00:00.000000,0.07745110,0.15511233,0.29627334,7,15,30,3,7,16,0.03322469,0.07013255,0.15946220,0.08192020,0.15415218,0.22192858
29173,0,USMissouriRalls,Missouri,Ralls,2021-01-05 16:56:40.265875,2020-05-03 00:00:00.000000,0.08430663,0.16749362,0.31277566,8,17,32,3,7,17,0.03709565,0.07409938,0.16959082,0.08201843,0.15011452,0.22489445
29173,0,USMissouriRalls,Missouri,Ralls,2021-01-05 16:56:40.265875,2020-05-04 00:00:00.000000,0.08829891,0.16949197,0.33118452,9,17,34,4,8,18,0.04090105,0.08065434,0.17684917,0.08016313,0.14479203,0.22223671
29173,0,USMissouriRalls,Missouri,Ralls,2021-01-05 16:56:40.265875,2020-05-05 00:00:00.000000,0.09218698,0.18630491,0.33250849,9,19,34,4,8,18,0.04401835,0.08520269,0.18184016,0.07969124,0.14510385,0.21806393
29173,0,USMissouriRalls,Missouri,Ralls,2021-01-05 16:56:40.265875,2020-05-06 00:00:00.000000,0.10393401,0.20185462,0.33303790,10,20,34,4,9,20,0.04663801,0.09237422,0.19570357,0.07989701,0.14092970,0.21624659
29173,0,USMissouriRalls,Missouri,Ralls,2021-01-05 16:56:40.265875,2020-05-07 00:00:00.000000,0.10555720,0.21396290,0.37540631,10,22,38,5,10,21,0.04889086,0.09720202,0.21160942,0.07214331,0.13884071,0.20768878
29173,0,USMissouriRalls,Missouri,Ralls,2021-01-05 16:56:40.265875,2020-05-08 00:00:00.000000,0.10821847,0.21664227,0.42013359,11,22,43,5,10,22,0.05272911,0.10430236,0.21426839,0.07118929,0.13788394,0.20935664
29173,0,USMissouriRalls,Missouri,Ralls,2021-01-05 16:56:40.265875,2020-05-09 00:00:00.000000,0.11103604,0.21488418,0.46407349,11,22,47,5,11,21,0.05475563,0.11418446,0.21117593,0.07136459,0.13648419,0.21035387
29173,0,USMissouriRalls,Missouri,Ralls,2021-01-05 16:56:40.265875,2020-05-10 00:00:00.000000,0.10811976,0.21379164,0.49319540,11,22,50,5,11,23,0.05625781,0.11607110,0.22400238,0.07183114,0.13497681,0.21118304
29173,0,USMissouriRalls,Missouri,Ralls,2021-01-05 16:56:40.265875,2020-05-11 00:00:00.000000,0.12528924,0.22640028,0.50136634,12,23,51,5,12,25,0.05768558,0.12047900,0.24851973,0.07294131,0.13440895,0.21185978
29173,0,USMissouriRalls,Missouri,Ralls,2021-01-05 16:56:40.265875,2020-05-12 00:00:00.000000,0.13945825,0.23746739,0.50408345,14,24,51,6,13,27,0.06271563,0.12653772,0.26433826,0.07316304,0.13106491,0.21033792
29173,0,USMissouriRalls,Missouri,Ralls,2021-01-05 16:56:40.265875,2020-05-13 00:00:00.000000,0.14805033,0.24848414,0.49985555,15,25,51,7,13,28,0.06870275,0.12828691,0.27402664,0.07287066,0.13065067,0.20218273
29173,0,USMissouriRalls,Missouri,Ralls,2021-01-05 16:56:40.265875,2020-05-14 00:00:00.000000,0.15335070,0.25250186,0.49346463,15,26,50,7,13,28,0.07490070,0.13252939,0.27935297,0.07449113,0.13156801,0.20230390
29173,0,USMissouriRalls,Missouri,Ralls,2021-01-05 16:56:40.265875,2020-05-15 00:00:00.000000,0.15846096,0.26107381,0.48517516,16,26,50,8,14,29,0.08183595,0.13723256,0.28144757,0.07461970,0.13169903,0.20274733
29173,0,USMissouriRalls,Missouri,Ralls,2021-01-05 16:56:40.265875,2020-05-16 00:00:00.000000,0.15993171,0.26601242,0.47547588,16,27,49,8,14,28,0.08324852,0.13884129,0.28108426,0.07424245,0.13182240,0.20385132
29173,0,USMissouriRalls,Missouri,Ralls,2021-01-05 16:56:40.265875,2020-05-17 00:00:00.000000,0.16000895,0.26997305,0.46490132,16,27,47,8,14,28,0.08129199,0.13982354,0.27885560,0.07354949,0.13273327,0.17742109
29173,0,USMissouriRalls,Missouri,Ralls,2021-01-05 16:56:40.265875,2020-05-18 00:00:00.000000,0.16035573,0.27677103,0.47215713,16,28,48,8,15,28,0.08245293,0.14720440,0.27524980,0.07291318,0.13195685,0.17788973
29173,0,USMissouriRalls,Missouri,Ralls,2021-01-05 16:56:40.265875,2020-05-19 00:00:00.000000,0.16066947,0.27917317,0.48950178,16,28,50,8,15,28,0.08364340,0.15099307,0.27169969,0.07236478,0.13166862,0.18053462
29173,0,USMissouriRalls,Missouri,Ralls,2021-01-05 16:56:40.265875,2020-05-20 00:00:00.000000,0.15635891,0.28115914,0.51336614,16,28,52,8,15,27,0.08337119,0.15210041,0.26815046,0.07209787,0.13053799,0.18444380
29173,0,USMissouriRalls,Missouri,Ralls,2021-01-05 16:56:40.265875,2020-05-21 00:00:00.000000,0.15160008,0.28462885,0.56828888,15,29,58,8,16,28,0.08215541,0.15695552,0.27697743,0.07214634,0.13040005,0.18727025
29173,0,USMissouriRalls,Missouri,Ralls,2021-01-05 16:56:40.265875,2020-05-22 00:00:00.000000,0.14736046,0.28467716,0.62105942,15,29,64,8,16,29,0.08388578,0.15708118,0.28620289,0.07244815,0.13026369,0.18894467
29173,0,USMissouriRalls,Missouri,Ralls,2021-01-05 16:56:40.265875,2020-05-23 00:00:00.000000,0.14265931,0.28410859,0.63215620,14,29,65,8,16,30,0.08257182,0.15603448,0.29542337,0.07388685,0.13145766,0.18976438
29173,0,USMissouriRalls,Missouri,Ralls,2021-01-05 16:56:40.265875,2020-05-24 00:00:00.000000,0.13621869,0.28460630,0.64242401,14,29,66,8,16,31,0.07978193,0.15837142,0.30461976,0.07802388,0.13372799,0.19115822
29173,0,USMissouriRalls,Missouri,Ralls,2021-01-05 16:56:40.265875,2020-05-25 00:00:00.000000,0.14106206,0.28728389,0.63904615,14,29,65,7,16,33,0.07676089,0.15715363,0.32643573,0.08174274,0.12837870,0.19316557
29173,0,USMissouriRalls,Missouri,Ralls,2021-01-05 16:56:40.265875,2020-05-26 00:00:00.000000,0.14703932,0.29087864,0.63532478,15,29,65,7,16,35,0.07689238,0.15891658,0.34609738,0.08183234,0.12730504,0.19095514
29173,0,USMissouriRalls,Missouri,Ralls,2021-01-05 16:56:40.265875,2020-05-27 00:00:00.000000,0.15123831,0.29406570,0.63109579,15,30,65,8,16,37,0.07768220,0.15895949,0.36106582,0.08160042,0.12693981,0.18650748
29173,0,USMissouriRalls,Missouri,Ralls,2021-01-05 16:56:40.265875,2020-05-28 00:00:00.000000,0.15180707,0.29556570,0.62652189,15,30,64,8,16,38,0.08065651,0.15987852,0.37248676,0.08125639,0.12527555,0.18625597
29173,0,USMissouriRalls,Missouri,Ralls,2021-01-05 16:56:40.265875,2020-05-29 00:00:00.000000,0.15235794,0.29481281,0.62159165,15,30,64,8,16,39,0.08269689,0.15841573,0.38119686,0.08126411,0.12607666,0.18507103
29173,0,USMissouriRalls,Missouri,Ralls,2021-01-05 16:56:40.265875,2020-05-30 00:00:00.000000,0.15289532,0.29237813,0.61600530,15,30,63,8,16,39,0.08359143,0.15986274,0.38780416,0.08184752,0.12889077,0.18426075
29173,0,USMissouriRalls,Missouri,Ralls,2021-01-05 16:56:40.265875,2020-05-31 00:00:00.000000,0.15346981,0.29045729,0.60989175,15,29,62,8,16,40,0.08452493,0.16222152,0.39275320,0.08519802,0.12855492,0.18772325
29173,0,USMissouriRalls,Missouri,Ralls,2021-01-05 16:56:40.265875,2020-06-01 00:00:00.000000,0.15295216,0.29850791,0.61292694,15,30,63,8,16,40,0.08543310,0.16364000,0.39088156,0.08666372,0.13127506,0.18717227
29173,0,USMissouriRalls,Missouri,Ralls,2021-01-05 16:56:40.265875,2020-06-02 00:00:00.000000,0.15841918,0.30101511,0.61600488,16,31,63,9,16,40,0.08871799,0.16409883,0.38968762,0.08700012,0.13247445,0.18923917
29173,0,USMissouriRalls,Missouri,Ralls,2021-01-05 16:56:40.265875,2020-06-03 00:00:00.000000,0.16674339,0.30330772,0.61929681,17,31,63,9,16,40,0.08977909,0.16478725,0.38961588,0.08705533,0.13388096,0.19342320
29173,0,USMissouriRalls,Missouri,Ralls,2021-01-05 16:56:40.265875,2020-06-04 00:00:00.000000,0.17218925,0.30522433,0.62269279,17,31,64,9,17,40,0.09267115,0.16549135,0.38897977,0.08705548,0.13476285,0.19582316
29173,0,USMissouriRalls,Missouri,Ralls,2021-01-05 16:56:40.265875,2020-06-05 00:00:00.000000,0.16906454,0.30555958,0.62153117,17,31,64,9,16,39,0.09151306,0.16453181,0.38677288,0.08707165,0.13671317,0.19632883
29173,0,USMissouriRalls,Missouri,Ralls,2021-01-05 16:56:40.265875,2020-06-06 00:00:00.000000,0.16609231,0.30844678,0.64184767,17,31,66,9,17,39,0.09192402,0.16670075,0.38356864,0.08637849,0.13744464,0.19719467
29173,0,USMissouriRalls,Missouri,Ralls,2021-01-05 16:56:40.265875,2020-06-07 00:00:00.000000,0.16331299,0.31109348,0.68499986,16,32,70,9,17,38,0.09057794,0.16753304,0.37822211,0.08613444,0.13750471,0.19841641
29173,0,USMissouriRalls,Missouri,Ralls,2021-01-05 16:56:40.265875,2020-06-08 00:00:00.000000,0.17140659,0.30984694,0.66704690,17,31,68,9,17,38,0.08902744,0.16857834,0.37767492,0.08534063,0.13755710,0.20019582
29173,0,USMissouriRalls,Missouri,Ralls,2021-01-05 16:56:40.265875,2020-06-09 00:00:00.000000,0.17484612,0.30846209,0.64935003,18,31,66,9,17,38,0.09078253,0.17061764,0.37281115,0.08512551,0.13764749,0.20045300
29173,0,USMissouriRalls,Missouri,Ralls,2021-01-05 16:56:40.265875,2020-06-10 00:00:00.000000,0.17368208,0.31426406,0.63942885,17,32,65,9,17,37,0.09221026,0.17112922,0.36676717,0.08506640,0.13682792,0.21021145
29173,0,USMissouriRalls,Missouri,Ralls,2021-01-05 16:56:40.265875,2020-06-11 00:00:00.000000,0.17147772,0.31376879,0.62382877,17,32,64,9,17,37,0.09174802,0.17445750,0.36552612,0.08507304,0.13894326,0.21117406
29173,0,USMissouriRalls,Missouri,Ralls,2021-01-05 16:56:40.265875,2020-06-12 00:00:00.000000,0.16639013,0.32637590,0.61974244,17,33,63,9,17,38,0.08982662,0.17302825,0.37823962,0.08788322,0.13955451,0.21194627
29173,0,USMissouriRalls,Missouri,Ralls,2021-01-05 16:56:40.265875,2020-06-13 00:00:00.000000,0.16343182,0.32899335,0.61505159,16,33,63,9,17,40,0.09052696,0.17207677,0.38991452,0.08931762,0.14088425,0.20745001
29173,0,USMissouriRalls,Missouri,Ralls,2021-01-05 16:56:40.265875,2020-06-14 00:00:00.000000,0.16095766,0.33665787,0.61190059,16,34,63,9,17,40,0.09044709,0.17351843,0.39281396,0.08390549,0.14306819,0.20809325
29173,0,USMissouriRalls,Missouri,Ralls,2021-01-05 16:56:40.265875,2020-06-15 00:00:00.000000,0.16753408,0.33189949,0.61512844,17,34,63,9,18,40,0.08919454,0.17579258,0.39044360,0.08309188,0.14568748,0.21063064
29173,0,USMissouriRalls,Missouri,Ralls,2021-01-05 16:56:40.265875,2020-06-16 00:00:00.000000,0.17089283,0.34288757,0.60657668,17,35,62,9,18,40,0.08744467,0.18004037,0.38839142,0.08280806,0.14809457,0.21824780
29173,0,USMissouriRalls,Missouri,Ralls,2021-01-05 16:56:40.265875,2020-06-17 00:00:00.000000,0.17999334,0.35007957,0.62671732,18,36,64,9,19,39,0.08735000,0.18601366,0.38637021,0.08289301,0.15135215,0.22265371
29173,0,USMissouriRalls,Missouri,Ralls,2021-01-05 16:56:40.265875,2020-06-18 00:00:00.000000,0.18801094,0.35050049,0.65533680,19,36,67,9,19,39,0.09024953,0.18973284,0.37922279,0.08381194,0.15297511,0.22385035
29173,0,USMissouriRalls,Missouri,Ralls,2021-01-05 16:56:40.265875,2020-06-19 00:00:00.000000,0.18256460,0.35605286,0.68309707,18,36,70,9,20,38,0.09352854,0.19554751,0.37277000,0.08641508,0.15336408,0.22362256
29173,0,USMissouriRalls,Missouri,Ralls,2021-01-05 16:56:40.265875,2020-06-20 00:00:00.000000,0.17516538,0.35289536,0.70975978,18,36,73,9,20,39,0.09694530,0.19806351,0.38251643,0.09108114,0.15575747,0.22739678
29173,0,USMissouriRalls,Missouri,Ralls,2021-01-05 16:56:40.265875,2020-06-21 00:00:00.000000,0.16833957,0.35653413,0.73516829,17,36,75,10,20,39,0.09731427,0.19787814,0.38591301,0.09684465,0.16097091,0.22895421
29173,0,USMissouriRalls,Missouri,Ralls,2021-01-05 16:56:40.265875,2020-06-22 00:00:00.000000,0.16997625,0.35810782,0.71760042,17,36,73,9,20,41,0.09333148,0.20047804,0.40607643,0.10297731,0.16658587,0.23127991
29173,0,USMissouriRalls,Missouri,Ralls,2021-01-05 16:56:40.265875,2020-06-23 00:00:00.000000,0.17233312,0.35955489,0.70166123,17,37,72,9,20,42,0.09144855,0.20261955,0.40748227,0.10673597,0.17133269,0.25829282
29173,0,USMissouriRalls,Missouri,Ralls,2021-01-05 16:56:40.265875,2020-06-24 00:00:00.000000,0.17356251,0.36260337,0.69964478,17,37,72,9,20,42,0.09098929,0.20173068,0.41298347,0.11080790,0.17388834,0.27018709
29173,0,USMissouriRalls,Missouri,Ralls,2021-01-05 16:56:40.265875,2020-06-25 00:00:00.000000,0.16976054,0.36708555,0.69729974,17,37,71,9,21,43,0.09161489,0.20380967,0.42057803,0.11242932,0.17547507,0.27206180
29173,0,USMissouriRalls,Missouri,Ralls,2021-01-05 16:56:40.265875,2020-06-26 00:00:00.000000,0.17154006,0.37541460,0.70009267,17,38,72,9,21,44,0.09320890,0.20410054,0.42699958,0.11164932,0.17765875,0.27414736
29173,0,USMissouriRalls,Missouri,Ralls,2021-01-05 16:56:40.265875,2020-06-27 00:00:00.000000,0.17355575,0.38694962,0.72103418,17,39,74,9,21,44,0.09263360,0.20825616,0.42703652,0.10937247,0.18066752,0.28132641
29173,0,USMissouriRalls,Missouri,Ralls,2021-01-05 16:56:40.265875,2020-06-28 00:00:00.000000,0.17364681,0.39564678,0.74268407,17,40,76,9,21,43,0.09045540,0.20993189,0.42664381,0.11636088,0.18984494,0.28856288
29173,0,USMissouriRalls,Missouri,Ralls,2021-01-05 16:56:40.265875,2020-06-29 00:00:00.000000,0.16262103,0.38188887,0.73193428,16,39,75,9,21,44,0.09033950,0.21320345,0.43465957,0.12045897,0.19557174,0.29292120
29173,0,USMissouriRalls,Missouri,Ralls,2021-01-05 16:56:40.265875,2020-06-30 00:00:00.000000,0.15222035,0.37545493,0.72871660,15,38,75,9,21,45,0.08950569,0.21280251,0.44152602,0.12299370,0.19904920,0.30674608
29173,0,USMissouriRalls,Missouri,Ralls,2021-01-05 16:56:40.265875,2020-07-01 00:00:00.000000,0.14261648,0.36928041,0.71196468,14,38,73,8,21,45,0.08555888,0.20932780,0.43876977,0.12179530,0.20830472,0.31406421
29173,0,USMissouriRalls,Missouri,Ralls,2021-01-05 16:56:40.265875,2020-07-02 00:00:00.000000,0.13543643,0.36368554,0.70216584,13,37,72,8,21,44,0.08047741,0.20492163,0.43399718,0.12197544,0.21625462,0.32120181
29173,0,USMissouriRalls,Missouri,Ralls,2021-01-05 16:56:40.265875,2020-07-03 00:00:00.000000,0.13171137,0.35542067,0.69480729,13,36,71,7,20,44,0.07568778,0.19791044,0.42795851,0.12222483,0.22226249,0.33007476
29173,0,USMissouriRalls,Missouri,Ralls,2021-01-05 16:56:40.265875,2020-07-04 00:00:00.000000,0.12210956,0.34652602,0.68771490,12,35,70,7,20,43,0.07140272,0.19726506,0.42117589,0.12455383,0.23167993,0.33247063
29173,0,USMissouriRalls,Missouri,Ralls,2021-01-05 16:56:40.265875,2020-07-05 00:00:00.000000,0.11373922,0.34016133,0.68086217,11,35,70,6,20,42,0.06749665,0.19649810,0.41397466,0.12599563,0.23376929,0.33583032
29173,0,USMissouriRalls,Missouri,Ralls,2021-01-05 16:56:40.265875,2020-07-06 00:00:00.000000,0.13714993,0.36555399,0.71257819,14,37,73,6,20,42,0.06384013,0.19560903,0.40779977,0.12743835,0.24148113,0.34146671
29173,0,USMissouriRalls,Missouri,Ralls,2021-01-05 16:56:40.265875,2020-07-07 00:00:00.000000,0.15676270,0.38900955,0.76432698,16,40,78,7,20,43,0.06860691,0.19740522,0.42202120,0.12947319,0.24453801,0.36319146
29173,0,USMissouriRalls,Missouri,Ralls,2021-01-05 16:56:40.265875,2020-07-08 00:00:00.000000,0.16092084,0.41367927,0.81293587,16,42,83,8,21,45,0.07880524,0.20444988,0.44475408,0.13581126,0.25005690,0.37219577
29173,0,USMissouriRalls,Missouri,Ralls,2021-01-05 16:56:40.265875,2020-07-09 00:00:00.000000,0.17022005,0.44201517,0.85617434,17,45,88,9,22,48,0.09125067,0.21665799,0.47398722,0.13972799,0.26592179,0.39684220
29173,0,USMissouriRalls,Missouri,Ralls,2021-01-05 16:56:40.265875,2020-07-10 00:00:00.000000,0.17039410,0.46619527,0.91844514,17,48,94,9,23,51,0.09476928,0.22859938,0.49899513,0.14256699,0.27558021,0.40000133
29173,0,USMissouriRalls,Missouri,Ralls,2021-01-05 16:56:40.265875,2020-07-11 00:00:00.000000,0.17179796,0.49600529,0.96783491,17,51,99,10,24,52,0.09783254,0.24121286,0.50745649,0.14933389,0.28794054,0.40852561
29173,0,USMissouriRalls,Missouri,Ralls,2021-01-05 16:56:40.265875,2020-07-12 00:00:00.000000,0.17578335,0.53297940,1.02566250,18,54,105,10,25,53,0.10108296,0.25178063,0.51753645,0.16508880,0.30206001,0.42830722
29173,0,USMissouriRalls,Missouri,Ralls,2021-01-05 16:56:40.265875,2020-07-13 00:00:00.000000,0.23780796,0.58314874,1.08430174,24,60,111,11,27,55,0.10760030,0.26292153,0.53816846,0.16658428,0.32051497,0.44859718
29173,0,USMissouriRalls,Missouri,Ralls,2021-01-05 16:56:40.265875,2020-07-14 00:00:00.000000,0.26324709,0.62309454,1.19086147,27,64,122,12,29,59,0.11655911,0.28297354,0.57462272,0.17040662,0.32923906,0.47206192
29173,0,USMissouriRalls,Missouri,Ralls,2021-01-05 16:56:40.265875,2020-07-15 00:00:00.000000,0.29081864,0.65999024,1.22616848,29,68,126,13,31,65,0.13385776,0.30641505,0.63200184,0.17902530,0.33975678,0.48727304
29173,0,USMissouriRalls,Missouri,Ralls,2021-01-05 16:56:40.265875,2020-07-16 00:00:00.000000,0.31996280,0.69887005,1.28613256,32,72,132,15,34,71,0.15389380,0.33436201,0.69153418,0.19358402,0.34898369,0.50985368
29173,0,USMissouriRalls,Missouri,Ralls,2021-01-05 16:56:40.265875,2020-07-17 00:00:00.000000,0.35037459,0.75590174,1.36822187,36,77,141,18,37,75,0.17536893,0.36091585,0.73289476,0.20767223,0.35763878,0.51674731
29173,0,USMissouriRalls,Missouri,Ralls,2021-01-05 16:56:40.265875,2020-07-18 00:00:00.000000,0.38186622,0.80302139,1.45456406,39,82,149,20,39,80,0.19773005,0.38340900,0.77924998,0.21571318,0.35940081,0.51681827
29173,0,USMissouriRalls,Missouri,Ralls,2021-01-05 16:56:40.265875,2020-07-19 00:00:00.000000,0.41432973,0.85466686,1.53822621,42,88,158,22,42,85,0.21937347,0.40761892,0.83082877,0.22165306,0.36577294,0.51685327
29173,0,USMissouriRalls,Missouri,Ralls,2021-01-05 16:56:40.265875,2020-07-20 00:00:00.000000,0.45442257,0.91683627,1.62838352,46,94,167,24,45,87,0.23856782,0.44224834,0.84877160,0.23515767,0.36982176,0.52751174
29173,0,USMissouriRalls,Missouri,Ralls,2021-01-05 16:56:40.265875,2020-07-21 00:00:00.000000,0.52548654,0.98780820,1.72194064,54,101,177,26,49,89,0.25734104,0.47831896,0.86926143,0.24700820,0.37704446,0.55160594
29173,0,USMissouriRalls,Missouri,Ralls,2021-01-05 16:56:40.265875,2020-07-22 00:00:00.000000,0.59905376,1.06968556,1.82064165,61,110,187,28,52,91,0.27625639,0.51282650,0.89126596,0.26446520,0.38714196,0.55594274
29173,0,USMissouriRalls,Missouri,Ralls,2021-01-05 16:56:40.265875,2020-07-23 00:00:00.000000,0.64944563,1.14412588,1.92552538,66,117,198,30,56,96,0.29559581,0.54825370,0.93338898,0.27631402,0.39900890,0.55226201
29173,0,USMissouriRalls,Missouri,Ralls,2021-01-05 16:56:40.265875,2020-07-24 00:00:00.000000,0.68794430,1.23114250,2.04175059,70,126,210,32,60,102,0.31551995,0.58892914,0.99055260,0.28648422,0.40570256,0.56486188
29173,0,USMissouriRalls,Missouri,Ralls,2021-01-05 16:56:40.265875,2020-07-25 00:00:00.000000,0.74088718,1.32763200,2.13453616,76,136,220,35,64,108,0.34659082,0.62352651,1.04772616,0.30323167,0.41573287,0.56436976
29173,0,USMissouriRalls,Missouri,Ralls,2021-01-05 16:56:40.265875,2020-07-26 00:00:00.000000,0.80453511,1.41290854,2.22511171,82,145,229,39,68,114,0.38615730,0.66253570,1.10644947,0.31536658,0.42750207,0.59368900
29173,0,USMissouriRalls,Missouri,Ralls,2021-01-05 16:56:40.265875,2020-07-27 00:00:00.000000,0.89807770,1.49918090,2.34677823,92,154,241,43,73,120,0.41723511,0.71406844,1.16757115,0.32287824,0.42846955,0.61268078
29173,0,USMissouriRalls,Missouri,Ralls,2021-01-05 16:56:40.265875,2020-07-28 00:00:00.000000,0.97362318,1.58108725,2.47771403,100,162,255,46,78,126,0.45571164,0.76191328,1.22781035,0.32397532,0.43724057,0.61655678
29173,0,USMissouriRalls,Missouri,Ralls,2021-01-05 16:56:40.265875,2020-07-29 00:00:00.000000,1.02005033,1.68367768,2.61627241,105,173,269,49,84,133,0.48304051,0.81536858,1.29642377,0.32513960,0.44412192,0.61498431
29173,0,USMissouriRalls,Missouri,Ralls,2021-01-05 16:56:40.265875,2020-07-30 00:00:00.000000,1.06358255,1.80341638,2.76208529,109,185,284,53,89,141,0.52249817,0.86881658,1.37675572,0.32737845,0.44964840,0.61509395
29173,0,USMissouriRalls,Missouri,Ralls,2021-01-05 16:56:40.265875,2020-07-31 00:00:00.000000,1.10866538,1.92308983,2.91491038,114,198,300,57,95,149,0.55666393,0.92233332,1.44656908,0.33005065,0.45720108,0.61508832
29173,0,USMissouriRalls,Missouri,Ralls,2021-01-05 16:56:40.265875,2020-08-01 00:00:00.000000,1.15625038,2.05543430,3.07465192,119,211,316,61,101,154,0.59313152,0.98195980,1.50017187,0.32772066,0.46266694,0.61491434
29173,0,USMissouriRalls,Missouri,Ralls,2021-01-05 16:56:40.265875,2020-08-02 00:00:00.000000,1.20965755,2.18510092,3.24136260,124,225,334,65,108,161,0.63351528,1.05491189,1.56252684,0.32375002,0.46288207,0.61875821
29173,0,USMissouriRalls,Missouri,Ralls,2021-01-05 16:56:40.265875,2020-08-03 00:00:00.000000,1.31268689,2.33910096,3.40450574,135,241,350,70,116,170,0.67931649,1.13274583,1.65066045,0.31856713,0.46128471,0.61702216
29173,0,USMissouriRalls,Missouri,Ralls,2021-01-05 16:56:40.265875,2020-08-04 00:00:00.000000,1.42538305,2.49993709,3.57501572,146,257,368,74,123,180,0.72243316,1.19935684,1.74838041,0.31366237,0.46443541,0.62812789
29173,0,USMissouriRalls,Missouri,Ralls,2021-01-05 16:56:40.265875,2020-08-05 00:00:00.000000,1.54793854,2.65717682,3.75316092,159,273,386,80,131,189,0.77621105,1.27725571,1.83583976,0.31480174,0.46213379,0.62195373
29173,0,USMissouriRalls,Missouri,Ralls,2021-01-05 16:56:40.265875,2020-08-06 00:00:00.000000,1.67914268,2.80453032,3.94120925,173,289,406,86,140,197,0.83839287,1.36505876,1.91944864,0.32293351,0.45033607,0.62122306
29173,0,USMissouriRalls,Missouri,Ralls,2021-01-05 16:56:40.265875,2020-08-07 00:00:00.000000,1.81925335,2.94637896,4.21207044,187,303,434,93,149,208,0.90746061,1.45256849,2.02240217,0.31773696,0.44316385,0.61479950
29173,0,USMissouriRalls,Missouri,Ralls,2021-01-05 16:56:40.265875,2020-08-08 00:00:00.000000,1.94457636,3.10078205,4.50970271,200,319,464,100,156,224,0.97536156,1.51585468,2.17871654,0.31441961,0.43782478,0.60314990
29173,0,USMissouriRalls,Missouri,Ralls,2021-01-05 16:56:40.265875,2020-08-09 00:00:00.000000,2.05242923,3.27124359,4.69375576,211,337,483,104,164,242,1.01325742,1.59422116,2.34909097,0.31081840,0.43317331,0.59276295
29173,0,USMissouriRalls,Missouri,Ralls,2021-01-05 16:56:40.265875,2020-08-10 00:00:00.000000,2.15729308,3.42429861,4.88510813,222,353,503,108,172,255,1.04956600,1.67460471,2.47713407,0.29619718,0.41354043,0.57609527
29173,0,USMissouriRalls,Missouri,Ralls,2021-01-05 16:56:40.265875,2020-08-11 00:00:00.000000,2.26083664,3.54149316,5.13137549,233,365,528,111,180,269,1.08462437,1.75119267,2.61276861,0.28707939,0.40941543,0.57135192
29173,0,USMissouriRalls,Missouri,Ralls,2021-01-05 16:56:40.265875,2020-08-12 00:00:00.000000,2.33726746,3.64678972,5.37763238,240,375,554,115,188,283,1.11879637,1.82811049,2.75451950,0.28696153,0.39362872,0.53440455
29173,0,USMissouriRalls,Missouri,Ralls,2021-01-05 16:56:40.265875,2020-08-13 00:00:00.000000,2.40086147,3.75824855,5.47508018,247,387,564,119,194,299,1.15558662,1.88782961,2.90083202,0.28014060,0.38466523,0.53380337
29173,0,USMissouriRalls,Missouri,Ralls,2021-01-05 16:56:40.265875,2020-08-14 00:00:00.000000,2.46225035,3.86998683,5.59910465,253,398,577,123,199,314,1.20194841,1.93941934,3.04939570,0.26936996,0.37154856,0.50032072
29173,0,USMissouriRalls,Missouri,Ralls,2021-01-05 16:56:40.265875,2020-08-15 00:00:00.000000,2.53043083,3.96746028,5.81025192,260,409,598,128,207,329,1.24442963,2.01658868,3.19632220,0.25799661,0.35337535,0.48278706
29173,0,USMissouriRalls,Missouri,Ralls,2021-01-05 16:56:40.265875,2020-08-16 00:00:00.000000,2.59867091,4.02682817,6.01769008,267,415,620,131,213,343,1.28015267,2.07295649,3.33598264,0.23547274,0.34024582,0.47283209
29173,0,USMissouriRalls,Missouri,Ralls,2021-01-05 16:56:40.265875,2020-08-17 00:00:00.000000,2.63521523,4.07508212,6.08170461,271,420,626,134,218,356,1.30906904,2.11557492,3.46211686,0.21237877,0.32665296,0.46855750
29173,0,USMissouriRalls,Missouri,Ralls,2021-01-05 16:56:40.265875,2020-08-18 00:00:00.000000,2.64676549,4.11621506,6.11129216,272,424,630,136,223,362,1.32873085,2.17203555,3.51395095,0.20009862,0.30635516,0.46463107
29173,0,USMissouriRalls,Missouri,Ralls,2021-01-05 16:56:40.265875,2020-08-19 00:00:00.000000,2.65154788,4.17143540,6.04432439,273,430,623,138,229,363,1.34155238,2.22964121,3.52978114,0.19206550,0.29378177,0.44350649
29173,0,USMissouriRalls,Missouri,Ralls,2021-01-05 16:56:40.265875,2020-08-20 00:00:00.000000,2.65182678,4.20056850,5.88274027,273,433,606,139,232,361,1.34945821,2.25197173,3.51141669,0.18579977,0.28146076,0.44025650
29173,0,USMissouriRalls,Missouri,Ralls,2021-01-05 16:56:40.265875,2020-08-21 00:00:00.000000,2.65711710,4.20326485,5.68518262,273,433,586,139,234,358,1.35558108,2.27503752,3.47642439,0.17183739,0.26757401,0.43458228
29173,0,USMissouriRalls,Missouri,Ralls,2021-01-05 16:56:40.265875,2020-08-22 00:00:00.000000,2.66982231,4.17547898,5.61308194,275,430,578,140,234,358,1.36539889,2.27146498,3.47879824,0.16626477,0.24891900,0.36511260
29173,0,USMissouriRalls,Missouri,Ralls,2021-01-05 16:56:40.265875,2020-08-23 00:00:00.000000,2.62584388,4.14255229,5.55305766,270,427,572,141,235,354,1.37286230,2.28062148,3.44199926,0.15488313,0.23046916,0.34522640
29173,0,USMissouriRalls,Missouri,Ralls,2021-01-05 16:56:40.265875,2020-08-24 00:00:00.000000,2.60240909,4.08067333,5.48905192,268,420,565,140,232,348,1.35984189,2.25799799,3.38203568,0.14971285,0.22277027,0.32593640
29173,0,USMissouriRalls,Missouri,Ralls,2021-01-05 16:56:40.265875,2020-08-25 00:00:00.000000,2.57732073,4.00173133,5.42189375,265,412,558,138,230,341,1.33935999,2.23397045,3.31628137,0.14781615,0.21662394,0.30581718
29173,0,USMissouriRalls,Missouri,Ralls,2021-01-05 16:56:40.265875,2020-08-26 00:00:00.000000,2.54825826,3.88048004,5.34667443,262,400,551,136,226,334,1.32893066,2.19655974,3.24692750,0.14684934,0.21123437,0.30111453
29173,0,USMissouriRalls,Missouri,Ralls,2021-01-05 16:56:40.265875,2020-08-27 00:00:00.000000,2.51516425,3.77824855,5.24828572,259,389,541,135,222,331,1.31632346,2.15759207,3.21656254,0.14417769,0.20569225,0.29606165
29173,0,USMissouriRalls,Missouri,Ralls,2021-01-05 16:56:40.265875,2020-08-28 00:00:00.000000,2.42302716,3.66307569,5.11671596,249,377,527,134,217,330,1.30159796,2.10909778,3.20144510,0.13894818,0.19861202,0.28915958
29173,0,USMissouriRalls,Missouri,Ralls,2021-01-05 16:56:40.265875,2020-08-29 00:00:00.000000,2.32463114,3.51164935,5.01242627,239,362,516,132,211,328,1.28466738,2.05040351,3.18200532,0.13404718,0.19157198,0.28221257
29173,0,USMissouriRalls,Missouri,Ralls,2021-01-05 16:56:40.265875,2020-08-30 00:00:00.000000,2.23480500,3.41787245,4.92145555,230,352,507,128,206,325,1.25095307,2.00488376,3.15473180,0.13159716,0.18697548,0.27597586
29173,0,USMissouriRalls,Missouri,Ralls,2021-01-05 16:56:40.265875,2020-08-31 00:00:00.000000,2.15191593,3.30306287,4.81288171,221,340,496,124,201,321,1.20742045,1.95147025,3.11823328,0.12840054,0.18291062,0.27158547
29173,0,USMissouriRalls,Missouri,Ralls,2021-01-05 16:56:40.265875,2020-09-01 00:00:00.000000,2.07113807,3.18037873,4.70344377,213,327,484,119,194,316,1.16306522,1.88939351,3.07195593,0.12606277,0.18161850,0.26547097
29173,0,USMissouriRalls,Missouri,Ralls,2021-01-05 16:56:40.265875,2020-09-02 00:00:00.000000,1.99815218,3.08135616,4.59413070,205,317,473,115,187,310,1.11919195,1.82022989,3.01341487,0.12411681,0.18106604,0.25848893
29173,0,USMissouriRalls,Missouri,Ralls,2021-01-05 16:56:40.265875,2020-09-03 00:00:00.000000,1.92901919,2.98162994,4.48567282,198,307,462,110,181,302,1.07664758,1.76194898,2.93235273,0.12513155,0.18096031,0.26273192
29173,0,USMissouriRalls,Missouri,Ralls,2021-01-05 16:56:40.265875,2020-09-04 00:00:00.000000,1.86378511,2.87662187,4.37860944,192,296,451,106,176,293,1.03612964,1.71460370,2.84713232,0.12642777,0.17943926,0.26586823
29173,0,USMissouriRalls,Missouri,Ralls,2021-01-05 16:56:40.265875,2020-09-05 00:00:00.000000,1.80322753,2.77958009,4.27344519,185,286,440,102,170,284,0.99811424,1.65038546,2.76012375,0.12749065,0.17972692,0.26247861
29173,0,USMissouriRalls,Missouri,Ralls,2021-01-05 16:56:40.265875,2020-09-06 00:00:00.000000,1.74968336,2.67577088,4.17081131,180,275,429,99,163,279,0.96274456,1.58803980,2.71371499,0.12810061,0.18364619,0.26307696
29173,0,USMissouriRalls,Missouri,Ralls,2021-01-05 16:56:40.265875,2020-09-07 00:00:00.000000,1.69655748,2.55984614,4.06805770,174,263,419,95,158,274,0.92987076,1.53302344,2.66287683,0.12661031,0.18378644,0.26578200
29173,0,USMissouriRalls,Missouri,Ralls,2021-01-05 16:56:40.265875,2020-09-08 00:00:00.000000,1.63698872,2.44669699,3.96321340,168,252,408,92,152,268,0.90118626,1.48065458,2.60083283,0.12416025,0.18509790,0.27621479
29173,0,USMissouriRalls,Missouri,Ralls,2021-01-05 16:56:40.265875,2020-09-09 00:00:00.000000,1.57805989,2.37447514,3.86438554,162,244,398,90,147,260,0.87562443,1.43104031,2.53175925,0.11960300,0.18712399,0.29048721
29173,0,USMissouriRalls,Missouri,Ralls,2021-01-05 16:56:40.265875,2020-09-10 00:00:00.000000,1.52259992,2.30547683,3.77140987,156,237,388,87,142,253,0.85243477,1.38399585,2.45871717,0.11952682,0.19115906,0.29884694
29173,0,USMissouriRalls,Missouri,Ralls,2021-01-05 16:56:40.265875,2020-09-11 00:00:00.000000,1.47893189,2.23191029,3.68511355,152,230,379,85,138,245,0.83114678,1.34268364,2.38392647,0.11964952,0.19549934,0.30525161
29173,0,USMissouriRalls,Missouri,Ralls,2021-01-05 16:56:40.265875,2020-09-12 00:00:00.000000,1.47129531,2.15477404,3.60772660,151,222,371,83,134,238,0.81149202,1.30914770,2.30893474,0.11947781,0.19798800,0.30651205
29173,0,USMissouriRalls,Missouri,Ralls,2021-01-05 16:56:40.265875,2020-09-13 00:00:00.000000,1.46855739,2.08664704,3.54069790,151,215,365,81,130,230,0.79331440,1.26873632,2.23477675,0.12096638,0.19758113,0.30747177
29173,0,USMissouriRalls,Missouri,Ralls,2021-01-05 16:56:40.265875,2020-09-14 00:00:00.000000,1.40735669,2.03426094,3.47357404,145,209,358,80,127,222,0.77658185,1.23764210,2.16211629,0.12277287,0.20053405,0.31176879
29173,0,USMissouriRalls,Missouri,Ralls,2021-01-05 16:56:40.265875,2020-09-15 00:00:00.000000,1.34775691,1.98907220,3.41124984,138,205,351,78,124,216,0.76029599,1.21200532,2.10177413,0.12296140,0.20471249,0.31518968
29173,0,USMissouriRalls,Missouri,Ralls,2021-01-05 16:56:40.265875,2020-09-16 00:00:00.000000,1.29833664,1.96763306,3.35173863,133,202,345,76,121,212,0.74434765,1.17703866,2.05977667,0.12330732,0.20936617,0.31963940
29173,0,USMissouriRalls,Missouri,Ralls,2021-01-05 16:56:40.265875,2020-09-17 00:00:00.000000,1.25979254,1.92657787,3.29435223,129,198,339,75,117,208,0.72913536,1.14341253,2.02036975,0.12391305,0.21229326,0.32924634
29173,0,USMissouriRalls,Missouri,Ralls,2021-01-05 16:56:40.265875,2020-09-18 00:00:00.000000,1.22992131,1.88552695,3.23906702,126,194,333,73,114,204,0.71518072,1.10807086,1.98307622,0.12999243,0.21957081,0.34592458
29173,0,USMissouriRalls,Missouri,Ralls,2021-01-05 16:56:40.265875,2020-09-19 00:00:00.000000,1.20550193,1.86455908,3.19278267,124,192,329,72,110,200,0.70253631,1.07643539,1.94757900,0.12965210,0.22571552,0.36202516
29173,0,USMissouriRalls,Missouri,Ralls,2021-01-05 16:56:40.265875,2020-09-20 00:00:00.000000,1.18431665,1.84307774,3.18196520,122,190,328,71,108,197,0.69123576,1.05388866,1.91503852,0.13029475,0.23240193,0.37070751
29173,0,USMissouriRalls,Missouri,Ralls,2021-01-05 16:56:40.265875,2020-09-21 00:00:00.000000,1.21409558,1.80950322,3.15528273,125,186,325,69,105,194,0.67242977,1.02360567,1.89148673,0.13633037,0.24279607,0.37395184
29173,0,USMissouriRalls,Missouri,Ralls,2021-01-05 16:56:40.265875,2020-09-22 00:00:00.000000,1.24416993,1.78705383,3.13008415,128,184,322,67,104,192,0.65368922,1.00982773,1.87084943,0.13878083,0.24716515,0.37539106
29173,0,USMissouriRalls,Missouri,Ralls,2021-01-05 16:56:40.265875,2020-09-23 00:00:00.000000,1.23268015,1.77808369,3.09862953,127,183,319,65,103,190,0.63812451,1.00358111,1.85227946,0.14602078,0.25317964,0.38243979
29173,0,USMissouriRalls,Missouri,Ralls,2021-01-05 16:56:40.265875,2020-09-24 00:00:00.000000,1.22230818,1.77419923,3.05810261,126,182,315,66,102,189,0.64687287,0.99827628,1.83513522,0.16493629,0.26402553,0.39353168
29173,0,USMissouriRalls,Missouri,Ralls,2021-01-05 16:56:40.265875,2020-09-25 00:00:00.000000,1.21267870,1.75955557,3.03139002,125,181,312,68,102,187,0.66407175,0.99155134,1.81898732,0.17194230,0.27165008,0.39539097
29173,0,USMissouriRalls,Missouri,Ralls,2021-01-05 16:56:40.265875,2020-09-26 00:00:00.000000,1.20349587,1.77683178,3.03349916,124,183,312,68,101,185,0.66925174,0.98708907,1.80355101,0.20309314,0.28130662,0.40733200
29173,0,USMissouriRalls,Missouri,Ralls,2021-01-05 16:56:40.265875,2020-09-27 00:00:00.000000,1.19447277,1.79140373,3.01616981,123,184,310,68,102,184,0.66536562,0.98981518,1.78863674,0.20403289,0.29305404,0.42120231
29173,0,USMissouriRalls,Missouri,Ralls,2021-01-05 16:56:40.265875,2020-09-28 00:00:00.000000,1.21593110,1.81389563,3.01370332,125,186,310,67,103,182,0.65284374,1.00021805,1.77413427,0.20582058,0.30152292,0.42309717
29173,0,USMissouriRalls,Missouri,Ralls,2021-01-05 16:56:40.265875,2020-09-29 00:00:00.000000,1.21383689,1.84234844,3.01562516,125,189,310,66,103,181,0.64369951,1.00707395,1.76273432,0.20127587,0.31091920,0.44060485
29173,0,USMissouriRalls,Missouri,Ralls,2021-01-05 16:56:40.265875,2020-09-30 00:00:00.000000,1.21033834,1.87297658,3.02055256,124,193,311,67,105,180,0.65556265,1.01905967,1.75371733,0.20589501,0.31391116,0.46617865
29173,0,USMissouriRalls,Missouri,Ralls,2021-01-05 16:56:40.265875,2020-10-01 00:00:00.000000,1.21555310,1.89303423,3.02795602,125,195,312,69,106,186,0.67157600,1.03193043,1.80861010,0.21265185,0.32871842,0.49869499
29173,0,USMissouriRalls,Missouri,Ralls,2021-01-05 16:56:40.265875,2020-10-02 00:00:00.000000,1.26238322,1.92213142,3.03767309,130,198,313,69,106,192,0.67691780,1.03605837,1.87127478,0.21607789,0.33789263,0.51096538
29173,0,USMissouriRalls,Missouri,Ralls,2021-01-05 16:56:40.265875,2020-10-03 00:00:00.000000,1.31509622,1.95114803,3.04971534,135,201,314,69,108,193,0.67675767,1.05131772,1.87633256,0.22422593,0.35180444,0.51503783
29173,0,USMissouriRalls,Missouri,Ralls,2021-01-05 16:56:40.265875,2020-10-04 00:00:00.000000,1.33805251,1.99629269,3.07820993,137,205,317,69,109,193,0.67762402,1.06598499,1.88064583,0.24192472,0.36180789,0.51683815
29173,0,USMissouriRalls,Missouri,Ralls,2021-01-05 16:56:40.265875,2020-10-05 00:00:00.000000,1.38293768,2.04506858,3.09837937,142,210,319,70,111,194,0.67987531,1.08205787,1.88687093,0.25154010,0.36751846,0.51527343
29173,0,USMissouriRalls,Missouri,Ralls,2021-01-05 16:56:40.265875,2020-10-06 00:00:00.000000,1.43155413,2.10754844,3.12270026,147,217,321,71,113,195,0.69391300,1.10338628,1.89892502,0.25472979,0.37485800,0.52508333
29173,0,USMissouriRalls,Missouri,Ralls,2021-01-05 16:56:40.265875,2020-10-07 00:00:00.000000,1.48782229,2.17768099,3.15932225,153,224,325,73,116,198,0.71652382,1.13220591,1.92682911,0.26408024,0.37621983,0.53433964
29173,0,USMissouriRalls,Missouri,Ralls,2021-01-05 16:56:40.265875,2020-10-08 00:00:00.000000,1.55313581,2.25512173,3.25637054,160,232,335,76,120,201,0.74362467,1.16583099,1.95088653,0.25710072,0.38328955,0.53058352
29173,0,USMissouriRalls,Missouri,Ralls,2021-01-05 16:56:40.265875,2020-10-09 00:00:00.000000,1.60775858,2.30661682,3.34850417,165,237,345,77,125,203,0.75209117,1.21530201,1.97304589,0.25525242,0.38133257,0.52497696
29173,0,USMissouriRalls,Missouri,Ralls,2021-01-05 16:56:40.265875,2020-10-10 00:00:00.000000,1.68586655,2.39183496,3.43858990,173,246,354,80,129,205,0.78077085,1.25596231,1.99503081,0.26516748,0.38804839,0.56998387
29173,0,USMissouriRalls,Missouri,Ralls,2021-01-05 16:56:40.265875,2020-10-11 00:00:00.000000,1.74700147,2.46644469,3.52952062,180,254,363,83,131,208,0.81187337,1.27883707,2.01865736,0.27085841,0.39592201,0.57913307
29173,0,USMissouriRalls,Missouri,Ralls,2021-01-05 16:56:40.265875,2020-10-12 00:00:00.000000,1.78323525,2.52666602,3.62283041,183,260,373,86,134,212,0.84178130,1.30415142,2.05912306,0.27885937,0.39531794,0.58047214
29173,0,USMissouriRalls,Missouri,Ralls,2021-01-05 16:56:40.265875,2020-10-13 00:00:00.000000,1.85193656,2.58459068,3.73673878,190,266,385,89,138,218,0.86790981,1.34531755,2.11465844,0.28111628,0.40460666,0.58072825
29173,0,USMissouriRalls,Missouri,Ralls,2021-01-05 16:56:40.265875,2020-10-14 00:00:00.000000,1.87492756,2.67749948,3.87682669,193,276,399,93,143,224,0.90934267,1.39073641,2.17873827,0.28193583,0.42021203,0.58085819
29173,0,USMissouriRalls,Missouri,Ralls,2021-01-05 16:56:40.265875,2020-10-15 00:00:00.000000,1.90891905,2.75079182,4.02339433,196,283,414,98,146,231,0.95234430,1.42545322,2.24967693,0.28343999,0.43091800,0.58112422
29173,0,USMissouriRalls,Missouri,Ralls,2021-01-05 16:56:40.265875,2020-10-16 00:00:00.000000,1.95729858,2.86487661,4.17925221,201,295,430,99,151,239,0.96114981,1.46504797,2.32661622,0.28827010,0.44190421,0.60000356
29173,0,USMissouriRalls,Missouri,Ralls,2021-01-05 16:56:40.265875,2020-10-17 00:00:00.000000,2.03673554,2.95326396,4.34396168,209,304,447,101,157,248,0.98017722,1.52638643,2.40927244,0.30400869,0.45355397,0.60556071
29173,0,USMissouriRalls,Missouri,Ralls,2021-01-05 16:56:40.265875,2020-10-18 00:00:00.000000,2.12528340,3.08057299,4.51801192,219,317,465,104,162,253,1.01024926,1.57412785,2.46322096,0.32633132,0.46220963,0.61571432
29173,0,USMissouriRalls,Missouri,Ralls,2021-01-05 16:56:40.265875,2020-10-19 00:00:00.000000,2.20638416,3.20398385,4.66311078,227,330,480,108,167,259,1.04869060,1.62523268,2.51726768,0.34086214,0.46885799,0.63169092
29173,0,USMissouriRalls,Missouri,Ralls,2021-01-05 16:56:40.265875,2020-10-20 00:00:00.000000,2.29161799,3.34158550,4.82348860,236,344,497,112,173,266,1.08885840,1.68723876,2.58639248,0.34525476,0.47847415,0.64622892
29173,0,USMissouriRalls,Missouri,Ralls,2021-01-05 16:56:40.265875,2020-10-21 00:00:00.000000,2.38392173,3.49516020,5.08201002,245,360,523,116,182,274,1.12918253,1.77015780,2.66724306,0.38524447,0.49620470,0.65145706
29173,0,USMissouriRalls,Missouri,Ralls,2021-01-05 16:56:40.265875,2020-10-22 00:00:00.000000,2.50174270,3.65245640,5.37095984,257,376,553,120,188,289,1.17357338,1.83268757,2.81102249,0.39679930,0.51601817,0.65937517
29173,0,USMissouriRalls,Missouri,Ralls,2021-01-05 16:56:40.265875,2020-10-23 00:00:00.000000,2.67117981,3.81865319,5.69056425,275,393,586,126,197,306,1.22532017,1.91206398,2.97728752,0.40436727,0.53575105,0.70249006
29173,0,USMissouriRalls,Missouri,Ralls,2021-01-05 16:56:40.265875,2020-10-24 00:00:00.000000,2.75974704,3.97282823,6.03844657,284,409,622,133,205,319,1.29378545,1.98956051,3.09539807,0.42585026,0.56149311,0.74054768
29173,0,USMissouriRalls,Missouri,Ralls,2021-01-05 16:56:40.265875,2020-10-25 00:00:00.000000,2.85918994,4.17015328,6.41127486,294,429,660,137,216,333,1.33016447,2.09734606,3.23838418,0.45484219,0.58746555,0.76224727
29173,0,USMissouriRalls,Missouri,Ralls,2021-01-05 16:56:40.265875,2020-10-26 00:00:00.000000,2.99534003,4.43644518,6.73198633,308,457,694,141,227,351,1.37566499,2.20880187,3.41005547,0.46227580,0.60305875,0.79288607
29173,0,USMissouriRalls,Missouri,Ralls,2021-01-05 16:56:40.265875,2020-10-27 00:00:00.000000,3.16643416,4.76226533,7.10465465,326,490,732,149,242,372,1.45008317,2.35049776,3.61180544,0.47308678,0.62728067,0.83636617
29173,0,USMissouriRalls,Missouri,Ralls,2021-01-05 16:56:40.265875,2020-10-28 00:00:00.000000,3.41505787,5.07927699,7.49164279,352,523,772,159,254,395,1.54839868,2.46889746,3.83867983,0.47976456,0.64010113,0.85128327
29173,0,USMissouriRalls,Missouri,Ralls,2021-01-05 16:56:40.265875,2020-10-29 00:00:00.000000,3.72833314,5.42125479,7.95219652,384,558,819,172,265,421,1.67618168,2.57240438,4.08681781,0.48552643,0.67733353,0.88093029
29173,0,USMissouriRalls,Missouri,Ralls,2021-01-05 16:56:40.265875,2020-10-30 00:00:00.000000,4.12679779,5.83834153,8.47457136,425,601,873,189,281,448,1.83606960,2.72782273,4.35369768,0.51657016,0.69740000,0.89769219
29173,0,USMissouriRalls,Missouri,Ralls,2021-01-05 16:56:40.265875,2020-10-31 00:00:00.000000,4.47690610,6.25978996,9.03153326,461,645,931,208,299,478,2.02241074,2.90592971,4.63824645,0.55138372,0.71817075,0.94349408
29173,0,USMissouriRalls,Missouri,Ralls,2021-01-05 16:56:40.265875,2020-11-01 00:00:00.000000,4.70763197,6.82263477,9.68093580,485,703,998,230,322,509,2.23108615,3.13056998,4.94187485,0.55896091,0.73542748,0.95116532
29173,0,USMissouriRalls,Missouri,Ralls,2021-01-05 16:56:40.265875,2020-11-02 00:00:00.000000,5.05905685,7.36127029,10.48616607,521,758,1081,247,347,543,2.39633709,3.37542189,5.27099455,0.59246926,0.76126053,0.95244868
29173,0,USMissouriRalls,Missouri,Ralls,2021-01-05 16:56:40.265875,2020-11-03 00:00:00.000000,5.45440535,7.86342354,11.17881311,562,810,1152,269,375,581,2.61135845,3.63844531,5.63775172,0.61202190,0.77042689,0.95245212
29173,0,USMissouriRalls,Missouri,Ralls,2021-01-05 16:56:40.265875,2020-11-04 00:00:00.000000,5.91125549,8.37132774,12.03740494,609,863,1240,287,404,623,2.78479208,3.92123875,6.04629446,0.59857676,0.77988223,0.95048518
29173,0,USMissouriRalls,Missouri,Ralls,2021-01-05 16:56:40.265875,2020-11-05 00:00:00.000000,6.35270631,8.97830469,12.92837170,654,925,1332,305,440,667,2.96587185,4.26882924,6.47587541,0.57438612,0.78557586,0.93429196
29173,0,USMissouriRalls,Missouri,Ralls,2021-01-05 16:56:40.265875,2020-11-06 00:00:00.000000,6.77219570,9.55345732,13.83595000,698,984,1426,325,474,709,3.15307158,4.60104068,6.88296382,0.57446383,0.76479985,0.91788304
29173,0,USMissouriRalls,Missouri,Ralls,2021-01-05 16:56:40.265875,2020-11-07 00:00:00.000000,7.24987597,10.10374471,14.73338224,747,1041,1518,344,503,752,3.34383032,4.88587219,7.30213564,0.56846799,0.74313154,0.91163312
29173,0,USMissouriRalls,Missouri,Ralls,2021-01-05 16:56:40.265875,2020-11-08 00:00:00.000000,7.75667228,10.69306082,15.57735906,799,1102,1605,364,544,803,3.53324614,5.28386007,7.79642048,0.54520297,0.73346150,0.91113147
29173,0,USMissouriRalls,Missouri,Ralls,2021-01-05 16:56:40.265875,2020-11-09 00:00:00.000000,8.27678486,11.20122549,16.31357767,853,1154,1681,383,578,857,3.71653326,5.61063086,8.32116870,0.52344309,0.71420528,0.88582729
29173,0,USMissouriRalls,Missouri,Ralls,2021-01-05 16:56:40.265875,2020-11-10 00:00:00.000000,8.78734354,11.64368307,16.95447621,905,1200,1747,401,610,911,3.89712176,5.92121158,8.83835961,0.49823657,0.67497527,0.84631641
29173,0,USMissouriRalls,Missouri,Ralls,2021-01-05 16:56:40.265875,2020-11-11 00:00:00.000000,9.14564331,12.06076322,17.52205468,942,1243,1806,420,643,959,4.07432184,6.24440119,9.30464583,0.47697605,0.63934681,0.83128746
29173,0,USMissouriRalls,Missouri,Ralls,2021-01-05 16:56:40.265875,2020-11-12 00:00:00.000000,9.49261154,12.42753488,18.02372963,978,1281,1858,438,679,1002,4.24883441,6.58896156,9.72293279,0.44403354,0.61869046,0.82972492
29173,0,USMissouriRalls,Missouri,Ralls,2021-01-05 16:56:40.265875,2020-11-13 00:00:00.000000,9.82084387,12.81262408,18.44333139,1012,1320,1901,455,707,1039,4.41985684,6.85866754,10.08442921,0.40620548,0.56539670,0.81474387
29173,0,USMissouriRalls,Missouri,Ralls,2021-01-05 16:56:40.265875,2020-11-14 00:00:00.000000,10.11061401,13.03279301,18.75520553,1042,1343,1933,472,732,1066,4.58370002,7.10143137,10.34543406,0.37067211,0.53878620,0.77588349
29173,0,USMissouriRalls,Missouri,Ralls,2021-01-05 16:56:40.265875,2020-11-15 00:00:00.000000,10.31054895,13.27126731,18.81882076,1062,1368,1940,488,749,1087,4.73403967,7.26675337,10.55258137,0.34102990,0.51448448,0.75760528
29173,0,USMissouriRalls,Missouri,Ralls,2021-01-05 16:56:40.265875,2020-11-16 00:00:00.000000,10.34954058,13.43425101,18.95328012,1066,1384,1953,500,754,1100,4.85494909,7.31993162,10.67822974,0.33997779,0.49158629,0.66016498
29173,0,USMissouriRalls,Missouri,Ralls,2021-01-05 16:56:40.265875,2020-11-17 00:00:00.000000,10.27467723,13.45391328,18.84666667,1059,1386,1942,506,763,1106,4.91338654,7.40486839,10.72858841,0.33965669,0.47437580,0.61648556
29173,0,USMissouriRalls,Missouri,Ralls,2021-01-05 16:56:40.265875,2020-11-18 00:00:00.000000,10.15750115,13.27722664,18.64259121,1047,1368,1921,505,762,1104,4.90086317,7.39374530,10.71483123,0.33291313,0.46137011,0.60189032
29173,0,USMissouriRalls,Missouri,Ralls,2021-01-05 16:56:40.265875,2020-11-19 00:00:00.000000,10.01259615,13.12224019,18.37232693,1032,1352,1894,499,763,1097,4.84331482,7.40587566,10.64822691,0.33156867,0.45244139,0.59537741
29173,0,USMissouriRalls,Missouri,Ralls,2021-01-05 16:56:40.265875,2020-11-20 00:00:00.000000,9.84948038,13.05374217,18.05803804,1015,1345,1861,495,759,1092,4.80436000,7.36624443,10.59797798,0.32009750,0.43860517,0.57672765
29173,0,USMissouriRalls,Missouri,Ralls,2021-01-05 16:56:40.265875,2020-11-21 00:00:00.000000,9.59659066,12.84097527,17.81606693,989,1323,1836,493,757,1085,4.78753668,7.34547908,10.53112568,0.30936341,0.42313978,0.58317902
29173,0,USMissouriRalls,Missouri,Ralls,2021-01-05 16:56:40.265875,2020-11-22 00:00:00.000000,9.30092286,12.45636540,17.71109936,958,1284,1825,489,743,1075,4.75095826,7.21450188,10.43025400,0.30423581,0.41597008,0.56780711
29173,0,USMissouriRalls,Missouri,Ralls,2021-01-05 16:56:40.265875,2020-11-23 00:00:00.000000,8.99752723,12.18355758,17.49970302,927,1256,1804,483,729,1067,4.69360033,7.07960159,10.35748446,0.30251272,0.41259520,0.55451329
29173,0,USMissouriRalls,Missouri,Ralls,2021-01-05 16:56:40.265875,2020-11-24 00:00:00.000000,8.68741238,11.90646409,16.98372773,895,1227,1750,475,713,1068,4.61409207,6.92463367,10.36283334,0.29701395,0.40562817,0.54723186
29173,0,USMissouriRalls,Missouri,Ralls,2021-01-05 16:56:40.265875,2020-11-25 00:00:00.000000,8.37574750,11.58206967,16.52252335,863,1193,1703,465,702,1065,4.52023138,6.81215768,10.33685022,0.29607813,0.40338789,0.55375356
29173,0,USMissouriRalls,Missouri,Ralls,2021-01-05 16:56:40.265875,2020-11-26 00:00:00.000000,8.08056695,11.26746122,16.31907940,833,1161,1682,455,689,1060,4.41947395,6.68376817,10.28444179,0.29664372,0.40468396,0.55709303
29173,0,USMissouriRalls,Missouri,Ralls,2021-01-05 16:56:40.265875,2020-11-27 00:00:00.000000,7.82487303,10.96989333,16.08592762,806,1130,1658,440,674,1052,4.27316880,6.54055305,10.21094923,0.29818461,0.40265433,0.55781467
29173,0,USMissouriRalls,Missouri,Ralls,2021-01-05 16:56:40.265875,2020-11-28 00:00:00.000000,7.62423198,10.66926336,15.81917279,785,1099,1630,426,661,1043,4.13248503,6.41884992,10.11920541,0.29932323,0.41491913,0.57660377
29173,0,USMissouriRalls,Missouri,Ralls,2021-01-05 16:56:40.265875,2020-11-29 00:00:00.000000,7.46376790,10.43965071,15.51358187,769,1076,1599,418,647,1026,4.05653803,6.27674263,9.95871086,0.30538348,0.42190633,0.60492268
29173,0,USMissouriRalls,Missouri,Ralls,2021-01-05 16:56:40.265875,2020-11-30 00:00:00.000000,7.24942356,10.10968339,15.32968886,747,1042,1580,413,630,1012,4.01364523,6.11551926,9.82224430,0.30844512,0.42528837,0.61589929
29173,0,USMissouriRalls,Missouri,Ralls,2021-01-05 16:56:40.265875,2020-12-01 00:00:00.000000,6.97776238,9.80247655,15.22710609,719,1010,1569,405,610,1001,3.93141268,5.92223446,9.71299924,0.30934724,0.43371968,0.64687311
29173,0,USMissouriRalls,Missouri,Ralls,2021-01-05 16:56:40.265875,2020-12-02 00:00:00.000000,6.71467681,9.53018274,15.09166237,692,982,1555,391,591,991,3.79943995,5.73371709,9.61890308,0.31005187,0.44859092,0.65102012
29173,0,USMissouriRalls,Missouri,Ralls,2021-01-05 16:56:40.265875,2020-12-03 00:00:00.000000,6.47334289,9.39074278,14.91080200,667,968,1537,378,571,982,3.66716103,5.54443935,9.52844643,0.31211032,0.46414100,0.65461959
29173,0,USMissouriRalls,Missouri,Ralls,2021-01-05 16:56:40.265875,2020-12-04 00:00:00.000000,6.36700221,9.27808398,14.68513964,656,956,1513,369,552,969,3.58823707,5.35934399,9.40804376,0.31872483,0.48193319,0.65835658
29173,0,USMissouriRalls,Missouri,Ralls,2021-01-05 16:56:40.265875,2020-12-05 00:00:00.000000,6.28819953,9.05138219,14.42865288,648,933,1487,361,535,955,3.50318646,5.19450768,9.27337660,0.32240737,0.50115185,0.68586198
29173,0,USMissouriRalls,Missouri,Ralls,2021-01-05 16:56:40.265875,2020-12-06 00:00:00.000000,6.09479548,8.75799585,14.15624130,628,902,1459,348,523,942,3.38454529,5.07845778,9.13861819,0.32403613,0.51444657,0.75134051
29173,0,USMissouriRalls,Missouri,Ralls,2021-01-05 16:56:40.265875,2020-12-07 00:00:00.000000,5.92562075,8.47884429,13.85970685,610,874,1428,338,510,928,3.28213080,4.94917140,9.00368323,0.33433459,0.52570882,0.75242699
29173,0,USMissouriRalls,Missouri,Ralls,2021-01-05 16:56:40.265875,2020-12-08 00:00:00.000000,5.76719481,8.23089166,13.57049716,594,848,1398,328,499,914,3.18476239,4.84157211,8.87207967,0.33438863,0.53695555,0.78254971
29173,0,USMissouriRalls,Missouri,Ralls,2021-01-05 16:56:40.265875,2020-12-09 00:00:00.000000,5.62279113,8.02910197,13.30172082,579,827,1371,319,488,900,3.10131761,4.74060291,8.73938345,0.33478907,0.55167126,0.82541291
29173,0,USMissouriRalls,Missouri,Ralls,2021-01-05 16:56:40.265875,2020-12-10 00:00:00.000000,5.49528508,7.87598191,13.06588072,566,811,1346,312,475,884,3.03510700,4.60776040,8.57606831,0.34860206,0.57304671,0.85167685
29173,0,USMissouriRalls,Missouri,Ralls,2021-01-05 16:56:40.265875,2020-12-11 00:00:00.000000,5.41564456,7.70398911,12.86640136,558,794,1326,309,464,867,2.99833183,4.50748422,8.41834279,0.35995385,0.58635099,0.87905081
29173,0,USMissouriRalls,Missouri,Ralls,2021-01-05 16:56:40.265875,2020-12-12 00:00:00.000000,5.30134007,7.48481565,12.69426854,546,771,1308,301,454,852,2.92421669,4.40932510,8.27168194,0.39438561,0.60862033,0.90294743
29173,0,USMissouriRalls,Missouri,Ralls,2021-01-05 16:56:40.265875,2020-12-13 00:00:00.000000,5.23935048,7.34663947,12.53533039,540,757,1292,291,443,838,2.83161281,4.30642521,8.13802577,0.40786808,0.62146800,0.91562454
29173,0,USMissouriRalls,Missouri,Ralls,2021-01-05 16:56:40.265875,2020-12-14 00:00:00.000000,5.14346407,7.21204326,12.34816165,530,743,1272,290,433,826,2.82019167,4.20278415,8.01585610,0.41471741,0.64346257,0.94756795
29173,0,USMissouriRalls,Missouri,Ralls,2021-01-05 16:56:40.265875,2020-12-15 00:00:00.000000,5.06071473,7.14982815,12.15694528,521,737,1253,290,426,813,2.81754587,4.13688553,7.89597662,0.41424113,0.66439686,0.99420009
29173,0,USMissouriRalls,Missouri,Ralls,2021-01-05 16:56:40.265875,2020-12-16 00:00:00.000000,5.02323429,7.12317777,11.95951250,517,734,1232,290,420,797,2.82133089,4.07866969,7.73833718,0.41327602,0.68164814,1.03783502
29173,0,USMissouriRalls,Missouri,Ralls,2021-01-05 16:56:40.265875,2020-12-17 00:00:00.000000,4.99833368,7.07734609,11.76203455,515,729,1212,286,415,781,2.78051692,4.02802769,7.58209489,0.41375842,0.69592496,1.05126461
29173,0,USMissouriRalls,Missouri,Ralls,2021-01-05 16:56:40.265875,2020-12-18 00:00:00.000000,4.95666327,6.99250566,11.58394450,510,720,1194,283,410,765,2.74880743,3.98489420,7.42819020,0.41787293,0.72358672,1.06157011
29173,0,USMissouriRalls,Missouri,Ralls,2021-01-05 16:56:40.265875,2020-12-19 00:00:00.000000,4.94180133,6.89340696,11.35596469,509,710,1170,280,403,750,2.72065441,3.91392107,7.27613769,0.42730735,0.74442124,1.08036339
29173,0,USMissouriRalls,Missouri,Ralls,2021-01-05 16:56:40.265875,2020-12-20 00:00:00.000000,4.90689827,6.79458796,11.10427232,505,700,1144,277,398,734,2.69306425,3.86795962,7.12526705,0.42822824,0.77069093,1.12343343
29173,0,USMissouriRalls,Missouri,Ralls,2021-01-05 16:56:40.265875,2020-12-21 00:00:00.000000,4.85725092,6.75569120,10.88107959,500,696,1121,274,393,719,2.66446226,3.81775153,6.97495905,0.43077849,0.79164228,1.16584445
29173,0,USMissouriRalls,Missouri,Ralls,2021-01-05 16:56:40.265875,2020-12-22 00:00:00.000000,4.82697654,6.68884230,10.65681595,497,689,1098,270,387,704,2.62445762,3.76283914,6.82975369,0.43763833,0.81351735,1.19464012
29173,0,USMissouriRalls,Missouri,Ralls,2021-01-05 16:56:40.265875,2020-12-23 00:00:00.000000,4.82159106,6.63758745,10.53844812,497,684,1086,265,383,689,2.57717681,3.72427982,6.68807739,0.45382909,0.83971407,1.21200179
29173,0,USMissouriRalls,Missouri,Ralls,2021-01-05 16:56:40.265875,2020-12-24 00:00:00.000000,4.81111752,6.51337519,10.49153520,495,671,1081,260,379,675,2.52511336,3.68155926,6.54886429,0.47585809,0.85302034,1.21213408
29173,0,USMissouriRalls,Missouri,Ralls,2021-01-05 16:56:40.265875,2020-12-25 00:00:00.000000,4.79516688,6.39819776,10.34879204,494,659,1066,254,374,660,2.46982794,3.62868661,6.41152111,0.47708928,0.85307788,1.21855568
29173,0,USMissouriRalls,Missouri,Ralls,2021-01-05 16:56:40.265875,2020-12-26 00:00:00.000000,4.71030771,6.27826528,10.15720318,485,647,1047,250,369,647,2.42644985,3.58598408,6.27621968,0.48857975,0.86256131,1.22130446
29173,0,USMissouriRalls,Missouri,Ralls,2021-01-05 16:56:40.265875,2020-12-27 00:00:00.000000,4.65300892,6.24335077,9.97509930,479,643,1028,247,366,633,2.40519825,3.55995687,6.14525667,0.50944085,0.86551776,1.24817386
29173,0,USMissouriRalls,Missouri,Ralls,2021-01-05 16:56:40.265875,2020-12-28 00:00:00.000000,4.48970423,6.15075642,9.78891033,462,634,1009,245,361,621,2.38359022,3.50422458,6.02561363,0.50467503,0.85690687,1.28673453
29173,0,USMissouriRalls,Missouri,Ralls,2021-01-05 16:56:40.265875,2020-12-29 00:00:00.000000,4.32396010,5.98223318,9.60130014,445,616,989,242,357,610,2.34948906,3.46706850,5.91911417,0.46196978,0.85585622,1.31829236
29173,0,USMissouriRalls,Missouri,Ralls,2021-01-05 16:56:40.265875,2020-12-30 00:00:00.000000,4.15717209,5.86813427,9.40738136,428,604,969,234,351,600,2.27407858,3.41434346,5.82668778,0.44197082,0.85833928,1.32462058
29173,0,USMissouriRalls,Missouri,Ralls,2021-01-05 16:56:40.265875,2020-12-31 00:00:00.000000,3.94630920,5.73366786,9.23801695,406,591,952,232,349,592,2.25987103,3.39332023,5.74484557,0.44579055,0.86772264,1.29756995
29173,0,USMissouriRalls,Missouri,Ralls,2021-01-05 16:56:40.265875,2021-01-01 00:00:00.000000,3.73443067,5.62458494,9.13700938,384,579,941,222,341,584,2.16220890,3.31155692,5.66989233,0.44920236,0.87919937,1.31565185
29173,0,USMissouriRalls,Missouri,Ralls,2021-01-05 16:56:40.265875,2021-01-02 00:00:00.000000,3.53920583,5.56028009,9.03105316,364,573,931,210,336,581,2.03991914,3.26084805,5.64160583,0.43860167,0.88536511,1.36709708
29173,0,USMissouriRalls,Missouri,Ralls,2021-01-05 16:56:40.265875,2021-01-03 00:00:00.000000,3.36154279,5.41300965,8.92266685,346,558,919,198,328,577,1.92145009,3.18208193,5.60536016,0.43561362,0.88050411,1.38532133
29173,0,USMissouriRalls,Missouri,Ralls,2021-01-05 16:56:40.265875,2021-01-04 00:00:00.000000,3.19792984,5.32331514,8.75063083,329,548,902,186,322,573,1.80682241,3.13298696,5.55991069,0.43478471,0.87576589,1.38952963
29173,0,USMissouriRalls,Missouri,Ralls,2021-01-05 16:56:40.265875,2021-01-05 00:00:00.000000,3.04466805,5.20471645,8.55673018,313,536,882,174,317,560,1.69668982,3.07953185,5.43503674,0.43450218,0.87806163,1.39036917
29173,0,USMissouriRalls,Missouri,Ralls,2021-01-05 16:56:40.265875,2021-01-06 00:00:00.000000,2.89951352,5.03812908,8.58527488,298,519,885,165,311,550,1.60708396,3.02513463,5.33616982,0.43233721,0.86907487,1.39051746
29173,0,USMissouriRalls,Missouri,Ralls,2021-01-05 16:56:40.265875,2021-01-07 00:00:00.000000,2.76123824,4.89650292,8.56783891,284,504,883,158,304,544,1.53459605,2.95448009,5.27795641,0.43118023,0.86769468,1.39053506
29173,0,USMissouriRalls,Missouri,Ralls,2021-01-05 16:56:40.265875,2021-01-08 00:00:00.000000,2.62913212,4.74675348,8.48419446,271,489,874,150,296,538,1.46411909,2.87156464,5.22214939,0.43078437,0.86710382,1.39053193
29173,0,USMissouriRalls,Missouri,Ralls,2021-01-05 16:56:40.265875,2021-01-09 00:00:00.000000,2.50274541,4.59788598,8.39433517,258,473,865,143,286,532,1.39574514,2.77515448,5.16730134,0.43064259,0.86684899,1.39052773
29173,0,USMissouriRalls,Missouri,Ralls,2021-01-05 16:56:40.265875,2021-01-10 00:00:00.000000,2.38176506,4.45345327,8.29311944,245,459,854,137,278,527,1.32954102,2.70580672,5.11213266,0.43058671,0.86673878,1.39052500
29173,0,USMissouriRalls,Missouri,Ralls,2021-01-05 16:56:40.265875,2021-01-11 00:00:00.000000,2.26595266,4.33555704,8.05533397,233,446,830,130,271,518,1.26555285,2.63429540,5.03124354,0.43056189,0.86669105,1.39052345
29173,0,USMissouriRalls,Missouri,Ralls,2021-01-05 16:56:40.265875,2021-01-12 00:00:00.000000,2.15511139,4.20660870,7.76145376,222,433,800,124,263,515,1.20380930,2.55760433,4.99960721,0.43054954,0.86667035,1.39052261
29173,0,USMissouriRalls,Missouri,Ralls,2021-01-05 16:56:40.265875,2021-01-13 00:00:00.000000,2.04906775,4.04192238,7.47050608,211,416,770,117,252,509,1.14432399,2.45289496,4.94097134,0.43054284,0.86666135,1.39052217
29173,0,USMissouriRalls,Missouri,Ralls,2021-01-05 16:56:40.265875,2021-01-14 00:00:00.000000,1.94766119,3.87435484,7.18330794,200,399,740,112,243,503,1.08709757,2.36143240,4.87959731,0.43053900,0.86665743,1.39052193
29173,0,USMissouriRalls,Missouri,Ralls,2021-01-05 16:56:40.265875,2021-01-15 00:00:00.000000,1.85073833,3.72924175,6.90058630,190,384,711,106,236,496,1.03211933,2.29269344,4.81271047,0.43053674,0.86665571,1.39052181
29173,0,USMissouriRalls,Missouri,Ralls,2021-01-05 16:56:40.265875,2021-01-16 00:00:00.000000,1.73877252,3.59445130,6.62298084,179,370,682,100,228,478,0.97936867,2.21259943,4.64067187,0.43053538,0.86665496,1.39052174
29173,0,USMissouriRalls,Missouri,Ralls,2021-01-05 16:56:40.265875,2021-01-17 00:00:00.000000,1.63261604,3.44737356,6.35104751,168,355,654,95,220,460,0.92881648,2.13717692,4.46778852,0.43053456,0.86665462,1.39052171
