FIPS,HR_UID,nameid,province,region,analysisTime,dates,pointprevalence_025,pointprevalence_50,pointprevalence_975,pointinfections_025,pointinfections_50,pointinfections_975,pointinfectious_025,pointinfectious_50,pointinfectious_975,pointinfectiousprevalence_05,pointinfectiousprevalence_50,pointinfectiousprevalence_95,infectrate_025,infectrate_50,infectrate_975
0,0,NetherlandsSintMaarten,Sint Maarten,,2021-01-05 02:31:08.800,2020-03-09 00:00:00.000,0.01002740,0.02979943,0.06739164,4,12,28,0,5,11,0.00165913,0.01169618,0.02765659,0.49409069,0.64714169,0.83089557
0,0,NetherlandsSintMaarten,Sint Maarten,,2021-01-05 02:31:08.800,2020-03-10 00:00:00.000,0.01409623,0.03774128,0.07814009,6,16,33,1,5,13,0.00275179,0.01353483,0.03167954,0.49409189,0.64714088,0.83081741
0,0,NetherlandsSintMaarten,Sint Maarten,,2021-01-05 02:31:08.800,2020-03-11 00:00:00.000,0.01795896,0.04713419,0.09435429,7,20,40,2,7,16,0.00522200,0.01717092,0.03734962,0.49409692,0.64713869,0.83069700
0,0,NetherlandsSintMaarten,Sint Maarten,,2021-01-05 02:31:08.800,2020-03-12 00:00:00.000,0.02227852,0.05595381,0.11727970,9,23,50,3,9,19,0.00835882,0.02159800,0.04455328,0.49411590,0.64713247,0.82844590
0,0,NetherlandsSintMaarten,Sint Maarten,,2021-01-05 02:31:08.800,2020-03-13 00:00:00.000,0.02714837,0.06567098,0.14579785,11,28,62,4,11,22,0.00988116,0.02640433,0.05324215,0.49418473,0.64711417,0.81867448
0,0,NetherlandsSintMaarten,Sint Maarten,,2021-01-05 02:31:08.800,2020-03-14 00:00:00.000,0.03263968,0.07689794,0.17776899,13,32,76,4,13,29,0.01154700,0.03180483,0.06893864,0.49442941,0.64705804,0.81689032
0,0,NetherlandsSintMaarten,Sint Maarten,,2021-01-05 02:31:08.800,2020-03-15 00:00:00.000,0.03883135,0.08980385,0.21215164,16,38,90,6,16,37,0.01419842,0.03771065,0.08690803,0.49528459,0.64640967,0.81384814
0,0,NetherlandsSintMaarten,Sint Maarten,,2021-01-05 02:31:08.800,2020-03-16 00:00:00.000,0.05181349,0.10170288,0.23402030,22,43,100,7,18,42,0.01734697,0.04352629,0.10005805,0.49816668,0.64428543,0.80978995
0,0,NetherlandsSintMaarten,Sint Maarten,,2021-01-05 02:31:08.800,2020-03-17 00:00:00.000,0.06127069,0.11652283,0.25871316,26,49,110,9,21,48,0.02134955,0.05003595,0.11211503,0.50688188,0.64131273,0.80787660
0,0,NetherlandsSintMaarten,Sint Maarten,,2021-01-05 02:31:08.800,2020-03-18 00:00:00.000,0.06839892,0.13201587,0.28510236,29,56,122,12,24,54,0.02920163,0.05680373,0.12610141,0.47563209,0.63360780,0.80432726
0,0,NetherlandsSintMaarten,Sint Maarten,,2021-01-05 02:31:08.800,2020-03-19 00:00:00.000,0.07556398,0.14735049,0.31345905,32,63,134,14,28,60,0.03345422,0.06660679,0.14021696,0.47410771,0.61405096,0.79786492
0,0,NetherlandsSintMaarten,Sint Maarten,,2021-01-05 02:31:08.800,2020-03-20 00:00:00.000,0.08264999,0.16582026,0.34094584,35,71,146,15,32,66,0.03701933,0.07684352,0.15495817,0.44432657,0.60807860,0.78371154
0,0,NetherlandsSintMaarten,Sint Maarten,,2021-01-05 02:31:08.800,2020-03-21 00:00:00.000,0.08991662,0.18551096,0.37011191,38,79,158,17,38,73,0.04049210,0.08937508,0.17213225,0.41114585,0.57489013,0.74840555
0,0,NetherlandsSintMaarten,Sint Maarten,,2021-01-05 02:31:08.800,2020-03-22 00:00:00.000,0.09754656,0.20454859,0.40625044,41,87,174,19,41,81,0.04510182,0.09736088,0.19082362,0.39737845,0.55667550,0.73830916
0,0,NetherlandsSintMaarten,Sint Maarten,,2021-01-05 02:31:08.800,2020-03-23 00:00:00.000,0.10457241,0.21954643,0.44005550,44,94,188,21,45,90,0.05019801,0.10697729,0.21033901,0.38320052,0.53387091,0.69937479
0,0,NetherlandsSintMaarten,Sint Maarten,,2021-01-05 02:31:08.800,2020-03-24 00:00:00.000,0.11680996,0.24661531,0.48098849,50,105,206,24,50,97,0.05616906,0.11797933,0.22835195,0.37272864,0.51873202,0.67112169
0,0,NetherlandsSintMaarten,Sint Maarten,,2021-01-05 02:31:08.800,2020-03-25 00:00:00.000,0.12705761,0.27060243,0.52509888,54,116,225,26,53,106,0.06290923,0.12439628,0.24780382,0.36040102,0.49309158,0.65304360
0,0,NetherlandsSintMaarten,Sint Maarten,,2021-01-05 02:31:08.800,2020-03-26 00:00:00.000,0.13776747,0.29417201,0.57251719,59,126,245,30,58,116,0.07139348,0.13611036,0.27097424,0.34313621,0.47685736,0.64749021
0,0,NetherlandsSintMaarten,Sint Maarten,,2021-01-05 02:31:08.800,2020-03-27 00:00:00.000,0.14902908,0.31936803,0.62330675,63,136,267,33,64,126,0.07782783,0.15064163,0.29594252,0.32097133,0.46367305,0.63538463
0,0,NetherlandsSintMaarten,Sint Maarten,,2021-01-05 02:31:08.800,2020-03-28 00:00:00.000,0.16092542,0.33436873,0.67723422,69,143,290,36,71,138,0.08450231,0.16714847,0.32262144,0.31217516,0.44492405,0.60909816
0,0,NetherlandsSintMaarten,Sint Maarten,,2021-01-05 02:31:08.800,2020-03-29 00:00:00.000,0.17351925,0.36109947,0.73309148,74,154,314,39,77,150,0.09149613,0.18175980,0.35055913,0.29573281,0.41480775,0.57591383
0,0,NetherlandsSintMaarten,Sint Maarten,,2021-01-05 02:31:08.800,2020-03-30 00:00:00.000,0.18923340,0.37833245,0.78418073,81,162,336,42,84,162,0.09887568,0.19748731,0.37841914,0.26315090,0.38119807,0.55198608
0,0,NetherlandsSintMaarten,Sint Maarten,,2021-01-05 02:31:08.800,2020-03-31 00:00:00.000,0.20650309,0.39806280,0.81720398,88,170,350,46,89,170,0.10780990,0.20888829,0.39721161,0.24590531,0.36567632,0.54404153
0,0,NetherlandsSintMaarten,Sint Maarten,,2021-01-05 02:31:08.800,2020-04-01 00:00:00.000,0.22546760,0.41079409,0.83692209,96,176,358,49,94,183,0.11628138,0.22003258,0.42840925,0.23360789,0.35227647,0.53850331
0,0,NetherlandsSintMaarten,Sint Maarten,,2021-01-05 02:31:08.800,2020-04-02 00:00:00.000,0.23874580,0.42906243,0.86806791,102,183,372,52,97,192,0.12269912,0.22787240,0.44778716,0.21959188,0.33670232,0.52850201
0,0,NetherlandsSintMaarten,Sint Maarten,,2021-01-05 02:31:08.800,2020-04-03 00:00:00.000,0.25028198,0.44416840,0.89565035,107,190,384,55,101,198,0.12836685,0.23608925,0.46269045,0.20208317,0.31828899,0.50591310
0,0,NetherlandsSintMaarten,Sint Maarten,,2021-01-05 02:31:08.800,2020-04-04 00:00:00.000,0.25828078,0.45562093,0.90462750,110,195,387,57,104,203,0.13340744,0.24285605,0.47381143,0.19731703,0.30209017,0.49042127
0,0,NetherlandsSintMaarten,Sint Maarten,,2021-01-05 02:31:08.800,2020-04-05 00:00:00.000,0.25743937,0.45814092,0.90826427,110,196,389,59,106,206,0.13763724,0.24854873,0.48163426,0.18232624,0.28873656,0.45884165
0,0,NetherlandsSintMaarten,Sint Maarten,,2021-01-05 02:31:08.800,2020-04-06 00:00:00.000,0.25520968,0.45232921,0.90407966,109,193,387,60,108,208,0.14106444,0.25267110,0.48541686,0.16127844,0.26929704,0.45566424
0,0,NetherlandsSintMaarten,Sint Maarten,,2021-01-05 02:31:08.800,2020-04-07 00:00:00.000,0.24904897,0.45666736,0.89513055,106,195,383,59,107,206,0.13923310,0.25178330,0.48108689,0.16003535,0.25431301,0.44081884
0,0,NetherlandsSintMaarten,Sint Maarten,,2021-01-05 02:31:08.800,2020-04-08 00:00:00.000,0.24153565,0.45877341,0.88006976,103,196,377,59,107,203,0.13837809,0.25155154,0.47368596,0.15467286,0.24019827,0.38387997
0,0,NetherlandsSintMaarten,Sint Maarten,,2021-01-05 02:31:08.800,2020-04-09 00:00:00.000,0.23347746,0.45872195,0.85670756,100,196,367,59,107,204,0.13810024,0.25056692,0.47695757,0.15219839,0.22449669,0.35568452
0,0,NetherlandsSintMaarten,Sint Maarten,,2021-01-05 02:31:08.800,2020-04-10 00:00:00.000,0.22537773,0.44979498,0.82465511,96,192,353,57,109,202,0.13448035,0.25556749,0.47269251,0.14645753,0.21555177,0.33910010
0,0,NetherlandsSintMaarten,Sint Maarten,,2021-01-05 02:31:08.800,2020-04-11 00:00:00.000,0.21762450,0.44272721,0.78821480,93,189,338,55,109,197,0.13043188,0.25650776,0.46012287,0.14333964,0.20375869,0.32810725
0,0,NetherlandsSintMaarten,Sint Maarten,,2021-01-05 02:31:08.800,2020-04-12 00:00:00.000,0.21006265,0.43417302,0.75185211,90,186,322,54,109,190,0.12618135,0.25615650,0.44379604,0.12835508,0.19232175,0.31161839
0,0,NetherlandsSintMaarten,Sint Maarten,,2021-01-05 02:31:08.800,2020-04-13 00:00:00.000,0.20488197,0.42256800,0.71882828,87,181,308,52,107,185,0.12187802,0.25022122,0.43272858,0.12252683,0.18657988,0.29850758
0,0,NetherlandsSintMaarten,Sint Maarten,,2021-01-05 02:31:08.800,2020-04-14 00:00:00.000,0.19997924,0.41065261,0.69331258,85,176,297,50,104,184,0.11821322,0.24390670,0.42987717,0.11621461,0.17916208,0.27131032
0,0,NetherlandsSintMaarten,Sint Maarten,,2021-01-05 02:31:08.800,2020-04-15 00:00:00.000,0.19541041,0.40199815,0.66609695,83,172,285,49,101,183,0.11500394,0.23719577,0.42735668,0.10539464,0.16879552,0.27138791
0,0,NetherlandsSintMaarten,Sint Maarten,,2021-01-05 02:31:08.800,2020-04-16 00:00:00.000,0.19111383,0.39021088,0.63795029,81,167,273,48,98,181,0.11212712,0.22904376,0.42366595,0.09827316,0.16258927,0.25727203
0,0,NetherlandsSintMaarten,Sint Maarten,,2021-01-05 02:31:08.800,2020-04-17 00:00:00.000,0.18693176,0.37275825,0.60895799,80,159,261,46,96,174,0.10950813,0.22394239,0.40627578,0.09673915,0.15373919,0.25330598
0,0,NetherlandsSintMaarten,Sint Maarten,,2021-01-05 02:31:08.800,2020-04-18 00:00:00.000,0.17608885,0.35970821,0.60519011,75,154,259,45,92,166,0.10705745,0.21575471,0.38830630,0.09648485,0.15025300,0.25370477
0,0,NetherlandsSintMaarten,Sint Maarten,,2021-01-05 02:31:08.800,2020-04-19 00:00:00.000,0.16455587,0.34288344,0.60139696,70,147,257,44,88,158,0.10464072,0.20623643,0.36990964,0.09277351,0.14784609,0.22697503
0,0,NetherlandsSintMaarten,Sint Maarten,,2021-01-05 02:31:08.800,2020-04-20 00:00:00.000,0.15377384,0.32516110,0.59615381,65,139,255,42,84,150,0.10018793,0.19764831,0.35141010,0.09160611,0.14108748,0.21681594
0,0,NetherlandsSintMaarten,Sint Maarten,,2021-01-05 02:31:08.800,2020-04-21 00:00:00.000,0.14379524,0.30646399,0.59048945,61,131,253,40,79,146,0.09364019,0.18634950,0.34116216,0.09264031,0.13684177,0.21557325
0,0,NetherlandsSintMaarten,Sint Maarten,,2021-01-05 02:31:08.800,2020-04-22 00:00:00.000,0.13457914,0.28848110,0.58465850,57,123,250,37,75,142,0.08753855,0.17667791,0.33234586,0.09133540,0.13540898,0.21797469
0,0,NetherlandsSintMaarten,Sint Maarten,,2021-01-05 02:31:08.800,2020-04-23 00:00:00.000,0.12607999,0.27347073,0.57888983,54,117,248,34,71,138,0.08140162,0.16612996,0.32332205,0.08106695,0.13412484,0.22991888
0,0,NetherlandsSintMaarten,Sint Maarten,,2021-01-05 02:31:08.800,2020-04-24 00:00:00.000,0.12242407,0.26023931,0.57323427,52,111,245,32,67,134,0.07589964,0.15674364,0.31413223,0.08592366,0.13222414,0.24336029
0,0,NetherlandsSintMaarten,Sint Maarten,,2021-01-05 02:31:08.800,2020-04-25 00:00:00.000,0.12016290,0.24856648,0.55912248,51,106,239,30,63,132,0.07094217,0.14877711,0.30835239,0.08490195,0.12984231,0.24755527
0,0,NetherlandsSintMaarten,Sint Maarten,,2021-01-05 02:31:08.800,2020-04-26 00:00:00.000,0.11275630,0.23728915,0.52968794,48,101,227,28,61,130,0.06724658,0.14336083,0.30540424,0.08174972,0.12771424,0.24823570
0,0,NetherlandsSintMaarten,Sint Maarten,,2021-01-05 02:31:08.800,2020-04-27 00:00:00.000,0.10203514,0.22167594,0.49788099,43,95,213,27,58,129,0.06315062,0.13664184,0.30250336,0.08079149,0.12821631,0.24827446
0,0,NetherlandsSintMaarten,Sint Maarten,,2021-01-05 02:31:08.800,2020-04-28 00:00:00.000,0.09195582,0.20801810,0.46779240,39,89,200,25,55,127,0.05870366,0.12841959,0.29798848,0.08052879,0.12684904,0.24813471
0,0,NetherlandsSintMaarten,Sint Maarten,,2021-01-05 02:31:08.800,2020-04-29 00:00:00.000,0.08245536,0.19497300,0.43946720,35,83,188,23,52,121,0.05423134,0.12190638,0.28223343,0.08047450,0.12694564,0.23785300
0,0,NetherlandsSintMaarten,Sint Maarten,,2021-01-05 02:31:08.800,2020-04-30 00:00:00.000,0.07373728,0.18382346,0.41322834,31,78,177,21,49,113,0.04984559,0.11539824,0.26549303,0.08053620,0.12626543,0.23345474
0,0,NetherlandsSintMaarten,Sint Maarten,,2021-01-05 02:31:08.800,2020-05-01 00:00:00.000,0.06697674,0.17307958,0.38922646,28,74,166,19,46,106,0.04561548,0.10920220,0.24932218,0.08074757,0.12599985,0.24083040
0,0,NetherlandsSintMaarten,Sint Maarten,,2021-01-05 02:31:08.800,2020-05-02 00:00:00.000,0.06076607,0.16304233,0.36456073,26,69,156,17,44,100,0.04159569,0.10311441,0.23384563,0.08147883,0.12393495,0.24223574
0,0,NetherlandsSintMaarten,Sint Maarten,,2021-01-05 02:31:08.800,2020-05-03 00:00:00.000,0.05504762,0.15168548,0.34099686,23,65,146,16,41,93,0.03782557,0.09677974,0.21912687,0.08057769,0.12140620,0.22437173
0,0,NetherlandsSintMaarten,Sint Maarten,,2021-01-05 02:31:08.800,2020-05-04 00:00:00.000,0.05506815,0.14369046,0.32062142,23,61,137,14,38,87,0.03432570,0.09018759,0.20518486,0.07913016,0.12065154,0.20877800
0,0,NetherlandsSintMaarten,Sint Maarten,,2021-01-05 02:31:08.800,2020-05-05 00:00:00.000,0.05814286,0.13640810,0.30156246,24,58,129,13,36,82,0.03156184,0.08437485,0.19243133,0.07835387,0.11901942,0.21049358
0,0,NetherlandsSintMaarten,Sint Maarten,,2021-01-05 02:31:08.800,2020-05-06 00:00:00.000,0.06187075,0.13080292,0.28381307,26,56,121,12,34,77,0.03004239,0.07960699,0.18068449,0.07773813,0.11951945,0.21591570
0,0,NetherlandsSintMaarten,Sint Maarten,,2021-01-05 02:31:08.800,2020-05-07 00:00:00.000,0.06124832,0.12299284,0.26728881,26,52,114,13,32,72,0.03155689,0.07514586,0.16981648,0.07496088,0.11953081,0.21771928
0,0,NetherlandsSintMaarten,Sint Maarten,,2021-01-05 02:31:08.800,2020-05-08 00:00:00.000,0.05676496,0.11680967,0.25191624,24,50,108,14,30,68,0.03341518,0.07118995,0.15973574,0.07505781,0.12029088,0.21801347
0,0,NetherlandsSintMaarten,Sint Maarten,,2021-01-05 02:31:08.800,2020-05-09 00:00:00.000,0.05278947,0.11208885,0.23761388,22,48,101,14,28,64,0.03366430,0.06750512,0.15037365,0.07662088,0.11983778,0.21804426
0,0,NetherlandsSintMaarten,Sint Maarten,,2021-01-05 02:31:08.800,2020-05-10 00:00:00.000,0.04922665,0.10789635,0.22428847,21,46,96,13,27,60,0.03120978,0.06421230,0.14167251,0.07676644,0.11978387,0.21893789
0,0,NetherlandsSintMaarten,Sint Maarten,,2021-01-05 02:31:08.800,2020-05-11 00:00:00.000,0.04775927,0.10382533,0.21201534,20,44,90,12,26,57,0.02902083,0.06124693,0.13357773,0.07573585,0.12014673,0.21966568
0,0,NetherlandsSintMaarten,Sint Maarten,,2021-01-05 02:31:08.800,2020-05-12 00:00:00.000,0.04659419,0.10175111,0.20054417,19,43,85,11,25,54,0.02755317,0.05917252,0.12607558,0.07247943,0.12004082,0.21754427
0,0,NetherlandsSintMaarten,Sint Maarten,,2021-01-05 02:31:08.800,2020-05-13 00:00:00.000,0.04572922,0.09944169,0.18980239,19,42,81,11,24,51,0.02654408,0.05705064,0.11910141,0.07243110,0.11901496,0.21610979
0,0,NetherlandsSintMaarten,Sint Maarten,,2021-01-05 02:31:08.800,2020-05-14 00:00:00.000,0.04506386,0.09750253,0.17971614,19,41,77,11,23,48,0.02582911,0.05560661,0.11259918,0.07262097,0.11905696,0.22185166
0,0,NetherlandsSintMaarten,Sint Maarten,,2021-01-05 02:31:08.800,2020-05-15 00:00:00.000,0.04453558,0.09763429,0.17304978,19,41,74,10,23,46,0.02530533,0.05364575,0.10882398,0.07319061,0.11915614,0.21828954
0,0,NetherlandsSintMaarten,Sint Maarten,,2021-01-05 02:31:08.800,2020-05-16 00:00:00.000,0.04410698,0.09403988,0.17034269,18,40,73,10,22,45,0.02490834,0.05330771,0.10710752,0.07472642,0.11963933,0.21738156
0,0,NetherlandsSintMaarten,Sint Maarten,,2021-01-05 02:31:08.800,2020-05-17 00:00:00.000,0.04376085,0.09196268,0.16797255,18,39,72,10,22,45,0.02459829,0.05304745,0.10542350,0.07581957,0.12026441,0.21645725
0,0,NetherlandsSintMaarten,Sint Maarten,,2021-01-05 02:31:08.800,2020-05-18 00:00:00.000,0.04093703,0.08668737,0.15938845,17,37,68,10,22,44,0.02435218,0.05303201,0.10384912,0.07457551,0.12059226,0.21517272
0,0,NetherlandsSintMaarten,Sint Maarten,,2021-01-05 02:31:08.800,2020-05-19 00:00:00.000,0.03824572,0.08199793,0.15101165,16,35,64,10,22,42,0.02343296,0.05163608,0.10025631,0.07281345,0.12272463,0.21491506
0,0,NetherlandsSintMaarten,Sint Maarten,,2021-01-05 02:31:08.800,2020-05-20 00:00:00.000,0.03567599,0.07729170,0.14237209,15,33,61,9,21,40,0.02218830,0.04915486,0.09487900,0.07118123,0.12756243,0.21515025
0,0,NetherlandsSintMaarten,Sint Maarten,,2021-01-05 02:31:08.800,2020-05-21 00:00:00.000,0.03329967,0.07229723,0.13376009,14,31,57,8,19,38,0.02083860,0.04611076,0.08974110,0.07123960,0.13387401,0.21909136
0,0,NetherlandsSintMaarten,Sint Maarten,,2021-01-05 02:31:08.800,2020-05-22 00:00:00.000,0.03111854,0.06757939,0.12547750,13,28,53,8,18,36,0.01950415,0.04320894,0.08586397,0.07767992,0.13386486,0.22321897
0,0,NetherlandsSintMaarten,Sint Maarten,,2021-01-05 02:31:08.800,2020-05-23 00:00:00.000,0.02912765,0.06362626,0.11819262,12,27,50,7,17,34,0.01823847,0.04063962,0.08143343,0.08125409,0.13552516,0.23268459
0,0,NetherlandsSintMaarten,Sint Maarten,,2021-01-05 02:31:08.800,2020-05-24 00:00:00.000,0.02731580,0.05868416,0.11184839,11,25,47,7,16,32,0.01701630,0.03825997,0.07659284,0.08989537,0.13551874,0.24280512
0,0,NetherlandsSintMaarten,Sint Maarten,,2021-01-05 02:31:08.800,2020-05-25 00:00:00.000,0.02566432,0.05540056,0.10791725,11,23,46,6,15,31,0.01567410,0.03608556,0.07279646,0.09083768,0.13958509,0.25008501
0,0,NetherlandsSintMaarten,Sint Maarten,,2021-01-05 02:31:08.800,2020-05-26 00:00:00.000,0.02415128,0.05231204,0.10616533,10,22,45,6,14,29,0.01442648,0.03401417,0.06922504,0.09084637,0.14104430,0.25392172
0,0,NetherlandsSintMaarten,Sint Maarten,,2021-01-05 02:31:08.800,2020-05-27 00:00:00.000,0.02275582,0.04910707,0.10427215,9,21,44,5,13,28,0.01327118,0.03194625,0.06585530,0.09085103,0.14281920,0.25546610
0,0,NetherlandsSintMaarten,Sint Maarten,,2021-01-05 02:31:08.800,2020-05-28 00:00:00.000,0.02074437,0.04601473,0.09937463,8,19,42,5,12,26,0.01220414,0.03001390,0.06267030,0.09085372,0.14497214,0.26745813
0,0,NetherlandsSintMaarten,Sint Maarten,,2021-01-05 02:31:08.800,2020-05-29 00:00:00.000,0.01884747,0.04275427,0.09473779,8,18,40,4,12,25,0.01122047,0.02811679,0.06005387,0.09085775,0.14920234,0.28534922
0,0,NetherlandsSintMaarten,Sint Maarten,,2021-01-05 02:31:08.800,2020-05-30 00:00:00.000,0.01716153,0.04011744,0.09034744,7,17,38,4,11,25,0.01031586,0.02626198,0.05893228,0.09088424,0.15179835,0.28889735
0,0,NetherlandsSintMaarten,Sint Maarten,,2021-01-05 02:31:08.800,2020-05-31 00:00:00.000,0.01569010,0.03796251,0.08618221,6,16,36,4,10,24,0.00948899,0.02484099,0.05706075,0.09114381,0.15504829,0.28971708
0,0,NetherlandsSintMaarten,Sint Maarten,,2021-01-05 02:31:08.800,2020-06-01 00:00:00.000,0.01442768,0.03627209,0.08222237,6,15,35,3,9,23,0.00873697,0.02310299,0.05487251,0.10638009,0.16217262,0.29037849
0,0,NetherlandsSintMaarten,Sint Maarten,,2021-01-05 02:31:08.800,2020-06-02 00:00:00.000,0.01334325,0.03424243,0.07840264,5,14,33,3,9,22,0.00805203,0.02171802,0.05283637,0.10969507,0.16678945,0.29152015
0,0,NetherlandsSintMaarten,Sint Maarten,,2021-01-05 02:31:08.800,2020-06-03 00:00:00.000,0.01239427,0.03252598,0.07474406,5,13,32,3,8,21,0.00742663,0.02060164,0.05094531,0.10963941,0.17339245,0.29382064
0,0,NetherlandsSintMaarten,Sint Maarten,,2021-01-05 02:31:08.800,2020-06-04 00:00:00.000,0.01140638,0.03126256,0.07160427,4,13,30,2,8,20,0.00685491,0.01972303,0.04863054,0.11557745,0.17930325,0.29829230
0,0,NetherlandsSintMaarten,Sint Maarten,,2021-01-05 02:31:08.800,2020-06-05 00:00:00.000,0.01031864,0.03015774,0.06990491,4,12,29,2,8,19,0.00633272,0.01883111,0.04610747,0.11644677,0.18481849,0.30915941
0,0,NetherlandsSintMaarten,Sint Maarten,,2021-01-05 02:31:08.800,2020-06-06 00:00:00.000,0.00935983,0.02859374,0.06841490,4,12,29,2,7,18,0.00585773,0.01764730,0.04376041,0.11698186,0.19204473,0.33087018
0,0,NetherlandsSintMaarten,Sint Maarten,,2021-01-05 02:31:08.800,2020-06-07 00:00:00.000,0.00852717,0.02717080,0.06826728,3,11,29,2,7,17,0.00542985,0.01653679,0.04158794,0.11990756,0.19698937,0.35654932
0,0,NetherlandsSintMaarten,Sint Maarten,,2021-01-05 02:31:08.800,2020-06-08 00:00:00.000,0.00781624,0.02623487,0.06738499,3,11,28,2,6,16,0.00504861,0.01592163,0.03961811,0.11994785,0.19846155,0.37627903
0,0,NetherlandsSintMaarten,Sint Maarten,,2021-01-05 02:31:08.800,2020-06-09 00:00:00.000,0.00721152,0.02560778,0.06524294,3,10,27,2,6,16,0.00471266,0.01538070,0.03788431,0.12748498,0.20401729,0.38556316
0,0,NetherlandsSintMaarten,Sint Maarten,,2021-01-05 02:31:08.800,2020-06-10 00:00:00.000,0.00668997,0.02473715,0.06468996,2,10,27,1,6,15,0.00441867,0.01466445,0.03637422,0.13242127,0.21064743,0.39926038
0,0,NetherlandsSintMaarten,Sint Maarten,,2021-01-05 02:31:08.800,2020-06-11 00:00:00.000,0.00623207,0.02394623,0.06437768,2,10,27,1,6,15,0.00416159,0.01448221,0.03504144,0.13281420,0.21258855,0.40595874
0,0,NetherlandsSintMaarten,Sint Maarten,,2021-01-05 02:31:08.800,2020-06-12 00:00:00.000,0.00582661,0.02328130,0.06427210,2,9,27,1,6,14,0.00393600,0.01429454,0.03383960,0.13357113,0.21672104,0.41401127
0,0,NetherlandsSintMaarten,Sint Maarten,,2021-01-05 02:31:08.800,2020-06-13 00:00:00.000,0.00547154,0.02267580,0.06432572,2,9,27,1,6,14,0.00368461,0.01404579,0.03273952,0.14949735,0.22629590,0.42538638
0,0,NetherlandsSintMaarten,Sint Maarten,,2021-01-05 02:31:08.800,2020-06-14 00:00:00.000,0.00517645,0.02212666,0.06449359,2,9,27,1,5,14,0.00344527,0.01397745,0.03320170,0.15043585,0.23500768,0.44396403
0,0,NetherlandsSintMaarten,Sint Maarten,,2021-01-05 02:31:08.800,2020-06-15 00:00:00.000,0.00496662,0.02162911,0.06474105,2,9,27,1,5,14,0.00324034,0.01384024,0.03392629,0.15219628,0.24313732,0.45754597
0,0,NetherlandsSintMaarten,Sint Maarten,,2021-01-05 02:31:08.800,2020-06-16 00:00:00.000,0.00487283,0.02118283,0.06503355,2,9,27,1,5,14,0.00307803,0.01340479,0.03471285,0.15477078,0.24947651,0.45886649
0,0,NetherlandsSintMaarten,Sint Maarten,,2021-01-05 02:31:08.800,2020-06-17 00:00:00.000,0.00489407,0.02079545,0.06541821,2,8,28,1,5,15,0.00297203,0.01291853,0.03554598,0.15846968,0.25261722,0.45929782
0,0,NetherlandsSintMaarten,Sint Maarten,,2021-01-05 02:31:08.800,2020-06-18 00:00:00.000,0.00499484,0.02037871,0.06629004,2,8,28,1,5,15,0.00292898,0.01254171,0.03641680,0.16565508,0.25874545,0.48979565
0,0,NetherlandsSintMaarten,Sint Maarten,,2021-01-05 02:31:08.800,2020-06-19 00:00:00.000,0.00514249,0.02006057,0.06784744,2,8,29,1,5,16,0.00291662,0.01223766,0.03732293,0.16693675,0.26654803,0.49124800
0,0,NetherlandsSintMaarten,Sint Maarten,,2021-01-05 02:31:08.800,2020-06-20 00:00:00.000,0.00520372,0.02028155,0.06965108,2,8,29,1,5,16,0.00281909,0.01198986,0.03826488,0.17328684,0.28655922,0.49398360
0,0,NetherlandsSintMaarten,Sint Maarten,,2021-01-05 02:31:08.800,2020-06-21 00:00:00.000,0.00506295,0.02035755,0.07155977,2,8,30,1,5,16,0.00273003,0.01184095,0.03924064,0.18432511,0.30445343,0.49473288
0,0,NetherlandsSintMaarten,Sint Maarten,,2021-01-05 02:31:08.800,2020-06-22 00:00:00.000,0.00725442,0.02394259,0.07520441,3,10,32,1,5,17,0.00265042,0.01178213,0.04024989,0.19346774,0.31351472,0.49500695
0,0,NetherlandsSintMaarten,Sint Maarten,,2021-01-05 02:31:08.800,2020-06-23 00:00:00.000,0.00941041,0.02983725,0.07893005,4,12,33,1,5,18,0.00359859,0.01270186,0.04211006,0.20219345,0.32247069,0.49845814
0,0,NetherlandsSintMaarten,Sint Maarten,,2021-01-05 02:31:08.800,2020-06-24 00:00:00.000,0.01166219,0.03396760,0.08284212,5,14,35,1,6,19,0.00449926,0.01469364,0.04451547,0.20469347,0.33383258,0.51988126
0,0,NetherlandsSintMaarten,Sint Maarten,,2021-01-05 02:31:08.800,2020-06-25 00:00:00.000,0.01395461,0.03726879,0.09319157,5,15,39,2,7,20,0.00558915,0.01713643,0.04728320,0.20699459,0.34567954,0.55401418
0,0,NetherlandsSintMaarten,Sint Maarten,,2021-01-05 02:31:08.800,2020-06-26 00:00:00.000,0.01626320,0.04221489,0.10726096,6,18,45,2,8,21,0.00678920,0.01919434,0.05029830,0.21295200,0.36246956,0.59157688
0,0,NetherlandsSintMaarten,Sint Maarten,,2021-01-05 02:31:08.800,2020-06-27 00:00:00.000,0.01858976,0.04797845,0.12042619,7,20,51,3,9,22,0.00804863,0.02231554,0.05352208,0.21971089,0.37646920,0.62448936
0,0,NetherlandsSintMaarten,Sint Maarten,,2021-01-05 02:31:08.800,2020-06-28 00:00:00.000,0.02097667,0.05382845,0.13413631,8,23,57,4,10,25,0.00934335,0.02482604,0.05951388,0.22603968,0.38400207,0.63021010
0,0,NetherlandsSintMaarten,Sint Maarten,,2021-01-05 02:31:08.800,2020-06-29 00:00:00.000,0.02599373,0.06216931,0.14311236,11,26,61,4,11,27,0.01067047,0.02776946,0.06459825,0.25351642,0.40096744,0.62812953
0,0,NetherlandsSintMaarten,Sint Maarten,,2021-01-05 02:31:08.800,2020-06-30 00:00:00.000,0.03006354,0.07073319,0.15284465,12,30,65,5,13,30,0.01288912,0.03182652,0.07079866,0.27033847,0.41446286,0.63144049
0,0,NetherlandsSintMaarten,Sint Maarten,,2021-01-05 02:31:08.800,2020-07-01 00:00:00.000,0.03458902,0.08270130,0.16598941,14,35,71,6,15,33,0.01526277,0.03627610,0.07724389,0.28737066,0.43156582,0.66840915
0,0,NetherlandsSintMaarten,Sint Maarten,,2021-01-05 02:31:08.800,2020-07-02 00:00:00.000,0.03959366,0.09268221,0.19157158,16,39,82,7,17,35,0.01707329,0.04117457,0.08358584,0.28890387,0.44674794,0.69699620
0,0,NetherlandsSintMaarten,Sint Maarten,,2021-01-05 02:31:08.800,2020-07-03 00:00:00.000,0.04485012,0.09955107,0.21932170,19,42,94,8,19,40,0.01904717,0.04602194,0.09464681,0.29086774,0.47403962,0.70981219
0,0,NetherlandsSintMaarten,Sint Maarten,,2021-01-05 02:31:08.800,2020-07-04 00:00:00.000,0.05111152,0.11234369,0.24460311,21,48,104,9,22,44,0.02178720,0.05255437,0.10452181,0.29786321,0.49502269,0.71194293
0,0,NetherlandsSintMaarten,Sint Maarten,,2021-01-05 02:31:08.800,2020-07-05 00:00:00.000,0.05778966,0.12380458,0.26606707,24,53,114,10,25,48,0.02536310,0.05870453,0.11311962,0.32348005,0.52417741,0.74300761
0,0,NetherlandsSintMaarten,Sint Maarten,,2021-01-05 02:31:08.800,2020-07-06 00:00:00.000,0.06917395,0.13824059,0.28353417,29,59,121,12,27,52,0.02931083,0.06416076,0.12255023,0.33891829,0.55004193,0.77190471
0,0,NetherlandsSintMaarten,Sint Maarten,,2021-01-05 02:31:08.800,2020-07-07 00:00:00.000,0.08165330,0.15654833,0.30204239,35,67,129,14,30,56,0.03402529,0.07184997,0.13270173,0.35934508,0.56519132,0.80438640
0,0,NetherlandsSintMaarten,Sint Maarten,,2021-01-05 02:31:08.800,2020-07-08 00:00:00.000,0.09222687,0.17900318,0.32144157,39,76,137,16,33,61,0.03944432,0.07896278,0.14368930,0.37178743,0.58497629,0.92020667
0,0,NetherlandsSintMaarten,Sint Maarten,,2021-01-05 02:31:08.800,2020-07-09 00:00:00.000,0.10597065,0.20176360,0.34189069,45,86,146,19,38,67,0.04493078,0.08936194,0.15688425,0.37479357,0.61747011,0.95178744
0,0,NetherlandsSintMaarten,Sint Maarten,,2021-01-05 02:31:08.800,2020-07-10 00:00:00.000,0.12147238,0.22754140,0.36351288,52,97,155,21,43,75,0.04991828,0.10109079,0.17523935,0.38086736,0.63712270,0.96415450
0,0,NetherlandsSintMaarten,Sint Maarten,,2021-01-05 02:31:08.800,2020-07-11 00:00:00.000,0.13885992,0.25814208,0.39808032,59,110,170,24,48,83,0.05659560,0.11263260,0.19497844,0.40180667,0.67447992,0.96924252
0,0,NetherlandsSintMaarten,Sint Maarten,,2021-01-05 02:31:08.800,2020-07-12 00:00:00.000,0.14929748,0.28304817,0.45046941,64,121,193,26,53,92,0.06285068,0.12591112,0.21638299,0.43970847,0.69755049,1.02172585
0,0,NetherlandsSintMaarten,Sint Maarten,,2021-01-05 02:31:08.800,2020-07-13 00:00:00.000,0.16453735,0.31795797,0.52003301,70,136,223,29,60,102,0.06992097,0.14055704,0.24001258,0.47254219,0.70755613,1.03029134
0,0,NetherlandsSintMaarten,Sint Maarten,,2021-01-05 02:31:08.800,2020-07-14 00:00:00.000,0.18610711,0.36232350,0.59706848,79,155,256,33,66,111,0.07788204,0.15483254,0.26095572,0.48739653,0.71697930,1.04464611
0,0,NetherlandsSintMaarten,Sint Maarten,,2021-01-05 02:31:08.800,2020-07-15 00:00:00.000,0.21568650,0.40519757,0.68374924,92,173,293,38,75,128,0.08871038,0.17632071,0.29914683,0.50328016,0.72564829,1.03996652
0,0,NetherlandsSintMaarten,Sint Maarten,,2021-01-05 02:31:08.800,2020-07-16 00:00:00.000,0.24833365,0.45571692,0.77292472,106,195,331,43,83,147,0.10136601,0.19510240,0.34439480,0.51511263,0.75530520,1.00754871
0,0,NetherlandsSintMaarten,Sint Maarten,,2021-01-05 02:31:08.800,2020-07-17 00:00:00.000,0.27733904,0.51461857,0.86257539,118,220,369,47,93,170,0.11148544,0.21698403,0.39675951,0.52386524,0.78444502,1.05560464
0,0,NetherlandsSintMaarten,Sint Maarten,,2021-01-05 02:31:08.800,2020-07-18 00:00:00.000,0.30969636,0.57414430,0.98251796,132,246,421,52,104,195,0.12279411,0.24437953,0.45677029,0.55675507,0.78789418,1.05591062
0,0,NetherlandsSintMaarten,Sint Maarten,,2021-01-05 02:31:08.800,2020-07-19 00:00:00.000,0.34577822,0.64120970,1.11849498,148,274,479,58,119,218,0.13615184,0.27949629,0.50955851,0.59126356,0.78422637,1.05361500
0,0,NetherlandsSintMaarten,Sint Maarten,,2021-01-05 02:31:08.800,2020-07-20 00:00:00.000,0.39332015,0.72722612,1.26559755,168,311,542,64,138,240,0.15156608,0.32217523,0.56162671,0.58605821,0.78140145,1.03505472
0,0,NetherlandsSintMaarten,Sint Maarten,,2021-01-05 02:31:08.800,2020-07-21 00:00:00.000,0.44542083,0.83592126,1.42788357,191,358,612,72,157,264,0.17012055,0.36636033,0.61791374,0.56141751,0.78374649,1.00287977
0,0,NetherlandsSintMaarten,Sint Maarten,,2021-01-05 02:31:08.800,2020-07-22 00:00:00.000,0.50327477,0.96707322,1.60361712,215,414,687,81,178,299,0.19111801,0.41739128,0.69911113,0.54677023,0.78206832,0.98821755
0,0,NetherlandsSintMaarten,Sint Maarten,,2021-01-05 02:31:08.800,2020-07-23 00:00:00.000,0.56732479,1.09847947,1.78566835,243,471,765,91,203,336,0.21436502,0.47398025,0.78580119,0.54795675,0.77291451,0.98465589
0,0,NetherlandsSintMaarten,Sint Maarten,,2021-01-05 02:31:08.800,2020-07-24 00:00:00.000,0.62153911,1.23519186,1.97666073,266,529,847,103,229,378,0.24120565,0.53452303,0.88371261,0.54940956,0.76304039,0.96447826
0,0,NetherlandsSintMaarten,Sint Maarten,,2021-01-05 02:31:08.800,2020-07-25 00:00:00.000,0.67189272,1.37697543,2.17455119,288,590,932,115,255,426,0.27009331,0.59648873,0.99456871,0.54088022,0.73667023,0.95758411
0,0,NetherlandsSintMaarten,Sint Maarten,,2021-01-05 02:31:08.800,2020-07-26 00:00:00.000,0.72700178,1.52598548,2.39150241,311,654,1025,128,283,472,0.29994388,0.66180905,1.10096792,0.53749803,0.71900572,0.97375008
0,0,NetherlandsSintMaarten,Sint Maarten,,2021-01-05 02:31:08.800,2020-07-27 00:00:00.000,0.78962694,1.67387075,2.59711788,338,717,1113,142,318,518,0.33164412,0.74359221,1.20848177,0.53418295,0.71758374,0.96002585
0,0,NetherlandsSintMaarten,Sint Maarten,,2021-01-05 02:31:08.800,2020-07-28 00:00:00.000,0.85742591,1.81689380,2.81042405,367,779,1205,156,353,575,0.36589786,0.82388420,1.34315979,0.53126114,0.70805860,0.91235171
0,0,NetherlandsSintMaarten,Sint Maarten,,2021-01-05 02:31:08.800,2020-07-29 00:00:00.000,0.92992415,1.98590764,3.05714862,398,851,1310,172,388,638,0.40238430,0.90622505,1.48877421,0.52738984,0.68566185,0.86651653
0,0,NetherlandsSintMaarten,Sint Maarten,,2021-01-05 02:31:08.800,2020-07-30 00:00:00.000,1.00658250,2.19438026,3.34854924,431,940,1435,189,425,709,0.44182358,0.99169566,1.65518975,0.51782465,0.67032332,0.85647424
0,0,NetherlandsSintMaarten,Sint Maarten,,2021-01-05 02:31:08.800,2020-07-31 00:00:00.000,1.08613337,2.37483109,3.72381278,465,1018,1596,207,461,753,0.48471428,1.07669576,1.75663257,0.49364815,0.65248454,0.83736005
0,0,NetherlandsSintMaarten,Sint Maarten,,2021-01-05 02:31:08.800,2020-08-01 00:00:00.000,1.16673520,2.55856725,4.03230602,500,1097,1729,227,504,815,0.53147943,1.17611696,1.90214907,0.44303414,0.62479899,0.79718214
0,0,NetherlandsSintMaarten,Sint Maarten,,2021-01-05 02:31:08.800,2020-08-02 00:00:00.000,1.24865417,2.74306335,4.30116593,535,1176,1844,249,550,893,0.58252860,1.28439595,2.08454245,0.43052098,0.59910339,0.76218506
0,0,NetherlandsSintMaarten,Sint Maarten,,2021-01-05 02:31:08.800,2020-08-03 00:00:00.000,1.36690496,2.93181730,4.58147796,586,1257,1964,268,594,958,0.62578724,1.38614456,2.23581500,0.42587707,0.57688721,0.72780679
0,0,NetherlandsSintMaarten,Sint Maarten,,2021-01-05 02:31:08.800,2020-08-04 00:00:00.000,1.49582467,3.12471616,4.87579470,641,1339,2090,286,645,1023,0.66730190,1.50485370,2.38675246,0.41804907,0.56571864,0.71953426
0,0,NetherlandsSintMaarten,Sint Maarten,,2021-01-05 02:31:08.800,2020-08-05 00:00:00.000,1.57367629,3.36306888,5.18417353,674,1442,2223,306,691,1100,0.71472547,1.61320979,2.56700029,0.41174383,0.55240314,0.71217536
0,0,NetherlandsSintMaarten,Sint Maarten,,2021-01-05 02:31:08.800,2020-08-06 00:00:00.000,1.64585582,3.57167210,5.50522729,705,1531,2360,333,742,1156,0.77833850,1.73186796,2.69648431,0.40500282,0.54353214,0.70345333
0,0,NetherlandsSintMaarten,Sint Maarten,,2021-01-05 02:31:08.800,2020-08-07 00:00:00.000,1.72060496,3.83500215,5.83139715,737,1644,2500,363,794,1210,0.84710202,1.85356557,2.82239927,0.38729944,0.52741032,0.68470412
0,0,NetherlandsSintMaarten,Sint Maarten,,2021-01-05 02:31:08.800,2020-08-08 00:00:00.000,1.79777375,4.00394552,6.12366633,770,1716,2625,394,846,1285,0.92080265,1.97432169,2.99669950,0.37338750,0.50705776,0.67943977
0,0,NetherlandsSintMaarten,Sint Maarten,,2021-01-05 02:31:08.800,2020-08-09 00:00:00.000,1.87679661,4.20583804,6.28718300,804,1803,2696,416,898,1369,0.97243515,2.09532779,3.19473118,0.35369516,0.47444816,0.63011921
0,0,NetherlandsSintMaarten,Sint Maarten,,2021-01-05 02:31:08.800,2020-08-10 00:00:00.000,1.96655639,4.35760791,6.43762989,843,1868,2760,435,948,1420,1.01601001,2.21137684,3.31262723,0.33974686,0.44324881,0.58066023
0,0,NetherlandsSintMaarten,Sint Maarten,,2021-01-05 02:31:08.800,2020-08-11 00:00:00.000,2.05834984,4.46683746,6.57762298,882,1915,2820,455,990,1467,1.06305045,2.31003864,3.42208301,0.32067039,0.41277558,0.54594311
0,0,NetherlandsSintMaarten,Sint Maarten,,2021-01-05 02:31:08.800,2020-08-12 00:00:00.000,2.15069748,4.55436409,6.63324639,922,1953,2844,477,1034,1504,1.11255986,2.41229564,3.50739670,0.28123318,0.39142853,0.52194047
0,0,NetherlandsSintMaarten,Sint Maarten,,2021-01-05 02:31:08.800,2020-08-13 00:00:00.000,2.23477056,4.54794966,6.65253817,958,1950,2852,498,1072,1533,1.16347740,2.49990349,3.57562821,0.26223567,0.37412949,0.48997947
0,0,NetherlandsSintMaarten,Sint Maarten,,2021-01-05 02:31:08.800,2020-08-14 00:00:00.000,2.30025058,4.55584352,6.65607017,986,1953,2854,520,1084,1553,1.21318861,2.52855297,3.62365976,0.23444509,0.36029161,0.48342016
0,0,NetherlandsSintMaarten,Sint Maarten,,2021-01-05 02:31:08.800,2020-08-15 00:00:00.000,2.34404109,4.56122090,6.70414917,1005,1955,2874,533,1097,1571,1.24346747,2.55841056,3.66566119,0.22269343,0.34574270,0.48226500
0,0,NetherlandsSintMaarten,Sint Maarten,,2021-01-05 02:31:08.800,2020-08-16 00:00:00.000,2.37784439,4.53325364,6.75201816,1019,1943,2895,532,1098,1586,1.24197192,2.56219778,3.69956873,0.20801998,0.33388500,0.42744680
0,0,NetherlandsSintMaarten,Sint Maarten,,2021-01-05 02:31:08.800,2020-08-17 00:00:00.000,2.39688997,4.49577389,6.56307411,1027,1927,2814,530,1096,1597,1.23614540,2.55755532,3.72631602,0.19899389,0.31619079,0.41446321
0,0,NetherlandsSintMaarten,Sint Maarten,,2021-01-05 02:31:08.800,2020-08-18 00:00:00.000,2.41077434,4.48211893,6.57226453,1033,1922,2818,526,1089,1596,1.22755383,2.53982062,3.72186412,0.19760776,0.30982439,0.40030918
0,0,NetherlandsSintMaarten,Sint Maarten,,2021-01-05 02:31:08.800,2020-08-19 00:00:00.000,2.41766995,4.45796335,6.59263995,1036,1911,2827,521,1084,1563,1.21708963,2.53004222,3.64501202,0.19533903,0.30179778,0.39202766
0,0,NetherlandsSintMaarten,Sint Maarten,,2021-01-05 02:31:08.800,2020-08-20 00:00:00.000,2.41542579,4.37229312,6.58291582,1035,1874,2822,516,1074,1523,1.20555844,2.50482101,3.55194434,0.19356364,0.29747966,0.38812747
0,0,NetherlandsSintMaarten,Sint Maarten,,2021-01-05 02:31:08.800,2020-08-21 00:00:00.000,2.40252192,4.24375665,6.52356006,1030,1819,2797,511,1058,1513,1.19392408,2.46807992,3.52908733,0.19493112,0.28838250,0.38576976
0,0,NetherlandsSintMaarten,Sint Maarten,,2021-01-05 02:31:08.800,2020-08-22 00:00:00.000,2.37712141,4.09859101,6.41826282,1019,1757,2752,507,1039,1497,1.18289362,2.42386716,3.49195985,0.18900370,0.27439588,0.38152315
0,0,NetherlandsSintMaarten,Sint Maarten,,2021-01-05 02:31:08.800,2020-08-23 00:00:00.000,2.34042000,3.97196674,6.24746887,1003,1703,2679,502,1018,1477,1.17240726,2.37573774,3.44539299,0.18403413,0.25922231,0.36654982
0,0,NetherlandsSintMaarten,Sint Maarten,,2021-01-05 02:31:08.800,2020-08-24 00:00:00.000,2.29868070,3.87782557,6.02352325,985,1662,2583,498,997,1458,1.16213488,2.32596688,3.40049599,0.17339482,0.25863216,0.35969956
0,0,NetherlandsSintMaarten,Sint Maarten,,2021-01-05 02:31:08.800,2020-08-25 00:00:00.000,2.25143763,3.72599708,5.78121102,965,1597,2479,494,960,1431,1.15216703,2.24076493,3.33763414,0.16947558,0.24767514,0.35802025
0,0,NetherlandsSintMaarten,Sint Maarten,,2021-01-05 02:31:08.800,2020-08-26 00:00:00.000,2.19068034,3.58277969,5.53893057,939,1536,2375,488,927,1401,1.13962706,2.16369574,3.26879607,0.16738889,0.24618019,0.35388314
0,0,NetherlandsSintMaarten,Sint Maarten,,2021-01-05 02:31:08.800,2020-08-27 00:00:00.000,2.06936029,3.50064881,5.30275267,887,1501,2273,462,896,1370,1.07785662,2.09030823,3.19655303,0.16188836,0.24289204,0.34331042
0,0,NetherlandsSintMaarten,Sint Maarten,,2021-01-05 02:31:08.800,2020-08-28 00:00:00.000,1.95463635,3.37771296,5.07622481,838,1448,2176,436,864,1338,1.01872063,2.01580387,3.12119797,0.16231979,0.24122131,0.33829572
0,0,NetherlandsSintMaarten,Sint Maarten,,2021-01-05 02:31:08.800,2020-08-29 00:00:00.000,1.84640438,3.23866322,4.86171425,791,1388,2084,412,834,1303,0.96248437,1.94599307,3.04035167,0.16466155,0.23943860,0.34215816
0,0,NetherlandsSintMaarten,Sint Maarten,,2021-01-05 02:31:08.800,2020-08-30 00:00:00.000,1.74457391,3.13550607,4.66042038,748,1344,1998,389,806,1267,0.90937351,1.87999499,2.95523710,0.16440790,0.23926790,0.34275977
0,0,NetherlandsSintMaarten,Sint Maarten,,2021-01-05 02:31:08.800,2020-08-31 00:00:00.000,1.65503861,3.04526476,4.54373537,709,1305,1948,368,782,1229,0.85930397,1.82363387,2.86832458,0.15971063,0.23997177,0.34837854
0,0,NetherlandsSintMaarten,Sint Maarten,,2021-01-05 02:31:08.800,2020-09-01 00:00:00.000,1.59703143,2.93402105,4.43100716,684,1258,1900,348,757,1192,0.81382579,1.76564036,2.78148771,0.15947054,0.24048327,0.35025368
0,0,NetherlandsSintMaarten,Sint Maarten,,2021-01-05 02:31:08.800,2020-09-02 00:00:00.000,1.55158257,2.82595243,4.31939524,665,1211,1852,334,727,1155,0.77890208,1.69634210,2.69514011,0.16038528,0.24224005,0.36280738
0,0,NetherlandsSintMaarten,Sint Maarten,,2021-01-05 02:31:08.800,2020-09-03 00:00:00.000,1.51135505,2.72502301,4.20922466,648,1168,1804,322,698,1119,0.75224723,1.62876086,2.60997093,0.16108031,0.24459100,0.36541774
0,0,NetherlandsSintMaarten,Sint Maarten,,2021-01-05 02:31:08.800,2020-09-04 00:00:00.000,1.47589525,2.63661755,4.09902696,632,1130,1757,313,665,1085,0.73038338,1.55110178,2.53039032,0.16190175,0.24618114,0.36832557
0,0,NetherlandsSintMaarten,Sint Maarten,,2021-01-05 02:31:08.800,2020-09-05 00:00:00.000,1.44574669,2.55492446,3.98272170,619,1095,1707,305,643,1052,0.71183197,1.50000374,2.45460632,0.16366190,0.25202745,0.37541494
0,0,NetherlandsSintMaarten,Sint Maarten,,2021-01-05 02:31:08.800,2020-09-06 00:00:00.000,1.42217227,2.45586520,3.86665411,609,1053,1658,298,620,1022,0.69601210,1.44671098,2.38342539,0.16902934,0.25328721,0.37912626
0,0,NetherlandsSintMaarten,Sint Maarten,,2021-01-05 02:31:08.800,2020-09-07 00:00:00.000,1.40039044,2.38342504,3.75237612,600,1022,1609,292,599,993,0.68306508,1.39876665,2.31725643,0.16957857,0.25539012,0.38043237
0,0,NetherlandsSintMaarten,Sint Maarten,,2021-01-05 02:31:08.800,2020-09-08 00:00:00.000,1.38222952,2.30798363,3.64080494,592,989,1561,288,581,967,0.67172014,1.35720905,2.25583295,0.17388959,0.25826340,0.38069849
0,0,NetherlandsSintMaarten,Sint Maarten,,2021-01-05 02:31:08.800,2020-09-09 00:00:00.000,1.36467146,2.23137881,3.53459089,585,956,1515,283,565,942,0.66196355,1.31938300,2.19872647,0.17799201,0.26134924,0.38083529
0,0,NetherlandsSintMaarten,Sint Maarten,,2021-01-05 02:31:08.800,2020-09-10 00:00:00.000,1.34610713,2.16009739,3.44161297,577,926,1475,280,545,919,0.65305649,1.27274680,2.14523966,0.18387498,0.26992083,0.38109580
0,0,NetherlandsSintMaarten,Sint Maarten,,2021-01-05 02:31:08.800,2020-09-11 00:00:00.000,1.32592283,2.13641762,3.35728983,568,916,1439,276,530,898,0.64420379,1.23728064,2.09452542,0.19061384,0.27912296,0.38122954
0,0,NetherlandsSintMaarten,Sint Maarten,,2021-01-05 02:31:08.800,2020-09-12 00:00:00.000,1.30421285,2.10271061,3.27591984,559,901,1404,272,518,877,0.63489703,1.20931426,2.04539542,0.19471302,0.28389234,0.39373299
0,0,NetherlandsSintMaarten,Sint Maarten,,2021-01-05 02:31:08.800,2020-09-13 00:00:00.000,1.28139747,2.03956890,3.19639906,549,874,1370,267,512,855,0.62496214,1.19599311,1.99607862,0.19635958,0.29268023,0.40080883
0,0,NetherlandsSintMaarten,Sint Maarten,,2021-01-05 02:31:08.800,2020-09-14 00:00:00.000,1.25804699,2.00397035,3.11912019,539,859,1337,263,502,833,0.61445800,1.17222201,1.94421769,0.19596235,0.29349485,0.39909517
0,0,NetherlandsSintMaarten,Sint Maarten,,2021-01-05 02:31:08.800,2020-09-15 00:00:00.000,1.23456422,1.94764880,3.04291950,529,835,1304,258,495,809,0.60357549,1.15646803,1.88701604,0.19849553,0.29539142,0.41155979
0,0,NetherlandsSintMaarten,Sint Maarten,,2021-01-05 02:31:08.800,2020-09-16 00:00:00.000,1.21149883,1.90547355,2.98430881,519,817,1279,254,483,782,0.59251143,1.12678836,1.82507709,0.19844404,0.30018710,0.42083898
0,0,NetherlandsSintMaarten,Sint Maarten,,2021-01-05 02:31:08.800,2020-09-17 00:00:00.000,1.18957183,1.88465430,2.97689959,510,808,1276,249,474,755,0.58149685,1.10706876,1.76093771,0.20041524,0.30594639,0.42569179
0,0,NetherlandsSintMaarten,Sint Maarten,,2021-01-05 02:31:08.800,2020-09-18 00:00:00.000,1.16970143,1.85046820,2.90253259,501,793,1244,244,470,729,0.57082622,1.09676523,1.70042771,0.20363510,0.30865506,0.43469552
0,0,NetherlandsSintMaarten,Sint Maarten,,2021-01-05 02:31:08.800,2020-09-19 00:00:00.000,1.15261911,1.79623238,2.91472342,494,770,1249,240,463,731,0.56087643,1.08112015,1.70686421,0.20369512,0.31398005,0.43431786
0,0,NetherlandsSintMaarten,Sint Maarten,,2021-01-05 02:31:08.800,2020-09-20 00:00:00.000,1.13864545,1.74981833,2.91167801,488,750,1248,236,458,709,0.55201073,1.06896755,1.65511052,0.20381177,0.31882125,0.43324243
0,0,NetherlandsSintMaarten,Sint Maarten,,2021-01-05 02:31:08.800,2020-09-21 00:00:00.000,1.12415754,1.72305279,2.87061560,482,738,1230,233,452,684,0.54436845,1.05429477,1.59602387,0.20406003,0.32117125,0.43298779
0,0,NetherlandsSintMaarten,Sint Maarten,,2021-01-05 02:31:08.800,2020-09-22 00:00:00.000,1.08908447,1.71861133,2.84117480,467,736,1218,230,446,677,0.53724719,1.04177764,1.58062185,0.20487550,0.32006245,0.43202827
0,0,NetherlandsSintMaarten,Sint Maarten,,2021-01-05 02:31:08.800,2020-09-23 00:00:00.000,1.05499880,1.71486159,2.83458684,452,735,1215,222,441,677,0.51886274,1.02854404,1.57890859,0.20753435,0.31679985,0.43799867
0,0,NetherlandsSintMaarten,Sint Maarten,,2021-01-05 02:31:08.800,2020-09-24 00:00:00.000,1.02339991,1.72591194,2.75635581,438,740,1181,215,430,675,0.50151393,1.00471000,1.57629798,0.21306452,0.31663108,0.43877014
0,0,NetherlandsSintMaarten,Sint Maarten,,2021-01-05 02:31:08.800,2020-09-25 00:00:00.000,0.99389213,1.68545991,2.71549130,426,722,1164,208,427,669,0.48557664,0.99762061,1.56171310,0.21856527,0.31418519,0.43906639
0,0,NetherlandsSintMaarten,Sint Maarten,,2021-01-05 02:31:08.800,2020-09-26 00:00:00.000,0.96617727,1.66008342,2.70568747,414,711,1160,201,424,653,0.47082022,0.99107282,1.52484948,0.22089719,0.31556387,0.42612123
0,0,NetherlandsSintMaarten,Sint Maarten,,2021-01-05 02:31:08.800,2020-09-27 00:00:00.000,0.94010815,1.63220136,2.70089761,403,699,1158,196,422,646,0.45707429,0.98449363,1.50725756,0.21662348,0.31664338,0.43500949
0,0,NetherlandsSintMaarten,Sint Maarten,,2021-01-05 02:31:08.800,2020-09-28 00:00:00.000,0.89957892,1.62119912,2.67885280,385,695,1148,190,414,633,0.44422145,0.96574794,1.47738344,0.21446005,0.32269264,0.44010043
0,0,NetherlandsSintMaarten,Sint Maarten,,2021-01-05 02:31:08.800,2020-09-29 00:00:00.000,0.86039265,1.62102711,2.63340581,368,695,1129,183,406,606,0.42885019,0.94746698,1.41473204,0.21544984,0.32237061,0.44987058
0,0,NetherlandsSintMaarten,Sint Maarten,,2021-01-05 02:31:08.800,2020-09-30 00:00:00.000,0.82212808,1.62059941,2.58805280,352,694,1109,176,403,604,0.41224194,0.94146322,1.41013271,0.21653204,0.32369106,0.45775070
0,0,NetherlandsSintMaarten,Sint Maarten,,2021-01-05 02:31:08.800,2020-10-01 00:00:00.000,0.78559065,1.61238172,2.55350758,336,691,1094,169,400,607,0.39520376,0.93483974,1.41578303,0.21691224,0.32278094,0.47074130
0,0,NetherlandsSintMaarten,Sint Maarten,,2021-01-05 02:31:08.800,2020-10-02 00:00:00.000,0.75260547,1.60118943,2.53213984,322,686,1085,166,393,601,0.38723336,0.91649750,1.40212872,0.21710969,0.32828233,0.48198222
0,0,NetherlandsSintMaarten,Sint Maarten,,2021-01-05 02:31:08.800,2020-10-03 00:00:00.000,0.72919842,1.59042164,2.50085266,312,682,1072,165,385,591,0.38621919,0.89845294,1.37951053,0.21771183,0.33396078,0.49623978
0,0,NetherlandsSintMaarten,Sint Maarten,,2021-01-05 02:31:08.800,2020-10-04 00:00:00.000,0.72986305,1.58379291,2.45600702,312,679,1053,165,377,585,0.38570404,0.88079929,1.36555930,0.22383018,0.33401494,0.52658189
0,0,NetherlandsSintMaarten,Sint Maarten,,2021-01-05 02:31:08.800,2020-10-05 00:00:00.000,0.73323521,1.58135731,2.41525799,314,678,1035,165,372,584,0.38567870,0.86796442,1.36379049,0.22325063,0.33707448,0.50671761
0,0,NetherlandsSintMaarten,Sint Maarten,,2021-01-05 02:31:08.800,2020-10-06 00:00:00.000,0.73708651,1.57053462,2.38733539,316,673,1023,165,371,580,0.38661231,0.86653008,1.35446852,0.22394607,0.34014048,0.52612038
0,0,NetherlandsSintMaarten,Sint Maarten,,2021-01-05 02:31:08.800,2020-10-07 00:00:00.000,0.72565861,1.55254935,2.38433736,311,665,1022,166,374,574,0.38815897,0.87401288,1.34081629,0.22792977,0.34039980,0.52976495
0,0,NetherlandsSintMaarten,Sint Maarten,,2021-01-05 02:31:08.800,2020-10-08 00:00:00.000,0.71419969,1.55017051,2.38235919,306,664,1021,167,373,572,0.39009717,0.87158365,1.33601122,0.23532742,0.34646026,0.52865376
0,0,NetherlandsSintMaarten,Sint Maarten,,2021-01-05 02:31:08.800,2020-10-09 00:00:00.000,0.71369642,1.55616933,2.38057341,306,667,1020,168,379,571,0.39229598,0.88540875,1.33304025,0.24184026,0.34877671,0.52081685
0,0,NetherlandsSintMaarten,Sint Maarten,,2021-01-05 02:31:08.800,2020-10-10 00:00:00.000,0.73296815,1.55488737,2.37811331,314,666,1019,169,377,569,0.39468414,0.88025148,1.32895180,0.25367623,0.35432724,0.55068846
0,0,NetherlandsSintMaarten,Sint Maarten,,2021-01-05 02:31:08.800,2020-10-11 00:00:00.000,0.73733434,1.55275621,2.37408749,316,665,1018,170,373,569,0.39723743,0.87059890,1.32702682,0.25932384,0.35675481,0.57446643
0,0,NetherlandsSintMaarten,Sint Maarten,,2021-01-05 02:31:08.800,2020-10-12 00:00:00.000,0.73781793,1.52841658,2.36527851,316,655,1014,171,369,569,0.40001584,0.86146674,1.32866891,0.28893428,0.36225227,0.55136344
0,0,NetherlandsSintMaarten,Sint Maarten,,2021-01-05 02:31:08.800,2020-10-13 00:00:00.000,0.74217326,1.53519609,2.35551272,318,658,1010,172,366,570,0.40261419,0.85463001,1.32933681,0.29369906,0.37306662,0.53906172
0,0,NetherlandsSintMaarten,Sint Maarten,,2021-01-05 02:31:08.800,2020-10-14 00:00:00.000,0.74963081,1.54431627,2.34529899,321,662,1005,174,363,570,0.40576653,0.84859989,1.32961899,0.29299894,0.37994813,0.54105922
0,0,NetherlandsSintMaarten,Sint Maarten,,2021-01-05 02:31:08.800,2020-10-15 00:00:00.000,0.76201849,1.55657533,2.33498273,326,667,1001,175,358,570,0.41005072,0.83694052,1.32950293,0.29112312,0.39292985,0.54227301
0,0,NetherlandsSintMaarten,Sint Maarten,,2021-01-05 02:31:08.800,2020-10-16 00:00:00.000,0.76872006,1.56315011,2.34253204,329,670,1004,178,361,569,0.41559079,0.84231008,1.32888140,0.29039472,0.40399597,0.54294440
0,0,NetherlandsSintMaarten,Sint Maarten,,2021-01-05 02:31:08.800,2020-10-17 00:00:00.000,0.76913876,1.56124315,2.36436435,329,669,1013,181,361,575,0.42213361,0.84380472,1.34281828,0.29324508,0.41559700,0.54438800
0,0,NetherlandsSintMaarten,Sint Maarten,,2021-01-05 02:31:08.800,2020-10-18 00:00:00.000,0.78616294,1.57859970,2.39505003,337,676,1027,184,366,577,0.42915096,0.85486457,1.34640925,0.30562273,0.41852324,0.54758448
0,0,NetherlandsSintMaarten,Sint Maarten,,2021-01-05 02:31:08.800,2020-10-19 00:00:00.000,0.81133175,1.61563895,2.41339477,347,692,1034,185,376,576,0.43275058,0.87788853,1.34510378,0.31346503,0.42049805,0.55499493
0,0,NetherlandsSintMaarten,Sint Maarten,,2021-01-05 02:31:08.800,2020-10-20 00:00:00.000,0.83793127,1.63132929,2.42920956,359,699,1041,187,384,577,0.43718532,0.89593344,1.34648726,0.31417486,0.42655310,0.56635712
0,0,NetherlandsSintMaarten,Sint Maarten,,2021-01-05 02:31:08.800,2020-10-21 00:00:00.000,0.85201585,1.66460793,2.45511294,365,713,1052,189,386,578,0.44197001,0.90188002,1.34955053,0.31182751,0.43123753,0.57358508
0,0,NetherlandsSintMaarten,Sint Maarten,,2021-01-05 02:31:08.800,2020-10-22 00:00:00.000,0.86136300,1.66279578,2.47458874,369,713,1061,191,387,580,0.44690010,0.90434453,1.35351164,0.31475723,0.43916870,0.57737154
0,0,NetherlandsSintMaarten,Sint Maarten,,2021-01-05 02:31:08.800,2020-10-23 00:00:00.000,0.87083444,1.64546699,2.47906459,373,705,1063,193,385,582,0.45188209,0.89975795,1.35782584,0.30968541,0.44417903,0.58549981
0,0,NetherlandsSintMaarten,Sint Maarten,,2021-01-05 02:31:08.800,2020-10-24 00:00:00.000,0.88081378,1.64725437,2.47854043,377,706,1062,195,389,591,0.45690929,0.90806934,1.37920309,0.31509610,0.44512573,0.59918237
0,0,NetherlandsSintMaarten,Sint Maarten,,2021-01-05 02:31:08.800,2020-10-25 00:00:00.000,0.89746053,1.69635570,2.47518703,384,727,1061,198,394,604,0.46208550,0.91917808,1.41073902,0.31341233,0.44815587,0.60538991
0,0,NetherlandsSintMaarten,Sint Maarten,,2021-01-05 02:31:08.800,2020-10-26 00:00:00.000,0.92132922,1.72914919,2.46998244,395,741,1059,200,394,618,0.46770718,0.92081008,1.44330468,0.30961820,0.45171707,0.61297167
0,0,NetherlandsSintMaarten,Sint Maarten,,2021-01-05 02:31:08.800,2020-10-27 00:00:00.000,0.94596423,1.78342369,2.49435618,405,764,1069,201,403,632,0.47097059,0.94179987,1.47539269,0.30491194,0.46980768,0.62307224
0,0,NetherlandsSintMaarten,Sint Maarten,,2021-01-05 02:31:08.800,2020-10-28 00:00:00.000,0.96988010,1.81053135,2.53394272,415,776,1086,203,412,646,0.47512056,0.96146844,1.50720350,0.30592742,0.46992999,0.62686844
0,0,NetherlandsSintMaarten,Sint Maarten,,2021-01-05 02:31:08.800,2020-10-29 00:00:00.000,0.99073768,1.84714741,2.57744557,424,792,1105,208,422,652,0.48640472,0.98591369,1.52154168,0.31026836,0.47499048,0.62440039
0,0,NetherlandsSintMaarten,Sint Maarten,,2021-01-05 02:31:08.800,2020-10-30 00:00:00.000,1.00639959,1.86445282,2.65673043,431,799,1139,213,432,651,0.49770119,1.00902199,1.51876126,0.32375136,0.47681200,0.63400819
0,0,NetherlandsSintMaarten,Sint Maarten,,2021-01-05 02:31:08.800,2020-10-31 00:00:00.000,1.01770401,1.87719700,2.75396516,436,804,1180,218,436,651,0.50898960,1.01697864,1.51889418,0.32338161,0.47697305,0.63160983
0,0,NetherlandsSintMaarten,Sint Maarten,,2021-01-05 02:31:08.800,2020-11-01 00:00:00.000,1.02671309,1.92589004,2.78501462,440,825,1194,222,444,660,0.51996455,1.03725874,1.54064399,0.32221959,0.47448693,0.62879182
0,0,NetherlandsSintMaarten,Sint Maarten,,2021-01-05 02:31:08.800,2020-11-02 00:00:00.000,1.02812788,1.94039771,2.79906943,440,832,1200,227,455,675,0.52989942,1.06327007,1.57462169,0.32044806,0.46708964,0.61170945
0,0,NetherlandsSintMaarten,Sint Maarten,,2021-01-05 02:31:08.800,2020-11-03 00:00:00.000,1.02919969,1.95823174,2.81685707,441,839,1207,230,465,688,0.53838010,1.08568215,1.60650884,0.32081052,0.46442906,0.61761668
0,0,NetherlandsSintMaarten,Sint Maarten,,2021-01-05 02:31:08.800,2020-11-04 00:00:00.000,1.03020215,1.97964556,2.86566368,441,848,1228,234,472,702,0.54577868,1.10125920,1.63758122,0.32279325,0.45995015,0.60642531
0,0,NetherlandsSintMaarten,Sint Maarten,,2021-01-05 02:31:08.800,2020-11-05 00:00:00.000,1.03197333,2.00322623,2.91885677,442,859,1251,236,476,713,0.55256428,1.11205142,1.66464459,0.32687252,0.45922325,0.60064335
0,0,NetherlandsSintMaarten,Sint Maarten,,2021-01-05 02:31:08.800,2020-11-06 00:00:00.000,1.03529982,2.02324865,2.98276171,443,867,1279,239,484,714,0.55907371,1.13076835,1.66681806,0.33645588,0.44713003,0.59295931
0,0,NetherlandsSintMaarten,Sint Maarten,,2021-01-05 02:31:08.800,2020-11-07 00:00:00.000,1.04055687,2.04456773,3.03839932,446,876,1302,242,490,735,0.56551470,1.14420939,1.71518090,0.34012465,0.44558137,0.59452661
0,0,NetherlandsSintMaarten,Sint Maarten,,2021-01-05 02:31:08.800,2020-11-08 00:00:00.000,1.04752217,2.06546326,3.11598548,449,885,1336,245,491,751,0.57202061,1.14600020,1.75362909,0.34638386,0.45406364,0.61198821
0,0,NetherlandsSintMaarten,Sint Maarten,,2021-01-05 02:31:08.800,2020-11-09 00:00:00.000,1.05853158,2.07905125,3.21504254,453,891,1378,248,496,764,0.57871119,1.15809474,1.78363056,0.35353840,0.46193566,0.62141473
0,0,NetherlandsSintMaarten,Sint Maarten,,2021-01-05 02:31:08.800,2020-11-10 00:00:00.000,1.08228094,2.10172026,3.32783308,464,901,1427,251,498,772,0.58657926,1.16173104,1.80135254,0.36003181,0.46913546,0.62815763
0,0,NetherlandsSintMaarten,Sint Maarten,,2021-01-05 02:31:08.800,2020-11-11 00:00:00.000,1.10899465,2.16011054,3.43112462,475,926,1471,255,504,780,0.59565457,1.17618371,1.82097316,0.36299973,0.47174904,0.64239541
0,0,NetherlandsSintMaarten,Sint Maarten,,2021-01-05 02:31:08.800,2020-11-12 00:00:00.000,1.13831806,2.21669318,3.52746146,488,950,1512,260,515,796,0.60644712,1.20169728,1.85709493,0.35203758,0.47766506,0.67353910
0,0,NetherlandsSintMaarten,Sint Maarten,,2021-01-05 02:31:08.800,2020-11-13 00:00:00.000,1.16413054,2.26144445,3.60082079,499,969,1544,265,533,820,0.61995995,1.24422807,1.91315979,0.34446708,0.48673233,0.68533716
0,0,NetherlandsSintMaarten,Sint Maarten,,2021-01-05 02:31:08.800,2020-11-14 00:00:00.000,1.18128664,2.31176193,3.62787598,506,991,1555,272,544,856,0.63461510,1.26886851,1.99658960,0.34403056,0.49051924,0.70913671
0,0,NetherlandsSintMaarten,Sint Maarten,,2021-01-05 02:31:08.800,2020-11-15 00:00:00.000,1.22960704,2.36288499,3.65836164,527,1013,1568,275,551,878,0.64225573,1.28656912,2.04796483,0.34360861,0.50228849,0.72414733
0,0,NetherlandsSintMaarten,Sint Maarten,,2021-01-05 02:31:08.800,2020-11-16 00:00:00.000,1.26516482,2.44611843,3.70413834,542,1048,1588,279,559,896,0.65266483,1.30574680,2.09074599,0.37096472,0.51399622,0.75825213
0,0,NetherlandsSintMaarten,Sint Maarten,,2021-01-05 02:31:08.800,2020-11-17 00:00:00.000,1.29788081,2.53105431,3.77207014,556,1085,1617,285,568,912,0.66575145,1.32651230,2.12734988,0.37019402,0.52393467,0.77571385
0,0,NetherlandsSintMaarten,Sint Maarten,,2021-01-05 02:31:08.800,2020-11-18 00:00:00.000,1.33712461,2.57747319,3.86569617,573,1105,1657,290,578,926,0.67715555,1.34915731,2.15982098,0.36981255,0.52917058,0.77322663
0,0,NetherlandsSintMaarten,Sint Maarten,,2021-01-05 02:31:08.800,2020-11-19 00:00:00.000,1.39250931,2.61527105,3.97604882,597,1121,1705,296,594,938,0.69111061,1.38612058,2.18955213,0.36980053,0.52594054,0.76481605
0,0,NetherlandsSintMaarten,Sint Maarten,,2021-01-05 02:31:08.800,2020-11-20 00:00:00.000,1.45433569,2.65117548,4.09292131,623,1136,1755,303,610,968,0.70879678,1.42410366,2.25920704,0.37292965,0.53507902,0.77632384
0,0,NetherlandsSintMaarten,Sint Maarten,,2021-01-05 02:31:08.800,2020-11-21 00:00:00.000,1.52241865,2.71880021,4.21046204,652,1165,1805,312,622,1013,0.72866970,1.45146348,2.36430712,0.38357310,0.54959240,0.83428742
0,0,NetherlandsSintMaarten,Sint Maarten,,2021-01-05 02:31:08.800,2020-11-22 00:00:00.000,1.59593982,2.79156234,4.38191909,684,1197,1879,327,647,1060,0.76442870,1.50920486,2.47192849,0.38592476,0.56074296,0.85640047
0,0,NetherlandsSintMaarten,Sint Maarten,,2021-01-05 02:31:08.800,2020-11-23 00:00:00.000,1.67496702,2.89390515,4.53669563,718,1240,1945,347,666,1106,0.80945103,1.55501686,2.58033026,0.40510102,0.56431682,0.85949938
0,0,NetherlandsSintMaarten,Sint Maarten,,2021-01-05 02:31:08.800,2020-11-24 00:00:00.000,1.75774398,2.99908103,4.65457639,753,1286,1995,369,680,1150,0.86057402,1.58647913,2.68333150,0.41974447,0.56491566,0.85259355
0,0,NetherlandsSintMaarten,Sint Maarten,,2021-01-05 02:31:08.800,2020-11-25 00:00:00.000,1.84377001,3.11454471,4.74392778,790,1335,2034,392,696,1189,0.91546326,1.62372448,2.77320018,0.42119465,0.55736876,0.80220975
0,0,NetherlandsSintMaarten,Sint Maarten,,2021-01-05 02:31:08.800,2020-11-26 00:00:00.000,1.92172154,3.13805070,4.93893465,824,1345,2117,416,714,1219,0.97232206,1.66716229,2.84483942,0.40872674,0.56673962,0.76728588
0,0,NetherlandsSintMaarten,Sint Maarten,,2021-01-05 02:31:08.800,2020-11-27 00:00:00.000,2.00360210,3.20861335,5.10879916,859,1375,2190,436,726,1268,1.01794115,1.69360012,2.95756259,0.39705628,0.55715970,0.75972202
0,0,NetherlandsSintMaarten,Sint Maarten,,2021-01-05 02:31:08.800,2020-11-28 00:00:00.000,2.07795471,3.27916202,5.17125321,891,1406,2217,443,738,1313,1.03490680,1.72109641,3.06242866,0.39393678,0.55785074,0.75337168
0,0,NetherlandsSintMaarten,Sint Maarten,,2021-01-05 02:31:08.800,2020-11-29 00:00:00.000,2.12220780,3.34525892,5.21428000,910,1434,2235,446,752,1346,1.04049290,1.75566057,3.14085491,0.38861166,0.55870147,0.74612443
0,0,NetherlandsSintMaarten,Sint Maarten,,2021-01-05 02:31:08.800,2020-11-30 00:00:00.000,2.15394942,3.39317369,5.24268742,923,1455,2248,448,775,1369,1.04592583,1.80782894,3.19382429,0.38828285,0.55579893,0.74586654
0,0,NetherlandsSintMaarten,Sint Maarten,,2021-01-05 02:31:08.800,2020-12-01 00:00:00.000,2.17546450,3.46983704,5.26258523,932,1487,2256,451,789,1383,1.05276073,1.84209492,3.22700399,0.38501356,0.55519827,0.73377084
0,0,NetherlandsSintMaarten,Sint Maarten,,2021-01-05 02:31:08.800,2020-12-02 00:00:00.000,2.19483273,3.53475261,5.27486248,941,1515,2261,454,812,1394,1.06048999,1.89396523,3.25295880,0.39763592,0.54666865,0.72965676
0,0,NetherlandsSintMaarten,Sint Maarten,,2021-01-05 02:31:08.800,2020-12-03 00:00:00.000,2.20670565,3.64241742,5.31252942,946,1561,2278,458,834,1428,1.06912026,1.94694314,3.33208953,0.39317519,0.53704481,0.73340830
0,0,NetherlandsSintMaarten,Sint Maarten,,2021-01-05 02:31:08.800,2020-12-04 00:00:00.000,2.20225147,3.67859806,5.46579499,944,1577,2343,462,857,1440,1.07913680,1.99980157,3.36037164,0.38979634,0.53427593,0.71611404
0,0,NetherlandsSintMaarten,Sint Maarten,,2021-01-05 02:31:08.800,2020-12-05 00:00:00.000,2.19692080,3.70641047,5.61505491,942,1589,2407,468,877,1448,1.09152736,2.04610953,3.37748638,0.37483452,0.52577422,0.70252206
0,0,NetherlandsSintMaarten,Sint Maarten,,2021-01-05 02:31:08.800,2020-12-06 00:00:00.000,2.19104104,3.77972871,5.76041823,939,1620,2470,475,896,1447,1.10772007,2.08961000,3.37661503,0.36153205,0.51012058,0.70897439
0,0,NetherlandsSintMaarten,Sint Maarten,,2021-01-05 02:31:08.800,2020-12-07 00:00:00.000,2.18724950,3.83299716,5.80249259,937,1643,2488,484,903,1439,1.12920024,2.10661171,3.35715284,0.35790388,0.50317123,0.70009301
0,0,NetherlandsSintMaarten,Sint Maarten,,2021-01-05 02:31:08.800,2020-12-08 00:00:00.000,2.18543000,3.87457703,5.74626375,937,1661,2464,495,911,1428,1.15507151,2.12488809,3.33150321,0.34808743,0.49564246,0.69159292
0,0,NetherlandsSintMaarten,Sint Maarten,,2021-01-05 02:31:08.800,2020-12-09 00:00:00.000,2.18927240,3.90871199,5.67970020,938,1676,2435,508,920,1415,1.18574911,2.14705544,3.30114945,0.34450641,0.49251286,0.68677900
0,0,NetherlandsSintMaarten,Sint Maarten,,2021-01-05 02:31:08.800,2020-12-10 00:00:00.000,2.20489935,3.93308847,5.61730458,945,1686,2408,523,923,1417,1.22046862,2.15428160,3.30482591,0.33915656,0.48735064,0.71194386
0,0,NetherlandsSintMaarten,Sint Maarten,,2021-01-05 02:31:08.800,2020-12-11 00:00:00.000,2.22393942,3.97142449,5.58448026,953,1703,2394,539,940,1419,1.25800583,2.19223060,3.31000276,0.33356116,0.46998711,0.71388610
0,0,NetherlandsSintMaarten,Sint Maarten,,2021-01-05 02:31:08.800,2020-12-12 00:00:00.000,2.21295645,3.99444422,5.55211950,948,1712,2380,539,961,1409,1.25872536,2.24103395,3.28606992,0.32741245,0.46079159,0.69027091
0,0,NetherlandsSintMaarten,Sint Maarten,,2021-01-05 02:31:08.800,2020-12-13 00:00:00.000,2.19613443,3.98223116,5.51211859,941,1707,2363,530,978,1400,1.23768216,2.28070193,3.26695283,0.31912369,0.45226403,0.67168930
0,0,NetherlandsSintMaarten,Sint Maarten,,2021-01-05 02:31:08.800,2020-12-14 00:00:00.000,2.18344900,3.93280736,5.46222996,936,1686,2342,520,992,1385,1.21269042,2.31348229,3.23192369,0.31397089,0.44355391,0.67448008
0,0,NetherlandsSintMaarten,Sint Maarten,,2021-01-05 02:31:08.800,2020-12-15 00:00:00.000,2.16933590,3.88388481,5.54386977,930,1665,2377,508,997,1372,1.18498159,2.32709170,3.20018528,0.30848105,0.44035246,0.67512178
0,0,NetherlandsSintMaarten,Sint Maarten,,2021-01-05 02:31:08.800,2020-12-16 00:00:00.000,2.15424130,3.81854825,5.49407901,923,1637,2355,495,980,1357,1.15586229,2.28549786,3.16548256,0.30600864,0.44326354,0.62325449
0,0,NetherlandsSintMaarten,Sint Maarten,,2021-01-05 02:31:08.800,2020-12-17 00:00:00.000,2.13841813,3.74467039,5.44581402,916,1605,2335,482,973,1341,1.12613787,2.27043938,3.12876023,0.30462068,0.44508019,0.59581245
0,0,NetherlandsSintMaarten,Sint Maarten,,2021-01-05 02:31:08.800,2020-12-18 00:00:00.000,2.12195309,3.67961250,5.48117044,909,1577,2350,470,958,1342,1.09812210,2.23425834,3.13142936,0.30401718,0.43680149,0.59282348
0,0,NetherlandsSintMaarten,Sint Maarten,,2021-01-05 02:31:08.800,2020-12-19 00:00:00.000,2.10476825,3.63351661,5.39383604,902,1558,2312,461,941,1338,1.07733987,2.19498104,3.12106368,0.29795542,0.42229408,0.59031743
0,0,NetherlandsSintMaarten,Sint Maarten,,2021-01-05 02:31:08.800,2020-12-20 00:00:00.000,2.08644730,3.58602168,5.27621844,894,1537,2262,452,926,1323,1.05533725,2.16106636,3.08577552,0.28798481,0.42229389,0.57599395
0,0,NetherlandsSintMaarten,Sint Maarten,,2021-01-05 02:31:08.800,2020-12-21 00:00:00.000,2.06389287,3.54303144,5.15777977,885,1519,2211,442,917,1301,1.03200748,2.13988479,3.03511730,0.29142010,0.41402043,0.56763217
0,0,NetherlandsSintMaarten,Sint Maarten,,2021-01-05 02:31:08.800,2020-12-22 00:00:00.000,2.03020464,3.49865461,5.03546941,870,1500,2159,431,901,1276,1.00682207,2.10300853,2.97645038,0.28422892,0.41327483,0.56687621
0,0,NetherlandsSintMaarten,Sint Maarten,,2021-01-05 02:31:08.800,2020-12-23 00:00:00.000,1.97936565,3.42795599,4.91094157,848,1469,2105,420,879,1263,0.98026214,2.05043879,2.94622540,0.28130487,0.41370381,0.56633180
0,0,NetherlandsSintMaarten,Sint Maarten,,2021-01-05 02:31:08.800,2020-12-24 00:00:00.000,1.92830487,3.30962350,4.78460230,826,1419,2051,408,860,1251,0.95286776,2.00723896,2.91945923,0.26989902,0.41194936,0.56499681
0,0,NetherlandsSintMaarten,Sint Maarten,,2021-01-05 02:31:08.800,2020-12-25 00:00:00.000,1.87616859,3.24748311,4.65583615,804,1392,1996,396,842,1236,0.92541799,1.96511986,2.88236153,0.26512172,0.40616519,0.56099335
0,0,NetherlandsSintMaarten,Sint Maarten,,2021-01-05 02:31:08.800,2020-12-26 00:00:00.000,1.81381983,3.23806583,4.52273594,777,1388,1939,385,821,1219,0.89974423,1.91581990,2.84460823,0.25978883,0.40535367,0.54973679
0,0,NetherlandsSintMaarten,Sint Maarten,,2021-01-05 02:31:08.800,2020-12-27 00:00:00.000,1.74845994,3.18852566,4.38249917,749,1367,1879,376,803,1201,0.87770276,1.87431994,2.80164353,0.25962085,0.39843295,0.54412915
0,0,NetherlandsSintMaarten,Sint Maarten,,2021-01-05 02:31:08.800,2020-12-28 00:00:00.000,1.69082881,3.13089971,4.29542720,725,1342,1841,368,788,1181,0.85857266,1.83809745,2.75492979,0.25129889,0.39172872,0.56598273
0,0,NetherlandsSintMaarten,Sint Maarten,,2021-01-05 02:31:08.800,2020-12-29 00:00:00.000,1.61570529,3.04704065,4.27016880,692,1306,1831,361,768,1159,0.84265027,1.79258613,2.70289839,0.24991572,0.38654486,0.58463859
0,0,NetherlandsSintMaarten,Sint Maarten,,2021-01-05 02:31:08.800,2020-12-30 00:00:00.000,1.54002355,2.91900145,4.14838744,660,1251,1778,355,748,1135,0.82854469,1.74448584,2.64765991,0.24612679,0.38536566,0.59985491
0,0,NetherlandsSintMaarten,Sint Maarten,,2021-01-05 02:31:08.800,2020-12-31 00:00:00.000,1.50252121,2.85243318,4.09453695,644,1223,1755,349,733,1110,0.81560893,1.70961437,2.59063253,0.23828315,0.38115703,0.62200340
0,0,NetherlandsSintMaarten,Sint Maarten,,2021-01-05 02:31:08.800,2021-01-01 00:00:00.000,1.40917550,2.72763423,4.05658476,604,1169,1739,326,708,1086,0.76052443,1.65143933,2.53283744,0.23484327,0.37759382,0.65794659
0,0,NetherlandsSintMaarten,Sint Maarten,,2021-01-05 02:31:08.800,2021-01-02 00:00:00.000,1.32096272,2.60861972,4.01174471,566,1118,1720,301,692,1068,0.70379505,1.61579344,2.49247638,0.22484696,0.38047057,0.67848433
0,0,NetherlandsSintMaarten,Sint Maarten,,2021-01-05 02:31:08.800,2021-01-03 00:00:00.000,1.25436469,2.56341193,3.94987301,537,1099,1693,279,674,1041,0.65114254,1.57335576,2.42923273,0.21247274,0.38984504,0.68385511
0,0,NetherlandsSintMaarten,Sint Maarten,,2021-01-05 02:31:08.800,2021-01-04 00:00:00.000,1.17116681,2.53493546,3.86936750,502,1087,1659,260,653,1014,0.60740437,1.52333536,2.36554905,0.20532102,0.39270275,0.68516150
0,0,NetherlandsSintMaarten,Sint Maarten,,2021-01-05 02:31:08.800,2021-01-05 00:00:00.000,1.08845082,2.45310338,3.88618137,466,1051,1666,247,628,993,0.57644891,1.46531980,2.31658594,0.20142044,0.39286371,0.68548838
0,0,NetherlandsSintMaarten,Sint Maarten,,2021-01-05 02:31:08.800,2021-01-06 00:00:00.000,1.01747300,2.40106190,3.78672629,436,1029,1623,234,604,974,0.54708451,1.40993153,2.27353407,0.19937678,0.39347188,0.68559047
0,0,NetherlandsSintMaarten,Sint Maarten,,2021-01-05 02:31:08.800,2021-01-07 00:00:00.000,0.95685767,2.34342238,3.69367610,410,1004,1583,222,580,986,0.51964561,1.35487912,2.30028714,0.19832918,0.39622745,0.68563037
0,0,NetherlandsSintMaarten,Sint Maarten,,2021-01-05 02:31:08.800,2021-01-08 00:00:00.000,0.90406643,2.28145632,3.60106598,387,978,1544,211,570,965,0.49424128,1.33008953,2.25226953,0.19779819,0.39721509,0.68564745
0,0,NetherlandsSintMaarten,Sint Maarten,,2021-01-05 02:31:08.800,2021-01-09 00:00:00.000,0.85682075,2.20337115,3.60698465,367,944,1546,201,559,943,0.47079342,1.30408779,2.19909002,0.19753059,0.40105197,0.68565505
0,0,NetherlandsSintMaarten,Sint Maarten,,2021-01-05 02:31:08.800,2021-01-10 00:00:00.000,0.81356760,2.10709789,3.63619583,348,903,1559,192,540,919,0.44910860,1.26019437,2.14516331,0.19739612,0.40146208,0.68565849
0,0,NetherlandsSintMaarten,Sint Maarten,,2021-01-05 02:31:08.800,2021-01-11 00:00:00.000,0.77334078,2.03071890,3.66378881,331,870,1571,183,513,904,0.42895236,1.19778298,2.10942688,0.19732864,0.40156254,0.68566006
0,0,NetherlandsSintMaarten,Sint Maarten,,2021-01-05 02:31:08.800,2021-01-12 00:00:00.000,0.73554930,1.96630746,3.68969160,315,843,1582,175,497,905,0.41010022,1.15940282,2.11050996,0.19729481,0.40159638,0.68566078
0,0,NetherlandsSintMaarten,Sint Maarten,,2021-01-05 02:31:08.800,2021-01-13 00:00:00.000,0.67438633,1.90362209,3.71384078,289,816,1592,168,475,911,0.39236147,1.10799119,2.12673198,0.19727785,0.40160912,0.68566110
0,0,NetherlandsSintMaarten,Sint Maarten,,2021-01-05 02:31:08.800,2021-01-14 00:00:00.000,0.61475758,1.83923724,3.73617978,263,788,1602,161,454,918,0.37558445,1.05899926,2.14201398,0.19726935,0.40161405,0.68566125
0,0,NetherlandsSintMaarten,Sint Maarten,,2021-01-05 02:31:08.800,2021-01-15 00:00:00.000,0.56038141,1.75538145,3.75665776,240,752,1610,154,441,924,0.35965256,1.02874345,2.15630818,0.19726509,0.40161597,0.68566132
0,0,NetherlandsSintMaarten,Sint Maarten,,2021-01-05 02:31:08.800,2021-01-16 00:00:00.000,0.51080055,1.67529474,3.75581750,219,718,1610,141,423,917,0.33071844,0.98657837,2.14030455,0.19726296,0.40161673,0.68566135
0,0,NetherlandsSintMaarten,Sint Maarten,,2021-01-05 02:31:08.800,2021-01-17 00:00:00.000,0.46559591,1.59857897,3.70469101,199,685,1588,129,403,906,0.30144797,0.94151905,2.11411080,0.19726189,0.40161702,0.68566137
0,0,NetherlandsSintMaarten,Sint Maarten,,2021-01-05 02:31:08.800,2021-01-18 00:00:00.000,0.42438401,1.54177928,3.66934200,181,661,1573,117,385,894,0.27475984,0.89837496,2.08671199,0.19726135,0.40161713,0.68566137
