FIPS,HR_UID,nameid,province,region,analysisTime,dates,pointprevalence_025,pointprevalence_50,pointprevalence_975,pointinfections_025,pointinfections_50,pointinfections_975,pointinfectious_025,pointinfectious_50,pointinfectious_975,pointinfectiousprevalence_05,pointinfectiousprevalence_50,pointinfectiousprevalence_95,infectrate_025,infectrate_50,infectrate_975
19197,0,USIowaWright,Iowa,Wright,2021-01-05 22:05:53.226749,2020-03-09 00:00:00.000000,0.00173038,0.00831941,0.03230824,0,1,4,0,0,2,0.00069805,0.00463017,0.01884728,0.43553678,0.55662441,0.78627308
19197,0,USIowaWright,Iowa,Wright,2021-01-05 22:05:53.226749,2020-03-10 00:00:00.000000,0.00194647,0.00919303,0.03499338,0,1,4,0,0,2,0.00075678,0.00459094,0.01801451,0.43553677,0.55661627,0.78627307
19197,0,USIowaWright,Iowa,Wright,2021-01-05 22:05:53.226749,2020-03-11 00:00:00.000000,0.00217059,0.01014324,0.03793123,0,1,4,0,0,2,0.00083872,0.00466583,0.01786030,0.43553672,0.55659242,0.78627306
19197,0,USIowaWright,Iowa,Wright,2021-01-05 22:05:53.226749,2020-03-12 00:00:00.000000,0.00240804,0.01110812,0.04025727,0,1,5,0,0,2,0.00093660,0.00497212,0.01812093,0.43553655,0.55652262,0.78627301
19197,0,USIowaWright,Iowa,Wright,2021-01-05 22:05:53.226749,2020-03-13 00:00:00.000000,0.00266297,0.01210891,0.04463082,0,1,5,0,0,2,0.00104688,0.00529449,0.01924594,0.43553592,0.55631873,0.78627283
19197,0,USIowaWright,Iowa,Wright,2021-01-05 22:05:53.226749,2020-03-14 00:00:00.000000,0.00293886,0.01328980,0.04900946,0,1,6,0,0,2,0.00116857,0.00566755,0.02076720,0.43553355,0.55572712,0.78627216
19197,0,USIowaWright,Iowa,Wright,2021-01-05 22:05:53.226749,2020-03-15 00:00:00.000000,0.00323889,0.01458669,0.05427988,0,1,6,0,0,2,0.00130104,0.00618865,0.02247734,0.43552457,0.55404296,0.78626969
19197,0,USIowaWright,Iowa,Wright,2021-01-05 22:05:53.226749,2020-03-16 00:00:00.000000,0.00755822,0.02149517,0.06527130,0,2,8,0,0,3,0.00144478,0.00682035,0.02404585,0.43549056,0.55032962,0.78626047
19197,0,USIowaWright,Iowa,Wright,2021-01-05 22:05:53.226749,2020-03-17 00:00:00.000000,0.01052379,0.02784854,0.07770802,1,3,9,0,1,3,0.00266673,0.00835987,0.02730380,0.43536084,0.54816527,0.78622574
19197,0,USIowaWright,Iowa,Wright,2021-01-05 22:05:53.226749,2020-03-18 00:00:00.000000,0.01456583,0.03438034,0.09103823,1,4,11,0,1,3,0.00388768,0.01055016,0.03172602,0.41833790,0.53249904,0.75944110
19197,0,USIowaWright,Iowa,Wright,2021-01-05 22:05:53.226749,2020-03-19 00:00:00.000000,0.01959163,0.04168479,0.10545650,2,5,13,0,1,4,0.00521922,0.01323632,0.03777794,0.39866767,0.52719162,0.75938401
19197,0,USIowaWright,Iowa,Wright,2021-01-05 22:05:53.226749,2020-03-20 00:00:00.000000,0.02513900,0.05079367,0.11936942,3,6,14,0,2,5,0.00705758,0.01673917,0.04401255,0.38097102,0.51142057,0.75916422
19197,0,USIowaWright,Iowa,Wright,2021-01-05 22:05:53.226749,2020-03-21 00:00:00.000000,0.03070241,0.05924797,0.13186486,3,7,16,1,2,6,0.00959683,0.02047350,0.05096485,0.35755486,0.49424067,0.75831320
19197,0,USIowaWright,Iowa,Wright,2021-01-05 22:05:53.226749,2020-03-22 00:00:00.000000,0.03547060,0.06836656,0.14496932,4,8,18,1,3,7,0.01244899,0.02457958,0.05853627,0.32809045,0.47825801,0.75522339
19197,0,USIowaWright,Iowa,Wright,2021-01-05 22:05:53.226749,2020-03-23 00:00:00.000000,0.03758394,0.07220283,0.15273099,4,9,19,1,3,8,0.01485243,0.02847024,0.06643127,0.31950712,0.45693769,0.74262648
19197,0,USIowaWright,Iowa,Wright,2021-01-05 22:05:53.226749,2020-03-24 00:00:00.000000,0.03997195,0.07568219,0.16024964,5,9,20,2,4,9,0.01649982,0.03206686,0.07310391,0.31408500,0.44829518,0.72278176
19197,0,USIowaWright,Iowa,Wright,2021-01-05 22:05:53.226749,2020-03-25 00:00:00.000000,0.04249217,0.08014753,0.16637252,5,10,20,2,4,9,0.01764156,0.03518592,0.07787554,0.31264832,0.43088262,0.69532794
19197,0,USIowaWright,Iowa,Wright,2021-01-05 22:05:53.226749,2020-03-26 00:00:00.000000,0.04515474,0.08437096,0.17121602,5,10,21,2,4,10,0.01851467,0.03784913,0.08196760,0.30911014,0.43018485,0.65979629
19197,0,USIowaWright,Iowa,Wright,2021-01-05 22:05:53.226749,2020-03-27 00:00:00.000000,0.04700338,0.08921223,0.17541987,5,11,22,2,5,10,0.01923508,0.04071391,0.08538303,0.30419984,0.42073171,0.63225475
19197,0,USIowaWright,Iowa,Wright,2021-01-05 22:05:53.226749,2020-03-28 00:00:00.000000,0.04834744,0.09429661,0.17930851,6,11,22,2,5,11,0.02027677,0.04315673,0.08976059,0.29878246,0.41525331,0.61853875
19197,0,USIowaWright,Iowa,Wright,2021-01-05 22:05:53.226749,2020-03-29 00:00:00.000000,0.04975798,0.09990493,0.18296251,6,12,22,2,5,11,0.02155841,0.04629748,0.09487343,0.29572371,0.40795702,0.61259249
19197,0,USIowaWright,Iowa,Wright,2021-01-05 22:05:53.226749,2020-03-30 00:00:00.000000,0.05121206,0.10581755,0.18689673,6,13,23,2,6,12,0.02283565,0.04902956,0.10006260,0.28996270,0.40038748,0.57660827
19197,0,USIowaWright,Iowa,Wright,2021-01-05 22:05:53.226749,2020-03-31 00:00:00.000000,0.05376617,0.11096756,0.19572647,6,13,24,3,6,13,0.02413782,0.05190113,0.10527315,0.27589883,0.39442744,0.56840952
19197,0,USIowaWright,Iowa,Wright,2021-01-05 22:05:53.226749,2020-04-01 00:00:00.000000,0.05660567,0.11548050,0.20674025,7,14,25,3,6,13,0.02547988,0.05487104,0.11123336,0.27331934,0.39312952,0.56404876
19197,0,USIowaWright,Iowa,Wright,2021-01-05 22:05:53.226749,2020-04-02 00:00:00.000000,0.05952541,0.12029682,0.22426226,7,15,28,3,7,14,0.02674361,0.05769188,0.11596073,0.27400650,0.38813306,0.57508214
19197,0,USIowaWright,Iowa,Wright,2021-01-05 22:05:53.226749,2020-04-03 00:00:00.000000,0.06254666,0.12426214,0.24306871,7,15,30,3,7,15,0.02735742,0.05978008,0.12133004,0.27548464,0.38158007,0.57873121
19197,0,USIowaWright,Iowa,Wright,2021-01-05 22:05:53.226749,2020-04-04 00:00:00.000000,0.06459151,0.12942173,0.25975043,8,16,32,3,7,15,0.02798290,0.06226477,0.12672131,0.27781839,0.38104987,0.56357547
19197,0,USIowaWright,Iowa,Wright,2021-01-05 22:05:53.226749,2020-04-05 00:00:00.000000,0.06638953,0.13527110,0.26491205,8,16,33,3,8,16,0.02863925,0.06497610,0.13073154,0.27436149,0.38046742,0.55134211
19197,0,USIowaWright,Iowa,Wright,2021-01-05 22:05:53.226749,2020-04-06 00:00:00.000000,0.07631315,0.15116998,0.29744247,9,18,37,3,8,16,0.02936487,0.06775836,0.13405211,0.26491240,0.37943852,0.54436473
19197,0,USIowaWright,Iowa,Wright,2021-01-05 22:05:53.226749,2020-04-07 00:00:00.000000,0.08697088,0.16613769,0.32394807,10,20,40,3,9,17,0.03061029,0.07218669,0.13925931,0.26066280,0.37987969,0.54110483
19197,0,USIowaWright,Iowa,Wright,2021-01-05 22:05:53.226749,2020-04-08 00:00:00.000000,0.09406853,0.18140138,0.34760826,11,22,43,4,9,18,0.03335945,0.07912647,0.14975019,0.25837590,0.38554410,0.53778610
19197,0,USIowaWright,Iowa,Wright,2021-01-05 22:05:53.226749,2020-04-09 00:00:00.000000,0.10156614,0.19748319,0.37387692,12,24,46,4,10,20,0.03890253,0.08554235,0.16180260,0.26710637,0.38173506,0.53072530
19197,0,USIowaWright,Iowa,Wright,2021-01-05 22:05:53.226749,2020-04-10 00:00:00.000000,0.10950629,0.21471381,0.39988764,13,26,50,5,11,22,0.04511509,0.09277137,0.18202102,0.27929877,0.37819853,0.52623233
19197,0,USIowaWright,Iowa,Wright,2021-01-05 22:05:53.226749,2020-04-11 00:00:00.000000,0.11825745,0.23422132,0.42587772,14,29,53,6,12,25,0.05179193,0.10204356,0.20222503,0.25526718,0.37488294,0.51912453
19197,0,USIowaWright,Iowa,Wright,2021-01-05 22:05:53.226749,2020-04-12 00:00:00.000000,0.13575351,0.25397809,0.45372212,17,31,56,7,14,27,0.05863136,0.11347119,0.21827531,0.26081973,0.37621646,0.52327284
19197,0,USIowaWright,Iowa,Wright,2021-01-05 22:05:53.226749,2020-04-13 00:00:00.000000,0.15719263,0.27759566,0.48835653,19,34,61,7,15,29,0.06182615,0.12201254,0.23475914,0.26359615,0.37563325,0.53688728
19197,0,USIowaWright,Iowa,Wright,2021-01-05 22:05:53.226749,2020-04-14 00:00:00.000000,0.17048436,0.30791701,0.52485089,21,38,65,8,16,31,0.06654532,0.12989265,0.25025654,0.26241922,0.37736182,0.54718927
19197,0,USIowaWright,Iowa,Wright,2021-01-05 22:05:53.226749,2020-04-15 00:00:00.000000,0.19498304,0.33656243,0.56364957,24,42,70,9,17,33,0.07232827,0.14083711,0.26525678,0.26875444,0.37906310,0.55393606
19197,0,USIowaWright,Iowa,Wright,2021-01-05 22:05:53.226749,2020-04-16 00:00:00.000000,0.21909170,0.36805823,0.61968391,27,46,77,10,19,35,0.08550434,0.15497306,0.28008653,0.27396693,0.38365418,0.55775821
19197,0,USIowaWright,Iowa,Wright,2021-01-05 22:05:53.226749,2020-04-17 00:00:00.000000,0.23444452,0.39728672,0.66724731,29,49,83,11,21,37,0.09281325,0.16754695,0.29497409,0.27547904,0.38991765,0.57417764
19197,0,USIowaWright,Iowa,Wright,2021-01-05 22:05:53.226749,2020-04-18 00:00:00.000000,0.25232130,0.43223510,0.74329015,31,54,93,12,22,40,0.09747585,0.18274686,0.32004439,0.27972195,0.40558258,0.59033488
19197,0,USIowaWright,Iowa,Wright,2021-01-05 22:05:53.226749,2020-04-19 00:00:00.000000,0.27193446,0.46506270,0.80669411,34,58,101,13,24,43,0.10936058,0.19492288,0.34924898,0.28796233,0.40744357,0.60382699
19197,0,USIowaWright,Iowa,Wright,2021-01-05 22:05:53.226749,2020-04-20 00:00:00.000000,0.29960824,0.49797134,0.85341781,37,62,107,14,26,46,0.11681210,0.21266304,0.37003214,0.28934095,0.42397436,0.60855225
19197,0,USIowaWright,Iowa,Wright,2021-01-05 22:05:53.226749,2020-04-21 00:00:00.000000,0.32911697,0.54314359,0.92594054,41,68,116,15,29,49,0.12543485,0.23346560,0.39198157,0.28275713,0.43343981,0.63057888
19197,0,USIowaWright,Iowa,Wright,2021-01-05 22:05:53.226749,2020-04-22 00:00:00.000000,0.35368020,0.59137677,1.02168286,44,74,128,17,31,52,0.13539682,0.25407874,0.42095069,0.28261238,0.44509894,0.63498653
19197,0,USIowaWright,Iowa,Wright,2021-01-05 22:05:53.226749,2020-04-23 00:00:00.000000,0.38166989,0.63517290,1.10605382,47,79,138,18,34,57,0.14664985,0.27230565,0.45491112,0.29070847,0.45429245,0.63252531
19197,0,USIowaWright,Iowa,Wright,2021-01-05 22:05:53.226749,2020-04-24 00:00:00.000000,0.40933838,0.68709110,1.19898398,51,86,150,20,37,62,0.15951929,0.29563087,0.49358279,0.30827057,0.46889947,0.62517474
19197,0,USIowaWright,Iowa,Wright,2021-01-05 22:05:53.226749,2020-04-25 00:00:00.000000,0.44192433,0.73431593,1.30092607,55,92,163,21,39,68,0.17424944,0.31829711,0.54448813,0.33107427,0.48348799,0.61162978
19197,0,USIowaWright,Iowa,Wright,2021-01-05 22:05:53.226749,2020-04-26 00:00:00.000000,0.47312522,0.80067547,1.41233530,59,100,177,23,43,75,0.19090544,0.34560749,0.60001955,0.32414660,0.49930972,0.63382701
19197,0,USIowaWright,Iowa,Wright,2021-01-05 22:05:53.226749,2020-04-27 00:00:00.000000,0.52318441,0.87679414,1.54204388,65,110,193,26,47,82,0.20953151,0.37655334,0.66071031,0.33135811,0.51753721,0.65055805
19197,0,USIowaWright,Iowa,Wright,2021-01-05 22:05:53.226749,2020-04-28 00:00:00.000000,0.57124552,0.97238185,1.68287145,71,122,211,28,51,90,0.22835217,0.41181676,0.72420263,0.33150640,0.52948245,0.66455229
19197,0,USIowaWright,Iowa,Wright,2021-01-05 22:05:53.226749,2020-04-29 00:00:00.000000,0.61803589,1.06408914,1.83641027,77,133,230,31,56,99,0.24841668,0.45134245,0.79154869,0.33167441,0.54045663,0.67321028
19197,0,USIowaWright,Iowa,Wright,2021-01-05 22:05:53.226749,2020-04-30 00:00:00.000000,0.67476477,1.16680624,1.96868752,84,146,247,33,60,108,0.26725790,0.48509340,0.86367341,0.33203182,0.54389796,0.68906423
19197,0,USIowaWright,Iowa,Wright,2021-01-05 22:05:53.226749,2020-05-01 00:00:00.000000,0.75297317,1.27970250,2.10254890,94,160,264,36,66,118,0.28713225,0.52994816,0.94175942,0.33311208,0.55799540,0.71864516
19197,0,USIowaWright,Iowa,Wright,2021-01-05 22:05:53.226749,2020-05-02 00:00:00.000000,0.82164077,1.40311398,2.24795935,103,176,282,39,74,128,0.31178963,0.59069074,1.02111253,0.33592984,0.57798774,0.77352056
19197,0,USIowaWright,Iowa,Wright,2021-01-05 22:05:53.226749,2020-05-03 00:00:00.000000,0.89735182,1.55026397,2.46900306,112,194,310,43,81,133,0.34270200,0.65113340,1.06217636,0.35657840,0.58518698,0.80938287
19197,0,USIowaWright,Iowa,Wright,2021-01-05 22:05:53.226749,2020-05-04 00:00:00.000000,1.00518959,1.72865736,2.72318459,126,217,342,48,89,145,0.38255733,0.71259673,1.16049436,0.37804133,0.58790621,0.82326042
19197,0,USIowaWright,Iowa,Wright,2021-01-05 22:05:53.226749,2020-05-05 00:00:00.000000,1.12735070,1.89728346,3.00051192,141,238,376,53,99,159,0.42645571,0.79078733,1.27217311,0.40260621,0.60048062,0.84102586
19197,0,USIowaWright,Iowa,Wright,2021-01-05 22:05:53.226749,2020-05-06 00:00:00.000000,1.29143739,2.07814804,3.30251318,162,261,414,60,109,175,0.48302383,0.87420843,1.39781612,0.40675190,0.61413462,0.87388566
19197,0,USIowaWright,Iowa,Wright,2021-01-05 22:05:53.226749,2020-05-07 00:00:00.000000,1.42127269,2.28449624,3.62983768,178,286,455,69,122,193,0.55197545,0.97452516,1.53754691,0.41111281,0.62772541,0.88888638
19197,0,USIowaWright,Iowa,Wright,2021-01-05 22:05:53.226749,2020-05-08 00:00:00.000000,1.56594448,2.51600861,3.96953857,196,316,498,77,136,210,0.61919029,1.08315719,1.67737582,0.42920700,0.63598346,0.89510395
19197,0,USIowaWright,Iowa,Wright,2021-01-05 22:05:53.226749,2020-05-09 00:00:00.000000,1.72866728,2.81020945,4.35112569,217,353,546,86,148,227,0.69117802,1.18405440,1.81418483,0.47540334,0.64341180,0.89560987
19197,0,USIowaWright,Iowa,Wright,2021-01-05 22:05:53.226749,2020-05-10 00:00:00.000000,1.91247430,3.12869248,4.73993471,240,393,595,98,164,246,0.78547444,1.30714265,1.96065187,0.48124593,0.65194307,0.89925049
19197,0,USIowaWright,Iowa,Wright,2021-01-05 22:05:53.226749,2020-05-11 00:00:00.000000,2.16431753,3.47853975,5.19549461,271,436,652,109,182,266,0.87145941,1.44946129,2.11784917,0.49000725,0.64744771,0.89998110
19197,0,USIowaWright,Iowa,Wright,2021-01-05 22:05:53.226749,2020-05-12 00:00:00.000000,2.44307815,3.80565813,5.75150143,306,478,722,120,202,289,0.96096325,1.61267981,2.30348123,0.45618470,0.64105002,0.90005558
19197,0,USIowaWright,Iowa,Wright,2021-01-05 22:05:53.226749,2020-05-13 00:00:00.000000,2.75455215,4.13589651,6.33372120,346,519,795,135,225,324,1.08058403,1.79887703,2.58670019,0.44680311,0.63437987,0.89990917
19197,0,USIowaWright,Iowa,Wright,2021-01-05 22:05:53.226749,2020-05-14 00:00:00.000000,3.05586227,4.52045524,6.90811743,383,567,867,152,248,356,1.21220770,1.97596494,2.83405185,0.42897285,0.62703877,0.88638886
19197,0,USIowaWright,Iowa,Wright,2021-01-05 22:05:53.226749,2020-05-15 00:00:00.000000,3.32932512,4.95084988,7.45977711,418,621,937,167,272,385,1.33177976,2.16753480,3.06522476,0.41856992,0.61280659,0.82450376
19197,0,USIowaWright,Iowa,Wright,2021-01-05 22:05:53.226749,2020-05-16 00:00:00.000000,3.62226518,5.31874858,7.95151004,455,668,998,183,297,414,1.45859426,2.36616126,3.30068032,0.39497102,0.58714351,0.75851200
19197,0,USIowaWright,Iowa,Wright,2021-01-05 22:05:53.226749,2020-05-17 00:00:00.000000,3.93414006,5.76464028,8.36331134,494,724,1050,199,324,444,1.59138968,2.58434724,3.53613735,0.36532798,0.56262919,0.71418456
19197,0,USIowaWright,Iowa,Wright,2021-01-05 22:05:53.226749,2020-05-18 00:00:00.000000,4.23106309,6.14978082,8.72445520,531,772,1095,216,351,473,1.72626344,2.80162826,3.77049028,0.35377410,0.51746764,0.69322543
19197,0,USIowaWright,Iowa,Wright,2021-01-05 22:05:53.226749,2020-05-19 00:00:00.000000,4.53036697,6.63513608,8.98529883,569,833,1128,232,382,501,1.85404414,3.04454720,3.99025026,0.33017059,0.46147661,0.67828372
19197,0,USIowaWright,Iowa,Wright,2021-01-05 22:05:53.226749,2020-05-20 00:00:00.000000,4.73287662,6.95098373,9.23062299,594,873,1159,245,408,523,1.95772800,3.25217473,4.16931168,0.31812208,0.42440779,0.62118230
19197,0,USIowaWright,Iowa,Wright,2021-01-05 22:05:53.226749,2020-05-21 00:00:00.000000,5.02051946,7.16690376,9.51511299,630,900,1195,255,426,558,2.03047857,3.39841805,4.44772245,0.26982596,0.38900754,0.57676236
19197,0,USIowaWright,Iowa,Wright,2021-01-05 22:05:53.226749,2020-05-22 00:00:00.000000,5.14161638,7.39664328,9.63608651,645,929,1210,267,444,590,2.13194117,3.54215573,4.70212715,0.25055649,0.36331860,0.53024297
19197,0,USIowaWright,Iowa,Wright,2021-01-05 22:05:53.226749,2020-05-23 00:00:00.000000,5.21916861,7.53745526,9.77493645,655,946,1227,286,467,614,2.27854170,3.72173273,4.89226938,0.23653980,0.33741809,0.49281313
19197,0,USIowaWright,Iowa,Wright,2021-01-05 22:05:53.226749,2020-05-24 00:00:00.000000,5.26020048,7.67630458,10.03378565,660,964,1260,304,485,636,2.42137800,3.86505765,5.06356244,0.22200597,0.30853139,0.46064109
19197,0,USIowaWright,Iowa,Wright,2021-01-05 22:05:53.226749,2020-05-25 00:00:00.000000,5.43348432,7.83348647,10.26539546,682,984,1289,321,501,653,2.55694576,3.98945526,5.20465718,0.21088604,0.29619184,0.43980952
19197,0,USIowaWright,Iowa,Wright,2021-01-05 22:05:53.226749,2020-05-26 00:00:00.000000,5.60626210,7.94777499,10.39309516,704,998,1305,337,521,669,2.68328813,4.15455928,5.32871591,0.20165977,0.28714565,0.41025357
19197,0,USIowaWright,Iowa,Wright,2021-01-05 22:05:53.226749,2020-05-27 00:00:00.000000,5.63215853,7.93297952,10.44573241,707,996,1312,352,527,680,2.80344636,4.19782571,5.41362085,0.19483153,0.27762619,0.37832003
19197,0,USIowaWright,Iowa,Wright,2021-01-05 22:05:53.226749,2020-05-28 00:00:00.000000,5.64636714,7.93716990,10.57396234,709,997,1328,354,533,693,2.82061595,4.24507726,5.51686585,0.19073677,0.26430675,0.37613979
19197,0,USIowaWright,Iowa,Wright,2021-01-05 22:05:53.226749,2020-05-29 00:00:00.000000,5.64758869,7.92605431,10.54569754,709,995,1324,354,534,705,2.82313247,4.25493680,5.61291695,0.18554821,0.25052757,0.36147949
19197,0,USIowaWright,Iowa,Wright,2021-01-05 22:05:53.226749,2020-05-30 00:00:00.000000,5.63297008,7.84485308,10.39480182,707,985,1305,354,533,711,2.81928875,4.25018366,5.66326269,0.16743354,0.24249011,0.34020419
19197,0,USIowaWright,Iowa,Wright,2021-01-05 22:05:53.226749,2020-05-31 00:00:00.000000,5.59844256,7.80820057,10.22012155,703,980,1283,352,534,712,2.80950333,4.25331884,5.67245714,0.16252634,0.22895699,0.33027341
19197,0,USIowaWright,Iowa,Wright,2021-01-05 22:05:53.226749,2020-06-01 00:00:00.000000,5.53419143,7.72612252,10.03962146,695,970,1261,350,536,709,2.79218816,4.26792854,5.64923459,0.15909739,0.22277790,0.31691937
19197,0,USIowaWright,Iowa,Wright,2021-01-05 22:05:53.226749,2020-06-02 00:00:00.000000,5.44212186,7.62670876,9.90248761,683,958,1243,347,535,703,2.76666851,4.26657152,5.60256950,0.15434403,0.21540278,0.30137624
19197,0,USIowaWright,Iowa,Wright,2021-01-05 22:05:53.226749,2020-06-03 00:00:00.000000,5.26895663,7.51292334,9.75638401,661,943,1225,343,534,705,2.73350088,4.25795607,5.61348142,0.15432465,0.20525036,0.29203218
19197,0,USIowaWright,Iowa,Wright,2021-01-05 22:05:53.226749,2020-06-04 00:00:00.000000,5.09826864,7.39042185,9.63576690,640,928,1210,341,529,714,2.71832251,4.21591176,5.69102492,0.14686631,0.19909080,0.27989001
19197,0,USIowaWright,Iowa,Wright,2021-01-05 22:05:53.226749,2020-06-05 00:00:00.000000,4.93353929,7.24812197,9.64084166,619,910,1211,339,524,713,2.70529694,4.17280639,5.68038130,0.13678696,0.19443613,0.27090508
19197,0,USIowaWright,Iowa,Wright,2021-01-05 22:05:53.226749,2020-06-06 00:00:00.000000,4.78090705,7.07199742,9.58730265,600,888,1204,331,512,703,2.64169394,4.08347428,5.60340951,0.13671440,0.18998887,0.27046340
19197,0,USIowaWright,Iowa,Wright,2021-01-05 22:05:53.226749,2020-06-07 00:00:00.000000,4.64178975,6.87886177,9.37111313,583,864,1177,323,500,692,2.57688406,3.98460470,5.51502605,0.13099161,0.18682308,0.26980862
19197,0,USIowaWright,Iowa,Wright,2021-01-05 22:05:53.226749,2020-06-08 00:00:00.000000,4.49326676,6.69045510,9.11736097,564,840,1145,315,489,679,2.51022980,3.89349182,5.40877797,0.13606826,0.18151540,0.26793641
19197,0,USIowaWright,Iowa,Wright,2021-01-05 22:05:53.226749,2020-06-09 00:00:00.000000,4.34646170,6.45756443,8.86437922,546,811,1113,307,476,663,2.45106631,3.79109809,5.28480457,0.13619432,0.17704714,0.25465063
19197,0,USIowaWright,Iowa,Wright,2021-01-05 22:05:53.226749,2020-06-10 00:00:00.000000,4.19227343,6.27800872,8.61197715,526,788,1081,300,462,646,2.39424327,3.67811443,5.14489787,0.12785892,0.17397247,0.25213857
19197,0,USIowaWright,Iowa,Wright,2021-01-05 22:05:53.226749,2020-06-11 00:00:00.000000,4.05175064,6.09273308,8.35746363,508,765,1049,291,452,627,2.32120636,3.60555641,4.99278643,0.11952867,0.16926916,0.24023045
19197,0,USIowaWright,Iowa,Wright,2021-01-05 22:05:53.226749,2020-06-12 00:00:00.000000,3.89131084,5.88605319,8.10661479,488,739,1018,281,441,616,2.24137453,3.51362807,4.90927712,0.11590191,0.16759227,0.23964615
19197,0,USIowaWright,Iowa,Wright,2021-01-05 22:05:53.226749,2020-06-13 00:00:00.000000,3.72715974,5.65950668,7.85901625,468,710,987,272,427,605,2.16866122,3.39973417,4.82023337,0.11355362,0.16164900,0.22515977
19197,0,USIowaWright,Iowa,Wright,2021-01-05 22:05:53.226749,2020-06-14 00:00:00.000000,3.57028145,5.44398883,7.61195640,448,683,956,264,411,593,2.10284658,3.27741207,4.72392124,0.11192185,0.15916303,0.22406647
19197,0,USIowaWright,Iowa,Wright,2021-01-05 22:05:53.226749,2020-06-15 00:00:00.000000,3.38868364,5.24305746,7.35644427,425,658,924,256,394,580,2.04262712,3.14054697,4.62223231,0.10329053,0.15525207,0.22293639
19197,0,USIowaWright,Iowa,Wright,2021-01-05 22:05:53.226749,2020-06-16 00:00:00.000000,3.21480344,5.05026198,7.08497482,403,634,890,246,381,566,1.96410916,3.03506084,4.51273697,0.10091907,0.15132525,0.22397549
19197,0,USIowaWright,Iowa,Wright,2021-01-05 22:05:53.226749,2020-06-17 00:00:00.000000,3.04813098,4.81145263,6.80041011,382,604,854,234,367,552,1.86993085,2.92452656,4.39859282,0.09723852,0.15176376,0.22369889
19197,0,USIowaWright,Iowa,Wright,2021-01-05 22:05:53.226749,2020-06-18 00:00:00.000000,2.89123611,4.62664102,6.53645159,363,581,821,223,352,537,1.77721432,2.80435319,4.28187070,0.09654761,0.15450796,0.21788567
19197,0,USIowaWright,Iowa,Wright,2021-01-05 22:05:53.226749,2020-06-19 00:00:00.000000,2.75509894,4.48034067,6.31251334,346,562,792,212,337,522,1.68780087,2.68810231,4.16329505,0.09607502,0.15466051,0.21696782
19197,0,USIowaWright,Iowa,Wright,2021-01-05 22:05:53.226749,2020-06-20 00:00:00.000000,2.64905686,4.33480950,6.07647022,332,544,763,201,326,507,1.60539798,2.59660477,4.04157472,0.09554416,0.15250322,0.21439489
19197,0,USIowaWright,Iowa,Wright,2021-01-05 22:05:53.226749,2020-06-21 00:00:00.000000,2.55655612,4.17881194,5.83560010,321,524,733,192,312,491,1.53441074,2.48432341,3.91436399,0.09146057,0.15202200,0.21340351
19197,0,USIowaWright,Iowa,Wright,2021-01-05 22:05:53.226749,2020-06-22 00:00:00.000000,2.50503574,4.00826539,5.64323124,314,503,708,185,303,475,1.47312943,2.41472506,3.78171622,0.08762725,0.15261242,0.21275146
19197,0,USIowaWright,Iowa,Wright,2021-01-05 22:05:53.226749,2020-06-23 00:00:00.000000,2.42625345,3.82098205,5.45692921,304,479,685,177,293,458,1.41099312,2.33345414,3.64841411,0.08709216,0.15192716,0.21528085
19197,0,USIowaWright,Iowa,Wright,2021-01-05 22:05:53.226749,2020-06-24 00:00:00.000000,2.32973652,3.67672619,5.27627179,292,461,662,169,281,441,1.34811830,2.24216092,3.51638270,0.08715082,0.15116336,0.21271701
19197,0,USIowaWright,Iowa,Wright,2021-01-05 22:05:53.226749,2020-06-25 00:00:00.000000,2.23933388,3.51106384,5.10080436,281,441,640,162,272,425,1.29043596,2.17201105,3.38737216,0.08212798,0.15146513,0.21413393
19197,0,USIowaWright,Iowa,Wright,2021-01-05 22:05:53.226749,2020-06-26 00:00:00.000000,2.15493612,3.34281578,4.91171839,270,419,617,155,261,409,1.23645062,2.08295789,3.26269283,0.07818038,0.15203797,0.22862440
19197,0,USIowaWright,Iowa,Wright,2021-01-05 22:05:53.226749,2020-06-27 00:00:00.000000,2.07790786,3.19095036,4.72433108,261,400,593,147,249,394,1.17751057,1.98371378,3.14309316,0.07857253,0.14941063,0.23717943
19197,0,USIowaWright,Iowa,Wright,2021-01-05 22:05:53.226749,2020-06-28 00:00:00.000000,2.01272617,3.03949604,4.54093192,252,381,570,141,237,380,1.12269094,1.89119775,3.02878850,0.08095460,0.15107108,0.24004089
19197,0,USIowaWright,Iowa,Wright,2021-01-05 22:05:53.226749,2020-06-29 00:00:00.000000,1.93929283,2.93370406,4.36311880,243,368,548,134,227,366,1.07140648,1.81014941,2.91964036,0.08498695,0.14883223,0.24084612
19197,0,USIowaWright,Iowa,Wright,2021-01-05 22:05:53.226749,2020-06-30 00:00:00.000000,1.87315111,2.81304870,4.19157695,235,353,526,128,218,353,1.02449308,1.73831326,2.81522413,0.08616913,0.15294108,0.23400953
19197,0,USIowaWright,Iowa,Wright,2021-01-05 22:05:53.226749,2020-07-01 00:00:00.000000,1.81062365,2.71655357,4.02644430,227,341,505,123,208,341,0.98114781,1.66290106,2.71526147,0.08712973,0.15408204,0.22675480
19197,0,USIowaWright,Iowa,Wright,2021-01-05 22:05:53.226749,2020-07-02 00:00:00.000000,1.75067706,2.63625125,3.91089358,219,331,491,118,199,329,0.94081120,1.58679684,2.61949039,0.09799964,0.16074344,0.22808342
19197,0,USIowaWright,Iowa,Wright,2021-01-05 22:05:53.226749,2020-07-03 00:00:00.000000,1.68193612,2.51540241,3.79634599,211,315,476,113,190,317,0.90309318,1.51385192,2.52768608,0.10292342,0.16515580,0.23500873
19197,0,USIowaWright,Iowa,Wright,2021-01-05 22:05:53.226749,2020-07-04 00:00:00.000000,1.60470576,2.41587286,3.65439763,201,303,459,109,182,306,0.86771514,1.45081046,2.43967236,0.10343753,0.16753813,0.24033423
19197,0,USIowaWright,Iowa,Wright,2021-01-05 22:05:53.226749,2020-07-05 00:00:00.000000,1.52283920,2.33889622,3.51804370,191,293,441,104,175,295,0.83459089,1.39441763,2.35535776,0.10358273,0.17100495,0.24051001
19197,0,USIowaWright,Iowa,Wright,2021-01-05 22:05:53.226749,2020-07-06 00:00:00.000000,1.43945698,2.25618818,3.39711624,180,283,426,100,167,285,0.80378275,1.33229111,2.27493137,0.10368585,0.17349432,0.24355306
19197,0,USIowaWright,Iowa,Wright,2021-01-05 22:05:53.226749,2020-07-07 00:00:00.000000,1.38727306,2.19097888,3.30074102,174,275,414,97,161,275,0.77337447,1.28245249,2.19596879,0.10192766,0.17165930,0.24803187
19197,0,USIowaWright,Iowa,Wright,2021-01-05 22:05:53.226749,2020-07-08 00:00:00.000000,1.34224429,2.13779426,3.20790618,168,268,402,93,157,266,0.74380725,1.25327831,2.12233910,0.10394184,0.17460061,0.25662913
19197,0,USIowaWright,Iowa,Wright,2021-01-05 22:05:53.226749,2020-07-09 00:00:00.000000,1.29813963,2.08919412,3.12090647,163,262,392,89,153,258,0.71534217,1.21805245,2.05716056,0.10436320,0.17585590,0.26475570
19197,0,USIowaWright,Iowa,Wright,2021-01-05 22:05:53.226749,2020-07-10 00:00:00.000000,1.25523194,2.04546521,3.04113475,157,256,382,86,148,251,0.68808683,1.18490784,2.00221263,0.10562894,0.18071754,0.26539045
19197,0,USIowaWright,Iowa,Wright,2021-01-05 22:05:53.226749,2020-07-11 00:00:00.000000,1.21348680,2.00501896,2.96831691,152,251,372,82,144,245,0.65612450,1.15415190,1.95368037,0.10888016,0.18388320,0.26819951
19197,0,USIowaWright,Iowa,Wright,2021-01-05 22:05:53.226749,2020-07-12 00:00:00.000000,1.17192239,1.97958994,2.90102024,147,248,364,78,141,236,0.62538128,1.12868249,1.88020698,0.11437686,0.18870086,0.27135457
19197,0,USIowaWright,Iowa,Wright,2021-01-05 22:05:53.226749,2020-07-13 00:00:00.000000,1.15586297,1.95325237,2.85256996,145,245,358,75,139,227,0.59816311,1.11183763,1.81063970,0.11815564,0.19034171,0.27263857
19197,0,USIowaWright,Iowa,Wright,2021-01-05 22:05:53.226749,2020-07-14 00:00:00.000000,1.12318449,1.90904159,2.81162623,141,239,353,71,137,219,0.57284016,1.09203632,1.74979024,0.11762054,0.19379816,0.28852216
19197,0,USIowaWright,Iowa,Wright,2021-01-05 22:05:53.226749,2020-07-15 00:00:00.000000,1.09828451,1.86566449,2.76872648,137,234,347,69,133,214,0.55429405,1.06621641,1.70735903,0.11887227,0.19445333,0.30237689
19197,0,USIowaWright,Iowa,Wright,2021-01-05 22:05:53.226749,2020-07-16 00:00:00.000000,1.08135443,1.82539368,2.72610149,135,229,342,69,129,209,0.55713030,1.03348850,1.66708490,0.12111140,0.19582293,0.31603040
19197,0,USIowaWright,Iowa,Wright,2021-01-05 22:05:53.226749,2020-07-17 00:00:00.000000,1.06942622,1.79054113,2.68481669,134,224,337,69,126,204,0.55595758,1.00326987,1.62865560,0.12199402,0.20027882,0.31748588
19197,0,USIowaWright,Iowa,Wright,2021-01-05 22:05:53.226749,2020-07-18 00:00:00.000000,1.04962128,1.75071129,2.65931639,131,219,334,68,123,199,0.54642197,0.97996859,1.59184114,0.12452682,0.20489325,0.33586585
19197,0,USIowaWright,Iowa,Wright,2021-01-05 22:05:53.226749,2020-07-19 00:00:00.000000,1.01470607,1.70620378,2.62286696,127,214,329,67,120,195,0.53811822,0.95677466,1.55648522,0.13404701,0.21311689,0.34803959
19197,0,USIowaWright,Iowa,Wright,2021-01-05 22:05:53.226749,2020-07-20 00:00:00.000000,1.00025901,1.69955895,2.55782513,125,213,321,66,117,191,0.53217453,0.93447422,1.52253283,0.13495377,0.21688536,0.36901799
19197,0,USIowaWright,Iowa,Wright,2021-01-05 22:05:53.226749,2020-07-21 00:00:00.000000,0.99134701,1.67210115,2.51023110,124,210,315,66,115,186,0.52947041,0.91723152,1.48760081,0.13968682,0.21728664,0.37655022
19197,0,USIowaWright,Iowa,Wright,2021-01-05 22:05:53.226749,2020-07-22 00:00:00.000000,0.98962304,1.66442705,2.46653570,124,209,309,66,113,182,0.52948575,0.90332069,1.45239935,0.13950850,0.22748655,0.37916249
19197,0,USIowaWright,Iowa,Wright,2021-01-05 22:05:53.226749,2020-07-23 00:00:00.000000,0.99523124,1.66238053,2.42508108,125,208,304,66,112,178,0.53111717,0.89254768,1.41736559,0.13960200,0.23037421,0.38168286
19197,0,USIowaWright,Iowa,Wright,2021-01-05 22:05:53.226749,2020-07-24 00:00:00.000000,1.00607529,1.65637626,2.40429102,126,208,302,67,110,173,0.53340149,0.88204752,1.38282695,0.14016422,0.23644101,0.39997710
19197,0,USIowaWright,Iowa,Wright,2021-01-05 22:05:53.226749,2020-07-25 00:00:00.000000,1.01856431,1.64804969,2.40706920,127,207,302,67,110,169,0.53618540,0.87924490,1.34912554,0.16049451,0.24780421,0.39917435
19197,0,USIowaWright,Iowa,Wright,2021-01-05 22:05:53.226749,2020-07-26 00:00:00.000000,1.03179082,1.65392888,2.42293595,129,207,304,67,110,165,0.53956234,0.88333036,1.31671084,0.15961864,0.25832220,0.40268674
19197,0,USIowaWright,Iowa,Wright,2021-01-05 22:05:53.226749,2020-07-27 00:00:00.000000,1.02912825,1.64874920,2.39061996,129,207,300,66,110,162,0.52951945,0.88208002,1.29071500,0.15532167,0.25847506,0.40447793
19197,0,USIowaWright,Iowa,Wright,2021-01-05 22:05:53.226749,2020-07-28 00:00:00.000000,1.02671673,1.65274722,2.35047950,128,207,295,66,111,159,0.52590946,0.88798923,1.27131744,0.16311670,0.26390182,0.40503371
19197,0,USIowaWright,Iowa,Wright,2021-01-05 22:05:53.226749,2020-07-29 00:00:00.000000,1.02417245,1.64775456,2.30870822,128,206,290,66,112,159,0.52673077,0.89605171,1.27079702,0.16742924,0.27515666,0.40534009
19197,0,USIowaWright,Iowa,Wright,2021-01-05 22:05:53.226749,2020-07-30 00:00:00.000000,1.02213917,1.63792246,2.26625762,128,205,284,66,112,160,0.52771236,0.89818053,1.27389176,0.16517137,0.27769163,0.40550774
19197,0,USIowaWright,Iowa,Wright,2021-01-05 22:05:53.226749,2020-07-31 00:00:00.000000,1.02147765,1.63519681,2.27361291,128,205,285,66,112,160,0.53301856,0.89594151,1.27799622,0.16895565,0.28193619,0.41092726
19197,0,USIowaWright,Iowa,Wright,2021-01-05 22:05:53.226749,2020-08-01 00:00:00.000000,1.02295415,1.64530440,2.30928555,128,206,290,67,112,161,0.53964744,0.89415031,1.28295441,0.17195926,0.27874371,0.41862412
19197,0,USIowaWright,Iowa,Wright,2021-01-05 22:05:53.226749,2020-08-02 00:00:00.000000,1.02649134,1.66077171,2.37089040,128,208,297,68,111,161,0.54712999,0.89109120,1.28872485,0.18313900,0.28231489,0.41993665
19197,0,USIowaWright,Iowa,Wright,2021-01-05 22:05:53.226749,2020-08-03 00:00:00.000000,1.04545401,1.68119343,2.39149353,131,211,300,69,112,162,0.55516582,0.89293718,1.29524731,0.18300952,0.28513430,0.42228405
19197,0,USIowaWright,Iowa,Wright,2021-01-05 22:05:53.226749,2020-08-04 00:00:00.000000,1.06509119,1.68878888,2.41105481,133,212,302,70,112,165,0.55998458,0.89424555,1.31578508,0.18195276,0.28645684,0.42256686
19197,0,USIowaWright,Iowa,Wright,2021-01-05 22:05:53.226749,2020-08-05 00:00:00.000000,1.08561780,1.71226124,2.42685805,136,215,304,70,113,168,0.56276202,0.90204968,1.34450108,0.18099421,0.28569730,0.41844392
19197,0,USIowaWright,Iowa,Wright,2021-01-05 22:05:53.226749,2020-08-06 00:00:00.000000,1.10711691,1.73977016,2.46038300,139,218,309,70,114,172,0.56425053,0.91088695,1.37398091,0.18042137,0.28790624,0.41531285
19197,0,USIowaWright,Iowa,Wright,2021-01-05 22:05:53.226749,2020-08-07 00:00:00.000000,1.12993538,1.75669948,2.48887871,141,220,312,70,114,173,0.56492823,0.90991852,1.38255383,0.18030654,0.28868585,0.41382423
19197,0,USIowaWright,Iowa,Wright,2021-01-05 22:05:53.226749,2020-08-08 00:00:00.000000,1.15483198,1.75551263,2.50458662,145,220,314,72,116,170,0.57393206,0.92406936,1.35626042,0.18089616,0.29099322,0.41323963
19197,0,USIowaWright,Iowa,Wright,2021-01-05 22:05:53.226749,2020-08-09 00:00:00.000000,1.18295739,1.75833897,2.51207774,148,220,315,73,117,167,0.58797984,0.93538668,1.33013598,0.18316977,0.29183683,0.41109612
19197,0,USIowaWright,Iowa,Wright,2021-01-05 22:05:53.226749,2020-08-10 00:00:00.000000,1.20420715,1.75977833,2.52118682,151,221,316,76,119,164,0.61006555,0.95144040,1.31128500,0.18879199,0.29330117,0.40622143
19197,0,USIowaWright,Iowa,Wright,2021-01-05 22:05:53.226749,2020-08-11 00:00:00.000000,1.22349046,1.75207448,2.52770662,153,220,317,78,120,165,0.62209166,0.95990338,1.31583095,0.19239727,0.29391692,0.41048227
19197,0,USIowaWright,Iowa,Wright,2021-01-05 22:05:53.226749,2020-08-12 00:00:00.000000,1.25144152,1.77887921,2.53259188,157,223,318,79,121,166,0.63479854,0.96593168,1.32182716,0.19241384,0.29149535,0.40878885
19197,0,USIowaWright,Iowa,Wright,2021-01-05 22:05:53.226749,2020-08-13 00:00:00.000000,1.27537172,1.79075601,2.53584493,160,224,318,81,121,166,0.65105702,0.96361288,1.32813346,0.19218028,0.28812471,0.40753315
19197,0,USIowaWright,Iowa,Wright,2021-01-05 22:05:53.226749,2020-08-14 00:00:00.000000,1.29986844,1.80949490,2.53636345,163,227,318,83,122,169,0.66387703,0.97588810,1.34890452,0.18852731,0.28380181,0.40615684
19197,0,USIowaWright,Iowa,Wright,2021-01-05 22:05:53.226749,2020-08-15 00:00:00.000000,1.31877963,1.80104053,2.53137188,165,226,317,83,122,172,0.66644269,0.97355363,1.37193792,0.18809286,0.28130935,0.40219804
19197,0,USIowaWright,Iowa,Wright,2021-01-05 22:05:53.226749,2020-08-16 00:00:00.000000,1.32394395,1.78327714,2.51857730,166,224,316,84,122,175,0.67224266,0.97909845,1.39448204,0.18360431,0.28691340,0.39295935
19197,0,USIowaWright,Iowa,Wright,2021-01-05 22:05:53.226749,2020-08-17 00:00:00.000000,1.32874561,1.78983331,2.51113712,166,224,315,85,122,177,0.68191252,0.97386837,1.41651474,0.16769262,0.29401235,0.38456532
19197,0,USIowaWright,Iowa,Wright,2021-01-05 22:05:53.226749,2020-08-18 00:00:00.000000,1.32876574,1.78438435,2.50092792,166,224,314,86,122,179,0.68852117,0.97238478,1.43125634,0.16502205,0.29413500,0.38448203
19197,0,USIowaWright,Iowa,Wright,2021-01-05 22:05:53.226749,2020-08-19 00:00:00.000000,1.32390482,1.83085622,2.52349411,166,229,317,86,122,183,0.69225682,0.97142484,1.45729933,0.16587511,0.29850299,0.38890195
19197,0,USIowaWright,Iowa,Wright,2021-01-05 22:05:53.226749,2020-08-20 00:00:00.000000,1.31598252,1.82011478,2.53616188,165,228,318,87,123,185,0.69334906,0.98008994,1.47810778,0.17431266,0.29994958,0.39024007
19197,0,USIowaWright,Iowa,Wright,2021-01-05 22:05:53.226749,2020-08-21 00:00:00.000000,1.34232226,1.83484063,2.57410385,168,230,323,86,123,187,0.69214570,0.98107465,1.49318207,0.18071297,0.29883321,0.39066956
19197,0,USIowaWright,Iowa,Wright,2021-01-05 22:05:53.226749,2020-08-22 00:00:00.000000,1.32996334,1.84307235,2.55999361,167,231,321,85,123,187,0.68377097,0.98571361,1.49115372,0.18307728,0.30605263,0.39296585
19197,0,USIowaWright,Iowa,Wright,2021-01-05 22:05:53.226749,2020-08-23 00:00:00.000000,1.28200484,1.85961172,2.51665773,161,233,316,84,125,187,0.67400475,0.99714369,1.49199181,0.18277833,0.30618069,0.39236710
19197,0,USIowaWright,Iowa,Wright,2021-01-05 22:05:53.226749,2020-08-24 00:00:00.000000,1.27783176,1.84826516,2.54353178,160,232,319,83,125,187,0.66396276,1.00075325,1.49522945,0.18899084,0.30749324,0.38984908
19197,0,USIowaWright,Iowa,Wright,2021-01-05 22:05:53.226749,2020-08-25 00:00:00.000000,1.27864079,1.84826955,2.56664837,160,232,322,82,125,188,0.66069317,1.00293909,1.49714320,0.18991011,0.30648957,0.38559785
19197,0,USIowaWright,Iowa,Wright,2021-01-05 22:05:53.226749,2020-08-26 00:00:00.000000,1.29131940,1.85654522,2.63575759,162,233,331,83,126,188,0.66758938,1.00715072,1.49806464,0.19222417,0.30716400,0.38509888
19197,0,USIowaWright,Iowa,Wright,2021-01-05 22:05:53.226749,2020-08-27 00:00:00.000000,1.30500950,1.85222383,2.69143466,163,232,338,83,125,188,0.66842066,1.00277636,1.49825690,0.19885821,0.30667324,0.38486344
19197,0,USIowaWright,Iowa,Wright,2021-01-05 22:05:53.226749,2020-08-28 00:00:00.000000,1.31095321,1.84409082,2.73373700,164,231,343,83,126,188,0.66482964,1.00336774,1.49765369,0.20150499,0.30824868,0.39212540
19197,0,USIowaWright,Iowa,Wright,2021-01-05 22:05:53.226749,2020-08-29 00:00:00.000000,1.30369345,1.86490154,2.76287751,163,234,347,83,126,186,0.66196636,1.01046339,1.48859554,0.19936677,0.30703408,0.38363911
19197,0,USIowaWright,Iowa,Wright,2021-01-05 22:05:53.226749,2020-08-30 00:00:00.000000,1.29301148,1.85587480,2.78791639,162,233,350,82,126,184,0.65965426,1.00668317,1.46848540,0.19838787,0.31117165,0.38262520
19197,0,USIowaWright,Iowa,Wright,2021-01-05 22:05:53.226749,2020-08-31 00:00:00.000000,1.28636372,1.86904142,2.80109094,161,234,351,83,126,184,0.66575714,1.00377163,1.46802680,0.19981980,0.30581115,0.39021041
19197,0,USIowaWright,Iowa,Wright,2021-01-05 22:05:53.226749,2020-09-01 00:00:00.000000,1.28048665,1.87336403,2.80823619,160,235,352,83,127,186,0.66191052,1.01557526,1.48145684,0.20143590,0.30190725,0.40423906
19197,0,USIowaWright,Iowa,Wright,2021-01-05 22:05:53.226749,2020-09-02 00:00:00.000000,1.27432780,1.87060643,2.81402310,160,234,353,82,127,187,0.65815299,1.01688788,1.49153225,0.20760666,0.30039989,0.40792876
19197,0,USIowaWright,Iowa,Wright,2021-01-05 22:05:53.226749,2020-09-03 00:00:00.000000,1.27020280,1.87815028,2.81865020,159,235,354,81,128,188,0.64921357,1.02615219,1.49659999,0.21321268,0.30737437,0.40830815
19197,0,USIowaWright,Iowa,Wright,2021-01-05 22:05:53.226749,2020-09-04 00:00:00.000000,1.26881939,1.88095484,2.82235368,159,236,354,80,129,189,0.63959973,1.02798772,1.50534576,0.21435645,0.31191003,0.41297990
19197,0,USIowaWright,Iowa,Wright,2021-01-05 22:05:53.226749,2020-09-05 00:00:00.000000,1.27028546,1.88306498,2.82436052,159,236,354,79,129,189,0.63448723,1.02930705,1.51008329,0.21780881,0.32745211,0.41561685
19197,0,USIowaWright,Iowa,Wright,2021-01-05 22:05:53.226749,2020-09-06 00:00:00.000000,1.27384339,1.88734108,2.80317972,160,237,352,79,129,190,0.62939212,1.03254876,1.51360531,0.22425931,0.33630453,0.43236526
19197,0,USIowaWright,Iowa,Wright,2021-01-05 22:05:53.226749,2020-09-07 00:00:00.000000,1.28180939,1.89801325,2.79039340,161,238,350,78,130,189,0.62416595,1.03774322,1.51216356,0.23280936,0.33985736,0.44529742
19197,0,USIowaWright,Iowa,Wright,2021-01-05 22:05:53.226749,2020-09-08 00:00:00.000000,1.29128503,1.93953059,2.81712732,162,243,353,77,130,189,0.62016429,1.04270634,1.50879614,0.23811006,0.34363201,0.45070894
19197,0,USIowaWright,Iowa,Wright,2021-01-05 22:05:53.226749,2020-09-09 00:00:00.000000,1.29443631,1.95038460,2.84389089,162,245,357,77,131,188,0.61655609,1.04555397,1.50413031,0.23780420,0.34966327,0.45287339
19197,0,USIowaWright,Iowa,Wright,2021-01-05 22:05:53.226749,2020-09-10 00:00:00.000000,1.29261618,1.96336904,2.85411832,162,246,358,77,133,189,0.61326108,1.06250575,1.50697682,0.23740265,0.35569047,0.45408843
19197,0,USIowaWright,Iowa,Wright,2021-01-05 22:05:53.226749,2020-09-11 00:00:00.000000,1.29974825,2.00692707,2.90215847,163,252,364,76,133,190,0.61091079,1.05919920,1.51853255,0.23680271,0.36352252,0.45479177
19197,0,USIowaWright,Iowa,Wright,2021-01-05 22:05:53.226749,2020-09-12 00:00:00.000000,1.31490026,2.03003206,2.94941598,165,255,370,76,134,192,0.61086485,1.07255727,1.52926032,0.23610841,0.37177726,0.47190256
19197,0,USIowaWright,Iowa,Wright,2021-01-05 22:05:53.226749,2020-09-13 00:00:00.000000,1.33365290,2.05957447,3.00420314,167,258,377,77,137,191,0.61377752,1.09737283,1.52054506,0.23569236,0.37666653,0.46513578
19197,0,USIowaWright,Iowa,Wright,2021-01-05 22:05:53.226749,2020-09-14 00:00:00.000000,1.35658425,2.08981913,3.06108885,170,262,384,77,139,189,0.61929136,1.11391943,1.50934056,0.23715317,0.37891267,0.49398608
19197,0,USIowaWright,Iowa,Wright,2021-01-05 22:05:53.226749,2020-09-15 00:00:00.000000,1.39350368,2.12609347,3.11756936,175,267,391,78,141,191,0.62703173,1.12420483,1.52752948,0.24246202,0.38024346,0.49740497
19197,0,USIowaWright,Iowa,Wright,2021-01-05 22:05:53.226749,2020-09-16 00:00:00.000000,1.42580155,2.17873221,3.16679103,179,273,397,80,142,194,0.63877372,1.13666885,1.55197598,0.25067163,0.38523442,0.52884237
19197,0,USIowaWright,Iowa,Wright,2021-01-05 22:05:53.226749,2020-09-17 00:00:00.000000,1.42871629,2.22054544,3.20550584,179,278,402,82,145,198,0.65582507,1.15953933,1.57653484,0.25662462,0.38706291,0.52906404
19197,0,USIowaWright,Iowa,Wright,2021-01-05 22:05:53.226749,2020-09-18 00:00:00.000000,1.43176970,2.26631289,3.23643291,179,284,406,85,149,199,0.67678656,1.19078117,1.59065766,0.26322034,0.39461416,0.51871474
19197,0,USIowaWright,Iowa,Wright,2021-01-05 22:05:53.226749,2020-09-19 00:00:00.000000,1.43629916,2.28921745,3.26338504,180,287,409,87,151,200,0.70033920,1.20562999,1.59910323,0.27040443,0.39383925,0.52789824
19197,0,USIowaWright,Iowa,Wright,2021-01-05 22:05:53.226749,2020-09-20 00:00:00.000000,1.44910325,2.34436302,3.28837909,182,294,413,91,154,202,0.72563209,1.22734057,1.60854461,0.27538887,0.39426103,0.53744016
19197,0,USIowaWright,Iowa,Wright,2021-01-05 22:05:53.226749,2020-09-21 00:00:00.000000,1.51761070,2.39045470,3.36937830,190,300,423,94,157,205,0.75214237,1.25505508,1.63596001,0.27858837,0.40556251,0.55331246
19197,0,USIowaWright,Iowa,Wright,2021-01-05 22:05:53.226749,2020-09-22 00:00:00.000000,1.59767165,2.43632954,3.49404831,200,306,438,96,161,210,0.76972021,1.28359515,1.67487641,0.28990197,0.40866791,0.57072686
19197,0,USIowaWright,Iowa,Wright,2021-01-05 22:05:53.226749,2020-09-23 00:00:00.000000,1.61601483,2.48681252,3.56076090,203,312,447,99,164,214,0.78882352,1.30966034,1.70658155,0.29304373,0.40888958,0.57582300
19197,0,USIowaWright,Iowa,Wright,2021-01-05 22:05:53.226749,2020-09-24 00:00:00.000000,1.63016716,2.54198549,3.62240682,204,319,455,100,168,218,0.80062219,1.34250303,1.73578819,0.29461758,0.41547639,0.57962263
19197,0,USIowaWright,Iowa,Wright,2021-01-05 22:05:53.226749,2020-09-25 00:00:00.000000,1.67774032,2.59142323,3.68534184,210,325,462,102,171,221,0.81244966,1.36338549,1.76324359,0.29649769,0.42235856,0.57774848
19197,0,USIowaWright,Iowa,Wright,2021-01-05 22:05:53.226749,2020-09-26 00:00:00.000000,1.73538410,2.64774953,3.75124827,217,332,471,103,173,226,0.82427107,1.38222919,1.80677969,0.31037585,0.42291284,0.57889731
19197,0,USIowaWright,Iowa,Wright,2021-01-05 22:05:53.226749,2020-09-27 00:00:00.000000,1.80163075,2.71080392,3.82333529,226,340,480,105,177,233,0.83602815,1.40943233,1.85685859,0.32203914,0.42360992,0.57559864
19197,0,USIowaWright,Iowa,Wright,2021-01-05 22:05:53.226749,2020-09-28 00:00:00.000000,1.86679292,2.76453478,3.96387211,234,347,497,106,179,239,0.84774236,1.42731655,1.90350253,0.31696630,0.42530958,0.57425615
19197,0,USIowaWright,Iowa,Wright,2021-01-05 22:05:53.226749,2020-09-29 00:00:00.000000,1.89665698,2.81248858,4.10967901,238,353,516,107,183,244,0.85547399,1.45725070,1.94270009,0.31744475,0.43362739,0.57228548
19197,0,USIowaWright,Iowa,Wright,2021-01-05 22:05:53.226749,2020-09-30 00:00:00.000000,1.91812768,2.87183288,4.25957494,240,360,535,108,186,248,0.86173360,1.48522828,1.97675030,0.32011377,0.44310679,0.56728024
19197,0,USIowaWright,Iowa,Wright,2021-01-05 22:05:53.226749,2020-10-01 00:00:00.000000,1.94942498,2.92831756,4.41246839,244,367,554,110,190,252,0.87614720,1.51548970,2.00742068,0.32448584,0.45568652,0.55452895
19197,0,USIowaWright,Iowa,Wright,2021-01-05 22:05:53.226749,2020-10-02 00:00:00.000000,1.98362218,2.99643145,4.56864938,249,376,573,114,193,255,0.90828307,1.53718513,2.03596031,0.33085532,0.46189566,0.56564715
19197,0,USIowaWright,Iowa,Wright,2021-01-05 22:05:53.226749,2020-10-03 00:00:00.000000,2.01972392,3.08051171,4.73006704,253,386,594,118,197,264,0.94229579,1.57143277,2.10412407,0.33947984,0.46718308,0.58728151
19197,0,USIowaWright,Iowa,Wright,2021-01-05 22:05:53.226749,2020-10-04 00:00:00.000000,2.05633124,3.17328682,4.90034583,258,398,615,122,200,274,0.97677083,1.59774729,2.18380197,0.34942524,0.47833553,0.60048077
19197,0,USIowaWright,Iowa,Wright,2021-01-05 22:05:53.226749,2020-10-05 00:00:00.000000,2.09668224,3.25850488,5.00785050,263,409,629,127,206,284,1.01296892,1.64147527,2.26818821,0.35290667,0.47912949,0.61658792
19197,0,USIowaWright,Iowa,Wright,2021-01-05 22:05:53.226749,2020-10-06 00:00:00.000000,2.13826739,3.35476442,5.09181141,268,421,639,131,212,295,1.04489261,1.68831863,2.35070282,0.35285056,0.49554362,0.63815583
19197,0,USIowaWright,Iowa,Wright,2021-01-05 22:05:53.226749,2020-10-07 00:00:00.000000,2.18259934,3.47380378,5.15709861,274,436,647,133,218,305,1.05991172,1.74006503,2.43142028,0.35320782,0.50090362,0.64263182
19197,0,USIowaWright,Iowa,Wright,2021-01-05 22:05:53.226749,2020-10-08 00:00:00.000000,2.23334314,3.56636360,5.22331687,280,448,656,134,223,312,1.06989618,1.78119749,2.48625424,0.35674702,0.50840954,0.64419986
19197,0,USIowaWright,Iowa,Wright,2021-01-05 22:05:53.226749,2020-10-09 00:00:00.000000,2.29289019,3.69327946,5.29346667,288,463,664,135,229,317,1.07765458,1.82531053,2.52944064,0.36820693,0.51714713,0.64534636
19197,0,USIowaWright,Iowa,Wright,2021-01-05 22:05:53.226749,2020-10-10 00:00:00.000000,2.36395387,3.82385197,5.37363389,296,480,675,139,236,327,1.10733351,1.87913971,2.60554701,0.35764887,0.52803224,0.68631387
19197,0,USIowaWright,Iowa,Wright,2021-01-05 22:05:53.226749,2020-10-11 00:00:00.000000,2.39327426,3.95295136,5.47531006,300,496,687,144,241,339,1.14646376,1.92009610,2.70031864,0.36591575,0.53802055,0.75184152
19197,0,USIowaWright,Iowa,Wright,2021-01-05 22:05:53.226749,2020-10-12 00:00:00.000000,2.48511784,4.10440199,5.73268489,312,515,720,150,248,350,1.19481255,1.97791248,2.78903371,0.37207327,0.54939894,0.81387161
19197,0,USIowaWright,Iowa,Wright,2021-01-05 22:05:53.226749,2020-10-13 00:00:00.000000,2.61498471,4.27426199,6.00878008,328,536,754,157,257,357,1.25078109,2.04962374,2.84850745,0.37651063,0.57145563,0.81383294
19197,0,USIowaWright,Iowa,Wright,2021-01-05 22:05:53.226749,2020-10-14 00:00:00.000000,2.75004379,4.41528402,6.29519116,345,554,790,164,266,365,1.31261170,2.12544604,2.90938439,0.38161141,0.59355358,0.81332993
19197,0,USIowaWright,Iowa,Wright,2021-01-05 22:05:53.226749,2020-10-15 00:00:00.000000,2.87789421,4.57129112,6.58488631,361,574,827,173,277,380,1.37915960,2.20682157,3.03200897,0.39043945,0.60001290,0.81212584
19197,0,USIowaWright,Iowa,Wright,2021-01-05 22:05:53.226749,2020-10-16 00:00:00.000000,2.99568599,4.75925959,6.87887732,376,597,864,182,288,396,1.44970773,2.29467406,3.15793187,0.40686823,0.62704012,0.87264455
19197,0,USIowaWright,Iowa,Wright,2021-01-05 22:05:53.226749,2020-10-17 00:00:00.000000,3.11767137,4.99796378,7.18189789,391,627,902,191,303,408,1.52442033,2.41261174,3.24885471,0.41178357,0.64937740,0.90798824
19197,0,USIowaWright,Iowa,Wright,2021-01-05 22:05:53.226749,2020-10-18 00:00:00.000000,3.24592326,5.24140915,7.49395067,407,658,941,200,314,420,1.59534542,2.50659769,3.34356192,0.45446743,0.67217922,0.96127098
19197,0,USIowaWright,Iowa,Wright,2021-01-05 22:05:53.226749,2020-10-19 00:00:00.000000,3.39590657,5.43639499,7.79718698,426,682,979,206,325,434,1.64667354,2.59314910,3.46181301,0.45715833,0.69302685,1.01492818
19197,0,USIowaWright,Iowa,Wright,2021-01-05 22:05:53.226749,2020-10-20 00:00:00.000000,3.56440669,5.65424798,8.10714029,447,710,1018,215,340,457,1.71581490,2.70718094,3.64536630,0.49926388,0.71283335,1.05369418
19197,0,USIowaWright,Iowa,Wright,2021-01-05 22:05:53.226749,2020-10-21 00:00:00.000000,3.75962360,5.96422362,8.42249107,472,749,1058,225,355,481,1.79831034,2.82959153,3.83038358,0.50115363,0.72927331,1.07301816
19197,0,USIowaWright,Iowa,Wright,2021-01-05 22:05:53.226749,2020-10-22 00:00:00.000000,3.98310899,6.32345806,8.75321397,500,794,1099,237,372,501,1.89091899,2.96389519,3.99283776,0.50332525,0.73487621,1.08083950
19197,0,USIowaWright,Iowa,Wright,2021-01-05 22:05:53.226749,2020-10-23 00:00:00.000000,4.23571528,6.73002821,9.25547717,532,845,1162,250,390,523,1.99148439,3.10810685,4.16929106,0.54209690,0.75737543,1.08859478
19197,0,USIowaWright,Iowa,Wright,2021-01-05 22:05:53.226749,2020-10-24 00:00:00.000000,4.52412132,7.06957310,9.76233621,568,888,1226,263,408,550,2.09898724,3.25459706,4.38532013,0.54848262,0.77044766,1.10763876
19197,0,USIowaWright,Iowa,Wright,2021-01-05 22:05:53.226749,2020-10-25 00:00:00.000000,4.84791216,7.43487218,10.25578070,608,933,1288,278,428,582,2.21399433,3.41275530,4.64067255,0.55330758,0.78707874,1.13809321
19197,0,USIowaWright,Iowa,Wright,2021-01-05 22:05:53.226749,2020-10-26 00:00:00.000000,5.20316501,7.83835534,10.71931009,653,984,1346,293,454,615,2.33958831,3.61899818,4.90237012,0.53378861,0.79765543,1.15711951
19197,0,USIowaWright,Iowa,Wright,2021-01-05 22:05:53.226749,2020-10-27 00:00:00.000000,5.59622564,8.20048634,11.18241658,702,1030,1404,310,480,644,2.47094016,3.82405173,5.13451096,0.53030624,0.80484428,1.16473660
19197,0,USIowaWright,Iowa,Wright,2021-01-05 22:05:53.226749,2020-10-28 00:00:00.000000,5.97854043,8.58272105,11.64987487,751,1078,1463,327,505,674,2.60979063,4.02124408,5.37044776,0.53374374,0.80352363,1.17200857
19197,0,USIowaWright,Iowa,Wright,2021-01-05 22:05:53.226749,2020-10-29 00:00:00.000000,6.27691695,9.04316726,12.12201115,788,1136,1522,346,526,704,2.75480730,4.18853037,5.60555539,0.53583436,0.80699681,1.18397115
19197,0,USIowaWright,Iowa,Wright,2021-01-05 22:05:53.226749,2020-10-30 00:00:00.000000,6.62603747,9.55592159,12.59826700,832,1200,1582,364,556,732,2.90502983,4.42795195,5.83444817,0.53730096,0.80234834,1.19605306
19197,0,USIowaWright,Iowa,Wright,2021-01-05 22:05:53.226749,2020-10-31 00:00:00.000000,7.00219567,10.04740545,13.07780051,879,1262,1642,383,585,760,3.05212124,4.66023264,6.05347578,0.55517226,0.79361694,1.20304061
19197,0,USIowaWright,Iowa,Wright,2021-01-05 22:05:53.226749,2020-11-01 00:00:00.000000,7.34479213,10.44089883,13.60468410,922,1311,1709,400,606,803,3.18897112,4.83148280,6.39447228,0.53864020,0.78253212,1.20702394
19197,0,USIowaWright,Iowa,Wright,2021-01-05 22:05:53.226749,2020-11-02 00:00:00.000000,7.62304705,10.87542353,14.10353026,957,1366,1771,416,635,846,3.31680884,5.06212397,6.73573816,0.52701010,0.77369170,1.21145446
19197,0,USIowaWright,Iowa,Wright,2021-01-05 22:05:53.226749,2020-11-03 00:00:00.000000,7.95571815,11.26702364,14.48859846,999,1415,1820,431,661,885,3.43614007,5.26583621,7.05132834,0.53276087,0.77205691,1.22037759
19197,0,USIowaWright,Iowa,Wright,2021-01-05 22:05:53.226749,2020-11-04 00:00:00.000000,8.26509888,11.63045403,14.93409525,1038,1461,1876,455,692,926,3.62215208,5.51254425,7.37913986,0.53474128,0.76029933,1.24272412
19197,0,USIowaWright,Iowa,Wright,2021-01-05 22:05:53.226749,2020-11-05 00:00:00.000000,8.55075851,12.07974651,15.37400087,1074,1517,1931,480,722,966,3.82256841,5.75532357,7.69099497,0.52618763,0.74899936,1.29897337
19197,0,USIowaWright,Iowa,Wright,2021-01-05 22:05:53.226749,2020-11-06 00:00:00.000000,8.83047552,12.36975033,15.79540399,1109,1553,1984,505,748,1010,4.02540458,5.95616136,8.04197911,0.54404028,0.73902819,1.41935018
19197,0,USIowaWright,Iowa,Wright,2021-01-05 22:05:53.226749,2020-11-07 00:00:00.000000,9.10303353,12.66918426,16.19461401,1143,1591,2034,531,773,1038,4.22895762,6.15409655,8.27062298,0.55378570,0.73479574,1.44625512
19197,0,USIowaWright,Iowa,Wright,2021-01-05 22:05:53.226749,2020-11-08 00:00:00.000000,9.36674653,12.88055192,16.41726607,1176,1618,2062,555,793,1069,4.42229605,6.31607044,8.51553939,0.54002331,0.73429282,1.46627450
19197,0,USIowaWright,Iowa,Wright,2021-01-05 22:05:53.226749,2020-11-09 00:00:00.000000,9.60747846,13.06784354,16.49782244,1206,1641,2072,573,812,1098,4.56907987,6.47015974,8.74630589,0.50473868,0.73353804,1.51190271
19197,0,USIowaWright,Iowa,Wright,2021-01-05 22:05:53.226749,2020-11-10 00:00:00.000000,9.83456632,13.21982819,16.54263403,1235,1660,2078,581,833,1124,4.62703048,6.63323938,8.94958268,0.46143178,0.73285268,1.61748144
19197,0,USIowaWright,Iowa,Wright,2021-01-05 22:05:53.226749,2020-11-11 00:00:00.000000,10.04296718,13.36890698,16.63496569,1261,1679,2089,587,853,1148,4.68023461,6.79578182,9.14086467,0.43975159,0.73226736,1.68776607
19197,0,USIowaWright,Iowa,Wright,2021-01-05 22:05:53.226749,2020-11-12 00:00:00.000000,10.22557916,13.53751467,16.95710670,1284,1700,2130,593,869,1175,4.72772437,6.92146370,9.35502780,0.45277855,0.72770178,1.71202397
19197,0,USIowaWright,Iowa,Wright,2021-01-05 22:05:53.226749,2020-11-13 00:00:00.000000,10.16804657,13.65649892,17.17345240,1277,1715,2157,599,881,1195,4.76863350,7.01329903,9.52014618,0.44873292,0.70645066,1.75472537
19197,0,USIowaWright,Iowa,Wright,2021-01-05 22:05:53.226749,2020-11-14 00:00:00.000000,10.14878588,13.66853079,17.10588161,1274,1717,2148,603,892,1206,4.80226848,7.10370452,9.60144702,0.44423797,0.69881974,1.82850164
19197,0,USIowaWright,Iowa,Wright,2021-01-05 22:05:53.226749,2020-11-15 00:00:00.000000,10.11360386,13.57373546,16.99440271,1270,1705,2134,607,900,1220,4.83427769,7.17229038,9.71654196,0.42603304,0.70313518,1.92513466
19197,0,USIowaWright,Iowa,Wright,2021-01-05 22:05:53.226749,2020-11-16 00:00:00.000000,9.95589107,13.49560863,16.85242116,1250,1695,2117,608,909,1239,4.84353921,7.23696454,9.86739421,0.41372519,0.70002067,1.93636603
19197,0,USIowaWright,Iowa,Wright,2021-01-05 22:05:53.226749,2020-11-17 00:00:00.000000,9.78419520,13.53200901,16.68338132,1229,1699,2095,609,912,1254,4.84924526,7.26501238,9.98519731,0.41187510,0.68774421,1.95988642
19197,0,USIowaWright,Iowa,Wright,2021-01-05 22:05:53.226749,2020-11-18 00:00:00.000000,9.62326411,13.55456184,16.48649962,1208,1702,2071,608,911,1260,4.84591103,7.25942136,10.03428482,0.41212499,0.68644089,1.97445570
19197,0,USIowaWright,Iowa,Wright,2021-01-05 22:05:53.226749,2020-11-19 00:00:00.000000,9.41432827,13.47486810,16.34815736,1182,1692,2053,606,915,1262,4.82888249,7.29088237,10.04921602,0.40338974,0.67848184,1.98106065
19197,0,USIowaWright,Iowa,Wright,2021-01-05 22:05:53.226749,2020-11-20 00:00:00.000000,9.23368979,13.25136830,16.22262666,1159,1664,2037,602,915,1259,4.79430360,7.28451927,10.02411722,0.39566221,0.67895986,1.98844915
19197,0,USIowaWright,Iowa,Wright,2021-01-05 22:05:53.226749,2020-11-21 00:00:00.000000,9.07183736,13.14897089,16.07426440,1139,1651,2019,589,903,1245,4.69626414,7.18993306,9.91711498,0.36972835,0.68261935,2.02058672
19197,0,USIowaWright,Iowa,Wright,2021-01-05 22:05:53.226749,2020-11-22 00:00:00.000000,8.75800335,12.94970132,15.90041249,1100,1626,1997,571,892,1230,4.54747757,7.10341090,9.79730475,0.33864370,0.68181571,2.01991857
19197,0,USIowaWright,Iowa,Wright,2021-01-05 22:05:53.226749,2020-11-23 00:00:00.000000,8.46032732,12.72650728,15.71067574,1062,1598,1973,550,891,1214,4.38281659,7.09991107,9.66592789,0.33207390,0.68108107,2.07066832
19197,0,USIowaWright,Iowa,Wright,2021-01-05 22:05:53.226749,2020-11-24 00:00:00.000000,8.21367129,12.45302712,15.38867857,1031,1564,1933,531,883,1196,4.22951041,7.03585336,9.52082838,0.33218973,0.68611393,2.22737257
19197,0,USIowaWright,Iowa,Wright,2021-01-05 22:05:53.226749,2020-11-25 00:00:00.000000,7.96830141,12.15006983,15.00600746,1000,1526,1885,522,872,1176,4.15784913,6.94637543,9.36400802,0.33227939,0.68651855,2.23905088
19197,0,USIowaWright,Iowa,Wright,2021-01-05 22:05:53.226749,2020-11-26 00:00:00.000000,7.72498191,11.85179013,14.60539881,970,1488,1834,513,860,1155,4.08654346,6.85095003,9.19682508,0.35090636,0.68759233,2.17657979
19197,0,USIowaWright,Iowa,Wright,2021-01-05 22:05:53.226749,2020-11-27 00:00:00.000000,7.42654901,11.56221745,14.18995368,932,1452,1782,504,846,1133,4.01619734,6.74254412,9.01992460,0.35383174,0.70243717,2.27698317
19197,0,USIowaWright,Iowa,Wright,2021-01-05 22:05:53.226749,2020-11-28 00:00:00.000000,7.09108029,11.37148143,13.76247468,890,1428,1728,496,827,1109,3.94924695,6.59096275,8.83228083,0.33301663,0.70993690,2.38130526
19197,0,USIowaWright,Iowa,Wright,2021-01-05 22:05:53.226749,2020-11-29 00:00:00.000000,6.76582433,11.08470513,13.44495510,849,1392,1688,488,816,1084,3.88917601,6.50150015,8.63071178,0.34215074,0.72152822,2.45964889
19197,0,USIowaWright,Iowa,Wright,2021-01-05 22:05:53.226749,2020-11-30 00:00:00.000000,6.47539171,10.66830818,13.13494491,813,1340,1650,474,800,1057,3.77791391,6.36934104,8.41510542,0.34910331,0.71541931,2.52414907
19197,0,USIowaWright,Iowa,Wright,2021-01-05 22:05:53.226749,2020-12-01 00:00:00.000000,6.19567741,10.40945581,12.80130906,778,1307,1608,460,779,1028,3.66858747,6.20559215,8.18634326,0.34896456,0.71395312,2.55779978
19197,0,USIowaWright,Iowa,Wright,2021-01-05 22:05:53.226749,2020-12-02 00:00:00.000000,5.92730772,10.11168257,12.44705102,744,1270,1563,447,756,1009,3.56137994,6.02596348,8.03789012,0.36292251,0.73383563,2.57146000
19197,0,USIowaWright,Iowa,Wright,2021-01-05 22:05:53.226749,2020-12-03 00:00:00.000000,5.73108869,9.76563049,12.07538311,719,1226,1516,434,733,988,3.45510381,5.84149775,7.87155956,0.35912538,0.72750551,2.43881603
19197,0,USIowaWright,Iowa,Wright,2021-01-05 22:05:53.226749,2020-12-04 00:00:00.000000,5.54442893,9.49154515,11.68940704,696,1192,1468,420,714,965,3.34956873,5.69026942,7.68898163,0.36052265,0.72802465,2.47045610
19197,0,USIowaWright,Iowa,Wright,2021-01-05 22:05:53.226749,2020-12-05 00:00:00.000000,5.36265957,9.14109247,11.29216502,673,1148,1418,407,692,941,3.24492038,5.51192939,7.49472138,0.37086759,0.72266992,2.54967975
19197,0,USIowaWright,Iowa,Wright,2021-01-05 22:05:53.226749,2020-12-06 00:00:00.000000,5.18582897,8.78839795,10.90851001,651,1103,1370,394,666,922,3.14226170,5.30184326,7.34271586,0.38464663,0.71672394,2.56613321
19197,0,USIowaWright,Iowa,Wright,2021-01-05 22:05:53.226749,2020-12-07 00:00:00.000000,4.98190702,8.48484924,10.65061331,625,1065,1337,381,644,890,3.04062643,5.12925114,7.08874134,0.36018668,0.72039129,2.52589396
19197,0,USIowaWright,Iowa,Wright,2021-01-05 22:05:53.226749,2020-12-08 00:00:00.000000,4.78732019,8.11809596,10.38792837,601,1019,1304,369,618,864,2.94026046,4.92550257,6.87969086,0.35995050,0.73327617,2.47756814
19197,0,USIowaWright,Iowa,Wright,2021-01-05 22:05:53.226749,2020-12-09 00:00:00.000000,4.59902111,7.77880513,10.12217301,577,977,1271,356,595,837,2.84091568,4.74179248,6.66953611,0.37090838,0.74481570,2.42031477
19197,0,USIowaWright,Iowa,Wright,2021-01-05 22:05:53.226749,2020-12-10 00:00:00.000000,4.48255621,7.46787083,9.85426128,563,938,1237,344,571,811,2.74238370,4.55239793,6.45878258,0.36641374,0.75621643,2.35631294
19197,0,USIowaWright,Iowa,Wright,2021-01-05 22:05:53.226749,2020-12-11 00:00:00.000000,4.43245824,7.15457312,9.58510551,556,898,1204,332,546,788,2.64445465,4.34931868,6.27716785,0.37611262,0.75261729,2.28966209
19197,0,USIowaWright,Iowa,Wright,2021-01-05 22:05:53.226749,2020-12-12 00:00:00.000000,4.37967558,6.85562757,9.31555198,550,861,1170,319,525,768,2.54698176,4.18030232,6.11794379,0.39442807,0.75526142,2.22349230
19197,0,USIowaWright,Iowa,Wright,2021-01-05 22:05:53.226749,2020-12-13 00:00:00.000000,4.32367032,6.57091095,9.04637070,543,825,1136,307,503,749,2.45000798,4.00789889,5.96637846,0.37518198,0.75407780,2.22165817
19197,0,USIowaWright,Iowa,Wright,2021-01-05 22:05:53.226749,2020-12-14 00:00:00.000000,4.09867072,6.30128725,8.77157974,514,791,1101,295,479,731,2.35381697,3.81658421,5.81935603,0.36121385,0.75492140,2.21832869
19197,0,USIowaWright,Iowa,Wright,2021-01-05 22:05:53.226749,2020-12-15 00:00:00.000000,3.87745957,5.99958236,8.46567368,487,753,1063,290,455,712,2.30898261,3.62483585,5.66970074,0.35822032,0.76349901,2.24560651
19197,0,USIowaWright,Iowa,Wright,2021-01-05 22:05:53.226749,2020-12-16 00:00:00.000000,3.79940301,5.74315957,8.11415026,477,721,1019,284,433,693,2.26544775,3.45002343,5.51770123,0.35777804,0.76904018,2.30035118
19197,0,USIowaWright,Iowa,Wright,2021-01-05 22:05:53.226749,2020-12-17 00:00:00.000000,3.63494100,5.55344846,7.87810058,456,697,989,278,414,668,2.21721101,3.30081573,5.31891882,0.35787380,0.76656357,2.38201517
19197,0,USIowaWright,Iowa,Wright,2021-01-05 22:05:53.226749,2020-12-18 00:00:00.000000,3.42465173,5.29890552,7.64675525,430,665,960,264,395,643,2.10573372,3.14908037,5.12049861,0.35828029,0.76395096,2.45626456
19197,0,USIowaWright,Iowa,Wright,2021-01-05 22:05:53.226749,2020-12-19 00:00:00.000000,3.22534292,5.05395483,7.42304403,405,634,932,250,376,621,1.99484961,3.00111274,4.94383164,0.35890558,0.75697445,2.50115144
19197,0,USIowaWright,Iowa,Wright,2021-01-05 22:05:53.226749,2020-12-20 00:00:00.000000,3.03222525,4.82092811,7.21072984,380,605,905,237,359,607,1.89149198,2.86119033,4.83242430,0.35854746,0.75286110,2.52496989
19197,0,USIowaWright,Iowa,Wright,2021-01-05 22:05:53.226749,2020-12-21 00:00:00.000000,2.85546429,4.61064484,6.93890226,358,579,871,225,342,583,1.79477449,2.72364234,4.64187131,0.35802883,0.77345040,2.53338229
19197,0,USIowaWright,Iowa,Wright,2021-01-05 22:05:53.226749,2020-12-22 00:00:00.000000,2.70376955,4.41382638,6.61371407,339,554,830,217,325,566,1.72814002,2.59040876,4.51052116,0.35598230,0.77921704,2.53653142
19197,0,USIowaWright,Iowa,Wright,2021-01-05 22:05:53.226749,2020-12-23 00:00:00.000000,2.53471567,4.21798167,6.29897628,318,529,791,209,310,550,1.66891246,2.47270878,4.38286221,0.35204832,0.78305313,2.53883119
19197,0,USIowaWright,Iowa,Wright,2021-01-05 22:05:53.226749,2020-12-24 00:00:00.000000,2.39600390,4.00676058,6.04280888,300,503,759,202,294,533,1.61357374,2.34779674,4.24374412,0.34708897,0.78125841,2.54237220
19197,0,USIowaWright,Iowa,Wright,2021-01-05 22:05:53.226749,2020-12-25 00:00:00.000000,2.26911529,3.82003870,5.88882997,285,479,739,193,283,512,1.53946329,2.25445051,4.07709250,0.34370058,0.79008850,2.54949023
19197,0,USIowaWright,Iowa,Wright,2021-01-05 22:05:53.226749,2020-12-26 00:00:00.000000,2.14852296,3.62023929,5.72498990,269,454,719,182,271,491,1.45507656,2.16233156,3.91211330,0.34975251,0.79340392,2.56335661
19197,0,USIowaWright,Iowa,Wright,2021-01-05 22:05:53.226749,2020-12-27 00:00:00.000000,2.03396019,3.43443708,5.52779894,255,431,694,172,261,471,1.37436114,2.07837433,3.75030462,0.35379235,0.77454506,2.58604587
19197,0,USIowaWright,Iowa,Wright,2021-01-05 22:05:53.226749,2020-12-28 00:00:00.000000,1.90628847,3.25310232,5.28594104,239,408,664,162,249,451,1.29529302,1.98465775,3.59286491,0.36768656,0.76234167,2.71884090
19197,0,USIowaWright,Iowa,Wright,2021-01-05 22:05:53.226749,2020-12-29 00:00:00.000000,1.78347957,3.10164549,5.04495101,224,389,633,153,236,431,1.22408722,1.88072223,3.43520762,0.36006213,0.76253489,2.77442284
19197,0,USIowaWright,Iowa,Wright,2021-01-05 22:05:53.226749,2020-12-30 00:00:00.000000,1.67182635,2.95358220,4.80857497,210,371,604,144,223,412,1.15200821,1.78170671,3.27982608,0.35564209,0.75785773,2.78414124
19197,0,USIowaWright,Iowa,Wright,2021-01-05 22:05:53.226749,2020-12-31 00:00:00.000000,1.56906478,2.79540702,4.57892526,197,351,575,136,210,392,1.08303817,1.67786516,3.12832940,0.37162941,0.75680068,2.77301703
19197,0,USIowaWright,Iowa,Wright,2021-01-05 22:05:53.226749,2021-01-01 00:00:00.000000,1.47208913,2.65313458,4.35732255,184,333,547,127,198,374,1.01731529,1.57910699,2.98160114,0.37406717,0.74583281,2.72091571
19197,0,USIowaWright,Iowa,Wright,2021-01-05 22:05:53.226749,2021-01-02 00:00:00.000000,1.38064722,2.51073485,4.14446329,173,315,520,119,188,359,0.95488519,1.49820865,2.86572983,0.37208065,0.75208581,2.64374237
19197,0,USIowaWright,Iowa,Wright,2021-01-05 22:05:53.226749,2021-01-03 00:00:00.000000,1.29441290,2.35270024,3.94077516,162,295,495,112,178,346,0.89573003,1.42179151,2.75677878,0.35494588,0.74564890,2.62189749
19197,0,USIowaWright,Iowa,Wright,2021-01-05 22:05:53.226749,2021-01-04 00:00:00.000000,1.21317262,2.21293548,3.74646593,152,277,470,105,168,333,0.83978887,1.34251530,2.65229045,0.33716452,0.74596669,2.60982863
19197,0,USIowaWright,Iowa,Wright,2021-01-05 22:05:53.226749,2021-01-05 00:00:00.000000,1.13670368,2.07037611,3.56144084,142,260,447,98,159,320,0.78697197,1.26651997,2.55147219,0.33686076,0.75072937,2.60664540
19197,0,USIowaWright,Iowa,Wright,2021-01-05 22:05:53.226749,2021-01-06 00:00:00.000000,1.06342177,1.96215155,3.38533600,133,246,425,92,150,308,0.73717089,1.19489227,2.45439322,0.33367800,0.75446075,2.60611952
19197,0,USIowaWright,Iowa,Wright,2021-01-05 22:05:53.226749,2021-01-07 00:00:00.000000,0.97159733,1.86256937,3.21765708,122,233,404,85,142,296,0.68354891,1.13480859,2.36070717,0.32365347,0.75735246,2.60603909
19197,0,USIowaWright,Iowa,Wright,2021-01-05 22:05:53.226749,2021-01-08 00:00:00.000000,0.90827387,1.76545706,3.05790949,114,221,384,79,135,285,0.62917556,1.07672446,2.27015320,0.31790547,0.76067859,2.60602989
19197,0,USIowaWright,Iowa,Wright,2021-01-05 22:05:53.226749,2021-01-09 00:00:00.000000,0.84895037,1.65950392,2.91392792,106,208,366,72,126,274,0.57943985,1.00882224,2.18253513,0.31512070,0.76065456,2.60603086
19197,0,USIowaWright,Iowa,Wright,2021-01-05 22:05:53.226749,2021-01-10 00:00:00.000000,0.79339383,1.56300290,2.82567288,99,196,354,67,119,263,0.53440874,0.95328377,2.09770473,0.31388184,0.76064248,2.65363567
19197,0,USIowaWright,Iowa,Wright,2021-01-05 22:05:53.226749,2021-01-11 00:00:00.000000,0.74138167,1.46685130,2.73927737,93,184,344,61,113,253,0.49283739,0.90117468,2.01554888,0.31335170,0.76063661,2.68237808
19197,0,USIowaWright,Iowa,Wright,2021-01-05 22:05:53.226749,2021-01-12 00:00:00.000000,0.68404837,1.38198165,2.65472345,85,173,333,57,106,243,0.45446602,0.85104276,1.93597967,0.31312862,0.76063381,2.69610566
19197,0,USIowaWright,Iowa,Wright,2021-01-05 22:05:53.226749,2021-01-13 00:00:00.000000,0.62611069,1.30388416,2.57200410,78,163,323,52,101,233,0.41905266,0.80841662,1.85695569,0.31303542,0.76063248,2.70250845
19197,0,USIowaWright,Iowa,Wright,2021-01-05 22:05:53.226749,2021-01-14 00:00:00.000000,0.56997085,1.23370722,2.49094445,71,154,312,48,96,221,0.38637290,0.76564483,1.76400772,0.31299659,0.76063186,2.70546182
19197,0,USIowaWright,Iowa,Wright,2021-01-05 22:05:53.226749,2021-01-15 00:00:00.000000,0.51879400,1.16732893,2.41168892,65,146,302,44,90,210,0.35621885,0.72162463,1.67540534,0.31298043,0.76063157,2.70681714
19197,0,USIowaWright,Iowa,Wright,2021-01-05 22:05:53.226749,2021-01-16 00:00:00.000000,0.47215699,1.09765423,2.33429284,59,137,293,41,84,203,0.32839814,0.67390962,1.61773277,0.31297372,0.76063143,2.70743765
19197,0,USIowaWright,Iowa,Wright,2021-01-05 22:05:53.226749,2021-01-17 00:00:00.000000,0.42966924,1.03198035,2.25875466,53,129,283,38,79,196,0.30281672,0.63205951,1.56685655,0.31297092,0.76063137,2.70772144
