FIPS,HR_UID,nameid,province,region,analysisTime,dates,pointprevalence_025,pointprevalence_50,pointprevalence_975,pointinfections_025,pointinfections_50,pointinfections_975,pointinfectious_025,pointinfectious_50,pointinfectious_975,pointinfectiousprevalence_05,pointinfectiousprevalence_50,pointinfectiousprevalence_95,infectrate_025,infectrate_50,infectrate_975
5053,0,USArkansasGrant,Arkansas,Grant,2021-01-06 04:26:26.875329,2020-03-09 00:00:00.000000,0.00342137,0.02068895,0.05617185,0,3,10,0,2,5,0.00169514,0.01191174,0.03153013,0.36891698,0.52992364,0.67338196
5053,0,USArkansasGrant,Arkansas,Grant,2021-01-06 04:26:26.875329,2020-03-10 00:00:00.000000,0.00381381,0.02295409,0.05924601,0,4,10,0,2,5,0.00184421,0.01169138,0.03008802,0.36902837,0.52984928,0.67338192
5053,0,USArkansasGrant,Arkansas,Grant,2021-01-06 04:26:26.875329,2020-03-11 00:00:00.000000,0.00424937,0.02466836,0.06469506,0,4,11,0,2,5,0.00202702,0.01219068,0.02999241,0.36921499,0.52969753,0.67338175
5053,0,USArkansasGrant,Arkansas,Grant,2021-01-06 04:26:26.875329,2020-03-12 00:00:00.000000,0.00473482,0.02672430,0.06994364,0,4,12,0,2,5,0.00224072,0.01319669,0.03069231,0.36952610,0.52938855,0.67338096
5053,0,USArkansasGrant,Arkansas,Grant,2021-01-06 04:26:26.875329,2020-03-13 00:00:00.000000,0.00527678,0.02885458,0.07438788,0,5,13,0,2,5,0.00248510,0.01422291,0.03192390,0.37004044,0.52876253,0.67337731
5053,0,USArkansasGrant,Arkansas,Grant,2021-01-06 04:26:26.875329,2020-03-14 00:00:00.000000,0.00588219,0.03202793,0.07896317,1,5,14,0,2,6,0.00276159,0.01495793,0.03384420,0.37087913,0.52750726,0.67336008
5053,0,USArkansasGrant,Arkansas,Grant,2021-01-06 04:26:26.875329,2020-03-15 00:00:00.000000,0.00655841,0.03394491,0.08364229,1,6,15,0,2,6,0.00307268,0.01578115,0.03619611,0.37221652,0.52533758,0.67327792
5053,0,USArkansasGrant,Arkansas,Grant,2021-01-06 04:26:26.875329,2020-03-16 00:00:00.000000,0.01279607,0.04527099,0.09987122,2,8,18,0,3,7,0.00340380,0.01692029,0.03869269,0.37427452,0.52078704,0.67288371
5053,0,USArkansasGrant,Arkansas,Grant,2021-01-06 04:26:26.875329,2020-03-17 00:00:00.000000,0.01851526,0.05663979,0.11109828,3,10,20,0,3,7,0.00486940,0.02058975,0.04205687,0.37684319,0.51199204,0.67044137
5053,0,USArkansasGrant,Arkansas,Grant,2021-01-06 04:26:26.875329,2020-03-18 00:00:00.000000,0.02367419,0.06469775,0.12221529,4,11,22,1,4,8,0.00746066,0.02465863,0.04695477,0.35446095,0.49759997,0.66176174
5053,0,USArkansasGrant,Arkansas,Grant,2021-01-06 04:26:26.875329,2020-03-19 00:00:00.000000,0.02865216,0.07732885,0.13816715,5,14,25,1,5,9,0.00981798,0.02938259,0.05300272,0.35114433,0.48633225,0.64587279
5053,0,USArkansasGrant,Arkansas,Grant,2021-01-06 04:26:26.875329,2020-03-20 00:00:00.000000,0.03541524,0.08773616,0.16245404,6,16,29,2,6,11,0.01216124,0.03401673,0.06131490,0.33657530,0.45543233,0.63761141
5053,0,USArkansasGrant,Arkansas,Grant,2021-01-06 04:26:26.875329,2020-03-21 00:00:00.000000,0.04243683,0.10020990,0.18436818,7,18,33,2,7,12,0.01557842,0.03894671,0.06891734,0.32861241,0.42863300,0.60297729
5053,0,USArkansasGrant,Arkansas,Grant,2021-01-06 04:26:26.875329,2020-03-22 00:00:00.000000,0.04660635,0.11083221,0.20116078,8,20,36,3,8,14,0.01844879,0.04552796,0.07921976,0.29731540,0.40008556,0.59764320
5053,0,USArkansasGrant,Arkansas,Grant,2021-01-06 04:26:26.875329,2020-03-23 00:00:00.000000,0.05965112,0.12257049,0.21767515,10,22,39,3,9,17,0.02040715,0.05151107,0.09443358,0.28473204,0.38448800,0.59127073
5053,0,USArkansasGrant,Arkansas,Grant,2021-01-06 04:26:26.875329,2020-03-24 00:00:00.000000,0.06559648,0.13228394,0.24205516,11,24,44,4,10,19,0.02476816,0.05763988,0.10537636,0.27439736,0.37105589,0.54440407
5053,0,USArkansasGrant,Arkansas,Grant,2021-01-06 04:26:26.875329,2020-03-25 00:00:00.000000,0.06861037,0.14702629,0.26687187,12,26,48,5,11,21,0.02829829,0.06441873,0.11596517,0.25989223,0.35806029,0.52769561
5053,0,USArkansasGrant,Arkansas,Grant,2021-01-06 04:26:26.875329,2020-03-26 00:00:00.000000,0.07266339,0.16479321,0.29043445,13,30,53,5,13,23,0.03150187,0.07133099,0.12656978,0.22957899,0.34456969,0.48891697
5053,0,USArkansasGrant,Arkansas,Grant,2021-01-06 04:26:26.875329,2020-03-27 00:00:00.000000,0.08365437,0.17267869,0.30526938,15,31,55,6,14,25,0.03489467,0.07843656,0.13728689,0.21422658,0.33457034,0.46010018
5053,0,USArkansasGrant,Arkansas,Grant,2021-01-06 04:26:26.875329,2020-03-28 00:00:00.000000,0.09464747,0.17966251,0.31745662,17,32,57,6,15,27,0.03830024,0.08490123,0.14813248,0.20493243,0.30909322,0.44978944
5053,0,USArkansasGrant,Arkansas,Grant,2021-01-06 04:26:26.875329,2020-03-29 00:00:00.000000,0.10289203,0.19393870,0.32735016,18,35,59,7,16,28,0.03995502,0.09062120,0.15698786,0.18783454,0.29241267,0.43184654
5053,0,USArkansasGrant,Arkansas,Grant,2021-01-06 04:26:26.875329,2020-03-30 00:00:00.000000,0.10764744,0.20350491,0.34214787,19,37,62,7,17,30,0.04150696,0.09713363,0.16434045,0.18677077,0.28220573,0.42761635
5053,0,USArkansasGrant,Arkansas,Grant,2021-01-06 04:26:26.875329,2020-03-31 00:00:00.000000,0.11219993,0.21518180,0.35661332,20,39,65,8,18,31,0.04537524,0.10297789,0.17189170,0.18611031,0.27435443,0.41547621
5053,0,USArkansasGrant,Arkansas,Grant,2021-01-06 04:26:26.875329,2020-04-01 00:00:00.000000,0.12195033,0.22525751,0.37103140,22,41,67,9,20,32,0.05076721,0.11058518,0.17711897,0.18194298,0.26316487,0.38637252
5053,0,USArkansasGrant,Arkansas,Grant,2021-01-06 04:26:26.875329,2020-04-02 00:00:00.000000,0.13560794,0.23618845,0.38534938,24,43,70,10,21,33,0.05502410,0.11822404,0.18400037,0.17651483,0.25807937,0.36412037
5053,0,USArkansasGrant,Arkansas,Grant,2021-01-06 04:26:26.875329,2020-04-03 00:00:00.000000,0.14208065,0.24666190,0.39940948,25,45,72,10,23,35,0.05858960,0.12599660,0.19181123,0.16214601,0.24944029,0.34404814
5053,0,USArkansasGrant,Arkansas,Grant,2021-01-06 04:26:26.875329,2020-04-04 00:00:00.000000,0.14815162,0.25688406,0.41049423,27,46,74,11,23,37,0.06417338,0.12836478,0.20305343,0.14662246,0.23780838,0.33165133
5053,0,USArkansasGrant,Arkansas,Grant,2021-01-06 04:26:26.875329,2020-04-05 00:00:00.000000,0.15099006,0.26699157,0.41523655,27,48,75,12,24,38,0.06934341,0.13316088,0.21112344,0.13528165,0.22564130,0.32541875
5053,0,USArkansasGrant,Arkansas,Grant,2021-01-06 04:26:26.875329,2020-04-06 00:00:00.000000,0.15397916,0.27639881,0.42815321,28,50,78,12,25,39,0.07084678,0.13935144,0.21877334,0.12352488,0.21597698,0.32343817
5053,0,USArkansasGrant,Arkansas,Grant,2021-01-06 04:26:26.875329,2020-04-07 00:00:00.000000,0.15648216,0.28429111,0.44072673,28,51,80,13,26,40,0.07431839,0.14520923,0.22439307,0.12095286,0.20416691,0.31899667
5053,0,USArkansasGrant,Arkansas,Grant,2021-01-06 04:26:26.875329,2020-04-08 00:00:00.000000,0.15892984,0.28742895,0.45363265,29,52,82,14,27,41,0.07784521,0.15013632,0.22837792,0.11995787,0.20134247,0.31293787
5053,0,USArkansasGrant,Arkansas,Grant,2021-01-06 04:26:26.875329,2020-04-09 00:00:00.000000,0.16158618,0.28467396,0.46641330,29,51,85,14,28,42,0.07783433,0.15373518,0.23101984,0.12683198,0.19850586,0.29615496
5053,0,USArkansasGrant,Arkansas,Grant,2021-01-06 04:26:26.875329,2020-04-10 00:00:00.000000,0.16430459,0.29265175,0.47859234,30,53,87,14,28,42,0.07829185,0.15805149,0.23254213,0.12398026,0.19146556,0.28432455
5053,0,USArkansasGrant,Arkansas,Grant,2021-01-06 04:26:26.875329,2020-04-11 00:00:00.000000,0.16470931,0.29617966,0.49010774,30,54,89,14,29,44,0.07916684,0.16017409,0.24208016,0.11979094,0.18446370,0.28388329
5053,0,USArkansasGrant,Arkansas,Grant,2021-01-06 04:26:26.875329,2020-04-12 00:00:00.000000,0.16919737,0.29581502,0.49995420,30,54,91,14,29,46,0.08042532,0.16205317,0.25324405,0.11220600,0.17986305,0.28340603
5053,0,USArkansasGrant,Arkansas,Grant,2021-01-06 04:26:26.875329,2020-04-13 00:00:00.000000,0.17379491,0.29778235,0.49450546,31,54,90,14,29,48,0.08190102,0.16310127,0.26327084,0.10697647,0.17739385,0.27507957
5053,0,USArkansasGrant,Arkansas,Grant,2021-01-06 04:26:26.875329,2020-04-14 00:00:00.000000,0.17723017,0.30154420,0.48603000,32,55,88,15,29,48,0.08385329,0.16335519,0.26390388,0.10473885,0.17233863,0.26355662
5053,0,USArkansasGrant,Arkansas,Grant,2021-01-06 04:26:26.875329,2020-04-15 00:00:00.000000,0.18065589,0.30582069,0.48916100,32,55,89,15,30,48,0.08740128,0.16495323,0.26415825,0.10354403,0.17002731,0.23774479
5053,0,USArkansasGrant,Arkansas,Grant,2021-01-06 04:26:26.875329,2020-04-16 00:00:00.000000,0.18406151,0.30632271,0.49382241,33,55,90,16,30,48,0.09019191,0.16571056,0.26392567,0.09930483,0.16959133,0.24184993
5053,0,USArkansasGrant,Arkansas,Grant,2021-01-06 04:26:26.875329,2020-04-17 00:00:00.000000,0.18753498,0.30403081,0.49214336,34,55,89,16,30,48,0.09226767,0.16907065,0.26737182,0.09989551,0.16532169,0.24328538
5053,0,USArkansasGrant,Arkansas,Grant,2021-01-06 04:26:26.875329,2020-04-18 00:00:00.000000,0.19105123,0.31211742,0.48887830,34,57,89,17,31,50,0.09426803,0.17045200,0.27463261,0.10240488,0.15948459,0.24228250
5053,0,USArkansasGrant,Arkansas,Grant,2021-01-06 04:26:26.875329,2020-04-19 00:00:00.000000,0.19100697,0.31071076,0.49634474,34,56,90,17,31,49,0.09703092,0.17050097,0.27091724,0.10309492,0.15659181,0.23905383
5053,0,USArkansasGrant,Arkansas,Grant,2021-01-06 04:26:26.875329,2020-04-20 00:00:00.000000,0.19963142,0.30908924,0.50773693,36,56,92,18,31,48,0.10019245,0.17031457,0.26576134,0.10302076,0.15387114,0.23842474
5053,0,USArkansasGrant,Arkansas,Grant,2021-01-06 04:26:26.875329,2020-04-21 00:00:00.000000,0.19730150,0.30527567,0.52212330,36,55,95,18,31,47,0.10237683,0.17373283,0.26143375,0.10298777,0.14892247,0.23773011
5053,0,USArkansasGrant,Arkansas,Grant,2021-01-06 04:26:26.875329,2020-04-22 00:00:00.000000,0.19527222,0.30861714,0.54781553,35,56,100,18,31,47,0.10395308,0.17514821,0.26102374,0.10297860,0.14816638,0.23091997
5053,0,USArkansasGrant,Arkansas,Grant,2021-01-06 04:26:26.875329,2020-04-23 00:00:00.000000,0.19385049,0.30667692,0.55848201,35,56,102,18,32,48,0.10181044,0.17628571,0.26418534,0.09364478,0.14889668,0.21870820
5053,0,USArkansasGrant,Arkansas,Grant,2021-01-06 04:26:26.875329,2020-04-24 00:00:00.000000,0.19363764,0.31012284,0.55965216,35,56,102,18,32,50,0.10159889,0.17634263,0.27552819,0.08707785,0.14878746,0.21944771
5053,0,USArkansasGrant,Arkansas,Grant,2021-01-06 04:26:26.875329,2020-04-25 00:00:00.000000,0.19058011,0.31082927,0.56010034,34,56,102,18,32,52,0.10118908,0.17657650,0.28819287,0.08275577,0.14816413,0.21898500
5053,0,USArkansasGrant,Arkansas,Grant,2021-01-06 04:26:26.875329,2020-04-26 00:00:00.000000,0.19105992,0.31060105,0.56390988,34,56,102,18,32,54,0.09921377,0.17643277,0.30084324,0.08148563,0.14615039,0.21732968
5053,0,USArkansasGrant,Arkansas,Grant,2021-01-06 04:26:26.875329,2020-04-27 00:00:00.000000,0.19750121,0.30379074,0.56291026,36,55,102,18,32,57,0.09972596,0.17567099,0.31336345,0.08112964,0.14557372,0.21107492
5053,0,USArkansasGrant,Arkansas,Grant,2021-01-06 04:26:26.875329,2020-04-28 00:00:00.000000,0.19767101,0.30332892,0.56144844,36,55,102,18,31,57,0.10188467,0.17427726,0.31480872,0.08115613,0.14444865,0.21293308
5053,0,USArkansasGrant,Arkansas,Grant,2021-01-06 04:26:26.875329,2020-04-29 00:00:00.000000,0.20089671,0.30320358,0.56115449,36,55,102,19,31,57,0.10407862,0.17338752,0.31564546,0.08150445,0.14505723,0.21692969
5053,0,USArkansasGrant,Arkansas,Grant,2021-01-06 04:26:26.875329,2020-04-30 00:00:00.000000,0.20409043,0.30641916,0.56079689,37,55,102,19,31,57,0.10497727,0.17309134,0.31625638,0.08235918,0.14241816,0.21628188
5053,0,USArkansasGrant,Arkansas,Grant,2021-01-06 04:26:26.875329,2020-05-01 00:00:00.000000,0.20658307,0.31561983,0.55979810,37,57,102,19,31,57,0.10534808,0.17175627,0.31663793,0.08274143,0.14142207,0.21372680
5053,0,USArkansasGrant,Arkansas,Grant,2021-01-06 04:26:26.875329,2020-05-02 00:00:00.000000,0.20169163,0.31295371,0.55409640,36,57,101,19,31,57,0.10541590,0.17130555,0.31255132,0.07821680,0.14240579,0.20331986
5053,0,USArkansasGrant,Arkansas,Grant,2021-01-06 04:26:26.875329,2020-05-03 00:00:00.000000,0.19708305,0.31874910,0.55581946,35,58,101,19,31,56,0.10529526,0.17182754,0.31192905,0.07660302,0.14011461,0.20243097
5053,0,USArkansasGrant,Arkansas,Grant,2021-01-06 04:26:26.875329,2020-05-04 00:00:00.000000,0.19936204,0.31796636,0.55856642,36,58,102,19,31,57,0.10506739,0.17220977,0.31657932,0.08022904,0.13907083,0.20251454
5053,0,USArkansasGrant,Arkansas,Grant,2021-01-06 04:26:26.875329,2020-05-05 00:00:00.000000,0.20056738,0.31604793,0.55609478,36,57,101,18,31,57,0.10339164,0.17359890,0.31638202,0.08331665,0.14013463,0.20231220
5053,0,USArkansasGrant,Arkansas,Grant,2021-01-06 04:26:26.875329,2020-05-06 00:00:00.000000,0.20051867,0.32173719,0.55300042,36,58,101,18,31,57,0.10089154,0.17511445,0.31605098,0.08369691,0.14228891,0.20211383
5053,0,USArkansasGrant,Arkansas,Grant,2021-01-06 04:26:26.875329,2020-05-07 00:00:00.000000,0.20035000,0.32065805,0.55130506,36,58,100,18,32,57,0.09913868,0.17691579,0.31556926,0.08412128,0.14482812,0.20225017
5053,0,USArkansasGrant,Arkansas,Grant,2021-01-06 04:26:26.875329,2020-05-08 00:00:00.000000,0.19523325,0.32654222,0.54893321,35,59,100,18,32,57,0.09918464,0.17984623,0.31491891,0.08540649,0.14576564,0.20225382
5053,0,USArkansasGrant,Arkansas,Grant,2021-01-06 04:26:26.875329,2020-05-09 00:00:00.000000,0.18926014,0.32544196,0.54538677,34,59,99,17,32,57,0.09717810,0.17631861,0.31403962,0.08898659,0.14876393,0.20033654
5053,0,USArkansasGrant,Arkansas,Grant,2021-01-06 04:26:26.875329,2020-05-10 00:00:00.000000,0.18773661,0.32355429,0.54063807,34,59,98,17,32,57,0.09510412,0.17628072,0.31280783,0.09622916,0.14993310,0.20413203
5053,0,USArkansasGrant,Arkansas,Grant,2021-01-06 04:26:26.875329,2020-05-11 00:00:00.000000,0.18424675,0.32357654,0.53339349,33,59,97,16,32,56,0.09300444,0.17576856,0.31113035,0.10062744,0.14959946,0.21072174
5053,0,USArkansasGrant,Arkansas,Grant,2021-01-06 04:26:26.875329,2020-05-12 00:00:00.000000,0.18339551,0.32089571,0.52685225,33,58,96,16,31,56,0.09108575,0.17485373,0.30878347,0.10309344,0.14978791,0.21820120
5053,0,USArkansasGrant,Arkansas,Grant,2021-01-06 04:26:26.875329,2020-05-13 00:00:00.000000,0.18373082,0.32229613,0.52100639,33,58,95,16,31,55,0.09127935,0.17463414,0.30592125,0.10245251,0.14916212,0.21156184
5053,0,USArkansasGrant,Arkansas,Grant,2021-01-06 04:26:26.875329,2020-05-14 00:00:00.000000,0.18438545,0.31755178,0.51700509,33,58,94,16,31,55,0.09155093,0.17448745,0.30446776,0.10024928,0.15021990,0.21116640
5053,0,USArkansasGrant,Arkansas,Grant,2021-01-06 04:26:26.875329,2020-05-15 00:00:00.000000,0.18537922,0.31255609,0.51940083,33,57,94,16,31,56,0.09137764,0.17151053,0.30923494,0.09319246,0.14865685,0.21033974
5053,0,USArkansasGrant,Arkansas,Grant,2021-01-06 04:26:26.875329,2020-05-16 00:00:00.000000,0.18693483,0.31886477,0.52812882,34,58,96,16,31,56,0.09149041,0.17207907,0.31154939,0.09128618,0.14717263,0.21689444
5053,0,USArkansasGrant,Arkansas,Grant,2021-01-06 04:26:26.875329,2020-05-17 00:00:00.000000,0.18562963,0.32394906,0.53428052,33,59,97,16,31,56,0.09188260,0.17482668,0.31051579,0.09142185,0.14647291,0.21737829
5053,0,USArkansasGrant,Arkansas,Grant,2021-01-06 04:26:26.875329,2020-05-18 00:00:00.000000,0.18014633,0.32420394,0.54647652,32,59,99,16,31,56,0.09262584,0.17501012,0.30974150,0.09093444,0.14995182,0.23163524
5053,0,USArkansasGrant,Arkansas,Grant,2021-01-06 04:26:26.875329,2020-05-19 00:00:00.000000,0.17686791,0.33202038,0.55818369,32,60,101,17,32,56,0.09539720,0.17753064,0.30875089,0.09172262,0.14979111,0.24265655
5053,0,USArkansasGrant,Arkansas,Grant,2021-01-06 04:26:26.875329,2020-05-20 00:00:00.000000,0.17017747,0.33286950,0.56762307,31,60,103,16,32,57,0.09265584,0.17713743,0.31277459,0.09327337,0.15360737,0.24598313
5053,0,USArkansasGrant,Arkansas,Grant,2021-01-06 04:26:26.875329,2020-05-21 00:00:00.000000,0.16962039,0.33158937,0.57574490,30,60,105,17,32,58,0.09664046,0.17729037,0.31863261,0.09468418,0.15646743,0.24650251
5053,0,USArkansasGrant,Arkansas,Grant,2021-01-06 04:26:26.875329,2020-05-22 00:00:00.000000,0.17133046,0.32910444,0.58358475,31,60,106,18,32,59,0.10134962,0.17670731,0.32448438,0.09689628,0.16075522,0.24690037
5053,0,USArkansasGrant,Arkansas,Grant,2021-01-06 04:26:26.875329,2020-05-23 00:00:00.000000,0.16905161,0.33186239,0.59488172,30,60,108,18,32,60,0.09861670,0.17589893,0.33045877,0.10436440,0.16483956,0.25415466
5053,0,USArkansasGrant,Arkansas,Grant,2021-01-06 04:26:26.875329,2020-05-24 00:00:00.000000,0.16708027,0.33636832,0.61254227,30,61,111,17,31,61,0.09568161,0.17488815,0.33664836,0.10969035,0.16567803,0.26327817
5053,0,USArkansasGrant,Arkansas,Grant,2021-01-06 04:26:26.875329,2020-05-25 00:00:00.000000,0.17275301,0.33839146,0.62387409,31,61,113,16,32,62,0.09293397,0.17577584,0.34301387,0.11000796,0.16708698,0.26370658
5053,0,USArkansasGrant,Arkansas,Grant,2021-01-06 04:26:26.875329,2020-05-26 00:00:00.000000,0.17704222,0.34217682,0.64017191,32,62,116,16,32,62,0.09101051,0.17989676,0.34416167,0.10976844,0.16837005,0.26318680
5053,0,USArkansasGrant,Arkansas,Grant,2021-01-06 04:26:26.875329,2020-05-27 00:00:00.000000,0.17796116,0.34956993,0.65438328,32,63,119,16,33,63,0.08964363,0.18340918,0.34548143,0.10889593,0.17149733,0.26300356
5053,0,USArkansasGrant,Arkansas,Grant,2021-01-06 04:26:26.875329,2020-05-28 00:00:00.000000,0.17928652,0.35095393,0.66704409,32,64,121,16,33,64,0.09005454,0.18588144,0.35266525,0.10925055,0.17518095,0.26729152
5053,0,USArkansasGrant,Arkansas,Grant,2021-01-06 04:26:26.875329,2020-05-29 00:00:00.000000,0.18082211,0.35508671,0.67478635,33,64,123,16,35,66,0.09286095,0.19227816,0.36499211,0.10877932,0.18459553,0.28059107
5053,0,USArkansasGrant,Arkansas,Grant,2021-01-06 04:26:26.875329,2020-05-30 00:00:00.000000,0.18243803,0.35655482,0.68634733,33,65,125,17,35,68,0.09575988,0.19389043,0.37766919,0.11837246,0.19364432,0.28660491
5053,0,USArkansasGrant,Arkansas,Grant,2021-01-06 04:26:26.875329,2020-05-31 00:00:00.000000,0.18408224,0.35971824,0.70268350,33,65,128,18,35,70,0.09870102,0.19413179,0.38605831,0.11695727,0.20116003,0.29081841
5053,0,USArkansasGrant,Arkansas,Grant,2021-01-06 04:26:26.875329,2020-06-01 00:00:00.000000,0.18572262,0.36823829,0.70849555,33,67,129,18,35,72,0.09890604,0.19457184,0.39525538,0.11658503,0.20763368,0.29368429
5053,0,USArkansasGrant,Arkansas,Grant,2021-01-06 04:26:26.875329,2020-06-02 00:00:00.000000,0.20743842,0.37788203,0.71986745,37,69,131,18,36,74,0.10113440,0.19744547,0.40603317,0.12368428,0.21006386,0.29552522
5053,0,USArkansasGrant,Arkansas,Grant,2021-01-06 04:26:26.875329,2020-06-03 00:00:00.000000,0.21536558,0.39059686,0.73371467,39,71,134,19,36,76,0.10721782,0.20094889,0.41813546,0.13040925,0.21303451,0.30200919
5053,0,USArkansasGrant,Arkansas,Grant,2021-01-06 04:26:26.875329,2020-06-04 00:00:00.000000,0.21120992,0.40074674,0.75001622,38,73,136,20,36,78,0.11001984,0.20124539,0.43133767,0.14144860,0.22132533,0.30345957
5053,0,USArkansasGrant,Arkansas,Grant,2021-01-06 04:26:26.875329,2020-06-05 00:00:00.000000,0.20715077,0.41635555,0.76885601,37,76,140,20,37,81,0.11122120,0.20441936,0.44566991,0.14272200,0.22306216,0.30393446
5053,0,USArkansasGrant,Arkansas,Grant,2021-01-06 04:26:26.875329,2020-06-06 00:00:00.000000,0.20325529,0.43420712,0.79016079,37,79,144,19,39,84,0.10925903,0.21469523,0.46076947,0.14742375,0.22308025,0.30938166
5053,0,USArkansasGrant,Arkansas,Grant,2021-01-06 04:26:26.875329,2020-06-07 00:00:00.000000,0.19973656,0.44535213,0.81440910,36,81,148,19,42,86,0.10729097,0.22998640,0.47111049,0.15589473,0.22752044,0.31563622
5053,0,USArkansasGrant,Arkansas,Grant,2021-01-06 04:26:26.875329,2020-06-08 00:00:00.000000,0.22381238,0.45987921,0.85428160,40,83,156,19,43,87,0.10712751,0.23815074,0.48112318,0.16404002,0.23405408,0.33169872
5053,0,USArkansasGrant,Arkansas,Grant,2021-01-06 04:26:26.875329,2020-06-09 00:00:00.000000,0.23723676,0.47707228,0.89664640,43,87,163,20,44,89,0.11213480,0.24241213,0.49117043,0.15890613,0.23966886,0.35316702
5053,0,USArkansasGrant,Arkansas,Grant,2021-01-06 04:26:26.875329,2020-06-10 00:00:00.000000,0.24375390,0.49181839,0.93258059,44,89,170,21,45,91,0.11983435,0.25085004,0.50126137,0.17020454,0.25074964,0.37169390
5053,0,USArkansasGrant,Arkansas,Grant,2021-01-06 04:26:26.875329,2020-06-11 00:00:00.000000,0.25104912,0.51387374,0.96864578,45,93,176,23,48,93,0.12945578,0.26394319,0.51145983,0.17387952,0.26286016,0.38414127
5053,0,USArkansasGrant,Arkansas,Grant,2021-01-06 04:26:26.875329,2020-06-12 00:00:00.000000,0.25862796,0.53909882,1.01326555,47,98,185,24,49,95,0.13578729,0.27074455,0.52175796,0.17726525,0.26592785,0.38926676
5053,0,USArkansasGrant,Arkansas,Grant,2021-01-06 04:26:26.875329,2020-06-13 00:00:00.000000,0.27178821,0.56034441,1.05875414,49,102,193,25,50,97,0.14112774,0.27471998,0.53223852,0.17952677,0.26904785,0.39174674
5053,0,USArkansasGrant,Arkansas,Grant,2021-01-06 04:26:26.875329,2020-06-14 00:00:00.000000,0.28580597,0.58406600,1.10343950,52,106,201,26,51,99,0.14728110,0.28059763,0.54313125,0.18131924,0.28217059,0.39292429
5053,0,USArkansasGrant,Arkansas,Grant,2021-01-06 04:26:26.875329,2020-06-15 00:00:00.000000,0.32210448,0.60166319,1.14223868,58,109,208,28,53,101,0.15413586,0.29030609,0.55458485,0.18500138,0.28528624,0.40344649
5053,0,USArkansasGrant,Arkansas,Grant,2021-01-06 04:26:26.875329,2020-06-16 00:00:00.000000,0.36474199,0.61968207,1.16982281,66,113,213,29,55,103,0.16118157,0.30375703,0.56795079,0.18715108,0.28989041,0.40386321
5053,0,USArkansasGrant,Arkansas,Grant,2021-01-06 04:26:26.875329,2020-06-17 00:00:00.000000,0.38287402,0.64899269,1.19769836,69,118,218,30,57,106,0.16621957,0.31518782,0.58294127,0.18956896,0.29840487,0.42881739
5053,0,USArkansasGrant,Arkansas,Grant,2021-01-06 04:26:26.875329,2020-06-18 00:00:00.000000,0.40304315,0.68262942,1.22590672,73,124,223,32,59,109,0.17600959,0.32604399,0.59933997,0.19488791,0.30922377,0.43172145
5053,0,USArkansasGrant,Arkansas,Grant,2021-01-06 04:26:26.875329,2020-06-19 00:00:00.000000,0.42484339,0.71131954,1.25457528,77,129,229,34,61,113,0.18703844,0.33783904,0.62247078,0.20412075,0.31386740,0.44727941
5053,0,USArkansasGrant,Arkansas,Grant,2021-01-06 04:26:26.875329,2020-06-20 00:00:00.000000,0.44900908,0.74204998,1.28370860,82,135,234,37,64,118,0.20442672,0.35041041,0.64724658,0.20539003,0.31465816,0.46101491
5053,0,USArkansasGrant,Arkansas,Grant,2021-01-06 04:26:26.875329,2020-06-21 00:00:00.000000,0.47538029,0.77714765,1.31333170,86,141,239,40,66,122,0.22275540,0.36646558,0.67245271,0.21063558,0.31480744,0.47482486
5053,0,USArkansasGrant,Arkansas,Grant,2021-01-06 04:26:26.875329,2020-06-22 00:00:00.000000,0.49542831,0.81127494,1.35860365,90,148,248,43,70,127,0.23710466,0.38800811,0.69809608,0.22972356,0.32308588,0.48309288
5053,0,USArkansasGrant,Arkansas,Grant,2021-01-06 04:26:26.875329,2020-06-23 00:00:00.000000,0.54727482,0.84862372,1.40443676,99,155,256,46,73,132,0.25688279,0.40457808,0.72786764,0.24720793,0.33132159,0.48724064
5053,0,USArkansasGrant,Arkansas,Grant,2021-01-06 04:26:26.875329,2020-06-24 00:00:00.000000,0.60390850,0.89096674,1.45121200,110,162,265,50,78,138,0.27707342,0.42777128,0.76080341,0.24594564,0.33248098,0.48853240
5053,0,USArkansasGrant,Arkansas,Grant,2021-01-06 04:26:26.875329,2020-06-25 00:00:00.000000,0.63745225,0.93651147,1.51094302,116,171,275,53,83,145,0.29453476,0.45685170,0.79617251,0.24683996,0.33284915,0.49202301
5053,0,USArkansasGrant,Arkansas,Grant,2021-01-06 04:26:26.875329,2020-06-26 00:00:00.000000,0.67431965,0.98141221,1.57385496,123,179,287,57,89,150,0.31231536,0.49132755,0.82349608,0.25017269,0.33958650,0.50651687
5053,0,USArkansasGrant,Arkansas,Grant,2021-01-06 04:26:26.875329,2020-06-27 00:00:00.000000,0.71376426,1.03823535,1.65019740,130,189,301,60,95,155,0.33038963,0.52182306,0.84973098,0.25248004,0.34735238,0.51317155
5053,0,USArkansasGrant,Arkansas,Grant,2021-01-06 04:26:26.875329,2020-06-28 00:00:00.000000,0.74624129,1.09957749,1.72871752,136,200,315,63,98,160,0.34953764,0.53969286,0.87703804,0.25401221,0.34928944,0.51464127
5053,0,USArkansasGrant,Arkansas,Grant,2021-01-06 04:26:26.875329,2020-06-29 00:00:00.000000,0.78653317,1.13760178,1.79032918,143,207,327,67,101,165,0.36965266,0.55667097,0.90543102,0.25502825,0.35096671,0.51666783
5053,0,USArkansasGrant,Arkansas,Grant,2021-01-06 04:26:26.875329,2020-06-30 00:00:00.000000,0.83197803,1.18761548,1.85420255,151,216,338,71,108,170,0.39041946,0.59139257,0.93548647,0.25473425,0.35358214,0.51658910
5053,0,USArkansasGrant,Arkansas,Grant,2021-01-06 04:26:26.875329,2020-07-01 00:00:00.000000,0.88627735,1.24209647,1.91994396,161,226,350,75,112,176,0.41086120,0.61760219,0.96742764,0.25471684,0.36195802,0.51343741
5053,0,USArkansasGrant,Arkansas,Grant,2021-01-06 04:26:26.875329,2020-07-02 00:00:00.000000,0.94504293,1.29972251,1.98612826,172,237,362,79,116,182,0.43333072,0.63908295,1.00160910,0.25505169,0.36736836,0.49624304
5053,0,USArkansasGrant,Arkansas,Grant,2021-01-06 04:26:26.875329,2020-07-03 00:00:00.000000,0.99221192,1.36441306,2.05877182,181,249,376,82,122,189,0.45281607,0.67086919,1.03834115,0.25644471,0.36587900,0.49276984
5053,0,USArkansasGrant,Arkansas,Grant,2021-01-06 04:26:26.875329,2020-07-04 00:00:00.000000,1.04689740,1.42957308,2.14400169,191,261,391,85,127,194,0.46839468,0.69656501,1.06441984,0.26120083,0.36463983,0.48592582
5053,0,USArkansasGrant,Arkansas,Grant,2021-01-06 04:26:26.875329,2020-07-05 00:00:00.000000,1.10226996,1.48904389,2.23610555,201,271,408,88,132,199,0.48550318,0.72449145,1.09033065,0.27121926,0.36316088,0.47822546
5053,0,USArkansasGrant,Arkansas,Grant,2021-01-06 04:26:26.875329,2020-07-06 00:00:00.000000,1.15745670,1.55224117,2.31483585,211,283,422,92,137,208,0.50413699,0.75508151,1.13908928,0.26648513,0.36446343,0.46666386
5053,0,USArkansasGrant,Arkansas,Grant,2021-01-06 04:26:26.875329,2020-07-07 00:00:00.000000,1.19745634,1.59554972,2.37709730,218,291,434,95,143,216,0.52126819,0.78493800,1.18541991,0.26068973,0.36574355,0.47563643
5053,0,USArkansasGrant,Arkansas,Grant,2021-01-06 04:26:26.875329,2020-07-08 00:00:00.000000,1.23920658,1.65569364,2.44716100,226,302,446,98,150,224,0.54009712,0.82372740,1.22745911,0.26300288,0.35905494,0.47295292
5053,0,USArkansasGrant,Arkansas,Grant,2021-01-06 04:26:26.875329,2020-07-09 00:00:00.000000,1.28219835,1.71449548,2.54665705,234,313,465,102,157,231,0.56070942,0.86455477,1.26514497,0.26083125,0.35081553,0.46967604
5053,0,USArkansasGrant,Arkansas,Grant,2021-01-06 04:26:26.875329,2020-07-10 00:00:00.000000,1.32627022,1.77735738,2.64917186,242,324,483,106,165,237,0.58333016,0.90692085,1.29923944,0.25597901,0.34995488,0.45928435
5053,0,USArkansasGrant,Arkansas,Grant,2021-01-06 04:26:26.875329,2020-07-11 00:00:00.000000,1.37122535,1.83468195,2.75366562,250,335,502,111,171,244,0.60786907,0.93661777,1.33816569,0.24629638,0.34749494,0.44626271
5053,0,USArkansasGrant,Arkansas,Grant,2021-01-06 04:26:26.875329,2020-07-12 00:00:00.000000,1.41419826,1.89675128,2.84475335,258,346,519,115,178,256,0.63415150,0.97610983,1.40227571,0.23918742,0.33976753,0.43989631
5053,0,USArkansasGrant,Arkansas,Grant,2021-01-06 04:26:26.875329,2020-07-13 00:00:00.000000,1.46716912,1.95472308,2.89010059,267,357,527,120,185,267,0.66201546,1.01578045,1.46520255,0.23706926,0.32451534,0.43533851
5053,0,USArkansasGrant,Arkansas,Grant,2021-01-06 04:26:26.875329,2020-07-14 00:00:00.000000,1.51624318,2.02102193,2.93441957,276,369,535,126,191,279,0.69241868,1.04924285,1.52900871,0.23407038,0.31902894,0.43330260
5053,0,USArkansasGrant,Arkansas,Grant,2021-01-06 04:26:26.875329,2020-07-15 00:00:00.000000,1.53576152,2.05331611,2.99039648,280,375,546,132,196,290,0.72489367,1.07633423,1.58971390,0.23393160,0.31659896,0.42801575
5053,0,USArkansasGrant,Arkansas,Grant,2021-01-06 04:26:26.875329,2020-07-16 00:00:00.000000,1.55600574,2.10436389,3.10999657,284,384,568,137,199,300,0.75133481,1.08976571,1.64494174,0.23374986,0.30975109,0.41230860
5053,0,USArkansasGrant,Arkansas,Grant,2021-01-06 04:26:26.875329,2020-07-17 00:00:00.000000,1.57924737,2.16406647,3.22443289,288,395,588,140,202,309,0.76923811,1.10611888,1.69343773,0.22336761,0.29820792,0.39186523
5053,0,USArkansasGrant,Arkansas,Grant,2021-01-06 04:26:26.875329,2020-07-18 00:00:00.000000,1.60612100,2.22360785,3.33519859,293,406,609,143,206,316,0.78679913,1.12933646,1.73495674,0.21859953,0.28717505,0.37466080
5053,0,USArkansasGrant,Arkansas,Grant,2021-01-06 04:26:26.875329,2020-07-19 00:00:00.000000,1.63618867,2.25684992,3.42083728,298,412,624,146,209,323,0.80407737,1.14612124,1.77013904,0.20301467,0.27434424,0.35082207
5053,0,USArkansasGrant,Arkansas,Grant,2021-01-06 04:26:26.875329,2020-07-20 00:00:00.000000,1.64563925,2.26615604,3.46864137,300,413,633,149,213,328,0.81679772,1.16959895,1.79984137,0.19738216,0.26808608,0.34247926
5053,0,USArkansasGrant,Arkansas,Grant,2021-01-06 04:26:26.875329,2020-07-21 00:00:00.000000,1.65377452,2.27011474,3.51240008,302,414,641,149,217,338,0.82075440,1.19336331,1.85403581,0.19484360,0.26032525,0.33773821
5053,0,USArkansasGrant,Arkansas,Grant,2021-01-06 04:26:26.875329,2020-07-22 00:00:00.000000,1.66190723,2.27812297,3.55229192,303,416,648,150,222,347,0.82472141,1.21584834,1.90138382,0.19172920,0.25521904,0.33415315
5053,0,USArkansasGrant,Arkansas,Grant,2021-01-06 04:26:26.875329,2020-07-23 00:00:00.000000,1.67030330,2.30134805,3.58124689,305,420,654,151,224,354,0.82866440,1.22959565,1.93929322,0.18471233,0.24594467,0.32626037
5053,0,USArkansasGrant,Arkansas,Grant,2021-01-06 04:26:26.875329,2020-07-24 00:00:00.000000,1.68324046,2.31555803,3.57173830,307,422,652,152,224,359,0.83260370,1.23108397,1.97016886,0.17431963,0.23913253,0.32150234
5053,0,USArkansasGrant,Arkansas,Grant,2021-01-06 04:26:26.875329,2020-07-25 00:00:00.000000,1.69556779,2.33807393,3.54559959,309,427,647,152,227,362,0.83660754,1.24331603,1.98263333,0.16615878,0.23111203,0.31420366
5053,0,USArkansasGrant,Arkansas,Grant,2021-01-06 04:26:26.875329,2020-07-26 00:00:00.000000,1.69671543,2.33298225,3.49313358,309,426,638,151,228,364,0.82801956,1.25128162,1.99403002,0.16155448,0.22948209,0.31420218
5053,0,USArkansasGrant,Arkansas,Grant,2021-01-06 04:26:26.875329,2020-07-27 00:00:00.000000,1.69784343,2.34508841,3.43023696,310,428,626,149,230,366,0.81722789,1.26183911,2.00592050,0.15580743,0.22558386,0.31645571
5053,0,USArkansasGrant,Arkansas,Grant,2021-01-06 04:26:26.875329,2020-07-28 00:00:00.000000,1.68641890,2.33674500,3.36630709,308,426,614,147,232,368,0.80495346,1.27020397,2.01968609,0.15215966,0.22421657,0.31609078
5053,0,USArkansasGrant,Arkansas,Grant,2021-01-06 04:26:26.875329,2020-07-29 00:00:00.000000,1.64776986,2.30588957,3.33434858,300,421,609,144,233,371,0.79181770,1.27567942,2.03472720,0.14561309,0.22226153,0.31410790
5053,0,USArkansasGrant,Arkansas,Grant,2021-01-06 04:26:26.875329,2020-07-30 00:00:00.000000,1.61463286,2.25128386,3.36025859,294,411,613,141,232,374,0.77573338,1.27391388,2.05054659,0.14439162,0.22404328,0.30911132
5053,0,USArkansasGrant,Arkansas,Grant,2021-01-06 04:26:26.875329,2020-07-31 00:00:00.000000,1.58581768,2.20943470,3.38530793,289,403,618,138,229,377,0.75735516,1.25704299,2.06622993,0.15352310,0.22423552,0.30613074
5053,0,USArkansasGrant,Arkansas,Grant,2021-01-06 04:26:26.875329,2020-08-01 00:00:00.000000,1.55920952,2.20190312,3.35374326,284,402,612,135,230,375,0.73912927,1.26137561,2.05650471,0.15097964,0.21961575,0.30015848
5053,0,USArkansasGrant,Arkansas,Grant,2021-01-06 04:26:26.875329,2020-08-02 00:00:00.000000,1.53411962,2.20607894,3.31190820,280,402,604,134,230,372,0.73420418,1.26373028,2.04040754,0.15457930,0.22076052,0.30277874
5053,0,USArkansasGrant,Arkansas,Grant,2021-01-06 04:26:26.875329,2020-08-03 00:00:00.000000,1.53007586,2.20886274,3.26816742,279,403,596,133,230,369,0.73051811,1.26119931,2.02200663,0.15458794,0.22068800,0.30167693
5053,0,USArkansasGrant,Arkansas,Grant,2021-01-06 04:26:26.875329,2020-08-04 00:00:00.000000,1.49593698,2.20428248,3.22243265,273,402,588,132,229,365,0.72325729,1.25597708,2.00135476,0.15475083,0.22019861,0.32070871
5053,0,USArkansasGrant,Arkansas,Grant,2021-01-06 04:26:26.875329,2020-08-05 00:00:00.000000,1.46285061,2.18971717,3.17726202,267,399,580,131,228,361,0.71935880,1.25060902,1.97879844,0.15523082,0.21955399,0.33692738
5053,0,USArkansasGrant,Arkansas,Grant,2021-01-06 04:26:26.875329,2020-08-06 00:00:00.000000,1.43074921,2.18576248,3.13777048,261,399,573,131,229,357,0.71862299,1.25409512,1.95492790,0.15609962,0.22349297,0.34384536
5053,0,USArkansasGrant,Arkansas,Grant,2021-01-06 04:26:26.875329,2020-08-07 00:00:00.000000,1.40076369,2.20469629,3.10860001,255,402,567,131,229,352,0.72039121,1.25866432,1.93099642,0.15991358,0.23009465,0.34267335
5053,0,USArkansasGrant,Arkansas,Grant,2021-01-06 04:26:26.875329,2020-08-08 00:00:00.000000,1.38836041,2.21317600,3.08581093,253,404,563,132,231,348,0.72398155,1.26510086,1.90869167,0.16629265,0.23997611,0.33758954
5053,0,USArkansasGrant,Arkansas,Grant,2021-01-06 04:26:26.875329,2020-08-09 00:00:00.000000,1.39395244,2.20902581,3.06515988,254,403,559,131,232,344,0.72020946,1.27255490,1.88862078,0.16662995,0.24369461,0.32753238
5053,0,USArkansasGrant,Arkansas,Grant,2021-01-06 04:26:26.875329,2020-08-10 00:00:00.000000,1.44622480,2.18156821,3.04926012,264,398,556,130,229,341,0.71504041,1.25767732,1.87055459,0.17012525,0.24452689,0.32563903
5053,0,USArkansasGrant,Arkansas,Grant,2021-01-06 04:26:26.875329,2020-08-11 00:00:00.000000,1.46615438,2.17216938,3.03541013,267,396,554,130,227,338,0.71492662,1.24307014,1.85486310,0.16999273,0.24912236,0.32748804
5053,0,USArkansasGrant,Arkansas,Grant,2021-01-06 04:26:26.875329,2020-08-12 00:00:00.000000,1.45380594,2.17659102,3.02500646,265,397,552,131,227,336,0.71811906,1.24299181,1.84122777,0.17091075,0.25871658,0.32932157
5053,0,USArkansasGrant,Arkansas,Grant,2021-01-06 04:26:26.875329,2020-08-13 00:00:00.000000,1.44275098,2.18425222,3.02778099,263,398,553,132,225,334,0.72365553,1.23586127,1.82963280,0.17124402,0.26006564,0.34058829
5053,0,USArkansasGrant,Arkansas,Grant,2021-01-06 04:26:26.875329,2020-08-14 00:00:00.000000,1.43757212,2.21035368,3.07682339,262,403,561,133,227,332,0.72936801,1.24716720,1.82035500,0.17459609,0.26332377,0.36904428
5053,0,USArkansasGrant,Arkansas,Grant,2021-01-06 04:26:26.875329,2020-08-15 00:00:00.000000,1.42212224,2.23435908,3.12324793,259,408,570,131,227,336,0.72100858,1.24826390,1.84029232,0.18471618,0.26917058,0.38073921
5053,0,USArkansasGrant,Arkansas,Grant,2021-01-06 04:26:26.875329,2020-08-16 00:00:00.000000,1.40794664,2.23800300,3.15636809,257,408,576,130,228,341,0.71425605,1.24950283,1.86796927,0.18473422,0.26999029,0.38177757
5053,0,USArkansasGrant,Arkansas,Grant,2021-01-06 04:26:26.875329,2020-08-17 00:00:00.000000,1.39805993,2.25957041,3.17025281,255,412,579,129,229,346,0.71023745,1.25794798,1.89460784,0.18731214,0.27184721,0.38412756
5053,0,USArkansasGrant,Arkansas,Grant,2021-01-06 04:26:26.875329,2020-08-18 00:00:00.000000,1.38995607,2.26784610,3.16918081,253,414,578,129,231,343,0.71067455,1.26849066,1.88149002,0.18911038,0.27143955,0.38490015
5053,0,USArkansasGrant,Arkansas,Grant,2021-01-06 04:26:26.875329,2020-08-19 00:00:00.000000,1.38782162,2.30592310,3.18559159,253,421,581,130,233,340,0.71496495,1.27986226,1.86610313,0.19028185,0.27286345,0.38880670
5053,0,USArkansasGrant,Arkansas,Grant,2021-01-06 04:26:26.875329,2020-08-20 00:00:00.000000,1.41274882,2.32861960,3.16235804,258,425,577,131,234,345,0.72260317,1.28605986,1.88949516,0.19275195,0.27266984,0.38966147
5053,0,USArkansasGrant,Arkansas,Grant,2021-01-06 04:26:26.875329,2020-08-21 00:00:00.000000,1.43946969,2.33376665,3.19797019,262,426,584,133,234,350,0.73280734,1.28448876,1.92096742,0.19172787,0.27037182,0.38551692
5053,0,USArkansasGrant,Arkansas,Grant,2021-01-06 04:26:26.875329,2020-08-22 00:00:00.000000,1.46776964,2.34626322,3.23577306,268,428,591,136,234,356,0.74494012,1.28462185,1.94982455,0.19571711,0.26824571,0.38403058
5053,0,USArkansasGrant,Arkansas,Grant,2021-01-06 04:26:26.875329,2020-08-23 00:00:00.000000,1.49626701,2.36247002,3.26283159,273,431,595,138,236,360,0.75843088,1.29544499,1.97415661,0.19848891,0.26676512,0.38423918
5053,0,USArkansasGrant,Arkansas,Grant,2021-01-06 04:26:26.875329,2020-08-24 00:00:00.000000,1.51713652,2.37009171,3.29748051,277,432,602,140,239,363,0.77082017,1.31090008,1.99231778,0.19842544,0.26635351,0.38904563
5053,0,USArkansasGrant,Arkansas,Grant,2021-01-06 04:26:26.875329,2020-08-25 00:00:00.000000,1.53365962,2.39965281,3.30396122,280,438,603,141,241,365,0.77371747,1.32223972,2.00369650,0.19830007,0.26654793,0.38826690
5053,0,USArkansasGrant,Arkansas,Grant,2021-01-06 04:26:26.875329,2020-08-26 00:00:00.000000,1.55010662,2.43153900,3.33958900,283,444,609,142,243,367,0.78014515,1.33262382,2.00954885,0.19809147,0.27054919,0.38952805
5053,0,USArkansasGrant,Arkansas,Grant,2021-01-06 04:26:26.875329,2020-08-27 00:00:00.000000,1.56652764,2.45134250,3.38335003,286,447,617,144,242,367,0.79087815,1.32593997,2.01013824,0.19777915,0.27316687,0.40333216
5053,0,USArkansasGrant,Arkansas,Grant,2021-01-06 04:26:26.875329,2020-08-28 00:00:00.000000,1.58309754,2.46755554,3.40642465,289,450,622,147,241,366,0.80610319,1.31959553,2.00522008,0.19735494,0.27470773,0.40247723
5053,0,USArkansasGrant,Arkansas,Grant,2021-01-06 04:26:26.875329,2020-08-29 00:00:00.000000,1.60059136,2.49070661,3.42563888,292,454,625,150,240,365,0.82574942,1.31756555,2.00367544,0.20145110,0.27200256,0.41011871
5053,0,USArkansasGrant,Arkansas,Grant,2021-01-06 04:26:26.875329,2020-08-30 00:00:00.000000,1.66793026,2.49522667,3.44174872,304,455,628,152,243,366,0.83379841,1.33075897,2.00612754,0.20982246,0.27145569,0.40913455
5053,0,USArkansasGrant,Arkansas,Grant,2021-01-06 04:26:26.875329,2020-08-31 00:00:00.000000,1.77136015,2.52697346,3.44565493,323,461,629,153,244,367,0.84241613,1.33709772,2.00979454,0.21747841,0.27725454,0.41946530
5053,0,USArkansasGrant,Arkansas,Grant,2021-01-06 04:26:26.875329,2020-09-01 00:00:00.000000,1.83279653,2.56476091,3.44813426,334,468,629,155,249,368,0.85275257,1.36334185,2.01757721,0.22232022,0.28648901,0.42176443
5053,0,USArkansasGrant,Arkansas,Grant,2021-01-06 04:26:26.875329,2020-09-02 00:00:00.000000,1.86606516,2.57133239,3.44945191,340,469,630,157,251,370,0.86479774,1.37474251,2.02727672,0.22071720,0.28893029,0.43490297
5053,0,USArkansasGrant,Arkansas,Grant,2021-01-06 04:26:26.875329,2020-09-03 00:00:00.000000,1.89533880,2.59805887,3.48337571,346,474,636,160,252,372,0.87825323,1.38438234,2.03799314,0.21528327,0.28748429,0.43202879
5053,0,USArkansasGrant,Arkansas,Grant,2021-01-06 04:26:26.875329,2020-09-04 00:00:00.000000,1.91773444,2.61479403,3.53902062,350,477,646,163,256,374,0.89283700,1.40693688,2.04901499,0.20655853,0.28550536,0.42311443
5053,0,USArkansasGrant,Arkansas,Grant,2021-01-06 04:26:26.875329,2020-09-05 00:00:00.000000,1.95398567,2.63096082,3.59583405,356,480,656,165,261,376,0.90826306,1.43187026,2.05957272,0.20801421,0.29151585,0.43008112
5053,0,USArkansasGrant,Arkansas,Grant,2021-01-06 04:26:26.875329,2020-09-06 00:00:00.000000,1.99562638,2.64462175,3.65038682,364,483,666,168,262,377,0.92430331,1.43951201,2.06852334,0.20892267,0.29524439,0.43186115
5053,0,USArkansasGrant,Arkansas,Grant,2021-01-06 04:26:26.875329,2020-09-07 00:00:00.000000,2.03003714,2.65048684,3.70710918,370,484,677,171,262,379,0.94078696,1.43837854,2.07528809,0.20908697,0.29469266,0.43200416
5053,0,USArkansasGrant,Arkansas,Grant,2021-01-06 04:26:26.875329,2020-09-08 00:00:00.000000,2.05688612,2.68185447,3.70826973,375,489,677,176,266,383,0.96577968,1.45861813,2.10050855,0.20472776,0.28943337,0.43194780
5053,0,USArkansasGrant,Arkansas,Grant,2021-01-06 04:26:26.875329,2020-09-09 00:00:00.000000,2.08755561,2.70143519,3.75771399,381,493,686,181,270,388,0.99211733,1.47828275,2.12511407,0.20100486,0.28961583,0.43150210
5053,0,USArkansasGrant,Arkansas,Grant,2021-01-06 04:26:26.875329,2020-09-10 00:00:00.000000,2.11685886,2.72704840,3.80608672,386,498,695,182,272,392,1.00051073,1.49083021,2.14793277,0.19753175,0.28873826,0.43023973
5053,0,USArkansasGrant,Arkansas,Grant,2021-01-06 04:26:26.875329,2020-09-11 00:00:00.000000,2.13112345,2.76994501,3.84357895,389,505,702,185,271,395,1.01763737,1.48627139,2.16574933,0.19420517,0.28797223,0.43002730
5053,0,USArkansasGrant,Arkansas,Grant,2021-01-06 04:26:26.875329,2020-09-12 00:00:00.000000,2.15185148,2.84603552,3.84452270,393,519,702,186,274,397,1.02004803,1.50156528,2.17604982,0.19529636,0.28284313,0.42442005
5053,0,USArkansasGrant,Arkansas,Grant,2021-01-06 04:26:26.875329,2020-09-13 00:00:00.000000,2.16869110,2.88371382,3.83685880,396,526,700,186,279,398,1.02138274,1.52828659,2.17968744,0.19374559,0.27550551,0.42057445
5053,0,USArkansasGrant,Arkansas,Grant,2021-01-06 04:26:26.875329,2020-09-14 00:00:00.000000,2.15884904,2.89214242,3.81547021,394,528,696,188,282,398,1.02980272,1.54805621,2.17941602,0.19518562,0.27065916,0.41429095
5053,0,USArkansasGrant,Arkansas,Grant,2021-01-06 04:26:26.875329,2020-09-15 00:00:00.000000,2.09649105,2.89860415,3.86778504,382,529,706,193,285,397,1.06124991,1.56436092,2.17636499,0.19719515,0.26771232,0.39300677
5053,0,USArkansasGrant,Arkansas,Grant,2021-01-06 04:26:26.875329,2020-09-16 00:00:00.000000,2.04816151,2.90440655,3.88072973,374,530,708,193,287,396,1.05925670,1.57187530,2.17198090,0.19891381,0.26601730,0.39320077
5053,0,USArkansasGrant,Arkansas,Grant,2021-01-06 04:26:26.875329,2020-09-17 00:00:00.000000,2.04340041,2.91532222,3.88585093,373,532,709,192,286,398,1.05171984,1.56710052,2.18038360,0.19578456,0.26638744,0.39292023
5053,0,USArkansasGrant,Arkansas,Grant,2021-01-06 04:26:26.875329,2020-09-18 00:00:00.000000,2.04343680,2.89634837,3.84991800,373,529,703,190,285,403,1.04408032,1.56326921,2.21036281,0.19839242,0.26631386,0.39153922
5053,0,USArkansasGrant,Arkansas,Grant,2021-01-06 04:26:26.875329,2020-09-19 00:00:00.000000,2.04329038,2.89297315,3.80994035,373,528,695,189,285,409,1.03625256,1.56533728,2.24067582,0.20062777,0.26725720,0.35522782
5053,0,USArkansasGrant,Arkansas,Grant,2021-01-06 04:26:26.875329,2020-09-20 00:00:00.000000,2.04295275,2.89425728,3.84580181,373,528,702,187,286,414,1.02879601,1.56617407,2.27131676,0.20074053,0.26740876,0.35712671
5053,0,USArkansasGrant,Arkansas,Grant,2021-01-06 04:26:26.875329,2020-09-21 00:00:00.000000,2.04407014,2.88956121,3.83392224,373,527,700,187,286,416,1.02894487,1.56585009,2.28260011,0.19843925,0.26443624,0.35788353
5053,0,USArkansasGrant,Arkansas,Grant,2021-01-06 04:26:26.875329,2020-09-22 00:00:00.000000,2.01948615,2.89006651,3.81833847,368,527,697,185,286,416,1.01380914,1.56624725,2.27983194,0.19538992,0.26553956,0.35382876
5053,0,USArkansasGrant,Arkansas,Grant,2021-01-06 04:26:26.875329,2020-09-23 00:00:00.000000,1.98925960,2.87549713,3.83407967,363,525,700,183,286,415,1.00594715,1.56794581,2.27387108,0.19544497,0.26587979,0.35308839
5053,0,USArkansasGrant,Arkansas,Grant,2021-01-06 04:26:26.875329,2020-09-24 00:00:00.000000,2.01719019,2.86638279,3.84671601,368,523,702,183,286,413,1.00497066,1.56719027,2.26506656,0.19319363,0.26584227,0.35837772
5053,0,USArkansasGrant,Arkansas,Grant,2021-01-06 04:26:26.875329,2020-09-25 00:00:00.000000,2.05821377,2.87255305,3.85614649,375,524,704,183,285,411,1.00421278,1.56326839,2.25481585,0.19045331,0.26697648,0.35807714
5053,0,USArkansasGrant,Arkansas,Grant,2021-01-06 04:26:26.875329,2020-09-26 00:00:00.000000,2.07439525,2.88505757,3.85326521,378,526,703,183,287,409,1.00444448,1.57153369,2.24199031,0.19036873,0.27151430,0.36250360
5053,0,USArkansasGrant,Arkansas,Grant,2021-01-06 04:26:26.875329,2020-09-27 00:00:00.000000,2.06488958,2.86232175,3.83610529,377,522,700,183,287,402,1.00675118,1.57305172,2.20374055,0.19035313,0.27478122,0.37365017
5053,0,USArkansasGrant,Arkansas,Grant,2021-01-06 04:26:26.875329,2020-09-28 00:00:00.000000,2.05743835,2.84223871,3.81077263,375,519,696,184,287,395,1.01199382,1.57445606,2.16364090,0.19042597,0.26936910,0.38062930
5053,0,USArkansasGrant,Arkansas,Grant,2021-01-06 04:26:26.875329,2020-09-29 00:00:00.000000,2.04986084,2.84003210,3.78164875,374,518,690,185,287,387,1.01741735,1.57208694,2.12264058,0.18036015,0.26992732,0.38304239
5053,0,USArkansasGrant,Arkansas,Grant,2021-01-06 04:26:26.875329,2020-09-30 00:00:00.000000,2.04215348,2.85052760,3.83930437,372,520,701,185,289,380,1.01409867,1.58483629,2.08135335,0.18565438,0.27736660,0.38228930
5053,0,USArkansasGrant,Arkansas,Grant,2021-01-06 04:26:26.875329,2020-10-01 00:00:00.000000,2.03416318,2.83070005,3.87836513,371,517,708,184,290,375,1.01025010,1.58798052,2.05633075,0.20552346,0.28139705,0.37302087
5053,0,USArkansasGrant,Arkansas,Grant,2021-01-06 04:26:26.875329,2020-10-02 00:00:00.000000,2.02561077,2.85446195,3.88354137,369,521,709,184,290,379,1.01268837,1.58823866,2.07749415,0.21669486,0.28304565,0.36460325
5053,0,USArkansasGrant,Arkansas,Grant,2021-01-06 04:26:26.875329,2020-10-03 00:00:00.000000,2.06179138,2.86007018,3.88916154,376,522,710,184,288,383,1.00815651,1.57754047,2.09881199,0.21801737,0.28180848,0.37246019
5053,0,USArkansasGrant,Arkansas,Grant,2021-01-06 04:26:26.875329,2020-10-04 00:00:00.000000,2.06492323,2.85796504,3.89879728,377,522,712,183,287,387,1.00330704,1.57191673,2.12098429,0.21822725,0.28486025,0.37165074
5053,0,USArkansasGrant,Arkansas,Grant,2021-01-06 04:26:26.875329,2020-10-05 00:00:00.000000,2.07911392,2.87061922,3.91677260,379,524,715,182,288,391,0.99797304,1.58038690,2.14436230,0.21762815,0.28739049,0.38053199
5053,0,USArkansasGrant,Arkansas,Grant,2021-01-06 04:26:26.875329,2020-10-06 00:00:00.000000,2.07775879,2.88374114,3.94006132,379,526,719,182,291,397,0.99783773,1.59336956,2.17413153,0.21727799,0.28826863,0.38886741
5053,0,USArkansasGrant,Arkansas,Grant,2021-01-06 04:26:26.875329,2020-10-07 00:00:00.000000,2.07707687,2.90152726,3.96429507,379,529,724,183,292,403,1.00591836,1.60118004,2.20921457,0.22078543,0.28363396,0.39555635
5053,0,USArkansasGrant,Arkansas,Grant,2021-01-06 04:26:26.875329,2020-10-08 00:00:00.000000,2.07773574,2.93249250,3.98872464,379,535,728,186,292,405,1.01960958,1.60315056,2.21772539,0.22268277,0.29109323,0.40144958
5053,0,USArkansasGrant,Arkansas,Grant,2021-01-06 04:26:26.875329,2020-10-09 00:00:00.000000,2.04977952,2.95630312,4.01432534,374,539,733,187,295,405,1.02834258,1.61567049,2.22200520,0.22507990,0.29036085,0.40849733
5053,0,USArkansasGrant,Arkansas,Grant,2021-01-06 04:26:26.875329,2020-10-10 00:00:00.000000,2.02652597,2.93694756,4.04078078,370,536,738,190,294,406,1.04301224,1.61087928,2.22724197,0.22629183,0.29755020,0.41666332
5053,0,USArkansasGrant,Arkansas,Grant,2021-01-06 04:26:26.875329,2020-10-11 00:00:00.000000,2.03195791,2.94264661,4.06713735,371,537,742,192,295,406,1.05295939,1.61862799,2.22618201,0.21949541,0.29968720,0.42195310
5053,0,USArkansasGrant,Arkansas,Grant,2021-01-06 04:26:26.875329,2020-10-12 00:00:00.000000,2.04807441,2.95182494,4.10172557,374,539,749,193,297,405,1.06038311,1.62835169,2.22029294,0.21872554,0.30089483,0.40303933
5053,0,USArkansasGrant,Arkansas,Grant,2021-01-06 04:26:26.875329,2020-10-13 00:00:00.000000,2.06939313,2.94146561,4.13573054,377,537,755,195,298,406,1.07128359,1.63159337,2.22538603,0.21862733,0.30556074,0.38712703
5053,0,USArkansasGrant,Arkansas,Grant,2021-01-06 04:26:26.875329,2020-10-14 00:00:00.000000,2.09674529,2.95546940,4.14836565,382,539,757,197,300,408,1.08115263,1.64307454,2.23836413,0.21882153,0.30773517,0.38737284
5053,0,USArkansasGrant,Arkansas,Grant,2021-01-06 04:26:26.875329,2020-10-15 00:00:00.000000,2.12973223,2.96927395,4.18027508,388,542,763,199,301,412,1.09200170,1.65175326,2.25647296,0.21910975,0.30999917,0.39403682
5053,0,USArkansasGrant,Arkansas,Grant,2021-01-06 04:26:26.875329,2020-10-16 00:00:00.000000,2.16701060,2.98920182,4.22589289,395,545,771,198,303,412,1.08938383,1.65990371,2.26091623,0.22136784,0.30819310,0.39764100
5053,0,USArkansasGrant,Arkansas,Grant,2021-01-06 04:26:26.875329,2020-10-17 00:00:00.000000,2.20861385,3.03319548,4.26659173,403,554,779,197,305,411,1.08054790,1.67399016,2.25037145,0.22216053,0.31796827,0.42791791
5053,0,USArkansasGrant,Arkansas,Grant,2021-01-06 04:26:26.875329,2020-10-18 00:00:00.000000,2.23827079,3.06385775,4.30100035,408,559,785,199,309,408,1.09354618,1.69545030,2.23884239,0.22233826,0.32188781,0.42980559
5053,0,USArkansasGrant,Arkansas,Grant,2021-01-06 04:26:26.875329,2020-10-19 00:00:00.000000,2.28531417,3.07525023,4.34327270,417,561,793,203,312,406,1.11230317,1.71206262,2.22668162,0.22659940,0.32810497,0.45013268
5053,0,USArkansasGrant,Arkansas,Grant,2021-01-06 04:26:26.875329,2020-10-20 00:00:00.000000,2.27668899,3.12113961,4.38420044,415,570,800,206,317,405,1.13006742,1.73670640,2.22017481,0.24904861,0.33080755,0.45500854
5053,0,USArkansasGrant,Arkansas,Grant,2021-01-06 04:26:26.875329,2020-10-21 00:00:00.000000,2.30328247,3.19958179,4.42737572,420,584,808,209,321,411,1.14795854,1.75795990,2.25287413,0.27207587,0.34191608,0.45776506
5053,0,USArkansasGrant,Arkansas,Grant,2021-01-06 04:26:26.875329,2020-10-22 00:00:00.000000,2.31587772,3.25987792,4.47523307,422,595,817,212,321,417,1.16242276,1.76005401,2.28634845,0.27813483,0.34880021,0.46971072
5053,0,USArkansasGrant,Arkansas,Grant,2021-01-06 04:26:26.875329,2020-10-23 00:00:00.000000,2.35087314,3.28178523,4.52957768,429,599,827,214,322,423,1.17618199,1.76667461,2.32111213,0.28242235,0.36164083,0.48838314
5053,0,USArkansasGrant,Arkansas,Grant,2021-01-06 04:26:26.875329,2020-10-24 00:00:00.000000,2.41929465,3.32048872,4.60543446,441,606,841,217,325,430,1.19119506,1.78052079,2.35810010,0.28421942,0.37269686,0.53531138
5053,0,USArkansasGrant,Arkansas,Grant,2021-01-06 04:26:26.875329,2020-10-25 00:00:00.000000,2.45786390,3.37500810,4.78714981,448,616,874,219,332,439,1.20190520,1.81829038,2.40823585,0.28228611,0.38085452,0.56094957
5053,0,USArkansasGrant,Arkansas,Grant,2021-01-06 04:26:26.875329,2020-10-26 00:00:00.000000,2.49242388,3.45311339,4.91462807,455,630,897,224,338,447,1.22974081,1.85284013,2.44743369,0.28204782,0.38826267,0.56970376
5053,0,USArkansasGrant,Arkansas,Grant,2021-01-06 04:26:26.875329,2020-10-27 00:00:00.000000,2.55890252,3.53416367,4.98737052,467,645,910,227,345,457,1.24595075,1.88994172,2.50466359,0.28211583,0.40749934,0.56528292
5053,0,USArkansasGrant,Arkansas,Grant,2021-01-06 04:26:26.875329,2020-10-28 00:00:00.000000,2.64218379,3.61022778,5.06277111,482,659,924,230,351,469,1.25941893,1.92227386,2.57036675,0.28339881,0.41661478,0.56918616
5053,0,USArkansasGrant,Arkansas,Grant,2021-01-06 04:26:26.875329,2020-10-29 00:00:00.000000,2.73362355,3.71139004,5.14432133,499,677,939,239,359,482,1.30909244,1.96821708,2.64351951,0.30922340,0.42819389,0.58386564
5053,0,USArkansasGrant,Arkansas,Grant,2021-01-06 04:26:26.875329,2020-10-30 00:00:00.000000,2.82919772,3.84255078,5.23880954,516,701,956,246,365,497,1.35224903,1.99879544,2.72254527,0.32139546,0.44583026,0.60257625
5053,0,USArkansasGrant,Arkansas,Grant,2021-01-06 04:26:26.875329,2020-10-31 00:00:00.000000,2.91667636,3.96841797,5.35637798,532,724,978,252,372,512,1.38121488,2.04123158,2.80501071,0.33864759,0.45436877,0.61334489
5053,0,USArkansasGrant,Arkansas,Grant,2021-01-06 04:26:26.875329,2020-11-01 00:00:00.000000,3.03772010,4.07036451,5.52636903,554,743,1009,254,383,528,1.39211155,2.09717835,2.89538212,0.35896700,0.46709624,0.66234686
5053,0,USArkansasGrant,Arkansas,Grant,2021-01-06 04:26:26.875329,2020-11-02 00:00:00.000000,3.18669382,4.22780420,5.80709487,582,772,1060,256,392,547,1.40362903,2.15025049,2.99643734,0.37719603,0.48185808,0.67724147
5053,0,USArkansasGrant,Arkansas,Grant,2021-01-06 04:26:26.875329,2020-11-03 00:00:00.000000,3.33076036,4.40907893,6.13050102,608,805,1119,264,402,564,1.44565984,2.20239441,3.08933235,0.37733579,0.49982448,0.67943013
5053,0,USArkansasGrant,Arkansas,Grant,2021-01-06 04:26:26.875329,2020-11-04 00:00:00.000000,3.39672816,4.60607926,6.42651848,620,841,1173,276,418,584,1.51487890,2.28883520,3.20140789,0.37803652,0.52134442,0.68647497
5053,0,USArkansasGrant,Arkansas,Grant,2021-01-06 04:26:26.875329,2020-11-05 00:00:00.000000,3.48409106,4.81047728,6.58253808,636,878,1202,286,436,610,1.56664315,2.39196810,3.34013487,0.38408622,0.54142799,0.68691893
5053,0,USArkansasGrant,Arkansas,Grant,2021-01-06 04:26:26.875329,2020-11-06 00:00:00.000000,3.60893756,5.02663351,6.73877461,659,918,1230,295,458,636,1.61709518,2.51055719,3.48559954,0.42476886,0.54855516,0.70174877
5053,0,USArkansasGrant,Arkansas,Grant,2021-01-06 04:26:26.875329,2020-11-07 00:00:00.000000,3.78466062,5.24599392,7.11442041,691,958,1299,313,479,665,1.71855210,2.62295911,3.64362017,0.43272788,0.55960934,0.72475171
5053,0,USArkansasGrant,Arkansas,Grant,2021-01-06 04:26:26.875329,2020-11-08 00:00:00.000000,4.00023676,5.47988335,7.54204821,730,1000,1377,334,501,696,1.83188763,2.74789847,3.81395148,0.43787843,0.56483525,0.73374990
5053,0,USArkansasGrant,Arkansas,Grant,2021-01-06 04:26:26.875329,2020-11-09 00:00:00.000000,4.22352755,5.73395954,7.98537924,771,1047,1458,351,525,729,1.92681875,2.87793962,3.99551631,0.45511152,0.57376328,0.73435458
5053,0,USArkansasGrant,Arkansas,Grant,2021-01-06 04:26:26.875329,2020-11-10 00:00:00.000000,4.47854255,6.01844922,8.44420545,818,1099,1542,363,551,763,1.99058306,3.02115548,4.18233370,0.45756260,0.57588072,0.72579007
5053,0,USArkansasGrant,Arkansas,Grant,2021-01-06 04:26:26.875329,2020-11-11 00:00:00.000000,4.77615881,6.30278471,8.71249266,872,1151,1591,375,577,799,2.05422855,3.16059900,4.37502729,0.45866509,0.57476903,0.73348931
5053,0,USArkansasGrant,Arkansas,Grant,2021-01-06 04:26:26.875329,2020-11-12 00:00:00.000000,5.03639869,6.63768372,9.09236984,919,1212,1660,388,601,829,2.12926812,3.29461529,4.54320907,0.45835411,0.56306108,0.71966881
5053,0,USArkansasGrant,Arkansas,Grant,2021-01-06 04:26:26.875329,2020-11-13 00:00:00.000000,5.29027544,6.93859347,9.51084657,966,1267,1737,415,629,855,2.27394123,3.44620706,4.68366089,0.45717214,0.55412719,0.71800524
5053,0,USArkansasGrant,Arkansas,Grant,2021-01-06 04:26:26.875329,2020-11-14 00:00:00.000000,5.53740924,7.24592059,9.80778050,1011,1323,1791,443,653,880,2.42728786,3.57863562,4.82176930,0.43314463,0.54038559,0.71210866
5053,0,USArkansasGrant,Arkansas,Grant,2021-01-06 04:26:26.875329,2020-11-15 00:00:00.000000,5.77902193,7.52158536,10.13309035,1055,1373,1850,472,683,905,2.58723442,3.74099920,4.95864614,0.41319022,0.52944382,0.70015555
5053,0,USArkansasGrant,Arkansas,Grant,2021-01-06 04:26:26.875329,2020-11-16 00:00:00.000000,5.96098613,7.73042211,10.34668979,1088,1411,1889,493,711,934,2.70020206,3.89723351,5.11573691,0.40748687,0.51714287,0.69234907
5053,0,USArkansasGrant,Arkansas,Grant,2021-01-06 04:26:26.875329,2020-11-17 00:00:00.000000,6.11282916,7.95235775,10.51062739,1116,1452,1919,508,740,964,2.78595971,4.05571568,5.28288610,0.40663296,0.50598423,0.64397766
5053,0,USArkansasGrant,Arkansas,Grant,2021-01-06 04:26:26.875329,2020-11-18 00:00:00.000000,6.25758949,8.17812970,10.78422821,1142,1493,1969,521,764,992,2.85364658,4.18393255,5.43646361,0.40663960,0.49115748,0.62690419
5053,0,USArkansasGrant,Arkansas,Grant,2021-01-06 04:26:26.875329,2020-11-19 00:00:00.000000,6.38949709,8.38310364,11.05093255,1167,1531,2018,532,788,1019,2.91589258,4.31590058,5.58430457,0.39732427,0.48110567,0.62543182
5053,0,USArkansasGrant,Arkansas,Grant,2021-01-06 04:26:26.875329,2020-11-20 00:00:00.000000,6.56636204,8.57405546,11.28251053,1199,1566,2060,543,813,1063,2.97371626,4.45492265,5.82119741,0.39024034,0.48088574,0.62589613
5053,0,USArkansasGrant,Arkansas,Grant,2021-01-06 04:26:26.875329,2020-11-21 00:00:00.000000,6.75082711,8.69638984,11.48476681,1233,1588,2097,553,830,1107,3.02770086,4.54656066,6.06256613,0.38896702,0.46528384,0.62433253
5053,0,USArkansasGrant,Arkansas,Grant,2021-01-06 04:26:26.875329,2020-11-22 00:00:00.000000,6.90968501,8.81536808,11.66606704,1262,1610,2130,562,840,1148,3.07772499,4.60228436,6.28581186,0.37722725,0.46054274,0.61376449
5053,0,USArkansasGrant,Arkansas,Grant,2021-01-06 04:26:26.875329,2020-11-23 00:00:00.000000,6.85809048,8.97975382,11.87260153,1252,1640,2168,570,856,1185,3.12236715,4.68794802,6.48789054,0.36718975,0.45952888,0.59602711
5053,0,USArkansasGrant,Arkansas,Grant,2021-01-06 04:26:26.875329,2020-11-24 00:00:00.000000,6.79494022,9.13221788,12.18668552,1241,1667,2225,577,872,1213,3.16038258,4.77497016,6.64267936,0.36414081,0.45890015,0.60330787
5053,0,USArkansasGrant,Arkansas,Grant,2021-01-06 04:26:26.875329,2020-11-25 00:00:00.000000,6.74481531,9.25075422,12.48589287,1231,1689,2280,582,886,1228,3.18949829,4.85199427,6.72413865,0.36123350,0.46089840,0.60879078
5053,0,USArkansasGrant,Arkansas,Grant,2021-01-06 04:26:26.875329,2020-11-26 00:00:00.000000,6.67392620,9.30747032,12.76400296,1218,1700,2331,586,896,1238,3.21007750,4.90599708,6.78241144,0.36665199,0.46425429,0.59543162
5053,0,USArkansasGrant,Arkansas,Grant,2021-01-06 04:26:26.875329,2020-11-27 00:00:00.000000,6.60362940,9.42248108,13.02043258,1206,1721,2378,588,913,1246,3.22372819,5.00223523,6.82441948,0.36915281,0.46791844,0.59874149
5053,0,USArkansasGrant,Arkansas,Grant,2021-01-06 04:26:26.875329,2020-11-28 00:00:00.000000,6.64742430,9.46285637,13.23562975,1214,1728,2417,590,932,1252,3.23250178,5.10288346,6.85908783,0.38581892,0.47613259,0.61097867
5053,0,USArkansasGrant,Arkansas,Grant,2021-01-06 04:26:26.875329,2020-11-29 00:00:00.000000,6.91041314,9.60030242,13.39932667,1262,1753,2447,591,944,1269,3.23978510,5.17200122,6.95017258,0.39437011,0.48585950,0.65857613
5053,0,USArkansasGrant,Arkansas,Grant,2021-01-06 04:26:26.875329,2020-11-30 00:00:00.000000,7.19799964,9.77149835,13.61001371,1314,1784,2485,594,950,1289,3.25294061,5.20347128,7.05918088,0.40867505,0.49646313,0.66231166
5053,0,USArkansasGrant,Arkansas,Grant,2021-01-06 04:26:26.875329,2020-12-01 00:00:00.000000,7.25222527,9.94598620,13.86012048,1324,1816,2531,599,960,1296,3.28036654,5.25871804,7.09718031,0.41269287,0.51384894,0.68343569
5053,0,USArkansasGrant,Arkansas,Grant,2021-01-06 04:26:26.875329,2020-12-02 00:00:00.000000,7.34112535,10.09574582,14.12118440,1340,1843,2579,602,975,1300,3.29969501,5.34201548,7.12221716,0.42318604,0.51764486,0.73358711
5053,0,USArkansasGrant,Arkansas,Grant,2021-01-06 04:26:26.875329,2020-12-03 00:00:00.000000,7.47331310,10.19660341,14.33492836,1365,1862,2618,605,990,1316,3.31292803,5.42125792,7.20934658,0.43147741,0.52479770,0.78263103
5053,0,USArkansasGrant,Arkansas,Grant,2021-01-06 04:26:26.875329,2020-12-04 00:00:00.000000,7.64659216,10.29997569,14.55330103,1396,1881,2658,609,1003,1339,3.33925706,5.49524819,7.33307862,0.43529804,0.55068998,0.79713223
5053,0,USArkansasGrant,Arkansas,Grant,2021-01-06 04:26:26.875329,2020-12-05 00:00:00.000000,7.84776421,10.53307377,15.00326143,1433,1923,2740,623,1016,1365,3.41154242,5.56526703,7.47697247,0.44120062,0.59946018,0.85483919
5053,0,USArkansasGrant,Arkansas,Grant,2021-01-06 04:26:26.875329,2020-12-06 00:00:00.000000,8.06368890,10.78263540,15.68404466,1472,1969,2864,638,1023,1395,3.49620230,5.60330026,7.64185063,0.47851807,0.62183022,0.89308667
5053,0,USArkansasGrant,Arkansas,Grant,2021-01-06 04:26:26.875329,2020-12-07 00:00:00.000000,8.27924616,11.01138386,16.22136975,1512,2011,2962,654,1045,1429,3.58267248,5.72464069,7.82755540,0.49778057,0.65206226,0.90999760
5053,0,USArkansasGrant,Arkansas,Grant,2021-01-06 04:26:26.875329,2020-12-08 00:00:00.000000,8.49746820,11.22736535,16.84350068,1552,2050,3076,670,1062,1474,3.67368729,5.81556635,8.07486691,0.53043319,0.67827888,0.92921831
5053,0,USArkansasGrant,Arkansas,Grant,2021-01-06 04:26:26.875329,2020-12-09 00:00:00.000000,8.71656468,11.49083762,17.47757438,1592,2098,3192,689,1087,1512,3.77420082,5.95524196,8.28019599,0.56018222,0.71243733,0.95521296
5053,0,USArkansasGrant,Arkansas,Grant,2021-01-06 04:26:26.875329,2020-12-10 00:00:00.000000,8.93851231,11.92995864,18.19234821,1632,2179,3322,709,1124,1574,3.88454362,6.15591974,8.62045600,0.58422484,0.74398087,1.01262464
5053,0,USArkansasGrant,Arkansas,Grant,2021-01-06 04:26:26.875329,2020-12-11 00:00:00.000000,9.17170477,12.46650265,18.83507104,1675,2277,3440,730,1160,1619,4.00088638,6.35166170,8.86406702,0.61480593,0.78035920,1.03355095
5053,0,USArkansasGrant,Arkansas,Grant,2021-01-06 04:26:26.875329,2020-12-12 00:00:00.000000,9.41951941,12.94633217,19.43802719,1720,2364,3550,752,1196,1669,4.11957367,6.55268442,9.14302658,0.63170785,0.80842128,1.06321924
5053,0,USArkansasGrant,Arkansas,Grant,2021-01-06 04:26:26.875329,2020-12-13 00:00:00.000000,9.68144300,13.31292741,19.98928853,1768,2431,3651,774,1230,1724,4.23918526,6.73952741,9.44210507,0.65369896,0.83718745,1.20831382
5053,0,USArkansasGrant,Arkansas,Grant,2021-01-06 04:26:26.875329,2020-12-14 00:00:00.000000,10.02084293,13.62035796,20.46007537,1830,2487,3737,795,1269,1781,4.35791840,6.94948657,9.75095782,0.67794105,0.86013345,1.26521947
5053,0,USArkansasGrant,Arkansas,Grant,2021-01-06 04:26:26.875329,2020-12-15 00:00:00.000000,10.38204193,13.95341573,20.86167540,1896,2548,3810,817,1313,1837,4.47568299,7.19191443,10.06218680,0.69012244,0.87294859,1.28450966
5053,0,USArkansasGrant,Arkansas,Grant,2021-01-06 04:26:26.875329,2020-12-16 00:00:00.000000,10.73061826,14.27215276,21.20528036,1959,2606,3873,838,1356,1893,4.58994009,7.42911006,10.36823638,0.69490231,0.89762176,1.29064085
5053,0,USArkansasGrant,Arkansas,Grant,2021-01-06 04:26:26.875329,2020-12-17 00:00:00.000000,11.06385418,14.68148776,21.48751102,2020,2681,3924,860,1398,1947,4.71342163,7.65652365,10.66288950,0.68963890,0.91694178,1.29261068
5053,0,USArkansasGrant,Arkansas,Grant,2021-01-06 04:26:26.875329,2020-12-18 00:00:00.000000,11.37868144,14.99743528,21.70569431,2078,2739,3964,887,1441,1998,4.86059690,7.89127053,10.94093413,0.67086091,0.93349570,1.30422481
5053,0,USArkansasGrant,Arkansas,Grant,2021-01-06 04:26:26.875329,2020-12-19 00:00:00.000000,11.67122911,15.27990171,21.85793502,2131,2790,3992,914,1484,2045,5.00634612,8.12721188,11.19795460,0.64907718,0.94287826,1.34840843
5053,0,USArkansasGrant,Arkansas,Grant,2021-01-06 04:26:26.875329,2020-12-20 00:00:00.000000,11.98035694,15.56352166,21.94107991,2188,2842,4007,940,1526,2094,5.14846064,8.35744666,11.46815665,0.63092156,0.94989573,1.36105619
5053,0,USArkansasGrant,Arkansas,Grant,2021-01-06 04:26:26.875329,2020-12-21 00:00:00.000000,12.32338008,15.76689773,21.95408211,2250,2879,4009,965,1570,2144,5.28440714,8.59705286,11.74371249,0.61740603,0.94034890,1.36979745
5053,0,USArkansasGrant,Arkansas,Grant,2021-01-06 04:26:26.875329,2020-12-22 00:00:00.000000,12.51433108,15.88751917,21.89836197,2285,2901,3999,987,1603,2161,5.40844311,8.77756401,11.83540352,0.60720226,0.95828239,1.38211714
5053,0,USArkansasGrant,Arkansas,Grant,2021-01-06 04:26:26.875329,2020-12-23 00:00:00.000000,12.54377484,16.00591991,21.77731746,2291,2923,3977,1008,1625,2182,5.52003439,8.90058969,11.95114670,0.59661002,0.96711176,1.41301200
5053,0,USArkansasGrant,Arkansas,Grant,2021-01-06 04:26:26.875329,2020-12-24 00:00:00.000000,12.67473426,16.23052723,21.59328425,2315,2964,3944,1026,1622,2181,5.62218356,8.88370509,11.94204671,0.58118891,0.97133988,1.45939932
5053,0,USArkansasGrant,Arkansas,Grant,2021-01-06 04:26:26.875329,2020-12-25 00:00:00.000000,12.68804437,16.15372018,21.35569053,2317,2950,3900,1043,1625,2202,5.71177648,8.89937188,12.05930735,0.57080267,0.97300175,1.52398379
5053,0,USArkansasGrant,Arkansas,Grant,2021-01-06 04:26:26.875329,2020-12-26 00:00:00.000000,12.52245412,15.95352526,21.06108207,2287,2913,3846,1057,1642,2222,5.78843392,8.99324840,12.16560050,0.56637066,0.96477196,1.52512511
5053,0,USArkansasGrant,Arkansas,Grant,2021-01-06 04:26:26.875329,2020-12-27 00:00:00.000000,12.23704530,15.78449083,20.74827047,2235,2883,3789,1068,1635,2224,5.85197160,8.95237915,12.17713044,0.51063303,0.94174605,1.61908257
5053,0,USArkansasGrant,Arkansas,Grant,2021-01-06 04:26:26.875329,2020-12-28 00:00:00.000000,11.85878408,15.66233618,20.52001603,2166,2860,3747,1071,1633,2218,5.86560331,8.94293006,12.14615999,0.46114321,0.91765464,1.69619610
5053,0,USArkansasGrant,Arkansas,Grant,2021-01-06 04:26:26.875329,2020-12-29 00:00:00.000000,11.47424791,15.57474857,20.24540162,2095,2844,3697,1058,1629,2206,5.79689317,8.92212071,12.07834296,0.43398746,0.92128197,1.73718053
5053,0,USArkansasGrant,Arkansas,Grant,2021-01-06 04:26:26.875329,2020-12-30 00:00:00.000000,10.96491934,15.35639519,19.95303317,2002,2804,3644,1070,1605,2193,5.85972004,8.78764875,12.00906744,0.41795259,0.92394977,1.75211586
5053,0,USArkansasGrant,Arkansas,Grant,2021-01-06 04:26:26.875329,2020-12-31 00:00:00.000000,10.51033117,15.06271292,19.62606893,1919,2751,3584,1082,1585,2175,5.92526833,8.67979918,11.90911545,0.41436803,0.91903610,1.75046873
5053,0,USArkansasGrant,Arkansas,Grant,2021-01-06 04:26:26.875329,2021-01-01 00:00:00.000000,10.05218829,14.77415585,19.25165733,1836,2698,3516,1067,1562,2144,5.84419961,8.55210836,11.73998077,0.40096526,0.91588611,1.73824762
5053,0,USArkansasGrant,Arkansas,Grant,2021-01-06 04:26:26.875329,2021-01-02 00:00:00.000000,9.56569481,14.52267796,18.83423235,1747,2652,3440,1013,1531,2095,5.55069712,8.38391080,11.47295752,0.38690396,0.91087591,1.71901852
5053,0,USArkansasGrant,Arkansas,Grant,2021-01-06 04:26:26.875329,2021-01-03 00:00:00.000000,9.05589880,14.06032021,18.37845191,1654,2568,3356,959,1508,2055,5.25234776,8.26020693,11.25154036,0.35855151,0.93909046,1.72092208
5053,0,USArkansasGrant,Arkansas,Grant,2021-01-06 04:26:26.875329,2021-01-04 00:00:00.000000,8.55527332,13.67996306,17.88910340,1562,2498,3267,928,1471,2010,5.08208341,8.05588417,11.00670951,0.34921218,0.93908849,1.77418220
5053,0,USArkansasGrant,Arkansas,Grant,2021-01-06 04:26:26.875329,2021-01-05 00:00:00.000000,8.07629663,13.32221527,17.37101550,1475,2433,3172,899,1438,1961,4.92604179,7.87316622,10.74114048,0.34226012,0.93909024,1.90094653
5053,0,USArkansasGrant,Arkansas,Grant,2021-01-06 04:26:26.875329,2021-01-06 00:00:00.000000,7.61711030,12.87486937,16.82897794,1391,2351,3073,870,1403,1910,4.76414191,7.68486594,10.45753044,0.33719252,0.94428458,1.93890594
5053,0,USArkansasGrant,Arkansas,Grant,2021-01-06 04:26:26.875329,2021-01-07 00:00:00.000000,7.35595250,12.46972834,16.26767069,1343,2277,2971,839,1357,1855,4.59765542,7.43105774,10.15855926,0.33358329,0.94722314,1.93510278
5053,0,USArkansasGrant,Arkansas,Grant,2021-01-06 04:26:26.875329,2021-01-08 00:00:00.000000,7.13239972,12.12478392,15.71278693,1302,2214,2869,808,1320,1798,4.42779671,7.22851134,9.84685418,0.33105728,0.94602973,1.93280598
5053,0,USArkansasGrant,Arkansas,Grant,2021-01-06 04:26:26.875329,2021-01-09 00:00:00.000000,6.90886193,11.63456568,15.16004504,1261,2125,2768,768,1287,1739,4.20736075,7.04666808,9.52495871,0.33060093,0.94345223,1.93167344
5053,0,USArkansasGrant,Arkansas,Grant,2021-01-06 04:26:26.875329,2021-01-10 00:00:00.000000,6.68592872,11.14029318,14.60064669,1221,2034,2666,728,1241,1679,3.99067085,6.79585569,9.19530630,0.33057324,0.94186903,1.93112378
5053,0,USArkansasGrant,Arkansas,Grant,2021-01-06 04:26:26.875329,2021-01-11 00:00:00.000000,6.40888104,10.61565359,14.03485974,1170,1938,2563,690,1194,1618,3.78026220,6.54007198,8.86019888,0.33055419,0.94114189,1.93085912
5053,0,USArkansasGrant,Arkansas,Grant,2021-01-06 04:26:26.875329,2021-01-12 00:00:00.000000,5.97497365,10.11729036,13.47128854,1091,1847,2460,653,1147,1556,3.57666780,6.28117481,8.52179017,0.33054114,0.94080795,1.93073219
5053,0,USArkansasGrant,Arkansas,Grant,2021-01-06 04:26:26.875329,2021-01-13 00:00:00.000000,5.56724795,9.61674746,12.91301021,1016,1756,2358,617,1099,1494,3.38027453,6.02087339,8.18207371,0.33053224,0.94075823,1.93067144
5053,0,USArkansasGrant,Arkansas,Grant,2021-01-06 04:26:26.875329,2021-01-14 00:00:00.000000,5.18471888,9.12635166,12.31932160,946,1666,2250,582,1044,1432,3.19134914,5.71846115,7.84287501,0.33052619,0.94073221,1.93064240
5053,0,USArkansasGrant,Arkansas,Grant,2021-01-06 04:26:26.875329,2021-01-15 00:00:00.000000,4.82630236,8.64785310,11.82865271,881,1579,2160,549,992,1370,3.01010439,5.43131037,7.50584761,0.33052208,0.94071850,1.93062852
5053,0,USArkansasGrant,Arkansas,Grant,2021-01-06 04:26:26.875329,2021-01-16 00:00:00.000000,4.49085798,8.18271369,11.30542805,820,1494,2064,517,954,1310,2.83384890,5.22743383,7.17247245,0.33051929,0.94071128,1.93062189
5053,0,USArkansasGrant,Arkansas,Grant,2021-01-06 04:26:26.875329,2021-01-17 00:00:00.000000,4.17722036,7.71613910,10.79404798,762,1409,1971,486,908,1250,2.66620536,4.97346437,6.84406014,0.33051741,0.94070748,1.93061873
