FIPS,HR_UID,nameid,province,region,analysisTime,dates,pointprevalence_025,pointprevalence_50,pointprevalence_975,pointinfections_025,pointinfections_50,pointinfections_975,pointinfectious_025,pointinfectious_50,pointinfectious_975,pointinfectiousprevalence_05,pointinfectiousprevalence_50,pointinfectiousprevalence_95,infectrate_025,infectrate_50,infectrate_975
40031,0,USOklahomaComanche,Oklahoma,Comanche,2021-01-05 12:54:42.160871,2020-03-09 00:00:00.000000,0.00058157,0.00334538,0.00917467,0,4,11,0,2,6,0.00035911,0.00179100,0.00578308,0.45030633,0.58592258,0.79154108
40031,0,USOklahomaComanche,Oklahoma,Comanche,2021-01-05 12:54:42.160871,2020-03-10 00:00:00.000000,0.00066494,0.00392918,0.01075481,0,4,12,0,2,6,0.00034714,0.00178300,0.00558164,0.45026203,0.58592209,0.79153947
40031,0,USOklahomaComanche,Oklahoma,Comanche,2021-01-05 12:54:42.160871,2020-03-11 00:00:00.000000,0.00075074,0.00458013,0.01235048,0,5,14,0,2,6,0.00035075,0.00191766,0.00561038,0.45019893,0.58592109,0.79153506
40031,0,USOklahomaComanche,Oklahoma,Comanche,2021-01-05 12:54:42.160871,2020-03-12 00:00:00.000000,0.00084106,0.00517583,0.01402232,1,6,16,0,2,7,0.00036512,0.00212619,0.00581078,0.45011259,0.58591876,0.79152302
40031,0,USOklahomaComanche,Oklahoma,Comanche,2021-01-05 12:54:42.160871,2020-03-13 00:00:00.000000,0.00093750,0.00575004,0.01561146,1,6,18,0,2,7,0.00038736,0.00241623,0.00613468,0.45000075,0.58591241,0.79149016
40031,0,USOklahomaComanche,Oklahoma,Comanche,2021-01-05 12:54:42.160871,2020-03-14 00:00:00.000000,0.00104142,0.00636641,0.01713027,1,7,20,0,3,7,0.00042368,0.00272102,0.00655385,0.44991111,0.58589215,0.79140044
40031,0,USOklahomaComanche,Oklahoma,Comanche,2021-01-05 12:54:42.160871,2020-03-15 00:00:00.000000,0.00115404,0.00705992,0.01874619,1,8,22,0,3,8,0.00047189,0.00306198,0.00712880,0.44991473,0.58581978,0.79115571
40031,0,USOklahomaComanche,Oklahoma,Comanche,2021-01-05 12:54:42.160871,2020-03-16 00:00:00.000000,0.00171923,0.00905048,0.02236507,2,10,27,0,4,9,0.00052442,0.00343736,0.00799133,0.44992987,0.58554542,0.79048984
40031,0,USOklahomaComanche,Oklahoma,Comanche,2021-01-05 12:54:42.160871,2020-03-17 00:00:00.000000,0.00274325,0.01070967,0.02596090,3,12,31,0,4,11,0.00069862,0.00397811,0.00915078,0.44628174,0.58229214,0.78869065
40031,0,USOklahomaComanche,Oklahoma,Comanche,2021-01-05 12:54:42.160871,2020-03-18 00:00:00.000000,0.00382416,0.01239654,0.02967229,4,14,35,1,5,12,0.00103768,0.00459298,0.01060319,0.42868426,0.57999517,0.78760390
40031,0,USOklahomaComanche,Oklahoma,Comanche,2021-01-05 12:54:42.160871,2020-03-19 00:00:00.000000,0.00497647,0.01426664,0.03433896,6,17,41,1,6,14,0.00146370,0.00530806,0.01232110,0.40632661,0.57316762,0.77783670
40031,0,USOklahomaComanche,Oklahoma,Comanche,2021-01-05 12:54:42.160871,2020-03-20 00:00:00.000000,0.00612610,0.01642865,0.03922690,7,19,47,2,7,17,0.00180221,0.00622576,0.01409357,0.40318043,0.55620490,0.76486414
40031,0,USOklahomaComanche,Oklahoma,Comanche,2021-01-05 12:54:42.160871,2020-03-21 00:00:00.000000,0.00719621,0.01931189,0.04484684,8,23,54,2,9,19,0.00215925,0.00754519,0.01612531,0.39374149,0.52949931,0.72818942
40031,0,USOklahomaComanche,Oklahoma,Comanche,2021-01-05 12:54:42.160871,2020-03-22 00:00:00.000000,0.00827374,0.02205729,0.05029578,9,26,60,3,10,22,0.00253564,0.00879905,0.01888447,0.39009275,0.50538239,0.70857824
40031,0,USOklahomaComanche,Oklahoma,Comanche,2021-01-05 12:54:42.160871,2020-03-23 00:00:00.000000,0.00999229,0.02543072,0.05604422,12,30,67,3,12,26,0.00294485,0.01006212,0.02159712,0.36606450,0.49560685,0.68569863
40031,0,USOklahomaComanche,Oklahoma,Comanche,2021-01-05 12:54:42.160871,2020-03-24 00:00:00.000000,0.01173922,0.02885564,0.06167659,14,34,74,4,13,29,0.00390805,0.01134814,0.02439373,0.36270955,0.49261767,0.66868267
40031,0,USOklahomaComanche,Oklahoma,Comanche,2021-01-05 12:54:42.160871,2020-03-25 00:00:00.000000,0.01363388,0.03156283,0.06743951,16,38,81,6,15,33,0.00521158,0.01281999,0.02735309,0.33969528,0.49114974,0.66472062
40031,0,USOklahomaComanche,Oklahoma,Comanche,2021-01-05 12:54:42.160871,2020-03-26 00:00:00.000000,0.01592882,0.03421530,0.07347290,19,41,88,7,17,36,0.00646022,0.01441555,0.03048665,0.33114319,0.47189964,0.66202665
40031,0,USOklahomaComanche,Oklahoma,Comanche,2021-01-05 12:54:42.160871,2020-03-27 00:00:00.000000,0.01921992,0.03803570,0.07952966,23,45,96,9,19,40,0.00783247,0.01605832,0.03377739,0.32579940,0.44912524,0.64970703
40031,0,USOklahomaComanche,Oklahoma,Comanche,2021-01-05 12:54:42.160871,2020-03-28 00:00:00.000000,0.02149561,0.04153045,0.08529688,25,50,102,11,21,44,0.00928129,0.01785138,0.03716034,0.32224326,0.44553604,0.61242550
40031,0,USOklahomaComanche,Oklahoma,Comanche,2021-01-05 12:54:42.160871,2020-03-29 00:00:00.000000,0.02331791,0.04611715,0.09081981,28,55,109,12,23,48,0.01022692,0.01976532,0.04056250,0.31608651,0.43330818,0.60919697
40031,0,USOklahomaComanche,Oklahoma,Comanche,2021-01-05 12:54:42.160871,2020-03-30 00:00:00.000000,0.02723674,0.05124327,0.09587179,32,61,115,13,26,53,0.01115916,0.02215908,0.04396099,0.31228587,0.42850917,0.61778118
40031,0,USOklahomaComanche,Oklahoma,Comanche,2021-01-05 12:54:42.160871,2020-03-31 00:00:00.000000,0.02935689,0.05699002,0.10275317,35,68,124,15,29,57,0.01252597,0.02427777,0.04729759,0.30583975,0.42394224,0.61707434
40031,0,USOklahomaComanche,Oklahoma,Comanche,2021-01-05 12:54:42.160871,2020-04-01 00:00:00.000000,0.03160306,0.06252180,0.11046294,38,75,133,17,32,61,0.01432793,0.02685898,0.05063420,0.29521928,0.41724266,0.59866213
40031,0,USOklahomaComanche,Oklahoma,Comanche,2021-01-05 12:54:42.160871,2020-04-02 00:00:00.000000,0.03464095,0.06670770,0.11866808,41,80,143,19,35,65,0.01597805,0.02948847,0.05402193,0.27683503,0.41168078,0.59266853
40031,0,USOklahomaComanche,Oklahoma,Comanche,2021-01-05 12:54:42.160871,2020-04-03 00:00:00.000000,0.03743231,0.07208203,0.12945291,45,87,156,20,39,69,0.01712978,0.03237924,0.05749873,0.27110876,0.40487981,0.56475361
40031,0,USOklahomaComanche,Oklahoma,Comanche,2021-01-05 12:54:42.160871,2020-04-04 00:00:00.000000,0.03940523,0.07777617,0.14257990,47,93,172,21,42,73,0.01809971,0.03504091,0.06109148,0.26925958,0.40184417,0.54957886
40031,0,USOklahomaComanche,Oklahoma,Comanche,2021-01-05 12:54:42.160871,2020-04-05 00:00:00.000000,0.04145175,0.08329535,0.15375405,50,100,185,23,45,82,0.01925347,0.03784293,0.06821002,0.26875453,0.37905949,0.53703846
40031,0,USOklahomaComanche,Oklahoma,Comanche,2021-01-05 12:54:42.160871,2020-04-06 00:00:00.000000,0.04414889,0.08853700,0.16424630,53,106,198,24,48,92,0.02029662,0.04037944,0.07640184,0.26526271,0.37872469,0.57455322
40031,0,USOklahomaComanche,Oklahoma,Comanche,2021-01-05 12:54:42.160871,2020-04-07 00:00:00.000000,0.04696741,0.09425937,0.17187113,56,113,207,26,52,101,0.02155314,0.04311772,0.08370998,0.25983034,0.37672506,0.57983952
40031,0,USOklahomaComanche,Oklahoma,Comanche,2021-01-05 12:54:42.160871,2020-04-08 00:00:00.000000,0.04994690,0.09989007,0.17842029,60,120,215,27,56,109,0.02297841,0.04660708,0.09050486,0.25877357,0.36765237,0.56686679
40031,0,USOklahomaComanche,Oklahoma,Comanche,2021-01-05 12:54:42.160871,2020-04-09 00:00:00.000000,0.05307814,0.10480182,0.19456975,64,126,234,29,59,116,0.02454331,0.04944716,0.09649586,0.25813179,0.36402385,0.53867172
40031,0,USOklahomaComanche,Oklahoma,Comanche,2021-01-05 12:54:42.160871,2020-04-10 00:00:00.000000,0.05642263,0.11161426,0.20336852,68,134,245,31,63,121,0.02622940,0.05230063,0.10041719,0.25733181,0.35574294,0.51985096
40031,0,USOklahomaComanche,Oklahoma,Comanche,2021-01-05 12:54:42.160871,2020-04-11 00:00:00.000000,0.06015350,0.11743890,0.21256832,72,141,256,33,67,131,0.02802798,0.05556339,0.10859051,0.25645589,0.35750515,0.51623867
40031,0,USOklahomaComanche,Oklahoma,Comanche,2021-01-05 12:54:42.160871,2020-04-12 00:00:00.000000,0.06452060,0.12477728,0.22494426,77,150,271,36,71,140,0.02996231,0.05903120,0.11620922,0.25694551,0.36247072,0.50846183
40031,0,USOklahomaComanche,Oklahoma,Comanche,2021-01-05 12:54:42.160871,2020-04-13 00:00:00.000000,0.07268710,0.13342144,0.23548711,87,161,284,38,75,148,0.03209449,0.06236297,0.12263397,0.25654677,0.35689398,0.50050828
40031,0,USOklahomaComanche,Oklahoma,Comanche,2021-01-05 12:54:42.160871,2020-04-14 00:00:00.000000,0.07917056,0.14137277,0.24601817,95,170,297,41,79,155,0.03449693,0.06623567,0.12910475,0.25546601,0.36010153,0.49640128
40031,0,USOklahomaComanche,Oklahoma,Comanche,2021-01-05 12:54:42.160871,2020-04-15 00:00:00.000000,0.08540900,0.15141474,0.25631352,103,182,309,44,84,163,0.03714963,0.07018970,0.13557572,0.25546202,0.36443395,0.49739310
40031,0,USOklahomaComanche,Oklahoma,Comanche,2021-01-05 12:54:42.160871,2020-04-16 00:00:00.000000,0.09195128,0.15898023,0.27261750,111,191,329,48,90,172,0.04003077,0.07463127,0.14283228,0.25552294,0.36301887,0.49771004
40031,0,USOklahomaComanche,Oklahoma,Comanche,2021-01-05 12:54:42.160871,2020-04-17 00:00:00.000000,0.09875338,0.17010961,0.29014146,119,205,350,52,95,185,0.04312287,0.07873731,0.15325143,0.25487669,0.35981668,0.49768339
40031,0,USOklahomaComanche,Oklahoma,Comanche,2021-01-05 12:54:42.160871,2020-04-18 00:00:00.000000,0.10356776,0.18075596,0.30636349,125,218,369,56,99,197,0.04640659,0.08250619,0.16387215,0.25141342,0.35997822,0.49548897
40031,0,USOklahomaComanche,Oklahoma,Comanche,2021-01-05 12:54:42.160871,2020-04-19 00:00:00.000000,0.10695081,0.18820810,0.32137328,129,227,388,60,105,205,0.04985094,0.08714714,0.17024631,0.25003974,0.36016856,0.50073944
40031,0,USOklahomaComanche,Oklahoma,Comanche,2021-01-05 12:54:42.160871,2020-04-20 00:00:00.000000,0.11078450,0.19634074,0.33402940,133,237,403,63,110,212,0.05264011,0.09173313,0.17577336,0.24961114,0.35434917,0.50505732
40031,0,USOklahomaComanche,Oklahoma,Comanche,2021-01-05 12:54:42.160871,2020-04-21 00:00:00.000000,0.11447897,0.20681412,0.34689201,138,249,418,65,116,218,0.05457265,0.09668115,0.18064809,0.24885508,0.34971530,0.50679679
40031,0,USOklahomaComanche,Oklahoma,Comanche,2021-01-05 12:54:42.160871,2020-04-22 00:00:00.000000,0.12112008,0.21460440,0.36020978,146,259,434,68,121,223,0.05649430,0.10068582,0.18506489,0.24644575,0.34982546,0.50677352
40031,0,USOklahomaComanche,Oklahoma,Comanche,2021-01-05 12:54:42.160871,2020-04-23 00:00:00.000000,0.13037196,0.22536604,0.37425081,157,272,451,70,127,233,0.05838206,0.10522178,0.19349098,0.23329932,0.34637750,0.50647779
40031,0,USOklahomaComanche,Oklahoma,Comanche,2021-01-05 12:54:42.160871,2020-04-24 00:00:00.000000,0.13965596,0.23521238,0.38937516,168,284,470,75,133,251,0.06222988,0.11043436,0.20804230,0.22174921,0.34517477,0.50623214
40031,0,USOklahomaComanche,Oklahoma,Comanche,2021-01-05 12:54:42.160871,2020-04-25 00:00:00.000000,0.14482510,0.24543224,0.40672431,174,296,491,80,144,270,0.06691801,0.11945407,0.22384737,0.21926835,0.33814340,0.49051165
40031,0,USOklahomaComanche,Oklahoma,Comanche,2021-01-05 12:54:42.160871,2020-04-26 00:00:00.000000,0.15052193,0.25533911,0.43595847,181,308,526,86,153,291,0.07198288,0.12738008,0.24106905,0.22530075,0.33255086,0.44687055
40031,0,USOklahomaComanche,Oklahoma,Comanche,2021-01-05 12:54:42.160871,2020-04-27 00:00:00.000000,0.15770163,0.26890294,0.46582382,190,324,562,91,162,313,0.07563018,0.13491388,0.25983222,0.21308131,0.32849309,0.44989042
40031,0,USOklahomaComanche,Oklahoma,Comanche,2021-01-05 12:54:42.160871,2020-04-28 00:00:00.000000,0.16534627,0.28162140,0.49807684,199,340,601,95,170,327,0.07890383,0.14100324,0.27093927,0.20876800,0.32472658,0.44786152
40031,0,USOklahomaComanche,Oklahoma,Comanche,2021-01-05 12:54:42.160871,2020-04-29 00:00:00.000000,0.17359409,0.29634620,0.53189061,209,357,642,99,175,338,0.08245076,0.14561454,0.28067620,0.20850603,0.32536153,0.44762916
40031,0,USOklahomaComanche,Oklahoma,Comanche,2021-01-05 12:54:42.160871,2020-04-30 00:00:00.000000,0.18222451,0.31166212,0.56288774,220,376,679,104,185,350,0.08625911,0.15348970,0.29018443,0.20849870,0.32471253,0.44680752
40031,0,USOklahomaComanche,Oklahoma,Comanche,2021-01-05 12:54:42.160871,2020-05-01 00:00:00.000000,0.18588929,0.32818498,0.58816609,224,396,710,109,194,361,0.09036100,0.16143178,0.29951994,0.20890713,0.32169287,0.44829547
40031,0,USOklahomaComanche,Oklahoma,Comanche,2021-01-05 12:54:42.160871,2020-05-02 00:00:00.000000,0.18958182,0.33862823,0.61281244,228,408,739,114,202,372,0.09476400,0.16803253,0.30868338,0.20409317,0.31941791,0.44962190
40031,0,USOklahomaComanche,Oklahoma,Comanche,2021-01-05 12:54:42.160871,2020-05-03 00:00:00.000000,0.19818204,0.34853249,0.62759846,239,420,757,120,208,383,0.09942704,0.17295630,0.31762023,0.20440089,0.30490872,0.44987562
40031,0,USOklahomaComanche,Oklahoma,Comanche,2021-01-05 12:54:42.160871,2020-05-04 00:00:00.000000,0.20897727,0.36055096,0.64045737,252,435,773,126,215,393,0.10436371,0.17823082,0.32614701,0.20186168,0.28571400,0.44993492
40031,0,USOklahomaComanche,Oklahoma,Comanche,2021-01-05 12:54:42.160871,2020-05-05 00:00:00.000000,0.20942413,0.36584085,0.65248663,252,441,787,133,223,403,0.11052930,0.18524392,0.33433476,0.18477459,0.27671460,0.44996160
40031,0,USOklahomaComanche,Oklahoma,Comanche,2021-01-05 12:54:42.160871,2020-05-06 00:00:00.000000,0.22185929,0.37001526,0.66397108,267,446,801,141,232,413,0.11752646,0.19218938,0.34215469,0.17370835,0.27049541,0.44975701
40031,0,USOklahomaComanche,Oklahoma,Comanche,2021-01-05 12:54:42.160871,2020-05-07 00:00:00.000000,0.23676084,0.37754865,0.67492168,285,455,814,143,237,422,0.11855951,0.19635655,0.34962277,0.16737023,0.26402430,0.44655317
40031,0,USOklahomaComanche,Oklahoma,Comanche,2021-01-05 12:54:42.160871,2020-05-08 00:00:00.000000,0.25245534,0.38766743,0.68531385,304,468,827,145,244,430,0.12047503,0.20286326,0.35675205,0.16775957,0.25692148,0.40293279
40031,0,USOklahomaComanche,Oklahoma,Comanche,2021-01-05 12:54:42.160871,2020-05-09 00:00:00.000000,0.26853957,0.39806713,0.69514014,324,480,839,153,251,438,0.12688336,0.20799148,0.36354836,0.16566605,0.25358792,0.39909524
40031,0,USOklahomaComanche,Oklahoma,Comanche,2021-01-05 12:54:42.160871,2020-05-10 00:00:00.000000,0.27854710,0.40867803,0.70441151,336,493,850,160,255,446,0.13270560,0.21160854,0.37001489,0.16262395,0.24540828,0.38207851
40031,0,USOklahomaComanche,Oklahoma,Comanche,2021-01-05 12:54:42.160871,2020-05-11 00:00:00.000000,0.28141996,0.41654752,0.71240376,339,502,860,166,261,454,0.13775626,0.21671333,0.37615512,0.15362789,0.24032979,0.37927727
40031,0,USOklahomaComanche,Oklahoma,Comanche,2021-01-05 12:54:42.160871,2020-05-12 00:00:00.000000,0.27815655,0.42816471,0.71985145,335,517,869,173,266,461,0.14398247,0.22099928,0.38186686,0.14561791,0.23336521,0.36551562
40031,0,USOklahomaComanche,Oklahoma,Comanche,2021-01-05 12:54:42.160871,2020-05-13 00:00:00.000000,0.27339195,0.43528817,0.72676556,330,525,877,183,271,467,0.15165008,0.22511098,0.38717205,0.14221485,0.23036875,0.32155685
40031,0,USOklahomaComanche,Oklahoma,Comanche,2021-01-05 12:54:42.160871,2020-05-14 00:00:00.000000,0.26749757,0.43104779,0.73328792,323,520,885,184,274,487,0.15315789,0.22747066,0.40344658,0.13350511,0.22342178,0.31834007
40031,0,USOklahomaComanche,Oklahoma,Comanche,2021-01-05 12:54:42.160871,2020-05-15 00:00:00.000000,0.26096836,0.42941521,0.75553722,315,518,912,183,280,509,0.15191464,0.23221020,0.42222855,0.12077601,0.21551225,0.31434515
40031,0,USOklahomaComanche,Oklahoma,Comanche,2021-01-05 12:54:42.160871,2020-05-16 00:00:00.000000,0.25660558,0.43641691,0.78324228,309,526,945,184,285,532,0.15291670,0.23663032,0.44116256,0.10672161,0.20963889,0.29698816
40031,0,USOklahomaComanche,Oklahoma,Comanche,2021-01-05 12:54:42.160871,2020-05-17 00:00:00.000000,0.25284643,0.44431882,0.78533327,305,536,948,180,287,555,0.14955325,0.23770386,0.45971035,0.10341450,0.20610610,0.29010666
40031,0,USOklahomaComanche,Oklahoma,Comanche,2021-01-05 12:54:42.160871,2020-05-18 00:00:00.000000,0.24835288,0.44445292,0.77291136,299,536,933,175,291,575,0.14557182,0.24165956,0.47628051,0.10203704,0.20174173,0.28154344
40031,0,USOklahomaComanche,Oklahoma,Comanche,2021-01-05 12:54:42.160871,2020-05-19 00:00:00.000000,0.23815137,0.44520906,0.76852767,287,537,927,170,295,591,0.14083180,0.24476324,0.48978986,0.09495914,0.19433154,0.27169190
40031,0,USOklahomaComanche,Oklahoma,Comanche,2021-01-05 12:54:42.160871,2020-05-20 00:00:00.000000,0.22704921,0.44477553,0.77696914,274,537,938,165,297,603,0.13724316,0.24665832,0.49952893,0.09422189,0.19116463,0.27106249
40031,0,USOklahomaComanche,Oklahoma,Comanche,2021-01-05 12:54:42.160871,2020-05-21 00:00:00.000000,0.21728495,0.43805755,0.78616325,262,528,949,161,300,610,0.13361868,0.24880531,0.50586427,0.09346907,0.18835090,0.26971313
40031,0,USOklahomaComanche,Oklahoma,Comanche,2021-01-05 12:54:42.160871,2020-05-22 00:00:00.000000,0.21076139,0.43487477,0.79616211,254,525,961,154,302,615,0.12800152,0.25071783,0.50962998,0.09254250,0.18918548,0.26268835
40031,0,USOklahomaComanche,Oklahoma,Comanche,2021-01-05 12:54:42.160871,2020-05-23 00:00:00.000000,0.20497047,0.42953317,0.80503135,247,518,972,148,301,617,0.12273539,0.24981289,0.51154012,0.09207440,0.18524290,0.25486098
40031,0,USOklahomaComanche,Oklahoma,Comanche,2021-01-05 12:54:42.160871,2020-05-24 00:00:00.000000,0.20003261,0.43085144,0.80135030,241,520,967,143,301,611,0.11913253,0.24968253,0.50611641,0.09198251,0.18173658,0.24967499
40031,0,USOklahomaComanche,Oklahoma,Comanche,2021-01-05 12:54:42.160871,2020-05-25 00:00:00.000000,0.19625504,0.42525072,0.80004009,236,513,966,139,300,601,0.11585580,0.24925438,0.49826483,0.09205419,0.17756165,0.25013881
40031,0,USOklahomaComanche,Oklahoma,Comanche,2021-01-05 12:54:42.160871,2020-05-26 00:00:00.000000,0.19318892,0.42126920,0.79912361,233,508,964,136,301,591,0.11302080,0.24984097,0.49013114,0.09297958,0.18016078,0.24699278
40031,0,USOklahomaComanche,Oklahoma,Comanche,2021-01-05 12:54:42.160871,2020-05-27 00:00:00.000000,0.19075661,0.41652495,0.80866088,230,502,976,133,297,584,0.11061306,0.24676925,0.48418228,0.09338957,0.17869546,0.24700100
40031,0,USOklahomaComanche,Oklahoma,Comanche,2021-01-05 12:54:42.160871,2020-05-28 00:00:00.000000,0.18917893,0.41299098,0.81881474,228,498,988,131,294,595,0.10860419,0.24371767,0.49279250,0.09389557,0.17816163,0.24748824
40031,0,USOklahomaComanche,Oklahoma,Comanche,2021-01-05 12:54:42.160871,2020-05-29 00:00:00.000000,0.18921584,0.41121589,0.81543928,228,496,984,129,291,604,0.10702000,0.24167882,0.50085529,0.09502974,0.17869016,0.24864622
40031,0,USOklahomaComanche,Oklahoma,Comanche,2021-01-05 12:54:42.160871,2020-05-30 00:00:00.000000,0.19130072,0.41007013,0.82253434,230,495,993,128,290,606,0.10603097,0.24043430,0.50241767,0.09613448,0.17894654,0.25141594
40031,0,USOklahomaComanche,Oklahoma,Comanche,2021-01-05 12:54:42.160871,2020-05-31 00:00:00.000000,0.19463791,0.40198003,0.83050514,235,485,1002,127,287,601,0.10583644,0.23792086,0.49812226,0.09657848,0.17941088,0.25547112
40031,0,USOklahomaComanche,Oklahoma,Comanche,2021-01-05 12:54:42.160871,2020-06-01 00:00:00.000000,0.19611839,0.40110916,0.83767859,236,484,1011,128,283,595,0.10640424,0.23478984,0.49310579,0.10015957,0.17851634,0.25898569
40031,0,USOklahomaComanche,Oklahoma,Comanche,2021-01-05 12:54:42.160871,2020-06-02 00:00:00.000000,0.19390755,0.40160456,0.84149639,234,484,1016,129,282,588,0.10747796,0.23364053,0.48726113,0.10308148,0.17548618,0.26762378
40031,0,USOklahomaComanche,Oklahoma,Comanche,2021-01-05 12:54:42.160871,2020-06-03 00:00:00.000000,0.19197692,0.40115047,0.83204272,231,484,1004,127,278,590,0.10551998,0.23072281,0.48933638,0.10973960,0.17581711,0.26200448
40031,0,USOklahomaComanche,Oklahoma,Comanche,2021-01-05 12:54:42.160871,2020-06-04 00:00:00.000000,0.19028196,0.40023965,0.82078285,229,483,991,124,278,591,0.10342726,0.23097734,0.48950318,0.10963022,0.17422100,0.26384137
40031,0,USOklahomaComanche,Oklahoma,Comanche,2021-01-05 12:54:42.160871,2020-06-05 00:00:00.000000,0.18880433,0.39919074,0.80799625,227,482,975,122,276,582,0.10167141,0.22938723,0.48209677,0.10506037,0.17687408,0.27299843
40031,0,USOklahomaComanche,Oklahoma,Comanche,2021-01-05 12:54:42.160871,2020-06-06 00:00:00.000000,0.18763357,0.39898307,0.79363043,226,481,958,120,274,573,0.10018921,0.22696793,0.47505807,0.10002311,0.18207715,0.27632190
40031,0,USOklahomaComanche,Oklahoma,Comanche,2021-01-05 12:54:42.160871,2020-06-07 00:00:00.000000,0.18698364,0.39811042,0.77897747,225,480,940,119,270,569,0.09894774,0.22392948,0.47175626,0.10662748,0.18556550,0.28457252
40031,0,USOklahomaComanche,Oklahoma,Comanche,2021-01-05 12:54:42.160871,2020-06-08 00:00:00.000000,0.18215480,0.39703944,0.76765998,219,479,926,118,270,573,0.09795292,0.22360561,0.47525937,0.11043799,0.18838556,0.28311240
40031,0,USOklahomaComanche,Oklahoma,Comanche,2021-01-05 12:54:42.160871,2020-06-09 00:00:00.000000,0.17754382,0.39842311,0.77429027,214,481,934,116,271,577,0.09656660,0.22498728,0.47860051,0.11291622,0.19335030,0.28178504
40031,0,USOklahomaComanche,Oklahoma,Comanche,2021-01-05 12:54:42.160871,2020-06-10 00:00:00.000000,0.17315423,0.39903897,0.78136309,209,481,943,114,272,581,0.09491599,0.22557800,0.48183362,0.11649845,0.19860713,0.28083897
40031,0,USOklahomaComanche,Oklahoma,Comanche,2021-01-05 12:54:42.160871,2020-06-11 00:00:00.000000,0.17028305,0.40168649,0.78827803,205,485,951,112,272,585,0.09310629,0.22569581,0.48504557,0.12203445,0.20191227,0.29124528
40031,0,USOklahomaComanche,Oklahoma,Comanche,2021-01-05 12:54:42.160871,2020-06-12 00:00:00.000000,0.17516437,0.40546021,0.79435982,211,489,959,110,273,580,0.09123089,0.22674020,0.48102476,0.12951226,0.20950591,0.29054045
40031,0,USOklahomaComanche,Oklahoma,Comanche,2021-01-05 12:54:42.160871,2020-06-13 00:00:00.000000,0.18025811,0.41108510,0.79906952,217,496,964,109,274,570,0.09063703,0.22740402,0.47284395,0.13782456,0.21028267,0.28494285
40031,0,USOklahomaComanche,Oklahoma,Comanche,2021-01-05 12:54:42.160871,2020-06-14 00:00:00.000000,0.18578390,0.41307587,0.80284938,224,498,969,112,277,561,0.09303637,0.22958618,0.46477977,0.13582559,0.21755028,0.29825836
40031,0,USOklahomaComanche,Oklahoma,Comanche,2021-01-05 12:54:42.160871,2020-06-15 00:00:00.000000,0.18969835,0.41492573,0.80548753,229,501,972,115,278,551,0.09563258,0.23041512,0.45697953,0.13554399,0.22174554,0.30339696
40031,0,USOklahomaComanche,Oklahoma,Comanche,2021-01-05 12:54:42.160871,2020-06-16 00:00:00.000000,0.19494900,0.42707054,0.80920185,235,515,977,118,277,542,0.09807266,0.23002307,0.44955773,0.13643563,0.23197567,0.31470368
40031,0,USOklahomaComanche,Oklahoma,Comanche,2021-01-05 12:54:42.160871,2020-06-17 00:00:00.000000,0.20189818,0.43846852,0.81563201,243,529,984,121,281,534,0.10067997,0.23290075,0.44255140,0.13902013,0.23724029,0.31937972
40031,0,USOklahomaComanche,Oklahoma,Comanche,2021-01-05 12:54:42.160871,2020-06-18 00:00:00.000000,0.20189976,0.44219791,0.82598958,243,533,997,125,287,527,0.10368192,0.23811459,0.43685462,0.14481204,0.24525601,0.31969139
40031,0,USOklahomaComanche,Oklahoma,Comanche,2021-01-05 12:54:42.160871,2020-06-19 00:00:00.000000,0.20101439,0.44710251,0.83955841,242,539,1013,129,294,529,0.10723177,0.24399621,0.43834968,0.15051338,0.24812369,0.32488703
40031,0,USOklahomaComanche,Oklahoma,Comanche,2021-01-05 12:54:42.160871,2020-06-20 00:00:00.000000,0.20026065,0.45662743,0.85487824,241,551,1032,134,301,534,0.11131459,0.24965423,0.44295453,0.15035956,0.25231692,0.33264749
40031,0,USOklahomaComanche,Oklahoma,Comanche,2021-01-05 12:54:42.160871,2020-06-21 00:00:00.000000,0.19973096,0.46909812,0.87110406,241,566,1051,136,305,541,0.11302482,0.25337628,0.44865143,0.15004535,0.26016980,0.34646637
40031,0,USOklahomaComanche,Oklahoma,Comanche,2021-01-05 12:54:42.160871,2020-06-22 00:00:00.000000,0.20787905,0.47543959,0.89014206,251,574,1074,137,309,549,0.11350791,0.25622640,0.45526254,0.14962531,0.26472918,0.35105260
40031,0,USOklahomaComanche,Oklahoma,Comanche,2021-01-05 12:54:42.160871,2020-06-23 00:00:00.000000,0.21693064,0.49066294,0.90956345,261,592,1098,138,311,559,0.11445629,0.25787899,0.46295948,0.15614860,0.27394971,0.36657687
40031,0,USOklahomaComanche,Oklahoma,Comanche,2021-01-05 12:54:42.160871,2020-06-24 00:00:00.000000,0.22681849,0.50456202,0.92916640,273,609,1121,139,314,569,0.11571256,0.26050685,0.47148835,0.16827991,0.27862823,0.37453571
40031,0,USOklahomaComanche,Oklahoma,Comanche,2021-01-05 12:54:42.160871,2020-06-25 00:00:00.000000,0.23346780,0.51653843,0.93960213,281,623,1134,141,323,580,0.11717729,0.26778685,0.48063134,0.18480702,0.27906251,0.38241835
40031,0,USOklahomaComanche,Oklahoma,Comanche,2021-01-05 12:54:42.160871,2020-06-26 00:00:00.000000,0.23698151,0.52329152,0.94462327,286,631,1140,143,332,591,0.11879454,0.27528376,0.49016908,0.19991490,0.28060598,0.39004888
40031,0,USOklahomaComanche,Oklahoma,Comanche,2021-01-05 12:54:42.160871,2020-06-27 00:00:00.000000,0.24078964,0.53809021,0.94503103,290,649,1141,147,339,603,0.12201739,0.28091712,0.49984122,0.18527699,0.29768498,0.39681146
40031,0,USOklahomaComanche,Oklahoma,Comanche,2021-01-05 12:54:42.160871,2020-06-28 00:00:00.000000,0.24501688,0.55189649,0.94239372,295,666,1137,150,349,617,0.12479880,0.28909848,0.51107788,0.19343914,0.30078387,0.40281196
40031,0,USOklahomaComanche,Oklahoma,Comanche,2021-01-05 12:54:42.160871,2020-06-29 00:00:00.000000,0.25086626,0.56484283,0.94107115,302,682,1136,155,358,626,0.12844724,0.29688937,0.51887773,0.20194563,0.30167971,0.40649032
40031,0,USOklahomaComanche,Oklahoma,Comanche,2021-01-05 12:54:42.160871,2020-06-30 00:00:00.000000,0.25725865,0.57818892,0.94963174,310,698,1146,160,368,637,0.13309853,0.30492259,0.52801002,0.20894388,0.30711391,0.39261589
40031,0,USOklahomaComanche,Oklahoma,Comanche,2021-01-05 12:54:42.160871,2020-07-01 00:00:00.000000,0.26418329,0.58740859,0.98957288,318,709,1194,167,377,648,0.13876464,0.31290271,0.53678503,0.21310884,0.31119377,0.39935808
40031,0,USOklahomaComanche,Oklahoma,Comanche,2021-01-05 12:54:42.160871,2020-07-02 00:00:00.000000,0.27926559,0.60019682,1.03111004,337,724,1245,176,386,665,0.14581971,0.32006404,0.55115509,0.21535032,0.31447367,0.42386205
40031,0,USOklahomaComanche,Oklahoma,Comanche,2021-01-05 12:54:42.160871,2020-07-03 00:00:00.000000,0.29823607,0.62010095,1.07405428,360,748,1296,186,395,694,0.15410823,0.32753784,0.57541168,0.21611484,0.31836153,0.44360371
40031,0,USOklahomaComanche,Oklahoma,Comanche,2021-01-05 12:54:42.160871,2020-07-04 00:00:00.000000,0.31834868,0.64341048,1.09045497,384,776,1316,197,406,721,0.16347601,0.33691800,0.59792891,0.21483277,0.32048907,0.44715273
40031,0,USOklahomaComanche,Oklahoma,Comanche,2021-01-05 12:54:42.160871,2020-07-05 00:00:00.000000,0.33966587,0.66660943,1.11418724,410,804,1345,209,417,740,0.17380453,0.34596391,0.61360185,0.22899298,0.32705120,0.44801399
40031,0,USOklahomaComanche,Oklahoma,Comanche,2021-01-05 12:54:42.160871,2020-07-06 00:00:00.000000,0.35907844,0.69541197,1.15328665,433,839,1392,223,427,759,0.18502577,0.35409463,0.62859560,0.21967483,0.33123258,0.44980071
40031,0,USOklahomaComanche,Oklahoma,Comanche,2021-01-05 12:54:42.160871,2020-07-07 00:00:00.000000,0.37971143,0.72113098,1.19245385,458,870,1439,237,446,775,0.19649593,0.37000418,0.64234127,0.22763656,0.33122237,0.46786653
40031,0,USOklahomaComanche,Oklahoma,Comanche,2021-01-05 12:54:42.160871,2020-07-08 00:00:00.000000,0.40144662,0.75222923,1.23054652,484,908,1485,248,462,789,0.20588972,0.38298699,0.65405555,0.23369375,0.33381435,0.46783316
40031,0,USOklahomaComanche,Oklahoma,Comanche,2021-01-05 12:54:42.160871,2020-07-09 00:00:00.000000,0.42420379,0.77624351,1.28627869,512,937,1553,260,478,828,0.21553126,0.39600185,0.68591099,0.23444832,0.33802822,0.46645235
40031,0,USOklahomaComanche,Oklahoma,Comanche,2021-01-05 12:54:42.160871,2020-07-10 00:00:00.000000,0.44807321,0.80732730,1.36221381,541,974,1644,272,499,871,0.22576198,0.41376650,0.72191935,0.23867732,0.33598628,0.47599504
40031,0,USOklahomaComanche,Oklahoma,Comanche,2021-01-05 12:54:42.160871,2020-07-11 00:00:00.000000,0.46976106,0.83143323,1.43950126,567,1003,1738,285,524,890,0.23642558,0.43416392,0.73762850,0.24640344,0.33232088,0.47943431
40031,0,USOklahomaComanche,Oklahoma,Comanche,2021-01-05 12:54:42.160871,2020-07-12 00:00:00.000000,0.49011677,0.86129180,1.47830056,591,1040,1785,298,537,910,0.24736422,0.44534720,0.75406779,0.24942285,0.33070959,0.47827648
40031,0,USOklahomaComanche,Oklahoma,Comanche,2021-01-05 12:54:42.160871,2020-07-13 00:00:00.000000,0.50651082,0.89139745,1.51964692,611,1076,1834,312,554,961,0.25849212,0.45931267,0.79607986,0.23230534,0.32714955,0.47306030
40031,0,USOklahomaComanche,Oklahoma,Comanche,2021-01-05 12:54:42.160871,2020-07-14 00:00:00.000000,0.53994748,0.92155837,1.59534587,651,1112,1926,324,575,1019,0.26904500,0.47652984,0.84444284,0.22721190,0.32481370,0.47885730
40031,0,USOklahomaComanche,Oklahoma,Comanche,2021-01-05 12:54:42.160871,2020-07-15 00:00:00.000000,0.56516898,0.95098404,1.66780715,682,1148,2013,337,596,1078,0.27932567,0.49428754,0.89279426,0.22629687,0.31922096,0.47715530
40031,0,USOklahomaComanche,Oklahoma,Comanche,2021-01-05 12:54:42.160871,2020-07-16 00:00:00.000000,0.58752398,0.97463293,1.73789737,709,1176,2098,349,619,1135,0.28965742,0.51307312,0.94055838,0.23075469,0.31761006,0.47285421
40031,0,USOklahomaComanche,Oklahoma,Comanche,2021-01-05 12:54:42.160871,2020-07-17 00:00:00.000000,0.60999680,0.99623508,1.80503124,736,1202,2179,362,637,1192,0.30022363,0.52783928,0.98747338,0.22751325,0.31668627,0.46615666
40031,0,USOklahomaComanche,Oklahoma,Comanche,2021-01-05 12:54:42.160871,2020-07-18 00:00:00.000000,0.63234222,1.01791384,1.86754301,763,1229,2255,376,654,1247,0.31141015,0.54238756,1.03325111,0.22176185,0.31795277,0.44876804
40031,0,USOklahomaComanche,Oklahoma,Comanche,2021-01-05 12:54:42.160871,2020-07-19 00:00:00.000000,0.65402819,1.04548230,1.92492286,789,1262,2324,390,675,1300,0.32358626,0.55946002,1.07739083,0.22408976,0.31457507,0.45712684
40031,0,USOklahomaComanche,Oklahoma,Comanche,2021-01-05 12:54:42.160871,2020-07-20 00:00:00.000000,0.67458344,1.08471678,1.97857079,814,1309,2389,406,690,1351,0.33690429,0.57187554,1.11943727,0.22011939,0.31654195,0.45562738
40031,0,USOklahomaComanche,Oklahoma,Comanche,2021-01-05 12:54:42.160871,2020-07-21 00:00:00.000000,0.69334562,1.12850757,2.02968919,837,1362,2450,431,716,1399,0.35725221,0.59346377,1.15930623,0.21720474,0.31394210,0.45458741
40031,0,USOklahomaComanche,Oklahoma,Comanche,2021-01-05 12:54:42.160871,2020-07-22 00:00:00.000000,0.72075026,1.17738294,2.07798886,870,1421,2509,446,737,1445,0.36980054,0.61093407,1.19715265,0.21527758,0.31187692,0.44883613
40031,0,USOklahomaComanche,Oklahoma,Comanche,2021-01-05 12:54:42.160871,2020-07-23 00:00:00.000000,0.75287456,1.23241548,2.12178151,909,1488,2562,462,758,1488,0.38336693,0.62847619,1.23298275,0.21494023,0.30918704,0.45441260
40031,0,USOklahomaComanche,Oklahoma,Comanche,2021-01-05 12:54:42.160871,2020-07-24 00:00:00.000000,0.78187080,1.27977231,2.15976730,944,1545,2607,482,780,1529,0.39929843,0.64630080,1.26642380,0.21565409,0.31123109,0.45455781
40031,0,USOklahomaComanche,Oklahoma,Comanche,2021-01-05 12:54:42.160871,2020-07-25 00:00:00.000000,0.80984565,1.32420063,2.19283241,977,1598,2647,503,802,1566,0.41699000,0.66438621,1.29726272,0.21809366,0.31116093,0.45649387
40031,0,USOklahomaComanche,Oklahoma,Comanche,2021-01-05 12:54:42.160871,2020-07-26 00:00:00.000000,0.84022631,1.38276302,2.22329112,1014,1669,2684,525,822,1600,0.43530749,0.68146888,1.32540235,0.22466011,0.31172636,0.45506109
40031,0,USOklahomaComanche,Oklahoma,Comanche,2021-01-05 12:54:42.160871,2020-07-27 00:00:00.000000,0.87305533,1.43189001,2.31018757,1054,1728,2789,548,845,1631,0.45388675,0.69987243,1.35112685,0.22064213,0.30856467,0.45847707
40031,0,USOklahomaComanche,Oklahoma,Comanche,2021-01-05 12:54:42.160871,2020-07-28 00:00:00.000000,0.89959495,1.47246669,2.41394990,1086,1777,2914,560,875,1660,0.46451812,0.72520645,1.37512762,0.20504271,0.30808872,0.46120908
40031,0,USOklahomaComanche,Oklahoma,Comanche,2021-01-05 12:54:42.160871,2020-07-29 00:00:00.000000,0.91159719,1.52148366,2.48791432,1100,1837,3004,580,908,1687,0.48096109,0.75271642,1.39782416,0.20587371,0.30844183,0.46179355
40031,0,USOklahomaComanche,Oklahoma,Comanche,2021-01-05 12:54:42.160871,2020-07-30 00:00:00.000000,0.92390037,1.57220499,2.49395382,1115,1898,3011,602,940,1714,0.49924634,0.77890749,1.41962137,0.21432508,0.30756105,0.46197277
40031,0,USOklahomaComanche,Oklahoma,Comanche,2021-01-05 12:54:42.160871,2020-07-31 00:00:00.000000,0.93701626,1.60590764,2.51043075,1131,1939,3031,626,969,1739,0.51851056,0.80263278,1.44094614,0.20968032,0.30685174,0.46171062
40031,0,USOklahomaComanche,Oklahoma,Comanche,2021-01-05 12:54:42.160871,2020-08-01 00:00:00.000000,0.95115208,1.65863818,2.53874125,1148,2002,3065,647,1013,1778,0.53601873,0.83969820,1.47304604,0.21365016,0.31046303,0.47684929
40031,0,USOklahomaComanche,Oklahoma,Comanche,2021-01-05 12:54:42.160871,2020-08-02 00:00:00.000000,0.96638455,1.72606146,2.57514612,1166,2084,3109,651,1042,1831,0.53980765,0.86300164,1.51663597,0.21641695,0.31196143,0.48909364
40031,0,USOklahomaComanche,Oklahoma,Comanche,2021-01-05 12:54:42.160871,2020-08-03 00:00:00.000000,0.98426870,1.76838070,2.63035311,1188,2135,3176,656,1069,1882,0.54336179,0.88536124,1.55867886,0.21540789,0.31179775,0.49228566
40031,0,USOklahomaComanche,Oklahoma,Comanche,2021-01-05 12:54:42.160871,2020-08-04 00:00:00.000000,1.00319552,1.83195992,2.68819452,1211,2212,3245,661,1107,1931,0.54758617,0.91682039,1.59975739,0.21525768,0.31319831,0.49159075
40031,0,USOklahomaComanche,Oklahoma,Comanche,2021-01-05 12:54:42.160871,2020-08-05 00:00:00.000000,1.02323395,1.88392326,2.72414421,1235,2274,3289,669,1143,1960,0.55472454,0.94720958,1.62345178,0.21994439,0.31343960,0.48499160
40031,0,USOklahomaComanche,Oklahoma,Comanche,2021-01-05 12:54:42.160871,2020-08-06 00:00:00.000000,1.04490470,1.97147084,2.76531406,1261,2380,3339,688,1177,1999,0.57014670,0.97491417,1.65626803,0.22907359,0.31966523,0.46236407
40031,0,USOklahomaComanche,Oklahoma,Comanche,2021-01-05 12:54:42.160871,2020-08-07 00:00:00.000000,1.07082494,2.03812076,2.88812604,1293,2461,3487,710,1227,2034,0.58805683,1.01685537,1.68505639,0.22629526,0.32119318,0.44127804
40031,0,USOklahomaComanche,Oklahoma,Comanche,2021-01-05 12:54:42.160871,2020-08-08 00:00:00.000000,1.10693390,2.09138841,3.02126299,1336,2525,3648,735,1279,2068,0.60876838,1.05991552,1.71335078,0.22643978,0.32056471,0.40481338
40031,0,USOklahomaComanche,Oklahoma,Comanche,2021-01-05 12:54:42.160871,2020-08-09 00:00:00.000000,1.15812675,2.13374708,3.15978797,1398,2576,3815,763,1323,2140,0.63225685,1.09605868,1.77237001,0.22987809,0.31884397,0.39105292
40031,0,USOklahomaComanche,Oklahoma,Comanche,2021-01-05 12:54:42.160871,2020-08-10 00:00:00.000000,1.21391811,2.17465781,3.31049791,1465,2625,3997,794,1380,2184,0.65808627,1.14288887,1.80907669,0.23603770,0.31807475,0.39020431
40031,0,USOklahomaComanche,Oklahoma,Comanche,2021-01-05 12:54:42.160871,2020-08-11 00:00:00.000000,1.27177283,2.20190749,3.46738892,1535,2658,4186,809,1434,2227,0.67008546,1.18791963,1.84435752,0.22187790,0.31823519,0.38707884
40031,0,USOklahomaComanche,Oklahoma,Comanche,2021-01-05 12:54:42.160871,2020-08-12 00:00:00.000000,1.30946817,2.23574840,3.63037374,1581,2699,4383,820,1473,2268,0.67919230,1.22003070,1.87834499,0.21769938,0.31581460,0.38376353
40031,0,USOklahomaComanche,Oklahoma,Comanche,2021-01-05 12:54:42.160871,2020-08-13 00:00:00.000000,1.34473588,2.28949953,3.74734787,1623,2764,4524,829,1508,2323,0.68697742,1.24902107,1.92412281,0.19445580,0.31263013,0.39059557
40031,0,USOklahomaComanche,Oklahoma,Comanche,2021-01-05 12:54:42.160871,2020-08-14 00:00:00.000000,1.37755146,2.34419331,3.82655505,1663,2830,4620,837,1532,2386,0.69358176,1.26882135,1.97605547,0.19439144,0.30310156,0.38617835
40031,0,USOklahomaComanche,Oklahoma,Comanche,2021-01-05 12:54:42.160871,2020-08-15 00:00:00.000000,1.40636908,2.40929292,3.89185381,1698,2909,4699,850,1564,2449,0.70471699,1.29571636,2.02853952,0.19417248,0.29379332,0.37730605
40031,0,USOklahomaComanche,Oklahoma,Comanche,2021-01-05 12:54:42.160871,2020-08-16 00:00:00.000000,1.44922909,2.43465059,3.93761574,1749,2939,4754,871,1594,2512,0.72138240,1.32013896,2.08111913,0.18787456,0.28124655,0.37259387
40031,0,USOklahomaComanche,Oklahoma,Comanche,2021-01-05 12:54:42.160871,2020-08-17 00:00:00.000000,1.47489108,2.47984054,3.96107197,1780,2994,4782,889,1630,2576,0.73646979,1.35043975,2.13355613,0.17870146,0.27551589,0.37209067
40031,0,USOklahomaComanche,Oklahoma,Comanche,2021-01-05 12:54:42.160871,2020-08-18 00:00:00.000000,1.47128626,2.51649258,3.96056378,1776,3038,4782,905,1651,2669,0.75013112,1.36797036,2.21088630,0.17858307,0.26431643,0.37063401
40031,0,USOklahomaComanche,Oklahoma,Comanche,2021-01-05 12:54:42.160871,2020-08-19 00:00:00.000000,1.48776896,2.56056014,3.93868478,1796,3091,4755,920,1677,2726,0.76242550,1.38906734,2.25794521,0.17032715,0.25573602,0.36485251
40031,0,USOklahomaComanche,Oklahoma,Comanche,2021-01-05 12:54:42.160871,2020-08-20 00:00:00.000000,1.49318083,2.57945271,3.89810814,1803,3114,4706,933,1696,2764,0.77343681,1.40503513,2.28948782,0.16596050,0.24138976,0.34408496
40031,0,USOklahomaComanche,Oklahoma,Comanche,2021-01-05 12:54:42.160871,2020-08-21 00:00:00.000000,1.47938690,2.58650481,3.90641265,1786,3123,4716,945,1706,2821,0.78281142,1.41292294,2.33695588,0.15852266,0.22809299,0.31914087
40031,0,USOklahomaComanche,Oklahoma,Comanche,2021-01-05 12:54:42.160871,2020-08-22 00:00:00.000000,1.46107169,2.56179504,3.89796652,1764,3093,4706,952,1723,2868,0.78923145,1.42757589,2.37557437,0.15092739,0.21565083,0.30074979
40031,0,USOklahomaComanche,Oklahoma,Comanche,2021-01-05 12:54:42.160871,2020-08-23 00:00:00.000000,1.44084173,2.52292852,3.85488037,1739,3046,4654,953,1722,2897,0.79005740,1.42618141,2.39923225,0.14356536,0.20261606,0.27979242
40031,0,USOklahomaComanche,Oklahoma,Comanche,2021-01-05 12:54:42.160871,2020-08-24 00:00:00.000000,1.41199512,2.50105073,3.79214248,1704,3019,4578,947,1728,2894,0.78433409,1.43144789,2.39711210,0.13581313,0.18994700,0.27247985
40031,0,USOklahomaComanche,Oklahoma,Comanche,2021-01-05 12:54:42.160871,2020-08-25 00:00:00.000000,1.39965125,2.47580414,3.72005125,1690,2989,4491,933,1723,2892,0.77285888,1.42706454,2.39562289,0.13122865,0.18443220,0.27176252
40031,0,USOklahomaComanche,Oklahoma,Comanche,2021-01-05 12:54:42.160871,2020-08-26 00:00:00.000000,1.38156943,2.43826849,3.64374709,1668,2944,4399,914,1713,2869,0.75725820,1.41897876,2.37606344,0.12944851,0.18099387,0.27012626
40031,0,USOklahomaComanche,Oklahoma,Comanche,2021-01-05 12:54:42.160871,2020-08-27 00:00:00.000000,1.36308501,2.39294602,3.56577287,1645,2889,4305,892,1689,2833,0.73891353,1.39929825,2.34624296,0.12919411,0.17823294,0.24835332
40031,0,USOklahomaComanche,Oklahoma,Comanche,2021-01-05 12:54:42.160871,2020-08-28 00:00:00.000000,1.34502738,2.34936622,3.52223976,1624,2836,4253,868,1664,2789,0.71886030,1.37845459,2.30980118,0.13002744,0.17601364,0.23817510
40031,0,USOklahomaComanche,Oklahoma,Comanche,2021-01-05 12:54:42.160871,2020-08-29 00:00:00.000000,1.32728904,2.30186950,3.49665691,1602,2779,4222,842,1638,2740,0.69784452,1.35681761,2.26925196,0.12963694,0.17273853,0.23852521
40031,0,USOklahomaComanche,Oklahoma,Comanche,2021-01-05 12:54:42.160871,2020-08-30 00:00:00.000000,1.30983489,2.26331894,3.45878580,1581,2732,4176,816,1611,2689,0.67639800,1.33469021,2.22736967,0.12685131,0.17221716,0.23866164
40031,0,USOklahomaComanche,Oklahoma,Comanche,2021-01-05 12:54:42.160871,2020-08-31 00:00:00.000000,1.28440687,2.22920370,3.41425214,1550,2691,4122,791,1593,2639,0.65528021,1.31994182,2.18614246,0.12285229,0.17059142,0.23880088
40031,0,USOklahomaComanche,Oklahoma,Comanche,2021-01-05 12:54:42.160871,2020-09-01 00:00:00.000000,1.24419731,2.21100718,3.37457321,1502,2669,4074,775,1575,2614,0.64249160,1.30478659,2.16520669,0.12058691,0.16893938,0.23909343
40031,0,USOklahomaComanche,Oklahoma,Comanche,2021-01-05 12:54:42.160871,2020-09-02 00:00:00.000000,1.20536406,2.18608113,3.33340948,1455,2639,4025,765,1564,2593,0.63357333,1.29582876,2.14800204,0.11875678,0.16976426,0.23968863
40031,0,USOklahomaComanche,Oklahoma,Comanche,2021-01-05 12:54:42.160871,2020-09-03 00:00:00.000000,1.16792961,2.15016669,3.29136691,1410,2596,3974,755,1536,2570,0.62566800,1.27206380,2.12868753,0.11819920,0.16980898,0.24004038
40031,0,USOklahomaComanche,Oklahoma,Comanche,2021-01-05 12:54:42.160871,2020-09-04 00:00:00.000000,1.13203324,2.10641007,3.24828986,1366,2543,3922,745,1513,2544,0.61744780,1.25364461,2.10766730,0.11738787,0.17264458,0.23977089
40031,0,USOklahomaComanche,Oklahoma,Comanche,2021-01-05 12:54:42.160871,2020-09-05 00:00:00.000000,1.11235178,2.07964588,3.20364183,1343,2511,3868,735,1488,2517,0.60898257,1.23303452,2.08520834,0.12012018,0.17438047,0.23842469
40031,0,USOklahomaComanche,Oklahoma,Comanche,2021-01-05 12:54:42.160871,2020-09-06 00:00:00.000000,1.09304563,2.06605383,3.15682391,1319,2494,3811,724,1454,2489,0.60031690,1.20466182,2.06141179,0.12407502,0.17469973,0.23760618
40031,0,USOklahomaComanche,Oklahoma,Comanche,2021-01-05 12:54:42.160871,2020-09-07 00:00:00.000000,1.07392301,2.04683958,3.10489187,1296,2471,3749,714,1434,2458,0.59147820,1.18800213,2.03619926,0.12404615,0.17471534,0.24343353
40031,0,USOklahomaComanche,Oklahoma,Comanche,2021-01-05 12:54:42.160871,2020-09-08 00:00:00.000000,1.05522892,2.02591939,3.05155703,1274,2446,3684,703,1427,2417,0.58243912,1.18218167,2.00170466,0.12605339,0.17934005,0.24483344
40031,0,USOklahomaComanche,Oklahoma,Comanche,2021-01-05 12:54:42.160871,2020-09-09 00:00:00.000000,1.03704110,2.01082979,3.00688977,1252,2428,3630,692,1422,2386,0.57322474,1.17832431,1.97662848,0.13240297,0.17995441,0.24615306
40031,0,USOklahomaComanche,Oklahoma,Comanche,2021-01-05 12:54:42.160871,2020-09-10 00:00:00.000000,1.01275340,1.99778169,2.99162354,1222,2412,3612,680,1404,2356,0.56386488,1.16325416,1.95169528,0.13640586,0.18516743,0.25659565
40031,0,USOklahomaComanche,Oklahoma,Comanche,2021-01-05 12:54:42.160871,2020-09-11 00:00:00.000000,0.99276308,1.97839888,2.97682940,1198,2388,3594,669,1388,2321,0.55443321,1.14967799,1.92224265,0.14215528,0.18828490,0.27552638
40031,0,USOklahomaComanche,Oklahoma,Comanche,2021-01-05 12:54:42.160871,2020-09-12 00:00:00.000000,0.98495038,1.96175960,2.96219181,1189,2368,3576,655,1377,2287,0.54287689,1.14075538,1.89432694,0.14370216,0.19289703,0.28513990
40031,0,USOklahomaComanche,Oklahoma,Comanche,2021-01-05 12:54:42.160871,2020-09-13 00:00:00.000000,0.96826131,1.94000767,2.94755962,1169,2342,3559,639,1367,2256,0.52936102,1.13258028,1.86859549,0.14346169,0.19573418,0.28924442
40031,0,USOklahomaComanche,Oklahoma,Comanche,2021-01-05 12:54:42.160871,2020-09-14 00:00:00.000000,0.95200017,1.91850153,2.93106593,1149,2316,3539,624,1351,2227,0.51701094,1.11927485,1.84473336,0.14364136,0.20076265,0.29258342
40031,0,USOklahomaComanche,Oklahoma,Comanche,2021-01-05 12:54:42.160871,2020-09-15 00:00:00.000000,0.93646657,1.89752649,2.91455621,1130,2291,3519,610,1329,2200,0.50570285,1.10096061,1.82239369,0.14360604,0.20575462,0.30081352
40031,0,USOklahomaComanche,Oklahoma,Comanche,2021-01-05 12:54:42.160871,2020-09-16 00:00:00.000000,0.92213082,1.87307647,2.89816397,1113,2261,3499,598,1316,2174,0.49540176,1.09011583,1.80121562,0.14359732,0.21045234,0.30411619
40031,0,USOklahomaComanche,Oklahoma,Comanche,2021-01-05 12:54:42.160871,2020-09-17 00:00:00.000000,0.91029514,1.86370967,2.88233829,1099,2250,3480,587,1306,2150,0.48654361,1.08216921,1.78092641,0.14371406,0.21835538,0.31426208
40031,0,USOklahomaComanche,Oklahoma,Comanche,2021-01-05 12:54:42.160871,2020-09-18 00:00:00.000000,0.90335927,1.86025822,2.86794789,1090,2246,3463,578,1287,2126,0.47930469,1.06600390,1.76129952,0.14472879,0.22625925,0.33416282
40031,0,USOklahomaComanche,Oklahoma,Comanche,2021-01-05 12:54:42.160871,2020-09-19 00:00:00.000000,0.90251867,1.86374424,2.85669512,1089,2250,3449,572,1268,2103,0.47380134,1.05022508,1.74221146,0.15186275,0.23487548,0.34525559
40031,0,USOklahomaComanche,Oklahoma,Comanche,2021-01-05 12:54:42.160871,2020-09-20 00:00:00.000000,0.90584364,1.87214840,2.86431106,1093,2260,3458,567,1255,2081,0.47006843,1.03999007,1.72368609,0.16690964,0.24498542,0.34913625
40031,0,USOklahomaComanche,Oklahoma,Comanche,2021-01-05 12:54:42.160871,2020-09-21 00:00:00.000000,0.91152164,1.89351949,2.90620147,1100,2286,3509,566,1253,2061,0.46877388,1.03842013,1.70685274,0.17254098,0.25095020,0.35197355
40031,0,USOklahomaComanche,Oklahoma,Comanche,2021-01-05 12:54:42.160871,2020-09-22 00:00:00.000000,0.91923486,1.91201304,2.94962505,1109,2308,3561,566,1249,2071,0.46928505,1.03446846,1.71564185,0.18205324,0.25462363,0.35360026
40031,0,USOklahomaComanche,Oklahoma,Comanche,2021-01-05 12:54:42.160871,2020-09-23 00:00:00.000000,0.92903613,1.90925564,2.99371595,1121,2305,3614,569,1257,2098,0.47130879,1.04141105,1.73794092,0.18679680,0.25864159,0.35729258
40031,0,USOklahomaComanche,Oklahoma,Comanche,2021-01-05 12:54:42.160871,2020-09-24 00:00:00.000000,0.94060582,1.90098856,3.03811834,1135,2295,3668,573,1270,2126,0.47476502,1.05253345,1.76147190,0.19205517,0.26165619,0.36821477
40031,0,USOklahomaComanche,Oklahoma,Comanche,2021-01-05 12:54:42.160871,2020-09-25 00:00:00.000000,0.95335495,1.89894789,3.08256570,1151,2292,3722,578,1281,2156,0.47932836,1.06109397,1.78594707,0.19269958,0.26964924,0.37240925
40031,0,USOklahomaComanche,Oklahoma,Comanche,2021-01-05 12:54:42.160871,2020-09-26 00:00:00.000000,0.96680479,1.90635355,3.12643115,1167,2301,3775,586,1282,2186,0.48559471,1.06173289,1.81109905,0.19009091,0.27440142,0.39129311
40031,0,USOklahomaComanche,Oklahoma,Comanche,2021-01-05 12:54:42.160871,2020-09-27 00:00:00.000000,0.98066927,1.93073996,3.16780007,1184,2331,3825,595,1277,2217,0.49310857,1.05810858,1.83648094,0.20255362,0.28200557,0.39759203
40031,0,USOklahomaComanche,Oklahoma,Comanche,2021-01-05 12:54:42.160871,2020-09-28 00:00:00.000000,0.99572771,1.96187682,3.20487329,1202,2368,3869,604,1296,2236,0.50076539,1.07357123,1.85220565,0.20077863,0.29020875,0.40161761
40031,0,USOklahomaComanche,Oklahoma,Comanche,2021-01-05 12:54:42.160871,2020-09-29 00:00:00.000000,1.01575558,2.01782414,3.22628827,1226,2436,3895,614,1323,2248,0.50856099,1.09607016,1.86214812,0.20342144,0.29646623,0.40382783
40031,0,USOklahomaComanche,Oklahoma,Comanche,2021-01-05 12:54:42.160871,2020-09-30 00:00:00.000000,1.03499566,2.05886534,3.23092771,1249,2486,3901,623,1352,2263,0.51646551,1.11994061,1.87417759,0.20374549,0.29788521,0.40539710
40031,0,USOklahomaComanche,Oklahoma,Comanche,2021-01-05 12:54:42.160871,2020-10-01 00:00:00.000000,1.05515418,2.12951034,3.33113233,1274,2571,4022,633,1369,2279,0.52446551,1.13410051,1.88786470,0.20570569,0.29891818,0.40373051
40031,0,USOklahomaComanche,Oklahoma,Comanche,2021-01-05 12:54:42.160871,2020-10-02 00:00:00.000000,1.07732295,2.17999418,3.47052934,1300,2632,4190,643,1396,2326,0.53256150,1.15641660,1.92687124,0.20577250,0.30195742,0.40681895
40031,0,USOklahomaComanche,Oklahoma,Comanche,2021-01-05 12:54:42.160871,2020-10-03 00:00:00.000000,1.10392178,2.25067993,3.52997034,1332,2717,4262,652,1433,2340,0.54077790,1.18721352,1.93834428,0.20931645,0.30681319,0.44280524
40031,0,USOklahomaComanche,Oklahoma,Comanche,2021-01-05 12:54:42.160871,2020-10-04 00:00:00.000000,1.13542476,2.32208125,3.56008306,1371,2803,4298,663,1460,2344,0.54918539,1.20928174,1.94150518,0.22075105,0.31539303,0.44307248
40031,0,USOklahomaComanche,Oklahoma,Comanche,2021-01-05 12:54:42.160871,2020-10-05 00:00:00.000000,1.16829406,2.38463953,3.58604713,1410,2879,4330,673,1489,2357,0.55792639,1.23342298,1.95205294,0.22658354,0.32406827,0.44295366
40031,0,USOklahomaComanche,Oklahoma,Comanche,2021-01-05 12:54:42.160871,2020-10-06 00:00:00.000000,1.20270952,2.43453065,3.61106592,1452,2939,4360,684,1529,2380,0.56728150,1.26683350,1.97116501,0.22934983,0.32947099,0.44259195
40031,0,USOklahomaComanche,Oklahoma,Comanche,2021-01-05 12:54:42.160871,2020-10-07 00:00:00.000000,1.23877693,2.46954324,3.66438074,1495,2981,4424,699,1562,2407,0.57955256,1.29419226,1.99412773,0.23300436,0.33354249,0.44178639
40031,0,USOklahomaComanche,Oklahoma,Comanche,2021-01-05 12:54:42.160871,2020-10-08 00:00:00.000000,1.27776748,2.50444953,3.72914692,1542,3024,4502,722,1605,2440,0.59850205,1.32988865,2.02113795,0.24092851,0.33626278,0.44563243
40031,0,USOklahomaComanche,Oklahoma,Comanche,2021-01-05 12:54:42.160871,2020-10-09 00:00:00.000000,1.31997999,2.55409883,3.80113227,1593,3084,4589,749,1672,2485,0.62089748,1.38487982,2.05865298,0.25533738,0.33854862,0.44614942
40031,0,USOklahomaComanche,Oklahoma,Comanche,2021-01-05 12:54:42.160871,2020-10-10 00:00:00.000000,1.36402194,2.63299093,3.87603634,1647,3179,4680,780,1723,2564,0.64633564,1.42747249,2.12351585,0.25995337,0.34218315,0.44286150
40031,0,USOklahomaComanche,Oklahoma,Comanche,2021-01-05 12:54:42.160871,2020-10-11 00:00:00.000000,1.40950931,2.71104990,3.95195833,1701,3273,4771,814,1753,2646,0.67446875,1.45178533,2.19159986,0.25519246,0.34965457,0.46037161
40031,0,USOklahomaComanche,Oklahoma,Comanche,2021-01-05 12:54:42.160871,2020-10-12 00:00:00.000000,1.45580828,2.79815005,4.14289100,1757,3378,5002,851,1774,2731,0.70502661,1.46949962,2.26232016,0.25586136,0.35619072,0.47920631
40031,0,USOklahomaComanche,Oklahoma,Comanche,2021-01-05 12:54:42.160871,2020-10-13 00:00:00.000000,1.50345699,2.90650759,4.34237360,1815,3509,5243,891,1831,2794,0.73857221,1.51708513,2.31438998,0.25927905,0.36518454,0.48024390
40031,0,USOklahomaComanche,Oklahoma,Comanche,2021-01-05 12:54:42.160871,2020-10-14 00:00:00.000000,1.55242769,3.00258760,4.54211193,1874,3625,5484,935,1878,2858,0.77477485,1.55595655,2.36736020,0.26140278,0.37200749,0.47885123
40031,0,USOklahomaComanche,Oklahoma,Comanche,2021-01-05 12:54:42.160871,2020-10-15 00:00:00.000000,1.60272525,3.08194713,4.73766793,1935,3721,5720,982,1961,2954,0.81342007,1.62417947,2.44648170,0.26492696,0.37416404,0.49355188
40031,0,USOklahomaComanche,Oklahoma,Comanche,2021-01-05 12:54:42.160871,2020-10-16 00:00:00.000000,1.65435985,3.15400783,4.90502205,1997,3808,5922,1014,2032,3092,0.84023907,1.68297333,2.56141076,0.27334989,0.38513619,0.50701355
40031,0,USOklahomaComanche,Oklahoma,Comanche,2021-01-05 12:54:42.160871,2020-10-17 00:00:00.000000,1.70734702,3.26512883,5.05145615,2061,3942,6099,1047,2088,3185,0.86743925,1.72987409,2.63793307,0.27180942,0.39646906,0.53361213
40031,0,USOklahomaComanche,Oklahoma,Comanche,2021-01-05 12:54:42.160871,2020-10-18 00:00:00.000000,1.77879891,3.36357762,5.21510609,2147,4061,6297,1081,2146,3270,0.89539196,1.77790318,2.70855983,0.26432139,0.39781169,0.53850716
40031,0,USOklahomaComanche,Oklahoma,Comanche,2021-01-05 12:54:42.160871,2020-10-19 00:00:00.000000,1.87135996,3.48283170,5.39156261,2259,4205,6510,1115,2216,3343,0.92409972,1.83549578,2.76856997,0.26355803,0.39960104,0.53967298
40031,0,USOklahomaComanche,Oklahoma,Comanche,2021-01-05 12:54:42.160871,2020-10-20 00:00:00.000000,1.97100195,3.62060975,5.57613966,2379,4371,6733,1151,2285,3403,0.95375150,1.89278272,2.81830232,0.26199677,0.39921906,0.55940298
40031,0,USOklahomaComanche,Oklahoma,Comanche,2021-01-05 12:54:42.160871,2020-10-21 00:00:00.000000,2.07708787,3.72370438,5.79338936,2508,4496,6995,1188,2355,3453,0.98433636,1.95099400,2.86016723,0.26266254,0.40207372,0.55973086
40031,0,USOklahomaComanche,Oklahoma,Comanche,2021-01-05 12:54:42.160871,2020-10-22 00:00:00.000000,2.16110377,3.85880235,6.01354114,2609,4659,7261,1235,2432,3561,1.02309762,2.01469073,2.94982322,0.27005127,0.40985591,0.55970524
40031,0,USOklahomaComanche,Oklahoma,Comanche,2021-01-05 12:54:42.160871,2020-10-23 00:00:00.000000,2.22764475,3.99963037,6.20537617,2689,4829,7492,1298,2519,3695,1.07540387,2.08628329,3.06007967,0.27012900,0.41219811,0.55949991
40031,0,USOklahomaComanche,Oklahoma,Comanche,2021-01-05 12:54:42.160871,2020-10-24 00:00:00.000000,2.29352173,4.14314101,6.45737586,2769,5002,7797,1337,2599,3840,1.10768441,2.15272718,3.18086965,0.27355080,0.41624236,0.55874009
40031,0,USOklahomaComanche,Oklahoma,Comanche,2021-01-05 12:54:42.160871,2020-10-25 00:00:00.000000,2.37063332,4.30987244,6.72782922,2862,5204,8123,1377,2684,3993,1.14072637,2.22336277,3.30703813,0.28552446,0.42116395,0.55726158
40031,0,USOklahomaComanche,Oklahoma,Comanche,2021-01-05 12:54:42.160871,2020-10-26 00:00:00.000000,2.47476003,4.47354382,7.01410448,2988,5401,8469,1420,2791,4153,1.17645160,2.31218328,3.43988912,0.31118378,0.43048662,0.57180376
40031,0,USOklahomaComanche,Oklahoma,Comanche,2021-01-05 12:54:42.160871,2020-10-27 00:00:00.000000,2.54347037,4.62929250,7.44120620,3071,5589,8985,1483,2904,4366,1.22860606,2.40502309,3.61583195,0.32413893,0.44057123,0.59599515
40031,0,USOklahomaComanche,Oklahoma,Comanche,2021-01-05 12:54:42.160871,2020-10-28 00:00:00.000000,2.67039072,4.81722099,7.82876111,3224,5816,9453,1559,3000,4613,1.29122664,2.48465082,3.82080573,0.33101907,0.44248795,0.60987089
40031,0,USOklahomaComanche,Oklahoma,Comanche,2021-01-05 12:54:42.160871,2020-10-29 00:00:00.000000,2.81680457,5.02082273,8.12495791,3401,6062,9810,1641,3120,4872,1.35980980,2.58460567,4.03482161,0.34273362,0.44463319,0.61262595
40031,0,USOklahomaComanche,Oklahoma,Comanche,2021-01-05 12:54:42.160871,2020-10-30 00:00:00.000000,2.96677237,5.23528714,8.41476799,3582,6321,10160,1730,3244,5141,1.43343854,2.68696899,4.25773852,0.34756749,0.44517210,0.61108583
40031,0,USOklahomaComanche,Oklahoma,Comanche,2021-01-05 12:54:42.160871,2020-10-31 00:00:00.000000,3.11672278,5.45641430,8.68978252,3763,6588,10492,1824,3375,5420,1.51101849,2.79580612,4.48916455,0.34850890,0.45189007,0.60682904
40031,0,USOklahomaComanche,Oklahoma,Comanche,2021-01-05 12:54:42.160871,2020-11-01 00:00:00.000000,3.26558836,5.68337207,8.94748297,3943,6862,10803,1882,3511,5708,1.55893750,2.90820734,4.72772171,0.35350013,0.46279209,0.60638539
40031,0,USOklahomaComanche,Oklahoma,Comanche,2021-01-05 12:54:42.160871,2020-11-02 00:00:00.000000,3.37288557,5.87485408,9.20215081,4072,7093,11111,1934,3633,5905,1.60180593,3.00931494,4.89105853,0.35343413,0.46315234,0.63861802
40031,0,USOklahomaComanche,Oklahoma,Comanche,2021-01-05 12:54:42.160871,2020-11-03 00:00:00.000000,3.50728778,6.12220183,9.53133133,4235,7392,11508,1990,3763,6105,1.64861132,3.11692276,5.05643935,0.34771061,0.46322614,0.66237205
40031,0,USOklahomaComanche,Oklahoma,Comanche,2021-01-05 12:54:42.160871,2020-11-04 00:00:00.000000,3.66665367,6.39177503,9.86115568,4427,7718,11907,2055,3938,6317,1.70245073,3.26166466,5.23186495,0.34122398,0.45880993,0.66016460
40031,0,USOklahomaComanche,Oklahoma,Comanche,2021-01-05 12:54:42.160871,2020-11-05 00:00:00.000000,3.84258664,6.60681493,10.20091467,4639,7977,12317,2131,4135,6540,1.76518217,3.42453885,5.41622403,0.33979410,0.45659708,0.64022211
40031,0,USOklahomaComanche,Oklahoma,Comanche,2021-01-05 12:54:42.160871,2020-11-06 00:00:00.000000,4.00587521,6.93294897,10.55748919,4837,8371,12748,2217,4329,6783,1.83675908,3.58530280,5.61817434,0.33858366,0.45225539,0.62077909
40031,0,USOklahomaComanche,Oklahoma,Comanche,2021-01-05 12:54:42.160871,2020-11-07 00:00:00.000000,4.13504690,7.28791119,10.94108256,4993,8800,13211,2314,4487,7117,1.91656152,3.71598495,5.89486596,0.33437563,0.44520634,0.60143229
40031,0,USOklahomaComanche,Oklahoma,Comanche,2021-01-05 12:54:42.160871,2020-11-08 00:00:00.000000,4.26235525,7.59525908,11.36213147,5146,9171,13719,2419,4640,7308,2.00406705,3.84322009,6.05263739,0.32957560,0.43916479,0.61003136
40031,0,USOklahomaComanche,Oklahoma,Comanche,2021-01-05 12:54:42.160871,2020-11-09 00:00:00.000000,4.39236365,7.88252170,11.82207227,5303,9518,14275,2533,4840,7462,2.09851157,4.00880149,6.18041617,0.32336750,0.43208863,0.61294196
40031,0,USOklahomaComanche,Oklahoma,Comanche,2021-01-05 12:54:42.160871,2020-11-10 00:00:00.000000,4.52320876,8.09686555,12.31693534,5461,9776,14872,2654,5006,7657,2.19861140,4.14644973,6.34155954,0.31600113,0.42563054,0.61264350
40031,0,USOklahomaComanche,Oklahoma,Comanche,2021-01-05 12:54:42.160871,2020-11-11 00:00:00.000000,4.65511794,8.34258638,12.49714916,5621,10073,15090,2780,5190,7854,2.30274933,4.29879139,6.50471972,0.31206591,0.42264436,0.60982503
40031,0,USOklahomaComanche,Oklahoma,Comanche,2021-01-05 12:54:42.160871,2020-11-12 00:00:00.000000,4.78794809,8.57837973,12.63524420,5781,10358,15256,2908,5390,8150,2.40857719,4.46451851,6.74992487,0.30878020,0.41674659,0.60361180
40031,0,USOklahomaComanche,Oklahoma,Comanche,2021-01-05 12:54:42.160871,2020-11-13 00:00:00.000000,4.92139735,8.82637413,12.80479945,5942,10657,15461,3034,5600,8430,2.51328260,4.63803567,6.98166946,0.30667801,0.41221875,0.59219240
40031,0,USOklahomaComanche,Oklahoma,Comanche,2021-01-05 12:54:42.160871,2020-11-14 00:00:00.000000,5.05499333,9.08349652,13.14888194,6103,10968,15877,3135,5829,8684,2.59678951,4.82792375,7.19243360,0.30085852,0.40125238,0.57412634
40031,0,USOklahomaComanche,Oklahoma,Comanche,2021-01-05 12:54:42.160871,2020-11-15 00:00:00.000000,5.13881008,9.32145616,13.49954513,6205,11255,16300,3224,6019,8914,2.67042601,4.98525227,7.38269000,0.29988244,0.39035512,0.55082522
40031,0,USOklahomaComanche,Oklahoma,Comanche,2021-01-05 12:54:42.160871,2020-11-16 00:00:00.000000,5.17257532,9.53495621,13.85446100,6245,11513,16729,3269,6185,9122,2.70753328,5.12233114,7.55466565,0.28480450,0.38210868,0.53531146
40031,0,USOklahomaComanche,Oklahoma,Comanche,2021-01-05 12:54:42.160871,2020-11-17 00:00:00.000000,5.20399218,9.70099658,14.20818640,6283,11713,17156,3295,6330,9309,2.72928156,5.24285058,7.70993039,0.27308144,0.37740560,0.52585246
40031,0,USOklahomaComanche,Oklahoma,Comanche,2021-01-05 12:54:42.160871,2020-11-18 00:00:00.000000,5.23291524,9.77971019,14.55631974,6318,11808,17576,3347,6454,9527,2.77253383,5.34540084,7.89073911,0.26464836,0.37273476,0.51137483
40031,0,USOklahomaComanche,Oklahoma,Comanche,2021-01-05 12:54:42.160871,2020-11-19 00:00:00.000000,5.25940633,9.84512574,14.89521167,6350,11887,17985,3407,6561,9747,2.82208051,5.43391287,8.07270067,0.25611645,0.36532356,0.50830042
40031,0,USOklahomaComanche,Oklahoma,Comanche,2021-01-05 12:54:42.160871,2020-11-20 00:00:00.000000,5.28362499,9.91670966,15.22127304,6379,11974,18379,3454,6618,9948,2.86082252,5.48106935,8.23890567,0.24859693,0.36169339,0.50580947
40031,0,USOklahomaComanche,Oklahoma,Comanche,2021-01-05 12:54:42.160871,2020-11-21 00:00:00.000000,5.30573488,9.99558537,15.52570549,6406,12069,18747,3489,6738,10115,2.88947273,5.58084928,8.37743529,0.24265424,0.35564616,0.50229351
40031,0,USOklahomaComanche,Oklahoma,Comanche,2021-01-05 12:54:42.160871,2020-11-22 00:00:00.000000,5.32029201,10.09007057,15.77743315,6424,12183,19051,3512,6857,10223,2.90931317,5.67945681,8.46673298,0.23129378,0.34766584,0.48562324
40031,0,USOklahomaComanche,Oklahoma,Comanche,2021-01-05 12:54:42.160871,2020-11-23 00:00:00.000000,5.28300692,10.13163655,15.93647265,6379,12233,19243,3528,6935,10380,2.92182020,5.74397270,8.59650339,0.22965851,0.34680638,0.47894898
40031,0,USOklahomaComanche,Oklahoma,Comanche,2021-01-05 12:54:42.160871,2020-11-24 00:00:00.000000,5.23811682,10.13297983,16.02001412,6324,12235,19344,3535,7017,10534,2.92822310,5.81125463,8.72423422,0.22993637,0.33970218,0.46750532
40031,0,USOklahomaComanche,Oklahoma,Comanche,2021-01-05 12:54:42.160871,2020-11-25 00:00:00.000000,5.19461417,10.12240610,16.07439056,6272,12222,19409,3538,7056,10684,2.93009914,5.84378065,8.84810974,0.23264711,0.33499598,0.46409195
40031,0,USOklahomaComanche,Oklahoma,Comanche,2021-01-05 12:54:42.160871,2020-11-26 00:00:00.000000,5.15682602,10.04491524,15.97028896,6226,12129,19283,3536,7073,10826,2.92919363,5.85795327,8.96634204,0.23410763,0.33324793,0.46537865
40031,0,USOklahomaComanche,Oklahoma,Comanche,2021-01-05 12:54:42.160871,2020-11-27 00:00:00.000000,5.13036746,10.00879596,15.84289115,6194,12085,19130,3534,7084,10955,2.92750240,5.86718561,9.07288135,0.23572537,0.33475479,0.45941653
40031,0,USOklahomaComanche,Oklahoma,Comanche,2021-01-05 12:54:42.160871,2020-11-28 00:00:00.000000,5.12042357,9.97451219,15.72689365,6182,12044,18990,3534,7059,11040,2.92686412,5.84668915,9.14306646,0.23844421,0.33597439,0.45381649
40031,0,USOklahomaComanche,Oklahoma,Comanche,2021-01-05 12:54:42.160871,2020-11-29 00:00:00.000000,5.12908993,9.87873072,15.62898279,6193,11928,18871,3535,7059,11108,2.92820189,5.84668814,9.19954885,0.23787014,0.33524539,0.45893264
40031,0,USOklahomaComanche,Oklahoma,Comanche,2021-01-05 12:54:42.160871,2020-11-30 00:00:00.000000,5.15594771,9.81612291,15.55117806,6225,11852,18777,3539,7014,11159,2.93147278,5.80904554,9.24169150,0.23425056,0.33539036,0.48505923
40031,0,USOklahomaComanche,Oklahoma,Comanche,2021-01-05 12:54:42.160871,2020-12-01 00:00:00.000000,5.19583138,9.73780751,15.49420534,6273,11758,18709,3545,6908,11193,2.93653208,5.72101372,9.27027483,0.22752178,0.32447603,0.50183668
40031,0,USOklahomaComanche,Oklahoma,Comanche,2021-01-05 12:54:42.160871,2020-12-02 00:00:00.000000,5.24598298,9.63939935,15.45818336,6334,11639,18665,3553,6805,11211,2.94262790,5.63619064,9.28504251,0.22809557,0.32348459,0.52057789
40031,0,USOklahomaComanche,Oklahoma,Comanche,2021-01-05 12:54:42.160871,2020-12-03 00:00:00.000000,5.30497485,9.56289203,15.44407101,6405,11547,18648,3560,6761,11177,2.94907247,5.59945256,9.25690555,0.23691891,0.32740669,0.54837033
40031,0,USOklahomaComanche,Oklahoma,Comanche,2021-01-05 12:54:42.160871,2020-12-04 00:00:00.000000,5.37175705,9.47955475,15.45090661,6486,11446,18656,3568,6676,11066,2.95526298,5.52915583,9.16451598,0.23671243,0.33424721,0.55896840
40031,0,USOklahomaComanche,Oklahoma,Comanche,2021-01-05 12:54:42.160871,2020-12-05 00:00:00.000000,5.44467054,9.42205840,15.47318809,6574,11377,18683,3574,6587,10937,2.96066417,5.45529060,9.05805081,0.23857482,0.34410739,0.55855695
40031,0,USOklahomaComanche,Oklahoma,Comanche,2021-01-05 12:54:42.160871,2020-12-06 00:00:00.000000,5.52141491,9.33363802,15.50200869,6667,11270,18718,3579,6513,10979,2.96479524,5.39420614,9.09313955,0.24879431,0.34945059,0.55753295
40031,0,USOklahomaComanche,Oklahoma,Comanche,2021-01-05 12:54:42.160871,2020-12-07 00:00:00.000000,5.59749358,9.23583295,15.52684181,6758,11152,18748,3582,6455,11066,2.96724553,5.34620598,9.16497174,0.24648416,0.35182533,0.55539876
40031,0,USOklahomaComanche,Oklahoma,Comanche,2021-01-05 12:54:42.160871,2020-12-08 00:00:00.000000,5.66218942,9.17868927,15.47235110,6837,11083,18682,3584,6401,11049,2.96815487,5.30112127,9.15091184,0.24456740,0.35876847,0.55165804
40031,0,USOklahomaComanche,Oklahoma,Comanche,2021-01-05 12:54:42.160871,2020-12-09 00:00:00.000000,5.63312522,9.17225502,15.31655463,6801,11075,18494,3585,6353,10986,2.96921301,5.26148106,9.09859749,0.24382247,0.36549683,0.54807226
40031,0,USOklahomaComanche,Oklahoma,Comanche,2021-01-05 12:54:42.160871,2020-12-10 00:00:00.000000,5.60461929,9.19122900,15.14580491,6767,11098,18288,3631,6350,10913,3.00755011,5.25956749,9.03800564,0.24505155,0.37000340,0.55922897
40031,0,USOklahomaComanche,Oklahoma,Comanche,2021-01-05 12:54:42.160871,2020-12-11 00:00:00.000000,5.60982515,9.14293558,14.96106301,6773,11040,18065,3647,6355,10830,3.02033210,5.26317551,8.96953919,0.24928226,0.37938449,0.57842801
40031,0,USOklahomaComanche,Oklahoma,Comanche,2021-01-05 12:54:42.160871,2020-12-12 00:00:00.000000,5.63404761,9.08831794,14.76386188,6803,10974,17827,3619,6366,10739,2.99791769,5.27280091,8.89382854,0.25739480,0.39096413,0.59701606
40031,0,USOklahomaComanche,Oklahoma,Comanche,2021-01-05 12:54:42.160871,2020-12-13 00:00:00.000000,5.61381014,9.10110085,14.55636031,6778,10989,17576,3594,6400,10638,2.97716179,5.30061906,8.81068076,0.26902086,0.39768404,0.62805618
40031,0,USOklahomaComanche,Oklahoma,Comanche,2021-01-05 12:54:42.160871,2020-12-14 00:00:00.000000,5.63729773,9.10644606,14.33885462,6806,10995,17314,3573,6449,10544,2.95954054,5.34120276,8.73269345,0.27504590,0.40996595,0.66605406
40031,0,USOklahomaComanche,Oklahoma,Comanche,2021-01-05 12:54:42.160871,2020-12-15 00:00:00.000000,5.67754260,9.14197514,14.11155384,6855,11038,17039,3567,6506,10494,2.95468678,5.38882056,8.69086732,0.28903898,0.42196749,0.70895923
40031,0,USOklahomaComanche,Oklahoma,Comanche,2021-01-05 12:54:42.160871,2020-12-16 00:00:00.000000,5.71854280,9.18152078,14.02711136,6905,11086,16937,3578,6499,10495,2.96354608,5.38294774,8.69180592,0.28929381,0.42517856,0.74905115
40031,0,USOklahomaComanche,Oklahoma,Comanche,2021-01-05 12:54:42.160871,2020-12-17 00:00:00.000000,5.75865386,9.32844634,14.00678490,6953,11264,16913,3594,6473,10533,2.97722611,5.36102364,8.72363056,0.28991237,0.42640778,0.78359204
40031,0,USOklahomaComanche,Oklahoma,Comanche,2021-01-05 12:54:42.160871,2020-12-18 00:00:00.000000,5.79613250,9.47065227,14.14085428,6998,11435,17074,3616,6510,10595,2.99490348,5.39162386,8.77484534,0.29206830,0.42664132,0.81208315
40031,0,USOklahomaComanche,Oklahoma,Comanche,2021-01-05 12:54:42.160871,2020-12-19 00:00:00.000000,5.72403542,9.53537427,14.27185137,6911,11513,17233,3601,6511,10531,2.98223428,5.39271325,8.72151985,0.29401672,0.43262936,0.82961796
40031,0,USOklahomaComanche,Oklahoma,Comanche,2021-01-05 12:54:42.160871,2020-12-20 00:00:00.000000,5.64513833,9.60252990,14.08681989,6816,11594,17009,3618,6530,10521,2.99663910,5.40829085,8.71372065,0.30813503,0.44665183,0.83569708
40031,0,USOklahomaComanche,Oklahoma,Comanche,2021-01-05 12:54:42.160871,2020-12-21 00:00:00.000000,5.56465042,9.63390852,13.77539560,6719,11632,16633,3637,6558,10480,3.01251623,5.43139662,8.67998223,0.30351549,0.45615414,0.83940040
40031,0,USOklahomaComanche,Oklahoma,Comanche,2021-01-05 12:54:42.160871,2020-12-22 00:00:00.000000,5.48519381,9.61743541,13.69260851,6623,11612,16533,3659,6588,10404,3.03043711,5.45595912,8.61659473,0.30307530,0.46554348,0.84351090
40031,0,USOklahomaComanche,Oklahoma,Comanche,2021-01-05 12:54:42.160871,2020-12-23 00:00:00.000000,5.53183619,9.68508720,13.66516837,6679,11694,16500,3614,6650,10300,2.99350369,5.50744925,8.53091261,0.31341698,0.47248716,0.85423804
40031,0,USOklahomaComanche,Oklahoma,Comanche,2021-01-05 12:54:42.160871,2020-12-24 00:00:00.000000,5.60085811,9.76967954,13.69890915,6762,11796,16541,3565,6730,10188,2.95249525,5.57399376,8.43751400,0.32208031,0.49306498,0.89035496
40031,0,USOklahomaComanche,Oklahoma,Comanche,2021-01-05 12:54:42.160871,2020-12-25 00:00:00.000000,5.67340400,9.74381750,13.72447409,6850,11765,16572,3514,6737,10105,2.91047060,5.57960703,8.36905388,0.32862144,0.50038010,0.89990424
40031,0,USOklahomaComanche,Oklahoma,Comanche,2021-01-05 12:54:42.160871,2020-12-26 00:00:00.000000,5.72036138,9.74923422,13.73834034,6907,11772,16588,3462,6790,10133,2.86777464,5.62394455,8.39243493,0.33545338,0.50018722,0.90388390
40031,0,USOklahomaComanche,Oklahoma,Comanche,2021-01-05 12:54:42.160871,2020-12-27 00:00:00.000000,5.73382741,9.73690291,13.68295003,6923,11757,16522,3410,6758,10156,2.82478966,5.59734923,8.41095629,0.33885886,0.50791692,0.89908566
40031,0,USOklahomaComanche,Oklahoma,Comanche,2021-01-05 12:54:42.160871,2020-12-28 00:00:00.000000,5.77456350,9.71423653,13.46439950,6972,11729,16258,3359,6770,10172,2.78204138,5.60716627,8.42486547,0.33813323,0.51176461,0.87566749
40031,0,USOklahomaComanche,Oklahoma,Comanche,2021-01-05 12:54:42.160871,2020-12-29 00:00:00.000000,5.78102015,9.74940330,13.45896010,6980,11772,16251,3320,6789,10181,2.74973366,5.62296082,8.43170350,0.33806266,0.52308591,0.84144748
40031,0,USOklahomaComanche,Oklahoma,Comanche,2021-01-05 12:54:42.160871,2020-12-30 00:00:00.000000,5.66332174,9.86614043,13.43740145,6838,11913,16225,3335,6806,10178,2.76221646,5.63722902,8.42943393,0.32390657,0.53278271,0.87617842
40031,0,USOklahomaComanche,Oklahoma,Comanche,2021-01-05 12:54:42.160871,2020-12-31 00:00:00.000000,5.54322559,9.89328218,13.39693398,6693,11946,16176,3368,6827,10162,2.79008090,5.65406433,8.41638182,0.32038985,0.54625374,0.90782797
40031,0,USOklahomaComanche,Oklahoma,Comanche,2021-01-05 12:54:42.160871,2021-01-01 00:00:00.000000,5.65208156,9.90994090,13.33614469,6824,11966,16103,3421,6828,10132,2.83380631,5.65530546,8.39145206,0.32673855,0.54793678,0.93426728
40031,0,USOklahomaComanche,Oklahoma,Comanche,2021-01-05 12:54:42.160871,2021-01-02 00:00:00.000000,5.56441385,9.87376703,13.25405156,6718,11922,16004,3487,6850,10087,2.88794669,5.67295419,8.35424974,0.30832240,0.54040512,0.95416072
40031,0,USOklahomaComanche,Oklahoma,Comanche,2021-01-05 12:54:42.160871,2021-01-03 00:00:00.000000,5.46436981,9.76455364,13.19963074,6598,11790,15938,3560,6795,10028,2.94847543,5.62796522,8.30510124,0.30735113,0.53176834,0.96656919
40031,0,USOklahomaComanche,Oklahoma,Comanche,2021-01-05 12:54:42.160871,2021-01-04 00:00:00.000000,5.35985378,9.59552771,13.06197848,6471,11586,15772,3632,6768,9955,3.00858210,5.60545370,8.24490314,0.28483573,0.52289117,0.99485348
40031,0,USOklahomaComanche,Oklahoma,Comanche,2021-01-05 12:54:42.160871,2021-01-05 00:00:00.000000,5.25255613,9.36230970,13.08972227,6342,11304,15805,3636,6721,9870,3.01188872,5.56685284,8.17472399,0.27776122,0.52470765,1.05341960
40031,0,USOklahomaComanche,Oklahoma,Comanche,2021-01-05 12:54:42.160871,2021-01-06 00:00:00.000000,5.14360906,9.09321627,13.42134691,6210,10979,16206,3570,6661,9774,2.95679121,5.51642032,8.09529060,0.27764140,0.52153934,1.06579301
40031,0,USOklahomaComanche,Oklahoma,Comanche,2021-01-05 12:54:42.160871,2021-01-07 00:00:00.000000,5.03369440,9.00167076,13.72803092,6078,10869,16576,3501,6648,9668,2.89998506,5.50576604,8.00671076,0.27759922,0.51036206,1.06777080
40031,0,USOklahomaComanche,Oklahoma,Comanche,2021-01-05 12:54:42.160871,2021-01-08 00:00:00.000000,4.92378462,8.97353081,13.67266145,5945,10835,16509,3431,6532,9742,2.84193713,5.40998562,8.06826344,0.27758266,0.50989647,1.06807428
40031,0,USOklahomaComanche,Oklahoma,Comanche,2021-01-05 12:54:42.160871,2021-01-09 00:00:00.000000,4.81569994,8.83474262,13.66993571,5814,10667,16506,3360,6423,9858,2.78302312,5.32012086,8.16405913,0.27757564,0.50962666,1.06812055
40031,0,USOklahomaComanche,Oklahoma,Comanche,2021-01-05 12:54:42.160871,2021-01-10 00:00:00.000000,4.70756848,8.84533377,13.90168026,5684,10680,16786,3288,6295,9974,2.72353660,5.21337592,8.26041710,0.27757246,0.50956736,1.06812760
40031,0,USOklahomaComanche,Oklahoma,Comanche,2021-01-05 12:54:42.160871,2021-01-11 00:00:00.000000,4.59958986,8.71844909,14.18705556,5553,10527,17130,3216,6196,10085,2.66370756,5.13195747,8.35238037,0.27757093,0.50956485,1.06812868
40031,0,USOklahomaComanche,Oklahoma,Comanche,2021-01-05 12:54:42.160871,2021-01-12 00:00:00.000000,4.49194047,8.60778621,14.44439895,5423,10393,17441,3144,6085,10105,2.60455641,5.03980778,8.36931746,0.27757017,0.50956409,1.06812884
40031,0,USOklahomaComanche,Oklahoma,Comanche,2021-01-05 12:54:42.160871,2021-01-13 00:00:00.000000,4.38477943,8.44046393,14.67160972,5294,10191,17715,3074,6085,9933,2.54588308,5.03955134,8.22643760,0.27756976,0.50956385,1.06812886
40031,0,USOklahomaComanche,Oklahoma,Comanche,2021-01-05 12:54:42.160871,2021-01-14 00:00:00.000000,4.34005284,8.26123808,14.86681599,5240,9975,17951,2985,6034,9939,2.47228099,4.99778555,8.23141357,0.27756955,0.50956378,1.06812887
40031,0,USOklahomaComanche,Oklahoma,Comanche,2021-01-05 12:54:42.160871,2021-01-15 00:00:00.000000,4.30505885,8.14252946,15.02841512,5198,9832,18146,2893,5918,10027,2.39643615,4.90134792,8.30422404,0.27756943,0.50956376,1.06812887
40031,0,USOklahomaComanche,Oklahoma,Comanche,2021-01-05 12:54:42.160871,2021-01-16 00:00:00.000000,4.16515264,7.98736084,15.15225018,5029,9644,18296,2811,5755,10093,2.32850970,4.76687807,8.35873058,0.27756937,0.50956376,1.06812887
40031,0,USOklahomaComanche,Oklahoma,Comanche,2021-01-05 12:54:42.160871,2021-01-17 00:00:00.000000,4.02876523,7.77330896,15.23898918,4864,9386,18400,2789,5626,10133,2.31020660,4.65942905,8.39194109,0.27756933,0.50956376,1.06812887
