FIPS,HR_UID,nameid,province,region,analysisTime,dates,pointprevalence_025,pointprevalence_50,pointprevalence_975,pointinfections_025,pointinfections_50,pointinfections_975,pointinfectious_025,pointinfectious_50,pointinfectious_975,pointinfectiousprevalence_05,pointinfectiousprevalence_50,pointinfectiousprevalence_95,infectrate_025,infectrate_50,infectrate_975
6045,0,USCaliforniaMendocino,California,Mendocino,2021-01-06 03:49:41.365276,2020-03-09 00:00:00.000000,0.00226096,0.00653167,0.01479605,1,5,12,0,2,6,0.00065245,0.00273923,0.00740004,0.39222897,0.49718117,0.65714044
6045,0,USCaliforniaMendocino,California,Mendocino,2021-01-06 03:49:41.365276,2020-03-10 00:00:00.000000,0.00313510,0.00845842,0.01756472,2,7,15,0,2,6,0.00082642,0.00284980,0.00758774,0.39220588,0.49717604,0.65532027
6045,0,USCaliforniaMendocino,California,Mendocino,2021-01-06 03:49:41.365276,2020-03-11 00:00:00.000000,0.00382476,0.01048930,0.02028576,3,9,17,0,2,7,0.00105759,0.00330922,0.00887027,0.39216772,0.49716049,0.65532004
6045,0,USCaliforniaMendocino,California,Mendocino,2021-01-06 03:49:41.365276,2020-03-12 00:00:00.000000,0.00463679,0.01221432,0.02323481,4,10,20,1,3,8,0.00129860,0.00400546,0.00967547,0.39210371,0.49711317,0.65531902
6045,0,USCaliforniaMendocino,California,Mendocino,2021-01-06 03:49:41.365276,2020-03-13 00:00:00.000000,0.00548366,0.01418645,0.02676291,4,12,23,1,4,9,0.00165677,0.00467957,0.01051370,0.39199176,0.49696881,0.65531377
6045,0,USCaliforniaMendocino,California,Mendocino,2021-01-06 03:49:41.365276,2020-03-14 00:00:00.000000,0.00636994,0.01617657,0.03039461,5,14,26,1,4,10,0.00207713,0.00538620,0.01191731,0.39177590,0.49681407,0.65528466
6045,0,USCaliforniaMendocino,California,Mendocino,2021-01-06 03:49:41.365276,2020-03-15 00:00:00.000000,0.00729574,0.01877713,0.03450482,6,16,29,2,5,11,0.00245244,0.00623956,0.01345580,0.39136298,0.49439394,0.65511817
6045,0,USCaliforniaMendocino,California,Mendocino,2021-01-06 03:49:41.365276,2020-03-16 00:00:00.000000,0.00942974,0.02044886,0.03632908,8,17,31,2,6,13,0.00283617,0.00724848,0.01516586,0.38407977,0.49388380,0.65415849
6045,0,USCaliforniaMendocino,California,Mendocino,2021-01-06 03:49:41.365276,2020-03-17 00:00:00.000000,0.01090505,0.02298694,0.03841408,9,19,33,3,7,14,0.00348698,0.00854332,0.01664565,0.37257318,0.49240460,0.64873695
6045,0,USCaliforniaMendocino,California,Mendocino,2021-01-06 03:49:41.365276,2020-03-18 00:00:00.000000,0.01265955,0.02504222,0.04309491,10,21,37,3,8,15,0.00433717,0.00966729,0.01809913,0.35471581,0.48296365,0.62543050
6045,0,USCaliforniaMendocino,California,Mendocino,2021-01-06 03:49:41.365276,2020-03-19 00:00:00.000000,0.01449123,0.02743083,0.04794176,12,23,41,4,9,16,0.00510228,0.01086717,0.01955761,0.31495768,0.46926140,0.61714145
6045,0,USCaliforniaMendocino,California,Mendocino,2021-01-06 03:49:41.365276,2020-03-20 00:00:00.000000,0.01635726,0.02995951,0.05259806,14,25,45,5,10,18,0.00590502,0.01202011,0.02101673,0.28456828,0.45080547,0.60772663
6045,0,USCaliforniaMendocino,California,Mendocino,2021-01-06 03:49:41.365276,2020-03-21 00:00:00.000000,0.01826834,0.03240553,0.05647501,15,28,48,5,11,20,0.00675987,0.01328634,0.02315546,0.26058122,0.41732426,0.59538913
6045,0,USCaliforniaMendocino,California,Mendocino,2021-01-06 03:49:41.365276,2020-03-22 00:00:00.000000,0.02023305,0.03504410,0.06231024,17,30,54,6,12,22,0.00766014,0.01465957,0.02552880,0.25358744,0.39153925,0.56987365
6045,0,USCaliforniaMendocino,California,Mendocino,2021-01-06 03:49:41.365276,2020-03-23 00:00:00.000000,0.02248745,0.03823790,0.06475153,19,33,56,7,14,24,0.00859762,0.01626218,0.02821348,0.23924677,0.37741668,0.55538559
6045,0,USCaliforniaMendocino,California,Mendocino,2021-01-06 03:49:41.365276,2020-03-24 00:00:00.000000,0.02358083,0.04162229,0.06899568,20,36,59,8,15,26,0.00958485,0.01771632,0.03108804,0.23809186,0.37096388,0.53280847
6045,0,USCaliforniaMendocino,California,Mendocino,2021-01-06 03:49:41.365276,2020-03-25 00:00:00.000000,0.02561793,0.04496593,0.07395420,22,39,64,9,16,29,0.01047149,0.01942854,0.03397565,0.23776188,0.36352833,0.52101832
6045,0,USCaliforniaMendocino,California,Mendocino,2021-01-06 03:49:41.365276,2020-03-26 00:00:00.000000,0.02766724,0.04853366,0.07864883,24,42,68,9,18,31,0.01133024,0.02107417,0.03579782,0.21879624,0.34634799,0.49163470
6045,0,USCaliforniaMendocino,California,Mendocino,2021-01-06 03:49:41.365276,2020-03-27 00:00:00.000000,0.02975108,0.05257911,0.08240102,25,45,71,10,19,31,0.01168016,0.02254987,0.03683459,0.20250351,0.32937134,0.47936488
6045,0,USCaliforniaMendocino,California,Mendocino,2021-01-06 03:49:41.365276,2020-03-28 00:00:00.000000,0.02994939,0.05560922,0.08705537,25,48,75,10,20,32,0.01199586,0.02400178,0.03761213,0.19157129,0.31440965,0.46960470
6045,0,USCaliforniaMendocino,California,Mendocino,2021-01-06 03:49:41.365276,2020-03-29 00:00:00.000000,0.02997340,0.05879141,0.09481545,26,51,82,10,21,34,0.01227976,0.02532408,0.04031914,0.18772396,0.30091915,0.45246819
6045,0,USCaliforniaMendocino,California,Mendocino,2021-01-06 03:49:41.365276,2020-03-30 00:00:00.000000,0.03146295,0.06098177,0.09895755,27,52,85,10,23,38,0.01253854,0.02666831,0.04426198,0.18480560,0.28677592,0.44252594
6045,0,USCaliforniaMendocino,California,Mendocino,2021-01-06 03:49:41.365276,2020-03-31 00:00:00.000000,0.03167386,0.06213529,0.10171369,27,53,88,11,24,40,0.01275671,0.02863870,0.04686336,0.18344257,0.27468759,0.43841850
6045,0,USCaliforniaMendocino,California,Mendocino,2021-01-06 03:49:41.365276,2020-04-01 00:00:00.000000,0.03186250,0.06337200,0.10431718,27,54,90,12,26,42,0.01394870,0.03022504,0.04906293,0.17367608,0.27015814,0.43406849
6045,0,USCaliforniaMendocino,California,Mendocino,2021-01-06 03:49:41.365276,2020-04-02 00:00:00.000000,0.03203083,0.06495113,0.10682726,27,56,92,12,27,44,0.01410032,0.03127015,0.05131029,0.17151155,0.26455030,0.39584234
6045,0,USCaliforniaMendocino,California,Mendocino,2021-01-06 03:49:41.365276,2020-04-03 00:00:00.000000,0.03217718,0.06576866,0.10936460,27,57,94,12,27,46,0.01424653,0.03170558,0.05354340,0.15666075,0.26015180,0.39440190
6045,0,USCaliforniaMendocino,California,Mendocino,2021-01-06 03:49:41.365276,2020-04-04 00:00:00.000000,0.03229600,0.06642680,0.11330222,28,57,98,12,27,48,0.01439075,0.03174571,0.05569991,0.15278990,0.25235175,0.37442517
6045,0,USCaliforniaMendocino,California,Mendocino,2021-01-06 03:49:41.365276,2020-04-05 00:00:00.000000,0.03237558,0.06808927,0.11605063,28,59,100,12,28,50,0.01453654,0.03250871,0.05771829,0.15110683,0.24055122,0.33844466
6045,0,USCaliforniaMendocino,California,Mendocino,2021-01-06 03:49:41.365276,2020-04-06 00:00:00.000000,0.03297123,0.06709470,0.11658088,28,58,101,12,28,51,0.01468704,0.03325471,0.05955654,0.14947891,0.23797076,0.31462694
6045,0,USCaliforniaMendocino,California,Mendocino,2021-01-06 03:49:41.365276,2020-04-07 00:00:00.000000,0.03355296,0.06837045,0.11694286,29,59,101,12,29,52,0.01482610,0.03385004,0.06039153,0.14737226,0.23420233,0.31870303
6045,0,USCaliforniaMendocino,California,Mendocino,2021-01-06 03:49:41.365276,2020-04-08 00:00:00.000000,0.03412575,0.07006390,0.11886515,29,60,103,12,29,52,0.01496072,0.03454700,0.06055278,0.14664932,0.23192365,0.31833768
6045,0,USCaliforniaMendocino,California,Mendocino,2021-01-06 03:49:41.365276,2020-04-09 00:00:00.000000,0.03464971,0.07077732,0.12265813,30,61,106,13,29,53,0.01509433,0.03455097,0.06156466,0.14193545,0.23064959,0.31643671
6045,0,USCaliforniaMendocino,California,Mendocino,2021-01-06 03:49:41.365276,2020-04-10 00:00:00.000000,0.03508261,0.07117074,0.13233169,30,61,114,13,30,54,0.01522814,0.03505626,0.06226457,0.12893751,0.21967926,0.31608281
6045,0,USCaliforniaMendocino,California,Mendocino,2021-01-06 03:49:41.365276,2020-04-11 00:00:00.000000,0.03542020,0.07160017,0.13417748,30,62,116,13,30,54,0.01536208,0.03543823,0.06232032,0.12270742,0.21565357,0.30973238
6045,0,USCaliforniaMendocino,California,Mendocino,2021-01-06 03:49:41.365276,2020-04-12 00:00:00.000000,0.03569392,0.07239518,0.13525469,30,62,117,13,30,54,0.01549558,0.03559711,0.06278234,0.12026136,0.20300009,0.30002981
6045,0,USCaliforniaMendocino,California,Mendocino,2021-01-06 03:49:41.365276,2020-04-13 00:00:00.000000,0.03564995,0.07242200,0.13675748,30,62,118,13,31,57,0.01562793,0.03596190,0.06607726,0.11962416,0.20101574,0.29368321
6045,0,USCaliforniaMendocino,California,Mendocino,2021-01-06 03:49:41.365276,2020-04-14 00:00:00.000000,0.03674163,0.07214716,0.13889528,31,62,120,13,31,57,0.01594271,0.03607165,0.06676183,0.12061351,0.19890087,0.29799457
6045,0,USCaliforniaMendocino,California,Mendocino,2021-01-06 03:49:41.365276,2020-04-15 00:00:00.000000,0.03726033,0.07203428,0.14098818,32,62,122,14,31,59,0.01637433,0.03610804,0.06812134,0.12290158,0.19839365,0.30094264
6045,0,USCaliforniaMendocino,California,Mendocino,2021-01-06 03:49:41.365276,2020-04-16 00:00:00.000000,0.03775144,0.07298062,0.14303039,32,63,124,14,31,60,0.01687839,0.03609489,0.06954633,0.12459514,0.19870981,0.30229158
6045,0,USCaliforniaMendocino,California,Mendocino,2021-01-06 03:49:41.365276,2020-04-17 00:00:00.000000,0.03824276,0.07414230,0.14501004,33,64,125,15,32,61,0.01750453,0.03708930,0.07085996,0.12453815,0.19912152,0.29917377
6045,0,USCaliforniaMendocino,California,Mendocino,2021-01-06 03:49:41.365276,2020-04-18 00:00:00.000000,0.03837690,0.07499581,0.14691246,33,65,127,15,32,62,0.01819428,0.03776397,0.07208618,0.12166821,0.19531657,0.28334563
6045,0,USCaliforniaMendocino,California,Mendocino,2021-01-06 03:49:41.365276,2020-04-19 00:00:00.000000,0.03796191,0.07553632,0.14872855,32,65,129,16,33,63,0.01846600,0.03839172,0.07323945,0.11838147,0.19490167,0.27833562
6045,0,USCaliforniaMendocino,California,Mendocino,2021-01-06 03:49:41.365276,2020-04-20 00:00:00.000000,0.03843266,0.07555232,0.15122949,33,65,131,15,33,64,0.01832341,0.03909422,0.07432846,0.11866506,0.19320170,0.27626424
6045,0,USCaliforniaMendocino,California,Mendocino,2021-01-06 03:49:41.365276,2020-04-21 00:00:00.000000,0.03911042,0.07545333,0.15366421,33,65,133,15,33,65,0.01805682,0.03898575,0.07547514,0.11502603,0.19188703,0.27528732
6045,0,USCaliforniaMendocino,California,Mendocino,2021-01-06 03:49:41.365276,2020-04-22 00:00:00.000000,0.03933116,0.07564061,0.15606498,34,65,135,15,33,66,0.01789873,0.03888677,0.07665515,0.11488655,0.18898684,0.27434736
6045,0,USCaliforniaMendocino,California,Mendocino,2021-01-06 03:49:41.365276,2020-04-23 00:00:00.000000,0.03932199,0.07548704,0.15843895,34,65,137,15,33,67,0.01778900,0.03870565,0.07785336,0.12203108,0.18772404,0.27571577
6045,0,USCaliforniaMendocino,California,Mendocino,2021-01-06 03:49:41.365276,2020-04-24 00:00:00.000000,0.03929588,0.07503082,0.16077654,34,65,139,15,33,68,0.01768878,0.03863133,0.07906026,0.12540908,0.18738945,0.27473978
6045,0,USCaliforniaMendocino,California,Mendocino,2021-01-06 03:49:41.365276,2020-04-25 00:00:00.000000,0.03924169,0.07540429,0.16302597,34,65,141,15,33,69,0.01792370,0.03874743,0.08026774,0.12455097,0.18941330,0.28442491
6045,0,USCaliforniaMendocino,California,Mendocino,2021-01-06 03:49:41.365276,2020-04-26 00:00:00.000000,0.03915181,0.07566754,0.16472361,33,65,142,15,33,70,0.01819375,0.03886235,0.08146226,0.12945889,0.18788080,0.28837596
6045,0,USCaliforniaMendocino,California,Mendocino,2021-01-06 03:49:41.365276,2020-04-27 00:00:00.000000,0.03936379,0.07684594,0.16412415,34,66,142,15,33,71,0.01843880,0.03884750,0.08261360,0.12953637,0.18874248,0.28881147
6045,0,USCaliforniaMendocino,California,Mendocino,2021-01-06 03:49:41.365276,2020-04-28 00:00:00.000000,0.03956214,0.07713616,0.16337428,34,66,141,16,33,72,0.01862421,0.03847670,0.08366948,0.12878885,0.18823024,0.28818649
6045,0,USCaliforniaMendocino,California,Mendocino,2021-01-06 03:49:41.365276,2020-04-29 00:00:00.000000,0.03976874,0.07750855,0.16244070,34,67,140,16,33,73,0.01874850,0.03899807,0.08460399,0.12908063,0.18672832,0.28673819
6045,0,USCaliforniaMendocino,California,Mendocino,2021-01-06 03:49:41.365276,2020-04-30 00:00:00.000000,0.03999680,0.07744454,0.16134768,34,67,139,16,34,73,0.01880966,0.03963634,0.08432008,0.12931094,0.18860481,0.28476381
6045,0,USCaliforniaMendocino,California,Mendocino,2021-01-06 03:49:41.365276,2020-05-01 00:00:00.000000,0.04026557,0.07730690,0.16296762,34,67,141,16,34,72,0.01881211,0.03976186,0.08392172,0.12898882,0.19222959,0.28272620
6045,0,USCaliforniaMendocino,California,Mendocino,2021-01-06 03:49:41.365276,2020-05-02 00:00:00.000000,0.04060038,0.07708551,0.16798463,35,66,145,16,34,72,0.01877390,0.03927095,0.08345183,0.12894051,0.19242924,0.29141503
6045,0,USCaliforniaMendocino,California,Mendocino,2021-01-06 03:49:41.365276,2020-05-03 00:00:00.000000,0.04102726,0.07707481,0.17300791,35,66,150,16,34,71,0.01870361,0.03938315,0.08291898,0.13256585,0.19216637,0.28913927
6045,0,USCaliforniaMendocino,California,Mendocino,2021-01-06 03:49:41.365276,2020-05-04 00:00:00.000000,0.04069935,0.07784451,0.17412257,35,67,151,16,34,71,0.01861399,0.03955344,0.08233011,0.12824030,0.19575756,0.28722594
6045,0,USCaliforniaMendocino,California,Mendocino,2021-01-06 03:49:41.365276,2020-05-05 00:00:00.000000,0.04010069,0.07969657,0.17502179,34,69,151,15,34,71,0.01843712,0.03996219,0.08257473,0.12758096,0.19684822,0.27721259
6045,0,USCaliforniaMendocino,California,Mendocino,2021-01-06 03:49:41.365276,2020-05-06 00:00:00.000000,0.04067163,0.08157098,0.17628294,35,70,152,15,34,73,0.01823275,0.04023434,0.08474207,0.12740849,0.19756475,0.27448656
6045,0,USCaliforniaMendocino,California,Mendocino,2021-01-06 03:49:41.365276,2020-05-07 00:00:00.000000,0.04052792,0.08204595,0.17793913,35,71,154,16,35,75,0.01896708,0.04089780,0.08681395,0.12700768,0.20148241,0.28523478
6045,0,USCaliforniaMendocino,California,Mendocino,2021-01-06 03:49:41.365276,2020-05-08 00:00:00.000000,0.04042078,0.08082091,0.17987347,35,70,156,16,35,77,0.01889657,0.04117761,0.08878622,0.12723218,0.20547736,0.29358663
6045,0,USCaliforniaMendocino,California,Mendocino,2021-01-06 03:49:41.365276,2020-05-09 00:00:00.000000,0.04036473,0.08068817,0.18200256,35,69,157,16,35,78,0.01883781,0.04086434,0.09061899,0.13269288,0.20687377,0.29589731
6045,0,USCaliforniaMendocino,California,Mendocino,2021-01-06 03:49:41.365276,2020-05-10 00:00:00.000000,0.04040386,0.08260286,0.18422506,35,71,159,16,35,79,0.01879184,0.04043762,0.09200794,0.13405270,0.20857148,0.29786154
6045,0,USCaliforniaMendocino,California,Mendocino,2021-01-06 03:49:41.365276,2020-05-11 00:00:00.000000,0.04467952,0.08252152,0.18720007,38,71,162,16,35,80,0.01877079,0.04093724,0.09295542,0.13371339,0.21270089,0.31061666
6045,0,USCaliforniaMendocino,California,Mendocino,2021-01-06 03:49:41.365276,2020-05-12 00:00:00.000000,0.04597956,0.08356055,0.19012740,39,72,164,16,36,81,0.01945931,0.04175954,0.09407174,0.13355922,0.21881945,0.31316490
6045,0,USCaliforniaMendocino,California,Mendocino,2021-01-06 03:49:41.365276,2020-05-13 00:00:00.000000,0.04736075,0.08498683,0.19277465,41,73,167,18,36,82,0.02090422,0.04194434,0.09530056,0.13377292,0.21919259,0.31448660
6045,0,USCaliforniaMendocino,California,Mendocino,2021-01-06 03:49:41.365276,2020-05-14 00:00:00.000000,0.04829614,0.08665825,0.19477618,41,75,168,18,37,83,0.02189686,0.04273745,0.09626908,0.13723096,0.22316639,0.31987490
6045,0,USCaliforniaMendocino,California,Mendocino,2021-01-06 03:49:41.365276,2020-05-15 00:00:00.000000,0.04763546,0.08865832,0.19604740,41,76,170,19,37,83,0.02196302,0.04364431,0.09680363,0.13815132,0.23050282,0.33345027
6045,0,USCaliforniaMendocino,California,Mendocino,2021-01-06 03:49:41.365276,2020-05-16 00:00:00.000000,0.04705344,0.09026022,0.19696244,40,78,170,19,38,84,0.02206920,0.04394513,0.09722084,0.14217658,0.23299606,0.33703435
6045,0,USCaliforniaMendocino,California,Mendocino,2021-01-06 03:49:41.365276,2020-05-17 00:00:00.000000,0.04653402,0.09097155,0.19774989,40,78,171,19,38,84,0.02220737,0.04432006,0.09755988,0.14701999,0.23725103,0.34412730
6045,0,USCaliforniaMendocino,California,Mendocino,2021-01-06 03:49:41.365276,2020-05-18 00:00:00.000000,0.04881347,0.09270795,0.19754436,42,80,171,19,39,84,0.02237107,0.04511738,0.09785613,0.14944063,0.23663122,0.34768395
6045,0,USCaliforniaMendocino,California,Mendocino,2021-01-06 03:49:41.365276,2020-05-19 00:00:00.000000,0.04849821,0.09346869,0.19719436,42,81,171,19,39,85,0.02268191,0.04580794,0.09799736,0.15050865,0.23947823,0.35877627
6045,0,USCaliforniaMendocino,California,Mendocino,2021-01-06 03:49:41.365276,2020-05-20 00:00:00.000000,0.04894118,0.09461737,0.19694616,42,82,170,20,40,85,0.02309316,0.04674508,0.09804562,0.15138241,0.24056928,0.37549934
6045,0,USCaliforniaMendocino,California,Mendocino,2021-01-06 03:49:41.365276,2020-05-21 00:00:00.000000,0.04985000,0.09454788,0.19677861,43,82,170,20,41,85,0.02352849,0.04767109,0.09804411,0.15298832,0.24071739,0.39210319
6045,0,USCaliforniaMendocino,California,Mendocino,2021-01-06 03:49:41.365276,2020-05-22 00:00:00.000000,0.04995639,0.09701496,0.19806366,43,84,171,20,42,86,0.02308505,0.04897931,0.09949178,0.15687377,0.24081484,0.40474031
6045,0,USCaliforniaMendocino,California,Mendocino,2021-01-06 03:49:41.365276,2020-05-23 00:00:00.000000,0.04972747,0.10138812,0.20430564,43,87,177,19,42,88,0.02244668,0.04931669,0.10234835,0.16442099,0.24125568,0.40583206
6045,0,USCaliforniaMendocino,California,Mendocino,2021-01-06 03:49:41.365276,2020-05-24 00:00:00.000000,0.04886446,0.10337543,0.21041506,42,89,182,18,43,91,0.02184183,0.05014095,0.10526777,0.16493139,0.25179196,0.39935550
6045,0,USCaliforniaMendocino,California,Mendocino,2021-01-06 03:49:41.365276,2020-05-25 00:00:00.000000,0.05059422,0.10700587,0.21568139,43,92,187,19,44,93,0.02193270,0.05158259,0.10822823,0.16546254,0.26182383,0.40366254
6045,0,USCaliforniaMendocino,California,Mendocino,2021-01-06 03:49:41.365276,2020-05-26 00:00:00.000000,0.05289557,0.11136947,0.22100134,45,96,191,20,46,96,0.02338411,0.05358994,0.11105172,0.17118255,0.26577879,0.41202375
6045,0,USCaliforniaMendocino,California,Mendocino,2021-01-06 03:49:41.365276,2020-05-27 00:00:00.000000,0.05542710,0.11353700,0.22635205,48,98,196,20,48,97,0.02408406,0.05543739,0.11269605,0.17678153,0.27303089,0.42242155
6045,0,USCaliforniaMendocino,California,Mendocino,2021-01-06 03:49:41.365276,2020-05-28 00:00:00.000000,0.05814879,0.11649822,0.23157533,50,101,200,21,49,99,0.02479997,0.05685653,0.11453245,0.18135301,0.28901374,0.42341740
6045,0,USCaliforniaMendocino,California,Mendocino,2021-01-06 03:49:41.365276,2020-05-29 00:00:00.000000,0.06101473,0.12005999,0.23611265,52,104,204,22,50,101,0.02562614,0.05850936,0.11645628,0.18586074,0.29748209,0.42343143
6045,0,USCaliforniaMendocino,California,Mendocino,2021-01-06 03:49:41.365276,2020-05-30 00:00:00.000000,0.06398373,0.12524836,0.23981401,55,108,208,23,52,102,0.02657291,0.05999368,0.11837023,0.19232569,0.30304690,0.42862982
6045,0,USCaliforniaMendocino,California,Mendocino,2021-01-06 03:49:41.365276,2020-05-31 00:00:00.000000,0.06705179,0.12926232,0.24332085,58,112,211,23,53,104,0.02760692,0.06217854,0.12015938,0.19813634,0.31002234,0.43294935
6045,0,USCaliforniaMendocino,California,Mendocino,2021-01-06 03:49:41.365276,2020-06-01 00:00:00.000000,0.07087103,0.13120303,0.25294289,61,113,219,24,54,105,0.02870537,0.06279392,0.12183185,0.19836861,0.31538488,0.43540003
6045,0,USCaliforniaMendocino,California,Mendocino,2021-01-06 03:49:41.365276,2020-06-02 00:00:00.000000,0.07525866,0.13791453,0.26439501,65,119,229,26,55,106,0.03044721,0.06407460,0.12301389,0.19629906,0.31671721,0.44158334
6045,0,USCaliforniaMendocino,California,Mendocino,2021-01-06 03:49:41.365276,2020-06-03 00:00:00.000000,0.07967012,0.14252896,0.27286993,69,123,236,28,57,107,0.03234664,0.06587640,0.12380822,0.20072434,0.31989468,0.46286123
6045,0,USCaliforniaMendocino,California,Mendocino,2021-01-06 03:49:41.365276,2020-06-04 00:00:00.000000,0.08076099,0.14811004,0.28155271,70,128,244,29,58,110,0.03431042,0.06784281,0.12707291,0.20630660,0.32649363,0.47538292
6045,0,USCaliforniaMendocino,California,Mendocino,2021-01-06 03:49:41.365276,2020-06-05 00:00:00.000000,0.08248787,0.15635096,0.29038633,71,135,251,30,61,114,0.03569052,0.07078767,0.13192068,0.21121896,0.33948285,0.47949201
6045,0,USCaliforniaMendocino,California,Mendocino,2021-01-06 03:49:41.365276,2020-06-06 00:00:00.000000,0.08577124,0.16424185,0.29935272,74,142,259,31,64,118,0.03648051,0.07459181,0.13697927,0.21891408,0.34599370,0.50341230
6045,0,USCaliforniaMendocino,California,Mendocino,2021-01-06 03:49:41.365276,2020-06-07 00:00:00.000000,0.08931829,0.17078676,0.30844283,77,148,267,32,67,123,0.03733782,0.07750445,0.14222876,0.22376241,0.35960915,0.51408967
6045,0,USCaliforniaMendocino,California,Mendocino,2021-01-06 03:49:41.365276,2020-06-08 00:00:00.000000,0.09526312,0.17931781,0.31584056,82,155,273,33,71,128,0.03862592,0.08219003,0.14761747,0.23852964,0.36461385,0.54152616
6045,0,USCaliforniaMendocino,California,Mendocino,2021-01-06 03:49:41.365276,2020-06-09 00:00:00.000000,0.10447477,0.18839637,0.32336123,90,163,280,36,75,132,0.04152479,0.08663101,0.15309801,0.26219967,0.37269235,0.56415297
6045,0,USCaliforniaMendocino,California,Mendocino,2021-01-06 03:49:41.365276,2020-06-10 00:00:00.000000,0.11566638,0.19505372,0.32886857,100,169,285,38,79,137,0.04411335,0.09122024,0.15868606,0.26611207,0.37918218,0.57481362
6045,0,USCaliforniaMendocino,California,Mendocino,2021-01-06 03:49:41.365276,2020-06-11 00:00:00.000000,0.12578420,0.20389077,0.33887985,109,176,293,41,82,142,0.04784858,0.09481979,0.16445729,0.26509327,0.38903521,0.58581868
6045,0,USCaliforniaMendocino,California,Mendocino,2021-01-06 03:49:41.365276,2020-06-12 00:00:00.000000,0.12958908,0.21189642,0.34712403,112,183,301,45,85,147,0.05244293,0.09863023,0.17050187,0.26558532,0.39971189,0.59820956
6045,0,USCaliforniaMendocino,California,Mendocino,2021-01-06 03:49:41.365276,2020-06-13 00:00:00.000000,0.13372808,0.21962299,0.35566151,116,190,308,49,89,153,0.05747591,0.10261283,0.17689466,0.26995948,0.41378177,0.63460248
6045,0,USCaliforniaMendocino,California,Mendocino,2021-01-06 03:49:41.365276,2020-06-14 00:00:00.000000,0.13933164,0.23044344,0.36839243,120,199,319,52,91,157,0.06109343,0.10592185,0.18152849,0.29141966,0.41787088,0.64363188
6045,0,USCaliforniaMendocino,California,Mendocino,2021-01-06 03:49:41.365276,2020-06-15 00:00:00.000000,0.14592632,0.24110167,0.38464754,126,209,333,56,97,161,0.06482582,0.11201149,0.18609098,0.30410032,0.42673069,0.65652189
6045,0,USCaliforniaMendocino,California,Mendocino,2021-01-06 03:49:41.365276,2020-06-16 00:00:00.000000,0.15289911,0.25158350,0.40340979,132,218,349,59,100,166,0.06865428,0.11629167,0.19135815,0.30513999,0.43054599,0.67677523
6045,0,USCaliforniaMendocino,California,Mendocino,2021-01-06 03:49:41.365276,2020-06-17 00:00:00.000000,0.16867069,0.26450956,0.42073407,146,229,364,62,105,173,0.07201823,0.12160697,0.19997979,0.30700434,0.43112131,0.69584649
6045,0,USCaliforniaMendocino,California,Mendocino,2021-01-06 03:49:41.365276,2020-06-18 00:00:00.000000,0.17919958,0.28109078,0.44741329,155,243,388,65,110,181,0.07557400,0.12729622,0.20897252,0.30677980,0.43362029,0.68226551
6045,0,USCaliforniaMendocino,California,Mendocino,2021-01-06 03:49:41.365276,2020-06-19 00:00:00.000000,0.19105360,0.30248818,0.47288031,165,262,410,69,116,189,0.07970986,0.13456782,0.21841972,0.30855579,0.43873697,0.67535097
6045,0,USCaliforniaMendocino,California,Mendocino,2021-01-06 03:49:41.365276,2020-06-20 00:00:00.000000,0.19704914,0.32740037,0.50244641,170,284,435,74,123,198,0.08583654,0.14179956,0.22896396,0.31853042,0.44727657,0.66575857
6045,0,USCaliforniaMendocino,California,Mendocino,2021-01-06 03:49:41.365276,2020-06-21 00:00:00.000000,0.20331854,0.34525426,0.53152205,176,299,461,78,129,209,0.09068744,0.14957069,0.24137727,0.32669499,0.45101260,0.66218981
6045,0,USCaliforniaMendocino,California,Mendocino,2021-01-06 03:49:41.365276,2020-06-22 00:00:00.000000,0.21286856,0.36702900,0.56219706,184,318,487,84,136,221,0.09689978,0.15679466,0.25586847,0.33836079,0.46331225,0.66173488
6045,0,USCaliforniaMendocino,California,Mendocino,2021-01-06 03:49:41.365276,2020-06-23 00:00:00.000000,0.22489637,0.39525272,0.59425227,195,342,515,88,145,235,0.10178963,0.16800259,0.27128931,0.34809204,0.46335548,0.66352506
6045,0,USCaliforniaMendocino,California,Mendocino,2021-01-06 03:49:41.365276,2020-06-24 00:00:00.000000,0.23692398,0.41871494,0.62785420,205,363,544,92,155,249,0.10715389,0.17925626,0.28774469,0.35079896,0.47399594,0.66303899
6045,0,USCaliforniaMendocino,California,Mendocino,2021-01-06 03:49:41.365276,2020-06-25 00:00:00.000000,0.24591335,0.44350071,0.66335827,213,384,575,98,164,264,0.11309187,0.18965414,0.30522750,0.35652933,0.48075580,0.67722898
6045,0,USCaliforniaMendocino,California,Mendocino,2021-01-06 03:49:41.365276,2020-06-26 00:00:00.000000,0.25682969,0.46726679,0.70424770,222,405,610,102,175,279,0.11864275,0.20194539,0.32221563,0.35689335,0.48613966,0.70490922
6045,0,USCaliforniaMendocino,California,Mendocino,2021-01-06 03:49:41.365276,2020-06-27 00:00:00.000000,0.27668300,0.49494268,0.75806720,240,429,657,108,186,295,0.12490364,0.21453356,0.34079382,0.35969540,0.49793893,0.70702536
6045,0,USCaliforniaMendocino,California,Mendocino,2021-01-06 03:49:41.365276,2020-06-28 00:00:00.000000,0.30069829,0.52222823,0.83672344,260,453,725,113,196,314,0.13132277,0.22658661,0.36246796,0.36156534,0.50995932,0.75697127
6045,0,USCaliforniaMendocino,California,Mendocino,2021-01-06 03:49:41.365276,2020-06-29 00:00:00.000000,0.32732900,0.55104834,0.90343255,283,478,783,119,207,335,0.13787231,0.23955248,0.38683695,0.36126524,0.52185376,0.73412462
6045,0,USCaliforniaMendocino,California,Mendocino,2021-01-06 03:49:41.365276,2020-06-30 00:00:00.000000,0.35263270,0.58966148,0.96334670,305,511,835,126,215,360,0.14535599,0.24857021,0.41571597,0.38850545,0.51787612,0.76554135
6045,0,USCaliforniaMendocino,California,Mendocino,2021-01-06 03:49:41.365276,2020-07-01 00:00:00.000000,0.37373109,0.62092206,1.02595071,324,538,890,133,228,386,0.15438781,0.26322177,0.44610101,0.37662134,0.52332328,0.78068910
6045,0,USCaliforniaMendocino,California,Mendocino,2021-01-06 03:49:41.365276,2020-07-02 00:00:00.000000,0.39456258,0.66483657,1.09171037,342,576,947,146,245,415,0.16905328,0.28340078,0.47888419,0.36935190,0.53462037,0.77166137
6045,0,USCaliforniaMendocino,California,Mendocino,2021-01-06 03:49:41.365276,2020-07-03 00:00:00.000000,0.41727544,0.70816054,1.16505267,361,614,1010,156,261,445,0.18063375,0.30146462,0.51384274,0.37151935,0.54517544,0.73691318
6045,0,USCaliforniaMendocino,California,Mendocino,2021-01-06 03:49:41.365276,2020-07-04 00:00:00.000000,0.44304269,0.75131871,1.25312069,384,651,1087,167,276,477,0.19313925,0.31867652,0.55082201,0.38143416,0.54768325,0.72736766
6045,0,USCaliforniaMendocino,California,Mendocino,2021-01-06 03:49:41.365276,2020-07-05 00:00:00.000000,0.47337836,0.79713185,1.35081370,410,691,1171,181,290,511,0.20900543,0.33502988,0.58991423,0.39103456,0.54963160,0.75712450
6045,0,USCaliforniaMendocino,California,Mendocino,2021-01-06 03:49:41.365276,2020-07-06 00:00:00.000000,0.51831317,0.84556740,1.45071878,449,733,1258,197,305,547,0.22716225,0.35230657,0.63132052,0.39637624,0.55108689,0.76161837
6045,0,USCaliforniaMendocino,California,Mendocino,2021-01-06 03:49:41.365276,2020-07-07 00:00:00.000000,0.57841757,0.89701624,1.53955942,501,778,1335,208,326,582,0.24032470,0.37589952,0.67134795,0.40015311,0.55095895,0.76598794
6045,0,USCaliforniaMendocino,California,Mendocino,2021-01-06 03:49:41.365276,2020-07-08 00:00:00.000000,0.64425022,0.96078462,1.63197761,558,833,1415,225,351,616,0.26028945,0.40542440,0.71015108,0.40002361,0.54854758,0.74054095
6045,0,USCaliforniaMendocino,California,Mendocino,2021-01-06 03:49:41.365276,2020-07-09 00:00:00.000000,0.68772011,1.02223376,1.74492857,596,886,1513,245,371,650,0.28327664,0.42789446,0.75030258,0.39939960,0.54858722,0.72090606
6045,0,USCaliforniaMendocino,California,Mendocino,2021-01-06 03:49:41.365276,2020-07-10 00:00:00.000000,0.73408631,1.09421114,1.87328921,636,949,1625,260,395,687,0.30082957,0.45612817,0.79224899,0.39982262,0.53981531,0.69314126
6045,0,USCaliforniaMendocino,California,Mendocino,2021-01-06 03:49:41.365276,2020-07-11 00:00:00.000000,0.78419645,1.16996798,1.99617973,680,1014,1731,274,423,725,0.31661780,0.48788811,0.83670057,0.39938488,0.53175899,0.69121957
6045,0,USCaliforniaMendocino,California,Mendocino,2021-01-06 03:49:41.365276,2020-07-12 00:00:00.000000,0.84021928,1.25008855,2.11388167,728,1084,1833,289,447,770,0.33405060,0.51571940,0.88831494,0.39352115,0.53527931,0.70523458
6045,0,USCaliforniaMendocino,California,Mendocino,2021-01-06 03:49:41.365276,2020-07-13 00:00:00.000000,0.87299440,1.32119516,2.23188107,757,1146,1936,306,475,831,0.35332011,0.54776061,0.95858828,0.39164382,0.53030252,0.69673796
6045,0,USCaliforniaMendocino,California,Mendocino,2021-01-06 03:49:41.365276,2020-07-14 00:00:00.000000,0.93705950,1.39097619,2.35183837,812,1206,2040,325,503,896,0.37474406,0.58079421,1.03312610,0.39080493,0.53071984,0.68521790
6045,0,USCaliforniaMendocino,California,Mendocino,2021-01-06 03:49:41.365276,2020-07-15 00:00:00.000000,1.00570327,1.45603330,2.47244949,872,1263,2144,345,537,946,0.39873084,0.62010070,1.09134401,0.37613198,0.52746830,0.68312974
6045,0,USCaliforniaMendocino,California,Mendocino,2021-01-06 03:49:41.365276,2020-07-16 00:00:00.000000,1.04256781,1.53843494,2.59132483,904,1334,2247,370,572,997,0.42730730,0.66052391,1.15004563,0.36847691,0.52486544,0.68708671
6045,0,USCaliforniaMendocino,California,Mendocino,2021-01-06 03:49:41.365276,2020-07-17 00:00:00.000000,1.07273249,1.62250886,2.69203846,930,1407,2335,398,607,1054,0.45903748,0.70050049,1.21601537,0.34787949,0.50565304,0.69930773
6045,0,USCaliforniaMendocino,California,Mendocino,2021-01-06 03:49:41.365276,2020-07-18 00:00:00.000000,1.11253797,1.70413282,2.78971901,965,1478,2420,424,644,1113,0.48923441,0.74315803,1.28359824,0.33853955,0.49439191,0.69672021
6045,0,USCaliforniaMendocino,California,Mendocino,2021-01-06 03:49:41.365276,2020-07-19 00:00:00.000000,1.18628210,1.79757253,2.91513174,1029,1559,2528,456,683,1175,0.52596603,0.78770003,1.35518166,0.33423053,0.48433142,0.67832755
6045,0,USCaliforniaMendocino,California,Mendocino,2021-01-06 03:49:41.365276,2020-07-20 00:00:00.000000,1.27050322,1.90374575,3.02784424,1102,1651,2626,483,715,1215,0.55749179,0.82487585,1.40116491,0.33838395,0.48369025,0.65653564
6045,0,USCaliforniaMendocino,California,Mendocino,2021-01-06 03:49:41.365276,2020-07-21 00:00:00.000000,1.35092776,2.01289622,3.17590246,1171,1746,2755,506,759,1247,0.58440714,0.87571122,1.43771983,0.33205861,0.48801439,0.63930943
6045,0,USCaliforniaMendocino,California,Mendocino,2021-01-06 03:49:41.365276,2020-07-22 00:00:00.000000,1.41216297,2.11069145,3.26259760,1225,1831,2830,538,804,1286,0.62018017,0.92692698,1.48347330,0.33061318,0.48215800,0.61724203
6045,0,USCaliforniaMendocino,California,Mendocino,2021-01-06 03:49:41.365276,2020-07-23 00:00:00.000000,1.47438276,2.19934503,3.30725069,1279,1907,2869,566,846,1330,0.65304397,0.97543625,1.53391398,0.33028465,0.47551200,0.60644885
6045,0,USCaliforniaMendocino,California,Mendocino,2021-01-06 03:49:41.365276,2020-07-24 00:00:00.000000,1.53805716,2.28901179,3.46199480,1334,1985,3003,589,893,1394,0.67991535,1.03007629,1.60723745,0.33017504,0.46605471,0.60280324
6045,0,USCaliforniaMendocino,California,Mendocino,2021-01-06 03:49:41.365276,2020-07-25 00:00:00.000000,1.59919465,2.36632981,3.61360462,1387,2052,3134,612,940,1464,0.70630784,1.08462561,1.68812897,0.33089734,0.45441972,0.60165481
6045,0,USCaliforniaMendocino,California,Mendocino,2021-01-06 03:49:41.365276,2020-07-26 00:00:00.000000,1.66267466,2.46190806,3.70055266,1442,2135,3210,635,982,1535,0.73203410,1.13202789,1.76950559,0.32312843,0.44760346,0.60091331
6045,0,USCaliforniaMendocino,California,Mendocino,2021-01-06 03:49:41.365276,2020-07-27 00:00:00.000000,1.72983087,2.57591104,3.83861760,1500,2234,3329,656,1034,1604,0.75687381,1.19197363,1.84969220,0.31171691,0.44355844,0.59922005
6045,0,USCaliforniaMendocino,California,Mendocino,2021-01-06 03:49:41.365276,2020-07-28 00:00:00.000000,1.80016115,2.69079215,3.97925083,1561,2334,3451,677,1073,1672,0.78069628,1.23801216,1.92740025,0.30630244,0.43668972,0.59650119
6045,0,USCaliforniaMendocino,California,Mendocino,2021-01-06 03:49:41.365276,2020-07-29 00:00:00.000000,1.86873399,2.82616813,4.11465582,1621,2451,3569,696,1112,1736,0.80342117,1.28240049,2.00204567,0.30610502,0.43066499,0.59521760
6045,0,USCaliforniaMendocino,California,Mendocino,2021-01-06 03:49:41.365276,2020-07-30 00:00:00.000000,1.93909107,2.93667464,4.22278430,1682,2547,3663,720,1151,1795,0.83080206,1.32755167,2.06934697,0.30558074,0.42677856,0.56512830
6045,0,USCaliforniaMendocino,California,Mendocino,2021-01-06 03:49:41.365276,2020-07-31 00:00:00.000000,2.01140252,3.03441591,4.29053952,1744,2632,3722,756,1189,1827,0.87215366,1.37169898,2.10628304,0.30271422,0.40312550,0.55633459
6045,0,USCaliforniaMendocino,California,Mendocino,2021-01-06 03:49:41.365276,2020-08-01 00:00:00.000000,2.08552131,3.10609308,4.35401036,1809,2694,3777,795,1230,1857,0.91683995,1.41841594,2.14071476,0.29744328,0.39088105,0.54100795
6045,0,USCaliforniaMendocino,California,Mendocino,2021-01-06 03:49:41.365276,2020-08-02 00:00:00.000000,2.14699768,3.16260277,4.41227516,1862,2743,3827,836,1282,1882,0.96474108,1.47875472,2.17017686,0.27678241,0.38164916,0.52548865
6045,0,USCaliforniaMendocino,California,Mendocino,2021-01-06 03:49:41.365276,2020-08-03 00:00:00.000000,2.16657070,3.24387004,4.46434998,1879,2814,3872,882,1316,1930,1.01719664,1.51709793,2.22582137,0.25964884,0.37092822,0.51313513
6045,0,USCaliforniaMendocino,California,Mendocino,2021-01-06 03:49:41.365276,2020-08-04 00:00:00.000000,2.30132352,3.33012043,4.51148179,1996,2888,3913,901,1344,1978,1.03882680,1.55031596,2.28124255,0.25380986,0.36246861,0.49527408
6045,0,USCaliforniaMendocino,California,Mendocino,2021-01-06 03:49:41.365276,2020-08-05 00:00:00.000000,2.36486944,3.39304788,4.55454288,2051,2943,3951,910,1376,2019,1.04920494,1.58633603,2.32767148,0.25179781,0.34641545,0.49538437
6045,0,USCaliforniaMendocino,California,Mendocino,2021-01-06 03:49:41.365276,2020-08-06 00:00:00.000000,2.39735861,3.41415910,4.59382154,2079,2961,3985,937,1396,2049,1.08123786,1.60926597,2.36305660,0.23666712,0.33660353,0.49462347
6045,0,USCaliforniaMendocino,California,Mendocino,2021-01-06 03:49:41.365276,2020-08-07 00:00:00.000000,2.41337454,3.42124473,4.62495447,2093,2967,4012,966,1418,2070,1.11431899,1.63546775,2.38728031,0.22795878,0.32601321,0.49194726
6045,0,USCaliforniaMendocino,California,Mendocino,2021-01-06 03:49:41.365276,2020-08-08 00:00:00.000000,2.41771250,3.43120453,4.62400143,2097,2976,4011,980,1435,2083,1.13059422,1.65504232,2.40171858,0.21677021,0.30993743,0.48383420
6045,0,USCaliforniaMendocino,California,Mendocino,2021-01-06 03:49:41.365276,2020-08-09 00:00:00.000000,2.41691331,3.41118682,4.62289898,2096,2959,4010,988,1446,2088,1.13934004,1.66741267,2.40801352,0.20617743,0.29676378,0.45631755
6045,0,USCaliforniaMendocino,California,Mendocino,2021-01-06 03:49:41.365276,2020-08-10 00:00:00.000000,2.41435327,3.38649391,4.60676340,2094,2937,3996,983,1441,2088,1.13397904,1.66130205,2.40741081,0.20226318,0.28279758,0.41018169
6045,0,USCaliforniaMendocino,California,Mendocino,2021-01-06 03:49:41.365276,2020-08-11 00:00:00.000000,2.40812587,3.31746167,4.55387233,2089,2877,3950,971,1436,2082,1.12000399,1.65646881,2.40031631,0.20100060,0.27196528,0.39879101
6045,0,USCaliforniaMendocino,California,Mendocino,2021-01-06 03:49:41.365276,2020-08-12 00:00:00.000000,2.37818330,3.25819375,4.48879625,2063,2826,3893,957,1436,2070,1.10403604,1.65637996,2.38709619,0.19731972,0.26275940,0.38329794
6045,0,USCaliforniaMendocino,California,Mendocino,2021-01-06 03:49:41.365276,2020-08-13 00:00:00.000000,2.34215939,3.18371270,4.41280438,2031,2761,3828,942,1438,2053,1.08678766,1.65824477,2.36773812,0.17188670,0.26101093,0.37255034
6045,0,USCaliforniaMendocino,California,Mendocino,2021-01-06 03:49:41.365276,2020-08-14 00:00:00.000000,2.30173941,3.09929175,4.32987626,1996,2688,3756,927,1434,2032,1.06866169,1.65392704,2.34239522,0.16835820,0.25474463,0.35437468
6045,0,USCaliforniaMendocino,California,Mendocino,2021-01-06 03:49:41.365276,2020-08-15 00:00:00.000000,2.26928645,3.04239621,4.24318943,1968,2639,3680,910,1427,2005,1.04977639,1.64563624,2.31168820,0.16563590,0.25323793,0.34475473
6045,0,USCaliforniaMendocino,California,Mendocino,2021-01-06 03:49:41.365276,2020-08-16 00:00:00.000000,2.22078190,2.96291465,4.15441827,1926,2570,3603,893,1400,1974,1.03001098,1.61394165,2.27657304,0.16387296,0.24178922,0.33297359
6045,0,USCaliforniaMendocino,California,Mendocino,2021-01-06 03:49:41.365276,2020-08-17 00:00:00.000000,2.14221162,2.88931066,4.06217883,1858,2506,3523,875,1362,1948,1.00942012,1.57105553,2.24664800,0.16303724,0.23210046,0.32391394
6045,0,USCaliforniaMendocino,California,Mendocino,2021-01-06 03:49:41.365276,2020-08-18 00:00:00.000000,2.07575923,2.82742139,3.97048095,1800,2452,3444,864,1333,1924,0.99658972,1.53759990,2.21872305,0.16243841,0.22837416,0.31633070
6045,0,USCaliforniaMendocino,California,Mendocino,2021-01-06 03:49:41.365276,2020-08-19 00:00:00.000000,2.00899373,2.78486316,3.94544464,1742,2415,3422,862,1300,1897,0.99376037,1.49858894,2.18734381,0.16170514,0.22565871,0.31860668
6045,0,USCaliforniaMendocino,California,Mendocino,2021-01-06 03:49:41.365276,2020-08-20 00:00:00.000000,1.94215824,2.73120382,3.89170256,1684,2369,3376,859,1284,1868,0.99062950,1.48094350,2.15339436,0.15820328,0.22351862,0.31917945
6045,0,USCaliforniaMendocino,California,Mendocino,2021-01-06 03:49:41.365276,2020-08-21 00:00:00.000000,1.87628175,2.67741780,3.80429395,1627,2322,3300,856,1264,1835,0.98690082,1.45768523,2.11564940,0.15708797,0.22267212,0.32073764
6045,0,USCaliforniaMendocino,California,Mendocino,2021-01-06 03:49:41.365276,2020-08-22 00:00:00.000000,1.81195017,2.60613460,3.71917304,1571,2260,3226,851,1237,1799,0.98201810,1.42612142,2.07481773,0.15063425,0.22355009,0.31257707
6045,0,USCaliforniaMendocino,California,Mendocino,2021-01-06 03:49:41.365276,2020-08-23 00:00:00.000000,1.74951805,2.55010142,3.63846637,1517,2212,3156,830,1214,1763,0.95779527,1.40021896,2.03275542,0.14737612,0.22468648,0.30732878
6045,0,USCaliforniaMendocino,California,Mendocino,2021-01-06 03:49:41.365276,2020-08-24 00:00:00.000000,1.69764690,2.51543323,3.56084014,1472,2182,3088,804,1189,1725,0.92774968,1.37077622,1.98885128,0.14535581,0.22291448,0.30396514
6045,0,USCaliforniaMendocino,California,Mendocino,2021-01-06 03:49:41.365276,2020-08-25 00:00:00.000000,1.65975328,2.46617935,3.48791496,1439,2139,3025,782,1161,1682,0.90155341,1.33883563,1.93927317,0.14464748,0.22398231,0.30693250
6045,0,USCaliforniaMendocino,California,Mendocino,2021-01-06 03:49:41.365276,2020-08-26 00:00:00.000000,1.62525984,2.40570435,3.41815479,1409,2086,2965,759,1129,1637,0.87577961,1.30158757,1.88797821,0.14591974,0.22366713,0.30594932
6045,0,USCaliforniaMendocino,California,Mendocino,2021-01-06 03:49:41.365276,2020-08-27 00:00:00.000000,1.59259158,2.36467407,3.35012253,1381,2051,2906,733,1105,1611,0.84594158,1.27490358,1.85815051,0.14937733,0.22470727,0.31023820
6045,0,USCaliforniaMendocino,California,Mendocino,2021-01-06 03:49:41.365276,2020-08-28 00:00:00.000000,1.56110430,2.32099412,3.28264004,1354,2013,2847,708,1085,1584,0.81723012,1.25158088,1.82636867,0.14992061,0.22481793,0.31483877
6045,0,USCaliforniaMendocino,California,Mendocino,2021-01-06 03:49:41.365276,2020-08-29 00:00:00.000000,1.53051605,2.25463921,3.26430013,1327,1955,2831,685,1065,1555,0.78978819,1.22822697,1.79284299,0.15499257,0.22562537,0.32473542
6045,0,USCaliforniaMendocino,California,Mendocino,2021-01-06 03:49:41.365276,2020-08-30 00:00:00.000000,1.50080129,2.21234178,3.22933111,1301,1919,2801,662,1046,1524,0.76369563,1.20611724,1.75733938,0.15418551,0.22537857,0.33276697
6045,0,USCaliforniaMendocino,California,Mendocino,2021-01-06 03:49:41.365276,2020-08-31 00:00:00.000000,1.47244094,2.17482298,3.14469220,1277,1886,2727,641,1018,1493,0.73893765,1.17440434,1.72131156,0.15399913,0.22311583,0.33733788
6045,0,USCaliforniaMendocino,California,Mendocino,2021-01-06 03:49:41.365276,2020-09-01 00:00:00.000000,1.44534647,2.13832019,3.06556766,1253,1854,2659,621,995,1461,0.71607884,1.14774485,1.68492220,0.15419462,0.22416893,0.33919209
6045,0,USCaliforniaMendocino,California,Mendocino,2021-01-06 03:49:41.365276,2020-09-02 00:00:00.000000,1.42027033,2.10520462,2.99217602,1232,1826,2595,602,979,1429,0.69475135,1.12915511,1.64768182,0.15371337,0.22582102,0.35774012
6045,0,USCaliforniaMendocino,California,Mendocino,2021-01-06 03:49:41.365276,2020-09-03 00:00:00.000000,1.38717167,2.06089800,2.92504597,1203,1787,2537,585,955,1403,0.67466577,1.10095698,1.61772841,0.15738841,0.22783812,0.36305407
6045,0,USCaliforniaMendocino,California,Mendocino,2021-01-06 03:49:41.365276,2020-09-04 00:00:00.000000,1.35915996,2.00854435,2.88958642,1179,1742,2506,568,941,1377,0.65564221,1.08475201,1.58846488,0.16054560,0.23213006,0.36375482
6045,0,USCaliforniaMendocino,California,Mendocino,2021-01-06 03:49:41.365276,2020-09-05 00:00:00.000000,1.33803029,1.95773920,2.84617598,1160,1698,2469,560,928,1355,0.64568262,1.06987629,1.56298088,0.15473823,0.23869278,0.37778437
6045,0,USCaliforniaMendocino,California,Mendocino,2021-01-06 03:49:41.365276,2020-09-06 00:00:00.000000,1.32253848,1.93659952,2.82867700,1147,1679,2453,555,911,1336,0.63991653,1.05055367,1.54113393,0.15411423,0.24590336,0.39207076
6045,0,USCaliforniaMendocino,California,Mendocino,2021-01-06 03:49:41.365276,2020-09-07 00:00:00.000000,1.30986301,1.91273725,2.80122618,1136,1659,2430,551,894,1320,0.63546587,1.03144115,1.52237679,0.15678772,0.24988343,0.40344933
6045,0,USCaliforniaMendocino,California,Mendocino,2021-01-06 03:49:41.365276,2020-09-08 00:00:00.000000,1.30014405,1.89484337,2.76837180,1127,1643,2401,546,883,1306,0.63011082,1.01827270,1.50601637,0.16327171,0.25798746,0.40048543
6045,0,USCaliforniaMendocino,California,Mendocino,2021-01-06 03:49:41.365276,2020-09-09 00:00:00.000000,1.29279133,1.85490880,2.73180749,1121,1609,2369,541,875,1288,0.62379442,1.00937505,1.48519689,0.16645872,0.27153967,0.39082930
6045,0,USCaliforniaMendocino,California,Mendocino,2021-01-06 03:49:41.365276,2020-09-10 00:00:00.000000,1.26621459,1.82019015,2.69332641,1098,1578,2336,536,865,1270,0.61795067,0.99717981,1.46507779,0.16770800,0.27718612,0.38877946
6045,0,USCaliforniaMendocino,California,Mendocino,2021-01-06 03:49:41.365276,2020-09-11 00:00:00.000000,1.24056248,1.79573682,2.65378103,1076,1557,2302,531,849,1254,0.61245190,0.97928028,1.44570666,0.16988300,0.28110328,0.39245269
6045,0,USCaliforniaMendocino,California,Mendocino,2021-01-06 03:49:41.365276,2020-09-12 00:00:00.000000,1.21649919,1.78601369,2.61368780,1055,1549,2267,526,832,1237,0.60716285,0.96012361,1.42693300,0.17234750,0.28287540,0.40433852
6045,0,USCaliforniaMendocino,California,Mendocino,2021-01-06 03:49:41.365276,2020-09-13 00:00:00.000000,1.19367293,1.77347940,2.57339343,1035,1538,2232,522,820,1222,0.60201988,0.94529327,1.40867906,0.17433744,0.28639565,0.40568118
6045,0,USCaliforniaMendocino,California,Mendocino,2021-01-06 03:49:41.365276,2020-09-14 00:00:00.000000,1.17539268,1.75997237,2.53488234,1019,1526,2198,517,805,1206,0.59706650,0.92836712,1.39099145,0.17635150,0.28870573,0.41115437
6045,0,USCaliforniaMendocino,California,Mendocino,2021-01-06 03:49:41.365276,2020-09-15 00:00:00.000000,1.15790352,1.73876119,2.49720096,1004,1508,2166,513,792,1191,0.59241558,0.91371191,1.37392575,0.17743046,0.29054246,0.42440322
6045,0,USCaliforniaMendocino,California,Mendocino,2021-01-06 03:49:41.365276,2020-09-16 00:00:00.000000,1.14123036,1.70615642,2.46253148,990,1480,2136,508,785,1177,0.58574578,0.90587339,1.35743814,0.17871811,0.28932644,0.43010430
6045,0,USCaliforniaMendocino,California,Mendocino,2021-01-06 03:49:41.365276,2020-09-17 00:00:00.000000,1.12554470,1.68540893,2.43349371,976,1462,2111,499,776,1163,0.57616222,0.89489496,1.34140039,0.18031920,0.29131672,0.43469427
6045,0,USCaliforniaMendocino,California,Mendocino,2021-01-06 03:49:41.365276,2020-09-18 00:00:00.000000,1.10775769,1.67276370,2.40799000,960,1451,2088,492,773,1150,0.56726251,0.89143243,1.32569436,0.18228504,0.28927963,0.42303530
6045,0,USCaliforniaMendocino,California,Mendocino,2021-01-06 03:49:41.365276,2020-09-19 00:00:00.000000,1.08337146,1.66655243,2.38537800,939,1445,2069,485,773,1137,0.55912990,0.89113309,1.31158718,0.18211060,0.29060839,0.42348276
6045,0,USCaliforniaMendocino,California,Mendocino,2021-01-06 03:49:41.365276,2020-09-20 00:00:00.000000,1.06117593,1.66244906,2.38338853,920,1442,2067,475,764,1128,0.54824315,0.88155116,1.30101032,0.18096947,0.28897824,0.42304976
6045,0,USCaliforniaMendocino,California,Mendocino,2021-01-06 03:49:41.365276,2020-09-21 00:00:00.000000,1.04099599,1.65801673,2.38451783,903,1438,2068,465,757,1110,0.53703259,0.87267816,1.28035950,0.17907801,0.28330264,0.42244278
6045,0,USCaliforniaMendocino,California,Mendocino,2021-01-06 03:49:41.365276,2020-09-22 00:00:00.000000,1.02243238,1.65333938,2.36514944,886,1434,2051,458,752,1097,0.52849819,0.86764263,1.26487902,0.18000003,0.27811815,0.42537905
6045,0,USCaliforniaMendocino,California,Mendocino,2021-01-06 03:49:41.365276,2020-09-23 00:00:00.000000,1.00574683,1.64329286,2.33702721,872,1425,2027,452,751,1084,0.52209153,0.86668460,1.25017968,0.18530455,0.27791246,0.42425613
6045,0,USCaliforniaMendocino,California,Mendocino,2021-01-06 03:49:41.365276,2020-09-24 00:00:00.000000,0.99204577,1.64204892,2.30416860,860,1424,1998,448,747,1071,0.51716983,0.86143207,1.23501719,0.18215981,0.27588580,0.41072167
6045,0,USCaliforniaMendocino,California,Mendocino,2021-01-06 03:49:41.365276,2020-09-25 00:00:00.000000,0.98413612,1.62830550,2.26342893,853,1412,1963,444,741,1057,0.51228592,0.85483350,1.21851939,0.18040157,0.27540250,0.39180633
6045,0,USCaliforniaMendocino,California,Mendocino,2021-01-06 03:49:41.365276,2020-09-26 00:00:00.000000,0.98209925,1.61296334,2.21084584,851,1399,1917,431,736,1041,0.49793849,0.84887469,1.20009578,0.17996246,0.27460796,0.38246542
6045,0,USCaliforniaMendocino,California,Mendocino,2021-01-06 03:49:41.365276,2020-09-27 00:00:00.000000,0.98244537,1.59397670,2.15982635,852,1382,1873,419,721,1023,0.48407692,0.83197630,1.17962723,0.17991758,0.27204544,0.38062882
6045,0,USCaliforniaMendocino,California,Mendocino,2021-01-06 03:49:41.365276,2020-09-28 00:00:00.000000,0.98598665,1.55265292,2.10799007,855,1346,1828,408,705,1011,0.47068035,0.81377688,1.16647457,0.17999035,0.26723667,0.37035698
6045,0,USCaliforniaMendocino,California,Mendocino,2021-01-06 03:49:41.365276,2020-09-29 00:00:00.000000,0.97502242,1.52020767,2.05613869,845,1318,1783,396,698,996,0.45719037,0.80503107,1.14893749,0.18061513,0.26795044,0.38592505
6045,0,USCaliforniaMendocino,California,Mendocino,2021-01-06 03:49:41.365276,2020-09-30 00:00:00.000000,0.94538968,1.50472487,2.00476177,820,1305,1739,384,690,976,0.44377401,0.79600206,1.12584846,0.18245096,0.26635440,0.39020139
6045,0,USCaliforniaMendocino,California,Mendocino,2021-01-06 03:49:41.365276,2020-10-01 00:00:00.000000,0.91664793,1.47761087,1.98929643,795,1281,1725,373,680,952,0.43054346,0.78483943,1.09852059,0.18698395,0.26854211,0.38840999
6045,0,USCaliforniaMendocino,California,Mendocino,2021-01-06 03:49:41.365276,2020-10-02 00:00:00.000000,0.88883094,1.44941536,1.95009032,771,1257,1691,368,667,927,0.42515453,0.76971966,1.06900587,0.18924249,0.26743166,0.37773656
6045,0,USCaliforniaMendocino,California,Mendocino,2021-01-06 03:49:41.365276,2020-10-03 00:00:00.000000,0.86201115,1.41920843,1.89426003,747,1231,1643,364,657,896,0.42020654,0.75798687,1.03383448,0.18570518,0.26880360,0.38365925
6045,0,USCaliforniaMendocino,California,Mendocino,2021-01-06 03:49:41.365276,2020-10-04 00:00:00.000000,0.85579106,1.39762209,1.84362387,742,1212,1599,361,638,887,0.41685677,0.73571161,1.02299625,0.18030148,0.26726172,0.38662387
6045,0,USCaliforniaMendocino,California,Mendocino,2021-01-06 03:49:41.365276,2020-10-05 00:00:00.000000,0.84781326,1.37735978,1.82986002,735,1194,1587,361,621,879,0.41712238,0.71617937,1.01401056,0.17595994,0.26506740,0.39366152
6045,0,USCaliforniaMendocino,California,Mendocino,2021-01-06 03:49:41.365276,2020-10-06 00:00:00.000000,0.83639387,1.34645723,1.84474170,725,1168,1600,361,613,872,0.41703845,0.70737687,1.00540989,0.17886430,0.26377483,0.41241475
6045,0,USCaliforniaMendocino,California,Mendocino,2021-01-06 03:49:41.365276,2020-10-07 00:00:00.000000,0.82917163,1.32567451,1.82332323,719,1150,1581,361,607,865,0.41665121,0.70043711,0.99743000,0.18473972,0.27205620,0.42240338
6045,0,USCaliforniaMendocino,California,Mendocino,2021-01-06 03:49:41.365276,2020-10-08 00:00:00.000000,0.82311332,1.30015101,1.82784590,714,1127,1585,360,596,859,0.41512415,0.68717260,0.99080669,0.19294973,0.27594867,0.41733682
6045,0,USCaliforniaMendocino,California,Mendocino,2021-01-06 03:49:41.365276,2020-10-09 00:00:00.000000,0.81718091,1.26547442,1.82833672,708,1097,1586,354,581,851,0.40903851,0.67022777,0.98132844,0.20263733,0.28026216,0.41792328
6045,0,USCaliforniaMendocino,California,Mendocino,2021-01-06 03:49:41.365276,2020-10-10 00:00:00.000000,0.81084735,1.25243388,1.82699892,703,1086,1584,350,568,852,0.40408472,0.65539176,0.98258633,0.21276176,0.28509542,0.41801038
6045,0,USCaliforniaMendocino,California,Mendocino,2021-01-06 03:49:41.365276,2020-10-11 00:00:00.000000,0.80386679,1.24133799,1.82494231,697,1076,1583,346,561,850,0.39980057,0.64685361,0.98073307,0.20712156,0.29022208,0.42985370
6045,0,USCaliforniaMendocino,California,Mendocino,2021-01-06 03:49:41.365276,2020-10-12 00:00:00.000000,0.79514555,1.23742729,1.82251837,689,1073,1581,343,557,850,0.39584309,0.64318870,0.98013283,0.21266409,0.30116061,0.45301182
6045,0,USCaliforniaMendocino,California,Mendocino,2021-01-06 03:49:41.365276,2020-10-13 00:00:00.000000,0.78626290,1.23188864,1.81986652,682,1068,1578,339,554,851,0.39181004,0.63896705,0.98128067,0.21757638,0.31029927,0.45920136
6045,0,USCaliforniaMendocino,California,Mendocino,2021-01-06 03:49:41.365276,2020-10-14 00:00:00.000000,0.77734897,1.22906355,1.83328952,674,1066,1590,336,547,853,0.38769102,0.63107050,0.98396990,0.21580188,0.31694912,0.46033207
6045,0,USCaliforniaMendocino,California,Mendocino,2021-01-06 03:49:41.365276,2020-10-15 00:00:00.000000,0.76858497,1.21309763,1.85118393,666,1052,1605,335,544,857,0.38643219,0.62804212,0.98814017,0.21014400,0.32356772,0.46007218
6045,0,USCaliforniaMendocino,California,Mendocino,2021-01-06 03:49:41.365276,2020-10-16 00:00:00.000000,0.76230891,1.20103802,1.87227331,661,1041,1624,334,546,862,0.38609449,0.62943833,0.99383492,0.21744186,0.32913444,0.46523935
6045,0,USCaliforniaMendocino,California,Mendocino,2021-01-06 03:49:41.365276,2020-10-17 00:00:00.000000,0.77242472,1.19454546,1.89632201,670,1036,1645,334,547,868,0.38600912,0.63166523,1.00112455,0.22861274,0.34700161,0.46062900
6045,0,USCaliforniaMendocino,California,Mendocino,2021-01-06 03:49:41.365276,2020-10-18 00:00:00.000000,0.78945430,1.19940883,1.92277113,684,1040,1667,335,542,876,0.38617277,0.62566546,1.01002854,0.24020246,0.35962619,0.49220285
6045,0,USCaliforniaMendocino,California,Mendocino,2021-01-06 03:49:41.365276,2020-10-19 00:00:00.000000,0.80708480,1.20212768,1.94670779,700,1042,1688,335,543,879,0.38664773,0.62692547,1.01396678,0.24531560,0.36480270,0.51274279
6045,0,USCaliforniaMendocino,California,Mendocino,2021-01-06 03:49:41.365276,2020-10-20 00:00:00.000000,0.82554225,1.20536560,1.97192372,716,1045,1710,336,547,882,0.38830028,0.63078615,1.01735224,0.24807490,0.37101057,0.53007462
6045,0,USCaliforniaMendocino,California,Mendocino,2021-01-06 03:49:41.365276,2020-10-21 00:00:00.000000,0.84463689,1.21964351,2.01988319,732,1058,1752,340,546,885,0.39289529,0.63048515,1.02123124,0.25224383,0.37727418,0.54527563
6045,0,USCaliforniaMendocino,California,Mendocino,2021-01-06 03:49:41.365276,2020-10-22 00:00:00.000000,0.85585651,1.25480305,2.08783501,742,1088,1811,347,546,889,0.40052682,0.62968915,1.02580829,0.25151475,0.39273139,0.56315517
6045,0,USCaliforniaMendocino,California,Mendocino,2021-01-06 03:49:41.365276,2020-10-23 00:00:00.000000,0.86312921,1.30255800,2.14567504,748,1129,1861,356,552,894,0.41038647,0.63655676,1.03128310,0.25000311,0.39843408,0.56274859
6045,0,USCaliforniaMendocino,California,Mendocino,2021-01-06 03:49:41.365276,2020-10-24 00:00:00.000000,0.89277355,1.33795683,2.16824167,774,1160,1880,366,561,900,0.42192644,0.64703448,1.03783062,0.24843858,0.41357452,0.59169206
6045,0,USCaliforniaMendocino,California,Mendocino,2021-01-06 03:49:41.365276,2020-10-25 00:00:00.000000,0.90995216,1.38189660,2.19262249,789,1198,1902,372,564,907,0.42983004,0.65129583,1.04557010,0.24959510,0.43138538,0.63640728
6045,0,USCaliforniaMendocino,California,Mendocino,2021-01-06 03:49:41.365276,2020-10-26 00:00:00.000000,0.91228019,1.41621623,2.26293357,791,1228,1963,373,577,924,0.43037424,0.66568844,1.06529807,0.25820513,0.45404090,0.68288997
6045,0,USCaliforniaMendocino,California,Mendocino,2021-01-06 03:49:41.365276,2020-10-27 00:00:00.000000,0.93950053,1.44198549,2.29257917,815,1250,1988,383,595,952,0.44229852,0.68601723,1.09794510,0.27450384,0.46074384,0.69666509
6045,0,USCaliforniaMendocino,California,Mendocino,2021-01-06 03:49:41.365276,2020-10-28 00:00:00.000000,0.97003441,1.49781687,2.32356485,841,1299,2015,395,610,980,0.45626678,0.70341197,1.13009925,0.29776154,0.47489720,0.70326384
6045,0,USCaliforniaMendocino,California,Mendocino,2021-01-06 03:49:41.365276,2020-10-29 00:00:00.000000,0.99378353,1.56753724,2.35579655,862,1359,2043,405,623,1011,0.46785948,0.71916216,1.16600739,0.30975640,0.47624394,0.70673872
6045,0,USCaliforniaMendocino,California,Mendocino,2021-01-06 03:49:41.365276,2020-10-30 00:00:00.000000,0.99777370,1.61543307,2.41589011,865,1401,2095,413,632,1040,0.47690450,0.72870345,1.19905963,0.32847276,0.49070440,0.75844965
6045,0,USCaliforniaMendocino,California,Mendocino,2021-01-06 03:49:41.365276,2020-10-31 00:00:00.000000,1.00255016,1.66076696,2.50558920,869,1440,2173,422,655,1069,0.48739422,0.75607694,1.23263013,0.35000053,0.51514547,0.78844164
6045,0,USCaliforniaMendocino,California,Mendocino,2021-01-06 03:49:41.365276,2020-11-01 00:00:00.000000,1.02165015,1.73156837,2.61408056,886,1502,2267,433,688,1102,0.49922297,0.79376310,1.27064434,0.37189718,0.52588866,0.79784756
6045,0,USCaliforniaMendocino,California,Mendocino,2021-01-06 03:49:41.365276,2020-11-02 00:00:00.000000,1.04993433,1.80691718,2.74443851,910,1567,2380,444,715,1140,0.51217825,0.82437331,1.31465942,0.38208074,0.54347121,0.81789064
6045,0,USCaliforniaMendocino,California,Mendocino,2021-01-06 03:49:41.365276,2020-11-03 00:00:00.000000,1.08303330,1.87275270,2.88614180,939,1624,2503,456,748,1185,0.52622655,0.86332059,1.36630459,0.38925758,0.57063239,0.82804214
6045,0,USCaliforniaMendocino,California,Mendocino,2021-01-06 03:49:41.365276,2020-11-04 00:00:00.000000,1.12613444,1.96728945,3.03898556,976,1706,2636,470,782,1236,0.54202922,0.90243484,1.42523939,0.40151266,0.58430953,0.82414959
6045,0,USCaliforniaMendocino,California,Mendocino,2021-01-06 03:49:41.365276,2020-11-05 00:00:00.000000,1.18417185,2.05167152,3.20502732,1027,1779,2780,486,824,1289,0.56124567,0.95098981,1.48613023,0.40986214,0.59512003,0.82995553
6045,0,USCaliforniaMendocino,California,Mendocino,2021-01-06 03:49:41.365276,2020-11-06 00:00:00.000000,1.25606595,2.16967150,3.34085731,1089,1882,2898,508,866,1328,0.58601696,0.99870392,1.53134345,0.42973732,0.61253245,0.83042771
6045,0,USCaliforniaMendocino,California,Mendocino,2021-01-06 03:49:41.365276,2020-11-07 00:00:00.000000,1.33780323,2.31317331,3.50260159,1160,2006,3038,535,911,1368,0.61721482,1.05042580,1.57799242,0.44405878,0.63503596,0.83718401
6045,0,USCaliforniaMendocino,California,Mendocino,2021-01-06 03:49:41.365276,2020-11-08 00:00:00.000000,1.42707291,2.44125079,3.68951832,1237,2117,3200,567,950,1410,0.65429393,1.09524462,1.62650279,0.47229617,0.65027387,0.93362169
6045,0,USCaliforniaMendocino,California,Mendocino,2021-01-06 03:49:41.365276,2020-11-09 00:00:00.000000,1.52432056,2.61867464,3.89216302,1322,2271,3376,604,1008,1488,0.69626370,1.16248450,1.71623030,0.48796162,0.66317519,0.93690375
6045,0,USCaliforniaMendocino,California,Mendocino,2021-01-06 03:49:41.365276,2020-11-10 00:00:00.000000,1.62809621,2.72437031,4.10609208,1412,2363,3561,652,1081,1574,0.75164949,1.24629488,1.81534176,0.49498132,0.66975031,0.93547657
6045,0,USCaliforniaMendocino,California,Mendocino,2021-01-06 03:49:41.365276,2020-11-11 00:00:00.000000,1.73858221,2.87306269,4.33059187,1508,2492,3756,705,1136,1654,0.81337699,1.31064036,1.90717972,0.49993441,0.67661601,0.97997327
6045,0,USCaliforniaMendocino,California,Mendocino,2021-01-06 03:49:41.365276,2020-11-12 00:00:00.000000,1.85616553,3.04817399,4.59835334,1610,2644,3989,750,1180,1740,0.86539938,1.36122055,2.00649642,0.50753156,0.68555755,1.03264206
6045,0,USCaliforniaMendocino,California,Mendocino,2021-01-06 03:49:41.365276,2020-11-13 00:00:00.000000,1.98203967,3.26832372,4.89880131,1719,2835,4249,796,1238,1857,0.91793707,1.42724879,2.14133467,0.49310894,0.69012784,0.99012993
6045,0,USCaliforniaMendocino,California,Mendocino,2021-01-06 03:49:41.365276,2020-11-14 00:00:00.000000,2.12013496,3.52753606,5.17195820,1839,3060,4486,849,1316,2007,0.97882126,1.51795931,2.31471994,0.50604105,0.69476610,1.01504497
6045,0,USCaliforniaMendocino,California,Mendocino,2021-01-06 03:49:41.365276,2020-11-15 00:00:00.000000,2.28142963,3.75879134,5.47507697,1979,3260,4749,910,1405,2168,1.04947651,1.62061278,2.50003448,0.53608745,0.69891843,1.02905396
6045,0,USCaliforniaMendocino,California,Mendocino,2021-01-06 03:49:41.365276,2020-11-16 00:00:00.000000,2.48148074,3.95505004,5.83356495,2152,3430,5060,979,1497,2338,1.12855689,1.72671288,2.69534362,0.53723413,0.70839448,1.03579477
6045,0,USCaliforniaMendocino,California,Mendocino,2021-01-06 03:49:41.365276,2020-11-17 00:00:00.000000,2.70032623,4.23396479,6.19996315,2342,3672,5378,1054,1584,2503,1.21557744,1.82700689,2.88626236,0.51720443,0.71218595,1.03911777
6045,0,USCaliforniaMendocino,California,Mendocino,2021-01-06 03:49:41.365276,2020-11-18 00:00:00.000000,2.93568472,4.53080467,6.56780618,2546,3930,5697,1136,1673,2666,1.31016489,1.92900919,3.07395379,0.50856177,0.71079272,1.04050635
6045,0,USCaliforniaMendocino,California,Mendocino,2021-01-06 03:49:41.365276,2020-11-19 00:00:00.000000,3.18895231,4.78682200,6.94242520,2766,4152,6022,1219,1766,2834,1.40627663,2.03588944,3.26697703,0.50649668,0.71069316,1.04084578
6045,0,USCaliforniaMendocino,California,Mendocino,2021-01-06 03:49:41.365276,2020-11-20 00:00:00.000000,3.42387330,5.11542913,7.50629136,2970,4437,6511,1299,1907,3001,1.49786829,2.19908267,3.46045028,0.50502168,0.69117795,1.03971434
6045,0,USCaliforniaMendocino,California,Mendocino,2021-01-06 03:49:41.365276,2020-11-21 00:00:00.000000,3.56983793,5.40927081,7.83106158,3096,4692,6793,1388,2026,3165,1.60059976,2.33588571,3.64945778,0.50351949,0.69221116,1.03342783
6045,0,USCaliforniaMendocino,California,Mendocino,2021-01-06 03:49:41.365276,2020-11-22 00:00:00.000000,3.69392365,5.69747207,8.14803467,3204,4942,7068,1476,2149,3325,1.70240423,2.47734146,3.83376950,0.50002349,0.68941398,1.03215301
6045,0,USCaliforniaMendocino,California,Mendocino,2021-01-06 03:49:41.365276,2020-11-23 00:00:00.000000,3.80481477,6.02270826,8.64067636,3300,5224,7495,1562,2273,3493,1.80122718,2.62083743,4.02662364,0.47979471,0.68195420,0.98928470
6045,0,USCaliforniaMendocino,California,Mendocino,2021-01-06 03:49:41.365276,2020-11-24 00:00:00.000000,3.91097235,6.35473632,9.24334731,3392,5512,8018,1665,2411,3644,1.91996032,2.77972186,4.20070468,0.46899696,0.67097914,0.97781246
6045,0,USCaliforniaMendocino,California,Mendocino,2021-01-06 03:49:41.365276,2020-11-25 00:00:00.000000,4.01560927,6.61998942,9.63677808,3483,5742,8359,1772,2542,3788,2.04269023,2.93056320,4.36760813,0.46859715,0.65048330,0.94743063
6045,0,USCaliforniaMendocino,California,Mendocino,2021-01-06 03:49:41.365276,2020-11-26 00:00:00.000000,4.24644662,6.81180911,10.08900023,3683,5909,8752,1844,2661,3923,2.12575934,3.06759778,4.52231245,0.45516622,0.63591633,0.90934716
6045,0,USCaliforniaMendocino,California,Mendocino,2021-01-06 03:49:41.365276,2020-11-27 00:00:00.000000,4.58843332,7.07783312,10.59594841,3980,6139,9191,1911,2801,4048,2.20333116,3.22905797,4.66655632,0.44144402,0.61667348,0.89750803
6045,0,USCaliforniaMendocino,California,Mendocino,2021-01-06 03:49:41.365276,2020-11-28 00:00:00.000000,4.95267234,7.43437321,10.86475058,4296,6449,9425,1977,2959,4252,2.27998996,3.41125103,4.90153215,0.42459776,0.59716242,0.88612911
6045,0,USCaliforniaMendocino,California,Mendocino,2021-01-06 03:49:41.365276,2020-11-29 00:00:00.000000,5.33974557,7.65811232,10.98717267,4632,6643,9531,2043,3066,4497,2.35513594,3.53449096,5.18430225,0.40003400,0.57645168,0.87762580
6045,0,USCaliforniaMendocino,California,Mendocino,2021-01-06 03:49:41.365276,2020-11-30 00:00:00.000000,5.74568601,7.85324420,11.08907615,4984,6812,9619,2108,3164,4672,2.43028728,3.64751467,5.38625825,0.37035645,0.56194593,0.81697165
6045,0,USCaliforniaMendocino,California,Mendocino,2021-01-06 03:49:41.365276,2020-12-01 00:00:00.000000,6.04444183,8.00793955,11.17282158,5243,6946,9692,2172,3267,4872,2.50404761,3.76659637,5.61636574,0.36349816,0.54437862,0.78509654
6045,0,USCaliforniaMendocino,California,Mendocino,2021-01-06 03:49:41.365276,2020-12-02 00:00:00.000000,6.16192545,8.12414628,11.24019028,5345,7047,9750,2255,3380,5029,2.60055801,3.89660755,5.79781093,0.35438179,0.53250351,0.74959514
6045,0,USCaliforniaMendocino,California,Mendocino,2021-01-06 03:49:41.365276,2020-12-03 00:00:00.000000,6.27280091,8.20716974,11.29221621,5441,7119,9795,2302,3453,5082,2.65466608,3.98145461,5.85866258,0.35237334,0.52098215,0.70372618
6045,0,USCaliforniaMendocino,California,Mendocino,2021-01-06 03:49:41.365276,2020-12-04 00:00:00.000000,6.38071310,8.34413851,11.32929646,5535,7238,9828,2347,3513,5124,2.70553085,4.05007707,5.90710518,0.34969223,0.50417451,0.67390348
6045,0,USCaliforniaMendocino,California,Mendocino,2021-01-06 03:49:41.365276,2020-12-05 00:00:00.000000,6.40777793,8.40884995,11.35138933,5558,7294,9847,2388,3559,5157,2.75328810,4.10270215,5.94482082,0.34567706,0.49527811,0.67277399
6045,0,USCaliforniaMendocino,California,Mendocino,2021-01-06 03:49:41.365276,2020-12-06 00:00:00.000000,6.39072289,8.53965627,11.35770728,5543,7408,9852,2426,3627,5181,2.79755026,4.18160408,5.97285114,0.34162866,0.48964926,0.67515534
6045,0,USCaliforniaMendocino,California,Mendocino,2021-01-06 03:49:41.365276,2020-12-07 00:00:00.000000,6.36503522,8.63009129,11.34528739,5521,7486,9841,2460,3692,5197,2.83662463,4.25659812,5.99169621,0.33805205,0.48684303,0.67645419
6045,0,USCaliforniaMendocino,California,Mendocino,2021-01-06 03:49:41.365276,2020-12-08 00:00:00.000000,6.33648699,8.70029290,11.35983766,5496,7547,9854,2487,3771,5205,2.86773610,4.34777167,6.00109379,0.33501706,0.48338419,0.64835876
6045,0,USCaliforniaMendocino,California,Mendocino,2021-01-06 03:49:41.365276,2020-12-09 00:00:00.000000,6.30585042,8.70136223,11.48043127,5470,7548,9959,2507,3808,5258,2.89062327,4.38987965,6.06154550,0.32678142,0.47791008,0.62234492
6045,0,USCaliforniaMendocino,California,Mendocino,2021-01-06 03:49:41.365276,2020-12-10 00:00:00.000000,6.27881069,8.66338427,11.56952423,5446,7515,10036,2514,3824,5335,2.89839336,4.40909284,6.15075131,0.32526740,0.46789003,0.62301582
6045,0,USCaliforniaMendocino,California,Mendocino,2021-01-06 03:49:41.365276,2020-12-11 00:00:00.000000,6.26836360,8.65037933,11.63956596,5437,7504,10097,2517,3815,5400,2.90214914,4.39870834,6.22571398,0.32698121,0.45815740,0.63269117
6045,0,USCaliforniaMendocino,California,Mendocino,2021-01-06 03:49:41.365276,2020-12-12 00:00:00.000000,6.24239631,8.58527819,11.69292032,5415,7447,10143,2525,3798,5454,2.91073236,4.37828530,6.28772910,0.32489904,0.46670454,0.65560636
6045,0,USCaliforniaMendocino,California,Mendocino,2021-01-06 03:49:41.365276,2020-12-13 00:00:00.000000,6.20653622,8.48375929,11.73000749,5384,7359,10175,2531,3800,5498,2.91868272,4.38119730,6.33817169,0.32049041,0.47615060,0.65079277
6045,0,USCaliforniaMendocino,California,Mendocino,2021-01-06 03:49:41.365276,2020-12-14 00:00:00.000000,6.17039544,8.44517841,11.74800640,5352,7326,10191,2539,3790,5532,2.92697098,4.36922573,6.37801040,0.31714289,0.48067796,0.64872174
6045,0,USCaliforniaMendocino,California,Mendocino,2021-01-06 03:49:41.365276,2020-12-15 00:00:00.000000,6.15274759,8.41995043,11.91196543,5337,7304,10333,2546,3790,5557,2.93603109,4.36977127,6.40590289,0.31146197,0.47816053,0.65110887
6045,0,USCaliforniaMendocino,California,Mendocino,2021-01-06 03:49:41.365276,2020-12-16 00:00:00.000000,6.13752029,8.38990728,12.08988478,5324,7278,10487,2555,3780,5571,2.94540545,4.35850030,6.42297507,0.31335773,0.47276107,0.66056094
6045,0,USCaliforniaMendocino,California,Mendocino,2021-01-06 03:49:41.365276,2020-12-17 00:00:00.000000,6.12355597,8.35840962,12.08170176,5312,7250,10480,2557,3751,5577,2.94839680,4.32504424,6.43003481,0.31707394,0.48284705,0.67480115
6045,0,USCaliforniaMendocino,California,Mendocino,2021-01-06 03:49:41.365276,2020-12-18 00:00:00.000000,6.11008325,8.30582845,11.88882996,5300,7205,10313,2557,3758,5580,2.94826665,4.33238329,6.43329107,0.31562736,0.50041091,0.67581079
6045,0,USCaliforniaMendocino,California,Mendocino,2021-01-06 03:49:41.365276,2020-12-19 00:00:00.000000,6.09785556,8.32246101,11.70562092,5289,7219,10154,2555,3740,5571,2.94557551,4.31152447,6.42261391,0.31400159,0.51107700,0.68096997
6045,0,USCaliforniaMendocino,California,Mendocino,2021-01-06 03:49:41.365276,2020-12-20 00:00:00.000000,6.09241981,8.32103228,11.87292143,5285,7218,10299,2531,3720,5560,2.91873169,4.28840026,6.40963903,0.31061230,0.52192853,0.69480746
6045,0,USCaliforniaMendocino,California,Mendocino,2021-01-06 03:49:41.365276,2020-12-21 00:00:00.000000,6.01924734,8.32749930,12.06443152,5221,7224,10465,2527,3671,5544,2.91308398,4.23220612,6.39128643,0.30560084,0.53264739,0.71613091
6045,0,USCaliforniaMendocino,California,Mendocino,2021-01-06 03:49:41.365276,2020-12-22 00:00:00.000000,6.04136305,8.31594496,12.24103576,5240,7213,10618,2522,3666,5523,2.90819165,4.22692504,6.36731065,0.30280538,0.53651220,0.74202517
6045,0,USCaliforniaMendocino,California,Mendocino,2021-01-06 03:49:41.365276,2020-12-23 00:00:00.000000,6.07997807,8.25989033,12.40263038,5274,7165,10759,2531,3640,5493,2.91774784,4.19668906,6.33309676,0.30163960,0.54484691,0.76766818
6045,0,USCaliforniaMendocino,California,Mendocino,2021-01-06 03:49:41.365276,2020-12-24 00:00:00.000000,6.08322936,8.24618079,12.54538583,5277,7153,10882,2525,3642,5450,2.91109255,4.19844335,6.28316409,0.30055972,0.54570954,0.79080894
6045,0,USCaliforniaMendocino,California,Mendocino,2021-01-06 03:49:41.365276,2020-12-25 00:00:00.000000,6.10809212,8.13982546,12.68090626,5298,7061,11000,2512,3627,5388,2.89673619,4.18111500,6.21194176,0.29867490,0.54714918,0.81551561
6045,0,USCaliforniaMendocino,California,Mendocino,2021-01-06 03:49:41.365276,2020-12-26 00:00:00.000000,6.11948765,8.09670415,12.54498858,5308,7023,10882,2488,3602,5424,2.86869712,4.15304990,6.25366866,0.31210668,0.54451204,0.82713747
6045,0,USCaliforniaMendocino,California,Mendocino,2021-01-06 03:49:41.365276,2020-12-27 00:00:00.000000,6.11804236,8.04817774,12.34792479,5307,6981,10711,2467,3630,5490,2.84415035,4.18518777,6.32926700,0.31617890,0.54697021,0.83789223
6045,0,USCaliforniaMendocino,California,Mendocino,2021-01-06 03:49:41.365276,2020-12-28 00:00:00.000000,6.16821736,8.02301185,12.13232737,5350,6959,10524,2452,3658,5529,2.82666168,4.21693454,6.37358381,0.31509477,0.55419780,0.85998648
6045,0,USCaliforniaMendocino,California,Mendocino,2021-01-06 03:49:41.365276,2020-12-29 00:00:00.000000,6.08145640,7.96287026,11.90649907,5275,6907,10328,2463,3656,5446,2.83935315,4.21485141,6.27790176,0.31295867,0.56071632,0.87505908
6045,0,USCaliforniaMendocino,California,Mendocino,2021-01-06 03:49:41.365276,2020-12-30 00:00:00.000000,6.04860175,7.95813253,11.79885494,5247,6903,10235,2435,3616,5359,2.80781696,4.16928534,6.17790433,0.30945350,0.56050091,0.89157398
6045,0,USCaliforniaMendocino,California,Mendocino,2021-01-06 03:49:41.365276,2020-12-31 00:00:00.000000,5.89509480,7.89283343,12.06911640,5113,6846,10469,2429,3591,5417,2.80102143,4.14040159,6.24546624,0.30461235,0.55563042,0.93328256
6045,0,USCaliforniaMendocino,California,Mendocino,2021-01-06 03:49:41.365276,2021-01-01 00:00:00.000000,5.79262524,7.96349286,12.32839103,5025,6908,10694,2421,3587,5562,2.79192952,4.13553654,6.41233820,0.29932210,0.55482544,0.92473547
6045,0,USCaliforniaMendocino,California,Mendocino,2021-01-06 03:49:41.365276,2021-01-02 00:00:00.000000,5.68565075,8.02871411,12.57657919,4932,6964,10910,2411,3552,5695,2.78029215,4.09469283,6.56589139,0.29483984,0.55248645,0.93933258
6045,0,USCaliforniaMendocino,California,Mendocino,2021-01-06 03:49:41.365276,2021-01-03 00:00:00.000000,5.57523165,8.07048645,12.79230396,4836,7001,11097,2400,3555,5815,2.76767163,4.09859679,6.70407868,0.29251173,0.55738623,0.95198173
6045,0,USCaliforniaMendocino,California,Mendocino,2021-01-06 03:49:41.365276,2021-01-04 00:00:00.000000,5.46237764,8.01998143,12.94861450,4738,6957,11232,2388,3557,5835,2.75286751,4.10062063,6.72651866,0.29340377,0.56086547,0.96459840
6045,0,USCaliforniaMendocino,California,Mendocino,2021-01-06 03:49:41.365276,2021-01-05 00:00:00.000000,5.26957497,8.01254427,13.00312504,4571,6950,11280,2373,3528,5757,2.73602175,4.06743331,6.63712243,0.29504886,0.55196917,0.98742400
6045,0,USCaliforniaMendocino,California,Mendocino,2021-01-06 03:49:41.365276,2021-01-06 00:00:00.000000,5.05482539,7.88835626,12.79116779,4385,6843,11096,2357,3521,5670,2.71725137,4.05914435,6.53714582,0.29727047,0.54201149,1.01617601
6045,0,USCaliforniaMendocino,California,Mendocino,2021-01-06 03:49:41.365276,2021-01-07 00:00:00.000000,4.84380664,7.73285920,12.48418449,4201,6708,10829,2342,3461,5634,2.70021455,3.99011958,6.49494060,0.29933843,0.53961448,1.02364420
6045,0,USCaliforniaMendocino,California,Mendocino,2021-01-06 03:49:41.365276,2021-01-08 00:00:00.000000,4.63766253,7.56278238,12.24042466,4023,6560,10618,2297,3433,5635,2.64894940,3.95823890,6.49580703,0.30070153,0.53964190,1.02522182
6045,0,USCaliforniaMendocino,California,Mendocino,2021-01-06 03:49:41.365276,2021-01-09 00:00:00.000000,4.43712824,7.38951294,12.44588277,3849,6410,10796,2249,3411,5559,2.59299450,3.93225369,6.40852236,0.30140869,0.53964798,1.02552683
6045,0,USCaliforniaMendocino,California,Mendocino,2021-01-06 03:49:41.365276,2021-01-10 00:00:00.000000,4.24266049,7.23387146,12.41176649,3680,6275,10767,2177,3366,5548,2.51037705,3.88094966,6.39633185,0.30173044,0.53964932,1.02559020
6045,0,USCaliforniaMendocino,California,Mendocino,2021-01-06 03:49:41.365276,2021-01-11 00:00:00.000000,4.05452600,7.15980333,12.50143549,3517,6211,10844,2066,3312,5503,2.38204598,3.81840755,6.34408815,0.30186805,0.53964962,1.02560340
6045,0,USCaliforniaMendocino,California,Mendocino,2021-01-06 03:49:41.365276,2021-01-12 00:00:00.000000,3.87286062,7.11433707,12.56368261,3359,6171,10898,1959,3237,5429,2.25877776,3.73198024,6.25854408,0.30192534,0.53964969,1.02560617
6045,0,USCaliforniaMendocino,California,Mendocino,2021-01-06 03:49:41.365276,2021-01-13 00:00:00.000000,3.69870206,7.01450502,12.59804251,3208,6085,10928,1856,3179,5349,2.14065392,3.66493267,6.16710686,0.30194892,0.53964970,1.02560677
6045,0,USCaliforniaMendocino,California,Mendocino,2021-01-06 03:49:41.365276,2021-01-14 00:00:00.000000,3.53120910,6.90427238,12.60430542,3063,5989,10934,1758,3131,5386,2.02767440,3.60975865,6.20896851,0.30195858,0.53964971,1.02560690
6045,0,USCaliforniaMendocino,California,Mendocino,2021-01-06 03:49:41.365276,2021-01-15 00:00:00.000000,3.36234143,6.74121794,12.58251802,2916,5847,10915,1669,3081,5409,1.92493896,3.55244497,6.23599091,0.30196253,0.53964971,1.02560694
6045,0,USCaliforniaMendocino,California,Mendocino,2021-01-06 03:49:41.365276,2021-01-16 00:00:00.000000,3.18519523,6.55902217,12.53297945,2763,5689,10872,1596,3041,5418,1.84057231,3.50614369,6.24674276,0.30196414,0.53964971,1.02560695
6045,0,USCaliforniaMendocino,California,Mendocino,2021-01-06 03:49:41.365276,2021-01-17 00:00:00.000000,3.06426204,6.40962183,12.45623292,2658,5560,10805,1526,2988,5416,1.75934668,3.44539163,6.24388512,0.30196480,0.53964971,1.02560695
