FIPS,HR_UID,nameid,province,region,analysisTime,dates,pointprevalence_025,pointprevalence_50,pointprevalence_975,pointinfections_025,pointinfections_50,pointinfections_975,pointinfectious_025,pointinfectious_50,pointinfectious_975,pointinfectiousprevalence_05,pointinfectiousprevalence_50,pointinfectiousprevalence_95,infectrate_025,infectrate_50,infectrate_975
47163,0,USTennesseeSullivan,Tennessee,Sullivan,2021-01-05 10:06:36.373281,2020-03-09 00:00:00.000000,0.00031620,0.00202734,0.00674211,0,3,10,0,1,5,0.00019156,0.00121017,0.00371760,0.37178234,0.49419153,0.64311564
47163,0,USTennesseeSullivan,Tennessee,Sullivan,2021-01-05 10:06:36.373281,2020-03-10 00:00:00.000000,0.00036814,0.00222073,0.00728361,0,3,11,0,1,6,0.00018742,0.00112739,0.00380056,0.37177798,0.49395863,0.64310841
47163,0,USTennesseeSullivan,Tennessee,Sullivan,2021-01-05 10:06:36.373281,2020-03-11 00:00:00.000000,0.00041989,0.00245101,0.00800788,0,3,12,0,1,6,0.00019615,0.00114415,0.00398792,0.37177029,0.49348394,0.64308726
47163,0,USTennesseeSullivan,Tennessee,Sullivan,2021-01-05 10:06:36.373281,2020-03-12 00:00:00.000000,0.00047246,0.00271674,0.00875125,0,4,13,0,1,6,0.00021252,0.00119230,0.00434923,0.37175669,0.49306069,0.64302534
47163,0,USTennesseeSullivan,Tennessee,Sullivan,2021-01-05 10:06:36.373281,2020-03-13 00:00:00.000000,0.00052658,0.00295259,0.00951855,0,4,15,0,2,7,0.00023364,0.00130163,0.00474723,0.37173255,0.49302958,0.64284405
47163,0,USTennesseeSullivan,Tennessee,Sullivan,2021-01-05 10:06:36.373281,2020-03-14 00:00:00.000000,0.00058280,0.00309814,0.01031266,0,4,16,0,2,8,0.00025797,0.00143735,0.00507802,0.37168939,0.49020688,0.64220276
47163,0,USTennesseeSullivan,Tennessee,Sullivan,2021-01-05 10:06:36.373281,2020-03-15 00:00:00.000000,0.00064159,0.00329698,0.01114588,1,5,17,0,2,8,0.00028469,0.00154115,0.00540300,0.37161130,0.48693923,0.64043963
47163,0,USTennesseeSullivan,Tennessee,Sullivan,2021-01-05 10:06:36.373281,2020-03-16 00:00:00.000000,0.00119809,0.00438610,0.01261135,1,6,19,0,2,9,0.00031343,0.00168025,0.00590956,0.37146702,0.48661559,0.63569069
47163,0,USTennesseeSullivan,Tennessee,Sullivan,2021-01-05 10:06:36.373281,2020-03-17 00:00:00.000000,0.00184375,0.00562467,0.01481831,2,8,23,0,3,10,0.00044878,0.00199175,0.00671770,0.36970605,0.48320655,0.62860470
47163,0,USTennesseeSullivan,Tennessee,Sullivan,2021-01-05 10:06:36.373281,2020-03-18 00:00:00.000000,0.00265214,0.00686590,0.01713204,4,10,27,1,3,12,0.00067393,0.00246862,0.00769792,0.34800587,0.47173248,0.62789131
47163,0,USTennesseeSullivan,Tennessee,Sullivan,2021-01-05 10:06:36.373281,2020-03-19 00:00:00.000000,0.00350631,0.00830843,0.01897533,5,13,30,1,4,13,0.00105775,0.00295507,0.00867715,0.33127105,0.46335402,0.62542078
47163,0,USTennesseeSullivan,Tennessee,Sullivan,2021-01-05 10:06:36.373281,2020-03-20 00:00:00.000000,0.00424574,0.00962272,0.02074271,6,15,32,2,5,15,0.00141311,0.00348053,0.00968444,0.30102054,0.44553474,0.61683993
47163,0,USTennesseeSullivan,Tennessee,Sullivan,2021-01-05 10:06:36.373281,2020-03-21 00:00:00.000000,0.00501373,0.01067412,0.02242140,7,16,35,2,6,16,0.00176254,0.00400790,0.01068173,0.26383124,0.42312111,0.59754709
47163,0,USTennesseeSullivan,Tennessee,Sullivan,2021-01-05 10:06:36.373281,2020-03-22 00:00:00.000000,0.00589583,0.01165274,0.02403004,9,18,38,3,7,18,0.00213168,0.00454395,0.01175419,0.25906336,0.39808097,0.59311342
47163,0,USTennesseeSullivan,Tennessee,Sullivan,2021-01-05 10:06:36.373281,2020-03-23 00:00:00.000000,0.00680676,0.01326401,0.02619775,10,21,41,3,8,21,0.00248364,0.00517620,0.01326270,0.25782057,0.37313404,0.54312300
47163,0,USTennesseeSullivan,Tennessee,Sullivan,2021-01-05 10:06:36.373281,2020-03-24 00:00:00.000000,0.00759698,0.01458510,0.02834644,12,23,44,4,9,23,0.00290500,0.00594620,0.01452603,0.25698281,0.35562762,0.50469017
47163,0,USTennesseeSullivan,Tennessee,Sullivan,2021-01-05 10:06:36.373281,2020-03-25 00:00:00.000000,0.00827907,0.01602657,0.03052586,13,25,48,5,10,24,0.00345521,0.00660554,0.01564095,0.23539529,0.34437846,0.49926649
47163,0,USTennesseeSullivan,Tennessee,Sullivan,2021-01-05 10:06:36.373281,2020-03-26 00:00:00.000000,0.00889226,0.01757040,0.03273412,14,27,51,6,11,26,0.00401999,0.00727001,0.01667135,0.22571300,0.33382995,0.48482811
47163,0,USTennesseeSullivan,Tennessee,Sullivan,2021-01-05 10:06:36.373281,2020-03-27 00:00:00.000000,0.00964397,0.01887824,0.03496981,15,29,55,6,12,27,0.00436783,0.00807148,0.01765820,0.21117553,0.32344471,0.47920732
47163,0,USTennesseeSullivan,Tennessee,Sullivan,2021-01-05 10:06:36.373281,2020-03-28 00:00:00.000000,0.01031117,0.02026660,0.03722863,16,32,58,7,14,29,0.00471962,0.00896055,0.01862609,0.19901182,0.31220426,0.44762614
47163,0,USTennesseeSullivan,Tennessee,Sullivan,2021-01-05 10:06:36.373281,2020-03-29 00:00:00.000000,0.01099826,0.02170415,0.03949515,17,34,62,8,14,31,0.00515520,0.00936336,0.01975807,0.19430162,0.29784253,0.38809207
47163,0,USTennesseeSullivan,Tennessee,Sullivan,2021-01-05 10:06:36.373281,2020-03-30 00:00:00.000000,0.01182212,0.02267590,0.04203128,18,35,66,8,16,33,0.00566630,0.01012065,0.02103344,0.18920546,0.29183844,0.37729600
47163,0,USTennesseeSullivan,Tennessee,Sullivan,2021-01-05 10:06:36.373281,2020-03-31 00:00:00.000000,0.01271395,0.02416133,0.04449220,20,38,70,9,17,35,0.00606472,0.01081778,0.02238306,0.16746647,0.28223259,0.37961185
47163,0,USTennesseeSullivan,Tennessee,Sullivan,2021-01-05 10:06:36.373281,2020-04-01 00:00:00.000000,0.01363150,0.02475974,0.04679959,21,39,74,10,18,37,0.00639402,0.01196312,0.02375079,0.15128059,0.27120642,0.38123580
47163,0,USTennesseeSullivan,Tennessee,Sullivan,2021-01-05 10:06:36.373281,2020-04-02 00:00:00.000000,0.01456912,0.02546429,0.04881962,23,40,77,10,20,39,0.00685782,0.01274968,0.02508118,0.14945890,0.25555298,0.36116259
47163,0,USTennesseeSullivan,Tennessee,Sullivan,2021-01-05 10:06:36.373281,2020-04-03 00:00:00.000000,0.01552046,0.02653089,0.05050095,24,42,79,11,21,41,0.00736247,0.01345765,0.02630922,0.14608155,0.24993926,0.35610865
47163,0,USTennesseeSullivan,Tennessee,Sullivan,2021-01-05 10:06:36.373281,2020-04-04 00:00:00.000000,0.01633570,0.02707197,0.05190191,25,42,82,12,22,43,0.00763426,0.01400696,0.02738800,0.13943475,0.23938358,0.33092052
47163,0,USTennesseeSullivan,Tennessee,Sullivan,2021-01-05 10:06:36.373281,2020-04-05 00:00:00.000000,0.01674566,0.02779074,0.05436816,26,44,86,12,22,44,0.00788481,0.01441499,0.02831375,0.13035618,0.22559305,0.31565881
47163,0,USTennesseeSullivan,Tennessee,Sullivan,2021-01-05 10:06:36.373281,2020-04-06 00:00:00.000000,0.01816315,0.02817426,0.05521292,28,44,87,12,23,45,0.00811942,0.01481009,0.02893448,0.12732268,0.21509137,0.31209552
47163,0,USTennesseeSullivan,Tennessee,Sullivan,2021-01-05 10:06:36.373281,2020-04-07 00:00:00.000000,0.01911052,0.02867295,0.05587793,30,45,88,13,24,48,0.00869695,0.01536068,0.03039745,0.12764013,0.20963001,0.30214585
47163,0,USTennesseeSullivan,Tennessee,Sullivan,2021-01-05 10:06:36.373281,2020-04-08 00:00:00.000000,0.01935566,0.02950476,0.05646409,30,46,89,14,25,50,0.00897266,0.01603203,0.03169639,0.12830446,0.20562102,0.29253462
47163,0,USTennesseeSullivan,Tennessee,Sullivan,2021-01-05 10:06:36.373281,2020-04-09 00:00:00.000000,0.01916109,0.03038664,0.05728452,30,48,90,14,26,51,0.00928411,0.01661034,0.03267280,0.12562746,0.20120568,0.28415506
47163,0,USTennesseeSullivan,Tennessee,Sullivan,2021-01-05 10:06:36.373281,2020-04-10 00:00:00.000000,0.01893880,0.03120035,0.05815879,29,49,92,15,26,52,0.00961580,0.01697207,0.03342633,0.12253245,0.19417325,0.25878282
47163,0,USTennesseeSullivan,Tennessee,Sullivan,2021-01-05 10:06:36.373281,2020-04-11 00:00:00.000000,0.01870923,0.03180150,0.05895123,29,50,93,15,27,53,0.00995313,0.01754922,0.03402568,0.11993557,0.19226257,0.24931628
47163,0,USTennesseeSullivan,Tennessee,Sullivan,2021-01-05 10:06:36.373281,2020-04-12 00:00:00.000000,0.01916689,0.03272303,0.05859754,30,51,92,16,28,54,0.01028172,0.01796873,0.03451751,0.11786273,0.18804392,0.25000470
47163,0,USTennesseeSullivan,Tennessee,Sullivan,2021-01-05 10:06:36.373281,2020-04-13 00:00:00.000000,0.01970344,0.03297743,0.05893312,31,52,93,16,28,55,0.01036983,0.01797398,0.03492693,0.11615295,0.18519584,0.25046088
47163,0,USTennesseeSullivan,Tennessee,Sullivan,2021-01-05 10:06:36.373281,2020-04-14 00:00:00.000000,0.01953060,0.03326968,0.05941330,30,52,94,16,28,55,0.01034182,0.01830651,0.03531677,0.11229495,0.18346689,0.25032355
47163,0,USTennesseeSullivan,Tennessee,Sullivan,2021-01-05 10:06:36.373281,2020-04-15 00:00:00.000000,0.01935977,0.03342151,0.05988740,30,52,94,16,29,56,0.01046151,0.01841748,0.03567558,0.11241116,0.18157838,0.25013570
47163,0,USTennesseeSullivan,Tennessee,Sullivan,2021-01-05 10:06:36.373281,2020-04-16 00:00:00.000000,0.01918791,0.03393533,0.05905544,30,53,93,16,29,56,0.01023021,0.01853614,0.03596973,0.11083563,0.18177689,0.24935022
47163,0,USTennesseeSullivan,Tennessee,Sullivan,2021-01-05 10:06:36.373281,2020-04-17 00:00:00.000000,0.01901323,0.03399817,0.05856698,30,53,92,15,29,56,0.00995022,0.01880278,0.03578107,0.10878498,0.17974205,0.24674447
47163,0,USTennesseeSullivan,Tennessee,Sullivan,2021-01-05 10:06:36.373281,2020-04-18 00:00:00.000000,0.01883612,0.03389912,0.05795908,29,53,91,15,29,55,0.00973133,0.01884927,0.03492241,0.10800137,0.17583599,0.24190138
47163,0,USTennesseeSullivan,Tennessee,Sullivan,2021-01-05 10:06:36.373281,2020-04-19 00:00:00.000000,0.01865940,0.03465319,0.05801849,29,54,91,15,29,54,0.00959350,0.01889261,0.03420861,0.10813503,0.17347289,0.23832727
47163,0,USTennesseeSullivan,Tennessee,Sullivan,2021-01-05 10:06:36.373281,2020-04-20 00:00:00.000000,0.01908788,0.03543027,0.05852447,30,56,92,14,30,54,0.00945538,0.01908288,0.03449270,0.10866751,0.16836603,0.23399825
47163,0,USTennesseeSullivan,Tennessee,Sullivan,2021-01-05 10:06:36.373281,2020-04-21 00:00:00.000000,0.01952954,0.03614218,0.05900798,30,57,93,14,30,53,0.00943082,0.01941462,0.03394173,0.10789716,0.16692269,0.23553060
47163,0,USTennesseeSullivan,Tennessee,Sullivan,2021-01-05 10:06:36.373281,2020-04-22 00:00:00.000000,0.02001383,0.03660749,0.05948151,31,57,94,15,30,52,0.00948760,0.01944805,0.03333424,0.10616419,0.16310460,0.23426477
47163,0,USTennesseeSullivan,Tennessee,Sullivan,2021-01-05 10:06:36.373281,2020-04-23 00:00:00.000000,0.02056926,0.03660971,0.05995019,32,57,94,15,30,51,0.00959714,0.01941352,0.03269833,0.10435103,0.15981560,0.23232497
47163,0,USTennesseeSullivan,Tennessee,Sullivan,2021-01-05 10:06:36.373281,2020-04-24 00:00:00.000000,0.02123549,0.03618452,0.06043560,33,57,95,15,30,50,0.00973922,0.01943840,0.03205045,0.10150609,0.15655342,0.23121257
47163,0,USTennesseeSullivan,Tennessee,Sullivan,2021-01-05 10:06:36.373281,2020-04-25 00:00:00.000000,0.02151513,0.03636278,0.06102502,34,57,96,15,30,51,0.00990144,0.01940199,0.03228245,0.10195927,0.15644487,0.22527318
47163,0,USTennesseeSullivan,Tennessee,Sullivan,2021-01-05 10:06:36.373281,2020-04-26 00:00:00.000000,0.02154921,0.03654967,0.06178721,34,57,97,15,30,52,0.01007522,0.01947806,0.03337656,0.09645528,0.15122592,0.22133664
47163,0,USTennesseeSullivan,Tennessee,Sullivan,2021-01-05 10:06:36.373281,2020-04-27 00:00:00.000000,0.02193268,0.03701371,0.06126651,34,58,97,16,31,54,0.01025475,0.01970100,0.03440371,0.09449499,0.15179023,0.23196385
47163,0,USTennesseeSullivan,Tennessee,Sullivan,2021-01-05 10:06:36.373281,2020-04-28 00:00:00.000000,0.02195997,0.03672259,0.06139456,34,58,97,16,31,53,0.01038087,0.01995718,0.03354670,0.09299569,0.15037626,0.23546551
47163,0,USTennesseeSullivan,Tennessee,Sullivan,2021-01-05 10:06:36.373281,2020-04-29 00:00:00.000000,0.02146427,0.03715878,0.06207580,33,58,98,16,31,54,0.01047188,0.01999420,0.03419349,0.09245401,0.15014964,0.23595971
47163,0,USTennesseeSullivan,Tennessee,Sullivan,2021-01-05 10:06:36.373281,2020-04-30 00:00:00.000000,0.02051152,0.03730097,0.06210173,32,59,98,16,31,55,0.01054411,0.02018527,0.03486320,0.09245438,0.15104387,0.23677346
47163,0,USTennesseeSullivan,Tennessee,Sullivan,2021-01-05 10:06:36.373281,2020-05-01 00:00:00.000000,0.01960898,0.03664527,0.06193523,31,58,98,16,32,56,0.01061064,0.02035232,0.03554506,0.09245923,0.15208297,0.23869380
47163,0,USTennesseeSullivan,Tennessee,Sullivan,2021-01-05 10:06:36.373281,2020-05-02 00:00:00.000000,0.01971406,0.03601640,0.06164203,31,57,97,16,32,57,0.01067769,0.02036987,0.03623624,0.09322067,0.15309517,0.24323264
47163,0,USTennesseeSullivan,Tennessee,Sullivan,2021-01-05 10:06:36.373281,2020-05-03 00:00:00.000000,0.01885855,0.03593650,0.06201185,29,56,98,17,31,58,0.01074726,0.02014412,0.03694427,0.09507665,0.15218420,0.25234628
47163,0,USTennesseeSullivan,Tennessee,Sullivan,2021-01-05 10:06:36.373281,2020-05-04 00:00:00.000000,0.01912868,0.03523135,0.06190720,30,55,98,16,31,59,0.01038246,0.02013874,0.03768401,0.09270734,0.15277706,0.25101868
47163,0,USTennesseeSullivan,Tennessee,Sullivan,2021-01-05 10:06:36.373281,2020-05-05 00:00:00.000000,0.01913784,0.03526777,0.06249126,30,55,98,15,31,60,0.00997848,0.02014588,0.03838560,0.09331486,0.15399582,0.24723232
47163,0,USTennesseeSullivan,Tennessee,Sullivan,2021-01-05 10:06:36.373281,2020-05-06 00:00:00.000000,0.01883032,0.03569221,0.06306034,29,56,99,15,31,61,0.00960790,0.01987920,0.03907083,0.09480662,0.15410003,0.24404372
47163,0,USTennesseeSullivan,Tennessee,Sullivan,2021-01-05 10:06:36.373281,2020-05-07 00:00:00.000000,0.01952797,0.03632320,0.06358299,30,57,100,15,31,61,0.00986895,0.01989519,0.03901758,0.09800705,0.15437180,0.24160912
47163,0,USTennesseeSullivan,Tennessee,Sullivan,2021-01-05 10:06:36.373281,2020-05-08 00:00:00.000000,0.02024556,0.03628986,0.06407789,32,57,101,16,31,61,0.01020713,0.01964974,0.03869967,0.10128082,0.15523528,0.23989486
47163,0,USTennesseeSullivan,Tennessee,Sullivan,2021-01-05 10:06:36.373281,2020-05-09 00:00:00.000000,0.01962789,0.03526220,0.06496461,31,55,102,16,30,60,0.01021567,0.01946250,0.03833302,0.10167097,0.15505798,0.23411017
47163,0,USTennesseeSullivan,Tennessee,Sullivan,2021-01-05 10:06:36.373281,2020-05-10 00:00:00.000000,0.01905163,0.03491955,0.06578182,30,55,104,15,30,60,0.01009628,0.01945368,0.03792294,0.09986214,0.15503344,0.23032183
47163,0,USTennesseeSullivan,Tennessee,Sullivan,2021-01-05 10:06:36.373281,2020-05-11 00:00:00.000000,0.01875197,0.03584243,0.06580786,29,56,104,15,30,59,0.01000541,0.01930430,0.03742925,0.09862188,0.15465082,0.24299614
47163,0,USTennesseeSullivan,Tennessee,Sullivan,2021-01-05 10:06:36.373281,2020-05-12 00:00:00.000000,0.01848394,0.03614798,0.06587557,29,57,104,15,30,59,0.00990507,0.01956674,0.03732243,0.09826852,0.15738703,0.23772666
47163,0,USTennesseeSullivan,Tennessee,Sullivan,2021-01-05 10:06:36.373281,2020-05-13 00:00:00.000000,0.01825088,0.03594764,0.06596412,28,56,104,15,31,59,0.00979946,0.01959688,0.03741974,0.09938604,0.15924092,0.24138821
47163,0,USTennesseeSullivan,Tennessee,Sullivan,2021-01-05 10:06:36.373281,2020-05-14 00:00:00.000000,0.01804032,0.03583568,0.06604577,28,56,104,15,31,60,0.00969191,0.01974876,0.03804727,0.10335637,0.16178514,0.24657504
47163,0,USTennesseeSullivan,Tennessee,Sullivan,2021-01-05 10:06:36.373281,2020-05-15 00:00:00.000000,0.01784558,0.03604499,0.06609299,28,57,104,15,31,61,0.00959006,0.01975609,0.03884077,0.10352281,0.16456977,0.25218399
47163,0,USTennesseeSullivan,Tennessee,Sullivan,2021-01-05 10:06:36.373281,2020-05-16 00:00:00.000000,0.01767469,0.03684655,0.06731226,27,58,106,15,31,62,0.00949009,0.01979129,0.03970940,0.10366460,0.16868585,0.25758711
47163,0,USTennesseeSullivan,Tennessee,Sullivan,2021-01-05 10:06:36.373281,2020-05-17 00:00:00.000000,0.01796611,0.03751320,0.06891601,28,59,109,14,31,63,0.00939242,0.01990058,0.04037004,0.10617985,0.17578739,0.26702306
47163,0,USTennesseeSullivan,Tennessee,Sullivan,2021-01-05 10:06:36.373281,2020-05-18 00:00:00.000000,0.01806424,0.03829391,0.06993990,28,60,110,15,31,63,0.00949790,0.01999255,0.04034030,0.10755280,0.17862553,0.30817212
47163,0,USTennesseeSullivan,Tennessee,Sullivan,2021-01-05 10:06:36.373281,2020-05-19 00:00:00.000000,0.01815785,0.03853639,0.07105957,28,61,112,15,31,63,0.00969416,0.02018059,0.04012279,0.10822466,0.18058485,0.31132811
47163,0,USTennesseeSullivan,Tennessee,Sullivan,2021-01-05 10:06:36.373281,2020-05-20 00:00:00.000000,0.01811379,0.03947333,0.07199328,28,62,113,15,32,62,0.00982133,0.02065393,0.03977403,0.10883751,0.18577093,0.31150633
47163,0,USTennesseeSullivan,Tennessee,Sullivan,2021-01-05 10:06:36.373281,2020-05-21 00:00:00.000000,0.01804055,0.03969180,0.07281185,28,62,115,15,33,62,0.00964570,0.02086133,0.03933222,0.11011927,0.18798935,0.30471794
47163,0,USTennesseeSullivan,Tennessee,Sullivan,2021-01-05 10:06:36.373281,2020-05-22 00:00:00.000000,0.01822941,0.04096821,0.07398618,28,64,117,15,33,61,0.00954596,0.02123047,0.03881475,0.11350643,0.19014573,0.29124448
47163,0,USTennesseeSullivan,Tennessee,Sullivan,2021-01-05 10:06:36.373281,2020-05-23 00:00:00.000000,0.01785081,0.04174481,0.07673766,28,66,121,15,33,61,0.00968703,0.02140435,0.03879903,0.12049304,0.19474954,0.31997553
47163,0,USTennesseeSullivan,Tennessee,Sullivan,2021-01-05 10:06:36.373281,2020-05-24 00:00:00.000000,0.01757330,0.04234206,0.07971274,27,67,126,15,34,62,0.00984643,0.02184209,0.03966700,0.12963211,0.19851274,0.35952945
47163,0,USTennesseeSullivan,Tennessee,Sullivan,2021-01-05 10:06:36.373281,2020-05-25 00:00:00.000000,0.01858704,0.04351236,0.08307230,29,68,131,15,35,64,0.00981594,0.02213599,0.04054442,0.13760987,0.20092212,0.35926871
47163,0,USTennesseeSullivan,Tennessee,Sullivan,2021-01-05 10:06:36.373281,2020-05-26 00:00:00.000000,0.01912364,0.04360704,0.08621937,30,69,136,16,36,66,0.01010468,0.02280786,0.04189083,0.14046856,0.20686394,0.36894049
47163,0,USTennesseeSullivan,Tennessee,Sullivan,2021-01-05 10:06:36.373281,2020-05-27 00:00:00.000000,0.01994356,0.04339887,0.08707589,31,68,137,16,37,68,0.01034477,0.02349880,0.04349421,0.14055288,0.21103608,0.36917076
47163,0,USTennesseeSullivan,Tennessee,Sullivan,2021-01-05 10:06:36.373281,2020-05-28 00:00:00.000000,0.02083771,0.04369472,0.08795438,32,69,139,16,37,71,0.01060613,0.02362440,0.04519593,0.14243637,0.21721924,0.36893047
47163,0,USTennesseeSullivan,Tennessee,Sullivan,2021-01-05 10:06:36.373281,2020-05-29 00:00:00.000000,0.02178350,0.04452294,0.08888759,34,70,140,17,37,73,0.01087385,0.02374810,0.04661177,0.14621684,0.22331742,0.37342513
47163,0,USTennesseeSullivan,Tennessee,Sullivan,2021-01-05 10:06:36.373281,2020-05-30 00:00:00.000000,0.02279091,0.04566489,0.08993862,36,72,142,17,38,74,0.01126136,0.02410276,0.04709661,0.15399573,0.22978983,0.38975862
47163,0,USTennesseeSullivan,Tennessee,Sullivan,2021-01-05 10:06:36.373281,2020-05-31 00:00:00.000000,0.02385819,0.04730638,0.09115499,37,74,144,18,38,75,0.01171294,0.02449045,0.04755694,0.15701367,0.23502149,0.39386389
47163,0,USTennesseeSullivan,Tennessee,Sullivan,2021-01-05 10:06:36.373281,2020-06-01 00:00:00.000000,0.02497225,0.04800514,0.09375902,39,76,148,19,39,75,0.01221140,0.02486747,0.04795120,0.16932050,0.24589448,0.39381906
47163,0,USTennesseeSullivan,Tennessee,Sullivan,2021-01-05 10:06:36.373281,2020-06-02 00:00:00.000000,0.02606456,0.04927172,0.09672530,41,78,153,20,40,77,0.01274221,0.02541387,0.04882490,0.17018009,0.25397964,0.39288762
47163,0,USTennesseeSullivan,Tennessee,Sullivan,2021-01-05 10:06:36.373281,2020-06-03 00:00:00.000000,0.02682893,0.05094963,0.10008159,42,80,158,21,40,79,0.01347380,0.02578974,0.05002258,0.17143579,0.26262941,0.40035387
47163,0,USTennesseeSullivan,Tennessee,Sullivan,2021-01-05 10:06:36.373281,2020-06-04 00:00:00.000000,0.02679494,0.05343515,0.10374272,42,84,164,21,41,81,0.01383113,0.02627091,0.05149370,0.17529474,0.27786256,0.42839009
47163,0,USTennesseeSullivan,Tennessee,Sullivan,2021-01-05 10:06:36.373281,2020-06-05 00:00:00.000000,0.02683515,0.05573190,0.10766648,42,88,170,22,43,84,0.01420994,0.02769408,0.05331455,0.18222444,0.27792615,0.44390379
47163,0,USTennesseeSullivan,Tennessee,Sullivan,2021-01-05 10:06:36.373281,2020-06-06 00:00:00.000000,0.02747231,0.05856866,0.11194925,43,92,177,23,45,88,0.01452726,0.02894502,0.05560959,0.18986732,0.28821343,0.44703151
47163,0,USTennesseeSullivan,Tennessee,Sullivan,2021-01-05 10:06:36.373281,2020-06-07 00:00:00.000000,0.02845436,0.06111823,0.11680336,45,96,184,23,47,92,0.01485896,0.02968989,0.05839187,0.19871205,0.29820159,0.44751155
47163,0,USTennesseeSullivan,Tennessee,Sullivan,2021-01-05 10:06:36.373281,2020-06-08 00:00:00.000000,0.02969649,0.06458560,0.12129252,47,102,192,24,48,98,0.01521222,0.03061700,0.06192810,0.20960991,0.31177852,0.46293560
47163,0,USTennesseeSullivan,Tennessee,Sullivan,2021-01-05 10:06:36.373281,2020-06-09 00:00:00.000000,0.03105302,0.06782750,0.12617169,49,107,199,25,50,102,0.01598317,0.03178262,0.06480547,0.22113680,0.32616285,0.47442438
47163,0,USTennesseeSullivan,Tennessee,Sullivan,2021-01-05 10:06:36.373281,2020-06-10 00:00:00.000000,0.03290975,0.07170677,0.13128130,52,113,207,27,52,107,0.01705403,0.03309981,0.06785198,0.23761568,0.34050924,0.48746196
47163,0,USTennesseeSullivan,Tennessee,Sullivan,2021-01-05 10:06:36.373281,2020-06-11 00:00:00.000000,0.03508966,0.07494510,0.13622018,55,118,215,29,54,111,0.01835243,0.03460748,0.07058500,0.24277966,0.35863347,0.49271401
47163,0,USTennesseeSullivan,Tennessee,Sullivan,2021-01-05 10:06:36.373281,2020-06-12 00:00:00.000000,0.03749413,0.07878484,0.14184860,59,124,224,30,58,116,0.01937194,0.03678400,0.07344644,0.24618055,0.37488143,0.51021994
47163,0,USTennesseeSullivan,Tennessee,Sullivan,2021-01-05 10:06:36.373281,2020-06-13 00:00:00.000000,0.04021779,0.08338480,0.14901211,63,132,235,32,61,123,0.02039235,0.03912883,0.07775265,0.24906836,0.39458323,0.52436119
47163,0,USTennesseeSullivan,Tennessee,Sullivan,2021-01-05 10:06:36.373281,2020-06-14 00:00:00.000000,0.04338503,0.08831807,0.15765875,68,139,249,34,65,127,0.02155340,0.04144458,0.08079363,0.26018453,0.40667283,0.57158671
47163,0,USTennesseeSullivan,Tennessee,Sullivan,2021-01-05 10:06:36.373281,2020-06-15 00:00:00.000000,0.04770106,0.09425282,0.16714744,75,149,264,36,69,133,0.02285045,0.04393501,0.08407024,0.27109457,0.42442017,0.57477853
47163,0,USTennesseeSullivan,Tennessee,Sullivan,2021-01-05 10:06:36.373281,2020-06-16 00:00:00.000000,0.05286204,0.10213540,0.17692382,83,161,280,39,74,139,0.02477851,0.04680996,0.08817436,0.28688599,0.44781587,0.60864611
47163,0,USTennesseeSullivan,Tennessee,Sullivan,2021-01-05 10:06:36.373281,2020-06-17 00:00:00.000000,0.05676767,0.11010924,0.18863230,89,174,298,41,79,147,0.02633824,0.05002147,0.09337691,0.28786104,0.45434900,0.64472977
47163,0,USTennesseeSullivan,Tennessee,Sullivan,2021-01-05 10:06:36.373281,2020-06-18 00:00:00.000000,0.06227702,0.11829747,0.20194530,98,187,319,44,85,157,0.02817667,0.05391695,0.09922688,0.31361202,0.47142531,0.67119364
47163,0,USTennesseeSullivan,Tennessee,Sullivan,2021-01-05 10:06:36.373281,2020-06-19 00:00:00.000000,0.06804781,0.12653176,0.21637619,107,200,342,45,92,167,0.02874129,0.05834195,0.10567580,0.32585011,0.48875663,0.70300119
47163,0,USTennesseeSullivan,Tennessee,Sullivan,2021-01-05 10:06:36.373281,2020-06-20 00:00:00.000000,0.07421604,0.13842045,0.23277916,117,219,368,49,101,178,0.03098659,0.06380122,0.11269042,0.32586757,0.50685785,0.77740047
47163,0,USTennesseeSullivan,Tennessee,Sullivan,2021-01-05 10:06:36.373281,2020-06-21 00:00:00.000000,0.08072683,0.15067668,0.24891692,127,238,394,54,109,190,0.03457931,0.06911121,0.12025679,0.32603924,0.53951879,0.79074128
47163,0,USTennesseeSullivan,Tennessee,Sullivan,2021-01-05 10:06:36.373281,2020-06-22 00:00:00.000000,0.08588931,0.16395794,0.26644746,136,259,421,61,118,203,0.03890670,0.07513830,0.12837718,0.33267344,0.54573028,0.79078530
47163,0,USTennesseeSullivan,Tennessee,Sullivan,2021-01-05 10:06:36.373281,2020-06-23 00:00:00.000000,0.09157374,0.17870962,0.28592438,145,282,452,67,126,217,0.04249592,0.08015111,0.13709554,0.40150980,0.56208679,0.78983463
47163,0,USTennesseeSullivan,Tennessee,Sullivan,2021-01-05 10:06:36.373281,2020-06-24 00:00:00.000000,0.09808983,0.19659774,0.30786409,155,311,487,72,139,234,0.04551385,0.08825783,0.14810914,0.40936657,0.58710356,0.78675869
47163,0,USTennesseeSullivan,Tennessee,Sullivan,2021-01-05 10:06:36.373281,2020-06-25 00:00:00.000000,0.10666281,0.21680925,0.33389139,168,343,528,77,152,254,0.04874040,0.09629273,0.16059661,0.41903081,0.59531611,0.77799303
47163,0,USTennesseeSullivan,Tennessee,Sullivan,2021-01-05 10:06:36.373281,2020-06-26 00:00:00.000000,0.11788830,0.23706153,0.36545905,186,375,578,83,164,275,0.05260590,0.10371514,0.17422662,0.44427241,0.61390657,0.78223206
47163,0,USTennesseeSullivan,Tennessee,Sullivan,2021-01-05 10:06:36.373281,2020-06-27 00:00:00.000000,0.13097374,0.26078263,0.40240810,207,412,637,91,179,299,0.05749439,0.11343164,0.18903610,0.45282839,0.62811097,0.77347371
47163,0,USTennesseeSullivan,Tennessee,Sullivan,2021-01-05 10:06:36.373281,2020-06-28 00:00:00.000000,0.14553978,0.28955347,0.44389732,230,458,702,100,197,323,0.06355204,0.12483909,0.20433907,0.45832555,0.63350772,0.78674592
47163,0,USTennesseeSullivan,Tennessee,Sullivan,2021-01-05 10:06:36.373281,2020-06-29 00:00:00.000000,0.16151742,0.31941214,0.48984618,255,505,775,113,217,352,0.07137446,0.13729475,0.22233589,0.46181333,0.63682539,0.80822422
47163,0,USTennesseeSullivan,Tennessee,Sullivan,2021-01-05 10:06:36.373281,2020-06-30 00:00:00.000000,0.17913274,0.34847095,0.54019445,283,551,855,126,239,381,0.07978865,0.15113333,0.24071941,0.46701090,0.64270671,0.83052830
47163,0,USTennesseeSullivan,Tennessee,Sullivan,2021-01-05 10:06:36.373281,2020-07-01 00:00:00.000000,0.19855565,0.38811833,0.59532696,314,614,942,140,262,411,0.08890144,0.16572512,0.26017286,0.46322558,0.64980361,0.84655802
47163,0,USTennesseeSullivan,Tennessee,Sullivan,2021-01-05 10:06:36.373281,2020-07-02 00:00:00.000000,0.22001112,0.42336785,0.65555320,348,670,1038,156,289,445,0.09881280,0.18273864,0.28105650,0.45863969,0.65077200,0.87658024
47163,0,USTennesseeSullivan,Tennessee,Sullivan,2021-01-05 10:06:36.373281,2020-07-03 00:00:00.000000,0.24379845,0.45371115,0.72039761,386,718,1140,173,317,484,0.10962424,0.20039614,0.30597997,0.45630834,0.64172141,0.87664186
47163,0,USTennesseeSullivan,Tennessee,Sullivan,2021-01-05 10:06:36.373281,2020-07-04 00:00:00.000000,0.27033757,0.49264208,0.79006428,428,780,1251,192,350,527,0.12141343,0.22140868,0.33294966,0.45518322,0.63740134,0.87304460
47163,0,USTennesseeSullivan,Tennessee,Sullivan,2021-01-05 10:06:36.373281,2020-07-05 00:00:00.000000,0.30020103,0.54033365,0.86595269,475,855,1371,212,385,584,0.13419530,0.24338955,0.36938215,0.45473903,0.63235111,0.85997598
47163,0,USTennesseeSullivan,Tennessee,Sullivan,2021-01-05 10:06:36.373281,2020-07-06 00:00:00.000000,0.33363761,0.59435273,0.94721704,528,941,1499,234,423,649,0.14802243,0.26756338,0.41047948,0.45240264,0.63055461,0.84608152
47163,0,USTennesseeSullivan,Tennessee,Sullivan,2021-01-05 10:06:36.373281,2020-07-07 00:00:00.000000,0.37151830,0.65129353,1.03389802,588,1031,1637,258,469,690,0.16331590,0.29641625,0.43603847,0.44729220,0.62701907,0.86490050
47163,0,USTennesseeSullivan,Tennessee,Sullivan,2021-01-05 10:06:36.373281,2020-07-08 00:00:00.000000,0.41415425,0.71445814,1.11844427,655,1131,1771,285,512,740,0.18013568,0.32363344,0.46748939,0.43846973,0.61828840,0.87612929
47163,0,USTennesseeSullivan,Tennessee,Sullivan,2021-01-05 10:06:36.373281,2020-07-09 00:00:00.000000,0.46188832,0.78374212,1.18822677,731,1241,1881,314,564,808,0.19890643,0.35642325,0.51057359,0.43491227,0.60328820,0.87888994
47163,0,USTennesseeSullivan,Tennessee,Sullivan,2021-01-05 10:06:36.373281,2020-07-10 00:00:00.000000,0.51514856,0.84874224,1.24870422,815,1343,1977,351,611,897,0.22167797,0.38610651,0.56693365,0.41619844,0.59410232,0.87136183
47163,0,USTennesseeSullivan,Tennessee,Sullivan,2021-01-05 10:06:36.373281,2020-07-11 00:00:00.000000,0.56920415,0.93061027,1.33399895,901,1473,2112,391,668,973,0.24715644,0.42247036,0.61507989,0.40241149,0.57500002,0.82786349
47163,0,USTennesseeSullivan,Tennessee,Sullivan,2021-01-05 10:06:36.373281,2020-07-12 00:00:00.000000,0.61249519,1.02219366,1.46695590,969,1618,2322,436,718,1053,0.27558620,0.45350785,0.66504595,0.40133658,0.55772556,0.79756145
47163,0,USTennesseeSullivan,Tennessee,Sullivan,2021-01-05 10:06:36.373281,2020-07-13 00:00:00.000000,0.65734152,1.09475798,1.59959435,1040,1733,2532,471,776,1158,0.29754363,0.49020368,0.73191758,0.40209221,0.53988829,0.74909981
47163,0,USTennesseeSullivan,Tennessee,Sullivan,2021-01-05 10:06:36.373281,2020-07-14 00:00:00.000000,0.73494757,1.17052126,1.73221553,1163,1853,2742,507,852,1231,0.32047220,0.53832097,0.77791453,0.40188340,0.52776053,0.74327858
47163,0,USTennesseeSullivan,Tennessee,Sullivan,2021-01-05 10:06:36.373281,2020-07-15 00:00:00.000000,0.82099325,1.27236410,1.86074261,1300,2014,2946,556,915,1307,0.35152956,0.57841198,0.82555506,0.40187199,0.51549433,0.72795097
47163,0,USTennesseeSullivan,Tennessee,Sullivan,2021-01-05 10:06:36.373281,2020-07-16 00:00:00.000000,0.91118560,1.34102215,1.94888724,1442,2123,3086,610,978,1387,0.38523829,0.61770710,0.87647646,0.38597794,0.50369340,0.70338036
47163,0,USTennesseeSullivan,Tennessee,Sullivan,2021-01-05 10:06:36.373281,2020-07-17 00:00:00.000000,0.98019802,1.40081366,2.02321451,1552,2218,3203,667,1042,1475,0.42134672,0.65829220,0.93161373,0.37949191,0.48745288,0.67102313
47163,0,USTennesseeSullivan,Tennessee,Sullivan,2021-01-05 10:06:36.373281,2020-07-18 00:00:00.000000,1.03771539,1.47208216,2.09378468,1643,2331,3315,729,1124,1562,0.46074025,0.71027619,0.98648429,0.36491364,0.46190349,0.60479614
47163,0,USTennesseeSullivan,Tennessee,Sullivan,2021-01-05 10:06:36.373281,2020-07-19 00:00:00.000000,1.09666246,1.55852528,2.16102539,1736,2467,3421,793,1196,1647,0.50129235,0.75534008,1.04053457,0.33677802,0.43891719,0.57426036
47163,0,USTennesseeSullivan,Tennessee,Sullivan,2021-01-05 10:06:36.373281,2020-07-20 00:00:00.000000,1.14762003,1.63584872,2.22832147,1817,2590,3528,840,1265,1751,0.53105797,0.79892241,1.10595683,0.32775120,0.42505220,0.56750877
47163,0,USTennesseeSullivan,Tennessee,Sullivan,2021-01-05 10:06:36.373281,2020-07-21 00:00:00.000000,1.19841733,1.72784890,2.30794616,1897,2736,3654,895,1341,1865,0.56531603,0.84747104,1.17780089,0.31388129,0.42028874,0.55783652
47163,0,USTennesseeSullivan,Tennessee,Sullivan,2021-01-05 10:06:36.373281,2020-07-22 00:00:00.000000,1.24894765,1.79849850,2.48298284,1977,2847,3931,952,1415,1990,0.60134632,0.89379395,1.25689328,0.30499356,0.41091005,0.54404741
47163,0,USTennesseeSullivan,Tennessee,Sullivan,2021-01-05 10:06:36.373281,2020-07-23 00:00:00.000000,1.29824372,1.84977545,2.66103995,2055,2929,4213,1011,1482,2125,0.63852423,0.93622636,1.34255386,0.29911046,0.40046006,0.52738131
47163,0,USTennesseeSullivan,Tennessee,Sullivan,2021-01-05 10:06:36.373281,2020-07-24 00:00:00.000000,1.34595805,1.91426774,2.74375361,2131,3031,4344,1072,1550,2211,0.67715955,0.97904826,1.39665361,0.27624116,0.38861236,0.51507778
47163,0,USTennesseeSullivan,Tennessee,Sullivan,2021-01-05 10:06:36.373281,2020-07-25 00:00:00.000000,1.42181375,1.96822838,2.84332477,2251,3116,4502,1120,1616,2292,0.70783330,1.02108154,1.44780380,0.26153541,0.37816996,0.49972806
47163,0,USTennesseeSullivan,Tennessee,Sullivan,2021-01-05 10:06:36.373281,2020-07-26 00:00:00.000000,1.48323589,2.03204928,2.92949331,2348,3217,4638,1161,1655,2421,0.73366600,1.04575391,1.52942541,0.25598422,0.37158701,0.49224161
47163,0,USTennesseeSullivan,Tennessee,Sullivan,2021-01-05 10:06:36.373281,2020-07-27 00:00:00.000000,1.52907414,2.10192091,3.00855944,2421,3328,4763,1201,1692,2565,0.75862619,1.06900542,1.62007874,0.25408859,0.36531376,0.49614707
47163,0,USTennesseeSullivan,Tennessee,Sullivan,2021-01-05 10:06:36.373281,2020-07-28 00:00:00.000000,1.57436196,2.17616108,3.08590350,2492,3445,4886,1238,1738,2704,0.78205694,1.09779450,1.70801587,0.25361821,0.36027634,0.48915642
47163,0,USTennesseeSullivan,Tennessee,Sullivan,2021-01-05 10:06:36.373281,2020-07-29 00:00:00.000000,1.61596115,2.23820644,3.16046288,2558,3544,5004,1272,1788,2843,0.80390540,1.12963781,1.79554529,0.25394700,0.35720240,0.49684131
47163,0,USTennesseeSullivan,Tennessee,Sullivan,2021-01-05 10:06:36.373281,2020-07-30 00:00:00.000000,1.64778929,2.30997363,3.22911215,2609,3657,5113,1305,1831,2935,0.82434186,1.15683712,1.85403199,0.24982920,0.34535422,0.49855777
47163,0,USTennesseeSullivan,Tennessee,Sullivan,2021-01-05 10:06:36.373281,2020-07-31 00:00:00.000000,1.66472759,2.37516695,3.28747151,2636,3761,5205,1351,1912,3001,0.85327107,1.20746823,1.89580433,0.24341952,0.34417252,0.49170495
47163,0,USTennesseeSullivan,Tennessee,Sullivan,2021-01-05 10:06:36.373281,2020-08-01 00:00:00.000000,1.66909078,2.43071466,3.33455811,2642,3848,5280,1374,1975,3058,0.86797387,1.24747803,1.93172819,0.24416073,0.33431418,0.46428295
47163,0,USTennesseeSullivan,Tennessee,Sullivan,2021-01-05 10:06:36.373281,2020-08-02 00:00:00.000000,1.67355638,2.46811128,3.37979728,2650,3908,5351,1393,2004,3105,0.87988758,1.26563827,1.96107390,0.24456609,0.32329179,0.43450597
47163,0,USTennesseeSullivan,Tennessee,Sullivan,2021-01-05 10:06:36.373281,2020-08-03 00:00:00.000000,1.70585403,2.51481207,3.43954337,2701,3982,5446,1421,2050,3141,0.89768821,1.29508666,1.98400823,0.24175081,0.32284083,0.43228911
47163,0,USTennesseeSullivan,Tennessee,Sullivan,2021-01-05 10:06:36.373281,2020-08-04 00:00:00.000000,1.71651208,2.57405197,3.49877299,2718,4075,5540,1450,2072,3207,0.91585388,1.30877409,2.02572936,0.24152792,0.32055112,0.42770869
47163,0,USTennesseeSullivan,Tennessee,Sullivan,2021-01-05 10:06:36.373281,2020-08-05 00:00:00.000000,1.73097870,2.63359565,3.54064419,2740,4170,5606,1480,2082,3271,0.93477846,1.31518025,2.06578944,0.24177176,0.31801846,0.42760249
47163,0,USTennesseeSullivan,Tennessee,Sullivan,2021-01-05 10:06:36.373281,2020-08-06 00:00:00.000000,1.74963677,2.67344686,3.61609665,2770,4233,5726,1512,2132,3332,0.95491817,1.34673436,2.10443736,0.24278048,0.31471579,0.42646246
47163,0,USTennesseeSullivan,Tennessee,Sullivan,2021-01-05 10:06:36.373281,2020-08-07 00:00:00.000000,1.77684255,2.70623370,3.67281768,2813,4285,5815,1546,2180,3391,0.97672527,1.37682387,2.14193134,0.24535897,0.31535723,0.42253955
47163,0,USTennesseeSullivan,Tennessee,Sullivan,2021-01-05 10:06:36.373281,2020-08-08 00:00:00.000000,1.81853709,2.74045007,3.72635869,2879,4339,5900,1584,2228,3449,1.00052558,1.40746848,2.17827626,0.23799914,0.31465105,0.41581311
47163,0,USTennesseeSullivan,Tennessee,Sullivan,2021-01-05 10:06:36.373281,2020-08-09 00:00:00.000000,1.87301837,2.78750787,3.77524181,2965,4413,5978,1625,2284,3504,1.02643509,1.44284439,2.21323237,0.23745093,0.31813705,0.41567405
47163,0,USTennesseeSullivan,Tennessee,Sullivan,2021-01-05 10:06:36.373281,2020-08-10 00:00:00.000000,1.93706041,2.82165438,3.81784616,3067,4468,6045,1626,2336,3557,1.02710072,1.47537630,2.24634324,0.23870166,0.31720909,0.41517426
47163,0,USTennesseeSullivan,Tennessee,Sullivan,2021-01-05 10:06:36.373281,2020-08-11 00:00:00.000000,2.00483358,2.84362679,3.85398476,3174,4502,6102,1630,2373,3605,1.02965866,1.49901155,2.27698314,0.22492330,0.30834791,0.41524144
47163,0,USTennesseeSullivan,Tennessee,Sullivan,2021-01-05 10:06:36.373281,2020-08-12 00:00:00.000000,2.07517122,2.86272806,3.88355408,3285,4533,6149,1638,2404,3649,1.03480138,1.51860189,2.30465173,0.21441876,0.30595085,0.41524332
47163,0,USTennesseeSullivan,Tennessee,Sullivan,2021-01-05 10:06:36.373281,2020-08-13 00:00:00.000000,2.12233497,2.87938643,3.90574232,3360,4559,6184,1649,2419,3687,1.04169551,1.52789379,2.32900183,0.21584761,0.30126541,0.41429384
47163,0,USTennesseeSullivan,Tennessee,Sullivan,2021-01-05 10:06:36.373281,2020-08-14 00:00:00.000000,2.13199721,2.88328798,3.92931658,3375,4565,6221,1662,2429,3720,1.04960823,1.53421412,2.34974818,0.21852367,0.29805911,0.40028177
47163,0,USTennesseeSullivan,Tennessee,Sullivan,2021-01-05 10:06:36.373281,2020-08-15 00:00:00.000000,2.13287056,2.86878066,3.95207522,3377,4542,6258,1675,2451,3749,1.05799052,1.54824081,2.36759018,0.21520960,0.29444758,0.39210832
47163,0,USTennesseeSullivan,Tennessee,Sullivan,2021-01-05 10:06:36.373281,2020-08-16 00:00:00.000000,2.12743628,2.87852611,3.98549999,3368,4558,6310,1688,2487,3799,1.06639920,1.57079742,2.39915195,0.20722883,0.28356917,0.38281765
47163,0,USTennesseeSullivan,Tennessee,Sullivan,2021-01-05 10:06:36.373281,2020-08-17 00:00:00.000000,2.11722985,2.85516140,4.01650252,3352,4521,6360,1701,2500,3846,1.07437938,1.57908332,2.42885885,0.19725417,0.27611659,0.37218864
47163,0,USTennesseeSullivan,Tennessee,Sullivan,2021-01-05 10:06:36.373281,2020-08-18 00:00:00.000000,2.07424613,2.82854281,4.03326499,3284,4478,6386,1683,2506,3889,1.06287526,1.58262564,2.45609195,0.19178648,0.26960114,0.36027004
47163,0,USTennesseeSullivan,Tennessee,Sullivan,2021-01-05 10:06:36.373281,2020-08-19 00:00:00.000000,2.02398892,2.83626295,4.03636855,3204,4491,6391,1651,2516,3926,1.04322454,1.58944714,2.47973293,0.19053998,0.26477257,0.34493862
47163,0,USTennesseeSullivan,Tennessee,Sullivan,2021-01-05 10:06:36.373281,2020-08-20 00:00:00.000000,1.97402388,2.82293797,4.02823438,3125,4470,6378,1615,2503,3933,1.02047155,1.58087203,2.48377450,0.18599656,0.25164717,0.33048097
47163,0,USTennesseeSullivan,Tennessee,Sullivan,2021-01-05 10:06:36.373281,2020-08-21 00:00:00.000000,1.92471443,2.78070298,4.00682779,3047,4403,6344,1601,2477,3918,1.01124012,1.56477565,2.47477573,0.17320363,0.24557736,0.32354356
47163,0,USTennesseeSullivan,Tennessee,Sullivan,2021-01-05 10:06:36.373281,2020-08-22 00:00:00.000000,1.90848165,2.73365380,3.97273816,3022,4328,6290,1602,2470,3892,1.01218400,1.55988445,2.45803357,0.15799850,0.23265501,0.32031015
47163,0,USTennesseeSullivan,Tennessee,Sullivan,2021-01-05 10:06:36.373281,2020-08-23 00:00:00.000000,1.89397197,2.70160711,3.88009558,2999,4277,6144,1567,2463,3832,0.99017524,1.55591524,2.42012488,0.15305906,0.22410151,0.30757146
47163,0,USTennesseeSullivan,Tennessee,Sullivan,2021-01-05 10:06:36.373281,2020-08-24 00:00:00.000000,1.86968232,2.64785107,3.78222756,2960,4192,5989,1527,2425,3751,0.96479078,1.53185721,2.36914545,0.14914636,0.21683630,0.28810577
47163,0,USTennesseeSullivan,Tennessee,Sullivan,2021-01-05 10:06:36.373281,2020-08-25 00:00:00.000000,1.83541739,2.57890241,3.75116721,2906,4083,5939,1488,2366,3667,0.93982766,1.49442700,2.31620849,0.14756160,0.21343137,0.27804047
47163,0,USTennesseeSullivan,Tennessee,Sullivan,2021-01-05 10:06:36.373281,2020-08-26 00:00:00.000000,1.79621060,2.51186541,3.73624444,2844,3977,5916,1448,2320,3662,0.91465952,1.46575302,2.31286042,0.14739366,0.20994608,0.27072249
47163,0,USTennesseeSullivan,Tennessee,Sullivan,2021-01-05 10:06:36.373281,2020-08-27 00:00:00.000000,1.74045680,2.44988230,3.71839672,2755,3879,5888,1408,2265,3653,0.88930755,1.43060721,2.30751714,0.14788225,0.20778888,0.26120846
47163,0,USTennesseeSullivan,Tennessee,Sullivan,2021-01-05 10:06:36.373281,2020-08-28 00:00:00.000000,1.68659145,2.39337024,3.66036535,2670,3789,5796,1368,2212,3593,0.86405240,1.39718166,2.26964231,0.14791951,0.20539158,0.26295338
47163,0,USTennesseeSullivan,Tennessee,Sullivan,2021-01-05 10:06:36.373281,2020-08-29 00:00:00.000000,1.63761166,2.33026676,3.57813816,2593,3689,5665,1328,2162,3529,0.83900283,1.36587646,2.22873229,0.14562541,0.20161006,0.25987647
47163,0,USTennesseeSullivan,Tennessee,Sullivan,2021-01-05 10:06:36.373281,2020-08-30 00:00:00.000000,1.59467613,2.27031691,3.49117073,2525,3595,5528,1288,2104,3458,0.81396601,1.32903878,2.18414489,0.14500964,0.19501723,0.26810361
47163,0,USTennesseeSullivan,Tennessee,Sullivan,2021-01-05 10:06:36.373281,2020-08-31 00:00:00.000000,1.55600820,2.21247970,3.42476498,2463,3503,5423,1248,2044,3383,0.78873926,1.29106806,2.13645490,0.14399761,0.19470425,0.25984727
47163,0,USTennesseeSullivan,Tennessee,Sullivan,2021-01-05 10:06:36.373281,2020-09-01 00:00:00.000000,1.51988177,2.14810908,3.38300511,2406,3401,5356,1208,1975,3304,0.76289822,1.24778390,2.08664454,0.14034557,0.19558236,0.25733681
47163,0,USTennesseeSullivan,Tennessee,Sullivan,2021-01-05 10:06:36.373281,2020-09-02 00:00:00.000000,1.47388097,2.08521623,3.33398581,2333,3301,5279,1166,1913,3244,0.73683003,1.20857117,2.04872422,0.13926184,0.19567990,0.25200884
47163,0,USTennesseeSullivan,Tennessee,Sullivan,2021-01-05 10:06:36.373281,2020-09-03 00:00:00.000000,1.40265845,2.02900381,3.26664043,2221,3212,5172,1126,1868,3208,0.71111268,1.18017354,2.02612020,0.14342261,0.19767250,0.25871996
47163,0,USTennesseeSullivan,Tennessee,Sullivan,2021-01-05 10:06:36.373281,2020-09-04 00:00:00.000000,1.33470148,1.96495046,3.18717616,2113,3111,5046,1086,1826,3163,0.68624787,1.15339162,1.99801870,0.14343210,0.20058281,0.26621949
47163,0,USTennesseeSullivan,Tennessee,Sullivan,2021-01-05 10:06:36.373281,2020-09-05 00:00:00.000000,1.27014768,1.91925056,3.10531493,2011,3039,4917,1059,1791,3109,0.66893756,1.13124247,1.96386169,0.14116739,0.19913918,0.26770607
47163,0,USTennesseeSullivan,Tennessee,Sullivan,2021-01-05 10:06:36.373281,2020-09-06 00:00:00.000000,1.20967305,1.87626236,3.02358019,1915,2971,4787,1036,1756,3048,0.65479367,1.10923280,1.92510875,0.14534804,0.20444514,0.26930211
47163,0,USTennesseeSullivan,Tennessee,Sullivan,2021-01-05 10:06:36.373281,2020-09-07 00:00:00.000000,1.15541164,1.82980708,2.94464134,1829,2897,4662,1014,1716,2982,0.64055068,1.08403924,1.88325777,0.14527513,0.20762941,0.27376929
47163,0,USTennesseeSullivan,Tennessee,Sullivan,2021-01-05 10:06:36.373281,2020-09-08 00:00:00.000000,1.11188896,1.76274144,2.86696629,1760,2791,4539,966,1685,2913,0.61057048,1.06426447,1.83981744,0.14531640,0.21218880,0.27881018
47163,0,USTennesseeSullivan,Tennessee,Sullivan,2021-01-05 10:06:36.373281,2020-09-09 00:00:00.000000,1.08161103,1.70091050,2.79087742,1712,2693,4419,925,1646,2843,0.58435980,1.04010436,1.79554314,0.14550318,0.21672216,0.28388625
47163,0,USTennesseeSullivan,Tennessee,Sullivan,2021-01-05 10:06:36.373281,2020-09-10 00:00:00.000000,1.06285427,1.66185400,2.71664505,1683,2631,4301,901,1605,2772,0.56910284,1.01359089,1.75099959,0.14598284,0.22259585,0.30016232
47163,0,USTennesseeSullivan,Tennessee,Sullivan,2021-01-05 10:06:36.373281,2020-09-11 00:00:00.000000,1.04429721,1.63182636,2.64468919,1653,2583,4187,879,1579,2702,0.55540087,0.99724735,1.70662221,0.15004084,0.23608021,0.32159464
47163,0,USTennesseeSullivan,Tennessee,Sullivan,2021-01-05 10:06:36.373281,2020-09-12 00:00:00.000000,1.02570262,1.61972357,2.59412143,1624,2564,4107,859,1556,2651,0.54301352,0.98267818,1.67436859,0.16405816,0.24442200,0.32442129
47163,0,USTennesseeSullivan,Tennessee,Sullivan,2021-01-05 10:06:36.373281,2020-09-13 00:00:00.000000,1.00722846,1.63216695,2.57972282,1594,2584,4084,842,1531,2615,0.53190697,0.96731127,1.65164981,0.17440685,0.25697260,0.32988288
47163,0,USTennesseeSullivan,Tennessee,Sullivan,2021-01-05 10:06:36.373281,2020-09-14 00:00:00.000000,1.01191911,1.65227318,2.59882356,1602,2616,4115,829,1514,2580,0.52399334,0.95638427,1.62978473,0.18508867,0.26701505,0.38617093
47163,0,USTennesseeSullivan,Tennessee,Sullivan,2021-01-05 10:06:36.373281,2020-09-15 00:00:00.000000,1.02305790,1.67796668,2.61847974,1619,2657,4146,826,1482,2547,0.52164458,0.93633953,1.60856004,0.18468643,0.27951113,0.40331082
47163,0,USTennesseeSullivan,Tennessee,Sullivan,2021-01-05 10:06:36.373281,2020-09-16 00:00:00.000000,1.03622010,1.69021914,2.63838112,1640,2676,4177,828,1469,2514,0.52320763,0.92770504,1.58781660,0.19371385,0.29137005,0.40499955
47163,0,USTennesseeSullivan,Tennessee,Sullivan,2021-01-05 10:06:36.373281,2020-09-17 00:00:00.000000,1.05193860,1.68076054,2.63797482,1665,2661,4177,834,1459,2482,0.52709426,0.92145332,1.56751628,0.19872782,0.29599271,0.43214213
47163,0,USTennesseeSullivan,Tennessee,Sullivan,2021-01-05 10:06:36.373281,2020-09-18 00:00:00.000000,1.06231185,1.68122665,2.61214048,1682,2662,4136,838,1447,2451,0.52949203,0.91429426,1.54785684,0.20107084,0.30412731,0.44947817
47163,0,USTennesseeSullivan,Tennessee,Sullivan,2021-01-05 10:06:36.373281,2020-09-19 00:00:00.000000,1.06668992,1.68789093,2.59082122,1689,2672,4102,826,1444,2422,0.52173135,0.91252595,1.52959454,0.21701708,0.32100512,0.45834367
47163,0,USTennesseeSullivan,Tennessee,Sullivan,2021-01-05 10:06:36.373281,2020-09-20 00:00:00.000000,1.06954005,1.69299290,2.64400137,1693,2680,4186,821,1447,2410,0.51890319,0.91432113,1.52197637,0.22247963,0.33173349,0.50245925
47163,0,USTennesseeSullivan,Tennessee,Sullivan,2021-01-05 10:06:36.373281,2020-09-21 00:00:00.000000,1.09032270,1.70371143,2.69836976,1726,2697,4272,846,1448,2420,0.53450634,0.91469662,1.52889242,0.22724827,0.34218103,0.52226501
47163,0,USTennesseeSullivan,Tennessee,Sullivan,2021-01-05 10:06:36.373281,2020-09-22 00:00:00.000000,1.11661056,1.73297145,2.75394350,1768,2744,4360,868,1487,2433,0.54825175,0.93921323,1.53653367,0.23314486,0.35267506,0.53321066
47163,0,USTennesseeSullivan,Tennessee,Sullivan,2021-01-05 10:06:36.373281,2020-09-23 00:00:00.000000,1.14678653,1.75444194,2.81058800,1815,2778,4450,894,1513,2446,0.56505683,0.95593463,1.54472536,0.27016693,0.37071347,0.54002978
47163,0,USTennesseeSullivan,Tennessee,Sullivan,2021-01-05 10:06:36.373281,2020-09-24 00:00:00.000000,1.18042848,1.77402353,2.86845015,1869,2809,4542,910,1535,2460,0.57473417,0.96974781,1.55369328,0.27742433,0.38584439,0.57702950
47163,0,USTennesseeSullivan,Tennessee,Sullivan,2021-01-05 10:06:36.373281,2020-09-25 00:00:00.000000,1.21816960,1.83444246,2.92809357,1928,2904,4636,930,1558,2495,0.58742286,0.98452103,1.57608836,0.29037587,0.40655712,0.57966169
47163,0,USTennesseeSullivan,Tennessee,Sullivan,2021-01-05 10:06:36.373281,2020-09-26 00:00:00.000000,1.26122947,1.91445986,2.99042014,1997,3031,4735,959,1585,2562,0.60593922,1.00125326,1.61811712,0.29668355,0.41959170,0.59593149
47163,0,USTennesseeSullivan,Tennessee,Sullivan,2021-01-05 10:06:36.373281,2020-09-27 00:00:00.000000,1.31035651,1.98390883,3.05687368,2074,3141,4840,998,1614,2655,0.63032112,1.01949449,1.67686723,0.31027525,0.43995219,0.60179426
47163,0,USTennesseeSullivan,Tennessee,Sullivan,2021-01-05 10:06:36.373281,2020-09-28 00:00:00.000000,1.33996150,2.03849021,3.14535117,2121,3227,4980,1043,1645,2751,0.65898827,1.03893234,1.73777387,0.32456643,0.45343369,0.60357479
47163,0,USTennesseeSullivan,Tennessee,Sullivan,2021-01-05 10:06:36.373281,2020-09-29 00:00:00.000000,1.35799292,2.15498671,3.26472899,2150,3412,5169,1093,1702,2851,0.69031503,1.07519610,1.80074951,0.33742086,0.46493334,0.60451481
47163,0,USTennesseeSullivan,Tennessee,Sullivan,2021-01-05 10:06:36.373281,2020-09-30 00:00:00.000000,1.41457208,2.28693710,3.41164962,2239,3621,5402,1146,1779,2954,0.72378082,1.12366941,1.86577381,0.36136887,0.47705550,0.60634803
47163,0,USTennesseeSullivan,Tennessee,Sullivan,2021-01-05 10:06:36.373281,2020-10-01 00:00:00.000000,1.49083676,2.40650333,3.57816372,2360,3810,5665,1204,1860,3060,0.76067669,1.17494901,1.93287618,0.36263521,0.48979006,0.65003077
47163,0,USTennesseeSullivan,Tennessee,Sullivan,2021-01-05 10:06:36.373281,2020-10-02 00:00:00.000000,1.57431216,2.51853092,3.75962977,2492,3988,5953,1264,1937,3176,0.79865645,1.22379226,2.00588641,0.36850764,0.50123886,0.67337960
47163,0,USTennesseeSullivan,Tennessee,Sullivan,2021-01-05 10:06:36.373281,2020-10-03 00:00:00.000000,1.66617141,2.65028573,3.94996703,2638,4196,6254,1311,2033,3357,0.82815436,1.28449101,2.12045586,0.37726430,0.51172886,0.66803170
47163,0,USTennesseeSullivan,Tennessee,Sullivan,2021-01-05 10:06:36.373281,2020-10-04 00:00:00.000000,1.76647524,2.82113054,4.14694605,2797,4467,6566,1360,2130,3549,0.85895096,1.34529102,2.24156474,0.38125582,0.52634367,0.68960979
47163,0,USTennesseeSullivan,Tennessee,Sullivan,2021-01-05 10:06:36.373281,2020-10-05 00:00:00.000000,1.87500778,2.97373491,4.35085648,2969,4708,6889,1425,2245,3748,0.90038459,1.41837033,2.36732248,0.38931750,0.53307419,0.70618723
47163,0,USTennesseeSullivan,Tennessee,Sullivan,2021-01-05 10:06:36.373281,2020-10-06 00:00:00.000000,1.99109608,3.11713147,4.57294416,3152,4935,7241,1504,2374,3938,0.95019699,1.49976018,2.48704147,0.40135310,0.54209934,0.73263888
47163,0,USTennesseeSullivan,Tennessee,Sullivan,2021-01-05 10:06:36.373281,2020-10-07 00:00:00.000000,2.11456428,3.30399343,4.85180498,3348,5231,7682,1593,2502,4130,1.00629596,1.58049077,2.60861190,0.40401187,0.54383558,0.73852004
47163,0,USTennesseeSullivan,Tennessee,Sullivan,2021-01-05 10:06:36.373281,2020-10-08 00:00:00.000000,2.23604671,3.52145349,5.11400101,3540,5576,8097,1691,2625,4331,1.06845199,1.65819278,2.73541738,0.40385224,0.54124532,0.74076044
47163,0,USTennesseeSullivan,Tennessee,Sullivan,2021-01-05 10:06:36.373281,2020-10-09 00:00:00.000000,2.32205975,3.74016278,5.32871534,3676,5922,8437,1800,2759,4540,1.13723210,1.74238389,2.86738540,0.39034606,0.54385146,0.74128506
47163,0,USTennesseeSullivan,Tennessee,Sullivan,2021-01-05 10:06:36.373281,2020-10-10 00:00:00.000000,2.41619115,3.96167150,5.49826529,3825,6273,8706,1921,2920,4740,1.21359804,1.84456085,2.99366744,0.38384110,0.53092873,0.73084943
47163,0,USTennesseeSullivan,Tennessee,Sullivan,2021-01-05 10:06:36.373281,2020-10-11 00:00:00.000000,2.56549890,4.11568511,5.74686160,4062,6517,9100,2056,3109,4923,1.29884040,1.96354950,3.10949344,0.38156488,0.52304696,0.69567567
47163,0,USTennesseeSullivan,Tennessee,Sullivan,2021-01-05 10:06:36.373281,2020-10-12 00:00:00.000000,2.77078805,4.31140424,6.01152828,4387,6827,9519,2207,3283,5098,1.39429602,2.07358875,3.21998905,0.37387104,0.51972093,0.66563224
47163,0,USTennesseeSullivan,Tennessee,Sullivan,2021-01-05 10:06:36.373281,2020-10-13 00:00:00.000000,2.99825500,4.54436775,6.24212993,4747,7195,9884,2365,3462,5267,1.49385225,2.18633704,3.32622228,0.35991432,0.51828769,0.65867495
47163,0,USTennesseeSullivan,Tennessee,Sullivan,2021-01-05 10:06:36.373281,2020-10-14 00:00:00.000000,3.23988379,4.74604706,6.44975224,5130,7515,10213,2515,3642,5430,1.58842376,2.30044968,3.42931804,0.35848041,0.51403472,0.64717445
47163,0,USTennesseeSullivan,Tennessee,Sullivan,2021-01-05 10:06:36.373281,2020-10-15 00:00:00.000000,3.43373531,4.93215402,6.65555870,5437,7809,10538,2671,3823,5588,1.68700864,2.41483498,3.52947581,0.35882822,0.50183618,0.63998715
47163,0,USTennesseeSullivan,Tennessee,Sullivan,2021-01-05 10:06:36.373281,2020-10-16 00:00:00.000000,3.62598626,5.10347339,6.85007530,5741,8081,10846,2832,3997,5830,1.78885977,2.52471252,3.68199829,0.35772929,0.48996194,0.63308236
47163,0,USTennesseeSullivan,Tennessee,Sullivan,2021-01-05 10:06:36.373281,2020-10-17 00:00:00.000000,3.80666781,5.24435955,7.01109893,6027,8304,11101,2966,4191,6057,1.87331035,2.64692565,3.82561723,0.35661381,0.47189285,0.61287045
47163,0,USTennesseeSullivan,Tennessee,Sullivan,2021-01-05 10:06:36.373281,2020-10-18 00:00:00.000000,3.96510085,5.37992159,7.13570404,6278,8518,11299,3024,4371,6247,1.90988488,2.76054403,3.94565914,0.34522219,0.45080356,0.58500652
47163,0,USTennesseeSullivan,Tennessee,Sullivan,2021-01-05 10:06:36.373281,2020-10-19 00:00:00.000000,4.09461386,5.55796939,7.41712232,6483,8800,11744,3073,4523,6396,1.94074796,2.85681410,4.03953722,0.33238692,0.43401639,0.61417349
47163,0,USTennesseeSullivan,Tennessee,Sullivan,2021-01-05 10:06:36.373281,2020-10-20 00:00:00.000000,4.19947125,5.68446987,7.74502644,6649,9001,12264,3116,4594,6595,1.96831390,2.90177513,4.16547605,0.32151022,0.42678393,0.61000183
47163,0,USTennesseeSullivan,Tennessee,Sullivan,2021-01-05 10:06:36.373281,2020-10-21 00:00:00.000000,4.28113827,5.77792002,7.88884299,6779,9149,12491,3156,4641,6807,1.99353585,2.93109919,4.29897873,0.31932239,0.41125236,0.56176807
47163,0,USTennesseeSullivan,Tennessee,Sullivan,2021-01-05 10:06:36.373281,2020-10-22 00:00:00.000000,4.33568282,5.86256115,8.02842977,6865,9283,12712,3193,4798,7011,2.01691038,3.03020037,4.42805081,0.31919004,0.40202265,0.53520308
47163,0,USTennesseeSullivan,Tennessee,Sullivan,2021-01-05 10:06:36.373281,2020-10-23 00:00:00.000000,4.36076968,5.93837514,8.12918839,6905,9403,12872,3227,4907,7210,2.03793882,3.09922171,4.55347754,0.31950311,0.39849451,0.51043206
47163,0,USTennesseeSullivan,Tennessee,Sullivan,2021-01-05 10:06:36.373281,2020-10-24 00:00:00.000000,4.46044621,6.01104110,8.21801763,7063,9518,13013,3251,5033,7404,2.05336875,3.17880146,4.67595498,0.31886862,0.39674495,0.51057399
47163,0,USTennesseeSullivan,Tennessee,Sullivan,2021-01-05 10:06:36.373281,2020-10-25 00:00:00.000000,4.49000869,6.14602899,8.40134848,7109,9732,13303,3343,5095,7594,2.11132053,3.21803525,4.79596091,0.29867811,0.39530488,0.50363702
47163,0,USTennesseeSullivan,Tennessee,Sullivan,2021-01-05 10:06:36.373281,2020-10-26 00:00:00.000000,4.41981965,6.26645802,8.57886216,6998,9922,13584,3466,5121,7780,2.18915745,3.23428533,4.91370293,0.29086961,0.39204972,0.50621835
47163,0,USTennesseeSullivan,Tennessee,Sullivan,2021-01-05 10:06:36.373281,2020-10-27 00:00:00.000000,4.34784244,6.27610498,8.75201443,6884,9938,13858,3588,5145,7962,2.26592407,3.24927644,5.02870798,0.28564523,0.38499386,0.51462505
47163,0,USTennesseeSullivan,Tennessee,Sullivan,2021-01-05 10:06:36.373281,2020-10-28 00:00:00.000000,4.27715416,6.30577336,8.92058034,6772,9985,14125,3702,5199,8140,2.33839839,3.28339462,5.14091902,0.28404181,0.38461449,0.51720688
47163,0,USTennesseeSullivan,Tennessee,Sullivan,2021-01-05 10:06:36.373281,2020-10-29 00:00:00.000000,4.26916710,6.34271698,8.97705657,6760,10043,14214,3805,5280,8313,2.40316820,3.33472705,5.25023514,0.27802691,0.38891754,0.50600306
47163,0,USTennesseeSullivan,Tennessee,Sullivan,2021-01-05 10:06:36.373281,2020-10-30 00:00:00.000000,4.43141490,6.37615865,8.97103689,7017,10096,14205,3795,5356,8482,2.39698725,3.38258665,5.35668108,0.27655438,0.40054376,0.50436297
47163,0,USTennesseeSullivan,Tennessee,Sullivan,2021-01-05 10:06:36.373281,2020-10-31 00:00:00.000000,4.58379211,6.43805794,9.08619266,7258,10194,14387,3788,5434,8646,2.39253310,3.43171666,5.46053342,0.30071984,0.40208464,0.49889068
47163,0,USTennesseeSullivan,Tennessee,Sullivan,2021-01-05 10:06:36.373281,2020-11-01 00:00:00.000000,4.56788255,6.53295992,9.27777259,7233,10344,14691,3771,5507,8807,2.38154085,3.47792899,5.56183344,0.30262668,0.40309952,0.51109058
47163,0,USTennesseeSullivan,Tennessee,Sullivan,2021-01-05 10:06:36.373281,2020-11-02 00:00:00.000000,4.55824850,6.60224004,9.48293408,7217,10454,15016,3850,5616,8898,2.43154653,3.54678302,5.61940937,0.30662779,0.40921277,0.51923212
47163,0,USTennesseeSullivan,Tennessee,Sullivan,2021-01-05 10:06:36.373281,2020-11-03 00:00:00.000000,4.56842034,6.67558527,9.69297997,7234,10570,15348,3839,5735,8989,2.42503557,3.62230519,5.67690709,0.29609224,0.41121213,0.52707645
47163,0,USTennesseeSullivan,Tennessee,Sullivan,2021-01-05 10:06:36.373281,2020-11-04 00:00:00.000000,4.67215022,6.75996844,9.84653240,7398,10704,15591,3874,5800,9170,2.44706590,3.66296902,5.79143557,0.28973807,0.41573521,0.53665313
47163,0,USTennesseeSullivan,Tennessee,Sullivan,2021-01-05 10:06:36.373281,2020-11-05 00:00:00.000000,4.77738326,6.84245882,9.93960595,7564,10834,15739,3947,5809,9348,2.49269357,3.66874089,5.90345988,0.29994993,0.42620334,0.56813861
47163,0,USTennesseeSullivan,Tennessee,Sullivan,2021-01-05 10:06:36.373281,2020-11-06 00:00:00.000000,4.89501469,6.95235942,10.11777724,7751,11008,16021,4033,5793,9458,2.54711759,3.65888546,5.97298364,0.31091888,0.43549540,0.56847302
47163,0,USTennesseeSullivan,Tennessee,Sullivan,2021-01-05 10:06:36.373281,2020-11-07 00:00:00.000000,4.99891554,7.07148468,10.30919217,7915,11197,16324,4131,5826,9643,2.60928210,3.67949744,6.08986206,0.32750712,0.43843417,0.56846821
47163,0,USTennesseeSullivan,Tennessee,Sullivan,2021-01-05 10:06:36.373281,2020-11-08 00:00:00.000000,5.15532439,7.19733477,10.46905179,8163,11396,16577,4241,5912,9829,2.67861551,3.73401762,6.20756804,0.32847898,0.44972255,0.56785988
47163,0,USTennesseeSullivan,Tennessee,Sullivan,2021-01-05 10:06:36.373281,2020-11-09 00:00:00.000000,5.32351667,7.27510636,10.51743242,8429,11519,16654,4266,6047,10003,2.69446367,3.81888889,6.31748999,0.33237320,0.45558377,0.56605701
47163,0,USTennesseeSullivan,Tennessee,Sullivan,2021-01-05 10:06:36.373281,2020-11-10 00:00:00.000000,5.30001379,7.34101682,10.54722830,8392,11624,16701,4348,6111,10128,2.74618809,3.85927619,6.39630802,0.33162725,0.46086931,0.59333597
47163,0,USTennesseeSullivan,Tennessee,Sullivan,2021-01-05 10:06:36.373281,2020-11-11 00:00:00.000000,5.32354357,7.45683309,10.56362275,8429,11807,16727,4371,6193,10237,2.76075663,3.91129195,6.46530145,0.33031807,0.45635781,0.59619242
47163,0,USTennesseeSullivan,Tennessee,Sullivan,2021-01-05 10:06:36.373281,2020-11-12 00:00:00.000000,5.38323338,7.56894714,10.60720229,8524,11985,16796,4285,6262,10295,2.70629395,3.95475777,6.50150514,0.33079220,0.45703287,0.58177530
47163,0,USTennesseeSullivan,Tennessee,Sullivan,2021-01-05 10:06:36.373281,2020-11-13 00:00:00.000000,5.43835875,7.67791674,10.70801606,8611,12157,16955,4282,6299,10335,2.70470694,3.97796829,6.52688152,0.34515271,0.46738702,0.59691514
47163,0,USTennesseeSullivan,Tennessee,Sullivan,2021-01-05 10:06:36.373281,2020-11-14 00:00:00.000000,5.48951946,7.69946098,10.80850569,8692,12191,17115,4279,6372,10362,2.70266442,4.02443148,6.54429029,0.35264430,0.47278819,0.59855201
47163,0,USTennesseeSullivan,Tennessee,Sullivan,2021-01-05 10:06:36.373281,2020-11-15 00:00:00.000000,5.53137307,7.74856327,10.90586287,8758,12269,17269,4277,6465,10385,2.70139637,4.08281409,6.55894841,0.35961311,0.47774091,0.62955848
47163,0,USTennesseeSullivan,Tennessee,Sullivan,2021-01-05 10:06:36.373281,2020-11-16 00:00:00.000000,5.54810897,7.82136016,10.99845022,8785,12384,17415,4278,6506,10485,2.70218261,4.10906031,6.62196812,0.36237406,0.48059559,0.63258341
47163,0,USTennesseeSullivan,Tennessee,Sullivan,2021-01-05 10:06:36.373281,2020-11-17 00:00:00.000000,5.53385123,7.94370513,11.08566064,8762,12578,17553,4283,6582,10613,2.70534962,4.15692404,6.70276198,0.36239983,0.48821136,0.65499280
47163,0,USTennesseeSullivan,Tennessee,Sullivan,2021-01-05 10:06:36.373281,2020-11-18 00:00:00.000000,5.52583414,8.10488343,11.16935736,8750,12833,17686,4293,6676,10731,2.71162296,4.21620670,6.77745876,0.36211849,0.49560090,0.66780426
47163,0,USTennesseeSullivan,Tennessee,Sullivan,2021-01-05 10:06:36.373281,2020-11-19 00:00:00.000000,5.56186190,8.16750756,11.35119007,8807,12933,17974,4308,6758,10842,2.72122136,4.26792502,6.84716064,0.36183579,0.50857979,0.67284878
47163,0,USTennesseeSullivan,Tennessee,Sullivan,2021-01-05 10:06:36.373281,2020-11-20 00:00:00.000000,5.65891305,8.28179092,11.57277238,8960,13114,18325,4365,6906,10946,2.75668964,4.36156050,6.91309162,0.36231624,0.52556997,0.69744168
47163,0,USTennesseeSullivan,Tennessee,Sullivan,2021-01-05 10:06:36.373281,2020-11-21 00:00:00.000000,5.80774129,8.49969283,11.78511373,9196,13459,18661,4449,7043,11047,2.80964242,4.44780087,6.97666137,0.36393646,0.53685967,0.71869275
47163,0,USTennesseeSullivan,Tennessee,Sullivan,2021-01-05 10:06:36.373281,2020-11-22 00:00:00.000000,5.98834382,8.67178398,11.88081093,9482,13731,18813,4531,7187,11147,2.86195155,4.53875151,7.03957785,0.36817678,0.54360522,0.75632447
47163,0,USTennesseeSullivan,Tennessee,Sullivan,2021-01-05 10:06:36.373281,2020-11-23 00:00:00.000000,6.18354879,8.73684264,11.95214632,9791,13834,18925,4612,7353,11250,2.91307360,4.64406459,7.10462256,0.38031715,0.56020392,0.76528217
47163,0,USTennesseeSullivan,Tennessee,Sullivan,2021-01-05 10:06:36.373281,2020-11-24 00:00:00.000000,6.38603010,8.96393125,12.11422565,10112,14194,19182,4691,7451,11584,2.96270494,4.70582897,7.31592244,0.40939716,0.57345421,0.77588553
47163,0,USTennesseeSullivan,Tennessee,Sullivan,2021-01-05 10:06:36.373281,2020-11-25 00:00:00.000000,6.58456309,9.23111631,12.47390429,10426,14617,19752,4767,7667,11763,3.01049980,4.84215967,7.42914902,0.43888278,0.59396200,0.79443655
47163,0,USTennesseeSullivan,Tennessee,Sullivan,2021-01-05 10:06:36.373281,2020-11-26 00:00:00.000000,6.63405186,9.45935192,12.73107857,10504,14978,20159,4839,7837,11834,3.05619815,4.94985209,7.47348480,0.44204580,0.61614745,0.86268914
47163,0,USTennesseeSullivan,Tennessee,Sullivan,2021-01-05 10:06:36.373281,2020-11-27 00:00:00.000000,6.69223845,9.64483938,12.93852023,10597,15272,20487,4908,7981,11907,3.09968069,5.04052321,7.52001793,0.44692397,0.62962349,0.88464829
47163,0,USTennesseeSullivan,Tennessee,Sullivan,2021-01-05 10:06:36.373281,2020-11-28 00:00:00.000000,6.77837761,9.93566137,13.25076444,10733,15732,20982,4975,8068,12165,3.14213338,5.09556623,7.68249331,0.45359444,0.64947074,0.97875520
47163,0,USTennesseeSullivan,Tennessee,Sullivan,2021-01-05 10:06:36.373281,2020-11-29 00:00:00.000000,6.91765206,10.21627974,13.61086984,10953,16177,21552,5045,8292,12412,3.18646197,5.23671781,7.83871782,0.46851353,0.68540895,1.07909831
47163,0,USTennesseeSullivan,Tennessee,Sullivan,2021-01-05 10:06:36.373281,2020-11-30 00:00:00.000000,7.11635067,10.50857322,14.10980083,11268,16640,22342,5135,8513,12648,3.24309621,5.37658515,7.98809855,0.48349661,0.71944284,1.08138956
47163,0,USTennesseeSullivan,Tennessee,Sullivan,2021-01-05 10:06:36.373281,2020-12-01 00:00:00.000000,7.35363849,10.81978753,14.59127495,11644,17132,23104,5269,8732,12862,3.32810332,5.51459603,8.12309025,0.49288172,0.73651566,1.14331205
47163,0,USTennesseeSullivan,Tennessee,Sullivan,2021-01-05 10:06:36.373281,2020-12-02 00:00:00.000000,7.60718536,11.06898087,15.05188680,12045,17527,23834,5444,8989,13078,3.43832549,5.67734948,8.25956117,0.51066406,0.74796183,1.15046946
47163,0,USTennesseeSullivan,Tennessee,Sullivan,2021-01-05 10:06:36.373281,2020-12-03 00:00:00.000000,7.86420005,11.36090229,15.48738421,12452,17989,24523,5647,9246,13326,3.56666481,5.83954735,8.41591241,0.53952330,0.77834879,1.16056558
47163,0,USTennesseeSullivan,Tennessee,Sullivan,2021-01-05 10:06:36.373281,2020-12-04 00:00:00.000000,8.11860149,11.73576909,15.89447590,12855,18583,25168,5866,9535,13658,3.70480146,6.02187955,8.62568452,0.55579928,0.79932943,1.17173911
47163,0,USTennesseeSullivan,Tennessee,Sullivan,2021-01-05 10:06:36.373281,2020-12-05 00:00:00.000000,8.37032423,12.06290030,16.27059165,13254,19101,25764,6092,9836,14014,3.84778204,6.21203040,8.85055721,0.57769137,0.82709305,1.18528736
47163,0,USTennesseeSullivan,Tennessee,Sullivan,2021-01-05 10:06:36.373281,2020-12-06 00:00:00.000000,8.63248028,12.37220077,16.63571651,13669,19591,26342,6322,10120,14370,3.99249951,6.39126500,9.07510209,0.58776335,0.84097277,1.20702683
47163,0,USTennesseeSullivan,Tennessee,Sullivan,2021-01-05 10:06:36.373281,2020-12-07 00:00:00.000000,8.93538919,12.63771280,17.25262438,14149,20011,27319,6551,10406,14721,4.13765140,6.57173300,9.29661295,0.60172382,0.86737384,1.24077050
47163,0,USTennesseeSullivan,Tennessee,Sullivan,2021-01-05 10:06:36.373281,2020-12-08 00:00:00.000000,9.13869109,12.93845874,17.83120140,14470,20487,28235,6791,10676,15075,4.28887228,6.74214379,9.52051869,0.59608203,0.89351517,1.26739779
47163,0,USTennesseeSullivan,Tennessee,Sullivan,2021-01-05 10:06:36.373281,2020-12-09 00:00:00.000000,9.47422130,13.23625729,18.17894245,15002,20959,28785,7048,10938,15442,4.45121829,6.90760514,9.75228824,0.58366385,0.90424531,1.28030838
47163,0,USTennesseeSullivan,Tennessee,Sullivan,2021-01-05 10:06:36.373281,2020-12-10 00:00:00.000000,9.75824840,13.50273389,18.39614519,15451,21381,29129,7311,11188,16077,4.61755398,7.06553541,10.15341802,0.56525442,0.91383301,1.28660172
47163,0,USTennesseeSullivan,Tennessee,Sullivan,2021-01-05 10:06:36.373281,2020-12-11 00:00:00.000000,9.99337566,13.73547108,18.56455556,15824,21749,29396,7574,11377,16511,4.78337476,7.18495928,10.42748227,0.54648494,0.93629397,1.29211956
47163,0,USTennesseeSullivan,Tennessee,Sullivan,2021-01-05 10:06:36.373281,2020-12-12 00:00:00.000000,10.20480822,13.84715258,18.68735594,16159,21926,29591,7831,11544,16921,4.94557882,7.29037508,10.68614532,0.53308324,0.94137665,1.32724968
47163,0,USTennesseeSullivan,Tennessee,Sullivan,2021-01-05 10:06:36.373281,2020-12-13 00:00:00.000000,10.38989200,13.95445527,18.88878648,16452,22096,29910,8078,11694,17296,5.10181906,7.38541155,10.92331622,0.52563877,0.93273149,1.38464937
47163,0,USTennesseeSullivan,Tennessee,Sullivan,2021-01-05 10:06:36.373281,2020-12-14 00:00:00.000000,10.54437825,14.09259518,19.17363971,16696,22315,30361,8313,11769,17629,5.25016576,7.43272069,11.13344665,0.50711379,0.93019114,1.41920545
47163,0,USTennesseeSullivan,Tennessee,Sullivan,2021-01-05 10:06:36.373281,2020-12-15 00:00:00.000000,10.66816067,14.15570826,19.13513371,16892,22415,30300,8533,11897,17911,5.38882972,7.51359051,11.31172055,0.47886921,0.91951712,1.44524101
47163,0,USTennesseeSullivan,Tennessee,Sullivan,2021-01-05 10:06:36.373281,2020-12-16 00:00:00.000000,10.75958051,14.17963464,19.18330307,17037,22453,30376,8735,12017,18140,5.51634054,7.58920858,11.45635903,0.46829769,0.91312334,1.44861685
47163,0,USTennesseeSullivan,Tennessee,Sullivan,2021-01-05 10:06:36.373281,2020-12-17 00:00:00.000000,10.67699509,14.09564872,19.30943127,16906,22320,30576,8895,12097,18353,5.61791928,7.63972736,11.59033897,0.46417458,0.91509005,1.48453540
47163,0,USTennesseeSullivan,Tennessee,Sullivan,2021-01-05 10:06:36.373281,2020-12-18 00:00:00.000000,10.65275069,13.97257151,19.36182296,16868,22125,30659,8902,12075,18538,5.62211899,7.62611466,11.70728560,0.45779172,0.90269309,1.79555666
47163,0,USTennesseeSullivan,Tennessee,Sullivan,2021-01-05 10:06:36.373281,2020-12-19 00:00:00.000000,10.52001529,13.81427391,19.34073598,16658,21874,30625,8843,12054,18714,5.58466691,7.61237489,11.81861864,0.45563465,0.89401798,1.89012099
47163,0,USTennesseeSullivan,Tennessee,Sullivan,2021-01-05 10:06:36.373281,2020-12-20 00:00:00.000000,10.29065703,13.70386822,19.24756527,16295,21699,30478,8760,11964,18688,5.53255170,7.55575555,11.80232049,0.45116494,0.95569015,1.89450745
47163,0,USTennesseeSullivan,Tennessee,Sullivan,2021-01-05 10:06:36.373281,2020-12-21 00:00:00.000000,10.03437005,13.62371190,19.08376837,15889,21572,30218,8655,11838,18569,5.46637740,7.47606531,11.72697320,0.44123736,0.90665854,1.87956604
47163,0,USTennesseeSullivan,Tennessee,Sullivan,2021-01-05 10:06:36.373281,2020-12-22 00:00:00.000000,9.75502009,13.42990149,18.85376885,15446,21265,29854,8529,11741,18454,5.38653131,7.41477073,11.65428371,0.42765363,0.89560690,1.85791080
47163,0,USTennesseeSullivan,Tennessee,Sullivan,2021-01-05 10:06:36.373281,2020-12-23 00:00:00.000000,9.46482345,13.15106765,18.56005763,14987,20824,29389,8384,11615,18362,5.29475540,7.33511940,11.59654406,0.42216295,0.89423958,1.83193213
47163,0,USTennesseeSullivan,Tennessee,Sullivan,2021-01-05 10:06:36.373281,2020-12-24 00:00:00.000000,9.21694469,12.77388355,18.20852605,14594,20227,28832,8226,11462,18233,5.19495321,7.23867037,11.51473993,0.43449401,0.91205764,1.80319153
47163,0,USTennesseeSullivan,Tennessee,Sullivan,2021-01-05 10:06:36.373281,2020-12-25 00:00:00.000000,8.97355191,12.35350404,17.80565965,14209,19561,28194,8066,11258,18044,5.09442945,7.10988426,11.39529151,0.46698083,0.92109439,1.85252851
47163,0,USTennesseeSullivan,Tennessee,Sullivan,2021-01-05 10:06:36.373281,2020-12-26 00:00:00.000000,8.73582295,11.95286927,17.35731498,13833,18927,27484,7915,11041,17798,4.99849739,6.97294546,11.24025050,0.49405751,0.91672107,1.93249511
47163,0,USTennesseeSullivan,Tennessee,Sullivan,2021-01-05 10:06:36.373281,2020-12-27 00:00:00.000000,8.50093351,11.53593726,16.86924248,13461,18266,26712,7769,10780,17500,4.90642953,6.80801302,11.05206016,0.46920809,0.90445767,1.98719366
47163,0,USTennesseeSullivan,Tennessee,Sullivan,2021-01-05 10:06:36.373281,2020-12-28 00:00:00.000000,8.26377769,11.13746912,16.34442732,13085,17635,25881,7625,10457,17154,4.81566685,6.60438091,10.83347711,0.45980181,0.89342207,2.02834445
47163,0,USTennesseeSullivan,Tennessee,Sullivan,2021-01-05 10:06:36.373281,2020-12-29 00:00:00.000000,8.02063647,10.73377996,15.79387081,12700,16996,25009,7411,10153,16764,4.68023886,6.41213324,10.58726093,0.45611937,0.89418953,2.06233454
47163,0,USTennesseeSullivan,Tennessee,Sullivan,2021-01-05 10:06:36.373281,2020-12-30 00:00:00.000000,7.59890895,10.40272937,15.25255112,12032,16472,24152,7000,9867,16336,4.42087654,6.23146813,10.31664643,0.45387784,0.89457200,2.08481176
47163,0,USTennesseeSullivan,Tennessee,Sullivan,2021-01-05 10:06:36.373281,2020-12-31 00:00:00.000000,7.10405784,9.97660746,14.64437254,11249,15797,23189,6589,9539,15874,4.16162322,6.02431065,10.02480214,0.45072454,0.88906380,2.10158353
47163,0,USTennesseeSullivan,Tennessee,Sullivan,2021-01-05 10:06:36.373281,2021-01-01 00:00:00.000000,6.62571454,9.58341437,14.05241752,10491,15175,22251,6186,9263,15383,3.90686635,5.85039825,9.71484361,0.44223999,0.88014311,2.10327378
47163,0,USTennesseeSullivan,Tennessee,Sullivan,2021-01-05 10:06:36.373281,2021-01-02 00:00:00.000000,6.16147459,9.15862463,13.45445087,9756,14502,21304,5793,8980,14846,3.65853745,5.67144145,9.37612144,0.41910100,0.88065416,2.09998188
47163,0,USTennesseeSullivan,Tennessee,Sullivan,2021-01-05 10:06:36.373281,2021-01-03 00:00:00.000000,5.99165837,8.79520229,12.85157338,9487,13927,20350,5467,8677,14261,3.45307439,5.48001162,9.00638184,0.37940505,0.87553368,2.15823190
47163,0,USTennesseeSullivan,Tennessee,Sullivan,2021-01-05 10:06:36.373281,2021-01-04 00:00:00.000000,5.81824049,8.45074944,12.25129508,9213,13381,19399,5351,8330,13666,3.37941609,5.26074179,8.63039920,0.34674403,0.87494906,2.16591367
47163,0,USTennesseeSullivan,Tennessee,Sullivan,2021-01-05 10:06:36.373281,2021-01-05 00:00:00.000000,5.40906125,8.10374591,11.65732887,8565,12832,18459,5164,7967,13066,3.26157910,5.03142584,8.25191293,0.33939346,0.87690447,2.16883915
47163,0,USTennesseeSullivan,Tennessee,Sullivan,2021-01-05 10:06:36.373281,2021-01-06 00:00:00.000000,5.02438209,7.71256017,11.07276599,7956,12212,17533,5005,7641,12468,3.16105244,4.82605002,7.87430366,0.34116212,0.88542858,2.16988537
47163,0,USTennesseeSullivan,Tennessee,Sullivan,2021-01-05 10:06:36.373281,2021-01-07 00:00:00.000000,4.66319657,7.34073559,10.50025509,7384,11623,16626,4844,7345,11876,3.05910778,4.63863362,7.50035023,0.34235853,0.88128527,2.17025427
47163,0,USTennesseeSullivan,Tennessee,Sullivan,2021-01-05 10:06:36.373281,2021-01-08 00:00:00.000000,4.32488700,7.04419809,9.94202278,6848,11154,15742,4553,7054,11326,2.87584505,4.45478665,7.15294780,0.34312106,0.87874985,2.17038495
47163,0,USTennesseeSullivan,Tennessee,Sullivan,2021-01-05 10:06:36.373281,2021-01-09 00:00:00.000000,4.00863444,6.71280761,9.39989966,6347,10629,14884,4230,6767,10839,2.67187635,4.27353661,6.84521695,0.34359159,0.87738740,2.17043186
47163,0,USTennesseeSullivan,Tennessee,Sullivan,2021-01-05 10:06:36.373281,2021-01-10 00:00:00.000000,3.71349377,6.36333596,8.87610036,5880,10076,14055,3927,6454,10350,2.48038491,4.07602815,6.53630310,0.34387678,0.87669257,2.17044900
47163,0,USTennesseeSullivan,Tennessee,Sullivan,2021-01-05 10:06:36.373281,2021-01-11 00:00:00.000000,3.43844632,6.04011021,8.45466024,5444,9564,13387,3643,6121,9810,2.30102779,3.86582754,6.19576579,0.34404789,0.87634766,2.17045540
47163,0,USTennesseeSullivan,Tennessee,Sullivan,2021-01-05 10:06:36.373281,2021-01-12 00:00:00.000000,3.18243701,5.72489066,8.04394429,5039,9065,12737,3378,5838,9286,2.13335930,3.68697613,5.86431318,0.34414996,0.87617875,2.17045785
47163,0,USTennesseeSullivan,Tennessee,Sullivan,2021-01-05 10:06:36.373281,2021-01-13 00:00:00.000000,2.94440072,5.40569654,7.64478690,4662,8559,12105,3130,5566,8776,1.97687019,3.51563696,5.54225223,0.34421064,0.87609658,2.17045882
47163,0,USTennesseeSullivan,Tennessee,Sullivan,2021-01-05 10:06:36.373281,2021-01-14 00:00:00.000000,2.72328101,5.10225369,7.25786336,4312,8079,11492,2899,5264,8283,1.83101492,3.32491859,5.23115225,0.34424665,0.87605673,2.17045921
47163,0,USTennesseeSullivan,Tennessee,Sullivan,2021-01-05 10:06:36.373281,2021-01-15 00:00:00.000000,2.51804331,4.82722575,6.88370160,3987,7643,10900,2684,4957,7809,1.69523085,3.13058149,4.93157211,0.34426799,0.87603744,2.17045938
47163,0,USTennesseeSullivan,Tennessee,Sullivan,2021-01-05 10:06:36.373281,2021-01-16 00:00:00.000000,2.32768425,4.56646876,6.51157537,3685,7230,10310,2484,4649,7353,1.56895172,2.93633903,4.64390746,0.34428063,0.87602810,2.17045945
47163,0,USTennesseeSullivan,Tennessee,Sullivan,2021-01-05 10:06:36.373281,2021-01-17 00:00:00.000000,2.15123796,4.29931735,6.10936958,3406,6807,9674,2298,4379,6917,1.45161715,2.76554487,4.36840873,0.34428812,0.87602359,2.17045948
