FIPS,HR_UID,nameid,province,region,analysisTime,dates,pointprevalence_025,pointprevalence_50,pointprevalence_975,pointinfections_025,pointinfections_50,pointinfections_975,pointinfectious_025,pointinfectious_50,pointinfectious_975,pointinfectiousprevalence_05,pointinfectiousprevalence_50,pointinfectiousprevalence_95,infectrate_025,infectrate_50,infectrate_975
21173,0,USKentuckyMontgomery,Kentucky,Montgomery,2021-01-05 20:42:36.311619,2020-03-09 00:00:00.000000,0.00450652,0.01639916,0.04252100,1,4,11,0,2,6,0.00083690,0.00787794,0.02336293,0.37494321,0.49195056,0.65345782
21173,0,USKentuckyMontgomery,Kentucky,Montgomery,2021-01-05 20:42:36.311619,2020-03-10 00:00:00.000000,0.00633837,0.02138278,0.05113172,1,6,14,0,2,6,0.00154548,0.00778152,0.02405722,0.37494253,0.49194866,0.65325049
21173,0,USKentuckyMontgomery,Kentucky,Montgomery,2021-01-05 20:42:36.311619,2020-03-11 00:00:00.000000,0.00886354,0.02609824,0.05982902,2,7,16,0,2,7,0.00229320,0.00893335,0.02497784,0.37494112,0.49194527,0.65273116
21173,0,USKentuckyMontgomery,Kentucky,Montgomery,2021-01-05 20:42:36.311619,2020-03-12 00:00:00.000000,0.01164081,0.03051428,0.06797278,3,8,19,0,2,7,0.00327191,0.01024151,0.02642191,0.37493751,0.49193909,0.65143473
21173,0,USKentuckyMontgomery,Kentucky,Montgomery,2021-01-05 20:42:36.311619,2020-03-13 00:00:00.000000,0.01462928,0.03588875,0.07639388,4,10,21,1,3,8,0.00386486,0.01195768,0.02873564,0.37492472,0.49192748,0.64822639
21173,0,USKentuckyMontgomery,Kentucky,Montgomery,2021-01-05 20:42:36.311619,2020-03-14 00:00:00.000000,0.01785869,0.04130305,0.08519227,5,11,23,1,3,9,0.00455545,0.01392567,0.03252039,0.37486334,0.49190460,0.64045564
21173,0,USKentuckyMontgomery,Kentucky,Montgomery,2021-01-05 20:42:36.311619,2020-03-15 00:00:00.000000,0.02134541,0.04654227,0.09779570,6,13,27,1,4,10,0.00553219,0.01616128,0.03692823,0.37451489,0.49110566,0.62676092
21173,0,USKentuckyMontgomery,Kentucky,Montgomery,2021-01-05 20:42:36.311619,2020-03-16 00:00:00.000000,0.02631274,0.05556316,0.10923056,7,15,30,1,5,12,0.00661308,0.01837959,0.04333602,0.37243730,0.49028806,0.62664981
21173,0,USKentuckyMontgomery,Kentucky,Montgomery,2021-01-05 20:42:36.311619,2020-03-17 00:00:00.000000,0.03158596,0.06222575,0.12409536,8,17,34,2,5,13,0.00790573,0.02095880,0.04941898,0.35424069,0.48122346,0.62616408
21173,0,USKentuckyMontgomery,Kentucky,Montgomery,2021-01-05 20:42:36.311619,2020-03-18 00:00:00.000000,0.03588430,0.07054420,0.13899904,10,19,39,2,6,15,0.00937814,0.02458610,0.05545311,0.32688766,0.45824429,0.62365007
21173,0,USKentuckyMontgomery,Kentucky,Montgomery,2021-01-05 20:42:36.311619,2020-03-19 00:00:00.000000,0.03906970,0.07934388,0.15095136,11,22,42,3,8,17,0.01103759,0.02858663,0.06161040,0.29668639,0.44052752,0.60354448
21173,0,USKentuckyMontgomery,Kentucky,Montgomery,2021-01-05 20:42:36.311619,2020-03-20 00:00:00.000000,0.04243476,0.08779339,0.16209811,11,24,45,3,8,19,0.01318523,0.03190891,0.06798106,0.27052681,0.42493800,0.58126942
21173,0,USKentuckyMontgomery,Kentucky,Montgomery,2021-01-05 20:42:36.311619,2020-03-21 00:00:00.000000,0.04597480,0.09494410,0.17426181,12,26,49,4,9,21,0.01568328,0.03537022,0.07528394,0.26217331,0.40252531,0.56573977
21173,0,USKentuckyMontgomery,Kentucky,Montgomery,2021-01-05 20:42:36.311619,2020-03-22 00:00:00.000000,0.04964846,0.10262343,0.19071554,13,28,53,5,11,23,0.01838124,0.03957951,0.08419805,0.26054018,0.38184619,0.54319034
21173,0,USKentuckyMontgomery,Kentucky,Montgomery,2021-01-05 20:42:36.311619,2020-03-23 00:00:00.000000,0.05787865,0.11093153,0.20417568,16,31,57,5,12,26,0.02123027,0.04316553,0.09317045,0.25832196,0.37034842,0.52490267
21173,0,USKentuckyMontgomery,Kentucky,Montgomery,2021-01-05 20:42:36.311619,2020-03-24 00:00:00.000000,0.06650254,0.12067223,0.22233580,18,33,62,6,13,28,0.02333724,0.04738068,0.10245137,0.25389011,0.35063528,0.48306909
21173,0,USKentuckyMontgomery,Kentucky,Montgomery,2021-01-05 20:42:36.311619,2020-03-25 00:00:00.000000,0.07507981,0.12744503,0.24101218,21,35,67,7,14,30,0.02594891,0.05241086,0.10856133,0.24132242,0.33729753,0.47906003
21173,0,USKentuckyMontgomery,Kentucky,Montgomery,2021-01-05 20:42:36.311619,2020-03-26 00:00:00.000000,0.08004435,0.13595657,0.24871616,22,38,70,8,16,32,0.02930178,0.05773077,0.11371228,0.22271189,0.32844301,0.45918796
21173,0,USKentuckyMontgomery,Kentucky,Montgomery,2021-01-05 20:42:36.311619,2020-03-27 00:00:00.000000,0.08936784,0.14330367,0.25485749,25,40,71,9,17,33,0.03263595,0.06273315,0.11869794,0.21079811,0.31340075,0.44746457
21173,0,USKentuckyMontgomery,Kentucky,Montgomery,2021-01-05 20:42:36.311619,2020-03-28 00:00:00.000000,0.09426397,0.15097142,0.25992642,26,42,73,9,18,35,0.03520757,0.06632339,0.12669772,0.20014671,0.29838506,0.43221856
21173,0,USKentuckyMontgomery,Kentucky,Montgomery,2021-01-05 20:42:36.311619,2020-03-29 00:00:00.000000,0.09825610,0.16037401,0.26434401,27,45,74,10,20,38,0.03782604,0.07231966,0.13495818,0.18737930,0.28045322,0.39868917
21173,0,USKentuckyMontgomery,Kentucky,Montgomery,2021-01-05 20:42:36.311619,2020-03-30 00:00:00.000000,0.10640908,0.16675783,0.27864973,29,46,78,11,21,40,0.04009867,0.07779402,0.14283124,0.17138699,0.27252038,0.37380750
21173,0,USKentuckyMontgomery,Kentucky,Montgomery,2021-01-05 20:42:36.311619,2020-03-31 00:00:00.000000,0.10916073,0.17102175,0.29793906,30,48,83,11,22,42,0.04218467,0.08144189,0.14968931,0.15978200,0.26057253,0.35326275
21173,0,USKentuckyMontgomery,Kentucky,Montgomery,2021-01-05 20:42:36.311619,2020-04-01 00:00:00.000000,0.11899709,0.17724679,0.31582496,33,49,88,12,24,43,0.04439614,0.08630086,0.15587507,0.14781459,0.25339482,0.34531133
21173,0,USKentuckyMontgomery,Kentucky,Montgomery,2021-01-05 20:42:36.311619,2020-04-02 00:00:00.000000,0.11960296,0.18467124,0.31963250,33,51,89,13,25,47,0.04682428,0.08958544,0.16842669,0.14539760,0.24732504,0.33392908
21173,0,USKentuckyMontgomery,Kentucky,Montgomery,2021-01-05 20:42:36.311619,2020-04-03 00:00:00.000000,0.11703435,0.19240232,0.32315329,32,54,90,13,26,50,0.04924806,0.09244080,0.18045396,0.14452387,0.23300578,0.33151043
21173,0,USKentuckyMontgomery,Kentucky,Montgomery,2021-01-05 20:42:36.311619,2020-04-04 00:00:00.000000,0.11557151,0.19761881,0.33336501,32,55,93,14,26,52,0.05167083,0.09580209,0.18735515,0.14416815,0.23176905,0.32159614
21173,0,USKentuckyMontgomery,Kentucky,Montgomery,2021-01-05 20:42:36.311619,2020-04-05 00:00:00.000000,0.11587477,0.20179596,0.34621923,32,56,97,15,27,53,0.05409764,0.09786205,0.19062539,0.14392060,0.22070692,0.31035471
21173,0,USKentuckyMontgomery,Kentucky,Montgomery,2021-01-05 20:42:36.311619,2020-04-06 00:00:00.000000,0.11435811,0.20697883,0.35816413,32,58,100,15,28,54,0.05651578,0.10085613,0.19350614,0.13986723,0.20867463,0.30639777
21173,0,USKentuckyMontgomery,Kentucky,Montgomery,2021-01-05 20:42:36.311619,2020-04-07 00:00:00.000000,0.11274308,0.20821703,0.36967188,31,58,104,15,28,55,0.05537643,0.10279530,0.19583876,0.13857232,0.20804476,0.29157496
21173,0,USKentuckyMontgomery,Kentucky,Montgomery,2021-01-05 20:42:36.311619,2020-04-08 00:00:00.000000,0.11104641,0.21206408,0.37469478,31,59,105,15,29,56,0.05426286,0.10452557,0.20037604,0.13567540,0.19998348,0.28213112
21173,0,USKentuckyMontgomery,Kentucky,Montgomery,2021-01-05 20:42:36.311619,2020-04-09 00:00:00.000000,0.10933278,0.21991513,0.36936187,30,61,104,14,29,57,0.05317670,0.10569849,0.20376179,0.12376224,0.19255428,0.27652164
21173,0,USKentuckyMontgomery,Kentucky,Montgomery,2021-01-05 20:42:36.311619,2020-04-10 00:00:00.000000,0.10759369,0.22383183,0.36367560,30,63,102,14,30,58,0.05211357,0.10710485,0.20758373,0.12530116,0.18120420,0.27592082
21173,0,USKentuckyMontgomery,Kentucky,Montgomery,2021-01-05 20:42:36.311619,2020-04-11 00:00:00.000000,0.10583862,0.22839337,0.35771055,29,64,100,14,30,58,0.05136514,0.10931444,0.20932690,0.12527603,0.17371848,0.26863728
21173,0,USKentuckyMontgomery,Kentucky,Montgomery,2021-01-05 20:42:36.311619,2020-04-12 00:00:00.000000,0.10406862,0.23336944,0.35157598,29,65,98,14,31,58,0.05106886,0.11197885,0.20689585,0.12264807,0.17304723,0.26221108
21173,0,USKentuckyMontgomery,Kentucky,Montgomery,2021-01-05 20:42:36.311619,2020-04-13 00:00:00.000000,0.10289326,0.23515414,0.35254978,28,66,99,14,32,58,0.05069040,0.11414429,0.20818942,0.12018066,0.16993132,0.25172128
21173,0,USKentuckyMontgomery,Kentucky,Montgomery,2021-01-05 20:42:36.311619,2020-04-14 00:00:00.000000,0.10359109,0.23356860,0.35920548,29,65,101,14,32,60,0.05066889,0.11507278,0.21366142,0.11665172,0.16624737,0.24679928
21173,0,USKentuckyMontgomery,Kentucky,Montgomery,2021-01-05 20:42:36.311619,2020-04-15 00:00:00.000000,0.10460399,0.23279065,0.36927926,29,65,103,14,32,62,0.05086537,0.11642980,0.22030218,0.11237414,0.16209820,0.24132537
21173,0,USKentuckyMontgomery,Kentucky,Montgomery,2021-01-05 20:42:36.311619,2020-04-16 00:00:00.000000,0.10556797,0.23465410,0.38374284,29,66,108,14,33,63,0.05118760,0.11900701,0.22411078,0.10773680,0.16013009,0.23472464
21173,0,USKentuckyMontgomery,Kentucky,Montgomery,2021-01-05 20:42:36.311619,2020-04-17 00:00:00.000000,0.10646940,0.23526128,0.39126419,29,66,110,14,33,62,0.05157503,0.11974746,0.22283047,0.10408283,0.15847924,0.22507464
21173,0,USKentuckyMontgomery,Kentucky,Montgomery,2021-01-05 20:42:36.311619,2020-04-18 00:00:00.000000,0.10730295,0.23636220,0.40250808,30,66,113,14,33,62,0.05198860,0.11822944,0.22054727,0.10366033,0.15470220,0.22106684
21173,0,USKentuckyMontgomery,Kentucky,Montgomery,2021-01-05 20:42:36.311619,2020-04-19 00:00:00.000000,0.10806758,0.23168347,0.41474436,30,65,116,14,32,61,0.05240373,0.11668899,0.21740700,0.10357843,0.15102511,0.21983611
21173,0,USKentuckyMontgomery,Kentucky,Montgomery,2021-01-05 20:42:36.311619,2020-04-20 00:00:00.000000,0.11027425,0.23038485,0.41925554,31,64,118,14,33,60,0.05280556,0.11777080,0.21511130,0.10358933,0.15010721,0.21920354
21173,0,USKentuckyMontgomery,Kentucky,Montgomery,2021-01-05 20:42:36.311619,2020-04-21 00:00:00.000000,0.11246603,0.22800570,0.41982522,31,64,118,15,33,62,0.05349467,0.11951813,0.22057099,0.10371966,0.14870794,0.21829614
21173,0,USKentuckyMontgomery,Kentucky,Montgomery,2021-01-05 20:42:36.311619,2020-04-22 00:00:00.000000,0.11468640,0.22994091,0.41875961,32,64,117,15,33,63,0.05435702,0.11788161,0.22512370,0.10372335,0.14771436,0.21742081
21173,0,USKentuckyMontgomery,Kentucky,Montgomery,2021-01-05 20:42:36.311619,2020-04-23 00:00:00.000000,0.12213146,0.22843877,0.41591249,34,64,117,15,33,62,0.05531636,0.11892071,0.22272849,0.10290251,0.14564832,0.21283784
21173,0,USKentuckyMontgomery,Kentucky,Montgomery,2021-01-05 20:42:36.311619,2020-04-24 00:00:00.000000,0.11899454,0.22837208,0.41140808,33,64,115,15,33,62,0.05632213,0.11967143,0.22187353,0.10168311,0.14363912,0.21009237
21173,0,USKentuckyMontgomery,Kentucky,Montgomery,2021-01-05 20:42:36.311619,2020-04-25 00:00:00.000000,0.12047256,0.22734578,0.40908714,33,64,115,16,33,62,0.05918801,0.11962886,0.22198039,0.10009577,0.14680592,0.20969392
21173,0,USKentuckyMontgomery,Kentucky,Montgomery,2021-01-05 20:42:36.311619,2020-04-26 00:00:00.000000,0.12219849,0.22803124,0.40491121,34,64,114,17,33,62,0.06295459,0.11890916,0.22143485,0.09507163,0.14475957,0.20864348
21173,0,USKentuckyMontgomery,Kentucky,Montgomery,2021-01-05 20:42:36.311619,2020-04-27 00:00:00.000000,0.12117553,0.23021736,0.40012890,34,64,112,18,33,62,0.06485438,0.11870359,0.22040201,0.09291695,0.14192441,0.20746981
21173,0,USKentuckyMontgomery,Kentucky,Montgomery,2021-01-05 20:42:36.311619,2020-04-28 00:00:00.000000,0.12200924,0.23408917,0.39532048,34,65,111,18,33,61,0.06507343,0.11842739,0.21891628,0.09243226,0.14186423,0.20376253
21173,0,USKentuckyMontgomery,Kentucky,Montgomery,2021-01-05 20:42:36.311619,2020-04-29 00:00:00.000000,0.12161627,0.23697943,0.39051246,34,66,109,18,33,61,0.06502864,0.11963532,0.21710192,0.09235692,0.14180277,0.19861310
21173,0,USKentuckyMontgomery,Kentucky,Montgomery,2021-01-05 20:42:36.311619,2020-04-30 00:00:00.000000,0.12117641,0.24155499,0.38573573,34,68,108,18,33,60,0.06542334,0.12068467,0.21505350,0.09262398,0.14147377,0.20200663
21173,0,USKentuckyMontgomery,Kentucky,Montgomery,2021-01-05 20:42:36.311619,2020-05-01 00:00:00.000000,0.12074926,0.24436624,0.38102576,33,68,107,18,34,59,0.06618240,0.12161792,0.21284309,0.09326408,0.14032217,0.20079434
21173,0,USKentuckyMontgomery,Kentucky,Montgomery,2021-01-05 20:42:36.311619,2020-05-02 00:00:00.000000,0.12036424,0.24159311,0.38311513,33,68,107,18,34,59,0.06632056,0.12245935,0.21052725,0.09350951,0.13808951,0.19997825
21173,0,USKentuckyMontgomery,Kentucky,Montgomery,2021-01-05 20:42:36.311619,2020-05-03 00:00:00.000000,0.11848414,0.24027520,0.38649807,33,67,108,18,34,59,0.06398570,0.12327705,0.21067002,0.09265964,0.13847643,0.19866415
21173,0,USKentuckyMontgomery,Kentucky,Montgomery,2021-01-05 20:42:36.311619,2020-05-04 00:00:00.000000,0.12113254,0.24138463,0.38973571,34,67,109,17,35,59,0.06173793,0.12456708,0.21195103,0.08847199,0.13877415,0.20344567
21173,0,USKentuckyMontgomery,Kentucky,Montgomery,2021-01-05 20:42:36.311619,2020-05-05 00:00:00.000000,0.12160169,0.23728998,0.39265108,34,66,110,16,35,59,0.06005391,0.12435715,0.21308371,0.08532889,0.14039274,0.20333052
21173,0,USKentuckyMontgomery,Kentucky,Montgomery,2021-01-05 20:42:36.311619,2020-05-06 00:00:00.000000,0.12408362,0.23767556,0.40361043,34,66,113,16,34,60,0.05915252,0.12294433,0.21408009,0.08583190,0.14398849,0.20273291
21173,0,USKentuckyMontgomery,Kentucky,Montgomery,2021-01-05 20:42:36.311619,2020-05-07 00:00:00.000000,0.12662184,0.23631489,0.41585103,35,66,117,16,34,60,0.06002408,0.12296743,0.21494953,0.08775268,0.14424242,0.20222049
21173,0,USKentuckyMontgomery,Kentucky,Montgomery,2021-01-05 20:42:36.311619,2020-05-08 00:00:00.000000,0.12825730,0.23404091,0.42671826,36,65,120,17,34,60,0.06110430,0.12212892,0.21568875,0.08758510,0.14263667,0.20176509
21173,0,USKentuckyMontgomery,Kentucky,Montgomery,2021-01-05 20:42:36.311619,2020-05-09 00:00:00.000000,0.12982960,0.23577811,0.42666348,36,66,120,17,34,60,0.06238317,0.12221850,0.21630197,0.08974721,0.14668062,0.20165119
21173,0,USKentuckyMontgomery,Kentucky,Montgomery,2021-01-05 20:42:36.311619,2020-05-10 00:00:00.000000,0.13133346,0.23781797,0.42707689,36,66,120,17,34,61,0.06381491,0.12287118,0.21687419,0.08837201,0.14632076,0.20631674
21173,0,USKentuckyMontgomery,Kentucky,Montgomery,2021-01-05 20:42:36.311619,2020-05-11 00:00:00.000000,0.13433412,0.23890143,0.42610707,37,67,119,18,34,61,0.06527586,0.12413482,0.21757972,0.08776750,0.14996630,0.21119756
21173,0,USKentuckyMontgomery,Kentucky,Montgomery,2021-01-05 20:42:36.311619,2020-05-12 00:00:00.000000,0.13188937,0.23948287,0.42475833,37,67,119,18,34,61,0.06493731,0.12389809,0.21817910,0.08747866,0.14865004,0.21447799
21173,0,USKentuckyMontgomery,Kentucky,Montgomery,2021-01-05 20:42:36.311619,2020-05-13 00:00:00.000000,0.12943978,0.23587309,0.42319497,36,66,119,18,34,61,0.06516158,0.12405640,0.21869594,0.08746318,0.14733987,0.21539011
21173,0,USKentuckyMontgomery,Kentucky,Montgomery,2021-01-05 20:42:36.311619,2020-05-14 00:00:00.000000,0.12701166,0.23510791,0.42156539,35,66,118,18,34,61,0.06459265,0.12416831,0.21913653,0.08793141,0.14646081,0.21564505
21173,0,USKentuckyMontgomery,Kentucky,Montgomery,2021-01-05 20:42:36.311619,2020-05-15 00:00:00.000000,0.12462446,0.23737532,0.41991619,35,66,118,17,34,61,0.06350226,0.12406395,0.21951114,0.08939290,0.14645564,0.21570380
21173,0,USKentuckyMontgomery,Kentucky,Montgomery,2021-01-05 20:42:36.311619,2020-05-16 00:00:00.000000,0.12229275,0.23597096,0.41826170,34,66,117,18,35,61,0.06457001,0.12507045,0.21983282,0.08852918,0.14643411,0.21521122
21173,0,USKentuckyMontgomery,Kentucky,Montgomery,2021-01-05 20:42:36.311619,2020-05-17 00:00:00.000000,0.12007521,0.23496656,0.41660888,33,66,117,17,35,61,0.06347141,0.12608834,0.21827629,0.08771940,0.14742457,0.21559520
21173,0,USKentuckyMontgomery,Kentucky,Montgomery,2021-01-05 20:42:36.311619,2020-05-18 00:00:00.000000,0.12291175,0.23534100,0.42370166,34,66,119,17,35,60,0.06236177,0.12749430,0.21502916,0.08720943,0.14742760,0.21563447
21173,0,USKentuckyMontgomery,Kentucky,Montgomery,2021-01-05 20:42:36.311619,2020-05-19 00:00:00.000000,0.12932723,0.23370443,0.43054611,36,65,121,17,35,60,0.06120616,0.12725526,0.21527680,0.08701708,0.14825881,0.21825590
21173,0,USKentuckyMontgomery,Kentucky,Montgomery,2021-01-05 20:42:36.311619,2020-05-20 00:00:00.000000,0.12962670,0.23508812,0.43750361,36,66,123,16,35,62,0.06003066,0.12761080,0.22339295,0.08720767,0.14864349,0.22330629
21173,0,USKentuckyMontgomery,Kentucky,Montgomery,2021-01-05 20:42:36.311619,2020-05-21 00:00:00.000000,0.13007402,0.23659070,0.45219731,36,66,127,16,36,65,0.05951261,0.12892523,0.23176808,0.08795511,0.15061179,0.22471186
21173,0,USKentuckyMontgomery,Kentucky,Montgomery,2021-01-05 20:42:36.311619,2020-05-22 00:00:00.000000,0.13059522,0.23540318,0.47458870,36,66,133,16,36,66,0.05980324,0.12887236,0.23792725,0.08955051,0.15182870,0.22654121
21173,0,USKentuckyMontgomery,Kentucky,Montgomery,2021-01-05 20:42:36.311619,2020-05-23 00:00:00.000000,0.13115735,0.23634581,0.47729693,36,66,134,17,36,68,0.06041029,0.12786790,0.24331522,0.09225934,0.15243138,0.23853924
21173,0,USKentuckyMontgomery,Kentucky,Montgomery,2021-01-05 20:42:36.311619,2020-05-24 00:00:00.000000,0.13048924,0.23557721,0.47984936,36,66,135,17,35,69,0.06131587,0.12716854,0.24701713,0.09555539,0.15586696,0.23897450
21173,0,USKentuckyMontgomery,Kentucky,Montgomery,2021-01-05 20:42:36.311619,2020-05-25 00:00:00.000000,0.13355122,0.23966010,0.49094531,37,67,138,17,35,70,0.06242773,0.12600041,0.25099966,0.10029884,0.16194959,0.24078175
21173,0,USKentuckyMontgomery,Kentucky,Montgomery,2021-01-05 20:42:36.311619,2020-05-26 00:00:00.000000,0.13521572,0.23963537,0.50915342,38,67,143,17,35,71,0.06329170,0.12733252,0.25437344,0.10410266,0.15988339,0.24317690
21173,0,USKentuckyMontgomery,Kentucky,Montgomery,2021-01-05 20:42:36.311619,2020-05-27 00:00:00.000000,0.13679183,0.24102562,0.53087029,38,67,149,17,36,72,0.06298024,0.12839824,0.25730725,0.10747133,0.16059827,0.24541610
21173,0,USKentuckyMontgomery,Kentucky,Montgomery,2021-01-05 20:42:36.311619,2020-05-28 00:00:00.000000,0.13550294,0.24689713,0.54380508,38,69,153,18,36,73,0.06469805,0.12864987,0.25992483,0.10875734,0.16461394,0.24506945
21173,0,USKentuckyMontgomery,Kentucky,Montgomery,2021-01-05 20:42:36.311619,2020-05-29 00:00:00.000000,0.13389810,0.25099116,0.54718729,37,70,154,18,36,73,0.06531968,0.12796365,0.26232183,0.10943033,0.16735792,0.25812821
21173,0,USKentuckyMontgomery,Kentucky,Montgomery,2021-01-05 20:42:36.311619,2020-05-30 00:00:00.000000,0.13421428,0.25343280,0.55036022,37,71,154,18,36,74,0.06486941,0.12917799,0.26457936,0.10859943,0.16729797,0.26026257
21173,0,USKentuckyMontgomery,Kentucky,Montgomery,2021-01-05 20:42:36.311619,2020-05-31 00:00:00.000000,0.13991530,0.25430031,0.55994293,39,71,157,18,37,76,0.06400426,0.13184283,0.27302868,0.11421125,0.16860898,0.26155971
21173,0,USKentuckyMontgomery,Kentucky,Montgomery,2021-01-05 20:42:36.311619,2020-06-01 00:00:00.000000,0.14029863,0.25584571,0.56750165,39,72,159,18,37,79,0.06413858,0.13415384,0.28335786,0.11239884,0.16851732,0.26357472
21173,0,USKentuckyMontgomery,Kentucky,Montgomery,2021-01-05 20:42:36.311619,2020-06-02 00:00:00.000000,0.14389525,0.26322473,0.57583788,40,74,162,18,37,82,0.06606172,0.13484734,0.29245610,0.11146332,0.17139257,0.27034824
21173,0,USKentuckyMontgomery,Kentucky,Montgomery,2021-01-05 20:42:36.311619,2020-06-03 00:00:00.000000,0.14582974,0.27194097,0.58502643,41,76,164,19,37,84,0.06772772,0.13431065,0.30044274,0.11116279,0.17444905,0.27206856
21173,0,USKentuckyMontgomery,Kentucky,Montgomery,2021-01-05 20:42:36.311619,2020-06-04 00:00:00.000000,0.14483718,0.27629878,0.59516442,40,77,167,19,39,86,0.06928790,0.13877000,0.30764478,0.11111589,0.17445704,0.27361776
21173,0,USKentuckyMontgomery,Kentucky,Montgomery,2021-01-05 20:42:36.311619,2020-06-05 00:00:00.000000,0.14375767,0.28259952,0.60901000,40,79,171,20,40,88,0.07292631,0.14248053,0.31424756,0.11135313,0.17567452,0.27718544
21173,0,USKentuckyMontgomery,Kentucky,Montgomery,2021-01-05 20:42:36.311619,2020-06-06 00:00:00.000000,0.14270393,0.28653346,0.62617343,40,80,176,20,40,90,0.07353708,0.14363001,0.32026862,0.11303426,0.18000620,0.28661279
21173,0,USKentuckyMontgomery,Kentucky,Montgomery,2021-01-05 20:42:36.311619,2020-06-07 00:00:00.000000,0.14250887,0.29210679,0.64355456,40,82,181,20,40,91,0.07311093,0.14475490,0.32478638,0.11990613,0.18129268,0.30399384
21173,0,USKentuckyMontgomery,Kentucky,Montgomery,2021-01-05 20:42:36.311619,2020-06-08 00:00:00.000000,0.15309087,0.29176036,0.65541876,43,82,184,20,41,91,0.07358765,0.14606926,0.32321014,0.11834123,0.18255422,0.30388242
21173,0,USKentuckyMontgomery,Kentucky,Montgomery,2021-01-05 20:42:36.311619,2020-06-09 00:00:00.000000,0.16372505,0.29164308,0.66734409,46,82,187,20,41,93,0.07421476,0.14787949,0.33120904,0.11661975,0.18774248,0.31725724
21173,0,USKentuckyMontgomery,Kentucky,Montgomery,2021-01-05 20:42:36.311619,2020-06-10 00:00:00.000000,0.17102645,0.29650468,0.67920121,48,83,191,21,42,95,0.07691255,0.15031381,0.33870030,0.11695943,0.19121003,0.33128673
21173,0,USKentuckyMontgomery,Kentucky,Montgomery,2021-01-05 20:42:36.311619,2020-06-11 00:00:00.000000,0.16987459,0.29858749,0.69100015,47,84,194,21,43,96,0.07797472,0.15348116,0.34223840,0.12641424,0.19075413,0.33626596
21173,0,USKentuckyMontgomery,Kentucky,Montgomery,2021-01-05 20:42:36.311619,2020-06-12 00:00:00.000000,0.16848558,0.30683683,0.70275509,47,86,197,22,45,97,0.07867729,0.16023670,0.34545219,0.12826747,0.19161612,0.33728956
21173,0,USKentuckyMontgomery,Kentucky,Montgomery,2021-01-05 20:42:36.311619,2020-06-13 00:00:00.000000,0.16681637,0.31501584,0.71269216,46,88,200,22,46,98,0.07943361,0.16367827,0.34840060,0.12975535,0.19425577,0.33655171
21173,0,USKentuckyMontgomery,Kentucky,Montgomery,2021-01-05 20:42:36.311619,2020-06-14 00:00:00.000000,0.16494413,0.32300984,0.71673728,46,90,201,22,46,98,0.07934664,0.16441802,0.35113269,0.13372454,0.19800761,0.33471669
21173,0,USKentuckyMontgomery,Kentucky,Montgomery,2021-01-05 20:42:36.311619,2020-06-15 00:00:00.000000,0.16236625,0.33307746,0.71723800,45,93,201,22,46,99,0.07958927,0.16582847,0.35368609,0.13340827,0.19769262,0.31575193
21173,0,USKentuckyMontgomery,Kentucky,Montgomery,2021-01-05 20:42:36.311619,2020-06-16 00:00:00.000000,0.15977638,0.34052114,0.73762303,44,95,207,23,47,100,0.08178468,0.16848057,0.35516941,0.13277054,0.19796221,0.30451886
21173,0,USKentuckyMontgomery,Kentucky,Montgomery,2021-01-05 20:42:36.311619,2020-06-17 00:00:00.000000,0.15721159,0.34505982,0.75817119,44,97,213,23,49,101,0.08261094,0.17456554,0.36132513,0.13219657,0.20340367,0.31120041
21173,0,USKentuckyMontgomery,Kentucky,Montgomery,2021-01-05 20:42:36.311619,2020-06-18 00:00:00.000000,0.15471612,0.34655387,0.77300367,43,97,217,23,51,104,0.08230887,0.18431851,0.37165190,0.13197001,0.20391483,0.32643810
21173,0,USKentuckyMontgomery,Kentucky,Montgomery,2021-01-05 20:42:36.311619,2020-06-19 00:00:00.000000,0.15350996,0.35618152,0.78475868,43,100,220,22,52,107,0.08107393,0.18755974,0.38260107,0.14335805,0.20599112,0.32846528
21173,0,USKentuckyMontgomery,Kentucky,Montgomery,2021-01-05 20:42:36.311619,2020-06-20 00:00:00.000000,0.15699150,0.37043239,0.79646584,44,104,224,22,53,110,0.07984712,0.19043333,0.39391427,0.14345229,0.21418732,0.33258949
21173,0,USKentuckyMontgomery,Kentucky,Montgomery,2021-01-05 20:42:36.311619,2020-06-21 00:00:00.000000,0.16491472,0.37605837,0.80806459,46,105,227,22,54,114,0.07936521,0.19417999,0.40542773,0.14259335,0.21113824,0.34294066
21173,0,USKentuckyMontgomery,Kentucky,Montgomery,2021-01-05 20:42:36.311619,2020-06-22 00:00:00.000000,0.18676977,0.38601740,0.81723557,52,108,230,22,55,117,0.08076180,0.19826285,0.41706770,0.14568975,0.21296084,0.34967868
21173,0,USKentuckyMontgomery,Kentucky,Montgomery,2021-01-05 20:42:36.311619,2020-06-23 00:00:00.000000,0.20007256,0.39764776,0.82604461,56,111,232,24,56,119,0.08560691,0.20207206,0.42362374,0.15788101,0.21460128,0.34337594
21173,0,USKentuckyMontgomery,Kentucky,Montgomery,2021-01-05 20:42:36.311619,2020-06-24 00:00:00.000000,0.21172263,0.41058358,0.83459679,59,115,234,25,58,121,0.08952123,0.20641572,0.43292888,0.16445641,0.21852180,0.35267623
21173,0,USKentuckyMontgomery,Kentucky,Montgomery,2021-01-05 20:42:36.311619,2020-06-25 00:00:00.000000,0.21711510,0.42137461,0.84292027,61,118,237,25,59,124,0.09227062,0.21128791,0.44131006,0.16773740,0.21986762,0.35975508
21173,0,USKentuckyMontgomery,Kentucky,Montgomery,2021-01-05 20:42:36.311619,2020-06-26 00:00:00.000000,0.22214355,0.42517915,0.85072323,62,119,239,26,61,126,0.09500957,0.21916287,0.45023016,0.16838143,0.22526666,0.36432926
21173,0,USKentuckyMontgomery,Kentucky,Montgomery,2021-01-05 20:42:36.311619,2020-06-27 00:00:00.000000,0.22790203,0.43156694,0.85737642,64,121,241,27,63,129,0.09808520,0.22429739,0.46112495,0.16815991,0.22834639,0.36339381
21173,0,USKentuckyMontgomery,Kentucky,Montgomery,2021-01-05 20:42:36.311619,2020-06-28 00:00:00.000000,0.23546243,0.44270472,0.86287535,66,124,242,28,63,132,0.10134612,0.22511840,0.47038969,0.17125944,0.23227230,0.36194749
21173,0,USKentuckyMontgomery,Kentucky,Montgomery,2021-01-05 20:42:36.311619,2020-06-29 00:00:00.000000,0.24259509,0.45246720,0.86380864,68,127,243,29,64,134,0.10471226,0.22875919,0.47604843,0.17513438,0.23126438,0.35989692
21173,0,USKentuckyMontgomery,Kentucky,Montgomery,2021-01-05 20:42:36.311619,2020-06-30 00:00:00.000000,0.25276034,0.46235541,0.86537464,71,130,243,30,66,135,0.10797339,0.23479272,0.48162343,0.17391228,0.23762854,0.35729429
21173,0,USKentuckyMontgomery,Kentucky,Montgomery,2021-01-05 20:42:36.311619,2020-07-01 00:00:00.000000,0.26297204,0.47933772,0.87623333,74,134,246,31,67,137,0.11111828,0.24056062,0.48711127,0.16391722,0.23885821,0.35446557
21173,0,USKentuckyMontgomery,Kentucky,Montgomery,2021-01-05 20:42:36.311619,2020-07-02 00:00:00.000000,0.27067003,0.49394110,0.88772426,76,139,249,32,69,138,0.11415132,0.24511726,0.49253093,0.16595094,0.24160129,0.34973637
21173,0,USKentuckyMontgomery,Kentucky,Montgomery,2021-01-05 20:42:36.311619,2020-07-03 00:00:00.000000,0.27422419,0.50970098,0.90678121,77,143,255,32,70,140,0.11708818,0.24998913,0.49789160,0.17282480,0.24205176,0.35447232
21173,0,USKentuckyMontgomery,Kentucky,Montgomery,2021-01-05 20:42:36.311619,2020-07-04 00:00:00.000000,0.28063463,0.52452452,0.92773901,79,147,261,33,72,141,0.11999070,0.25611046,0.50313208,0.17262023,0.24368042,0.35632523
21173,0,USKentuckyMontgomery,Kentucky,Montgomery,2021-01-05 20:42:36.311619,2020-07-05 00:00:00.000000,0.29003615,0.53767839,0.94782626,81,151,266,34,74,143,0.12379483,0.26359565,0.50843513,0.18081422,0.24700887,0.34762636
21173,0,USKentuckyMontgomery,Kentucky,Montgomery,2021-01-05 20:42:36.311619,2020-07-06 00:00:00.000000,0.30415311,0.54872370,0.96359793,85,154,271,36,76,144,0.12818047,0.27058619,0.51385076,0.18358708,0.25222419,0.35329882
21173,0,USKentuckyMontgomery,Kentucky,Montgomery,2021-01-05 20:42:36.311619,2020-07-07 00:00:00.000000,0.31197434,0.55423569,0.99646606,87,156,280,37,76,145,0.13320907,0.27253999,0.51804822,0.18352856,0.25703983,0.35723344
21173,0,USKentuckyMontgomery,Kentucky,Montgomery,2021-01-05 20:42:36.311619,2020-07-08 00:00:00.000000,0.32828331,0.56076066,1.02700552,92,157,289,39,78,146,0.13875552,0.27982013,0.52112556,0.18339019,0.25675536,0.35626966
21173,0,USKentuckyMontgomery,Kentucky,Montgomery,2021-01-05 20:42:36.311619,2020-07-09 00:00:00.000000,0.34237877,0.56898851,1.03411918,96,160,291,40,79,149,0.14465679,0.28368987,0.53234523,0.18304636,0.26139493,0.35301694
21173,0,USKentuckyMontgomery,Kentucky,Montgomery,2021-01-05 20:42:36.311619,2020-07-10 00:00:00.000000,0.34808365,0.57914466,1.06001543,98,163,298,42,80,153,0.15079770,0.28654696,0.54658672,0.18202648,0.26025478,0.35304794
21173,0,USKentuckyMontgomery,Kentucky,Montgomery,2021-01-05 20:42:36.311619,2020-07-11 00:00:00.000000,0.34668001,0.59558749,1.08519817,97,167,305,44,82,158,0.15823003,0.29423150,0.56134893,0.17932837,0.25934910,0.35805628
21173,0,USKentuckyMontgomery,Kentucky,Montgomery,2021-01-05 20:42:36.311619,2020-07-12 00:00:00.000000,0.35412855,0.61508410,1.10775845,99,173,311,46,84,162,0.16553339,0.29872637,0.57697565,0.17655486,0.25797354,0.36212425
21173,0,USKentuckyMontgomery,Kentucky,Montgomery,2021-01-05 20:42:36.311619,2020-07-13 00:00:00.000000,0.36135745,0.61965034,1.11779177,101,174,314,47,85,167,0.16958145,0.30482906,0.59315592,0.17776115,0.25651839,0.36898884
21173,0,USKentuckyMontgomery,Kentucky,Montgomery,2021-01-05 20:42:36.311619,2020-07-14 00:00:00.000000,0.36946294,0.62847404,1.12684012,104,176,317,49,87,169,0.17519293,0.31082737,0.60372222,0.18081067,0.25819508,0.37813570
21173,0,USKentuckyMontgomery,Kentucky,Montgomery,2021-01-05 20:42:36.311619,2020-07-15 00:00:00.000000,0.37850827,0.64031459,1.13617019,106,180,319,50,89,172,0.18035542,0.31724043,0.61236014,0.18214779,0.25947900,0.37977490
21173,0,USKentuckyMontgomery,Kentucky,Montgomery,2021-01-05 20:42:36.311619,2020-07-16 00:00:00.000000,0.38343832,0.66264902,1.15303521,107,186,324,52,91,174,0.18513466,0.32575045,0.62004580,0.18401870,0.26117996,0.37967238
21173,0,USKentuckyMontgomery,Kentucky,Montgomery,2021-01-05 20:42:36.311619,2020-07-17 00:00:00.000000,0.38587497,0.68094718,1.16972910,108,191,329,53,95,177,0.18959242,0.33794736,0.62930327,0.18383009,0.26114910,0.37604203
21173,0,USKentuckyMontgomery,Kentucky,Montgomery,2021-01-05 20:42:36.311619,2020-07-18 00:00:00.000000,0.38832780,0.69346440,1.18598055,109,195,333,54,98,179,0.19379694,0.34966135,0.63779924,0.18413202,0.26032278,0.36696617
21173,0,USKentuckyMontgomery,Kentucky,Montgomery,2021-01-05 20:42:36.311619,2020-07-19 00:00:00.000000,0.39085450,0.70836094,1.20203557,110,199,338,55,100,181,0.19540205,0.35859680,0.64558954,0.18366026,0.25623781,0.38153786
21173,0,USKentuckyMontgomery,Kentucky,Montgomery,2021-01-05 20:42:36.311619,2020-07-20 00:00:00.000000,0.39396009,0.73114290,1.21216942,110,205,341,54,102,183,0.19452782,0.36575618,0.65273633,0.18358039,0.25399230,0.38481988
21173,0,USKentuckyMontgomery,Kentucky,Montgomery,2021-01-05 20:42:36.311619,2020-07-21 00:00:00.000000,0.40644955,0.74874580,1.24166068,114,210,349,54,103,187,0.19353438,0.36837002,0.66436869,0.18355061,0.25403511,0.38592155
21173,0,USKentuckyMontgomery,Kentucky,Montgomery,2021-01-05 20:42:36.311619,2020-07-22 00:00:00.000000,0.42276983,0.76863229,1.27775639,119,216,359,54,104,193,0.19234370,0.37246771,0.68635993,0.18339749,0.25505134,0.38615467
21173,0,USKentuckyMontgomery,Kentucky,Montgomery,2021-01-05 20:42:36.311619,2020-07-23 00:00:00.000000,0.43305235,0.78093913,1.31731026,121,219,370,53,107,194,0.19156915,0.38332914,0.69156689,0.18296057,0.25967879,0.38624737
21173,0,USKentuckyMontgomery,Kentucky,Montgomery,2021-01-05 20:42:36.311619,2020-07-24 00:00:00.000000,0.43850636,0.80643560,1.34747763,123,227,379,57,110,195,0.20405211,0.39325892,0.69567047,0.17663130,0.26136086,0.38659797
21173,0,USKentuckyMontgomery,Kentucky,Montgomery,2021-01-05 20:42:36.311619,2020-07-25 00:00:00.000000,0.44416491,0.83410642,1.37337582,125,234,386,59,112,196,0.21055482,0.39907647,0.69879533,0.17597197,0.26388602,0.38725444
21173,0,USKentuckyMontgomery,Kentucky,Montgomery,2021-01-05 20:42:36.311619,2020-07-26 00:00:00.000000,0.45008049,0.85007911,1.39318738,126,239,392,60,113,198,0.21494811,0.40460036,0.70418366,0.17590072,0.26584215,0.38818853
21173,0,USKentuckyMontgomery,Kentucky,Montgomery,2021-01-05 20:42:36.311619,2020-07-27 00:00:00.000000,0.45569271,0.87283564,1.41040621,128,245,397,62,115,202,0.22083316,0.41174832,0.71888786,0.17594246,0.26848754,0.38926415
21173,0,USKentuckyMontgomery,Kentucky,Montgomery,2021-01-05 20:42:36.311619,2020-07-28 00:00:00.000000,0.46144839,0.89548684,1.42359475,129,252,400,63,117,206,0.22550818,0.41864762,0.73255904,0.17607727,0.26817159,0.39092479
21173,0,USKentuckyMontgomery,Kentucky,Montgomery,2021-01-05 20:42:36.311619,2020-07-29 00:00:00.000000,0.47114745,0.91396509,1.46310258,132,257,411,64,119,209,0.23077803,0.42505352,0.74516758,0.17639747,0.26907940,0.39136637
21173,0,USKentuckyMontgomery,Kentucky,Montgomery,2021-01-05 20:42:36.311619,2020-07-30 00:00:00.000000,0.48572883,0.92428973,1.49957299,136,260,422,66,122,213,0.23661342,0.43493469,0.75656505,0.17712506,0.27035333,0.39241254
21173,0,USKentuckyMontgomery,Kentucky,Montgomery,2021-01-05 20:42:36.311619,2020-07-31 00:00:00.000000,0.50268086,0.93364159,1.49733838,141,262,421,68,125,215,0.24308740,0.44535561,0.76658041,0.17867075,0.26991596,0.40402342
21173,0,USKentuckyMontgomery,Kentucky,Montgomery,2021-01-05 20:42:36.311619,2020-08-01 00:00:00.000000,0.52271688,0.95201192,1.53704690,147,268,432,70,128,218,0.25041149,0.45544600,0.77511784,0.17758446,0.27023824,0.41180532
21173,0,USKentuckyMontgomery,Kentucky,Montgomery,2021-01-05 20:42:36.311619,2020-08-02 00:00:00.000000,0.54577357,0.97733719,1.57268548,153,275,442,72,132,221,0.25885663,0.46938105,0.78703696,0.17597060,0.26726865,0.41668445
21173,0,USKentuckyMontgomery,Kentucky,Montgomery,2021-01-05 20:42:36.311619,2020-08-03 00:00:00.000000,0.56971004,0.99964830,1.59881827,160,281,450,74,135,221,0.26612074,0.48220595,0.78842172,0.17575841,0.26670030,0.41948057
21173,0,USKentuckyMontgomery,Kentucky,Montgomery,2021-01-05 20:42:36.311619,2020-08-04 00:00:00.000000,0.57598879,1.03304262,1.62486377,162,290,457,75,139,224,0.26793187,0.49415158,0.79893584,0.17655747,0.26675408,0.42077310
21173,0,USKentuckyMontgomery,Kentucky,Montgomery,2021-01-05 20:42:36.311619,2020-08-05 00:00:00.000000,0.59851063,1.05274408,1.65106475,168,296,464,76,142,228,0.27012682,0.50602085,0.81323690,0.17975545,0.26891758,0.42000030
21173,0,USKentuckyMontgomery,Kentucky,Montgomery,2021-01-05 20:42:36.311619,2020-08-06 00:00:00.000000,0.63961318,1.07647681,1.67737999,180,303,472,76,144,234,0.27302649,0.51365963,0.83423194,0.18172544,0.27004508,0.40543111
21173,0,USKentuckyMontgomery,Kentucky,Montgomery,2021-01-05 20:42:36.311619,2020-08-07 00:00:00.000000,0.66855675,1.10079586,1.70377503,188,309,479,79,147,240,0.28402056,0.52247935,0.85427813,0.18205705,0.26765341,0.40116513
21173,0,USKentuckyMontgomery,Kentucky,Montgomery,2021-01-05 20:42:36.311619,2020-08-08 00:00:00.000000,0.67806436,1.13225992,1.73022390,190,318,487,84,150,246,0.30181783,0.53307900,0.87393617,0.18155852,0.26957606,0.38499532
21173,0,USKentuckyMontgomery,Kentucky,Montgomery,2021-01-05 20:42:36.311619,2020-08-09 00:00:00.000000,0.68993967,1.14452251,1.75671435,194,322,494,89,155,251,0.31706181,0.55056969,0.89377291,0.17825362,0.27207077,0.38276032
21173,0,USKentuckyMontgomery,Kentucky,Montgomery,2021-01-05 20:42:36.311619,2020-08-10 00:00:00.000000,0.71022549,1.16389192,1.78168607,199,327,501,91,158,257,0.32369679,0.56115780,0.91399313,0.17684405,0.27731268,0.37853129
21173,0,USKentuckyMontgomery,Kentucky,Montgomery,2021-01-05 20:42:36.311619,2020-08-11 00:00:00.000000,0.72455868,1.19422408,1.80666044,204,336,508,92,160,263,0.32998081,0.57067376,0.93509245,0.17687708,0.27916536,0.38106817
21173,0,USKentuckyMontgomery,Kentucky,Montgomery,2021-01-05 20:42:36.311619,2020-08-12 00:00:00.000000,0.73704482,1.22561237,1.83132397,207,345,515,94,164,268,0.33608971,0.58365389,0.95282657,0.17691393,0.27791261,0.37730409
21173,0,USKentuckyMontgomery,Kentucky,Montgomery,2021-01-05 20:42:36.311619,2020-08-13 00:00:00.000000,0.74963966,1.22754589,1.85422264,211,345,522,96,168,270,0.34212191,0.59713329,0.96192194,0.17693291,0.27289054,0.36828532
21173,0,USKentuckyMontgomery,Kentucky,Montgomery,2021-01-05 20:42:36.311619,2020-08-14 00:00:00.000000,0.77181175,1.24051391,1.87450499,217,349,527,98,171,273,0.34813329,0.61022878,0.96979692,0.17229039,0.25866170,0.36700614
21173,0,USKentuckyMontgomery,Kentucky,Montgomery,2021-01-05 20:42:36.311619,2020-08-15 00:00:00.000000,0.79168031,1.25739560,1.89397519,222,354,533,99,174,275,0.35415636,0.62140822,0.97731748,0.17548112,0.25290410,0.36522291
21173,0,USKentuckyMontgomery,Kentucky,Montgomery,2021-01-05 20:42:36.311619,2020-08-16 00:00:00.000000,0.79019219,1.27216542,1.91316759,222,358,538,101,176,279,0.36021410,0.62706720,0.99263184,0.17659416,0.25087572,0.36625222
21173,0,USKentuckyMontgomery,Kentucky,Montgomery,2021-01-05 20:42:36.311619,2020-08-17 00:00:00.000000,0.80247214,1.28888185,1.93460286,225,362,544,103,178,283,0.36634081,0.63297027,1.00709943,0.17678966,0.25113302,0.36658007
21173,0,USKentuckyMontgomery,Kentucky,Montgomery,2021-01-05 20:42:36.311619,2020-08-18 00:00:00.000000,0.80862378,1.31033242,1.96701202,227,368,553,105,180,287,0.37461541,0.64263282,1.02102749,0.18107947,0.25134969,0.35711324
21173,0,USKentuckyMontgomery,Kentucky,Montgomery,2021-01-05 20:42:36.311619,2020-08-19 00:00:00.000000,0.80189218,1.33134164,2.02385675,225,374,569,108,184,291,0.38445342,0.65452174,1.03450019,0.18104597,0.24607438,0.35900323
21173,0,USKentuckyMontgomery,Kentucky,Montgomery,2021-01-05 20:42:36.311619,2020-08-20 00:00:00.000000,0.79498527,1.33216332,2.07948551,223,375,585,111,187,294,0.39427104,0.66704289,1.04758945,0.18106985,0.24497708,0.36271217
21173,0,USKentuckyMontgomery,Kentucky,Montgomery,2021-01-05 20:42:36.311619,2020-08-21 00:00:00.000000,0.79254373,1.34628716,2.13381914,223,379,600,113,190,298,0.40348575,0.67559173,1.06033251,0.17661202,0.24559687,0.36076184
21173,0,USKentuckyMontgomery,Kentucky,Montgomery,2021-01-05 20:42:36.311619,2020-08-22 00:00:00.000000,0.79464434,1.35283494,2.18698239,223,380,615,113,192,302,0.40191398,0.68247047,1.07267794,0.18169161,0.24385420,0.35085285
21173,0,USKentuckyMontgomery,Kentucky,Montgomery,2021-01-05 20:42:36.311619,2020-08-23 00:00:00.000000,0.79476949,1.36291546,2.23303455,223,383,628,114,193,305,0.40647693,0.68815552,1.08435722,0.18271814,0.24797099,0.34709800
21173,0,USKentuckyMontgomery,Kentucky,Montgomery,2021-01-05 20:42:36.311619,2020-08-24 00:00:00.000000,0.79612897,1.37467433,2.23805454,224,387,630,115,194,308,0.41089730,0.69214900,1.09476417,0.17715643,0.24886108,0.35427685
21173,0,USKentuckyMontgomery,Kentucky,Montgomery,2021-01-05 20:42:36.311619,2020-08-25 00:00:00.000000,0.80725120,1.38468404,2.23758564,227,389,630,117,195,310,0.41650414,0.69542670,1.10343879,0.17190286,0.24973745,0.36200641
21173,0,USKentuckyMontgomery,Kentucky,Montgomery,2021-01-05 20:42:36.311619,2020-08-26 00:00:00.000000,0.82053179,1.39383320,2.23470663,231,392,629,119,195,312,0.42276893,0.69522886,1.11018307,0.17655769,0.24984368,0.36279225
21173,0,USKentuckyMontgomery,Kentucky,Montgomery,2021-01-05 20:42:36.311619,2020-08-27 00:00:00.000000,0.83415410,1.40420024,2.23081188,234,395,628,120,196,313,0.42771461,0.69644244,1.11507802,0.17893609,0.24926570,0.34982682
21173,0,USKentuckyMontgomery,Kentucky,Montgomery,2021-01-05 20:42:36.311619,2020-08-28 00:00:00.000000,0.84809793,1.40875773,2.22664605,238,396,626,120,198,315,0.42714071,0.70342065,1.12106823,0.18191559,0.24892472,0.33813893
21173,0,USKentuckyMontgomery,Kentucky,Montgomery,2021-01-05 20:42:36.311619,2020-08-29 00:00:00.000000,0.86245478,1.41490823,2.22311197,242,398,625,120,199,317,0.42644664,0.71001845,1.12768982,0.18246067,0.25135696,0.33296504
21173,0,USKentuckyMontgomery,Kentucky,Montgomery,2021-01-05 20:42:36.311619,2020-08-30 00:00:00.000000,0.87743232,1.42851002,2.26608711,247,402,638,119,199,319,0.42549672,0.70793523,1.13572985,0.18113161,0.25003435,0.32073481
21173,0,USKentuckyMontgomery,Kentucky,Montgomery,2021-01-05 20:42:36.311619,2020-08-31 00:00:00.000000,0.88996780,1.43582797,2.29532552,250,404,646,120,200,322,0.42951770,0.71081482,1.14573199,0.19177943,0.25278374,0.31984326
21173,0,USKentuckyMontgomery,Kentucky,Montgomery,2021-01-05 20:42:36.311619,2020-09-01 00:00:00.000000,0.90369090,1.44999462,2.32432839,254,408,654,122,202,326,0.43595088,0.72058815,1.15929682,0.19444877,0.25749170,0.32104782
21173,0,USKentuckyMontgomery,Kentucky,Montgomery,2021-01-05 20:42:36.311619,2020-09-02 00:00:00.000000,0.91859395,1.45519926,2.35305103,258,409,662,124,205,330,0.44249527,0.72868896,1.17533912,0.19509093,0.25852949,0.32587027
21173,0,USKentuckyMontgomery,Kentucky,Montgomery,2021-01-05 20:42:36.311619,2020-09-03 00:00:00.000000,0.93456628,1.46378206,2.38120033,263,412,670,125,208,336,0.44721299,0.74115078,1.19331145,0.19565689,0.25924864,0.34400732
21173,0,USKentuckyMontgomery,Kentucky,Montgomery,2021-01-05 20:42:36.311619,2020-09-04 00:00:00.000000,0.92491689,1.47161952,2.40712365,260,414,677,124,210,341,0.44293686,0.74886411,1.21244133,0.19683046,0.25831746,0.35920778
21173,0,USKentuckyMontgomery,Kentucky,Montgomery,2021-01-05 20:42:36.311619,2020-09-05 00:00:00.000000,0.91491431,1.47964552,2.42517739,257,416,682,123,211,346,0.43882590,0.75106770,1.23197945,0.20081803,0.25662659,0.36534938
21173,0,USKentuckyMontgomery,Kentucky,Montgomery,2021-01-05 20:42:36.311619,2020-09-06 00:00:00.000000,0.90641912,1.48490264,2.43015036,255,418,684,122,212,352,0.43511660,0.75356293,1.25134055,0.19702848,0.26037884,0.36481309
21173,0,USKentuckyMontgomery,Kentucky,Montgomery,2021-01-05 20:42:36.311619,2020-09-07 00:00:00.000000,0.90901949,1.50856894,2.45964589,255,424,692,121,213,357,0.43162709,0.75713802,1.27022722,0.19381997,0.26416585,0.37030599
21173,0,USKentuckyMontgomery,Kentucky,Montgomery,2021-01-05 20:42:36.311619,2020-09-08 00:00:00.000000,0.92579273,1.52672281,2.50926654,260,429,706,121,215,362,0.43211199,0.76424853,1.28620613,0.19316085,0.26992768,0.37054725
21173,0,USKentuckyMontgomery,Kentucky,Montgomery,2021-01-05 20:42:36.311619,2020-09-09 00:00:00.000000,0.95091813,1.53755580,2.56309191,267,432,721,124,216,366,0.44254222,0.76835616,1.29988226,0.19310872,0.27314765,0.37063778
21173,0,USKentuckyMontgomery,Kentucky,Montgomery,2021-01-05 20:42:36.311619,2020-09-10 00:00:00.000000,0.97716670,1.55918969,2.62467109,275,439,739,127,217,371,0.45376843,0.77213222,1.31929839,0.19327995,0.27883692,0.37061447
21173,0,USKentuckyMontgomery,Kentucky,Montgomery,2021-01-05 20:42:36.311619,2020-09-11 00:00:00.000000,0.99169989,1.58111631,2.69263316,279,445,758,131,219,375,0.46569587,0.77841275,1.33465294,0.20224018,0.27964300,0.36970619
21173,0,USKentuckyMontgomery,Kentucky,Montgomery,2021-01-05 20:42:36.311619,2020-09-12 00:00:00.000000,0.99126101,1.60437659,2.74395451,279,451,772,134,221,375,0.47834377,0.78584094,1.33259450,0.20969414,0.28350237,0.37032093
21173,0,USKentuckyMontgomery,Kentucky,Montgomery,2021-01-05 20:42:36.311619,2020-09-13 00:00:00.000000,0.99185583,1.62844218,2.75779846,279,458,776,138,223,380,0.49195787,0.79299115,1.35126796,0.21297737,0.28569585,0.37919438
21173,0,USKentuckyMontgomery,Kentucky,Montgomery,2021-01-05 20:42:36.311619,2020-09-14 00:00:00.000000,0.99470067,1.65676464,2.76901773,280,466,779,141,225,390,0.50292413,0.79920030,1.38815095,0.21301800,0.28593023,0.38618853
21173,0,USKentuckyMontgomery,Kentucky,Montgomery,2021-01-05 20:42:36.311619,2020-09-15 00:00:00.000000,1.02602837,1.67392755,2.78271653,288,471,783,142,227,401,0.50577055,0.80637227,1.42565457,0.21311462,0.28936115,0.39108355
21173,0,USKentuckyMontgomery,Kentucky,Montgomery,2021-01-05 20:42:36.311619,2020-09-16 00:00:00.000000,1.06732123,1.68788418,2.84097992,300,475,799,143,229,411,0.50889709,0.81452675,1.46047831,0.21332356,0.29410689,0.39401884
21173,0,USKentuckyMontgomery,Kentucky,Montgomery,2021-01-05 20:42:36.311619,2020-09-17 00:00:00.000000,1.09063515,1.72138033,2.90819172,307,484,818,144,235,417,0.51214880,0.83538031,1.48434949,0.21374035,0.29520732,0.39417127
21173,0,USKentuckyMontgomery,Kentucky,Montgomery,2021-01-05 20:42:36.311619,2020-09-18 00:00:00.000000,1.09593847,1.77196287,2.96733299,308,498,835,145,239,427,0.51540347,0.85232831,1.51937658,0.21743331,0.29489038,0.38925440
21173,0,USKentuckyMontgomery,Kentucky,Montgomery,2021-01-05 20:42:36.311619,2020-09-19 00:00:00.000000,1.10061257,1.79642626,3.01555794,309,505,849,146,243,434,0.51855495,0.86396912,1.54229867,0.22760685,0.30018218,0.37986027
21173,0,USKentuckyMontgomery,Kentucky,Montgomery,2021-01-05 20:42:36.311619,2020-09-20 00:00:00.000000,1.10487008,1.82062912,3.10389509,311,512,873,149,245,441,0.53083536,0.87255743,1.56706593,0.23584741,0.30509089,0.38021245
21173,0,USKentuckyMontgomery,Kentucky,Montgomery,2021-01-05 20:42:36.311619,2020-09-21 00:00:00.000000,1.10555677,1.85719185,3.21220892,311,522,904,155,247,449,0.55295222,0.88068860,1.59576938,0.23271836,0.30718273,0.38523651
21173,0,USKentuckyMontgomery,Kentucky,Montgomery,2021-01-05 20:42:36.311619,2020-09-22 00:00:00.000000,1.10717865,1.90517030,3.32320859,311,536,935,161,253,459,0.57187141,0.90013343,1.63230201,0.23053263,0.30801703,0.39130248
21173,0,USKentuckyMontgomery,Kentucky,Montgomery,2021-01-05 20:42:36.311619,2020-09-23 00:00:00.000000,1.11047067,1.93514073,3.43699786,312,544,967,165,260,470,0.58922636,0.92591022,1.67009103,0.22916294,0.30960132,0.39770069
21173,0,USKentuckyMontgomery,Kentucky,Montgomery,2021-01-05 20:42:36.311619,2020-09-24 00:00:00.000000,1.11608395,1.97472066,3.55353353,314,556,1000,170,268,481,0.60598157,0.95378341,1.71117802,0.23192454,0.31795401,0.42555913
21173,0,USKentuckyMontgomery,Kentucky,Montgomery,2021-01-05 20:42:36.311619,2020-09-25 00:00:00.000000,1.12424531,2.02397385,3.67266984,316,569,1034,174,276,491,0.62059466,0.98343631,1.74459907,0.24047998,0.32454396,0.45084797
21173,0,USKentuckyMontgomery,Kentucky,Montgomery,2021-01-05 20:42:36.311619,2020-09-26 00:00:00.000000,1.13490953,2.06109686,3.77484730,319,580,1062,176,284,501,0.62756307,1.01113475,1.78119627,0.25309717,0.33259133,0.45711048
21173,0,USKentuckyMontgomery,Kentucky,Montgomery,2021-01-05 20:42:36.311619,2020-09-27 00:00:00.000000,1.14808231,2.11293340,3.87371436,323,594,1090,178,291,511,0.63475855,1.03385204,1.81709791,0.26173607,0.34770055,0.47325436
21173,0,USKentuckyMontgomery,Kentucky,Montgomery,2021-01-05 20:42:36.311619,2020-09-28 00:00:00.000000,1.16643946,2.15318201,3.93705298,328,606,1108,180,297,521,0.64261511,1.05793775,1.85236914,0.26090441,0.35324884,0.47849800
21173,0,USKentuckyMontgomery,Kentucky,Montgomery,2021-01-05 20:42:36.311619,2020-09-29 00:00:00.000000,1.20880362,2.21363387,3.99389892,340,623,1124,184,304,531,0.65362580,1.08249589,1.88597973,0.26042757,0.36102652,0.48708479
21173,0,USKentuckyMontgomery,Kentucky,Montgomery,2021-01-05 20:42:36.311619,2020-09-30 00:00:00.000000,1.26331003,2.26472640,4.05026180,355,637,1140,187,311,540,0.66425603,1.10646059,1.91842424,0.26718481,0.36652580,0.50358532
21173,0,USKentuckyMontgomery,Kentucky,Montgomery,2021-01-05 20:42:36.311619,2020-10-01 00:00:00.000000,1.32213160,2.32301109,4.10671212,372,654,1156,190,318,562,0.67575796,1.13135986,1.99769886,0.26538127,0.37351946,0.51510481
21173,0,USKentuckyMontgomery,Kentucky,Montgomery,2021-01-05 20:42:36.311619,2020-10-02 00:00:00.000000,1.38484911,2.39304791,4.20425224,389,673,1183,193,326,577,0.68813062,1.15833898,2.05196407,0.27979940,0.38077819,0.52980386
21173,0,USKentuckyMontgomery,Kentucky,Montgomery,2021-01-05 20:42:36.311619,2020-10-03 00:00:00.000000,1.45191591,2.47818849,4.38261423,408,697,1234,197,334,587,0.70165378,1.18763243,2.08689978,0.28615656,0.38850258,0.54734360
21173,0,USKentuckyMontgomery,Kentucky,Montgomery,2021-01-05 20:42:36.311619,2020-10-04 00:00:00.000000,1.52389073,2.55046132,4.56631357,429,718,1285,201,342,596,0.71720060,1.21655237,2.12011884,0.29220659,0.39567488,0.55599242
21173,0,USKentuckyMontgomery,Kentucky,Montgomery,2021-01-05 20:42:36.311619,2020-10-05 00:00:00.000000,1.59050135,2.64265279,4.75802364,447,744,1339,207,350,605,0.73625267,1.24451317,2.15181394,0.30559373,0.40604413,0.57169822
21173,0,USKentuckyMontgomery,Kentucky,Montgomery,2021-01-05 20:42:36.311619,2020-10-06 00:00:00.000000,1.66390328,2.75170194,4.95301211,468,774,1394,213,363,614,0.75975441,1.29154191,2.18211052,0.30659085,0.41646807,0.57303019
21173,0,USKentuckyMontgomery,Kentucky,Montgomery,2021-01-05 20:42:36.311619,2020-10-07 00:00:00.000000,1.75139434,2.87501478,5.12949822,493,809,1444,221,376,632,0.78773558,1.33792839,2.24532556,0.30956932,0.42333271,0.57335003
21173,0,USKentuckyMontgomery,Kentucky,Montgomery,2021-01-05 20:42:36.311619,2020-10-08 00:00:00.000000,1.84441336,3.02582699,5.30792367,519,851,1494,232,388,670,0.82524474,1.37928154,2.38262903,0.32295652,0.43456336,0.60301030
21173,0,USKentuckyMontgomery,Kentucky,Montgomery,2021-01-05 20:42:36.311619,2020-10-09 00:00:00.000000,1.94698982,3.20508952,5.54600432,548,902,1561,247,401,716,0.87903019,1.42589810,2.54334618,0.32685522,0.44631663,0.60633950
21173,0,USKentuckyMontgomery,Kentucky,Montgomery,2021-01-05 20:42:36.311619,2020-10-10 00:00:00.000000,2.07302841,3.40258118,5.77659321,583,958,1626,264,416,742,0.93976061,1.47925246,2.63524204,0.34367057,0.45538311,0.61237567
21173,0,USKentuckyMontgomery,Kentucky,Montgomery,2021-01-05 20:42:36.311619,2020-10-11 00:00:00.000000,2.19361350,3.58089443,6.04461971,617,1008,1701,283,435,778,1.00611901,1.54592605,2.76356440,0.34052872,0.46240329,0.61455696
21173,0,USKentuckyMontgomery,Kentucky,Montgomery,2021-01-05 20:42:36.311619,2020-10-12 00:00:00.000000,2.29740877,3.74004771,6.30813558,646,1053,1776,301,457,817,1.06952883,1.62605273,2.90265074,0.33768192,0.46982061,0.61531717
21173,0,USKentuckyMontgomery,Kentucky,Montgomery,2021-01-05 20:42:36.311619,2020-10-13 00:00:00.000000,2.43718461,3.92631774,6.53711885,686,1105,1840,313,481,856,1.11205718,1.71151915,3.04268034,0.33558627,0.48162091,0.62226576
21173,0,USKentuckyMontgomery,Kentucky,Montgomery,2021-01-05 20:42:36.311619,2020-10-14 00:00:00.000000,2.58220101,4.10858008,6.76715289,727,1156,1905,325,510,896,1.15563615,1.81174734,3.18249387,0.33410596,0.49332019,0.61917715
21173,0,USKentuckyMontgomery,Kentucky,Montgomery,2021-01-05 20:42:36.311619,2020-10-15 00:00:00.000000,2.72551299,4.27565898,6.99870581,767,1203,1970,338,534,935,1.20126206,1.89757065,3.32073888,0.33438858,0.49692308,0.61999678
21173,0,USKentuckyMontgomery,Kentucky,Montgomery,2021-01-05 20:42:36.311619,2020-10-16 00:00:00.000000,2.85180086,4.48880165,7.23062521,802,1263,2035,351,562,973,1.24998768,1.99719888,3.45596501,0.33920635,0.49274730,0.61902034
21173,0,USKentuckyMontgomery,Kentucky,Montgomery,2021-01-05 20:42:36.311619,2020-10-17 00:00:00.000000,3.03899329,4.67926182,7.38585163,855,1317,2079,369,592,1013,1.31098951,2.10346192,3.59940298,0.33597935,0.49442963,0.63224524
21173,0,USKentuckyMontgomery,Kentucky,Montgomery,2021-01-05 20:42:36.311619,2020-10-18 00:00:00.000000,3.19517938,4.92970497,7.47898376,899,1388,2105,389,623,1066,1.38429228,2.21465563,3.78829113,0.36850908,0.48744382,0.65034802
21173,0,USKentuckyMontgomery,Kentucky,Montgomery,2021-01-05 20:42:36.311619,2020-10-19 00:00:00.000000,3.33541369,5.20577937,7.82772997,939,1465,2204,410,660,1113,1.45913446,2.34428845,3.95607093,0.35382055,0.48905568,0.64471926
21173,0,USKentuckyMontgomery,Kentucky,Montgomery,2021-01-05 20:42:36.311619,2020-10-20 00:00:00.000000,3.47333179,5.54021549,8.04155611,977,1559,2264,431,696,1133,1.53273194,2.47498220,4.02436355,0.34331865,0.49027616,0.63593270
21173,0,USKentuckyMontgomery,Kentucky,Montgomery,2021-01-05 20:42:36.311619,2020-10-21 00:00:00.000000,3.60758175,5.80677421,8.31604213,1015,1635,2341,451,737,1148,1.60467546,2.62029219,4.07808235,0.33225781,0.47898880,0.60937975
21173,0,USKentuckyMontgomery,Kentucky,Montgomery,2021-01-05 20:42:36.311619,2020-10-22 00:00:00.000000,3.73756070,6.07120033,8.58072855,1052,1709,2416,477,778,1187,1.69480056,2.76484904,4.21596989,0.32156558,0.45716674,0.60900663
21173,0,USKentuckyMontgomery,Kentucky,Montgomery,2021-01-05 20:42:36.311619,2020-10-23 00:00:00.000000,3.88081986,6.29685600,8.79888371,1092,1773,2477,505,815,1244,1.79352400,2.89738056,4.41828012,0.31890775,0.43577187,0.60515614
21173,0,USKentuckyMontgomery,Kentucky,Montgomery,2021-01-05 20:42:36.311619,2020-10-24 00:00:00.000000,4.05475823,6.56748901,9.00422080,1141,1849,2535,530,851,1299,1.88474984,3.02456916,4.61490889,0.28334818,0.42289935,0.60353670
21173,0,USKentuckyMontgomery,Kentucky,Montgomery,2021-01-05 20:42:36.311619,2020-10-25 00:00:00.000000,4.21429802,6.80895057,9.33670857,1186,1917,2628,552,887,1352,1.96385627,3.15259772,4.80430990,0.28041842,0.41364596,0.60019676
21173,0,USKentuckyMontgomery,Kentucky,Montgomery,2021-01-05 20:42:36.311619,2020-10-26 00:00:00.000000,4.34172297,6.97592632,9.60354369,1222,1964,2704,574,926,1404,2.03923719,3.28975582,4.98761834,0.28189777,0.38994848,0.59296864
21173,0,USKentuckyMontgomery,Kentucky,Montgomery,2021-01-05 20:42:36.311619,2020-10-27 00:00:00.000000,4.45832746,7.16483236,9.88196023,1255,2017,2782,594,963,1457,2.11200859,3.42261557,5.17595340,0.28218171,0.38277835,0.54354150
21173,0,USKentuckyMontgomery,Kentucky,Montgomery,2021-01-05 20:42:36.311619,2020-10-28 00:00:00.000000,4.57048805,7.25828006,10.19927923,1286,2043,2871,614,989,1530,2.18276073,3.51400092,5.43700837,0.27268395,0.37402604,0.51937483
21173,0,USKentuckyMontgomery,Kentucky,Montgomery,2021-01-05 20:42:36.311619,2020-10-29 00:00:00.000000,4.67995143,7.32437450,10.41672854,1317,2062,2933,633,998,1570,2.25111600,3.54613562,5.57890496,0.27585905,0.36454860,0.49404592
21173,0,USKentuckyMontgomery,Kentucky,Montgomery,2021-01-05 20:42:36.311619,2020-10-30 00:00:00.000000,4.78540357,7.40616749,10.58221489,1347,2085,2979,638,1014,1610,2.26940217,3.60386662,5.71895702,0.24696793,0.35371024,0.45720906
21173,0,USKentuckyMontgomery,Kentucky,Montgomery,2021-01-05 20:42:36.311619,2020-10-31 00:00:00.000000,4.88242147,7.46232142,10.73499322,1374,2101,3022,644,1036,1648,2.28867620,3.68180324,5.85606355,0.24508568,0.34219237,0.44585552
21173,0,USKentuckyMontgomery,Kentucky,Montgomery,2021-01-05 20:42:36.311619,2020-11-01 00:00:00.000000,4.96252993,7.51079971,10.87851396,1397,2114,3063,659,1060,1686,2.34074664,3.76628070,5.98867046,0.24248910,0.33828156,0.44036864
21173,0,USKentuckyMontgomery,Kentucky,Montgomery,2021-01-05 20:42:36.311619,2020-11-02 00:00:00.000000,5.01903017,7.62130127,11.00863091,1413,2145,3099,672,1076,1717,2.38760140,3.82340196,6.10017199,0.23653372,0.32854565,0.43506409
21173,0,USKentuckyMontgomery,Kentucky,Montgomery,2021-01-05 20:42:36.311619,2020-11-03 00:00:00.000000,5.01527841,7.69000811,11.12752436,1412,2165,3133,683,1088,1739,2.42680480,3.86647894,6.17622301,0.23658905,0.32954599,0.43645829
21173,0,USKentuckyMontgomery,Kentucky,Montgomery,2021-01-05 20:42:36.311619,2020-11-04 00:00:00.000000,4.99847998,7.71849045,11.23169364,1407,2173,3162,691,1100,1745,2.45629738,3.90736447,6.20000969,0.23683230,0.33100273,0.43720939
21173,0,USKentuckyMontgomery,Kentucky,Montgomery,2021-01-05 20:42:36.311619,2020-11-05 00:00:00.000000,4.97860593,7.77082857,11.25005549,1401,2188,3167,697,1109,1739,2.47717825,3.94069864,6.17929025,0.24007310,0.33390207,0.42729019
21173,0,USKentuckyMontgomery,Kentucky,Montgomery,2021-01-05 20:42:36.311619,2020-11-06 00:00:00.000000,4.96990043,7.81839692,11.27066954,1399,2201,3173,698,1119,1739,2.48048134,3.97762293,6.17843057,0.24075916,0.33642701,0.42747193
21173,0,USKentuckyMontgomery,Kentucky,Montgomery,2021-01-05 20:42:36.311619,2020-11-07 00:00:00.000000,5.00080848,7.80336869,11.30045495,1408,2197,3181,697,1128,1756,2.47750519,4.00880842,6.23991231,0.24123264,0.33961444,0.47693817
21173,0,USKentuckyMontgomery,Kentucky,Montgomery,2021-01-05 20:42:36.311619,2020-11-08 00:00:00.000000,5.10081992,7.82439413,11.38024450,1436,2203,3204,697,1140,1770,2.47739239,4.04880579,6.28813913,0.24670151,0.35057923,0.47738187
21173,0,USKentuckyMontgomery,Kentucky,Montgomery,2021-01-05 20:42:36.311619,2020-11-09 00:00:00.000000,5.20918318,7.81377975,11.59378298,1466,2200,3264,697,1150,1773,2.47548088,4.08711524,6.29700844,0.26198151,0.35516281,0.49563954
21173,0,USKentuckyMontgomery,Kentucky,Montgomery,2021-01-05 20:42:36.311619,2020-11-10 00:00:00.000000,5.23700205,7.80544563,11.82001356,1474,2197,3328,700,1156,1775,2.48725357,4.10603139,6.30667872,0.26856196,0.35839654,0.50314360
21173,0,USKentuckyMontgomery,Kentucky,Montgomery,2021-01-05 20:42:36.311619,2020-11-11 00:00:00.000000,5.23338651,7.83419884,12.04329037,1473,2205,3391,702,1161,1779,2.49407584,4.12472306,6.32010196,0.26948811,0.36339437,0.47718384
21173,0,USKentuckyMontgomery,Kentucky,Montgomery,2021-01-05 20:42:36.311619,2020-11-12 00:00:00.000000,5.24064656,7.91550958,12.26677621,1475,2228,3453,704,1165,1784,2.50190505,4.13850734,6.33753187,0.27186108,0.36871376,0.49472822
21173,0,USKentuckyMontgomery,Kentucky,Montgomery,2021-01-05 20:42:36.311619,2020-11-13 00:00:00.000000,5.28295804,7.98775252,12.49205202,1487,2249,3517,706,1167,1796,2.51018841,4.14526281,6.37987299,0.27938546,0.37503679,0.48594466
21173,0,USKentuckyMontgomery,Kentucky,Montgomery,2021-01-05 20:42:36.311619,2020-11-14 00:00:00.000000,5.38459030,8.04567124,12.72068830,1516,2265,3581,709,1173,1818,2.51866145,4.16672306,6.45963182,0.28236086,0.38575469,0.49900797
21173,0,USKentuckyMontgomery,Kentucky,Montgomery,2021-01-05 20:42:36.311619,2020-11-15 00:00:00.000000,5.40855882,8.18357394,12.95374482,1522,2304,3647,712,1179,1844,2.53172469,4.18969713,6.54952327,0.29875695,0.39657187,0.53320468
21173,0,USKentuckyMontgomery,Kentucky,Montgomery,2021-01-05 20:42:36.311619,2020-11-16 00:00:00.000000,5.36364261,8.25812325,13.19388832,1510,2325,3715,718,1185,1874,2.55048212,4.20924031,6.65843287,0.29947563,0.40850697,0.53420827
21173,0,USKentuckyMontgomery,Kentucky,Montgomery,2021-01-05 20:42:36.311619,2020-11-17 00:00:00.000000,5.45079035,8.35397698,13.43394628,1534,2352,3782,724,1190,1907,2.57232777,4.22683535,6.77371288,0.30029014,0.41174307,0.54035434
21173,0,USKentuckyMontgomery,Kentucky,Montgomery,2021-01-05 20:42:36.311619,2020-11-18 00:00:00.000000,5.70747927,8.44675586,13.66793747,1607,2378,3848,730,1190,1942,2.59578147,4.22715861,6.89877295,0.30574620,0.41315767,0.54696383
21173,0,USKentuckyMontgomery,Kentucky,Montgomery,2021-01-05 20:42:36.311619,2020-11-19 00:00:00.000000,5.91584452,8.49707079,13.88875475,1665,2392,3910,737,1201,1977,2.61988191,4.26714482,7.02369432,0.30843002,0.41547770,0.54738834
21173,0,USKentuckyMontgomery,Kentucky,Montgomery,2021-01-05 20:42:36.311619,2020-11-20 00:00:00.000000,6.02623933,8.59420569,14.08685820,1696,2419,3966,746,1215,2012,2.64948846,4.31674675,7.14627608,0.31277457,0.42361309,0.54792552
21173,0,USKentuckyMontgomery,Kentucky,Montgomery,2021-01-05 20:42:36.311619,2020-11-21 00:00:00.000000,6.08926559,8.72627800,14.26219045,1714,2457,4015,757,1228,2045,2.69163168,4.36458724,7.26396481,0.31487438,0.43462068,0.54953012
21173,0,USKentuckyMontgomery,Kentucky,Montgomery,2021-01-05 20:42:36.311619,2020-11-22 00:00:00.000000,6.20510531,8.89751623,14.40924983,1747,2505,4057,770,1244,2068,2.73636669,4.41829293,7.34772987,0.31111993,0.43466397,0.55561340
21173,0,USKentuckyMontgomery,Kentucky,Montgomery,2021-01-05 20:42:36.311619,2020-11-23 00:00:00.000000,6.34772660,9.07094013,14.51475373,1787,2554,4086,783,1259,2081,2.78328472,4.47245627,7.39121775,0.31338421,0.43610486,0.55737717
21173,0,USKentuckyMontgomery,Kentucky,Montgomery,2021-01-05 20:42:36.311619,2020-11-24 00:00:00.000000,6.42041023,9.20065286,14.58103121,1807,2590,4105,795,1279,2088,2.82686734,4.54486253,7.41903228,0.31085819,0.43222624,0.56223331
21173,0,USKentuckyMontgomery,Kentucky,Montgomery,2021-01-05 20:42:36.311619,2020-11-25 00:00:00.000000,6.48603945,9.36171716,14.60031015,1826,2635,4111,807,1289,2093,2.86648368,4.57974771,7.43403467,0.31156441,0.42703024,0.57235332
21173,0,USKentuckyMontgomery,Kentucky,Montgomery,2021-01-05 20:42:36.311619,2020-11-26 00:00:00.000000,6.54388472,9.37868299,14.57053017,1842,2640,4102,816,1298,2124,2.90021840,4.61027383,7.54476926,0.30937886,0.42213698,0.58712128
21173,0,USKentuckyMontgomery,Kentucky,Montgomery,2021-01-05 20:42:36.311619,2020-11-27 00:00:00.000000,6.59213035,9.42548134,14.59542246,1856,2653,4109,823,1319,2154,2.92602839,4.68656298,7.65212947,0.31405075,0.42276799,0.59053232
21173,0,USKentuckyMontgomery,Kentucky,Montgomery,2021-01-05 20:42:36.311619,2020-11-28 00:00:00.000000,6.62828672,9.48918160,14.78363843,1866,2671,4162,828,1342,2179,2.94266501,4.76805421,7.74206517,0.31900081,0.41522093,0.56775317
21173,0,USKentuckyMontgomery,Kentucky,Montgomery,2021-01-05 20:42:36.311619,2020-11-29 00:00:00.000000,6.60724735,9.59404605,14.74091704,1860,2701,4150,835,1354,2178,2.96732448,4.81225717,7.73718931,0.31551280,0.41574479,0.57609294
21173,0,USKentuckyMontgomery,Kentucky,Montgomery,2021-01-05 20:42:36.311619,2020-11-30 00:00:00.000000,6.57004088,9.68703233,14.70346196,1849,2727,4140,847,1363,2171,3.01050780,4.84239675,7.71360500,0.30324803,0.40988953,0.54345312
21173,0,USKentuckyMontgomery,Kentucky,Montgomery,2021-01-05 20:42:36.311619,2020-12-01 00:00:00.000000,6.52674734,9.76545330,14.68754009,1837,2749,4135,859,1377,2160,3.05376625,4.89242227,7.67391878,0.29402938,0.40479500,0.54473933
21173,0,USKentuckyMontgomery,Kentucky,Montgomery,2021-01-05 20:42:36.311619,2020-12-02 00:00:00.000000,6.48291293,9.75751999,14.68987869,1825,2747,4136,871,1390,2145,3.09634608,4.93707219,7.61976662,0.29439315,0.39962879,0.55067959
21173,0,USKentuckyMontgomery,Kentucky,Montgomery,2021-01-05 20:42:36.311619,2020-12-03 00:00:00.000000,6.46980595,9.68031763,14.69458419,1821,2725,4137,881,1399,2126,3.13124680,4.97086642,7.55261886,0.28754206,0.39207257,0.55481699
21173,0,USKentuckyMontgomery,Kentucky,Montgomery,2021-01-05 20:42:36.311619,2020-12-04 00:00:00.000000,6.44475960,9.60841034,14.68718783,1814,2705,4135,875,1401,2136,3.10992841,4.97745518,7.58915212,0.28372954,0.38450944,0.55739822
21173,0,USKentuckyMontgomery,Kentucky,Montgomery,2021-01-05 20:42:36.311619,2020-12-05 00:00:00.000000,6.40208409,9.51469405,14.65796599,1802,2679,4127,866,1399,2156,3.07759098,4.96973394,7.65817798,0.28242784,0.37764362,0.55906085
21173,0,USKentuckyMontgomery,Kentucky,Montgomery,2021-01-05 20:42:36.311619,2020-12-06 00:00:00.000000,6.35683090,9.40892068,14.60930497,1789,2649,4113,855,1396,2173,3.03740079,4.96012404,7.71931902,0.28231801,0.37505977,0.56050092
21173,0,USKentuckyMontgomery,Kentucky,Montgomery,2021-01-05 20:42:36.311619,2020-12-07 00:00:00.000000,6.30570541,9.35786875,14.54771273,1775,2634,4096,842,1405,2186,2.99167926,4.99120461,7.76627496,0.28227679,0.38153469,0.56122928
21173,0,USKentuckyMontgomery,Kentucky,Montgomery,2021-01-05 20:42:36.311619,2020-12-08 00:00:00.000000,6.25604249,9.40693256,14.47321260,1761,2648,4075,828,1407,2199,2.94236765,5.00035460,7.81216304,0.28250245,0.38578319,0.52914620
21173,0,USKentuckyMontgomery,Kentucky,Montgomery,2021-01-05 20:42:36.311619,2020-12-09 00:00:00.000000,6.20531846,9.38698525,14.38875940,1747,2643,4051,813,1414,2202,2.89060652,5.02339642,7.82141130,0.28988113,0.38765858,0.52195420
21173,0,USKentuckyMontgomery,Kentucky,Montgomery,2021-01-05 20:42:36.311619,2020-12-10 00:00:00.000000,6.14719447,9.34764744,14.30001875,1730,2632,4026,798,1422,2204,2.83728697,5.05229003,7.83069672,0.28928333,0.38793486,0.54143026
21173,0,USKentuckyMontgomery,Kentucky,Montgomery,2021-01-05 20:42:36.311619,2020-12-11 00:00:00.000000,6.02381597,9.37690582,14.21627538,1696,2640,4002,791,1423,2204,2.81255116,5.05641748,7.82794397,0.29047032,0.39419098,0.55422066
21173,0,USKentuckyMontgomery,Kentucky,Montgomery,2021-01-05 20:42:36.311619,2020-12-12 00:00:00.000000,5.90453965,9.30919998,14.14584149,1662,2621,3983,787,1407,2200,2.79646792,4.99997224,7.81370000,0.29331040,0.40623651,0.55504850
21173,0,USKentuckyMontgomery,Kentucky,Montgomery,2021-01-05 20:42:36.311619,2020-12-13 00:00:00.000000,5.79554169,9.19759390,14.10869533,1631,2589,3972,783,1378,2192,2.78401358,4.89524481,7.78838834,0.29681521,0.42209792,0.57001937
21173,0,USKentuckyMontgomery,Kentucky,Montgomery,2021-01-05 20:42:36.311619,2020-12-14 00:00:00.000000,5.70198766,9.10722343,14.33770288,1605,2564,4037,781,1364,2182,2.77579354,4.84692479,7.75235252,0.31222608,0.43836118,0.59891766
21173,0,USKentuckyMontgomery,Kentucky,Montgomery,2021-01-05 20:42:36.311619,2020-12-15 00:00:00.000000,5.62700511,9.01892434,14.27714990,1584,2539,4020,779,1369,2170,2.76822306,4.86241875,7.70925418,0.31710876,0.45183838,0.62217594
21173,0,USKentuckyMontgomery,Kentucky,Montgomery,2021-01-05 20:42:36.311619,2020-12-16 00:00:00.000000,5.57542525,8.95112535,14.20932263,1569,2520,4000,782,1365,2156,2.77738316,4.84967235,7.65861867,0.33040525,0.46174651,0.64436146
21173,0,USKentuckyMontgomery,Kentucky,Montgomery,2021-01-05 20:42:36.311619,2020-12-17 00:00:00.000000,5.58152195,8.99423622,14.29717213,1571,2532,4025,785,1354,2140,2.78952155,4.81172108,7.60036587,0.34151126,0.48691030,0.75683262
21173,0,USKentuckyMontgomery,Kentucky,Montgomery,2021-01-05 20:42:36.311619,2020-12-18 00:00:00.000000,5.65697151,9.03196876,14.38413014,1592,2543,4050,789,1343,2124,2.80323393,4.77088076,7.54625900,0.35587832,0.50671255,0.78069688
21173,0,USKentuckyMontgomery,Kentucky,Montgomery,2021-01-05 20:42:36.311619,2020-12-19 00:00:00.000000,5.62257378,8.96764576,14.22113147,1583,2525,4004,790,1324,2139,2.80648258,4.70394697,7.59827717,0.39144013,0.53855631,0.77695257
21173,0,USKentuckyMontgomery,Kentucky,Montgomery,2021-01-05 20:42:36.311619,2020-12-20 00:00:00.000000,5.58454196,9.05965531,14.27822118,1572,2550,4020,795,1309,2156,2.82402568,4.64900685,7.65732724,0.41074901,0.56304233,0.88382211
21173,0,USKentuckyMontgomery,Kentucky,Montgomery,2021-01-05 20:42:36.311619,2020-12-21 00:00:00.000000,5.64962898,9.21114004,14.46855389,1590,2593,4073,803,1300,2174,2.85472883,4.62039986,7.72120341,0.42586858,0.59571534,0.91046614
21173,0,USKentuckyMontgomery,Kentucky,Montgomery,2021-01-05 20:42:36.311619,2020-12-22 00:00:00.000000,5.74093074,9.35084313,14.55950456,1616,2632,4099,814,1310,2192,2.89446239,4.65343455,7.78690747,0.43991950,0.62639869,0.91475383
21173,0,USKentuckyMontgomery,Kentucky,Montgomery,2021-01-05 20:42:36.311619,2020-12-23 00:00:00.000000,5.85870627,9.52718765,14.73108185,1649,2682,4147,826,1335,2211,2.93431818,4.74286218,7.85552118,0.44589131,0.64602533,0.91538542
21173,0,USKentuckyMontgomery,Kentucky,Montgomery,2021-01-05 20:42:36.311619,2020-12-24 00:00:00.000000,5.98068796,9.62965851,14.88309633,1683,2711,4190,828,1366,2232,2.94170659,4.85211711,7.92873507,0.46281633,0.67177796,0.92001548
21173,0,USKentuckyMontgomery,Kentucky,Montgomery,2021-01-05 20:42:36.311619,2020-12-25 00:00:00.000000,6.00259841,9.80875132,15.00454377,1690,2761,4224,830,1383,2254,2.94838296,4.91501385,8.00611464,0.48144665,0.68172443,1.01640491
21173,0,USKentuckyMontgomery,Kentucky,Montgomery,2021-01-05 20:42:36.311619,2020-12-26 00:00:00.000000,6.14673095,10.12804693,15.09841898,1730,2851,4251,832,1399,2277,2.95670604,4.96874911,8.08948345,0.49716737,0.69786633,1.15578867
21173,0,USKentuckyMontgomery,Kentucky,Montgomery,2021-01-05 20:42:36.311619,2020-12-27 00:00:00.000000,6.33606572,10.37424658,15.16739507,1784,2921,4270,837,1431,2302,2.97290211,5.08498381,8.17752131,0.49123294,0.71785486,1.21362433
21173,0,USKentuckyMontgomery,Kentucky,Montgomery,2021-01-05 20:42:36.311619,2020-12-28 00:00:00.000000,6.52189893,10.65423479,15.28057396,1836,2999,4302,848,1467,2337,3.01296346,5.21050407,8.30140925,0.51662862,0.73311996,1.23434325
21173,0,USKentuckyMontgomery,Kentucky,Montgomery,2021-01-05 20:42:36.311619,2020-12-29 00:00:00.000000,6.70039991,10.99831951,15.50988211,1886,3096,4367,867,1492,2383,3.08148496,5.29900084,8.46376008,0.50243408,0.75259069,1.25788154
21173,0,USKentuckyMontgomery,Kentucky,Montgomery,2021-01-05 20:42:36.311619,2020-12-30 00:00:00.000000,6.91478288,11.23038753,15.79844570,1946,3162,4448,892,1510,2424,3.17111009,5.36616234,8.61109234,0.47670639,0.76780158,1.29856757
21173,0,USKentuckyMontgomery,Kentucky,Montgomery,2021-01-05 20:42:36.311619,2020-12-31 00:00:00.000000,7.13975061,11.18556317,16.05717023,2010,3149,4521,921,1543,2461,3.27315868,5.48092167,8.74028336,0.49091101,0.79199347,1.35867002
21173,0,USKentuckyMontgomery,Kentucky,Montgomery,2021-01-05 20:42:36.311619,2021-01-01 00:00:00.000000,7.34942723,11.24865275,16.28148507,2069,3167,4584,951,1574,2499,3.37976370,5.59363377,8.87832210,0.49756162,0.79609337,1.42507538
21173,0,USKentuckyMontgomery,Kentucky,Montgomery,2021-01-05 20:42:36.311619,2021-01-02 00:00:00.000000,7.48951735,11.31904739,16.46998026,2108,3187,4637,981,1610,2554,3.48601218,5.71898413,9.07066598,0.46669951,0.79567758,1.47711227
21173,0,USKentuckyMontgomery,Kentucky,Montgomery,2021-01-05 20:42:36.311619,2021-01-03 00:00:00.000000,7.58372092,11.40833514,16.62142538,2135,3212,4680,1010,1656,2589,3.58854034,5.88184845,9.19698604,0.46166055,0.80716378,1.49904724
21173,0,USKentuckyMontgomery,Kentucky,Montgomery,2021-01-05 20:42:36.311619,2021-01-04 00:00:00.000000,7.66445188,11.65857193,16.73487776,2158,3282,4712,1037,1706,2587,3.68518542,6.06003361,9.19125187,0.46084020,0.81148699,1.50511525
21173,0,USKentuckyMontgomery,Kentucky,Montgomery,2021-01-05 20:42:36.311619,2021-01-05 00:00:00.000000,7.87760961,11.73663318,16.80971836,2218,3304,4733,1051,1731,2584,3.73564453,6.15083085,9.18056294,0.45489461,0.81327542,1.50803847
21173,0,USKentuckyMontgomery,Kentucky,Montgomery,2021-01-05 20:42:36.311619,2021-01-06 00:00:00.000000,8.09458532,11.85046710,16.84567315,2279,3336,4743,1048,1731,2588,3.72211703,6.14987009,9.19224819,0.44586029,0.82343340,1.50943185
21173,0,USKentuckyMontgomery,Kentucky,Montgomery,2021-01-05 20:42:36.311619,2021-01-07 00:00:00.000000,8.24446870,11.98396899,16.84282197,2321,3374,4742,1068,1732,2601,3.79653719,6.15449644,9.24044633,0.44433562,0.82850471,1.51009305
21173,0,USKentuckyMontgomery,Kentucky,Montgomery,2021-01-05 20:42:36.311619,2021-01-08 00:00:00.000000,8.12664289,11.93133093,16.80159671,2288,3359,4730,1082,1739,2610,3.84373571,6.17877575,9.27012034,0.44409009,0.82854027,1.51040629
21173,0,USKentuckyMontgomery,Kentucky,Montgomery,2021-01-05 20:42:36.311619,2021-01-09 00:00:00.000000,7.91550457,11.86393202,16.72981970,2228,3340,4710,1101,1749,2613,3.91072211,6.21268392,9.28070758,0.44404476,0.82855442,1.51055463
21173,0,USKentuckyMontgomery,Kentucky,Montgomery,2021-01-05 20:42:36.311619,2021-01-10 00:00:00.000000,7.86555156,11.91101709,16.62683482,2214,3353,4681,1124,1756,2610,3.99422506,6.23881223,9.27194823,0.44403393,0.82855986,1.51062488
21173,0,USKentuckyMontgomery,Kentucky,Montgomery,2021-01-05 20:42:36.311619,2021-01-11 00:00:00.000000,7.72303917,11.90858520,16.48354413,2174,3353,4641,1133,1774,2602,4.02522082,6.30116978,9.24384636,0.44403053,0.82856191,1.51065816
21173,0,USKentuckyMontgomery,Kentucky,Montgomery,2021-01-05 20:42:36.311619,2021-01-12 00:00:00.000000,7.57603120,11.92129875,16.30198510,2133,3356,4590,1123,1784,2589,3.98891982,6.33828613,9.19663799,0.44402926,0.82856268,1.51067393
21173,0,USKentuckyMontgomery,Kentucky,Montgomery,2021-01-05 20:42:36.311619,2021-01-13 00:00:00.000000,7.42515649,11.72449033,16.11196006,2090,3301,4536,1111,1775,2573,3.94805450,6.30681463,9.13811708,0.44402874,0.82856296,1.51068141
21173,0,USKentuckyMontgomery,Kentucky,Montgomery,2021-01-05 20:42:36.311619,2021-01-14 00:00:00.000000,7.27098517,11.65913494,15.98336893,2047,3282,4500,1098,1773,2603,3.90251510,6.29922650,9.24477513,0.44402852,0.82856306,1.51068496
21173,0,USKentuckyMontgomery,Kentucky,Montgomery,2021-01-05 20:42:36.311619,2021-01-15 00:00:00.000000,7.11404440,11.53000135,15.82241866,2003,3246,4455,1082,1758,2626,3.84582150,6.24467111,9.32662978,0.44402843,0.82856310,1.51068664
21173,0,USKentuckyMontgomery,Kentucky,Montgomery,2021-01-05 20:42:36.311619,2021-01-16 00:00:00.000000,6.95482788,11.45405000,15.63070330,1958,3225,4401,1063,1741,2641,3.77754617,6.18332933,9.38300327,0.44402839,0.82856312,1.51068744
21173,0,USKentuckyMontgomery,Kentucky,Montgomery,2021-01-05 20:42:36.311619,2021-01-17 00:00:00.000000,6.79380152,11.29931261,15.41407610,1912,3181,4340,1044,1737,2650,3.70808436,6.16966728,9.41349962,0.44402837,0.82856312,1.51068782
