FIPS,HR_UID,nameid,province,region,analysisTime,dates,pointprevalence_025,pointprevalence_50,pointprevalence_975,pointinfections_025,pointinfections_50,pointinfections_975,pointinfectious_025,pointinfectious_50,pointinfectious_975,pointinfectiousprevalence_05,pointinfectiousprevalence_50,pointinfectiousprevalence_95,infectrate_025,infectrate_50,infectrate_975
38091,0,USNorthDakotaSteele,North Dakota,Steele,2021-01-05 13:25:13.545186,2020-03-09 00:00:00.000000,0.01147333,0.06773172,0.41138800,0,1,7,0,0,3,0.00574117,0.03747061,0.20481598,0.37982833,0.54831644,0.74006110
38091,0,USNorthDakotaSteele,North Dakota,Steele,2021-01-05 13:25:13.545186,2020-03-10 00:00:00.000000,0.01211624,0.07822679,0.42877180,0,1,8,0,0,3,0.00568387,0.03668590,0.19089993,0.37982246,0.54820824,0.74005926
38091,0,USNorthDakotaSteele,North Dakota,Steele,2021-01-05 13:25:13.545186,2020-03-11 00:00:00.000000,0.01278981,0.08683319,0.44949908,0,1,8,0,0,3,0.00594940,0.03813049,0.18656922,0.37980941,0.54796820,0.74005530
38091,0,USNorthDakotaSteele,North Dakota,Steele,2021-01-05 13:25:13.545186,2020-03-12 00:00:00.000000,0.01349810,0.09555618,0.49320759,0,1,9,0,0,3,0.00642767,0.03951119,0.20622240,0.37978036,0.54743828,0.74004677
38091,0,USNorthDakotaSteele,North Dakota,Steele,2021-01-05 13:25:13.545186,2020-03-13 00:00:00.000000,0.01424463,0.10287765,0.53997012,0,1,10,0,0,4,0.00705264,0.04272778,0.22865363,0.37971568,0.54628129,0.74002843
38091,0,USNorthDakotaSteele,North Dakota,Steele,2021-01-05 13:25:13.545186,2020-03-14 00:00:00.000000,0.01597555,0.11025145,0.59038038,0,2,11,0,0,4,0.00771504,0.04703538,0.22919813,0.37957183,0.54113903,0.73998921
38091,0,USNorthDakotaSteele,North Dakota,Steele,2021-01-05 13:25:13.545186,2020-03-15 00:00:00.000000,0.01830907,0.11810902,0.64495576,0,2,12,0,0,4,0.00810496,0.05193487,0.24733757,0.37925279,0.53750798,0.73990607
38091,0,USNorthDakotaSteele,North Dakota,Steele,2021-01-05 13:25:13.545186,2020-03-16 00:00:00.000000,0.02097353,0.12650535,0.70417978,0,2,13,0,1,5,0.00906091,0.05708868,0.26966528,0.37855005,0.53094820,0.73973283
38091,0,USNorthDakotaSteele,North Dakota,Steele,2021-01-05 13:25:13.545186,2020-03-17 00:00:00.000000,0.02400119,0.13549343,0.76852533,0,2,14,0,1,5,0.01040682,0.06164062,0.29420816,0.36569019,0.52903466,0.73938446
38091,0,USNorthDakotaSteele,North Dakota,Steele,2021-01-05 13:25:13.545186,2020-03-18 00:00:00.000000,0.02740620,0.14564400,0.83845915,0,2,15,0,1,6,0.01145880,0.06583716,0.32105262,0.34991017,0.52465846,0.73873437
38091,0,USNorthDakotaSteele,North Dakota,Steele,2021-01-05 13:25:13.545186,2020-03-19 00:00:00.000000,0.03116492,0.15579100,0.91420502,0,2,17,0,1,6,0.01255180,0.06910391,0.35033460,0.34414131,0.51355252,0.72623109
38091,0,USNorthDakotaSteele,North Dakota,Steele,2021-01-05 13:25:13.545186,2020-03-20 00:00:00.000000,0.03520832,0.16837855,0.99571259,0,3,18,0,1,7,0.01372161,0.07590759,0.38221554,0.34213909,0.50496779,0.69845066
38091,0,USNorthDakotaSteele,North Dakota,Steele,2021-01-05 13:25:13.545186,2020-03-21 00:00:00.000000,0.03946026,0.18270893,1.08273509,0,3,20,0,1,7,0.01497138,0.08190521,0.41671864,0.32319316,0.47728134,0.69066701
38091,0,USNorthDakotaSteele,North Dakota,Steele,2021-01-05 13:25:13.545186,2020-03-22 00:00:00.000000,0.04390612,0.19185320,1.16367308,0,3,21,0,1,8,0.01630290,0.08620551,0.45370389,0.31210816,0.45148767,0.66118894
38091,0,USNorthDakotaSteele,North Dakota,Steele,2021-01-05 13:25:13.545186,2020-03-23 00:00:00.000000,0.04794616,0.19942101,1.19904735,0,3,22,0,1,9,0.01771438,0.09068160,0.49288663,0.31032602,0.42360253,0.63425385
38091,0,USNorthDakotaSteele,North Dakota,Steele,2021-01-05 13:25:13.545186,2020-03-24 00:00:00.000000,0.05148511,0.20699684,1.23249319,0,3,23,0,1,10,0.01919782,0.09668387,0.53268601,0.29892731,0.41309457,0.63062366
38091,0,USNorthDakotaSteele,North Dakota,Steele,2021-01-05 13:25:13.545186,2020-03-25 00:00:00.000000,0.05496388,0.21709749,1.26440770,1,4,23,0,1,10,0.02073676,0.10229537,0.57069419,0.28700530,0.40610544,0.60974392
38091,0,USNorthDakotaSteele,North Dakota,Steele,2021-01-05 13:25:13.545186,2020-03-26 00:00:00.000000,0.05828509,0.22981388,1.29363295,1,4,24,0,2,11,0.02230563,0.10689110,0.60492270,0.27974401,0.39039088,0.60116627
38091,0,USNorthDakotaSteele,North Dakota,Steele,2021-01-05 13:25:13.545186,2020-03-27 00:00:00.000000,0.06138351,0.24032734,1.31745023,1,4,24,0,2,11,0.02387258,0.11233375,0.62670326,0.24839906,0.37979421,0.58651139
38091,0,USNorthDakotaSteele,North Dakota,Steele,2021-01-05 13:25:13.545186,2020-03-28 00:00:00.000000,0.06424745,0.24747921,1.33202914,1,4,25,0,2,12,0.02540588,0.11812593,0.64225864,0.22292444,0.36649661,0.56463269
38091,0,USNorthDakotaSteele,North Dakota,Steele,2021-01-05 13:25:13.545186,2020-03-29 00:00:00.000000,0.06691300,0.25020726,1.33533938,1,4,25,0,2,12,0.02688167,0.12285110,0.65494579,0.20087510,0.34130629,0.53284574
38091,0,USNorthDakotaSteele,North Dakota,Steele,2021-01-05 13:25:13.545186,2020-03-30 00:00:00.000000,0.06943559,0.25116488,1.32933949,1,4,25,0,2,12,0.02828874,0.12761542,0.66376497,0.18841094,0.32704590,0.51664044
38091,0,USNorthDakotaSteele,North Dakota,Steele,2021-01-05 13:25:13.545186,2020-03-31 00:00:00.000000,0.07186657,0.25780670,1.31732761,1,4,24,0,2,12,0.02962741,0.13207603,0.66839868,0.18271533,0.31895160,0.49713918
38091,0,USNorthDakotaSteele,North Dakota,Steele,2021-01-05 13:25:13.545186,2020-04-01 00:00:00.000000,0.07423832,0.26542513,1.30129017,1,5,24,0,2,12,0.03090536,0.13523828,0.66923021,0.18278627,0.31619098,0.49034188
38091,0,USNorthDakotaSteele,North Dakota,Steele,2021-01-05 13:25:13.545186,2020-04-02 00:00:00.000000,0.07655783,0.27231001,1.28216428,1,5,24,0,2,12,0.03213266,0.13893333,0.66687718,0.17692931,0.31174598,0.48398975
38091,0,USNorthDakotaSteele,North Dakota,Steele,2021-01-05 13:25:13.545186,2020-04-03 00:00:00.000000,0.07881854,0.27808589,1.26053653,1,5,23,0,2,12,0.03331729,0.14210885,0.66191441,0.17372913,0.30629713,0.47727175
38091,0,USNorthDakotaSteele,North Dakota,Steele,2021-01-05 13:25:13.545186,2020-04-04 00:00:00.000000,0.08103023,0.28547588,1.23656795,1,5,23,0,2,12,0.03446374,0.14454729,0.65481702,0.17081484,0.30033043,0.47372405
38091,0,USNorthDakotaSteele,North Dakota,Steele,2021-01-05 13:25:13.545186,2020-04-05 00:00:00.000000,0.08322490,0.28873181,1.21039461,1,5,22,0,2,12,0.03557634,0.14675365,0.64592152,0.16861797,0.29604316,0.46573960
38091,0,USNorthDakotaSteele,North Dakota,Steele,2021-01-05 13:25:13.545186,2020-04-06 00:00:00.000000,0.08543283,0.28980640,1.18704758,1,5,22,0,2,12,0.03666264,0.14973725,0.63546885,0.16688485,0.29260638,0.43934443
38091,0,USNorthDakotaSteele,North Dakota,Steele,2021-01-05 13:25:13.545186,2020-04-07 00:00:00.000000,0.08765070,0.29624830,1.16857564,1,5,22,0,2,11,0.03773243,0.15181099,0.62366542,0.16516028,0.28609860,0.43716095
38091,0,USNorthDakotaSteele,North Dakota,Steele,2021-01-05 13:25:13.545186,2020-04-08 00:00:00.000000,0.08926726,0.30473964,1.15015980,1,5,21,0,2,11,0.03879226,0.15732507,0.62612613,0.16313654,0.27922410,0.42754753
38091,0,USNorthDakotaSteele,North Dakota,Steele,2021-01-05 13:25:13.545186,2020-04-09 00:00:00.000000,0.08657822,0.31104767,1.13500588,1,5,21,0,3,11,0.03981461,0.16282286,0.61958274,0.16066793,0.27327243,0.42277100
38091,0,USNorthDakotaSteele,North Dakota,Steele,2021-01-05 13:25:13.545186,2020-04-10 00:00:00.000000,0.08346515,0.31233170,1.11374825,1,5,21,0,3,11,0.04067291,0.16773490,0.60415586,0.15752408,0.26365643,0.42039986
38091,0,USNorthDakotaSteele,North Dakota,Steele,2021-01-05 13:25:13.545186,2020-04-11 00:00:00.000000,0.08021212,0.31614268,1.08623240,1,5,20,0,3,11,0.04133744,0.16948771,0.58862991,0.15376685,0.25057395,0.41842731
38091,0,USNorthDakotaSteele,North Dakota,Steele,2021-01-05 13:25:13.545186,2020-04-12 00:00:00.000000,0.07695058,0.32343543,1.05430374,1,6,19,0,3,10,0.04185398,0.17237251,0.57293876,0.14998325,0.24425674,0.41536509
38091,0,USNorthDakotaSteele,North Dakota,Steele,2021-01-05 13:25:13.545186,2020-04-13 00:00:00.000000,0.07369634,0.32883718,1.04849598,1,6,19,0,3,10,0.04149750,0.17267160,0.55696500,0.11982065,0.24095359,0.41012040
38091,0,USNorthDakotaSteele,North Dakota,Steele,2021-01-05 13:25:13.545186,2020-04-14 00:00:00.000000,0.07044601,0.32499057,1.02141587,1,6,19,0,3,10,0.03990928,0.17243557,0.56289039,0.11479813,0.23947915,0.40263192
38091,0,USNorthDakotaSteele,North Dakota,Steele,2021-01-05 13:25:13.545186,2020-04-15 00:00:00.000000,0.06720807,0.32022383,1.02216276,1,6,19,0,3,10,0.03829617,0.17282911,0.56954692,0.11445029,0.23969715,0.38494780
38091,0,USNorthDakotaSteele,North Dakota,Steele,2021-01-05 13:25:13.545186,2020-04-16 00:00:00.000000,0.06398622,0.31684982,1.04147864,1,5,19,0,3,10,0.03666711,0.17159867,0.55930106,0.10824204,0.23891902,0.38038511
38091,0,USNorthDakotaSteele,North Dakota,Steele,2021-01-05 13:25:13.545186,2020-04-17 00:00:00.000000,0.06079646,0.31425338,1.06097793,1,5,20,0,3,10,0.03502933,0.17120920,0.54261822,0.10778244,0.23233630,0.37669953
38091,0,USNorthDakotaSteele,North Dakota,Steele,2021-01-05 13:25:13.545186,2020-04-18 00:00:00.000000,0.05767954,0.30919686,1.07827409,1,5,20,0,3,9,0.03339349,0.17213104,0.52545154,0.10743190,0.21727390,0.35820936
38091,0,USNorthDakotaSteele,North Dakota,Steele,2021-01-05 13:25:13.545186,2020-04-19 00:00:00.000000,0.05467037,0.30875357,1.07190917,1,5,20,0,3,9,0.03177381,0.17172247,0.52337026,0.10659194,0.20709522,0.35004529
38091,0,USNorthDakotaSteele,North Dakota,Steele,2021-01-05 13:25:13.545186,2020-04-20 00:00:00.000000,0.05179518,0.30485336,1.05742212,0,5,19,0,3,10,0.03018570,0.16870090,0.53271876,0.10330980,0.20250370,0.34076747
38091,0,USNorthDakotaSteele,North Dakota,Steele,2021-01-05 13:25:13.545186,2020-04-21 00:00:00.000000,0.04907628,0.29759685,1.05489868,0,5,19,0,3,10,0.02864485,0.16624598,0.54065700,0.10104138,0.20167126,0.33315014
38091,0,USNorthDakotaSteele,North Dakota,Steele,2021-01-05 13:25:13.545186,2020-04-22 00:00:00.000000,0.04652934,0.29088283,1.05235678,0,5,19,0,3,10,0.02709010,0.16499242,0.54544503,0.09971172,0.19813644,0.33263712
38091,0,USNorthDakotaSteele,North Dakota,Steele,2021-01-05 13:25:13.545186,2020-04-23 00:00:00.000000,0.04415277,0.28404278,1.04567057,0,5,19,0,3,10,0.02536694,0.16591167,0.54665660,0.10120435,0.19382307,0.35913433
38091,0,USNorthDakotaSteele,North Dakota,Steele,2021-01-05 13:25:13.545186,2020-04-24 00:00:00.000000,0.04159673,0.28515648,1.03624716,0,5,19,0,3,10,0.02370270,0.16554809,0.54495307,0.10031486,0.19176482,0.35570003
38091,0,USNorthDakotaSteele,North Dakota,Steele,2021-01-05 13:25:13.545186,2020-04-25 00:00:00.000000,0.03847924,0.28376629,1.02382110,0,5,19,0,3,10,0.02209013,0.16170656,0.54112559,0.09899185,0.18581061,0.36266385
38091,0,USNorthDakotaSteele,North Dakota,Steele,2021-01-05 13:25:13.545186,2020-04-26 00:00:00.000000,0.03551235,0.28554721,1.00844364,0,5,19,0,3,10,0.02052974,0.15995665,0.53579919,0.09945221,0.18187918,0.37383685
38091,0,USNorthDakotaSteele,North Dakota,Steele,2021-01-05 13:25:13.545186,2020-04-27 00:00:00.000000,0.03272643,0.28671231,0.99112732,0,5,18,0,2,10,0.01902948,0.15842385,0.52939764,0.09751088,0.17266401,0.38056443
38091,0,USNorthDakotaSteele,North Dakota,Steele,2021-01-05 13:25:13.545186,2020-04-28 00:00:00.000000,0.03014190,0.28711138,0.97121329,0,5,18,0,2,9,0.01760019,0.15788192,0.52201396,0.09737738,0.16934847,0.37454387
38091,0,USNorthDakotaSteele,North Dakota,Steele,2021-01-05 13:25:13.545186,2020-04-29 00:00:00.000000,0.02777746,0.28475987,0.94683824,0,5,17,0,3,9,0.01625245,0.15942209,0.51342090,0.09591776,0.16718407,0.32923553
38091,0,USNorthDakotaSteele,North Dakota,Steele,2021-01-05 13:25:13.545186,2020-04-30 00:00:00.000000,0.02563433,0.27848334,0.91816982,0,5,17,0,3,9,0.01499617,0.16019757,0.50368834,0.09527558,0.16621757,0.30676493
38091,0,USNorthDakotaSteele,North Dakota,Steele,2021-01-05 13:25:13.545186,2020-05-01 00:00:00.000000,0.02368463,0.27380948,0.88752422,0,5,16,0,2,9,0.01383745,0.15656967,0.49305449,0.09356224,0.16049788,0.30620386
38091,0,USNorthDakotaSteele,North Dakota,Steele,2021-01-05 13:25:13.545186,2020-05-02 00:00:00.000000,0.02304689,0.26833087,0.85642515,0,5,16,0,2,9,0.01277439,0.15291274,0.48171717,0.09014681,0.15820618,0.30424774
38091,0,USNorthDakotaSteele,North Dakota,Steele,2021-01-05 13:25:13.545186,2020-05-03 00:00:00.000000,0.02314599,0.26118366,0.82549854,0,4,15,0,2,8,0.01179985,0.15264965,0.46976611,0.08631026,0.15122909,0.29602272
38091,0,USNorthDakotaSteele,North Dakota,Steele,2021-01-05 13:25:13.545186,2020-05-04 00:00:00.000000,0.08774953,0.33205570,0.90143578,1,6,17,0,2,8,0.01108582,0.14978570,0.45730556,0.08402766,0.14927852,0.29600012
38091,0,USNorthDakotaSteele,North Dakota,Steele,2021-01-05 13:25:13.545186,2020-05-05 00:00:00.000000,0.14154668,0.38917274,0.97784072,2,7,18,0,2,8,0.02349383,0.15675934,0.46257535,0.08328302,0.14832887,0.29009598
38091,0,USNorthDakotaSteele,North Dakota,Steele,2021-01-05 13:25:13.545186,2020-05-06 00:00:00.000000,0.17936153,0.46357975,1.05638769,3,8,19,0,3,9,0.04445328,0.17502458,0.48015429,0.07930028,0.14690181,0.28021644
38091,0,USNorthDakotaSteele,North Dakota,Steele,2021-01-05 13:25:13.545186,2020-05-07 00:00:00.000000,0.21942054,0.52810223,1.17678050,4,9,22,1,3,9,0.06329860,0.19683715,0.50616009,0.07640229,0.14575476,0.26359301
38091,0,USNorthDakotaSteele,North Dakota,Steele,2021-01-05 13:25:13.545186,2020-05-08 00:00:00.000000,0.25663773,0.59307426,1.27993782,4,11,24,1,4,10,0.08592564,0.22123961,0.53780628,0.07318442,0.14237602,0.25694730
38091,0,USNorthDakotaSteele,North Dakota,Steele,2021-01-05 13:25:13.545186,2020-05-09 00:00:00.000000,0.28631857,0.64568758,1.42794404,5,12,26,1,4,11,0.10250691,0.25311753,0.60400053,0.06884421,0.13984192,0.23861302
38091,0,USNorthDakotaSteele,North Dakota,Steele,2021-01-05 13:25:13.545186,2020-05-10 00:00:00.000000,0.32231721,0.70642982,1.57413879,6,13,29,2,5,12,0.11863136,0.27747716,0.67754449,0.06410252,0.13736607,0.23910895
38091,0,USNorthDakotaSteele,North Dakota,Steele,2021-01-05 13:25:13.545186,2020-05-11 00:00:00.000000,0.36928044,0.74359688,1.62148608,6,14,30,2,5,13,0.13290720,0.30550439,0.71980389,0.06296732,0.13398664,0.22195330
38091,0,USNorthDakotaSteele,North Dakota,Steele,2021-01-05 13:25:13.545186,2020-05-12 00:00:00.000000,0.41112627,0.80961192,1.64233634,7,15,31,3,6,14,0.16098928,0.33657381,0.77381600,0.06290419,0.13006604,0.22217661
38091,0,USNorthDakotaSteele,North Dakota,Steele,2021-01-05 13:25:13.545186,2020-05-13 00:00:00.000000,0.43865472,0.88581802,1.65280718,8,16,31,3,6,15,0.17539671,0.35924714,0.80476348,0.06288700,0.12643056,0.22257976
38091,0,USNorthDakotaSteele,North Dakota,Steele,2021-01-05 13:25:13.545186,2020-05-14 00:00:00.000000,0.46379203,0.99620203,1.70769359,8,18,32,3,7,16,0.18999401,0.39148542,0.87888078,0.06293841,0.12338754,0.23540874
38091,0,USNorthDakotaSteele,North Dakota,Steele,2021-01-05 13:25:13.545186,2020-05-15 00:00:00.000000,0.48266067,1.04556160,1.75898637,9,19,33,3,7,18,0.20961533,0.41866255,0.95935851,0.06331878,0.12434826,0.24088817
38091,0,USNorthDakotaSteele,North Dakota,Steele,2021-01-05 13:25:13.545186,2020-05-16 00:00:00.000000,0.49980575,1.11510935,1.86583484,9,21,35,4,8,18,0.22189425,0.46218302,0.97150578,0.06296836,0.12295900,0.23766031
38091,0,USNorthDakotaSteele,North Dakota,Steele,2021-01-05 13:25:13.545186,2020-05-17 00:00:00.000000,0.51647387,1.15976184,1.96778400,9,21,37,4,9,18,0.23333857,0.50380562,0.97784789,0.06292045,0.12281875,0.23440879
38091,0,USNorthDakotaSteele,North Dakota,Steele,2021-01-05 13:25:13.545186,2020-05-18 00:00:00.000000,0.50152379,1.12383470,1.92288420,9,21,36,4,10,18,0.24401709,0.54947392,1.00192823,0.06302061,0.12115381,0.24240181
38091,0,USNorthDakotaSteele,North Dakota,Steele,2021-01-05 13:25:13.545186,2020-05-19 00:00:00.000000,0.48545817,1.09218895,1.88446996,9,20,35,4,10,19,0.24630118,0.57705447,1.02290279,0.06360743,0.12275076,0.24959749
38091,0,USNorthDakotaSteele,North Dakota,Steele,2021-01-05 13:25:13.545186,2020-05-20 00:00:00.000000,0.46814635,1.07533132,1.84385145,8,20,34,4,10,19,0.24809861,0.58162754,1.02098629,0.06471187,0.12406562,0.23430556
38091,0,USNorthDakotaSteele,North Dakota,Steele,2021-01-05 13:25:13.545186,2020-05-21 00:00:00.000000,0.44857871,1.04889718,1.79877286,8,19,33,4,10,19,0.24272248,0.57779711,1.01495404,0.06520313,0.12214476,0.22407564
38091,0,USNorthDakotaSteele,North Dakota,Steele,2021-01-05 13:25:13.545186,2020-05-22 00:00:00.000000,0.41799359,1.01233490,1.75065002,7,19,33,4,10,18,0.23313303,0.56520181,1.00210429,0.06425376,0.12136723,0.22224303
38091,0,USNorthDakotaSteele,North Dakota,Steele,2021-01-05 13:25:13.545186,2020-05-23 00:00:00.000000,0.38263641,0.97646282,1.70068176,7,18,32,4,10,18,0.22245171,0.55318170,0.98398529,0.06249557,0.12075128,0.22191756
38091,0,USNorthDakotaSteele,North Dakota,Steele,2021-01-05 13:25:13.545186,2020-05-24 00:00:00.000000,0.34920069,0.94139171,1.64982609,6,17,31,3,10,18,0.20756044,0.53035333,0.96311817,0.06170257,0.11985249,0.22165758
38091,0,USNorthDakotaSteele,North Dakota,Steele,2021-01-05 13:25:13.545186,2020-05-25 00:00:00.000000,0.31793856,0.90229835,1.59877897,6,17,30,3,9,17,0.19478591,0.51301337,0.94649754,0.06119901,0.11882670,0.22140286
38091,0,USNorthDakotaSteele,North Dakota,Steele,2021-01-05 13:25:13.545186,2020-05-26 00:00:00.000000,0.28894038,0.85465484,1.54803321,5,16,29,3,9,17,0.18214572,0.48756288,0.92650383,0.06063020,0.11601166,0.22136596
38091,0,USNorthDakotaSteele,North Dakota,Steele,2021-01-05 13:25:13.545186,2020-05-27 00:00:00.000000,0.26220341,0.80797719,1.49793299,4,15,28,3,8,17,0.16984212,0.46675664,0.90419210,0.05985167,0.11557117,0.22166400
38091,0,USNorthDakotaSteele,North Dakota,Steele,2021-01-05 13:25:13.545186,2020-05-28 00:00:00.000000,0.23766811,0.77048680,1.44871302,4,14,27,2,8,16,0.15806403,0.44753266,0.88455127,0.05883256,0.11455298,0.22282454
38091,0,USNorthDakotaSteele,North Dakota,Steele,2021-01-05 13:25:13.545186,2020-05-29 00:00:00.000000,0.21742395,0.73859091,1.40052643,4,13,26,2,7,16,0.14687177,0.42235934,0.86495589,0.05744877,0.11201204,0.21868798
38091,0,USNorthDakotaSteele,North Dakota,Steele,2021-01-05 13:25:13.545186,2020-05-30 00:00:00.000000,0.20227738,0.71233987,1.35394021,3,13,25,2,7,15,0.13627073,0.40276218,0.84120143,0.05565542,0.10967984,0.22172160
38091,0,USNorthDakotaSteele,North Dakota,Steele,2021-01-05 13:25:13.545186,2020-05-31 00:00:00.000000,0.18811101,0.68641723,1.30893193,3,12,24,2,7,15,0.12627633,0.38837407,0.81465214,0.05347942,0.10829006,0.22466305
38091,0,USNorthDakotaSteele,North Dakota,Steele,2021-01-05 13:25:13.545186,2020-06-01 00:00:00.000000,0.17487367,0.64877862,1.26493935,3,12,23,2,7,14,0.11687067,0.37728838,0.78663526,0.05191552,0.10664905,0.22745127
38091,0,USNorthDakotaSteele,North Dakota,Steele,2021-01-05 13:25:13.545186,2020-06-02 00:00:00.000000,0.16252428,0.60595660,1.22199390,3,11,23,2,6,14,0.10802585,0.36713852,0.75809582,0.05175850,0.10619495,0.23311715
38091,0,USNorthDakotaSteele,North Dakota,Steele,2021-01-05 13:25:13.545186,2020-06-03 00:00:00.000000,0.15101711,0.56769736,1.18008934,2,10,22,1,6,14,0.09973347,0.35279289,0.74470037,0.05146820,0.10552402,0.23754802
38091,0,USNorthDakotaSteele,North Dakota,Steele,2021-01-05 13:25:13.545186,2020-06-04 00:00:00.000000,0.14030116,0.53508047,1.14785602,2,10,21,1,6,13,0.09198694,0.33643914,0.73189198,0.05099202,0.10418629,0.23750195
38091,0,USNorthDakotaSteele,North Dakota,Steele,2021-01-05 13:25:13.545186,2020-06-05 00:00:00.000000,0.13032286,0.50479135,1.12574369,2,9,21,1,5,13,0.08477143,0.31541162,0.71880971,0.05184134,0.10429610,0.23357086
38091,0,USNorthDakotaSteele,North Dakota,Steele,2021-01-05 13:25:13.545186,2020-06-06 00:00:00.000000,0.12102720,0.48333081,1.10400921,2,9,20,1,5,13,0.07806066,0.29825973,0.70559616,0.05323651,0.10253021,0.22092692
38091,0,USNorthDakotaSteele,North Dakota,Steele,2021-01-05 13:25:13.545186,2020-06-07 00:00:00.000000,0.11236132,0.45394078,1.08477568,2,8,20,1,5,12,0.07198216,0.28216818,0.67808667,0.04822500,0.10194333,0.20913902
38091,0,USNorthDakotaSteele,North Dakota,Steele,2021-01-05 13:25:13.545186,2020-06-08 00:00:00.000000,0.10428162,0.43093676,1.04922134,1,8,19,1,5,12,0.06687562,0.26682506,0.64762336,0.04700271,0.10423823,0.20199824
38091,0,USNorthDakotaSteele,North Dakota,Steele,2021-01-05 13:25:13.545186,2020-06-09 00:00:00.000000,0.09675263,0.41555754,1.00623523,1,7,19,1,4,11,0.06211321,0.25228102,0.62347424,0.04671370,0.10321946,0.20226948
38091,0,USNorthDakotaSteele,North Dakota,Steele,2021-01-05 13:25:13.545186,2020-06-10 00:00:00.000000,0.08974352,0.40197520,0.97821732,1,7,18,1,4,11,0.05767268,0.23960908,0.60881516,0.04691365,0.10325075,0.20670568
38091,0,USNorthDakotaSteele,North Dakota,Steele,2021-01-05 13:25:13.545186,2020-06-11 00:00:00.000000,0.08322677,0.38370969,0.95699718,1,7,18,1,4,11,0.05353407,0.23118695,0.58369977,0.04870830,0.10286734,0.21493016
38091,0,USNorthDakotaSteele,North Dakota,Steele,2021-01-05 13:25:13.545186,2020-06-12 00:00:00.000000,0.07718235,0.36122702,0.93880239,1,6,17,0,4,10,0.04967956,0.22337202,0.57172593,0.05093589,0.10173371,0.21942328
38091,0,USNorthDakotaSteele,North Dakota,Steele,2021-01-05 13:25:13.545186,2020-06-13 00:00:00.000000,0.07162880,0.34306199,0.92413421,1,6,17,0,4,10,0.04609396,0.21493879,0.56203767,0.05141828,0.09976728,0.21150649
38091,0,USNorthDakotaSteele,North Dakota,Steele,2021-01-05 13:25:13.545186,2020-06-14 00:00:00.000000,0.06669561,0.32840580,0.91199783,1,6,17,0,3,10,0.04277060,0.20487652,0.55383498,0.05145988,0.10015616,0.19672077
38091,0,USNorthDakotaSteele,North Dakota,Steele,2021-01-05 13:25:13.545186,2020-06-15 00:00:00.000000,0.14174407,0.39970310,1.04818416,2,7,19,0,3,10,0.03972787,0.19527097,0.54650150,0.04712155,0.09932502,0.19656705
38091,0,USNorthDakotaSteele,North Dakota,Steele,2021-01-05 13:25:13.545186,2020-06-16 00:00:00.000000,0.20989590,0.46000402,1.12541147,3,8,21,1,3,10,0.05909425,0.19892404,0.54289124,0.04546204,0.09991307,0.19426028
38091,0,USNorthDakotaSteele,North Dakota,Steele,2021-01-05 13:25:13.545186,2020-06-17 00:00:00.000000,0.26473767,0.54170161,1.22598330,5,10,23,1,4,10,0.07688668,0.21452123,0.54161954,0.04625129,0.10005628,0.19014096
38091,0,USNorthDakotaSteele,North Dakota,Steele,2021-01-05 13:25:13.545186,2020-06-18 00:00:00.000000,0.28471073,0.63462377,1.41089966,5,11,26,1,4,11,0.10434720,0.23592676,0.60003755,0.04793083,0.10016313,0.18975921
38091,0,USNorthDakotaSteele,North Dakota,Steele,2021-01-05 13:25:13.545186,2020-06-19 00:00:00.000000,0.29393376,0.70352239,1.59370175,5,13,30,2,5,12,0.13897556,0.27252333,0.67564535,0.05155652,0.10098174,0.18891817
38091,0,USNorthDakotaSteele,North Dakota,Steele,2021-01-05 13:25:13.545186,2020-06-20 00:00:00.000000,0.30336237,0.78124401,1.77305608,5,14,33,2,5,14,0.14480498,0.31504217,0.76919550,0.05268813,0.10177930,0.19924519
38091,0,USNorthDakotaSteele,North Dakota,Steele,2021-01-05 13:25:13.545186,2020-06-21 00:00:00.000000,0.31316042,0.83127247,1.94828580,5,15,36,3,6,16,0.16373213,0.35638048,0.87160932,0.05474578,0.10111569,0.20209768
38091,0,USNorthDakotaSteele,North Dakota,Steele,2021-01-05 13:25:13.545186,2020-06-22 00:00:00.000000,0.38563834,0.89447629,1.97901046,7,16,37,3,7,18,0.16718668,0.39432204,0.97252065,0.05507320,0.10170350,0.19197506
38091,0,USNorthDakotaSteele,North Dakota,Steele,2021-01-05 13:25:13.545186,2020-06-23 00:00:00.000000,0.45859628,0.97915120,2.00593180,8,18,37,3,8,19,0.18116105,0.42889221,1.04777951,0.05541220,0.10093315,0.18763825
38091,0,USNorthDakotaSteele,North Dakota,Steele,2021-01-05 13:25:13.545186,2020-06-24 00:00:00.000000,0.53152318,1.04216676,2.02757301,10,19,38,3,8,20,0.20307469,0.46221793,1.10415857,0.05503747,0.10211544,0.18599744
38091,0,USNorthDakotaSteele,North Dakota,Steele,2021-01-05 13:25:13.545186,2020-06-25 00:00:00.000000,0.60330683,1.13291135,2.15623727,11,21,40,4,9,21,0.23063554,0.50562666,1.14685228,0.05588355,0.09946284,0.18539685
38091,0,USNorthDakotaSteele,North Dakota,Steele,2021-01-05 13:25:13.545186,2020-06-26 00:00:00.000000,0.63413314,1.22770707,2.39119909,11,23,45,4,10,22,0.26178631,0.53094865,1.17904636,0.05642037,0.09915675,0.18504957
38091,0,USNorthDakotaSteele,North Dakota,Steele,2021-01-05 13:25:13.545186,2020-06-27 00:00:00.000000,0.66200465,1.29629550,2.55082053,12,24,48,5,10,23,0.29564884,0.57263537,1.23334764,0.05594263,0.09860049,0.18097531
38091,0,USNorthDakotaSteele,North Dakota,Steele,2021-01-05 13:25:13.545186,2020-06-28 00:00:00.000000,0.67678921,1.35682656,2.52137680,12,25,47,6,11,23,0.32067668,0.61648942,1.23605512,0.05451247,0.09920448,0.18695734
38091,0,USNorthDakotaSteele,North Dakota,Steele,2021-01-05 13:25:13.545186,2020-06-29 00:00:00.000000,0.77204335,1.41785094,2.47331080,14,26,46,6,12,23,0.32851247,0.65207188,1.24030666,0.05306089,0.09814912,0.18949865
38091,0,USNorthDakotaSteele,North Dakota,Steele,2021-01-05 13:25:13.545186,2020-06-30 00:00:00.000000,0.80716885,1.54684941,2.65952816,15,29,50,6,13,23,0.35748342,0.69106543,1.24674907,0.05158548,0.09685242,0.19096380
38091,0,USNorthDakotaSteele,North Dakota,Steele,2021-01-05 13:25:13.545186,2020-07-01 00:00:00.000000,0.84768966,1.57618260,2.89128599,16,29,54,7,13,24,0.41045288,0.74013032,1.28010713,0.05000531,0.09506129,0.19588768
38091,0,USNorthDakotaSteele,North Dakota,Steele,2021-01-05 13:25:13.545186,2020-07-02 00:00:00.000000,0.85838320,1.63808214,3.11371788,16,30,58,8,14,25,0.42911776,0.77891394,1.33238274,0.04818218,0.09585975,0.19998998
38091,0,USNorthDakotaSteele,North Dakota,Steele,2021-01-05 13:25:13.545186,2020-07-03 00:00:00.000000,0.85882027,1.70301178,3.20111984,16,32,60,8,15,26,0.45001869,0.81204023,1.37923533,0.04601273,0.09508327,0.20070332
38091,0,USNorthDakotaSteele,North Dakota,Steele,2021-01-05 13:25:13.545186,2020-07-04 00:00:00.000000,0.85902747,1.76026951,3.17213002,16,33,59,9,15,27,0.48355635,0.83962268,1.44103001,0.04425915,0.09509926,0.20298427
38091,0,USNorthDakotaSteele,North Dakota,Steele,2021-01-05 13:25:13.545186,2020-07-05 00:00:00.000000,0.85918925,1.81545680,3.20127394,16,34,60,9,16,27,0.48550725,0.87564584,1.48113919,0.04309399,0.09468200,0.20364228
38091,0,USNorthDakotaSteele,North Dakota,Steele,2021-01-05 13:25:13.545186,2020-07-06 00:00:00.000000,0.97648052,1.82296858,3.29951637,18,34,62,9,17,31,0.48665404,0.90478978,1.65552934,0.04242058,0.09265089,0.20374193
38091,0,USNorthDakotaSteele,North Dakota,Steele,2021-01-05 13:25:13.545186,2020-07-07 00:00:00.000000,1.05172638,1.87800703,3.43501806,19,35,64,9,17,33,0.49488051,0.92779735,1.77935710,0.04196187,0.09287734,0.20376509
38091,0,USNorthDakotaSteele,North Dakota,Steele,2021-01-05 13:25:13.545186,2020-07-08 00:00:00.000000,1.06145653,1.89835857,3.56345887,20,35,67,9,17,34,0.49764535,0.94163283,1.85062858,0.04162979,0.09405714,0.20375932
38091,0,USNorthDakotaSteele,North Dakota,Steele,2021-01-05 13:25:13.545186,2020-07-09 00:00:00.000000,1.07098893,1.96932814,3.68382652,20,37,69,9,18,35,0.51370149,0.96894282,1.90052910,0.04131298,0.09314486,0.20372733
38091,0,USNorthDakotaSteele,North Dakota,Steele,2021-01-05 13:25:13.545186,2020-07-10 00:00:00.000000,1.07987918,2.00818311,3.77529982,20,37,71,9,18,36,0.51882495,1.00029130,1.93808179,0.04094015,0.09391537,0.20360423
38091,0,USNorthDakotaSteele,North Dakota,Steele,2021-01-05 13:25:13.545186,2020-07-11 00:00:00.000000,1.08800091,2.06511265,3.91446622,20,39,73,9,19,37,0.51112383,1.02668131,1.96796595,0.04056316,0.09412810,0.20298063
38091,0,USNorthDakotaSteele,North Dakota,Steele,2021-01-05 13:25:13.545186,2020-07-12 00:00:00.000000,1.09546430,2.10425783,4.04786700,20,39,76,9,20,39,0.51510528,1.05889858,2.07503547,0.04025810,0.09596622,0.19940823
38091,0,USNorthDakotaSteele,North Dakota,Steele,2021-01-05 13:25:13.545186,2020-07-13 00:00:00.000000,1.18202020,2.16280368,4.09667777,22,40,77,9,20,41,0.51890484,1.06718742,2.19415669,0.04006743,0.09758941,0.18465083
38091,0,USNorthDakotaSteele,North Dakota,Steele,2021-01-05 13:25:13.545186,2020-07-14 00:00:00.000000,1.25879061,2.23513927,4.14000129,23,42,78,10,20,43,0.53791933,1.08876303,2.27731861,0.03997482,0.09803316,0.18481673
38091,0,USNorthDakotaSteele,North Dakota,Steele,2021-01-05 13:25:13.545186,2020-07-15 00:00:00.000000,1.28058440,2.31019392,4.17327599,24,43,78,10,21,44,0.56655341,1.11980929,2.33287358,0.03995253,0.09623730,0.18493763
38091,0,USNorthDakotaSteele,North Dakota,Steele,2021-01-05 13:25:13.545186,2020-07-16 00:00:00.000000,1.40859471,2.37813878,4.19766916,26,44,79,11,21,44,0.60116250,1.16107650,2.33827092,0.03999698,0.09654973,0.18245834
38091,0,USNorthDakotaSteele,North Dakota,Steele,2021-01-05 13:25:13.545186,2020-07-17 00:00:00.000000,1.46608762,2.43898142,4.20919613,27,46,79,12,22,44,0.64272511,1.18249934,2.33589198,0.04027632,0.10009982,0.18293454
38091,0,USNorthDakotaSteele,North Dakota,Steele,2021-01-05 13:25:13.545186,2020-07-18 00:00:00.000000,1.50510568,2.44502813,4.20099110,28,46,79,13,22,44,0.70282685,1.21083723,2.36647711,0.04376525,0.10210931,0.18231017
38091,0,USNorthDakotaSteele,North Dakota,Steele,2021-01-05 13:25:13.545186,2020-07-19 00:00:00.000000,1.54161051,2.49230137,4.17233420,29,47,78,13,23,45,0.71863829,1.24950663,2.38968999,0.04628587,0.10142856,0.18698099
38091,0,USNorthDakotaSteele,North Dakota,Steele,2021-01-05 13:25:13.545186,2020-07-20 00:00:00.000000,1.56003760,2.51293954,4.12724092,29,47,78,14,24,44,0.75775086,1.28844485,2.37763661,0.04573778,0.10286117,0.18987631
38091,0,USNorthDakotaSteele,North Dakota,Steele,2021-01-05 13:25:13.545186,2020-07-21 00:00:00.000000,1.57686995,2.56081344,4.07612820,29,48,77,14,25,44,0.78232178,1.33145379,2.37543148,0.04550221,0.10334917,0.19000880
38091,0,USNorthDakotaSteele,North Dakota,Steele,2021-01-05 13:25:13.545186,2020-07-22 00:00:00.000000,1.54650109,2.60052543,4.02228217,29,49,76,15,25,44,0.79705547,1.35657677,2.37054774,0.04547212,0.10436631,0.19001033
38091,0,USNorthDakotaSteele,North Dakota,Steele,2021-01-05 13:25:13.545186,2020-07-23 00:00:00.000000,1.52924446,2.55816625,4.11635756,28,48,77,15,25,44,0.80523956,1.37363391,2.35831253,0.04573370,0.10497048,0.18988196
38091,0,USNorthDakotaSteele,North Dakota,Steele,2021-01-05 13:25:13.545186,2020-07-24 00:00:00.000000,1.57832793,2.64017309,4.07651076,29,49,77,15,25,44,0.81694477,1.35791723,2.36155512,0.04822625,0.10558370,0.18895209
38091,0,USNorthDakotaSteele,North Dakota,Steele,2021-01-05 13:25:13.545186,2020-07-25 00:00:00.000000,1.62701495,2.57319467,4.11762187,30,48,77,15,26,43,0.80961742,1.37637939,2.32203646,0.05242435,0.10445225,0.18035636
38091,0,USNorthDakotaSteele,North Dakota,Steele,2021-01-05 13:25:13.545186,2020-07-26 00:00:00.000000,1.66082508,2.59138988,4.18067816,31,48,79,15,26,44,0.80845292,1.40554967,2.34869682,0.05533684,0.10451121,0.17759306
38091,0,USNorthDakotaSteele,North Dakota,Steele,2021-01-05 13:25:13.545186,2020-07-27 00:00:00.000000,1.66524304,2.57815233,4.11241367,31,48,77,15,26,45,0.80675840,1.42248002,2.43156063,0.05537828,0.10385437,0.17579644
38091,0,USNorthDakotaSteele,North Dakota,Steele,2021-01-05 13:25:13.545186,2020-07-28 00:00:00.000000,1.66196193,2.56014181,4.06888598,31,48,76,15,27,46,0.83519550,1.43176801,2.46124040,0.05538776,0.10184826,0.17202328
38091,0,USNorthDakotaSteele,North Dakota,Steele,2021-01-05 13:25:13.545186,2020-07-29 00:00:00.000000,1.66279174,2.59585907,4.03073867,31,49,76,15,27,47,0.84017534,1.43118309,2.51901174,0.05539899,0.10137635,0.16825055
38091,0,USNorthDakotaSteele,North Dakota,Steele,2021-01-05 13:25:13.545186,2020-07-30 00:00:00.000000,1.66609539,2.65279168,3.98743432,31,50,75,16,26,47,0.85355485,1.41346633,2.50901687,0.05542957,0.10203429,0.16549825
38091,0,USNorthDakotaSteele,North Dakota,Steele,2021-01-05 13:25:13.545186,2020-07-31 00:00:00.000000,1.67083944,2.66998686,3.93901678,31,50,74,16,26,46,0.85030855,1.42759522,2.47628689,0.05443205,0.10234759,0.16149013
38091,0,USNorthDakotaSteele,North Dakota,Steele,2021-01-05 13:25:13.545186,2020-08-01 00:00:00.000000,1.64755790,2.68355609,3.88760949,31,50,73,16,26,46,0.84916455,1.41588847,2.43413986,0.05518610,0.10187448,0.16064499
38091,0,USNorthDakotaSteele,North Dakota,Steele,2021-01-05 13:25:13.545186,2020-08-02 00:00:00.000000,1.59792817,2.65353391,3.96599569,30,50,74,16,26,45,0.84945422,1.40076542,2.38542116,0.05709405,0.10183087,0.15406977
38091,0,USNorthDakotaSteele,North Dakota,Steele,2021-01-05 13:25:13.545186,2020-08-03 00:00:00.000000,1.57204200,2.61737199,4.01706984,29,49,75,16,26,44,0.85070327,1.40556895,2.33269100,0.05816001,0.10333871,0.15494876
38091,0,USNorthDakotaSteele,North Dakota,Steele,2021-01-05 13:25:13.545186,2020-08-04 00:00:00.000000,1.54639552,2.56229536,4.09194113,29,48,77,15,25,43,0.84221427,1.36884434,2.27784472,0.05532770,0.10407597,0.15598311
38091,0,USNorthDakotaSteele,North Dakota,Steele,2021-01-05 13:25:13.545186,2020-08-05 00:00:00.000000,1.52316363,2.53920673,4.22160873,28,47,79,15,26,43,0.83265795,1.37616008,2.28074017,0.05597796,0.10441684,0.15644395
38091,0,USNorthDakotaSteele,North Dakota,Steele,2021-01-05 13:25:13.545186,2020-08-06 00:00:00.000000,1.50212668,2.50786201,4.34871005,28,47,82,15,26,43,0.80922096,1.38180576,2.28156583,0.05633704,0.10415792,0.15923143
38091,0,USNorthDakotaSteele,North Dakota,Steele,2021-01-05 13:25:13.545186,2020-08-07 00:00:00.000000,1.44895140,2.45137779,4.32388210,27,46,81,14,26,43,0.78223437,1.37750408,2.28121035,0.05699140,0.10305687,0.15987723
38091,0,USNorthDakotaSteele,North Dakota,Steele,2021-01-05 13:25:13.545186,2020-08-08 00:00:00.000000,1.37570030,2.42281061,4.38199068,26,45,82,14,25,43,0.74167236,1.36198012,2.28042805,0.05784416,0.10234879,0.16438727
38091,0,USNorthDakotaSteele,North Dakota,Steele,2021-01-05 13:25:13.545186,2020-08-09 00:00:00.000000,1.30898105,2.41212783,4.50126119,24,45,85,13,25,43,0.70361406,1.34128431,2.27969266,0.05839862,0.10481597,0.16747698
38091,0,USNorthDakotaSteele,North Dakota,Steele,2021-01-05 13:25:13.545186,2020-08-10 00:00:00.000000,1.26666401,2.44847024,4.41349073,23,46,83,12,24,43,0.66837398,1.31309928,2.31772687,0.05676920,0.10612275,0.16586760
38091,0,USNorthDakotaSteele,North Dakota,Steele,2021-01-05 13:25:13.545186,2020-08-11 00:00:00.000000,1.23074602,2.44012147,4.38072219,23,46,82,12,24,44,0.63999288,1.31997086,2.37217801,0.05735006,0.10679634,0.17274364
38091,0,USNorthDakotaSteele,North Dakota,Steele,2021-01-05 13:25:13.545186,2020-08-12 00:00:00.000000,1.18214925,2.43005630,4.31535885,22,45,81,11,24,45,0.61655468,1.30765150,2.40503358,0.05832118,0.10781214,0.18212936
38091,0,USNorthDakotaSteele,North Dakota,Steele,2021-01-05 13:25:13.545186,2020-08-13 00:00:00.000000,1.13403396,2.39645586,4.24606611,21,45,80,11,24,45,0.59719751,1.29767978,2.41573669,0.05871776,0.10762703,0.17980195
38091,0,USNorthDakotaSteele,North Dakota,Steele,2021-01-05 13:25:13.545186,2020-08-14 00:00:00.000000,1.10650515,2.37655219,4.17676867,20,44,78,10,24,45,0.58036244,1.30842551,2.41405526,0.05958286,0.10717271,0.17587841
38091,0,USNorthDakotaSteele,North Dakota,Steele,2021-01-05 13:25:13.545186,2020-08-15 00:00:00.000000,1.11004631,2.36170189,4.19143255,20,44,79,10,24,45,0.56502316,1.30002165,2.42327488,0.06005467,0.10698879,0.17573373
38091,0,USNorthDakotaSteele,North Dakota,Steele,2021-01-05 13:25:13.545186,2020-08-16 00:00:00.000000,1.08274233,2.33672359,4.21063408,20,44,79,10,24,46,0.57935935,1.30898771,2.46444427,0.06029306,0.10910753,0.18690990
38091,0,USNorthDakotaSteele,North Dakota,Steele,2021-01-05 13:25:13.545186,2020-08-17 00:00:00.000000,1.19982447,2.34234977,4.15274470,22,44,78,10,24,47,0.55748018,1.30972063,2.50748577,0.06043073,0.11131952,0.19388415
38091,0,USNorthDakotaSteele,North Dakota,Steele,2021-01-05 13:25:13.545186,2020-08-18 00:00:00.000000,1.32417400,2.39877339,4.13186774,25,45,78,10,24,47,0.55432865,1.29320958,2.51216536,0.06159563,0.11503208,0.19744065
38091,0,USNorthDakotaSteele,North Dakota,Steele,2021-01-05 13:25:13.545186,2020-08-19 00:00:00.000000,1.42560170,2.44663366,4.04275973,26,46,76,11,24,46,0.59246832,1.28008884,2.46455493,0.06193694,0.11459868,0.19906727
38091,0,USNorthDakotaSteele,North Dakota,Steele,2021-01-05 13:25:13.545186,2020-08-20 00:00:00.000000,1.40195443,2.48586232,4.08394996,26,46,77,12,23,45,0.67987999,1.26066011,2.40530056,0.06215353,0.11520397,0.19976650
38091,0,USNorthDakotaSteele,North Dakota,Steele,2021-01-05 13:25:13.545186,2020-08-21 00:00:00.000000,1.37686238,2.48454422,4.05926677,26,46,76,15,23,44,0.79404714,1.26823666,2.33873496,0.06349521,0.11584936,0.20004380
38091,0,USNorthDakotaSteele,North Dakota,Steele,2021-01-05 13:25:13.545186,2020-08-22 00:00:00.000000,1.35134820,2.48939595,4.15698548,25,47,78,14,24,42,0.78718774,1.29888258,2.26794881,0.06889275,0.11845684,0.20012559
38091,0,USNorthDakotaSteele,North Dakota,Steele,2021-01-05 13:25:13.545186,2020-08-23 00:00:00.000000,1.32673364,2.53012661,4.30110949,25,47,81,15,24,42,0.80607964,1.30714222,2.22998098,0.06896191,0.11958025,0.19907593
38091,0,USNorthDakotaSteele,North Dakota,Steele,2021-01-05 13:25:13.545186,2020-08-24 00:00:00.000000,1.44659437,2.57613376,4.21479918,27,48,79,14,24,41,0.77510044,1.30679872,2.21988294,0.07049752,0.12120960,0.19345465
38091,0,USNorthDakotaSteele,North Dakota,Steele,2021-01-05 13:25:13.545186,2020-08-25 00:00:00.000000,1.53581744,2.63396578,4.12183236,29,49,77,15,24,42,0.80187232,1.32178220,2.22932696,0.07381889,0.12186531,0.18462533
38091,0,USNorthDakotaSteele,North Dakota,Steele,2021-01-05 13:25:13.545186,2020-08-26 00:00:00.000000,1.64965727,2.70614779,4.13073941,31,51,78,15,25,42,0.83601750,1.33846198,2.26511599,0.07314109,0.12292169,0.17731490
38091,0,USNorthDakotaSteele,North Dakota,Steele,2021-01-05 13:25:13.545186,2020-08-27 00:00:00.000000,1.67078392,2.73626487,4.41928318,31,51,83,15,25,43,0.83837467,1.36889946,2.27800089,0.07279370,0.12360756,0.18189735
38091,0,USNorthDakotaSteele,North Dakota,Steele,2021-01-05 13:25:13.545186,2020-08-28 00:00:00.000000,1.67338957,2.80856764,4.71325778,31,53,89,15,26,43,0.84103624,1.41151296,2.27631695,0.07526468,0.12396852,0.18869888
38091,0,USNorthDakotaSteele,North Dakota,Steele,2021-01-05 13:25:13.545186,2020-08-29 00:00:00.000000,1.77371989,2.80477315,5.00223709,33,53,94,15,26,42,0.84279520,1.42337358,2.27045883,0.07738798,0.12220240,0.18403928
38091,0,USNorthDakotaSteele,North Dakota,Steele,2021-01-05 13:25:13.545186,2020-08-30 00:00:00.000000,1.80788984,2.83393148,5.28134144,34,53,99,15,27,44,0.84532135,1.45862176,2.36451890,0.07787969,0.12290263,0.18305786
38091,0,USNorthDakotaSteele,North Dakota,Steele,2021-01-05 13:25:13.545186,2020-08-31 00:00:00.000000,1.89256202,2.81840036,5.18827973,35,53,98,16,27,46,0.89444452,1.45737056,2.44634763,0.07901993,0.12353342,0.18891408
38091,0,USNorthDakotaSteele,North Dakota,Steele,2021-01-05 13:25:13.545186,2020-09-01 00:00:00.000000,1.86428201,2.80981401,5.08717301,35,53,96,17,27,47,0.93762619,1.44028749,2.49967728,0.07826801,0.12505247,0.19187690
38091,0,USNorthDakotaSteele,North Dakota,Steele,2021-01-05 13:25:13.545186,2020-09-02 00:00:00.000000,1.83343467,2.78984270,4.97532040,34,52,94,18,27,47,0.95893626,1.44997254,2.53117722,0.07842186,0.12488188,0.19609353
38091,0,USNorthDakotaSteele,North Dakota,Steele,2021-01-05 13:25:13.545186,2020-09-03 00:00:00.000000,1.80324820,2.77018235,4.85679140,34,52,91,18,27,48,0.96380036,1.45815135,2.54893576,0.07899534,0.12617597,0.19724947
38091,0,USNorthDakotaSteele,North Dakota,Steele,2021-01-05 13:25:13.545186,2020-09-04 00:00:00.000000,1.77332883,2.75479585,4.73871180,33,52,89,18,27,48,0.96250249,1.45985710,2.55831966,0.07893302,0.12791948,0.19762852
38091,0,USNorthDakotaSteele,North Dakota,Steele,2021-01-05 13:25:13.545186,2020-09-05 00:00:00.000000,1.74727964,2.74236129,4.63299829,33,51,87,17,27,48,0.95198046,1.46555948,2.56325647,0.08282321,0.12927774,0.21087238
38091,0,USNorthDakotaSteele,North Dakota,Steele,2021-01-05 13:25:13.545186,2020-09-06 00:00:00.000000,1.72461199,2.70918267,4.54063088,32,51,85,18,27,48,0.95578281,1.47899380,2.56578802,0.08825098,0.13113165,0.21271106
38091,0,USNorthDakotaSteele,North Dakota,Steele,2021-01-05 13:25:13.545186,2020-09-07 00:00:00.000000,1.70785180,2.71756746,4.45105999,32,51,84,18,27,48,0.97654536,1.47513437,2.56682816,0.08882336,0.13232254,0.21956330
38091,0,USNorthDakotaSteele,North Dakota,Steele,2021-01-05 13:25:13.545186,2020-09-08 00:00:00.000000,1.68995869,2.76556109,4.38254839,31,52,82,17,27,48,0.93935301,1.48048212,2.56553325,0.08792879,0.13441225,0.22815028
38091,0,USNorthDakotaSteele,North Dakota,Steele,2021-01-05 13:25:13.545186,2020-09-09 00:00:00.000000,1.65233959,2.78527201,4.28721044,31,52,81,17,28,48,0.91168964,1.48758837,2.56215476,0.08777775,0.13882243,0.22932777
38091,0,USNorthDakotaSteele,North Dakota,Steele,2021-01-05 13:25:13.545186,2020-09-10 00:00:00.000000,1.63495648,2.75588036,4.21096085,30,52,79,17,28,47,0.90697249,1.50077169,2.53644572,0.08954108,0.14158644,0.22899672
38091,0,USNorthDakotaSteele,North Dakota,Steele,2021-01-05 13:25:13.545186,2020-09-11 00:00:00.000000,1.62071002,2.75732394,4.13627509,30,52,78,16,28,46,0.87962107,1.48881472,2.45462797,0.09202736,0.14447864,0.23226145
38091,0,USNorthDakotaSteele,North Dakota,Steele,2021-01-05 13:25:13.545186,2020-09-12 00:00:00.000000,1.60948205,2.74832373,4.09806023,30,51,77,15,28,44,0.84617465,1.49221171,2.37246199,0.09496108,0.14592057,0.23508581
38091,0,USNorthDakotaSteele,North Dakota,Steele,2021-01-05 13:25:13.545186,2020-09-13 00:00:00.000000,1.60047160,2.76399733,4.10819824,30,52,77,15,27,46,0.81475882,1.46593184,2.43542960,0.09824255,0.14860122,0.23141624
38091,0,USNorthDakotaSteele,North Dakota,Steele,2021-01-05 13:25:13.545186,2020-09-14 00:00:00.000000,1.67443060,2.76086375,4.11461168,31,52,77,14,27,47,0.78523087,1.47521056,2.50443758,0.10186010,0.15553451,0.23805253
38091,0,USNorthDakotaSteele,North Dakota,Steele,2021-01-05 13:25:13.545186,2020-09-15 00:00:00.000000,1.74870120,2.77130101,4.20148061,33,52,79,14,28,48,0.79115690,1.48322535,2.55835060,0.10331749,0.16140040,0.24268562
38091,0,USNorthDakotaSteele,North Dakota,Steele,2021-01-05 13:25:13.545186,2020-09-16 00:00:00.000000,1.82464017,2.77981854,4.30880837,34,52,81,15,27,48,0.81343785,1.47629608,2.56338570,0.10405023,0.16456802,0.25336730
38091,0,USNorthDakotaSteele,North Dakota,Steele,2021-01-05 13:25:13.545186,2020-09-17 00:00:00.000000,1.83304748,2.77579247,4.41784039,34,52,83,15,28,48,0.84322747,1.48358907,2.56743792,0.10519892,0.17243586,0.27070046
38091,0,USNorthDakotaSteele,North Dakota,Steele,2021-01-05 13:25:13.545186,2020-09-18 00:00:00.000000,1.85700320,2.80340034,4.52693905,35,52,85,16,28,48,0.87569002,1.50834809,2.56842136,0.11244509,0.17283614,0.27247540
38091,0,USNorthDakotaSteele,North Dakota,Steele,2021-01-05 13:25:13.545186,2020-09-19 00:00:00.000000,1.86083362,2.83452975,4.63457203,35,53,87,17,28,48,0.90880519,1.50846385,2.54220156,0.11907190,0.17928302,0.26993143
38091,0,USNorthDakotaSteele,North Dakota,Steele,2021-01-05 13:25:13.545186,2020-09-20 00:00:00.000000,1.88080045,2.82158521,4.64327807,35,53,87,17,28,47,0.93098696,1.51014107,2.51547346,0.12388099,0.18985384,0.27406274
38091,0,USNorthDakotaSteele,North Dakota,Steele,2021-01-05 13:25:13.545186,2020-09-21 00:00:00.000000,1.86856722,2.90131681,4.59816209,35,54,86,17,28,47,0.92961930,1.51517228,2.48932293,0.12487780,0.20331489,0.27721866
38091,0,USNorthDakotaSteele,North Dakota,Steele,2021-01-05 13:25:13.545186,2020-09-22 00:00:00.000000,1.86983941,2.95068609,4.60918252,35,55,87,18,29,46,0.95273990,1.54446234,2.47558939,0.12793851,0.20701367,0.28542975
38091,0,USNorthDakotaSteele,North Dakota,Steele,2021-01-05 13:25:13.545186,2020-09-23 00:00:00.000000,1.90594564,3.02275083,4.64812822,36,57,87,17,29,48,0.93937342,1.55850327,2.54449718,0.13432665,0.21092358,0.29496135
38091,0,USNorthDakotaSteele,North Dakota,Steele,2021-01-05 13:25:13.545186,2020-09-24 00:00:00.000000,1.94248222,3.09647437,4.66525526,36,58,88,18,29,48,0.95991989,1.57232888,2.57598783,0.14848037,0.21555461,0.32315143
38091,0,USNorthDakotaSteele,North Dakota,Steele,2021-01-05 13:25:13.545186,2020-09-25 00:00:00.000000,1.97889009,3.18996620,4.81564626,37,60,91,18,30,48,0.97879255,1.59746314,2.58268227,0.15557688,0.22322105,0.35323179
38091,0,USNorthDakotaSteele,North Dakota,Steele,2021-01-05 13:25:13.545186,2020-09-26 00:00:00.000000,2.00118796,3.23692794,4.96924519,37,61,93,18,30,49,0.99755781,1.61917787,2.60193334,0.16514366,0.22900654,0.40389167
38091,0,USNorthDakotaSteele,North Dakota,Steele,2021-01-05 13:25:13.545186,2020-09-27 00:00:00.000000,1.99330102,3.34025401,5.06127657,37,63,95,18,31,49,1.00254207,1.67670545,2.63280020,0.16965078,0.23624327,0.46060619
38091,0,USNorthDakotaSteele,North Dakota,Steele,2021-01-05 13:25:13.545186,2020-09-28 00:00:00.000000,1.98040206,3.48258952,5.12904830,37,65,96,18,32,50,1.00527345,1.72795406,2.67258210,0.18162401,0.25290685,0.47201454
38091,0,USNorthDakotaSteele,North Dakota,Steele,2021-01-05 13:25:13.545186,2020-09-29 00:00:00.000000,2.02352715,3.57364919,5.16656519,38,67,97,19,33,51,1.03292394,1.78841306,2.73099751,0.18357340,0.25654213,0.47587334
38091,0,USNorthDakotaSteele,North Dakota,Steele,2021-01-05 13:25:13.545186,2020-09-30 00:00:00.000000,2.16715636,3.64275926,5.31858488,40,68,100,19,34,52,1.03296852,1.84808519,2.80215566,0.18570167,0.26831202,0.48059467
38091,0,USNorthDakotaSteele,North Dakota,Steele,2021-01-05 13:25:13.545186,2020-10-01 00:00:00.000000,2.14909172,3.74903422,5.66173602,40,70,107,19,35,54,1.02572685,1.88757849,2.88231469,0.18805310,0.27880150,0.51982836
38091,0,USNorthDakotaSteele,North Dakota,Steele,2021-01-05 13:25:13.545186,2020-10-02 00:00:00.000000,2.26016447,3.88503155,6.01554561,42,73,113,20,36,56,1.07307495,1.91821979,3.00868101,0.19263898,0.29368322,0.52589964
38091,0,USNorthDakotaSteele,North Dakota,Steele,2021-01-05 13:25:13.545186,2020-10-03 00:00:00.000000,2.37100425,4.04676210,6.37902466,44,76,120,21,36,60,1.14043455,1.95501236,3.17534582,0.20179196,0.31094080,0.52356527
38091,0,USNorthDakotaSteele,North Dakota,Steele,2021-01-05 13:25:13.545186,2020-10-04 00:00:00.000000,2.48457611,4.25930453,6.75232636,46,80,127,22,38,63,1.21180528,2.02424640,3.36042546,0.21585244,0.32685053,0.52119651
38091,0,USNorthDakotaSteele,North Dakota,Steele,2021-01-05 13:25:13.545186,2020-10-05 00:00:00.000000,2.53051089,4.55243065,6.92032888,47,86,130,24,40,67,1.27250722,2.13973081,3.56505162,0.23147543,0.34124744,0.51976189
38091,0,USNorthDakotaSteele,North Dakota,Steele,2021-01-05 13:25:13.545186,2020-10-06 00:00:00.000000,2.72097211,4.78409502,7.00645965,51,90,132,25,42,70,1.32845254,2.23287122,3.74770897,0.22825955,0.35731436,0.53009294
38091,0,USNorthDakotaSteele,North Dakota,Steele,2021-01-05 13:25:13.545186,2020-10-07 00:00:00.000000,3.02697370,5.07180806,7.51827272,57,95,142,26,43,74,1.42493462,2.30967245,3.91837671,0.22873401,0.37574801,0.54270347
38091,0,USNorthDakotaSteele,North Dakota,Steele,2021-01-05 13:25:13.545186,2020-10-08 00:00:00.000000,3.16561583,5.34865077,8.01505914,59,101,151,28,45,76,1.49338725,2.41093742,4.05404139,0.23331379,0.39701382,0.55815716
38091,0,USNorthDakotaSteele,North Dakota,Steele,2021-01-05 13:25:13.545186,2020-10-09 00:00:00.000000,3.34838739,5.74849832,8.55856307,63,108,161,29,47,80,1.58006613,2.53440921,4.25654691,0.24587595,0.41340231,0.60725435
38091,0,USNorthDakotaSteele,North Dakota,Steele,2021-01-05 13:25:13.545186,2020-10-10 00:00:00.000000,3.59063110,6.12043323,9.11226109,67,115,172,31,51,82,1.67833348,2.70258236,4.38431812,0.25799556,0.44195702,0.62654627
38091,0,USNorthDakotaSteele,North Dakota,Steele,2021-01-05 13:25:13.545186,2020-10-11 00:00:00.000000,3.87726024,6.52011125,9.73188203,73,123,183,33,53,85,1.77371510,2.83309311,4.51803234,0.26211740,0.47109599,0.64011561
38091,0,USNorthDakotaSteele,North Dakota,Steele,2021-01-05 13:25:13.545186,2020-10-12 00:00:00.000000,4.23574298,7.03856299,10.63179554,80,133,200,35,57,90,1.86651640,3.02605316,4.78564820,0.27307048,0.49811656,0.64828107
38091,0,USNorthDakotaSteele,North Dakota,Steele,2021-01-05 13:25:13.545186,2020-10-13 00:00:00.000000,4.53914186,7.61403106,11.54319644,85,143,218,37,61,96,1.99347126,3.24460252,5.12574124,0.29858547,0.51445793,0.66450468
38091,0,USNorthDakotaSteele,North Dakota,Steele,2021-01-05 13:25:13.545186,2020-10-14 00:00:00.000000,4.91492180,8.19179989,12.48046268,92,154,235,40,66,105,2.13323443,3.51418737,5.56153698,0.30620674,0.52349492,0.68187251
38091,0,USNorthDakotaSteele,North Dakota,Steele,2021-01-05 13:25:13.545186,2020-10-15 00:00:00.000000,5.34522070,8.76239914,13.43386258,101,165,253,43,71,110,2.27524683,3.77904673,5.86277738,0.31323162,0.53605163,0.71476419
38091,0,USNorthDakotaSteele,North Dakota,Steele,2021-01-05 13:25:13.545186,2020-10-16 00:00:00.000000,5.80870058,9.61318494,14.40622508,109,181,272,46,76,115,2.44744108,4.02712880,6.13152204,0.33412375,0.55288960,0.73172101
38091,0,USNorthDakotaSteele,North Dakota,Steele,2021-01-05 13:25:13.545186,2020-10-17 00:00:00.000000,6.30075442,10.45692845,15.39756950,119,197,291,50,82,124,2.68301747,4.37376879,6.58825723,0.37256164,0.57345320,0.75181495
38091,0,USNorthDakotaSteele,North Dakota,Steele,2021-01-05 13:25:13.545186,2020-10-18 00:00:00.000000,6.84027223,11.27239853,16.44261537,129,213,310,56,91,136,2.99664121,4.82554636,7.23261094,0.39895811,0.58650812,0.77454649
38091,0,USNorthDakotaSteele,North Dakota,Steele,2021-01-05 13:25:13.545186,2020-10-19 00:00:00.000000,7.59826579,12.14826122,17.40416796,143,229,328,61,98,149,3.24533429,5.20312710,7.91788923,0.40853734,0.58856902,0.79019413
38091,0,USNorthDakotaSteele,North Dakota,Steele,2021-01-05 13:25:13.545186,2020-10-20 00:00:00.000000,8.39819363,13.06149867,18.38727834,158,246,347,67,106,162,3.54874909,5.61241013,8.61395471,0.42273046,0.58872621,0.79899135
38091,0,USNorthDakotaSteele,North Dakota,Steele,2021-01-05 13:25:13.545186,2020-10-21 00:00:00.000000,9.24776302,13.90994943,19.36259677,174,262,365,73,113,176,3.87054473,5.98857317,9.32603432,0.42316493,0.58348969,0.80375648
38091,0,USNorthDakotaSteele,North Dakota,Steele,2021-01-05 13:25:13.545186,2020-10-22 00:00:00.000000,10.14708879,15.00768441,20.30472662,191,283,383,79,120,185,4.22125414,6.38697993,9.83637961,0.43393731,0.58147633,0.81175457
38091,0,USNorthDakotaSteele,North Dakota,Steele,2021-01-05 13:25:13.545186,2020-10-23 00:00:00.000000,11.02024952,15.92924961,21.18517466,208,301,400,86,130,194,4.59826196,6.88093930,10.30700823,0.43060887,0.57594961,0.84171987
38091,0,USNorthDakotaSteele,North Dakota,Steele,2021-01-05 13:25:13.545186,2020-10-24 00:00:00.000000,11.97070914,16.89931849,22.31744243,226,319,421,94,138,203,4.98957652,7.35109859,10.74843590,0.42909617,0.56885314,0.80134146
38091,0,USNorthDakotaSteele,North Dakota,Steele,2021-01-05 13:25:13.545186,2020-10-25 00:00:00.000000,12.73442110,17.76987957,23.42923148,240,335,442,101,148,214,5.38726575,7.87277634,11.34990583,0.42861307,0.56597266,0.81187107
38091,0,USNorthDakotaSteele,North Dakota,Steele,2021-01-05 13:25:13.545186,2020-10-26 00:00:00.000000,13.44979364,18.76055960,24.44847001,254,354,462,110,157,225,5.85586124,8.31469771,11.92288162,0.42553549,0.56324751,0.79939694
38091,0,USNorthDakotaSteele,North Dakota,Steele,2021-01-05 13:25:13.545186,2020-10-27 00:00:00.000000,14.16508662,19.57599610,25.80526784,267,369,487,119,167,236,6.29965142,8.83839047,12.49729173,0.42328279,0.55254419,0.78774975
38091,0,USNorthDakotaSteele,North Dakota,Steele,2021-01-05 13:25:13.545186,2020-10-28 00:00:00.000000,14.56391657,20.34867565,26.57647451,275,384,502,127,175,246,6.76203339,9.29793846,13.05751713,0.42243468,0.56117844,0.78450254
38091,0,USNorthDakotaSteele,North Dakota,Steele,2021-01-05 13:25:13.545186,2020-10-29 00:00:00.000000,15.00558523,21.13069772,27.71929091,283,399,523,134,184,256,7.12722542,9.76192475,13.59761019,0.42237821,0.56342987,0.79499488
38091,0,USNorthDakotaSteele,North Dakota,Steele,2021-01-05 13:25:13.545186,2020-10-30 00:00:00.000000,15.84005424,21.89946861,28.56876522,299,413,539,141,192,266,7.48387657,10.20909639,14.11204798,0.42216389,0.56451604,0.78003509
38091,0,USNorthDakotaSteele,North Dakota,Steele,2021-01-05 13:25:13.545186,2020-10-31 00:00:00.000000,16.51010298,22.56313800,29.22908978,312,426,552,148,200,275,7.84068259,10.63485532,14.59091491,0.42118340,0.56779195,0.79367564
38091,0,USNorthDakotaSteele,North Dakota,Steele,2021-01-05 13:25:13.545186,2020-11-01 00:00:00.000000,16.95528954,23.06165819,29.68091639,320,435,560,152,210,284,8.08811426,11.12577709,15.03270626,0.41732373,0.56774363,0.83742356
38091,0,USNorthDakotaSteele,North Dakota,Steele,2021-01-05 13:25:13.545186,2020-11-02 00:00:00.000000,17.31818642,23.50824134,30.17395953,327,444,570,154,219,291,8.17800351,11.63014731,15.42897619,0.41734495,0.57122747,0.86016292
38091,0,USNorthDakotaSteele,North Dakota,Steele,2021-01-05 13:25:13.545186,2020-11-03 00:00:00.000000,17.69332767,24.01773714,30.53903619,334,453,577,160,227,297,8.47327760,12.01101151,15.76562364,0.42017217,0.57503142,0.86953490
38091,0,USNorthDakotaSteele,North Dakota,Steele,2021-01-05 13:25:13.545186,2020-11-04 00:00:00.000000,18.06229500,24.56175393,31.09814829,341,464,587,163,233,303,8.62687088,12.37885115,16.04596672,0.40982374,0.59239568,0.88454692
38091,0,USNorthDakotaSteele,North Dakota,Steele,2021-01-05 13:25:13.545186,2020-11-05 00:00:00.000000,18.42896863,25.57438189,31.17693944,348,483,589,164,240,307,8.72006878,12.73810727,16.27126751,0.40701144,0.60607799,0.90429838
38091,0,USNorthDakotaSteele,North Dakota,Steele,2021-01-05 13:25:13.545186,2020-11-06 00:00:00.000000,18.88017632,26.20905843,32.15088866,356,495,607,166,247,311,8.81398887,13.07869385,16.46346724,0.42134664,0.61984691,0.93054616
38091,0,USNorthDakotaSteele,North Dakota,Steele,2021-01-05 13:25:13.545186,2020-11-07 00:00:00.000000,19.53638168,26.74221016,33.08278763,369,505,625,171,254,314,9.07611258,13.48518635,16.61792568,0.44698429,0.63341261,0.96265753
38091,0,USNorthDakotaSteele,North Dakota,Steele,2021-01-05 13:25:13.545186,2020-11-08 00:00:00.000000,20.16673325,27.24176837,34.21652898,381,514,646,177,262,316,9.40507338,13.89299850,16.75971825,0.46261415,0.63642696,0.99562742
38091,0,USNorthDakotaSteele,North Dakota,Steele,2021-01-05 13:25:13.545186,2020-11-09 00:00:00.000000,20.48969398,27.82508321,34.81032376,387,525,657,184,268,327,9.73805567,14.22745244,17.32690689,0.46924958,0.66317035,1.02556315
38091,0,USNorthDakotaSteele,North Dakota,Steele,2021-01-05 13:25:13.545186,2020-11-10 00:00:00.000000,20.57953218,28.15886615,35.29203732,388,532,667,189,274,339,10.00699213,14.50505456,17.96575705,0.47324999,0.66765931,1.05260321
38091,0,USNorthDakotaSteele,North Dakota,Steele,2021-01-05 13:25:13.545186,2020-11-11 00:00:00.000000,20.92079894,28.55055996,35.75308371,395,539,675,195,279,346,10.35219389,14.79580755,18.32886206,0.47634843,0.69035692,1.06373289
38091,0,USNorthDakotaSteele,North Dakota,Steele,2021-01-05 13:25:13.545186,2020-11-12 00:00:00.000000,21.15460589,28.46018695,36.06304389,399,537,681,197,281,348,10.43449038,14.88931721,18.43210186,0.47717796,0.70138727,1.06427409
38091,0,USNorthDakotaSteele,North Dakota,Steele,2021-01-05 13:25:13.545186,2020-11-13 00:00:00.000000,21.27260081,28.38920221,36.21494327,402,536,684,200,288,355,10.60522213,15.24979139,18.82566549,0.47787633,0.71208211,1.06571609
38091,0,USNorthDakotaSteele,North Dakota,Steele,2021-01-05 13:25:13.545186,2020-11-14 00:00:00.000000,20.88009689,28.43426168,36.19907803,394,537,684,202,290,361,10.69909952,15.37671285,19.13864910,0.48149474,0.71431539,1.07096520
38091,0,USNorthDakotaSteele,North Dakota,Steele,2021-01-05 13:25:13.545186,2020-11-15 00:00:00.000000,20.29681799,28.35806629,36.02277347,383,535,680,198,292,365,10.52295617,15.49612705,19.36090752,0.48392750,0.73436405,1.08866750
38091,0,USNorthDakotaSteele,North Dakota,Steele,2021-01-05 13:25:13.545186,2020-11-16 00:00:00.000000,19.69834923,28.26001234,35.68669763,372,534,674,194,293,376,10.30623096,15.51329181,19.92369051,0.48168990,0.73572192,1.11068992
38091,0,USNorthDakotaSteele,North Dakota,Steele,2021-01-05 13:25:13.545186,2020-11-17 00:00:00.000000,19.07103041,28.04845808,35.32490714,360,530,667,190,292,376,10.08347542,15.49791098,19.92345055,0.47167643,0.73738205,1.11840191
38091,0,USNorthDakotaSteele,North Dakota,Steele,2021-01-05 13:25:13.545186,2020-11-18 00:00:00.000000,18.58385030,27.66686487,34.68668565,351,522,655,189,292,374,10.02127463,15.46645333,19.80658856,0.46779111,0.73713873,1.13118879
38091,0,USNorthDakotaSteele,North Dakota,Steele,2021-01-05 13:25:13.545186,2020-11-19 00:00:00.000000,18.16594151,27.48503961,34.48303756,343,519,651,188,289,370,9.94847401,15.31877467,19.60082914,0.46379458,0.74624217,1.22169044
38091,0,USNorthDakotaSteele,North Dakota,Steele,2021-01-05 13:25:13.545186,2020-11-20 00:00:00.000000,17.75471085,26.90411145,34.39053085,335,508,649,182,285,367,9.63344043,15.11433813,19.44410013,0.47080882,0.74942175,1.24189275
38091,0,USNorthDakotaSteele,North Dakota,Steele,2021-01-05 13:25:13.545186,2020-11-21 00:00:00.000000,17.35760549,26.35506812,34.16991878,328,498,645,177,280,363,9.37341579,14.85522743,19.25668867,0.48015376,0.74692619,1.26131450
38091,0,USNorthDakotaSteele,North Dakota,Steele,2021-01-05 13:25:13.545186,2020-11-22 00:00:00.000000,16.96614257,25.59259754,33.83390166,320,483,639,173,274,363,9.17359144,14.54384289,19.23000879,0.47867937,0.76304896,1.27618539
38091,0,USNorthDakotaSteele,North Dakota,Steele,2021-01-05 13:25:13.545186,2020-11-23 00:00:00.000000,16.58808960,24.84375988,33.12888252,313,469,626,166,268,363,8.82618980,14.19775631,19.20865261,0.47909250,0.76619790,1.28312400
38091,0,USNorthDakotaSteele,North Dakota,Steele,2021-01-05 13:25:13.545186,2020-11-24 00:00:00.000000,15.72005816,24.12913311,32.54486336,297,456,615,159,262,360,8.43130968,13.90095324,19.09425555,0.47041202,0.76855075,1.28145066
38091,0,USNorthDakotaSteele,North Dakota,Steele,2021-01-05 13:25:13.545186,2020-11-25 00:00:00.000000,14.81388110,23.28821290,31.99238255,279,440,604,151,256,357,8.01730409,13.57306962,18.89843185,0.48055765,0.78039735,1.29913233
38091,0,USNorthDakotaSteele,North Dakota,Steele,2021-01-05 13:25:13.545186,2020-11-26 00:00:00.000000,13.91594383,22.33145840,31.32092590,263,422,591,144,249,352,7.64517265,13.21660131,18.63140062,0.48567710,0.79737033,1.36668626
38091,0,USNorthDakotaSteele,North Dakota,Steele,2021-01-05 13:25:13.545186,2020-11-27 00:00:00.000000,13.03490621,21.60698443,30.10577876,246,408,568,138,241,346,7.32262505,12.76297521,18.30999661,0.49533740,0.79513908,1.41836578
38091,0,USNorthDakotaSteele,North Dakota,Steele,2021-01-05 13:25:13.545186,2020-11-28 00:00:00.000000,12.17779495,20.82454954,28.87367836,230,393,545,132,232,339,7.00625837,12.29691500,17.97187127,0.50169843,0.79191464,1.45371565
38091,0,USNorthDakotaSteele,North Dakota,Steele,2021-01-05 13:25:13.545186,2020-11-29 00:00:00.000000,11.46619277,19.89537227,27.64021300,216,376,522,126,226,332,6.69945155,11.99580240,17.61297617,0.50119671,0.79101745,1.47647952
38091,0,USNorthDakotaSteele,North Dakota,Steele,2021-01-05 13:25:13.545186,2020-11-30 00:00:00.000000,11.06950000,19.00565840,26.45345394,209,359,499,120,219,325,6.40009895,11.62251201,17.23197654,0.50069419,0.78841611,1.49036467
38091,0,USNorthDakotaSteele,North Dakota,Steele,2021-01-05 13:25:13.545186,2020-12-01 00:00:00.000000,10.70312845,18.12007217,25.16837117,202,342,475,115,210,317,6.13507232,11.13819494,16.82456630,0.50040264,0.78755020,1.49846999
38091,0,USNorthDakotaSteele,North Dakota,Steele,2021-01-05 13:25:13.545186,2020-12-02 00:00:00.000000,10.29305692,17.26232922,24.31875446,194,326,459,111,201,309,5.89772667,10.66290834,16.39537230,0.50088452,0.78911848,1.50293235
38091,0,USNorthDakotaSteele,North Dakota,Steele,2021-01-05 13:25:13.545186,2020-12-03 00:00:00.000000,9.91749472,16.42804246,23.39278764,187,310,442,107,192,301,5.68291334,10.19575167,15.93722296,0.50304201,0.81537679,1.50500971
38091,0,USNorthDakotaSteele,North Dakota,Steele,2021-01-05 13:25:13.545186,2020-12-04 00:00:00.000000,9.63508510,15.73144029,22.57142126,182,297,426,103,184,291,5.48704659,9.75619406,15.42028014,0.49385569,0.80973732,1.51909660
38091,0,USNorthDakotaSteele,North Dakota,Steele,2021-01-05 13:25:13.545186,2020-12-05 00:00:00.000000,9.36650672,14.91983721,21.72545316,177,281,410,100,176,275,5.30581049,9.35109715,14.55219953,0.47513897,0.82067215,1.65553961
38091,0,USNorthDakotaSteele,North Dakota,Steele,2021-01-05 13:25:13.545186,2020-12-06 00:00:00.000000,8.76314085,14.23355296,20.85557143,165,269,394,97,169,260,5.14898326,8.96363919,13.75785997,0.45178416,0.81704769,1.68319232
38091,0,USNorthDakotaSteele,North Dakota,Steele,2021-01-05 13:25:13.545186,2020-12-07 00:00:00.000000,8.27870762,13.59413139,19.95100083,156,256,377,93,161,249,4.97303941,8.53078569,13.18364510,0.46927235,0.80805204,1.86254787
38091,0,USNorthDakotaSteele,North Dakota,Steele,2021-01-05 13:25:13.545186,2020-12-08 00:00:00.000000,7.83338549,12.82962947,19.04026530,148,242,359,89,151,238,4.72285288,7.99902456,12.62292002,0.47414977,0.80487159,1.91197241
38091,0,USNorthDakotaSteele,North Dakota,Steele,2021-01-05 13:25:13.545186,2020-12-09 00:00:00.000000,7.36928548,12.28620725,18.13501463,139,232,342,83,143,228,4.43388443,7.56831829,12.07662728,0.47301738,0.80692192,1.95944441
38091,0,USNorthDakotaSteele,North Dakota,Steele,2021-01-05 13:25:13.545186,2020-12-10 00:00:00.000000,6.83988140,11.67572239,17.24058772,129,220,325,78,137,218,4.16484213,7.25284107,11.54576040,0.47129864,0.80417003,2.02927155
38091,0,USNorthDakotaSteele,North Dakota,Steele,2021-01-05 13:25:13.545186,2020-12-11 00:00:00.000000,6.47405881,11.09086980,16.35918392,122,209,309,74,131,208,3.91616624,6.93755849,11.03121922,0.46022647,0.81069650,2.07409194
38091,0,USNorthDakotaSteele,North Dakota,Steele,2021-01-05 13:25:13.545186,2020-12-12 00:00:00.000000,6.18653734,10.44404021,15.49877472,116,197,292,69,125,199,3.68896586,6.62533611,10.53375026,0.43726713,0.83609650,2.08744422
38091,0,USNorthDakotaSteele,North Dakota,Steele,2021-01-05 13:25:13.545186,2020-12-13 00:00:00.000000,5.91899090,9.94817346,14.66947843,111,188,277,65,119,190,3.48414593,6.31017064,10.05394671,0.42602463,0.84958203,2.10983757
38091,0,USNorthDakotaSteele,North Dakota,Steele,2021-01-05 13:25:13.545186,2020-12-14 00:00:00.000000,5.59496024,9.39451461,13.90673183,105,177,262,62,113,181,3.30094517,5.99323081,9.59211966,0.42123160,0.84781735,2.08648809
38091,0,USNorthDakotaSteele,North Dakota,Steele,2021-01-05 13:25:13.545186,2020-12-15 00:00:00.000000,5.29133529,9.02038958,13.16905361,100,170,248,59,107,172,3.12434666,5.69572905,9.14118436,0.41979667,0.86228214,2.08696235
38091,0,USNorthDakotaSteele,North Dakota,Steele,2021-01-05 13:25:13.545186,2020-12-16 00:00:00.000000,5.00502440,8.55438905,12.47919428,94,161,235,55,102,164,2.95601728,5.42026265,8.70246203,0.42015330,0.88074008,2.08736995
38091,0,USNorthDakotaSteele,North Dakota,Steele,2021-01-05 13:25:13.545186,2020-12-17 00:00:00.000000,4.88822252,8.08073855,11.91432136,92,152,225,52,97,156,2.79632374,5.13508657,8.27762836,0.42345406,0.88608984,2.08431130
38091,0,USNorthDakotaSteele,North Dakota,Steele,2021-01-05 13:25:13.545186,2020-12-18 00:00:00.000000,4.65579970,7.58088877,11.39644122,87,143,215,49,91,148,2.64517005,4.86400891,7.86806576,0.43433753,0.88609167,2.09971445
38091,0,USNorthDakotaSteele,North Dakota,Steele,2021-01-05 13:25:13.545186,2020-12-19 00:00:00.000000,4.44610754,7.10844888,10.89871063,84,134,205,47,87,141,2.50235216,4.60651858,7.47476825,0.43761206,0.86668353,2.09408393
38091,0,USNorthDakotaSteele,North Dakota,Steele,2021-01-05 13:25:13.545186,2020-12-20 00:00:00.000000,4.14016482,6.86452813,10.41488033,78,129,196,44,82,134,2.37448046,4.34061168,7.13790329,0.42782616,0.86062749,2.10154996
38091,0,USNorthDakotaSteele,North Dakota,Steele,2021-01-05 13:25:13.545186,2020-12-21 00:00:00.000000,4.13322234,6.55723041,9.97839636,78,123,188,44,76,129,2.33824115,4.06947310,6.83038497,0.42052153,0.85305320,2.11500999
38091,0,USNorthDakotaSteele,North Dakota,Steele,2021-01-05 13:25:13.545186,2020-12-22 00:00:00.000000,3.96219998,6.21132665,9.55932659,74,117,180,42,72,123,2.27230872,3.83063634,6.53799058,0.40412886,0.86086007,2.13520199
38091,0,USNorthDakotaSteele,North Dakota,Steele,2021-01-05 13:25:13.545186,2020-12-23 00:00:00.000000,3.69651775,5.92891528,9.16240106,69,112,173,40,68,118,2.16152355,3.63174465,6.25940320,0.38647378,0.85446056,2.15339392
38091,0,USNorthDakotaSteele,North Dakota,Steele,2021-01-05 13:25:13.545186,2020-12-24 00:00:00.000000,3.54792542,5.65901547,8.78730791,67,106,166,39,65,113,2.06776281,3.46222197,5.99428488,0.38660072,0.85712261,2.15004869
38091,0,USNorthDakotaSteele,North Dakota,Steele,2021-01-05 13:25:13.545186,2020-12-25 00:00:00.000000,3.44623416,5.38777727,8.43327175,65,101,159,37,62,108,1.98764694,3.29758821,5.74235854,0.39398255,0.83582975,2.08273431
38091,0,USNorthDakotaSteele,North Dakota,Steele,2021-01-05 13:25:13.545186,2020-12-26 00:00:00.000000,3.24509798,5.08633564,8.10253593,61,96,153,36,59,104,1.91858176,3.14993012,5.50330684,0.39079420,0.83656091,2.10645197
38091,0,USNorthDakotaSteele,North Dakota,Steele,2021-01-05 13:25:13.545186,2020-12-27 00:00:00.000000,3.02831736,4.80195944,7.79301538,57,90,147,34,56,99,1.84564948,3.01304025,5.27677142,0.38517881,0.85446133,2.17845864
38091,0,USNorthDakotaSteele,North Dakota,Steele,2021-01-05 13:25:13.545186,2020-12-28 00:00:00.000000,2.76604823,4.46108705,7.33716555,52,84,138,32,54,95,1.71700485,2.87628472,5.06234473,0.37783170,0.83559389,2.20734595
38091,0,USNorthDakotaSteele,North Dakota,Steele,2021-01-05 13:25:13.545186,2020-12-29 00:00:00.000000,2.52210531,4.16520650,6.90081218,47,78,130,30,51,91,1.58850715,2.74354178,4.86306258,0.38456699,0.82471933,2.21679069
38091,0,USNorthDakotaSteele,North Dakota,Steele,2021-01-05 13:25:13.545186,2020-12-30 00:00:00.000000,2.29466260,3.83258173,6.48548723,43,72,122,27,48,87,1.46296423,2.56518685,4.65508264,0.39092858,0.82512740,2.22026985
38091,0,USNorthDakotaSteele,North Dakota,Steele,2021-01-05 13:25:13.545186,2020-12-31 00:00:00.000000,2.08383732,3.53910158,6.09513196,39,66,115,25,45,83,1.34227653,2.40399238,4.43992360,0.39552222,0.82605810,2.22189034
38091,0,USNorthDakotaSteele,North Dakota,Steele,2021-01-05 13:25:13.545186,2021-01-01 00:00:00.000000,1.88935055,3.27422287,5.72950763,35,61,108,23,42,79,1.22766893,2.24171736,4.21654119,0.40113241,0.83433193,2.22568231
38091,0,USNorthDakotaSteele,North Dakota,Steele,2021-01-05 13:25:13.545186,2021-01-02 00:00:00.000000,1.71064968,3.03810938,5.38303393,32,57,101,21,39,74,1.11986709,2.07007861,3.95430103,0.39874300,0.83853608,2.28531563
38091,0,USNorthDakotaSteele,North Dakota,Steele,2021-01-05 13:25:13.545186,2021-01-03 00:00:00.000000,1.55301561,2.79448066,5.05365159,29,52,95,19,36,69,1.01923112,1.91381755,3.70275991,0.39468773,0.84246683,2.58936364
38091,0,USNorthDakotaSteele,North Dakota,Steele,2021-01-05 13:25:13.545186,2021-01-04 00:00:00.000000,1.40773700,2.55731921,4.74115668,26,48,89,17,33,65,0.92585663,1.75678612,3.48661862,0.39049177,0.85261696,2.88973161
38091,0,USNorthDakotaSteele,North Dakota,Steele,2021-01-05 13:25:13.545186,2021-01-05 00:00:00.000000,1.26952522,2.31985320,4.44518450,23,43,84,15,30,62,0.83965139,1.61701400,3.28560669,0.38635607,0.84805209,3.01355306
38091,0,USNorthDakotaSteele,North Dakota,Steele,2021-01-05 13:25:13.545186,2021-01-06 00:00:00.000000,1.14467011,2.10330560,4.16528388,21,39,78,14,28,58,0.76286815,1.48825768,3.09310967,0.38344576,0.84488033,3.04580582
38091,0,USNorthDakotaSteele,North Dakota,Steele,2021-01-05 13:25:13.545186,2021-01-07 00:00:00.000000,1.02374144,1.90611106,3.90093948,19,36,73,13,25,54,0.69687413,1.36766805,2.90926540,0.38147074,0.84273059,3.05300974
38091,0,USNorthDakotaSteele,North Dakota,Steele,2021-01-05 13:25:13.545186,2021-01-08 00:00:00.000000,0.92118506,1.73198215,3.65159002,17,32,69,12,23,51,0.63605466,1.25440972,2.73410057,0.38016321,0.84129807,3.05455698
38091,0,USNorthDakotaSteele,North Dakota,Steele,2021-01-05 13:25:13.545186,2021-01-09 00:00:00.000000,0.82846926,1.57463522,3.41664303,15,29,64,10,21,48,0.56906381,1.14166847,2.56755372,0.37931171,0.84035428,3.05488640
38091,0,USNorthDakotaSteele,North Dakota,Steele,2021-01-05 13:25:13.545186,2021-01-10 00:00:00.000000,0.74474363,1.43622907,3.19212446,14,27,60,9,19,45,0.50521942,1.03783332,2.40949404,0.37876312,0.83973714,3.05495640
38091,0,USNorthDakotaSteele,North Dakota,Steele,2021-01-05 13:25:13.545186,2021-01-11 00:00:00.000000,0.66920994,1.29909621,2.97299389,12,24,56,8,17,42,0.45492928,0.94249053,2.25973683,0.37841211,0.83933559,3.05497127
38091,0,USNorthDakotaSteele,North Dakota,Steele,2021-01-05 13:25:13.545186,2021-01-12 00:00:00.000000,0.60112432,1.18077879,2.76764608,11,22,52,7,16,40,0.40939629,0.85516651,2.11805618,0.37818853,0.83907515,3.05497443
38091,0,USNorthDakotaSteele,North Dakota,Steele,2021-01-05 13:25:13.545186,2021-01-13 00:00:00.000000,0.53979764,1.07404701,2.57541092,10,20,48,6,14,37,0.36822474,0.77535626,1.98419536,0.37804651,0.83890659,3.05497510
38091,0,USNorthDakotaSteele,North Dakota,Steele,2021-01-05 13:25:13.545186,2021-01-14 00:00:00.000000,0.48459457,0.97658372,2.39561704,9,18,45,6,13,35,0.33042988,0.70358672,1.85787538,0.37795647,0.83879764,3.05497524
38091,0,USNorthDakotaSteele,North Dakota,Steele,2021-01-05 13:25:13.545186,2021-01-15 00:00:00.000000,0.43493176,0.88770015,2.22759942,8,16,42,5,12,32,0.29103761,0.64475383,1.73880197,0.37789944,0.83872728,3.05497527
38091,0,USNorthDakotaSteele,North Dakota,Steele,2021-01-05 13:25:13.545186,2021-01-16 00:00:00.000000,0.38261215,0.80853156,2.07070525,7,15,39,4,11,30,0.25617870,0.58986085,1.62667132,0.37786335,0.83868187,3.05497528
38091,0,USNorthDakotaSteele,North Dakota,Steele,2021-01-05 13:25:13.545186,2021-01-17 00:00:00.000000,0.33613817,0.73627480,1.92429845,6,13,36,4,10,28,0.22537190,0.53842096,1.51872514,0.37784052,0.83865257,3.05497528
