FIPS,HR_UID,nameid,province,region,analysisTime,dates,pointprevalence_025,pointprevalence_50,pointprevalence_975,pointinfections_025,pointinfections_50,pointinfections_975,pointinfectious_025,pointinfectious_50,pointinfectious_975,pointinfectiousprevalence_05,pointinfectiousprevalence_50,pointinfectiousprevalence_95,infectrate_025,infectrate_50,infectrate_975
47117,0,USTennesseeMarshall,Tennessee,Marshall,2021-01-05 10:11:15.939081,2020-03-09 00:00:00.000000,0.00103972,0.00800284,0.03478298,0,2,11,0,1,5,0.00061563,0.00395651,0.01559787,0.41168896,0.51959856,0.75966076
47117,0,USTennesseeMarshall,Tennessee,Marshall,2021-01-05 10:11:15.939081,2020-03-10 00:00:00.000000,0.00119968,0.00905118,0.03815354,0,3,13,0,1,5,0.00060752,0.00405065,0.01613460,0.41168883,0.51933557,0.75767150
47117,0,USTennesseeMarshall,Tennessee,Marshall,2021-01-05 10:11:15.939081,2020-03-11 00:00:00.000000,0.00135763,0.00996424,0.04071889,0,3,13,0,1,5,0.00062272,0.00427288,0.01704112,0.41168837,0.51889502,0.75484915
47117,0,USTennesseeMarshall,Tennessee,Marshall,2021-01-05 10:11:15.939081,2020-03-12 00:00:00.000000,0.00151852,0.01103976,0.04333996,0,3,14,0,1,6,0.00066271,0.00450997,0.01820855,0.41168667,0.51889331,0.75087974
47117,0,USTennesseeMarshall,Tennessee,Marshall,2021-01-05 10:11:15.939081,2020-03-13 00:00:00.000000,0.00168582,0.01200011,0.04604792,0,4,15,0,1,6,0.00071925,0.00485568,0.01953988,0.41168006,0.51888972,0.74536534
47117,0,USTennesseeMarshall,Tennessee,Marshall,2021-01-05 10:11:15.939081,2020-03-14 00:00:00.000000,0.00186217,0.01293061,0.04886621,0,4,16,0,1,7,0.00078773,0.00521510,0.02098005,0.41165385,0.51888097,0.74077647
47117,0,USTennesseeMarshall,Tennessee,Marshall,2021-01-05 10:11:15.939081,2020-03-15 00:00:00.000000,0.00204973,0.01406437,0.05181288,0,4,17,0,1,7,0.00086552,0.00569992,0.02249971,0.41154902,0.51768091,0.73881922
47117,0,USTennesseeMarshall,Tennessee,Marshall,2021-01-05 10:11:15.939081,2020-03-16 00:00:00.000000,0.00396905,0.01811439,0.06121192,1,6,21,0,2,8,0.00095147,0.00626637,0.02408501,0.41112880,0.51519905,0.73408882
47117,0,USTennesseeMarshall,Tennessee,Marshall,2021-01-05 10:11:15.939081,2020-03-17 00:00:00.000000,0.00585004,0.02242915,0.07075926,2,7,24,0,2,9,0.00136764,0.00721788,0.02681470,0.40946128,0.51080620,0.72295380
47117,0,USTennesseeMarshall,Tennessee,Marshall,2021-01-05 10:11:15.939081,2020-03-18 00:00:00.000000,0.00710242,0.02601168,0.08071570,2,8,27,0,2,10,0.00201112,0.00859142,0.03036214,0.40101983,0.50430191,0.69833823
47117,0,USTennesseeMarshall,Tennessee,Marshall,2021-01-05 10:11:15.939081,2020-03-19 00:00:00.000000,0.00839090,0.03089418,0.09104287,2,10,31,0,3,11,0.00279989,0.01028739,0.03452226,0.36380083,0.49956365,0.67217677
47117,0,USTennesseeMarshall,Tennessee,Marshall,2021-01-05 10:11:15.939081,2020-03-20 00:00:00.000000,0.00969803,0.03561287,0.10146846,3,12,34,1,4,13,0.00339761,0.01257946,0.03915414,0.33984707,0.48272464,0.64193423
47117,0,USTennesseeMarshall,Tennessee,Marshall,2021-01-05 10:11:15.939081,2020-03-21 00:00:00.000000,0.01102608,0.04128799,0.11132873,3,14,38,1,5,15,0.00404106,0.01456470,0.04411847,0.31742273,0.46532569,0.61350378
47117,0,USTennesseeMarshall,Tennessee,Marshall,2021-01-05 10:11:15.939081,2020-03-22 00:00:00.000000,0.01239663,0.04705877,0.12045548,4,16,41,1,5,16,0.00466390,0.01680478,0.04922270,0.30809262,0.44209442,0.59304904
47117,0,USTennesseeMarshall,Tennessee,Marshall,2021-01-05 10:11:15.939081,2020-03-23 00:00:00.000000,0.01598983,0.05157805,0.12765921,5,17,43,1,6,18,0.00533186,0.01889264,0.05429339,0.29624912,0.41170754,0.57476570
47117,0,USTennesseeMarshall,Tennessee,Marshall,2021-01-05 10:11:15.939081,2020-03-24 00:00:00.000000,0.01982554,0.05813488,0.13480498,6,19,46,2,7,20,0.00640679,0.02180908,0.05897852,0.28951444,0.39649052,0.55834393
47117,0,USTennesseeMarshall,Tennessee,Marshall,2021-01-05 10:11:15.939081,2020-03-25 00:00:00.000000,0.02386783,0.06413024,0.14555326,8,22,50,2,8,21,0.00797544,0.02443332,0.06339469,0.28357990,0.38690592,0.51201545
47117,0,USTennesseeMarshall,Tennessee,Marshall,2021-01-05 10:11:15.939081,2020-03-26 00:00:00.000000,0.02770571,0.06948760,0.15988132,9,23,54,3,9,23,0.00978721,0.02741135,0.06933375,0.25052256,0.36367788,0.49209914
47117,0,USTennesseeMarshall,Tennessee,Marshall,2021-01-05 10:11:15.939081,2020-03-27 00:00:00.000000,0.03039656,0.07389564,0.17518221,10,25,60,3,10,26,0.01148867,0.03057875,0.07671932,0.23182458,0.33954311,0.48645585
47117,0,USTennesseeMarshall,Tennessee,Marshall,2021-01-05 10:11:15.939081,2020-03-28 00:00:00.000000,0.03389704,0.07855877,0.19128765,11,27,65,4,11,29,0.01270504,0.03377134,0.08457064,0.21062284,0.32215046,0.47721634
47117,0,USTennesseeMarshall,Tennessee,Marshall,2021-01-05 10:11:15.939081,2020-03-29 00:00:00.000000,0.03746357,0.08597242,0.19511573,12,29,67,4,12,31,0.01451282,0.03718356,0.09287511,0.19924069,0.30941452,0.46180030
47117,0,USTennesseeMarshall,Tennessee,Marshall,2021-01-05 10:11:15.939081,2020-03-30 00:00:00.000000,0.04017015,0.09515839,0.19986064,13,32,68,5,13,34,0.01637450,0.04038346,0.10128798,0.19161133,0.29576337,0.44100699
47117,0,USTennesseeMarshall,Tennessee,Marshall,2021-01-05 10:11:15.939081,2020-03-31 00:00:00.000000,0.04294876,0.10494655,0.20443291,14,36,70,6,15,35,0.01812149,0.04380904,0.10333506,0.19013479,0.28111309,0.42116639
47117,0,USTennesseeMarshall,Tennessee,Marshall,2021-01-05 10:11:15.939081,2020-04-01 00:00:00.000000,0.04608322,0.11314345,0.20892964,15,38,71,6,16,36,0.01979194,0.04758980,0.10552007,0.18798942,0.26994000,0.40141205
47117,0,USTennesseeMarshall,Tennessee,Marshall,2021-01-05 10:11:15.939081,2020-04-02 00:00:00.000000,0.05015441,0.11892836,0.21328611,17,40,73,7,17,37,0.02141762,0.05058118,0.10777648,0.17487639,0.25385212,0.38829998
47117,0,USTennesseeMarshall,Tennessee,Marshall,2021-01-05 10:11:15.939081,2020-04-03 00:00:00.000000,0.05424941,0.12375791,0.21744669,18,42,74,7,18,37,0.02302067,0.05424457,0.11006336,0.17639612,0.24612203,0.37059022
47117,0,USTennesseeMarshall,Tennessee,Marshall,2021-01-05 10:11:15.939081,2020-04-04 00:00:00.000000,0.05827412,0.12918261,0.22130887,20,44,76,8,19,38,0.02462810,0.05754515,0.11232427,0.16777266,0.23186417,0.35328640
47117,0,USTennesseeMarshall,Tennessee,Marshall,2021-01-05 10:11:15.939081,2020-04-05 00:00:00.000000,0.06210240,0.13221172,0.22472304,21,45,77,9,20,39,0.02624443,0.05972688,0.11450409,0.16137550,0.22839960,0.33631828
47117,0,USTennesseeMarshall,Tennessee,Marshall,2021-01-05 10:11:15.939081,2020-04-06 00:00:00.000000,0.06382046,0.13544430,0.23207879,21,46,79,9,21,40,0.02787320,0.06261144,0.11653814,0.15486451,0.22088641,0.33282086
47117,0,USTennesseeMarshall,Tennessee,Marshall,2021-01-05 10:11:15.939081,2020-04-07 00:00:00.000000,0.06550977,0.14016936,0.23945011,22,48,82,10,22,41,0.02964772,0.06539392,0.12084056,0.15153854,0.21655236,0.32461441
47117,0,USTennesseeMarshall,Tennessee,Marshall,2021-01-05 10:11:15.939081,2020-04-08 00:00:00.000000,0.06798073,0.14700030,0.24613723,23,50,84,10,23,43,0.03147884,0.06784356,0.12757382,0.14618743,0.21198940,0.31176963
47117,0,USTennesseeMarshall,Tennessee,Marshall,2021-01-05 10:11:15.939081,2020-04-09 00:00:00.000000,0.06992599,0.14803187,0.25167879,24,50,86,11,24,45,0.03325361,0.07019265,0.13288921,0.14540302,0.20651304,0.29662141
47117,0,USTennesseeMarshall,Tennessee,Marshall,2021-01-05 10:11:15.939081,2020-04-10 00:00:00.000000,0.07146821,0.15420629,0.25574938,24,53,87,12,25,47,0.03493061,0.07374046,0.13718794,0.13770798,0.20323521,0.27669112
47117,0,USTennesseeMarshall,Tennessee,Marshall,2021-01-05 10:11:15.939081,2020-04-11 00:00:00.000000,0.07292894,0.15957742,0.25514606,25,54,87,12,25,48,0.03649176,0.07505967,0.14074853,0.12626526,0.19675886,0.26723686
47117,0,USTennesseeMarshall,Tennessee,Marshall,2021-01-05 10:11:15.939081,2020-04-12 00:00:00.000000,0.07492981,0.16215932,0.26726876,25,55,91,13,26,48,0.03794305,0.07731720,0.14059632,0.11165095,0.19191774,0.26382328
47117,0,USTennesseeMarshall,Tennessee,Marshall,2021-01-05 10:11:15.939081,2020-04-13 00:00:00.000000,0.07923867,0.16756447,0.27147757,27,57,93,13,27,49,0.03930227,0.07957188,0.14406614,0.11018638,0.18567384,0.25975754
47117,0,USTennesseeMarshall,Tennessee,Marshall,2021-01-05 10:11:15.939081,2020-04-14 00:00:00.000000,0.08447467,0.16793861,0.27515507,29,57,94,14,28,50,0.04094831,0.08183048,0.14809566,0.10608370,0.17973485,0.25516803
47117,0,USTennesseeMarshall,Tennessee,Marshall,2021-01-05 10:11:15.939081,2020-04-15 00:00:00.000000,0.08882187,0.17110456,0.28129008,30,58,96,14,29,53,0.04279288,0.08456850,0.15471260,0.10300280,0.17389064,0.24820214
47117,0,USTennesseeMarshall,Tennessee,Marshall,2021-01-05 10:11:15.939081,2020-04-16 00:00:00.000000,0.09329262,0.17331235,0.29031183,32,59,99,15,30,55,0.04388732,0.08818376,0.16097187,0.10228525,0.16988657,0.23846155
47117,0,USTennesseeMarshall,Tennessee,Marshall,2021-01-05 10:11:15.939081,2020-04-17 00:00:00.000000,0.09501580,0.17426008,0.29745023,32,59,102,15,30,56,0.04441697,0.08901518,0.16433634,0.10213281,0.16442061,0.23640095
47117,0,USTennesseeMarshall,Tennessee,Marshall,2021-01-05 10:11:15.939081,2020-04-18 00:00:00.000000,0.09719201,0.17642059,0.29409073,33,60,101,15,30,57,0.04514596,0.08964307,0.16696988,0.10197378,0.15811942,0.22682931
47117,0,USTennesseeMarshall,Tennessee,Marshall,2021-01-05 10:11:15.939081,2020-04-19 00:00:00.000000,0.10009629,0.17580238,0.28992241,34,60,99,16,31,58,0.04784755,0.09026404,0.16881543,0.10163191,0.15636903,0.21648577
47117,0,USTennesseeMarshall,Tennessee,Marshall,2021-01-05 10:11:15.939081,2020-04-20 00:00:00.000000,0.10504615,0.17553526,0.28605641,36,60,98,17,31,58,0.05027975,0.09183354,0.17004390,0.10082575,0.15239030,0.21393599
47117,0,USTennesseeMarshall,Tennessee,Marshall,2021-01-05 10:11:15.939081,2020-04-21 00:00:00.000000,0.10518085,0.17648974,0.28288781,36,60,97,17,31,58,0.05093756,0.09285038,0.17069861,0.09950976,0.14808663,0.21334747
47117,0,USTennesseeMarshall,Tennessee,Marshall,2021-01-05 10:11:15.939081,2020-04-22 00:00:00.000000,0.10537824,0.17677559,0.28363549,36,60,97,17,32,58,0.05145188,0.09385812,0.16883932,0.09861957,0.14839155,0.21123383
47117,0,USTennesseeMarshall,Tennessee,Marshall,2021-01-05 10:11:15.939081,2020-04-23 00:00:00.000000,0.10583325,0.17664177,0.29435207,36,60,101,17,33,57,0.05186281,0.09644273,0.16727984,0.09843728,0.14780310,0.20830186
47117,0,USTennesseeMarshall,Tennessee,Marshall,2021-01-05 10:11:15.939081,2020-04-24 00:00:00.000000,0.10650803,0.17551545,0.30275184,36,60,104,17,33,58,0.05199479,0.09838776,0.17008714,0.09880285,0.14332258,0.20707958
47117,0,USTennesseeMarshall,Tennessee,Marshall,2021-01-05 10:11:15.939081,2020-04-25 00:00:00.000000,0.10722361,0.17351629,0.30897826,36,59,106,17,33,58,0.05195002,0.09877735,0.17079818,0.10001462,0.13897767,0.20688972
47117,0,USTennesseeMarshall,Tennessee,Marshall,2021-01-05 10:11:15.939081,2020-04-26 00:00:00.000000,0.10859895,0.17520264,0.31425050,37,60,108,18,33,58,0.05245351,0.09791865,0.17140057,0.09500178,0.13799663,0.20638710
47117,0,USTennesseeMarshall,Tennessee,Marshall,2021-01-05 10:11:15.939081,2020-04-27 00:00:00.000000,0.10887425,0.17441855,0.31439109,37,59,108,17,33,60,0.05204109,0.09781565,0.17586577,0.09300071,0.13860599,0.20504304
47117,0,USTennesseeMarshall,Tennessee,Marshall,2021-01-05 10:11:15.939081,2020-04-28 00:00:00.000000,0.10915077,0.17949540,0.31422544,37,61,108,17,33,61,0.05165786,0.09700768,0.17774107,0.09480770,0.13943934,0.20193094
47117,0,USTennesseeMarshall,Tennessee,Marshall,2021-01-05 10:11:15.939081,2020-04-29 00:00:00.000000,0.10949546,0.18249609,0.31355545,37,62,107,17,33,61,0.05145980,0.09629276,0.17909839,0.09627864,0.13984679,0.19700062
47117,0,USTennesseeMarshall,Tennessee,Marshall,2021-01-05 10:11:15.939081,2020-04-30 00:00:00.000000,0.10988186,0.18479326,0.31033609,37,63,106,17,32,61,0.05200992,0.09588739,0.18020981,0.09253959,0.13908787,0.20195139
47117,0,USTennesseeMarshall,Tennessee,Marshall,2021-01-05 10:11:15.939081,2020-05-01 00:00:00.000000,0.11028227,0.18398433,0.30701218,37,63,105,18,33,62,0.05319585,0.09661308,0.18103731,0.09228270,0.13978828,0.20071862
47117,0,USTennesseeMarshall,Tennessee,Marshall,2021-01-05 10:11:15.939081,2020-05-02 00:00:00.000000,0.11065584,0.18168753,0.30647650,38,62,105,18,33,62,0.05453358,0.09656456,0.18157344,0.08683596,0.13982454,0.21258834
47117,0,USTennesseeMarshall,Tennessee,Marshall,2021-01-05 10:11:15.939081,2020-05-03 00:00:00.000000,0.10994589,0.18084920,0.30470240,37,62,104,18,32,62,0.05453982,0.09572548,0.18051997,0.08262514,0.14074666,0.19157987
47117,0,USTennesseeMarshall,Tennessee,Marshall,2021-01-05 10:11:15.939081,2020-05-04 00:00:00.000000,0.10931708,0.17891392,0.30730931,37,61,105,18,32,60,0.05421343,0.09569673,0.17732849,0.07952228,0.13966407,0.19844411
47117,0,USTennesseeMarshall,Tennessee,Marshall,2021-01-05 10:11:15.939081,2020-05-05 00:00:00.000000,0.10870671,0.17798785,0.30990976,37,61,106,18,32,59,0.05419436,0.09538816,0.17414665,0.08017612,0.14188229,0.21977017
47117,0,USTennesseeMarshall,Tennessee,Marshall,2021-01-05 10:11:15.939081,2020-05-06 00:00:00.000000,0.10800972,0.17640012,0.31249285,37,60,107,18,33,60,0.05439580,0.09646309,0.17510175,0.08053466,0.14179853,0.22912261
47117,0,USTennesseeMarshall,Tennessee,Marshall,2021-01-05 10:11:15.939081,2020-05-07 00:00:00.000000,0.10836816,0.17859271,0.31645961,37,61,108,18,33,61,0.05475549,0.09787695,0.17919943,0.07930709,0.14231653,0.23115834
47117,0,USTennesseeMarshall,Tennessee,Marshall,2021-01-05 10:11:15.939081,2020-05-08 00:00:00.000000,0.10972213,0.17951227,0.32419372,37,61,111,18,34,62,0.05522862,0.09933634,0.18038479,0.07794705,0.14326743,0.23308013
47117,0,USTennesseeMarshall,Tennessee,Marshall,2021-01-05 10:11:15.939081,2020-05-09 00:00:00.000000,0.11106580,0.18223186,0.32851447,38,62,112,19,34,61,0.05578241,0.10012490,0.17999189,0.07710028,0.14034083,0.23468177
47117,0,USTennesseeMarshall,Tennessee,Marshall,2021-01-05 10:11:15.939081,2020-05-10 00:00:00.000000,0.11072636,0.18162060,0.33057614,38,62,113,19,34,62,0.05542138,0.10080001,0.18156776,0.07575623,0.13767040,0.23575743
47117,0,USTennesseeMarshall,Tennessee,Marshall,2021-01-05 10:11:15.939081,2020-05-11 00:00:00.000000,0.10665110,0.18158521,0.32709324,36,62,112,18,34,62,0.05488889,0.10147544,0.18313980,0.07527753,0.13830584,0.23610545
47117,0,USTennesseeMarshall,Tennessee,Marshall,2021-01-05 10:11:15.939081,2020-05-12 00:00:00.000000,0.10274898,0.18171523,0.32528789,35,62,111,18,34,63,0.05411999,0.10074274,0.18443586,0.07521227,0.13957043,0.23541196
47117,0,USTennesseeMarshall,Tennessee,Marshall,2021-01-05 10:11:15.939081,2020-05-13 00:00:00.000000,0.10105791,0.18306103,0.32647481,34,62,112,18,34,63,0.05340390,0.10032309,0.18553483,0.07572569,0.14125943,0.23321339
47117,0,USTennesseeMarshall,Tennessee,Marshall,2021-01-05 10:11:15.939081,2020-05-14 00:00:00.000000,0.10192882,0.18589316,0.32750027,35,63,112,18,34,64,0.05278333,0.10094122,0.18649265,0.07953768,0.14209796,0.22862685
47117,0,USTennesseeMarshall,Tennessee,Marshall,2021-01-05 10:11:15.939081,2020-05-15 00:00:00.000000,0.09976833,0.18693092,0.32873276,34,64,113,17,34,64,0.05223618,0.10002089,0.18734867,0.08202316,0.14227942,0.22941807
47117,0,USTennesseeMarshall,Tennessee,Marshall,2021-01-05 10:11:15.939081,2020-05-16 00:00:00.000000,0.09795547,0.18738735,0.32992889,33,64,113,17,34,64,0.05186160,0.09978882,0.18813063,0.08340279,0.14333826,0.23410793
47117,0,USTennesseeMarshall,Tennessee,Marshall,2021-01-05 10:11:15.939081,2020-05-17 00:00:00.000000,0.09826782,0.18677264,0.33108705,33,64,113,17,34,64,0.05175437,0.10054641,0.18794546,0.08393544,0.14507660,0.23614530
47117,0,USTennesseeMarshall,Tennessee,Marshall,2021-01-05 10:11:15.939081,2020-05-18 00:00:00.000000,0.09929153,0.18664078,0.33574256,34,64,115,17,34,64,0.05189542,0.10131529,0.18796579,0.08429738,0.14937038,0.23186573
47117,0,USTennesseeMarshall,Tennessee,Marshall,2021-01-05 10:11:15.939081,2020-05-19 00:00:00.000000,0.10034748,0.18905065,0.34040153,34,64,117,17,34,65,0.05221922,0.10080787,0.19009031,0.08895338,0.15302070,0.23546546
47117,0,USTennesseeMarshall,Tennessee,Marshall,2021-01-05 10:11:15.939081,2020-05-20 00:00:00.000000,0.10150194,0.19359317,0.34516324,34,66,118,17,34,66,0.05236287,0.10083201,0.19210417,0.09093701,0.15896817,0.23930160
47117,0,USTennesseeMarshall,Tennessee,Marshall,2021-01-05 10:11:15.939081,2020-05-21 00:00:00.000000,0.10252803,0.19331631,0.35005698,35,66,120,18,34,66,0.05246125,0.10134691,0.19397189,0.09402247,0.16374803,0.23820226
47117,0,USTennesseeMarshall,Tennessee,Marshall,2021-01-05 10:11:15.939081,2020-05-22 00:00:00.000000,0.10246478,0.19497648,0.35511215,35,67,122,18,35,67,0.05273051,0.10398882,0.19564063,0.09892717,0.16645948,0.23780929
47117,0,USTennesseeMarshall,Tennessee,Marshall,2021-01-05 10:11:15.939081,2020-05-23 00:00:00.000000,0.10378041,0.19856408,0.36030824,35,68,123,18,36,67,0.05314554,0.10597298,0.19706281,0.10329332,0.17032134,0.24035840
47117,0,USTennesseeMarshall,Tennessee,Marshall,2021-01-05 10:11:15.939081,2020-05-24 00:00:00.000000,0.10598280,0.20019514,0.36564554,36,68,125,18,36,68,0.05374263,0.10575533,0.19820601,0.10880156,0.17238947,0.25157277
47117,0,USTennesseeMarshall,Tennessee,Marshall,2021-01-05 10:11:15.939081,2020-05-25 00:00:00.000000,0.10843561,0.20299486,0.37452239,37,69,128,18,36,69,0.05449287,0.10600520,0.20125969,0.11416942,0.17249020,0.25226936
47117,0,USTennesseeMarshall,Tennessee,Marshall,2021-01-05 10:11:15.939081,2020-05-26 00:00:00.000000,0.11032048,0.20524482,0.40049446,37,70,137,19,36,70,0.05550671,0.10659896,0.20614055,0.11462870,0.17468982,0.25265833
47117,0,USTennesseeMarshall,Tennessee,Marshall,2021-01-05 10:11:15.939081,2020-05-27 00:00:00.000000,0.11217372,0.20592215,0.41106526,38,70,141,19,37,72,0.05608711,0.10770655,0.21176282,0.11581505,0.17662735,0.25505513
47117,0,USTennesseeMarshall,Tennessee,Marshall,2021-01-05 10:11:15.939081,2020-05-28 00:00:00.000000,0.11163704,0.20874762,0.42016647,38,71,144,19,37,74,0.05554323,0.10883619,0.21798928,0.11737197,0.17859469,0.25366931
47117,0,USTennesseeMarshall,Tennessee,Marshall,2021-01-05 10:11:15.939081,2020-05-29 00:00:00.000000,0.11042188,0.21541822,0.42914577,37,74,147,18,37,78,0.05497893,0.11043018,0.22726490,0.11671842,0.18400653,0.26776751
47117,0,USTennesseeMarshall,Tennessee,Marshall,2021-01-05 10:11:15.939081,2020-05-30 00:00:00.000000,0.10923994,0.21848937,0.43791855,37,75,150,18,39,81,0.05442130,0.11371721,0.23702301,0.12105565,0.18929375,0.28933491
47117,0,USTennesseeMarshall,Tennessee,Marshall,2021-01-05 10:11:15.939081,2020-05-31 00:00:00.000000,0.10815487,0.22120812,0.44647319,37,76,153,18,40,82,0.05387634,0.11744387,0.23924392,0.12550427,0.19229326,0.30812376
47117,0,USTennesseeMarshall,Tennessee,Marshall,2021-01-05 10:11:15.939081,2020-06-01 00:00:00.000000,0.11258528,0.22871784,0.45975144,38,78,158,18,40,84,0.05333923,0.11904257,0.24690881,0.13016922,0.19589521,0.31473224
47117,0,USTennesseeMarshall,Tennessee,Marshall,2021-01-05 10:11:15.939081,2020-06-02 00:00:00.000000,0.11705725,0.24029886,0.47335932,40,82,162,18,41,87,0.05371668,0.12102192,0.25463197,0.13400843,0.19602714,0.31596770
47117,0,USTennesseeMarshall,Tennessee,Marshall,2021-01-05 10:11:15.939081,2020-06-03 00:00:00.000000,0.12146335,0.24728991,0.48720145,41,85,167,18,42,90,0.05472634,0.12398794,0.26245386,0.13916088,0.19681880,0.31622781
47117,0,USTennesseeMarshall,Tennessee,Marshall,2021-01-05 10:11:15.939081,2020-06-04 00:00:00.000000,0.12585384,0.25630201,0.50118642,43,88,172,19,42,92,0.05663015,0.12483663,0.27039426,0.14210637,0.20499467,0.31779552
47117,0,USTennesseeMarshall,Tennessee,Marshall,2021-01-05 10:11:15.939081,2020-06-05 00:00:00.000000,0.13029621,0.26811783,0.51522866,44,92,177,20,44,95,0.06083238,0.13054318,0.27844403,0.14438069,0.21549754,0.31819736
47117,0,USTennesseeMarshall,Tennessee,Marshall,2021-01-05 10:11:15.939081,2020-06-06 00:00:00.000000,0.13496950,0.27936656,0.52922789,46,96,181,21,46,98,0.06186832,0.13478777,0.28658154,0.14936049,0.22266070,0.31767015
47117,0,USTennesseeMarshall,Tennessee,Marshall,2021-01-05 10:11:15.939081,2020-06-07 00:00:00.000000,0.13985908,0.28662698,0.54303426,48,98,186,21,47,101,0.06168601,0.13918841,0.29477382,0.15409906,0.22513610,0.32519190
47117,0,USTennesseeMarshall,Tennessee,Marshall,2021-01-05 10:11:15.939081,2020-06-08 00:00:00.000000,0.14529783,0.29913033,0.55845056,49,102,191,21,49,104,0.06376319,0.14496346,0.30297141,0.15700420,0.22880215,0.32377653
47117,0,USTennesseeMarshall,Tennessee,Marshall,2021-01-05 10:11:15.939081,2020-06-09 00:00:00.000000,0.16400619,0.30961508,0.56680357,56,106,194,22,51,107,0.06607558,0.15045157,0.31160523,0.15839501,0.23823447,0.32724672
47117,0,USTennesseeMarshall,Tennessee,Marshall,2021-01-05 10:11:15.939081,2020-06-10 00:00:00.000000,0.16625293,0.31896972,0.57501078,57,109,197,25,53,109,0.07418596,0.15676929,0.31717313,0.16268668,0.24652217,0.33146970
47117,0,USTennesseeMarshall,Tennessee,Marshall,2021-01-05 10:11:15.939081,2020-06-11 00:00:00.000000,0.16867623,0.33190920,0.58324882,57,114,200,28,56,110,0.08258768,0.16358017,0.32105257,0.17290344,0.24935355,0.34320104
47117,0,USTennesseeMarshall,Tennessee,Marshall,2021-01-05 10:11:15.939081,2020-06-12 00:00:00.000000,0.17519042,0.34394037,0.59151135,60,118,203,28,58,111,0.08429940,0.17137088,0.32517247,0.17830714,0.26028451,0.35701741
47117,0,USTennesseeMarshall,Tennessee,Marshall,2021-01-05 10:11:15.939081,2020-06-13 00:00:00.000000,0.18408950,0.36077886,0.60631706,63,124,208,29,60,113,0.08572245,0.17636082,0.32947027,0.17965908,0.26485995,0.36962467
47117,0,USTennesseeMarshall,Tennessee,Marshall,2021-01-05 10:11:15.939081,2020-06-14 00:00:00.000000,0.18934157,0.37517380,0.61513327,65,128,211,29,61,115,0.08717288,0.18005118,0.33490392,0.18532610,0.26842562,0.37356567
47117,0,USTennesseeMarshall,Tennessee,Marshall,2021-01-05 10:11:15.939081,2020-06-15 00:00:00.000000,0.19808756,0.38342970,0.63774612,68,131,219,30,64,116,0.08870891,0.18622753,0.33954446,0.19400510,0.27790723,0.38040586
47117,0,USTennesseeMarshall,Tennessee,Marshall,2021-01-05 10:11:15.939081,2020-06-16 00:00:00.000000,0.20754112,0.40267688,0.66630902,71,138,229,31,67,118,0.09099091,0.19555416,0.34364573,0.19644615,0.28504305,0.38358491
47117,0,USTennesseeMarshall,Tennessee,Marshall,2021-01-05 10:11:15.939081,2020-06-17 00:00:00.000000,0.21773998,0.41468607,0.69382081,74,142,238,32,69,119,0.09384554,0.20217086,0.34749514,0.19789912,0.29231174,0.38298733
47117,0,USTennesseeMarshall,Tennessee,Marshall,2021-01-05 10:11:15.939081,2020-06-18 00:00:00.000000,0.22863834,0.43418161,0.71196030,78,149,244,33,72,123,0.09717986,0.21111313,0.35946145,0.20333288,0.30541319,0.40625807
47117,0,USTennesseeMarshall,Tennessee,Marshall,2021-01-05 10:11:15.939081,2020-06-19 00:00:00.000000,0.23902720,0.45280426,0.74871224,82,155,257,34,75,129,0.10092500,0.22012637,0.37694722,0.21926587,0.31210413,0.41791760
47117,0,USTennesseeMarshall,Tennessee,Marshall,2021-01-05 10:11:15.939081,2020-06-20 00:00:00.000000,0.24317747,0.48006888,0.78890357,83,165,271,36,79,135,0.10502561,0.23007507,0.39434842,0.22357330,0.32168303,0.43540550
47117,0,USTennesseeMarshall,Tennessee,Marshall,2021-01-05 10:11:15.939081,2020-06-21 00:00:00.000000,0.25781328,0.50490518,0.82320926,88,173,282,37,82,141,0.10943302,0.24016573,0.41170854,0.22778187,0.33118841,0.45367970
47117,0,USTennesseeMarshall,Tennessee,Marshall,2021-01-05 10:11:15.939081,2020-06-22 00:00:00.000000,0.27722308,0.54036076,0.86160482,95,185,296,39,86,144,0.11420244,0.25253393,0.42091313,0.23172570,0.34175925,0.45917978
47117,0,USTennesseeMarshall,Tennessee,Marshall,2021-01-05 10:11:15.939081,2020-06-23 00:00:00.000000,0.30481966,0.56954773,0.90184873,104,195,310,42,91,148,0.12230181,0.26507481,0.43140093,0.23456430,0.34014402,0.46798136
47117,0,USTennesseeMarshall,Tennessee,Marshall,2021-01-05 10:11:15.939081,2020-06-24 00:00:00.000000,0.32585775,0.60128629,0.94359691,112,206,324,45,94,157,0.13114529,0.27474071,0.45892145,0.23578409,0.34053150,0.48779071
47117,0,USTennesseeMarshall,Tennessee,Marshall,2021-01-05 10:11:15.939081,2020-06-25 00:00:00.000000,0.34815768,0.63038711,0.99068191,119,216,340,48,99,165,0.14205796,0.28945350,0.48114843,0.23627267,0.34458080,0.48904591
47117,0,USTennesseeMarshall,Tennessee,Marshall,2021-01-05 10:11:15.939081,2020-06-26 00:00:00.000000,0.37179147,0.66543713,1.04677602,127,228,359,53,104,171,0.15424477,0.30264616,0.49869255,0.23737989,0.35040551,0.48836054
47117,0,USTennesseeMarshall,Tennessee,Marshall,2021-01-05 10:11:15.939081,2020-06-27 00:00:00.000000,0.39704454,0.68829357,1.10282647,136,236,379,57,108,178,0.16710214,0.31451567,0.51936223,0.24203370,0.35742032,0.49674118
47117,0,USTennesseeMarshall,Tennessee,Marshall,2021-01-05 10:11:15.939081,2020-06-28 00:00:00.000000,0.42385194,0.72610829,1.13737094,145,249,390,61,113,186,0.18026053,0.33014641,0.54238728,0.24704096,0.35973399,0.51557178
47117,0,USTennesseeMarshall,Tennessee,Marshall,2021-01-05 10:11:15.939081,2020-06-29 00:00:00.000000,0.44778212,0.76853950,1.19733633,153,264,411,66,119,191,0.19373807,0.34718580,0.55747782,0.25040102,0.35883034,0.52406285
47117,0,USTennesseeMarshall,Tennessee,Marshall,2021-01-05 10:11:15.939081,2020-06-30 00:00:00.000000,0.47326338,0.81403833,1.26509726,162,279,434,71,127,198,0.20689930,0.37041165,0.57665136,0.24968659,0.35829756,0.52568754
47117,0,USTennesseeMarshall,Tennessee,Marshall,2021-01-05 10:11:15.939081,2020-07-01 00:00:00.000000,0.49993657,0.85939318,1.31885906,171,295,453,75,136,207,0.22005192,0.39840550,0.60393562,0.25744118,0.35948992,0.52591097
47117,0,USTennesseeMarshall,Tennessee,Marshall,2021-01-05 10:11:15.939081,2020-07-02 00:00:00.000000,0.52784775,0.90312942,1.37419966,181,310,472,80,145,217,0.23344984,0.42362069,0.63263325,0.26793219,0.35950830,0.51366095
47117,0,USTennesseeMarshall,Tennessee,Marshall,2021-01-05 10:11:15.939081,2020-07-03 00:00:00.000000,0.55709164,0.95369289,1.43278554,191,327,492,85,150,227,0.24738496,0.43895459,0.66165086,0.28705971,0.36110297,0.50038681
47117,0,USTennesseeMarshall,Tennessee,Marshall,2021-01-05 10:11:15.939081,2020-07-04 00:00:00.000000,0.58758266,1.00625485,1.49847510,201,345,515,90,155,237,0.26203028,0.45251539,0.69136810,0.28539218,0.36194970,0.49649842
47117,0,USTennesseeMarshall,Tennessee,Marshall,2021-01-05 10:11:15.939081,2020-07-05 00:00:00.000000,0.61942345,1.05380855,1.56894245,212,362,539,94,162,248,0.27542342,0.47142118,0.72261213,0.28124339,0.36284749,0.49496264
47117,0,USTennesseeMarshall,Tennessee,Marshall,2021-01-05 10:11:15.939081,2020-07-06 00:00:00.000000,0.64815187,1.09396742,1.64341128,222,376,564,98,172,259,0.28720538,0.50038498,0.75566916,0.27073232,0.36679864,0.49336401
47117,0,USTennesseeMarshall,Tennessee,Marshall,2021-01-05 10:11:15.939081,2020-07-07 00:00:00.000000,0.68060949,1.14183996,1.72075583,233,392,591,103,179,271,0.29989860,0.52245889,0.79061549,0.26588415,0.36421841,0.48679649
47117,0,USTennesseeMarshall,Tennessee,Marshall,2021-01-05 10:11:15.939081,2020-07-08 00:00:00.000000,0.71608376,1.19458926,1.80104058,246,410,619,107,185,284,0.31349621,0.53992155,0.82725675,0.26446322,0.36556545,0.46610704
47117,0,USTennesseeMarshall,Tennessee,Marshall,2021-01-05 10:11:15.939081,2020-07-09 00:00:00.000000,0.75358558,1.25027844,1.88431456,259,429,647,112,194,297,0.32797154,0.56582401,0.86567677,0.26507406,0.36485967,0.46309717
47117,0,USTennesseeMarshall,Tennessee,Marshall,2021-01-05 10:11:15.939081,2020-07-10 00:00:00.000000,0.79282687,1.29562247,1.97063570,272,445,677,118,203,311,0.34330115,0.59269107,0.90582563,0.26716335,0.36726612,0.45825835
47117,0,USTennesseeMarshall,Tennessee,Marshall,2021-01-05 10:11:15.939081,2020-07-11 00:00:00.000000,0.83372871,1.34194803,2.05995574,286,461,708,123,210,325,0.35948447,0.61321301,0.94765856,0.27043971,0.36526941,0.46230593
47117,0,USTennesseeMarshall,Tennessee,Marshall,2021-01-05 10:11:15.939081,2020-07-12 00:00:00.000000,0.87621197,1.40259582,2.15174884,301,482,739,129,217,340,0.37655605,0.63333158,0.99114897,0.26287037,0.36627917,0.47103854
47117,0,USTennesseeMarshall,Tennessee,Marshall,2021-01-05 10:11:15.939081,2020-07-13 00:00:00.000000,0.91878931,1.44936647,2.24637337,315,498,772,135,226,359,0.39458676,0.65791276,1.04471469,0.26536028,0.36661889,0.48217587
47117,0,USTennesseeMarshall,Tennessee,Marshall,2021-01-05 10:11:15.939081,2020-07-14 00:00:00.000000,0.96266549,1.49381195,2.33201494,330,513,801,142,237,379,0.41337827,0.68980328,1.10380992,0.27005438,0.36309402,0.49640597
47117,0,USTennesseeMarshall,Tennessee,Marshall,2021-01-05 10:11:15.939081,2020-07-15 00:00:00.000000,1.00783902,1.54607187,2.38748261,346,531,820,148,249,399,0.43303800,0.72449085,1.16329927,0.26451352,0.36365270,0.50493088
47117,0,USTennesseeMarshall,Tennessee,Marshall,2021-01-05 10:11:15.939081,2020-07-16 00:00:00.000000,1.05450194,1.60685498,2.44410139,362,552,840,154,257,420,0.45005048,0.74919625,1.22288422,0.26410020,0.36481318,0.50712896
47117,0,USTennesseeMarshall,Tennessee,Marshall,2021-01-05 10:11:15.939081,2020-07-17 00:00:00.000000,1.10333495,1.66561912,2.50547229,379,572,861,161,266,432,0.46899579,0.77596336,1.25773677,0.26685317,0.36020183,0.50499084
47117,0,USTennesseeMarshall,Tennessee,Marshall,2021-01-05 10:11:15.939081,2020-07-18 00:00:00.000000,1.15389533,1.73286131,2.56794396,396,595,882,168,278,443,0.48958156,0.80877734,1.29009691,0.26541078,0.35235768,0.50244635
47117,0,USTennesseeMarshall,Tennessee,Marshall,2021-01-05 10:11:15.939081,2020-07-19 00:00:00.000000,1.23132120,1.80559361,2.63145942,423,620,904,175,292,459,0.51159708,0.85017143,1.33611121,0.26358631,0.34719716,0.50274178
47117,0,USTennesseeMarshall,Tennessee,Marshall,2021-01-05 10:11:15.939081,2020-07-20 00:00:00.000000,1.33887629,1.87884349,2.68450446,460,645,922,183,308,475,0.53490474,0.89608735,1.38468990,0.25659244,0.34047850,0.50631962
47117,0,USTennesseeMarshall,Tennessee,Marshall,2021-01-05 10:11:15.939081,2020-07-21 00:00:00.000000,1.40237381,1.95115183,2.73857754,482,670,941,194,322,488,0.56556677,0.93892547,1.42051873,0.25626711,0.34036413,0.50683149
47117,0,USTennesseeMarshall,Tennessee,Marshall,2021-01-05 10:11:15.939081,2020-07-22 00:00:00.000000,1.46818685,2.00033843,2.80075639,504,687,962,203,334,500,0.59201966,0.97172426,1.45715712,0.25598977,0.33738809,0.50692929
47117,0,USTennesseeMarshall,Tennessee,Marshall,2021-01-05 10:11:15.939081,2020-07-23 00:00:00.000000,1.53628605,2.06956609,2.86964307,528,711,986,213,346,513,0.61995751,1.00933392,1.49449046,0.25439477,0.33799307,0.50686878
47117,0,USTennesseeMarshall,Tennessee,Marshall,2021-01-05 10:11:15.939081,2020-07-24 00:00:00.000000,1.59214610,2.13146614,2.94146402,547,732,1011,223,356,526,0.64923700,1.03758211,1.53242339,0.24750916,0.33650718,0.50201572
47117,0,USTennesseeMarshall,Tennessee,Marshall,2021-01-05 10:11:15.939081,2020-07-25 00:00:00.000000,1.62651465,2.20281269,3.03363828,559,757,1042,233,366,541,0.67965913,1.06608867,1.57480165,0.24407639,0.33432618,0.47875484
47117,0,USTennesseeMarshall,Tennessee,Marshall,2021-01-05 10:11:15.939081,2020-07-26 00:00:00.000000,1.69446771,2.28917431,3.11923877,582,786,1072,244,380,564,0.71092365,1.10734876,1.64353950,0.24263625,0.33022290,0.47597298
47117,0,USTennesseeMarshall,Tennessee,Marshall,2021-01-05 10:11:15.939081,2020-07-27 00:00:00.000000,1.77165358,2.34673746,3.19178751,609,806,1097,255,393,586,0.74388721,1.14498194,1.70696597,0.24221198,0.32503395,0.47281022
47117,0,USTennesseeMarshall,Tennessee,Marshall,2021-01-05 10:11:15.939081,2020-07-28 00:00:00.000000,1.84706455,2.43208027,3.26417894,634,836,1122,267,405,599,0.77897394,1.18060738,1.74358355,0.24283024,0.32515106,0.46560797
47117,0,USTennesseeMarshall,Tennessee,Marshall,2021-01-05 10:11:15.939081,2020-07-29 00:00:00.000000,1.91377654,2.51207247,3.33641761,657,863,1146,276,417,605,0.80340822,1.21319640,1.76051004,0.24642860,0.32271179,0.45391838
47117,0,USTennesseeMarshall,Tennessee,Marshall,2021-01-05 10:11:15.939081,2020-07-30 00:00:00.000000,1.93567894,2.57282201,3.40793723,665,884,1171,286,429,610,0.83335145,1.24912234,1.77546087,0.25349815,0.31819848,0.44353716
47117,0,USTennesseeMarshall,Tennessee,Marshall,2021-01-05 10:11:15.939081,2020-07-31 00:00:00.000000,1.95581985,2.64265861,3.47739379,672,908,1195,298,449,621,0.86722834,1.30817308,1.80698242,0.25673797,0.31560457,0.43224071
47117,0,USTennesseeMarshall,Tennessee,Marshall,2021-01-05 10:11:15.939081,2020-08-01 00:00:00.000000,1.97520412,2.70816311,3.54250114,678,930,1217,309,461,634,0.90144826,1.34389578,1.84632616,0.25498446,0.32524177,0.42845765
47117,0,USTennesseeMarshall,Tennessee,Marshall,2021-01-05 10:11:15.939081,2020-08-02 00:00:00.000000,1.99533650,2.78935220,3.61020892,685,958,1241,321,474,650,0.93619555,1.37935984,1.89255377,0.25471925,0.32711025,0.44265979
47117,0,USTennesseeMarshall,Tennessee,Marshall,2021-01-05 10:11:15.939081,2020-08-03 00:00:00.000000,2.04594993,2.87975794,3.72355796,703,989,1279,334,497,668,0.97168685,1.44815371,1.94409455,0.25282461,0.32436972,0.46279918
47117,0,USTennesseeMarshall,Tennessee,Marshall,2021-01-05 10:11:15.939081,2020-08-04 00:00:00.000000,2.13455066,2.96455708,3.84221479,733,1019,1320,346,512,685,1.00851069,1.49145071,1.99479284,0.24631325,0.32265075,0.46814625
47117,0,USTennesseeMarshall,Tennessee,Marshall,2021-01-05 10:11:15.939081,2020-08-05 00:00:00.000000,2.22521597,3.04710189,4.02457599,764,1047,1383,351,525,703,1.02135601,1.52981601,2.04625524,0.25012354,0.32438840,0.46859240
47117,0,USTennesseeMarshall,Tennessee,Marshall,2021-01-05 10:11:15.939081,2020-08-06 00:00:00.000000,2.24228708,3.15393483,4.11830402,770,1084,1415,363,538,725,1.05620400,1.56705499,2.11182913,0.25103341,0.32839568,0.45714313
47117,0,USTennesseeMarshall,Tennessee,Marshall,2021-01-05 10:11:15.939081,2020-08-07 00:00:00.000000,2.26486841,3.24325788,4.21438150,778,1114,1448,378,551,749,1.10042698,1.60323724,2.17990898,0.24890473,0.32357047,0.42244088
47117,0,USTennesseeMarshall,Tennessee,Marshall,2021-01-05 10:11:15.939081,2020-08-08 00:00:00.000000,2.34510990,3.31821061,4.34013200,806,1140,1491,393,563,770,1.14559051,1.63965872,2.24227406,0.24713905,0.32256540,0.41892557
47117,0,USTennesseeMarshall,Tennessee,Marshall,2021-01-05 10:11:15.939081,2020-08-09 00:00:00.000000,2.41911645,3.40922326,4.46797549,831,1171,1535,406,582,787,1.18354024,1.69362900,2.29225335,0.24565091,0.31949766,0.42346428
47117,0,USTennesseeMarshall,Tennessee,Marshall,2021-01-05 10:11:15.939081,2020-08-10 00:00:00.000000,2.52772247,3.50260082,4.55838970,868,1204,1566,415,599,811,1.20807512,1.74316034,2.36202324,0.24365240,0.31745849,0.43910201
47117,0,USTennesseeMarshall,Tennessee,Marshall,2021-01-05 10:11:15.939081,2020-08-11 00:00:00.000000,2.64958753,3.58380925,4.67581004,910,1231,1607,420,615,833,1.22183136,1.78914661,2.42413707,0.24007401,0.31615697,0.44308311
47117,0,USTennesseeMarshall,Tennessee,Marshall,2021-01-05 10:11:15.939081,2020-08-12 00:00:00.000000,2.77269578,3.65882076,4.77274367,953,1257,1640,430,631,850,1.25202794,1.83661636,2.47282802,0.23266786,0.31134207,0.44700429
47117,0,USTennesseeMarshall,Tennessee,Marshall,2021-01-05 10:11:15.939081,2020-08-13 00:00:00.000000,2.81728323,3.73943449,4.83818315,968,1285,1663,439,648,871,1.27874936,1.88750962,2.53477059,0.22844590,0.30044196,0.43787831
47117,0,USTennesseeMarshall,Tennessee,Marshall,2021-01-05 10:11:15.939081,2020-08-14 00:00:00.000000,2.83945817,3.76488416,4.93649237,976,1294,1696,449,662,889,1.30629835,1.92667980,2.58719133,0.21657985,0.29005730,0.41501238
47117,0,USTennesseeMarshall,Tennessee,Marshall,2021-01-05 10:11:15.939081,2020-08-15 00:00:00.000000,2.85163601,3.80443106,5.00904875,980,1307,1721,458,674,913,1.33518624,1.96298523,2.65823809,0.21097023,0.28307597,0.38834279
47117,0,USTennesseeMarshall,Tennessee,Marshall,2021-01-05 10:11:15.939081,2020-08-16 00:00:00.000000,2.86047314,3.85622114,5.07768164,983,1325,1745,469,689,935,1.36491753,2.00723362,2.72242997,0.20223365,0.27758883,0.36942143
47117,0,USTennesseeMarshall,Tennessee,Marshall,2021-01-05 10:11:15.939081,2020-08-17 00:00:00.000000,2.86570300,3.88402541,5.14427911,985,1335,1768,479,698,952,1.39511731,2.03338514,2.77107707,0.19458169,0.26722797,0.35829652
47117,0,USTennesseeMarshall,Tennessee,Marshall,2021-01-05 10:11:15.939081,2020-08-18 00:00:00.000000,2.86998915,3.90575593,5.20437455,986,1342,1789,488,707,968,1.42115942,2.05857264,2.81681627,0.19219630,0.26174780,0.35671387
47117,0,USTennesseeMarshall,Tennessee,Marshall,2021-01-05 10:11:15.939081,2020-08-19 00:00:00.000000,2.87358253,3.93860366,5.23158337,987,1353,1798,495,711,985,1.44217328,2.07022472,2.86590524,0.18160326,0.25801417,0.34772508
47117,0,USTennesseeMarshall,Tennessee,Marshall,2021-01-05 10:11:15.939081,2020-08-20 00:00:00.000000,2.87681472,3.95355699,5.22238819,988,1359,1795,503,717,999,1.46374404,2.08612097,2.90787768,0.17716005,0.24983646,0.33770401
47117,0,USTennesseeMarshall,Tennessee,Marshall,2021-01-05 10:11:15.939081,2020-08-21 00:00:00.000000,2.88003245,3.96151082,5.21818509,990,1361,1793,510,722,1007,1.48567726,2.10115673,2.93151043,0.16657717,0.24268227,0.33669256
47117,0,USTennesseeMarshall,Tennessee,Marshall,2021-01-05 10:11:15.939081,2020-08-22 00:00:00.000000,2.88348646,3.97060913,5.20490768,991,1364,1789,518,730,1012,1.50765494,2.12544720,2.94636427,0.17535425,0.23336845,0.33287172
47117,0,USTennesseeMarshall,Tennessee,Marshall,2021-01-05 10:11:15.939081,2020-08-23 00:00:00.000000,2.86286311,3.99474849,5.14038182,984,1373,1767,525,731,1016,1.52874973,2.12758999,2.95844291,0.17457745,0.22525930,0.31138742
47117,0,USTennesseeMarshall,Tennessee,Marshall,2021-01-05 10:11:15.939081,2020-08-24 00:00:00.000000,2.77544082,3.98128111,5.14664214,954,1368,1769,526,728,1021,1.53181593,2.12030623,2.97205298,0.17035480,0.21997172,0.30388797
47117,0,USTennesseeMarshall,Tennessee,Marshall,2021-01-05 10:11:15.939081,2020-08-25 00:00:00.000000,2.68975072,3.92789507,5.14492917,924,1350,1768,527,728,1023,1.53485194,2.11821111,2.97787874,0.16584668,0.21969527,0.29845346
47117,0,USTennesseeMarshall,Tennessee,Marshall,2021-01-05 10:11:15.939081,2020-08-26 00:00:00.000000,2.60604957,3.88260291,5.19062018,895,1334,1784,528,730,1023,1.53848880,2.12615011,2.97862670,0.16286534,0.21630323,0.29549480
47117,0,USTennesseeMarshall,Tennessee,Marshall,2021-01-05 10:11:15.939081,2020-08-27 00:00:00.000000,2.54126430,3.85840156,5.17942101,873,1326,1780,530,728,1023,1.54247307,2.11843690,2.97671950,0.15926447,0.21186290,0.29442372
47117,0,USTennesseeMarshall,Tennessee,Marshall,2021-01-05 10:11:15.939081,2020-08-28 00:00:00.000000,2.49324025,3.81798198,5.15670617,857,1312,1772,515,727,1022,1.49897561,2.11653792,2.97352695,0.15995448,0.20914042,0.29267017
47117,0,USTennesseeMarshall,Tennessee,Marshall,2021-01-05 10:11:15.939081,2020-08-29 00:00:00.000000,2.43449538,3.81101860,5.13141417,836,1310,1763,499,719,1028,1.45271181,2.09195317,2.99089375,0.16144204,0.20804473,0.28968203
47117,0,USTennesseeMarshall,Tennessee,Marshall,2021-01-05 10:11:15.939081,2020-08-30 00:00:00.000000,2.37019021,3.76416833,5.10434575,814,1293,1754,483,715,1031,1.40742523,2.08089691,3.00171456,0.16144010,0.20642232,0.28501127
47117,0,USTennesseeMarshall,Tennessee,Marshall,2021-01-05 10:11:15.939081,2020-08-31 00:00:00.000000,2.32273790,3.73748530,5.07911103,798,1284,1745,468,710,1030,1.36321712,2.06813756,2.99886793,0.16148102,0.21075186,0.27946342
47117,0,USTennesseeMarshall,Tennessee,Marshall,2021-01-05 10:11:15.939081,2020-09-01 00:00:00.000000,2.28587659,3.71625749,5.02012331,785,1277,1725,454,699,1026,1.32238877,2.03428375,2.98609123,0.16002139,0.21088721,0.28125752
47117,0,USTennesseeMarshall,Tennessee,Marshall,2021-01-05 10:11:15.939081,2020-09-02 00:00:00.000000,2.25049996,3.71907693,4.95369180,773,1278,1702,441,686,1019,1.28417465,1.99853433,2.96578588,0.15937586,0.21210800,0.27501560
47117,0,USTennesseeMarshall,Tennessee,Marshall,2021-01-05 10:11:15.939081,2020-09-03 00:00:00.000000,2.19413318,3.70595288,4.88552184,754,1273,1679,429,679,1010,1.24808557,1.97712638,2.93991627,0.15911396,0.21468530,0.27930164
47117,0,USTennesseeMarshall,Tennessee,Marshall,2021-01-05 10:11:15.939081,2020-09-04 00:00:00.000000,2.12393875,3.66396981,4.87538669,730,1259,1675,417,678,1000,1.21386030,1.97342404,2.90997358,0.15901234,0.21646775,0.28984904
47117,0,USTennesseeMarshall,Tennessee,Marshall,2021-01-05 10:11:15.939081,2020-09-05 00:00:00.000000,2.06265723,3.62300340,4.85666794,709,1245,1669,409,677,988,1.18999359,1.97096930,2.87706959,0.15916998,0.21896248,0.29818670
47117,0,USTennesseeMarshall,Tennessee,Marshall,2021-01-05 10:11:15.939081,2020-09-06 00:00:00.000000,2.01320483,3.58021133,4.86092977,692,1230,1670,404,677,981,1.17733482,1.97033840,2.85666857,0.15938608,0.21946322,0.29524183
47117,0,USTennesseeMarshall,Tennessee,Marshall,2021-01-05 10:11:15.939081,2020-09-07 00:00:00.000000,1.96419080,3.55115498,4.82301948,675,1220,1657,401,671,974,1.16853192,1.95282033,2.83573486,0.16101030,0.21935592,0.30362534
47117,0,USTennesseeMarshall,Tennessee,Marshall,2021-01-05 10:11:15.939081,2020-09-08 00:00:00.000000,1.92135647,3.52717554,4.78362579,660,1212,1644,395,673,962,1.15147986,1.95805096,2.80083300,0.16677985,0.22241617,0.29886646
47117,0,USTennesseeMarshall,Tennessee,Marshall,2021-01-05 10:11:15.939081,2020-09-09 00:00:00.000000,1.89586867,3.51421193,4.74397249,651,1208,1630,385,670,950,1.12230830,1.95127563,2.76509671,0.16857302,0.22937695,0.31063916
47117,0,USTennesseeMarshall,Tennessee,Marshall,2021-01-05 10:11:15.939081,2020-09-10 00:00:00.000000,1.89558762,3.50321848,4.70434245,651,1204,1617,376,661,938,1.09576939,1.92418125,2.72981923,0.17312008,0.23091123,0.31116784
47117,0,USTennesseeMarshall,Tennessee,Marshall,2021-01-05 10:11:15.939081,2020-09-11 00:00:00.000000,1.90308283,3.48635413,4.66528708,654,1198,1603,368,652,932,1.07151605,1.89944936,2.71416602,0.17367739,0.23329502,0.33311854
47117,0,USTennesseeMarshall,Tennessee,Marshall,2021-01-05 10:11:15.939081,2020-09-12 00:00:00.000000,1.91598899,3.47243282,4.65734107,658,1193,1600,360,644,932,1.04957982,1.87429099,2.71248287,0.17212097,0.23472461,0.34917080
47117,0,USTennesseeMarshall,Tennessee,Marshall,2021-01-05 10:11:15.939081,2020-09-13 00:00:00.000000,1.93218773,3.42950589,4.67104109,664,1178,1605,354,638,930,1.03051698,1.85708760,2.70570788,0.17798617,0.23544483,0.35568607
47117,0,USTennesseeMarshall,Tennessee,Marshall,2021-01-05 10:11:15.939081,2020-09-14 00:00:00.000000,1.96486128,3.39392394,4.68314575,675,1166,1609,348,636,922,1.01524811,1.85199653,2.68470235,0.18843826,0.23997090,0.35544658
47117,0,USTennesseeMarshall,Tennessee,Marshall,2021-01-05 10:11:15.939081,2020-09-15 00:00:00.000000,1.99875822,3.39971286,4.71411812,687,1168,1620,345,635,915,1.00437055,1.84984548,2.66426884,0.18753149,0.24243379,0.35674882
47117,0,USTennesseeMarshall,Tennessee,Marshall,2021-01-05 10:11:15.939081,2020-09-16 00:00:00.000000,2.03390115,3.38600136,4.72567170,699,1163,1624,343,634,917,0.99800922,1.84539736,2.67004066,0.19556663,0.24959498,0.35729254
47117,0,USTennesseeMarshall,Tennessee,Marshall,2021-01-05 10:11:15.939081,2020-09-17 00:00:00.000000,2.06977107,3.40631742,4.72198839,711,1170,1623,342,637,915,0.99533802,1.85595886,2.66345876,0.19402670,0.25189975,0.35823195
47117,0,USTennesseeMarshall,Tennessee,Marshall,2021-01-05 10:11:15.939081,2020-09-18 00:00:00.000000,2.10606306,3.40621510,4.74375627,723,1170,1630,342,636,913,0.99557264,1.85172317,2.65740444,0.19917634,0.25769800,0.35679293
47117,0,USTennesseeMarshall,Tennessee,Marshall,2021-01-05 10:11:15.939081,2020-09-19 00:00:00.000000,2.14270618,3.44118583,4.77047417,736,1182,1639,343,635,914,0.99860713,1.84835762,2.66023574,0.20839063,0.26516164,0.36836539
47117,0,USTennesseeMarshall,Tennessee,Marshall,2021-01-05 10:11:15.939081,2020-09-20 00:00:00.000000,2.17017628,3.47780917,4.80102879,745,1195,1650,346,630,918,1.00871656,1.83343917,2.67316182,0.21620934,0.27674233,0.37486778
47117,0,USTennesseeMarshall,Tennessee,Marshall,2021-01-05 10:11:15.939081,2020-09-21 00:00:00.000000,2.16649189,3.51087423,4.84838443,744,1206,1666,352,632,925,1.02560090,1.83885364,2.69268902,0.21735100,0.28397018,0.38265710
47117,0,USTennesseeMarshall,Tennessee,Marshall,2021-01-05 10:11:15.939081,2020-09-22 00:00:00.000000,2.17502843,3.55018940,4.89676816,747,1220,1683,357,635,932,1.03896001,1.84833392,2.71265777,0.22694307,0.29083926,0.39650327
47117,0,USTennesseeMarshall,Tennessee,Marshall,2021-01-05 10:11:15.939081,2020-09-23 00:00:00.000000,2.19241757,3.57780763,4.94565914,753,1229,1700,363,637,939,1.05671072,1.85460159,2.73236793,0.23031005,0.29523907,0.41015890
47117,0,USTennesseeMarshall,Tennessee,Marshall,2021-01-05 10:11:15.939081,2020-09-24 00:00:00.000000,2.21630696,3.60994873,4.99451572,761,1240,1716,372,633,951,1.08408032,1.84300597,2.76677699,0.23696530,0.30301566,0.41851770
47117,0,USTennesseeMarshall,Tennessee,Marshall,2021-01-05 10:11:15.939081,2020-09-25 00:00:00.000000,2.24636795,3.65651052,5.04317963,772,1256,1733,383,633,956,1.11611615,1.84175484,2.78368436,0.23956504,0.31100412,0.42446101
47117,0,USTennesseeMarshall,Tennessee,Marshall,2021-01-05 10:11:15.939081,2020-09-26 00:00:00.000000,2.27576836,3.71119845,5.09204256,782,1275,1750,396,633,966,1.15338596,1.84363821,2.81072396,0.24291651,0.31612284,0.42595449
47117,0,USTennesseeMarshall,Tennessee,Marshall,2021-01-05 10:11:15.939081,2020-09-27 00:00:00.000000,2.32604999,3.77154939,5.14257329,799,1296,1767,411,639,977,1.19706332,1.86115231,2.84470940,0.24068234,0.32487126,0.45105735
47117,0,USTennesseeMarshall,Tennessee,Marshall,2021-01-05 10:11:15.939081,2020-09-28 00:00:00.000000,2.36378082,3.84665546,5.19558533,812,1322,1785,420,651,989,1.22224628,1.89383799,2.87762835,0.24204906,0.33357572,0.45309596
47117,0,USTennesseeMarshall,Tennessee,Marshall,2021-01-05 10:11:15.939081,2020-09-29 00:00:00.000000,2.40604111,3.88125324,5.25007930,827,1334,1804,427,660,1000,1.24452160,1.92206028,2.91089790,0.24357389,0.33690107,0.45387833
47117,0,USTennesseeMarshall,Tennessee,Marshall,2021-01-05 10:11:15.939081,2020-09-30 00:00:00.000000,2.45647379,3.91638313,5.29701921,844,1346,1820,429,666,1012,1.25023762,1.93807497,2.94596821,0.24423879,0.34107490,0.46818141
47117,0,USTennesseeMarshall,Tennessee,Marshall,2021-01-05 10:11:15.939081,2020-10-01 00:00:00.000000,2.50800967,3.96614384,5.35078196,862,1363,1839,437,680,1022,1.27356696,1.97942404,2.97396500,0.24740193,0.34151515,0.47341851
47117,0,USTennesseeMarshall,Tennessee,Marshall,2021-01-05 10:11:15.939081,2020-10-02 00:00:00.000000,2.55948260,4.02108111,5.43346085,879,1382,1867,446,699,1030,1.29797667,2.03501461,2.99793475,0.24547079,0.34421294,0.47558919
47117,0,USTennesseeMarshall,Tennessee,Marshall,2021-01-05 10:11:15.939081,2020-10-03 00:00:00.000000,2.60985737,4.10156705,5.48521192,897,1409,1885,454,713,1040,1.32293161,2.07521524,3.02749284,0.25617630,0.34451985,0.47408797
47117,0,USTennesseeMarshall,Tennessee,Marshall,2021-01-05 10:11:15.939081,2020-10-04 00:00:00.000000,2.65789529,4.12977719,5.55824332,913,1419,1910,464,723,1052,1.35114879,2.10545088,3.06255300,0.25951294,0.35157796,0.48929343
47117,0,USTennesseeMarshall,Tennessee,Marshall,2021-01-05 10:11:15.939081,2020-10-05 00:00:00.000000,2.70326634,4.14919071,5.64605884,929,1426,1940,475,729,1066,1.38214007,2.12108737,3.10203272,0.25916252,0.35058535,0.50056158
47117,0,USTennesseeMarshall,Tennessee,Marshall,2021-01-05 10:11:15.939081,2020-10-06 00:00:00.000000,2.74665713,4.26262195,5.76553873,944,1465,1981,486,736,1088,1.41587212,2.14376745,3.16665040,0.25909876,0.35209094,0.50378368
47117,0,USTennesseeMarshall,Tennessee,Marshall,2021-01-05 10:11:15.939081,2020-10-07 00:00:00.000000,2.79864668,4.36880669,5.88641822,962,1501,2023,498,745,1114,1.44969096,2.17002922,3.24310734,0.25909278,0.35176276,0.50620955
47117,0,USTennesseeMarshall,Tennessee,Marshall,2021-01-05 10:11:15.939081,2020-10-08 00:00:00.000000,2.85133548,4.39641857,6.00118874,980,1511,2062,502,760,1142,1.46082083,2.21093559,3.32468944,0.25571474,0.35144782,0.50115945
47117,0,USTennesseeMarshall,Tennessee,Marshall,2021-01-05 10:11:15.939081,2020-10-09 00:00:00.000000,2.91053986,4.46001242,6.08106555,1000,1533,2090,505,766,1170,1.47089881,2.22999004,3.40389437,0.25372824,0.35071726,0.49464991
47117,0,USTennesseeMarshall,Tennessee,Marshall,2021-01-05 10:11:15.939081,2020-10-10 00:00:00.000000,2.98838788,4.52684529,6.14834108,1027,1556,2113,508,778,1189,1.48052271,2.26589565,3.46108475,0.24879257,0.34374264,0.48644786
47117,0,USTennesseeMarshall,Tennessee,Marshall,2021-01-05 10:11:15.939081,2020-10-11 00:00:00.000000,3.07335546,4.58107811,6.20462406,1056,1574,2132,512,795,1208,1.49098405,2.31427161,3.51639863,0.24201000,0.34215261,0.47851219
47117,0,USTennesseeMarshall,Tennessee,Marshall,2021-01-05 10:11:15.939081,2020-10-12 00:00:00.000000,3.16342169,4.67055486,6.33937161,1087,1605,2179,517,809,1225,1.50504857,2.35458413,3.56591509,0.23674924,0.34515269,0.49661889
47117,0,USTennesseeMarshall,Tennessee,Marshall,2021-01-05 10:11:15.939081,2020-10-13 00:00:00.000000,3.21192784,4.75056638,6.46348377,1104,1633,2221,524,827,1239,1.52591556,2.40791823,3.60472319,0.23334393,0.34348735,0.49618042
47117,0,USTennesseeMarshall,Tennessee,Marshall,2021-01-05 10:11:15.939081,2020-10-14 00:00:00.000000,3.26029549,4.80272208,6.57438627,1120,1650,2259,534,846,1248,1.55383407,2.46326893,3.63116793,0.23159167,0.34616814,0.49499667
47117,0,USTennesseeMarshall,Tennessee,Marshall,2021-01-05 10:11:15.939081,2020-10-15 00:00:00.000000,3.31215615,4.89814674,6.63038738,1138,1683,2279,545,866,1254,1.58736481,2.51943335,3.64934743,0.23112197,0.34716206,0.49217036
47117,0,USTennesseeMarshall,Tennessee,Marshall,2021-01-05 10:11:15.939081,2020-10-16 00:00:00.000000,3.37909600,5.01541510,6.65183332,1161,1724,2286,557,885,1267,1.62202464,2.57477316,3.68650262,0.23231970,0.34840557,0.48531506
47117,0,USTennesseeMarshall,Tennessee,Marshall,2021-01-05 10:11:15.939081,2020-10-17 00:00:00.000000,3.47036593,5.08498536,6.76461099,1192,1747,2325,566,901,1276,1.64833954,2.62218681,3.71275585,0.23956970,0.34861086,0.47114795
47117,0,USTennesseeMarshall,Tennessee,Marshall,2021-01-05 10:11:15.939081,2020-10-18 00:00:00.000000,3.56262436,5.17429097,6.83534325,1224,1778,2349,576,919,1282,1.67671200,2.67408245,3.72975009,0.23504737,0.34765328,0.46665917
47117,0,USTennesseeMarshall,Tennessee,Marshall,2021-01-05 10:11:15.939081,2020-10-19 00:00:00.000000,3.65010039,5.28145348,6.78877737,1254,1815,2333,591,936,1285,1.72202922,2.72360433,3.73913968,0.23219520,0.34953840,0.46648500
47117,0,USTennesseeMarshall,Tennessee,Marshall,2021-01-05 10:11:15.939081,2020-10-20 00:00:00.000000,3.67913703,5.33313297,6.94167479,1264,1833,2386,607,945,1296,1.76667792,2.75115199,3.77219678,0.23233915,0.35031268,0.48022225
47117,0,USTennesseeMarshall,Tennessee,Marshall,2021-01-05 10:11:15.939081,2020-10-21 00:00:00.000000,3.69053635,5.34477147,7.14724374,1268,1837,2456,622,952,1309,1.81100318,2.77219288,3.80856083,0.23243692,0.35502298,0.46608109
47117,0,USTennesseeMarshall,Tennessee,Marshall,2021-01-05 10:11:15.939081,2020-10-22 00:00:00.000000,3.74444065,5.40125093,7.23372327,1287,1856,2486,637,965,1330,1.85519899,2.80982197,3.87110555,0.23275060,0.35956272,0.46626569
47117,0,USTennesseeMarshall,Tennessee,Marshall,2021-01-05 10:11:15.939081,2020-10-23 00:00:00.000000,3.82090750,5.47479616,7.29981780,1313,1881,2509,652,976,1348,1.89935209,2.83963199,3.92347508,0.23524379,0.35656435,0.46911135
47117,0,USTennesseeMarshall,Tennessee,Marshall,2021-01-05 10:11:15.939081,2020-10-24 00:00:00.000000,3.90555800,5.55735469,7.36495227,1342,1910,2531,665,985,1366,1.93744365,2.86561116,3.97529100,0.24846874,0.36310927,0.47496231
47117,0,USTennesseeMarshall,Tennessee,Marshall,2021-01-05 10:11:15.939081,2020-10-25 00:00:00.000000,3.99898261,5.63302083,7.43204380,1374,1936,2554,673,998,1389,1.96060046,2.90335570,4.04083281,0.25998566,0.36491011,0.48029861
47117,0,USTennesseeMarshall,Tennessee,Marshall,2021-01-05 10:11:15.939081,2020-10-26 00:00:00.000000,4.10801383,5.69452832,7.50207029,1412,1957,2578,684,1013,1427,1.99065402,2.94722911,4.15156447,0.25966418,0.37163412,0.48308128
47117,0,USTennesseeMarshall,Tennessee,Marshall,2021-01-05 10:11:15.939081,2020-10-27 00:00:00.000000,4.16443262,5.75603545,7.64004816,1431,1978,2626,697,1029,1463,2.02851300,2.99478156,4.25765974,0.26921309,0.37902093,0.48421563
47117,0,USTennesseeMarshall,Tennessee,Marshall,2021-01-05 10:11:15.939081,2020-10-28 00:00:00.000000,4.20942912,5.82244015,7.79949025,1446,2001,2681,712,1041,1478,2.07314265,3.02950273,4.30171502,0.27916189,0.38116931,0.48429291
47117,0,USTennesseeMarshall,Tennessee,Marshall,2021-01-05 10:11:15.939081,2020-10-29 00:00:00.000000,4.26005255,5.93070624,7.95721408,1464,2038,2735,729,1053,1491,2.12329704,3.06439810,4.33941993,0.27771120,0.38043394,0.48463348
47117,0,USTennesseeMarshall,Tennessee,Marshall,2021-01-05 10:11:15.939081,2020-10-30 00:00:00.000000,4.30824352,6.09518268,8.10853354,1480,2095,2787,748,1073,1504,2.17780734,3.12370598,4.37803600,0.28373994,0.39300166,0.48252514
47117,0,USTennesseeMarshall,Tennessee,Marshall,2021-01-05 10:11:15.939081,2020-10-31 00:00:00.000000,4.29905106,6.18972819,8.19188978,1477,2127,2815,768,1087,1517,2.23570678,3.16218351,4.41538845,0.28201180,0.39639297,0.48221182
47117,0,USTennesseeMarshall,Tennessee,Marshall,2021-01-05 10:11:15.939081,2020-11-01 00:00:00.000000,4.28708857,6.21801955,8.25485073,1473,2137,2837,784,1092,1530,2.28100926,3.17780980,4.45103216,0.29251310,0.39575580,0.49139907
47117,0,USTennesseeMarshall,Tennessee,Marshall,2021-01-05 10:11:15.939081,2020-11-02 00:00:00.000000,4.30617222,6.23444929,8.27821016,1480,2143,2845,782,1102,1541,2.27683148,3.20592756,4.48420205,0.30034440,0.39568078,0.50752130
47117,0,USTennesseeMarshall,Tennessee,Marshall,2021-01-05 10:11:15.939081,2020-11-03 00:00:00.000000,4.44669127,6.29253079,8.26889477,1528,2163,2842,780,1127,1551,2.27087263,3.27995980,4.51446155,0.28055126,0.39746227,0.51768135
47117,0,USTennesseeMarshall,Tennessee,Marshall,2021-01-05 10:11:15.939081,2020-11-04 00:00:00.000000,4.58701800,6.40748083,8.23970864,1576,2202,2832,778,1145,1561,2.26338120,3.33286363,4.54173320,0.27697658,0.39567639,0.51742425
47117,0,USTennesseeMarshall,Tennessee,Marshall,2021-01-05 10:11:15.939081,2020-11-05 00:00:00.000000,4.69074587,6.49918714,8.39817490,1612,2234,2886,775,1165,1569,2.25460022,3.39045921,4.56616877,0.27793471,0.39337832,0.51894222
47117,0,USTennesseeMarshall,Tennessee,Marshall,2021-01-05 10:11:15.939081,2020-11-06 00:00:00.000000,4.76868637,6.60767671,8.59173987,1639,2271,2953,771,1178,1586,2.24544686,3.42924281,4.61583723,0.28439249,0.39817713,0.51343860
47117,0,USTennesseeMarshall,Tennessee,Marshall,2021-01-05 10:11:15.939081,2020-11-07 00:00:00.000000,4.84572145,6.67403265,8.64986380,1665,2294,2973,770,1186,1603,2.24250020,3.45164203,4.66369187,0.27989671,0.40554820,0.49372109
47117,0,USTennesseeMarshall,Tennessee,Marshall,2021-01-05 10:11:15.939081,2020-11-08 00:00:00.000000,4.92012739,6.75109695,8.70515605,1691,2320,2992,775,1201,1647,2.25523448,3.49488156,4.79283210,0.28169530,0.40813960,0.48771175
47117,0,USTennesseeMarshall,Tennessee,Marshall,2021-01-05 10:11:15.939081,2020-11-09 00:00:00.000000,4.98946293,6.82789444,8.76306179,1715,2347,3012,783,1220,1691,2.28027079,3.54916412,4.92175520,0.28385570,0.40751062,0.49596674
47117,0,USTennesseeMarshall,Tennessee,Marshall,2021-01-05 10:11:15.939081,2020-11-10 00:00:00.000000,5.05610370,6.95172578,8.83741526,1738,2389,3037,795,1239,1718,2.31408847,3.60586539,4.99825033,0.28647306,0.40742366,0.49620016
47117,0,USTennesseeMarshall,Tennessee,Marshall,2021-01-05 10:11:15.939081,2020-11-11 00:00:00.000000,5.12644880,7.01825924,8.97276488,1762,2412,3084,808,1249,1729,2.35307329,3.63554067,5.03060770,0.28925565,0.41028684,0.50772721
47117,0,USTennesseeMarshall,Tennessee,Marshall,2021-01-05 10:11:15.939081,2020-11-12 00:00:00.000000,5.19890633,7.09451726,9.16861085,1787,2438,3151,823,1266,1740,2.39499699,3.68293225,5.06186297,0.29201536,0.41031887,0.52219943
47117,0,USTennesseeMarshall,Tennessee,Marshall,2021-01-05 10:11:15.939081,2020-11-13 00:00:00.000000,5.27549453,7.17238827,9.44921600,1813,2465,3248,838,1280,1750,2.43858385,3.72635863,5.09214562,0.29456234,0.41431512,0.54018574
47117,0,USTennesseeMarshall,Tennessee,Marshall,2021-01-05 10:11:15.939081,2020-11-14 00:00:00.000000,5.35878200,7.25850244,9.69425628,1842,2495,3332,853,1289,1760,2.48363476,3.75195858,5.12238723,0.29678164,0.41095137,0.55874258
47117,0,USTennesseeMarshall,Tennessee,Marshall,2021-01-05 10:11:15.939081,2020-11-15 00:00:00.000000,5.44954281,7.33651401,9.75394837,1873,2521,3352,870,1295,1771,2.53101879,3.76733321,5.15418103,0.29918471,0.41139659,0.56252603
47117,0,USTennesseeMarshall,Tennessee,Marshall,2021-01-05 10:11:15.939081,2020-11-16 00:00:00.000000,5.55033194,7.42098521,9.80168776,1907,2550,3369,888,1312,1819,2.58365707,3.81741333,5.29254119,0.32099824,0.41346968,0.56672768
47117,0,USTennesseeMarshall,Tennessee,Marshall,2021-01-05 10:11:15.939081,2020-11-17 00:00:00.000000,5.58488867,7.51609564,9.84360702,1919,2583,3383,909,1332,1870,2.64646260,3.87673385,5.44131840,0.31614877,0.42265170,0.57741429
47117,0,USTennesseeMarshall,Tennessee,Marshall,2021-01-05 10:11:15.939081,2020-11-18 00:00:00.000000,5.65544797,7.61115646,9.87884573,1944,2616,3395,935,1351,1919,2.72269204,3.93080907,5.58434211,0.31519412,0.43048324,0.59162325
47117,0,USTennesseeMarshall,Tennessee,Marshall,2021-01-05 10:11:15.939081,2020-11-19 00:00:00.000000,5.75184034,7.71161275,9.97142215,1977,2650,3427,966,1360,1952,2.81124442,3.95717087,5.68069137,0.31514770,0.44380379,0.60223843
47117,0,USTennesseeMarshall,Tennessee,Marshall,2021-01-05 10:11:15.939081,2020-11-20 00:00:00.000000,5.82214675,7.80782088,10.14749543,2001,2683,3488,973,1376,1967,2.83308444,4.00398214,5.72269565,0.34142173,0.45576879,0.61935651
47117,0,USTennesseeMarshall,Tennessee,Marshall,2021-01-05 10:11:15.939081,2020-11-21 00:00:00.000000,5.93541139,7.86234378,10.33119403,2040,2702,3551,974,1394,1979,2.83448567,4.05739415,5.75979414,0.34810206,0.46893901,0.63741126
47117,0,USTennesseeMarshall,Tennessee,Marshall,2021-01-05 10:11:15.939081,2020-11-22 00:00:00.000000,6.06652669,7.94029427,10.53810507,2085,2729,3622,985,1413,1990,2.86818363,4.11336627,5.79128726,0.34846913,0.49320825,0.64665350
47117,0,USTennesseeMarshall,Tennessee,Marshall,2021-01-05 10:11:15.939081,2020-11-23 00:00:00.000000,6.19237664,8.11163040,10.77238024,2128,2788,3703,1000,1436,2000,2.91177826,4.17830965,5.81991335,0.34988595,0.50601905,0.64887034
47117,0,USTennesseeMarshall,Tennessee,Marshall,2021-01-05 10:11:15.939081,2020-11-24 00:00:00.000000,6.31880962,8.26502264,11.01688149,2172,2841,3787,1015,1458,2027,2.95296035,4.24370827,5.89684872,0.35989553,0.52217952,0.66264147
47117,0,USTennesseeMarshall,Tennessee,Marshall,2021-01-05 10:11:15.939081,2020-11-25 00:00:00.000000,6.39117917,8.46674408,11.27579358,2196,2910,3876,1028,1488,2061,2.99121960,4.33042529,5.99688652,0.37694238,0.53459531,0.67026650
47117,0,USTennesseeMarshall,Tennessee,Marshall,2021-01-05 10:11:15.939081,2020-11-26 00:00:00.000000,6.43737294,8.75824581,11.57264803,2212,3010,3978,1044,1518,2070,3.03773990,4.41883277,6.02311716,0.39535059,0.55193574,0.69390231
47117,0,USTennesseeMarshall,Tennessee,Marshall,2021-01-05 10:11:15.939081,2020-11-27 00:00:00.000000,6.52281913,9.05010144,11.86845776,2242,3110,4079,1070,1558,2088,3.11298059,4.53264372,6.07535159,0.41377766,0.58589818,0.74334889
47117,0,USTennesseeMarshall,Tennessee,Marshall,2021-01-05 10:11:15.939081,2020-11-28 00:00:00.000000,6.71987714,9.35639091,12.21335215,2309,3216,4198,1098,1600,2138,3.19666755,4.65726984,6.22120528,0.42188030,0.61209866,0.79670508
47117,0,USTennesseeMarshall,Tennessee,Marshall,2021-01-05 10:11:15.939081,2020-11-29 00:00:00.000000,6.98415468,9.64367414,12.66108372,2400,3315,4352,1120,1656,2223,3.25862658,4.81946613,6.46830906,0.45124489,0.62950736,0.86569828
47117,0,USTennesseeMarshall,Tennessee,Marshall,2021-01-05 10:11:15.939081,2020-11-30 00:00:00.000000,7.21556275,9.89174094,13.13872259,2480,3400,4516,1148,1695,2310,3.34151749,4.93178804,6.72195257,0.47307013,0.66036253,0.88344307
47117,0,USTennesseeMarshall,Tennessee,Marshall,2021-01-05 10:11:15.939081,2020-12-01 00:00:00.000000,7.42052110,10.25069463,13.62872389,2550,3523,4684,1181,1754,2399,3.43819271,5.10463590,6.97953734,0.49288960,0.67900848,0.89439444
47117,0,USTennesseeMarshall,Tennessee,Marshall,2021-01-05 10:11:15.939081,2020-12-02 00:00:00.000000,7.64418477,10.67167713,14.14968345,2627,3668,4863,1211,1817,2488,3.52479763,5.28869513,7.23909186,0.53100154,0.70255845,0.91406681
47117,0,USTennesseeMarshall,Tennessee,Marshall,2021-01-05 10:11:15.939081,2020-12-03 00:00:00.000000,7.91897497,11.11403572,14.70393939,2722,3820,5054,1244,1877,2577,3.61997261,5.46172650,7.49860728,0.54608833,0.72733519,0.97679158
47117,0,USTennesseeMarshall,Tennessee,Marshall,2021-01-05 10:11:15.939081,2020-12-04 00:00:00.000000,8.30505855,11.52192088,15.26175054,2854,3960,5246,1279,1939,2666,3.72255963,5.64248492,7.75616727,0.54877917,0.76045575,1.09010849
47117,0,USTennesseeMarshall,Tennessee,Marshall,2021-01-05 10:11:15.939081,2020-12-05 00:00:00.000000,8.60245035,11.91303846,15.80415013,2957,4095,5432,1317,2012,2753,3.83138678,5.85525982,8.00994233,0.54897387,0.80544347,1.26953990
47117,0,USTennesseeMarshall,Tennessee,Marshall,2021-01-05 10:11:15.939081,2020-12-06 00:00:00.000000,8.90075231,12.38286640,16.32233331,3059,4256,5610,1356,2082,2838,3.94666499,6.05696314,8.25809385,0.54920269,0.82871171,1.35133926
47117,0,USTennesseeMarshall,Tennessee,Marshall,2021-01-05 10:11:15.939081,2020-12-07 00:00:00.000000,9.27244058,12.91248035,16.80570479,3187,4438,5776,1398,2152,2972,4.06845249,6.26263431,8.64745394,0.55015469,0.85209797,1.37236167
47117,0,USTennesseeMarshall,Tennessee,Marshall,2021-01-05 10:11:15.939081,2020-12-08 00:00:00.000000,9.60330944,13.45934603,17.37184451,3301,4626,5971,1443,2240,3123,4.19809596,6.51894208,9.08638709,0.55498466,0.87435265,1.37814541
47117,0,USTennesseeMarshall,Tennessee,Marshall,2021-01-05 10:11:15.939081,2020-12-09 00:00:00.000000,9.94468327,14.02495732,17.99057211,3418,4821,6184,1490,2331,3274,4.33645111,6.78117838,9.52684686,0.56889452,0.87427314,1.38221837
47117,0,USTennesseeMarshall,Tennessee,Marshall,2021-01-05 10:11:15.939081,2020-12-10 00:00:00.000000,10.30504666,14.52503397,18.57796150,3542,4992,6386,1541,2401,3425,4.48393911,6.98733806,9.96396785,0.58471629,0.87244791,1.37197729
47117,0,USTennesseeMarshall,Tennessee,Marshall,2021-01-05 10:11:15.939081,2020-12-11 00:00:00.000000,10.68420695,14.91931210,19.12914650,3672,5128,6575,1595,2475,3572,4.64056269,7.20024782,10.39305684,0.58188915,0.88501839,1.35632205
47117,0,USTennesseeMarshall,Tennessee,Marshall,2021-01-05 10:11:15.939081,2020-12-12 00:00:00.000000,10.96362772,15.15226444,19.63852433,3768,5208,6750,1654,2554,3696,4.81294317,7.43186901,10.75444053,0.57465035,0.88278956,1.34333388
47117,0,USTennesseeMarshall,Tennessee,Marshall,2021-01-05 10:11:15.939081,2020-12-13 00:00:00.000000,11.20763878,15.49697234,20.10051233,3852,5327,6909,1722,2641,3778,5.00998126,7.68434337,10.99324977,0.55528681,0.87590090,1.33485944
47117,0,USTennesseeMarshall,Tennessee,Marshall,2021-01-05 10:11:15.939081,2020-12-14 00:00:00.000000,11.43283556,15.77579921,20.51064768,3930,5422,7050,1787,2674,3856,5.19882601,7.78154285,11.21774861,0.51590253,0.87391650,1.34706701
47117,0,USTennesseeMarshall,Tennessee,Marshall,2021-01-05 10:11:15.939081,2020-12-15 00:00:00.000000,11.62842954,16.01236011,20.86397491,3997,5504,7171,1848,2713,3926,5.37842882,7.89338111,11.42191207,0.47074309,0.87612781,1.41032271
47117,0,USTennesseeMarshall,Tennessee,Marshall,2021-01-05 10:11:15.939081,2020-12-16 00:00:00.000000,11.78538908,16.19644422,21.07646681,4051,5567,7245,1907,2771,3988,5.54841087,8.06366088,11.60270036,0.46096538,0.86957867,1.44352459
47117,0,USTennesseeMarshall,Tennessee,Marshall,2021-01-05 10:11:15.939081,2020-12-17 00:00:00.000000,11.89245727,16.34820438,20.95250894,4088,5619,7202,1962,2825,4039,5.70790071,8.22041980,11.75161272,0.45449289,0.86253984,1.51539653
47117,0,USTennesseeMarshall,Tennessee,Marshall,2021-01-05 10:11:15.939081,2020-12-18 00:00:00.000000,12.01805024,16.44672518,20.87885864,4131,5653,7177,2012,2871,4075,5.85544909,8.35327468,11.85625329,0.43334358,0.84210532,1.66253450
47117,0,USTennesseeMarshall,Tennessee,Marshall,2021-01-05 10:11:15.939081,2020-12-19 00:00:00.000000,12.12051221,16.46360381,20.58327713,4166,5659,7075,2058,2913,4079,5.98897164,8.47572172,11.86798675,0.43359530,0.82910700,1.79720177
47117,0,USTennesseeMarshall,Tennessee,Marshall,2021-01-05 10:11:15.939081,2020-12-20 00:00:00.000000,12.04797064,16.33864472,20.43963664,4141,5616,7026,2098,2934,4088,6.10544530,8.53677318,11.89512192,0.43922527,0.80875315,1.83921130
47117,0,USTennesseeMarshall,Tennessee,Marshall,2021-01-05 10:11:15.939081,2020-12-21 00:00:00.000000,11.88061521,16.11719718,20.46940646,4083,5540,7036,2131,2965,4066,6.20074535,8.62808881,11.83018230,0.44020546,0.79442878,1.90660563
47117,0,USTennesseeMarshall,Tennessee,Marshall,2021-01-05 10:11:15.939081,2020-12-22 00:00:00.000000,11.70377114,16.13149641,20.58380699,4023,5545,7075,2134,2963,4043,6.21063286,8.62137019,11.76274314,0.44475592,0.77976249,2.17379323
47117,0,USTennesseeMarshall,Tennessee,Marshall,2021-01-05 10:11:15.939081,2020-12-23 00:00:00.000000,11.46210628,16.04845215,20.63345538,3940,5516,7092,2136,2966,4059,6.21534540,8.62955572,11.80874194,0.45021095,0.77661009,2.28136254
47117,0,USTennesseeMarshall,Tennessee,Marshall,2021-01-05 10:11:15.939081,2020-12-24 00:00:00.000000,11.20209692,15.90847104,20.61643471,3850,5468,7086,2090,2960,4061,6.08168294,8.61368927,11.81483677,0.45199550,0.77790305,2.28845708
47117,0,USTennesseeMarshall,Tennessee,Marshall,2021-01-05 10:11:15.939081,2020-12-25 00:00:00.000000,10.77821862,15.64178897,20.36051760,3705,5376,6998,2035,2939,4049,5.92039047,8.55258553,11.78091251,0.45211141,0.78401187,2.29274664
47117,0,USTennesseeMarshall,Tennessee,Marshall,2021-01-05 10:11:15.939081,2020-12-26 00:00:00.000000,10.38112117,15.35879609,19.93563048,3568,5279,6852,1972,2910,4024,5.73860319,8.46559913,11.70765841,0.44574891,0.78012390,2.29528386
47117,0,USTennesseeMarshall,Tennessee,Marshall,2021-01-05 10:11:15.939081,2020-12-27 00:00:00.000000,10.21819389,15.12814191,19.46142609,3512,5200,6689,1905,2863,4017,5.54263042,8.33044932,11.68774123,0.44206201,0.77789021,2.29611210
47117,0,USTennesseeMarshall,Tennessee,Marshall,2021-01-05 10:11:15.939081,2020-12-28 00:00:00.000000,10.00503829,14.79215380,19.12842541,3439,5084,6575,1834,2819,4003,5.33775799,8.20118678,11.64550411,0.44012047,0.77862089,2.29296026
47117,0,USTennesseeMarshall,Tennessee,Marshall,2021-01-05 10:11:15.939081,2020-12-29 00:00:00.000000,9.68156039,14.45651916,18.59799254,3328,4969,6393,1762,2776,3931,5.12698380,8.07745381,11.43847225,0.42385527,0.79035804,2.28175079
47117,0,USTennesseeMarshall,Tennessee,Marshall,2021-01-05 10:11:15.939081,2020-12-30 00:00:00.000000,9.35519131,14.01360205,17.96878462,3215,4817,6176,1689,2725,3850,4.91439794,7.92793542,11.20010688,0.37233525,0.77509745,2.27114512
47117,0,USTennesseeMarshall,Tennessee,Marshall,2021-01-05 10:11:15.939081,2020-12-31 00:00:00.000000,9.02718211,13.66609870,17.39743805,3103,4697,5980,1660,2671,3758,4.82988109,7.77231668,10.93518750,0.34099418,0.76943130,2.26721660
47117,0,USTennesseeMarshall,Tennessee,Marshall,2021-01-05 10:11:15.939081,2021-01-01 00:00:00.000000,8.54135485,13.32959169,16.96109638,2936,4582,5830,1630,2625,3659,4.74206863,7.63714262,10.64707091,0.33570016,0.78452961,2.26315089
47117,0,USTennesseeMarshall,Tennessee,Marshall,2021-01-05 10:11:15.939081,2021-01-02 00:00:00.000000,7.98646151,13.07412905,16.50528950,2745,4494,5673,1599,2572,3554,4.65215665,7.48336712,10.33911975,0.34739089,0.75929706,2.24644188
47117,0,USTennesseeMarshall,Tennessee,Marshall,2021-01-05 10:11:15.939081,2021-01-03 00:00:00.000000,7.60154211,12.71294527,16.03315131,2613,4370,5511,1568,2519,3447,4.56218777,7.32943970,10.02929464,0.34929657,0.75414075,2.26951670
47117,0,USTennesseeMarshall,Tennessee,Marshall,2021-01-05 10:11:15.939081,2021-01-04 00:00:00.000000,7.31420151,12.14215056,15.85479444,2514,4173,5450,1538,2461,3373,4.47560277,7.16167428,9.81508804,0.34638655,0.75183674,2.28993835
47117,0,USTennesseeMarshall,Tennessee,Marshall,2021-01-05 10:11:15.939081,2021-01-05 00:00:00.000000,7.03494384,11.59506925,15.38695212,2418,3985,5289,1494,2399,3293,4.34621042,6.98097309,9.57981243,0.34347544,0.75082726,2.29968003
47117,0,USTennesseeMarshall,Tennessee,Marshall,2021-01-05 10:11:15.939081,2021-01-06 00:00:00.000000,6.76250541,11.15504319,14.81972494,2324,3834,5094,1407,2323,3206,4.09452255,6.75857153,9.32780109,0.34310355,0.75803264,2.30420699
47117,0,USTennesseeMarshall,Tennessee,Marshall,2021-01-05 10:11:15.939081,2021-01-07 00:00:00.000000,6.49634514,10.76118548,14.48769120,2233,3699,4980,1327,2240,3114,3.86113807,6.51708313,9.06141923,0.34305904,0.77052796,2.32634335
47117,0,USTennesseeMarshall,Tennessee,Marshall,2021-01-05 10:11:15.939081,2021-01-08 00:00:00.000000,6.16218508,10.26932965,14.18383452,2118,3530,4875,1252,2174,3047,3.64299245,6.32553247,8.86671667,0.34305375,0.78225216,2.33893565
47117,0,USTennesseeMarshall,Tennessee,Marshall,2021-01-05 10:11:15.939081,2021-01-09 00:00:00.000000,5.83029798,9.82540246,13.87200873,2004,3377,4768,1181,2099,2974,3.43793596,6.10808075,8.65220447,0.34305311,0.78307444,2.34330596
47117,0,USTennesseeMarshall,Tennessee,Marshall,2021-01-05 10:11:15.939081,2021-01-10 00:00:00.000000,5.51190903,9.35557224,13.40532583,1894,3215,4608,1115,2017,2853,3.24444527,5.86812176,8.30170015,0.34305302,0.78387274,2.34491150
47117,0,USTennesseeMarshall,Tennessee,Marshall,2021-01-05 10:11:15.939081,2021-01-11 00:00:00.000000,5.20716577,8.92773378,13.16344317,1789,3068,4524,1063,1937,2797,3.09402546,5.63758901,8.13711739,0.34305301,0.78442683,2.34557390
47117,0,USTennesseeMarshall,Tennessee,Marshall,2021-01-05 10:11:15.939081,2021-01-12 00:00:00.000000,4.91604969,8.51105089,12.92373198,1689,2925,4442,1020,1858,2723,2.96743576,5.40760561,7.92185258,0.34305300,0.78476887,2.34589514
47117,0,USTennesseeMarshall,Tennessee,Marshall,2021-01-05 10:11:15.939081,2021-01-13 00:00:00.000000,4.63841901,8.10438494,12.60516202,1594,2785,4333,977,1784,2609,2.84412668,5.19119346,7.59007812,0.34305300,0.78497047,2.34607843
47117,0,USTennesseeMarshall,Tennessee,Marshall,2021-01-05 10:11:15.939081,2021-01-14 00:00:00.000000,4.37404011,7.73777271,12.28405957,1503,2659,4222,936,1702,2495,2.72411949,4.95383996,7.26043992,0.34305300,0.78508697,2.34619634
47117,0,USTennesseeMarshall,Tennessee,Marshall,2021-01-05 10:11:15.939081,2021-01-15 00:00:00.000000,4.12261107,7.38547677,11.96135492,1417,2538,4111,896,1626,2383,2.60744948,4.73198441,6.93448704,0.34305300,0.78515372,2.34627768
47117,0,USTennesseeMarshall,Tennessee,Marshall,2021-01-05 10:11:15.939081,2021-01-16 00:00:00.000000,3.88377960,7.01562588,11.63792085,1335,2411,4000,857,1548,2273,2.49415578,4.50599140,6.61281124,0.34305300,0.78519181,2.34633579
47117,0,USTennesseeMarshall,Tennessee,Marshall,2021-01-05 10:11:15.939081,2021-01-17 00:00:00.000000,3.65715687,6.69972424,11.31457376,1257,2303,3889,819,1466,2164,2.38427460,4.26493556,6.29700646,0.34305300,0.78521351,2.34637798
