FIPS,HR_UID,nameid,province,region,analysisTime,dates,pointprevalence_025,pointprevalence_50,pointprevalence_975,pointinfections_025,pointinfections_50,pointinfections_975,pointinfectious_025,pointinfectious_50,pointinfectious_975,pointinfectiousprevalence_05,pointinfectiousprevalence_50,pointinfectiousprevalence_95,infectrate_025,infectrate_50,infectrate_975
53057,0,USWashingtonSkagit,Washington,Skagit,2021-01-05 06:34:37.992447,2020-03-09 00:00:00.000000,0.01979524,0.04388013,0.08505445,25,56,109,10,26,47,0.00809386,0.02078676,0.03695857,0.53684660,0.69222323,0.93972755
53057,0,USWashingtonSkagit,Washington,Skagit,2021-01-05 06:34:37.992447,2020-03-10 00:00:00.000000,0.02419824,0.05173913,0.09571642,31,66,123,13,29,56,0.01054276,0.02283200,0.04345742,0.53684191,0.69222286,0.93972717
53057,0,USWashingtonSkagit,Washington,Skagit,2021-01-05 06:34:37.992447,2020-03-11 00:00:00.000000,0.02927514,0.06066503,0.10702434,37,78,138,15,34,63,0.01231585,0.02658563,0.04920966,0.53682822,0.69222195,0.93972596
53057,0,USWashingtonSkagit,Washington,Skagit,2021-01-05 06:34:37.992447,2020-03-12 00:00:00.000000,0.03492240,0.07212470,0.11909311,45,93,153,19,40,71,0.01527791,0.03103130,0.05569845,0.53678828,0.69221965,0.93972220
53057,0,USWashingtonSkagit,Washington,Skagit,2021-01-05 06:34:37.992447,2020-03-13 00:00:00.000000,0.04119914,0.08498630,0.13203554,53,109,170,24,45,81,0.01913972,0.03549878,0.06294953,0.53667191,0.69221380,0.93971038
53057,0,USWashingtonSkagit,Washington,Skagit,2021-01-05 06:34:37.992447,2020-03-14 00:00:00.000000,0.04691876,0.09840774,0.14734195,60,127,190,29,53,91,0.02312438,0.04161729,0.07098581,0.53633368,0.69195698,0.93967346
53057,0,USWashingtonSkagit,Washington,Skagit,2021-01-05 06:34:37.992447,2020-03-15 00:00:00.000000,0.05400962,0.11354975,0.16879199,69,146,218,34,63,103,0.02689115,0.04908439,0.07981177,0.53535771,0.69112056,0.93955916
53057,0,USWashingtonSkagit,Washington,Skagit,2021-01-05 06:34:37.992447,2020-03-16 00:00:00.000000,0.06372231,0.12711447,0.19058945,82,164,246,40,73,115,0.03125286,0.05671040,0.08940180,0.53260014,0.68924905,0.93921542
53057,0,USWashingtonSkagit,Washington,Skagit,2021-01-05 06:34:37.992447,2020-03-17 00:00:00.000000,0.07442943,0.14318162,0.21578347,96,184,278,47,84,134,0.03705166,0.06542213,0.10398607,0.52524958,0.68592273,0.92602980
53057,0,USWashingtonSkagit,Washington,Skagit,2021-01-05 06:34:37.992447,2020-03-18 00:00:00.000000,0.08647621,0.16196868,0.25275327,111,209,326,55,97,159,0.04275067,0.07510336,0.12344342,0.50808143,0.67325672,0.92602610
53057,0,USWashingtonSkagit,Washington,Skagit,2021-01-05 06:34:37.992447,2020-03-19 00:00:00.000000,0.10003187,0.18082094,0.29784141,129,233,384,64,109,186,0.04984546,0.08497216,0.14470752,0.47910035,0.66059224,0.92601935
53057,0,USWashingtonSkagit,Washington,Skagit,2021-01-05 06:34:37.992447,2020-03-20 00:00:00.000000,0.11525419,0.20518250,0.34988648,148,265,452,74,123,206,0.05789004,0.09533658,0.15959844,0.46024816,0.63747483,0.92600176
53057,0,USWashingtonSkagit,Washington,Skagit,2021-01-05 06:34:37.992447,2020-03-21 00:00:00.000000,0.13215054,0.22683628,0.40695636,170,293,525,85,137,225,0.06654847,0.10634860,0.17484629,0.42987571,0.61364059,0.92562388
53057,0,USWashingtonSkagit,Washington,Skagit,2021-01-05 06:34:37.992447,2020-03-22 00:00:00.000000,0.14955010,0.25012166,0.43825986,193,323,566,95,152,245,0.07381596,0.11806445,0.19039398,0.39752545,0.56772825,0.82466020
53057,0,USWashingtonSkagit,Washington,Skagit,2021-01-05 06:34:37.992447,2020-03-23 00:00:00.000000,0.15948279,0.27525551,0.46917247,206,355,606,104,166,273,0.08093992,0.12897002,0.21150908,0.38729564,0.52615313,0.78791518
53057,0,USWashingtonSkagit,Washington,Skagit,2021-01-05 06:34:37.992447,2020-03-24 00:00:00.000000,0.17704252,0.29313283,0.50135047,228,378,647,110,181,305,0.08568215,0.14040530,0.23671890,0.36534837,0.48841880,0.69004756
53057,0,USWashingtonSkagit,Washington,Skagit,2021-01-05 06:34:37.992447,2020-03-25 00:00:00.000000,0.19159394,0.31533045,0.54643796,247,407,706,123,195,347,0.09560835,0.15116665,0.26874781,0.31536766,0.45160472,0.65212013
53057,0,USWashingtonSkagit,Washington,Skagit,2021-01-05 06:34:37.992447,2020-03-26 00:00:00.000000,0.20572730,0.33214064,0.57815498,265,429,747,136,208,388,0.10545193,0.16165414,0.30037914,0.29818978,0.42296078,0.60880771
53057,0,USWashingtonSkagit,Washington,Skagit,2021-01-05 06:34:37.992447,2020-03-27 00:00:00.000000,0.22007127,0.34082991,0.60705788,284,440,784,145,222,416,0.11293830,0.17192885,0.32233566,0.27321747,0.38508147,0.59001354
53057,0,USWashingtonSkagit,Washington,Skagit,2021-01-05 06:34:37.992447,2020-03-28 00:00:00.000000,0.23042436,0.35143925,0.63838891,297,454,824,154,235,439,0.11965034,0.18198329,0.34038928,0.26290733,0.34987924,0.54813813
53057,0,USWashingtonSkagit,Washington,Skagit,2021-01-05 06:34:37.992447,2020-03-29 00:00:00.000000,0.23777073,0.36229053,0.66484451,307,468,859,162,246,460,0.12583745,0.19057427,0.35667258,0.24863587,0.32246754,0.47727579
53057,0,USWashingtonSkagit,Washington,Skagit,2021-01-05 06:34:37.992447,2020-03-30 00:00:00.000000,0.24201293,0.37268924,0.69193642,312,481,894,167,254,477,0.12968959,0.19677364,0.36988849,0.23965979,0.30887891,0.45702241
53057,0,USWashingtonSkagit,Washington,Skagit,2021-01-05 06:34:37.992447,2020-03-31 00:00:00.000000,0.24602186,0.38316058,0.70043060,317,495,904,171,263,489,0.13270697,0.20400862,0.37922458,0.21808005,0.29898842,0.42978930
53057,0,USWashingtonSkagit,Washington,Skagit,2021-01-05 06:34:37.992447,2020-04-01 00:00:00.000000,0.24977274,0.38806936,0.71591566,322,501,924,174,268,498,0.13525185,0.20809125,0.38546208,0.20885508,0.29366030,0.40818888
53057,0,USWashingtonSkagit,Washington,Skagit,2021-01-05 06:34:37.992447,2020-04-02 00:00:00.000000,0.25327660,0.39533558,0.72234051,327,510,933,177,272,512,0.13752300,0.21094658,0.39695009,0.19758822,0.28219136,0.39455457
53057,0,USWashingtonSkagit,Washington,Skagit,2021-01-05 06:34:37.992447,2020-04-03 00:00:00.000000,0.25643983,0.39929668,0.72306542,331,515,934,180,285,523,0.13960557,0.22062686,0.40518408,0.18759061,0.27559906,0.38474760
53057,0,USWashingtonSkagit,Washington,Skagit,2021-01-05 06:34:37.992447,2020-04-04 00:00:00.000000,0.25934013,0.40541793,0.72076175,335,523,931,182,291,527,0.14150379,0.22583945,0.40847473,0.17970456,0.26855826,0.37511577
53057,0,USWashingtonSkagit,Washington,Skagit,2021-01-05 06:34:37.992447,2020-04-05 00:00:00.000000,0.26213036,0.41089088,0.71686354,338,530,926,185,296,530,0.14323853,0.22947563,0.41046371,0.17565930,0.26573718,0.36428225
53057,0,USWashingtonSkagit,Washington,Skagit,2021-01-05 06:34:37.992447,2020-04-06 00:00:00.000000,0.26482603,0.42089048,0.71314941,342,543,921,187,302,530,0.14486648,0.23415337,0.41085314,0.17464277,0.25987781,0.33943840
53057,0,USWashingtonSkagit,Washington,Skagit,2021-01-05 06:34:37.992447,2020-04-07 00:00:00.000000,0.26474984,0.42433232,0.70482233,342,548,910,188,311,533,0.14586423,0.24087790,0.41273293,0.17379063,0.25582570,0.33685499
53057,0,USWashingtonSkagit,Washington,Skagit,2021-01-05 06:34:37.992447,2020-04-08 00:00:00.000000,0.26207191,0.42591888,0.70251240,338,550,907,189,312,533,0.14632357,0.24219653,0.41310687,0.17128556,0.24872945,0.33267550
53057,0,USWashingtonSkagit,Washington,Skagit,2021-01-05 06:34:37.992447,2020-04-09 00:00:00.000000,0.25932838,0.42310841,0.70029049,335,546,904,189,313,533,0.14656479,0.24229124,0.41303906,0.16888422,0.23934830,0.32347964
53057,0,USWashingtonSkagit,Washington,Skagit,2021-01-05 06:34:37.992447,2020-04-10 00:00:00.000000,0.25653856,0.41762317,0.69527950,331,539,898,189,318,533,0.14666695,0.24618713,0.41258794,0.16421628,0.23515455,0.31550641
53057,0,USWashingtonSkagit,Washington,Skagit,2021-01-05 06:34:37.992447,2020-04-11 00:00:00.000000,0.25371956,0.41539341,0.68952382,327,536,890,189,319,534,0.14668372,0.24692630,0.41363106,0.15336547,0.23076969,0.30752742
53057,0,USWashingtonSkagit,Washington,Skagit,2021-01-05 06:34:37.992447,2020-04-12 00:00:00.000000,0.25089753,0.41685187,0.68733132,324,538,888,189,320,542,0.14665497,0.24774856,0.42006258,0.15023301,0.22520155,0.29487316
53057,0,USWashingtonSkagit,Washington,Skagit,2021-01-05 06:34:37.992447,2020-04-13 00:00:00.000000,0.24857915,0.41271724,0.67828926,321,533,876,189,318,546,0.14661127,0.24686368,0.42308308,0.14978059,0.21789883,0.29449558
53057,0,USWashingtonSkagit,Washington,Skagit,2021-01-05 06:34:37.992447,2020-04-14 00:00:00.000000,0.25106539,0.39961899,0.66591682,324,516,860,189,316,546,0.14677978,0.24505307,0.42276392,0.14971172,0.21646412,0.29407145
53057,0,USWashingtonSkagit,Washington,Skagit,2021-01-05 06:34:37.992447,2020-04-15 00:00:00.000000,0.24369337,0.38978789,0.65217018,314,503,842,185,310,545,0.14366931,0.24000296,0.42227802,0.14345552,0.21225583,0.29169106
53057,0,USWashingtonSkagit,Washington,Skagit,2021-01-05 06:34:37.992447,2020-04-16 00:00:00.000000,0.24104145,0.38574015,0.63916886,311,498,825,181,304,544,0.14073494,0.23545290,0.42168975,0.13951896,0.21062316,0.29174968
53057,0,USWashingtonSkagit,Washington,Skagit,2021-01-05 06:34:37.992447,2020-04-17 00:00:00.000000,0.23827549,0.38134734,0.64003350,307,492,826,180,302,544,0.14000534,0.23413289,0.42111820,0.13965031,0.20504772,0.29129115
53057,0,USWashingtonSkagit,Washington,Skagit,2021-01-05 06:34:37.992447,2020-04-18 00:00:00.000000,0.23297879,0.37852889,0.64416704,301,489,832,175,296,544,0.13559660,0.22930610,0.42108450,0.13893966,0.20237399,0.28473564
53057,0,USWashingtonSkagit,Washington,Skagit,2021-01-05 06:34:37.992447,2020-04-19 00:00:00.000000,0.22462968,0.36670076,0.64947483,290,473,839,169,290,545,0.13109610,0.22499258,0.42233048,0.13836431,0.19578958,0.27863764
53057,0,USWashingtonSkagit,Washington,Skagit,2021-01-05 06:34:37.992447,2020-04-20 00:00:00.000000,0.21784039,0.35539109,0.65508124,281,459,846,164,286,546,0.12727943,0.22200120,0.42329197,0.13530449,0.18725700,0.25794580
53057,0,USWashingtonSkagit,Washington,Skagit,2021-01-05 06:34:37.992447,2020-04-21 00:00:00.000000,0.21128824,0.34551058,0.66078277,272,446,853,161,281,542,0.12484128,0.21758948,0.41983186,0.12778364,0.17874245,0.25416997
53057,0,USWashingtonSkagit,Washington,Skagit,2021-01-05 06:34:37.992447,2020-04-22 00:00:00.000000,0.20502105,0.33796184,0.66647938,264,436,861,156,274,536,0.12150227,0.21244055,0.41559946,0.11545899,0.17754438,0.25005702
53057,0,USWashingtonSkagit,Washington,Skagit,2021-01-05 06:34:37.992447,2020-04-23 00:00:00.000000,0.19897427,0.33064619,0.66438122,257,427,858,151,267,530,0.11755372,0.20680384,0.41065996,0.11013491,0.17500963,0.24387987
53057,0,USWashingtonSkagit,Washington,Skagit,2021-01-05 06:34:37.992447,2020-04-24 00:00:00.000000,0.18994379,0.32445430,0.65282987,245,419,843,146,260,523,0.11325827,0.20193884,0.40513487,0.10757096,0.17174217,0.24299079
53057,0,USWashingtonSkagit,Washington,Skagit,2021-01-05 06:34:37.992447,2020-04-25 00:00:00.000000,0.18104532,0.31416785,0.64096835,233,405,828,140,253,515,0.10880671,0.19618692,0.39915448,0.10490353,0.16751692,0.23586901
53057,0,USWashingtonSkagit,Washington,Skagit,2021-01-05 06:34:37.992447,2020-04-26 00:00:00.000000,0.17258209,0.30500884,0.62847154,222,394,812,135,246,507,0.10501743,0.19057317,0.39281061,0.10232832,0.16536674,0.22014363
53057,0,USWashingtonSkagit,Washington,Skagit,2021-01-05 06:34:37.992447,2020-04-27 00:00:00.000000,0.16460538,0.29345526,0.61265371,212,379,791,131,241,498,0.10173701,0.18695319,0.38609083,0.10006890,0.16113522,0.21783742
53057,0,USWashingtonSkagit,Washington,Skagit,2021-01-05 06:34:37.992447,2020-04-28 00:00:00.000000,0.16152098,0.28122962,0.59393707,208,363,767,127,232,488,0.09898140,0.18024950,0.37842996,0.09820590,0.15509846,0.21713693
53057,0,USWashingtonSkagit,Washington,Skagit,2021-01-05 06:34:37.992447,2020-04-29 00:00:00.000000,0.15872240,0.27418193,0.57271003,205,354,739,124,223,477,0.09647559,0.17280958,0.36954334,0.09663920,0.15048303,0.21881598
53057,0,USWashingtonSkagit,Washington,Skagit,2021-01-05 06:34:37.992447,2020-04-30 00:00:00.000000,0.15611231,0.26671896,0.55060314,201,344,711,121,215,464,0.09409338,0.16684252,0.35933763,0.09521814,0.14543631,0.21961012
53057,0,USWashingtonSkagit,Washington,Skagit,2021-01-05 06:34:37.992447,2020-05-01 00:00:00.000000,0.15359807,0.25392194,0.52860575,198,328,682,118,207,449,0.09175318,0.16096087,0.34809393,0.09398044,0.14132471,0.21868268
53057,0,USWashingtonSkagit,Washington,Skagit,2021-01-05 06:34:37.992447,2020-05-02 00:00:00.000000,0.14947414,0.24190293,0.50674470,193,312,654,113,199,434,0.08803447,0.15422016,0.33621072,0.09314510,0.13801602,0.21599643
53057,0,USWashingtonSkagit,Washington,Skagit,2021-01-05 06:34:37.992447,2020-05-03 00:00:00.000000,0.14125187,0.23375344,0.48565193,182,302,627,109,192,418,0.08491952,0.14902252,0.32401131,0.09278099,0.13157905,0.20276755
53057,0,USWashingtonSkagit,Washington,Skagit,2021-01-05 06:34:37.992447,2020-05-04 00:00:00.000000,0.13327524,0.22427702,0.46434745,172,289,599,103,183,402,0.08041491,0.14238049,0.31150621,0.08585606,0.12752547,0.19443576
53057,0,USWashingtonSkagit,Washington,Skagit,2021-01-05 06:34:37.992447,2020-05-05 00:00:00.000000,0.12574087,0.21513191,0.44389455,162,277,573,98,177,386,0.07640085,0.13706009,0.29894900,0.08697380,0.12654048,0.18818877
53057,0,USWashingtonSkagit,Washington,Skagit,2021-01-05 06:34:37.992447,2020-05-06 00:00:00.000000,0.11863131,0.20600959,0.42426305,153,266,548,94,169,370,0.07297020,0.13155228,0.28653564,0.08943174,0.12640422,0.18614057
53057,0,USWashingtonSkagit,Washington,Skagit,2021-01-05 06:34:37.992447,2020-05-07 00:00:00.000000,0.11193345,0.19779048,0.40543409,144,255,523,90,162,354,0.06976096,0.12545223,0.27439135,0.09027284,0.12629837,0.18581474
53057,0,USWashingtonSkagit,Washington,Skagit,2021-01-05 06:34:37.992447,2020-05-08 00:00:00.000000,0.10562761,0.18920652,0.38735728,136,244,500,86,154,339,0.06679022,0.11948553,0.26258842,0.09029727,0.12542808,0.18512470
53057,0,USWashingtonSkagit,Washington,Skagit,2021-01-05 06:34:37.992447,2020-05-09 00:00:00.000000,0.09968761,0.18004507,0.36999872,128,232,478,81,148,324,0.06295112,0.11499395,0.25115804,0.08898948,0.12252582,0.18732454
53057,0,USWashingtonSkagit,Washington,Skagit,2021-01-05 06:34:37.992447,2020-05-10 00:00:00.000000,0.09408607,0.17152849,0.35140405,121,221,454,75,142,310,0.05805086,0.11060781,0.24011916,0.08339329,0.12258243,0.18048730
53057,0,USWashingtonSkagit,Washington,Skagit,2021-01-05 06:34:37.992447,2020-05-11 00:00:00.000000,0.08934343,0.16438207,0.32599821,115,212,421,69,136,296,0.05357328,0.10529298,0.22945271,0.08186418,0.12186515,0.17835461
53057,0,USWashingtonSkagit,Washington,Skagit,2021-01-05 06:34:37.992447,2020-05-12 00:00:00.000000,0.08491448,0.15805506,0.30232321,109,204,390,65,129,282,0.05065237,0.10003576,0.21902476,0.08169371,0.12189486,0.17995424
53057,0,USWashingtonSkagit,Washington,Skagit,2021-01-05 06:34:37.992447,2020-05-13 00:00:00.000000,0.08096405,0.15024457,0.28034198,104,194,362,62,122,269,0.04802687,0.09495416,0.20889659,0.08160605,0.12215064,0.18004143
53057,0,USWashingtonSkagit,Washington,Skagit,2021-01-05 06:34:37.992447,2020-05-14 00:00:00.000000,0.07756007,0.14348023,0.26237986,100,185,339,59,116,257,0.04568303,0.08992381,0.19911804,0.08058786,0.12262354,0.17899303
53057,0,USWashingtonSkagit,Washington,Skagit,2021-01-05 06:34:37.992447,2020-05-15 00:00:00.000000,0.07465774,0.13666669,0.25174850,96,176,325,56,110,239,0.04360993,0.08550987,0.18545129,0.08052779,0.12337698,0.17680369
53057,0,USWashingtonSkagit,Washington,Skagit,2021-01-05 06:34:37.992447,2020-05-16 00:00:00.000000,0.07212142,0.13217085,0.24169831,93,170,312,54,106,222,0.04180250,0.08244726,0.17206373,0.07967996,0.12630289,0.17790117
53057,0,USWashingtonSkagit,Washington,Skagit,2021-01-05 06:34:37.992447,2020-05-17 00:00:00.000000,0.06945778,0.12563393,0.23227875,89,162,300,51,101,206,0.04022092,0.07894391,0.15972773,0.08356412,0.12368409,0.19878623
53057,0,USWashingtonSkagit,Washington,Skagit,2021-01-05 06:34:37.992447,2020-05-18 00:00:00.000000,0.06589917,0.11998383,0.22221849,85,155,287,50,97,191,0.03881525,0.07531371,0.14846996,0.08880442,0.12577399,0.20111998
53057,0,USWashingtonSkagit,Washington,Skagit,2021-01-05 06:34:37.992447,2020-05-19 00:00:00.000000,0.06188545,0.11486617,0.21311654,79,148,275,48,93,180,0.03742661,0.07226098,0.14002860,0.09156203,0.12835097,0.21891110
53057,0,USWashingtonSkagit,Washington,Skagit,2021-01-05 06:34:37.992447,2020-05-20 00:00:00.000000,0.05813535,0.11028526,0.20522998,75,142,265,46,89,173,0.03600334,0.06959634,0.13394655,0.09166854,0.12946585,0.21929421
53057,0,USWashingtonSkagit,Washington,Skagit,2021-01-05 06:34:37.992447,2020-05-21 00:00:00.000000,0.05468457,0.10542306,0.19872000,70,136,256,43,86,165,0.03385879,0.06695020,0.12801566,0.09209824,0.13063476,0.21921151
53057,0,USWashingtonSkagit,Washington,Skagit,2021-01-05 06:34:37.992447,2020-05-22 00:00:00.000000,0.05152760,0.10195676,0.19340474,66,131,249,41,83,158,0.03196284,0.06432011,0.12272793,0.09905774,0.13590035,0.21911036
53057,0,USWashingtonSkagit,Washington,Skagit,2021-01-05 06:34:37.992447,2020-05-23 00:00:00.000000,0.04875453,0.09915929,0.18891264,62,128,244,39,80,155,0.03051201,0.06228958,0.12053860,0.10214678,0.13898967,0.21978047
53057,0,USWashingtonSkagit,Washington,Skagit,2021-01-05 06:34:37.992447,2020-05-24 00:00:00.000000,0.04675047,0.09605806,0.18493238,60,124,238,37,77,153,0.02915222,0.06031249,0.11865650,0.10417319,0.14465441,0.22210570
53057,0,USWashingtonSkagit,Washington,Skagit,2021-01-05 06:34:37.992447,2020-05-25 00:00:00.000000,0.04808530,0.09335007,0.18227725,62,120,235,36,75,151,0.02790235,0.05827872,0.11704995,0.10540927,0.14812814,0.22774585
53057,0,USWashingtonSkagit,Washington,Skagit,2021-01-05 06:34:37.992447,2020-05-26 00:00:00.000000,0.04971662,0.09179261,0.18010846,64,118,232,35,73,149,0.02764514,0.05659068,0.11565843,0.10490514,0.15822733,0.23882935
53057,0,USWashingtonSkagit,Washington,Skagit,2021-01-05 06:34:37.992447,2020-05-27 00:00:00.000000,0.04745437,0.08886347,0.17872306,61,114,230,36,70,147,0.02801247,0.05469109,0.11452111,0.10464315,0.16706125,0.23827799
53057,0,USWashingtonSkagit,Washington,Skagit,2021-01-05 06:34:37.992447,2020-05-28 00:00:00.000000,0.04446796,0.08656618,0.17635557,57,111,227,35,69,146,0.02770446,0.05347697,0.11370995,0.10458656,0.17311418,0.22331176
53057,0,USWashingtonSkagit,Washington,Skagit,2021-01-05 06:34:37.992447,2020-05-29 00:00:00.000000,0.04175300,0.08506412,0.17692445,53,109,228,33,67,146,0.02606753,0.05217600,0.11329845,0.10470408,0.18271451,0.24529935
53057,0,USWashingtonSkagit,Washington,Skagit,2021-01-05 06:34:37.992447,2020-05-30 00:00:00.000000,0.03981719,0.08357448,0.17843641,51,107,230,31,65,146,0.02444770,0.05094440,0.11330799,0.10504687,0.18632798,0.25802161
53057,0,USWashingtonSkagit,Washington,Skagit,2021-01-05 06:34:37.992447,2020-05-31 00:00:00.000000,0.03922060,0.08263195,0.17594901,50,106,227,29,64,145,0.02302483,0.04996003,0.11248004,0.11693872,0.19290826,0.27531720
53057,0,USWashingtonSkagit,Washington,Skagit,2021-01-05 06:34:37.992447,2020-06-01 00:00:00.000000,0.04267388,0.08239023,0.17515758,55,106,226,28,63,141,0.02207189,0.04924529,0.10972797,0.12517189,0.19927177,0.27861786
53057,0,USWashingtonSkagit,Washington,Skagit,2021-01-05 06:34:37.992447,2020-06-02 00:00:00.000000,0.04318812,0.08318922,0.17531780,55,107,226,29,63,139,0.02319651,0.04877926,0.10777503,0.12480455,0.20496985,0.28264898
53057,0,USWashingtonSkagit,Washington,Skagit,2021-01-05 06:34:37.992447,2020-06-03 00:00:00.000000,0.04610024,0.08291181,0.17610225,59,107,227,32,62,137,0.02519391,0.04810403,0.10655112,0.12651083,0.20678581,0.30124847
53057,0,USWashingtonSkagit,Washington,Skagit,2021-01-05 06:34:37.992447,2020-06-04 00:00:00.000000,0.04913370,0.08238044,0.17748326,63,106,229,34,62,136,0.02664067,0.04803676,0.10592760,0.13594158,0.21241778,0.31696517
53057,0,USWashingtonSkagit,Washington,Skagit,2021-01-05 06:34:37.992447,2020-06-05 00:00:00.000000,0.05134146,0.08258597,0.17939719,66,106,231,34,61,136,0.02690100,0.04794664,0.10581434,0.14377666,0.22142387,0.33715967
53057,0,USWashingtonSkagit,Washington,Skagit,2021-01-05 06:34:37.992447,2020-06-06 00:00:00.000000,0.05016549,0.08325061,0.18421518,64,107,238,36,61,137,0.02792969,0.04794806,0.10613419,0.16103982,0.22939092,0.36346936
53057,0,USWashingtonSkagit,Washington,Skagit,2021-01-05 06:34:37.992447,2020-06-07 00:00:00.000000,0.05111899,0.08425893,0.18791407,66,108,242,36,62,140,0.02803457,0.04866218,0.10837203,0.16964950,0.23772856,0.36882853
53057,0,USWashingtonSkagit,Washington,Skagit,2021-01-05 06:34:37.992447,2020-06-08 00:00:00.000000,0.05292733,0.08736367,0.18581762,68,112,240,36,62,143,0.02855692,0.04861764,0.11132261,0.17704020,0.24670607,0.37038587
53057,0,USWashingtonSkagit,Washington,Skagit,2021-01-05 06:34:37.992447,2020-06-09 00:00:00.000000,0.05420397,0.09072606,0.18535113,70,117,239,37,63,147,0.02919966,0.04933805,0.11415270,0.17850865,0.25452581,0.37132932
53057,0,USWashingtonSkagit,Washington,Skagit,2021-01-05 06:34:37.992447,2020-06-10 00:00:00.000000,0.05473266,0.09437372,0.18755605,70,121,242,38,64,151,0.02988386,0.05000469,0.11694669,0.17939441,0.25997438,0.38614799
53057,0,USWashingtonSkagit,Washington,Skagit,2021-01-05 06:34:37.992447,2020-06-11 00:00:00.000000,0.05531542,0.09783028,0.19506389,71,126,252,39,66,154,0.03063738,0.05138585,0.11972850,0.18208682,0.27011838,0.38053439
53057,0,USWashingtonSkagit,Washington,Skagit,2021-01-05 06:34:37.992447,2020-06-12 00:00:00.000000,0.05605030,0.10178280,0.20462994,72,131,264,40,67,156,0.03147844,0.05233156,0.12132879,0.18991990,0.28194377,0.38546852
53057,0,USWashingtonSkagit,Washington,Skagit,2021-01-05 06:34:37.992447,2020-06-13 00:00:00.000000,0.05721663,0.10706922,0.21622755,73,138,279,41,69,156,0.03182910,0.05398867,0.12086621,0.20801156,0.30103577,0.42418512
53057,0,USWashingtonSkagit,Washington,Skagit,2021-01-05 06:34:37.992447,2020-06-14 00:00:00.000000,0.05902517,0.11203243,0.22350546,76,144,288,43,71,162,0.03337774,0.05549064,0.12578778,0.21953044,0.31733177,0.47021025
53057,0,USWashingtonSkagit,Washington,Skagit,2021-01-05 06:34:37.992447,2020-06-15 00:00:00.000000,0.06119680,0.11555203,0.22922260,79,149,296,44,76,169,0.03451358,0.05899080,0.13086717,0.22008742,0.32919847,0.48291873
53057,0,USWashingtonSkagit,Washington,Skagit,2021-01-05 06:34:37.992447,2020-06-16 00:00:00.000000,0.06388502,0.12033356,0.23518238,82,155,303,46,80,174,0.03569581,0.06195321,0.13483949,0.22023953,0.33732373,0.48139336
53057,0,USWashingtonSkagit,Washington,Skagit,2021-01-05 06:34:37.992447,2020-06-17 00:00:00.000000,0.06963527,0.12657617,0.24133142,89,163,311,49,84,178,0.03838100,0.06556301,0.13827434,0.22039011,0.34583350,0.48289695
53057,0,USWashingtonSkagit,Washington,Skagit,2021-01-05 06:34:37.992447,2020-06-18 00:00:00.000000,0.07214204,0.13282533,0.24886492,93,171,321,51,88,183,0.04004407,0.06821663,0.14183835,0.24947545,0.35471888,0.48634497
53057,0,USWashingtonSkagit,Washington,Skagit,2021-01-05 06:34:37.992447,2020-06-19 00:00:00.000000,0.07510952,0.13890617,0.26094670,97,179,337,54,92,188,0.04231138,0.07170416,0.14551617,0.27286928,0.36448530,0.48512185
53057,0,USWashingtonSkagit,Washington,Skagit,2021-01-05 06:34:37.992447,2020-06-20 00:00:00.000000,0.07917313,0.14689453,0.27900699,102,189,360,56,97,192,0.04355917,0.07576662,0.14929996,0.26928539,0.37685663,0.49843584
53057,0,USWashingtonSkagit,Washington,Skagit,2021-01-05 06:34:37.992447,2020-06-21 00:00:00.000000,0.08337918,0.15490497,0.29803782,107,200,385,57,103,197,0.04482818,0.08021290,0.15319617,0.26582777,0.37820732,0.51043560
53057,0,USWashingtonSkagit,Washington,Skagit,2021-01-05 06:34:37.992447,2020-06-22 00:00:00.000000,0.08818650,0.16407667,0.31530128,113,211,407,60,108,204,0.04656142,0.08382669,0.15811654,0.27475678,0.38533659,0.53030844
53057,0,USWashingtonSkagit,Washington,Skagit,2021-01-05 06:34:37.992447,2020-06-23 00:00:00.000000,0.09499181,0.17380307,0.33366867,122,224,431,63,113,215,0.04924708,0.08746000,0.16649343,0.28204967,0.39894726,0.53337913
53057,0,USWashingtonSkagit,Washington,Skagit,2021-01-05 06:34:37.992447,2020-06-24 00:00:00.000000,0.09959990,0.18290700,0.35305614,128,236,456,68,119,227,0.05263283,0.09213657,0.17569503,0.30552433,0.40392591,0.53318166
53057,0,USWashingtonSkagit,Washington,Skagit,2021-01-05 06:34:37.992447,2020-06-25 00:00:00.000000,0.10501795,0.19249117,0.37352632,135,248,482,73,125,239,0.05656787,0.09696619,0.18505895,0.31636944,0.41023607,0.53244350
53057,0,USWashingtonSkagit,Washington,Skagit,2021-01-05 06:34:37.992447,2020-06-26 00:00:00.000000,0.11147573,0.20365326,0.39517221,144,263,510,78,130,252,0.06100826,0.10102158,0.19508259,0.31508864,0.41709765,0.53022161
53057,0,USWashingtonSkagit,Washington,Skagit,2021-01-05 06:34:37.992447,2020-06-27 00:00:00.000000,0.11899476,0.21603141,0.41814215,153,279,540,85,137,266,0.06606951,0.10641766,0.20658022,0.32969321,0.42649335,0.53229760
53057,0,USWashingtonSkagit,Washington,Skagit,2021-01-05 06:34:37.992447,2020-06-28 00:00:00.000000,0.12748375,0.23159761,0.44259833,164,299,571,91,145,282,0.07055860,0.11298570,0.21872818,0.33447290,0.43071288,0.54590908
53057,0,USWashingtonSkagit,Washington,Skagit,2021-01-05 06:34:37.992447,2020-06-29 00:00:00.000000,0.14054007,0.24458135,0.46491222,181,316,600,98,158,299,0.07587149,0.12250370,0.23159435,0.34179594,0.42756994,0.57294061
53057,0,USWashingtonSkagit,Washington,Skagit,2021-01-05 06:34:37.992447,2020-06-30 00:00:00.000000,0.15314273,0.26047287,0.47733002,197,336,616,105,167,316,0.08188769,0.12932199,0.24516724,0.34317163,0.42944324,0.55609769
53057,0,USWashingtonSkagit,Washington,Skagit,2021-01-05 06:34:37.992447,2020-07-01 00:00:00.000000,0.16538684,0.27801640,0.49362963,213,359,637,114,179,335,0.08850005,0.13903318,0.25944148,0.34319117,0.43175700,0.56193629
53057,0,USWashingtonSkagit,Washington,Skagit,2021-01-05 06:34:37.992447,2020-07-02 00:00:00.000000,0.17811665,0.29637323,0.52443284,230,382,677,123,192,354,0.09564593,0.14867546,0.27410090,0.34392145,0.43108767,0.55224729
53057,0,USWashingtonSkagit,Washington,Skagit,2021-01-05 06:34:37.992447,2020-07-03 00:00:00.000000,0.19137721,0.31546000,0.55583959,247,407,718,133,204,373,0.10322542,0.15837904,0.28915351,0.33928787,0.42649181,0.54053786
53057,0,USWashingtonSkagit,Washington,Skagit,2021-01-05 06:34:37.992447,2020-07-04 00:00:00.000000,0.20480561,0.33465122,0.58754051,264,432,759,143,216,393,0.11122004,0.16778249,0.30434459,0.32778404,0.42693812,0.53714280
53057,0,USWashingtonSkagit,Washington,Skagit,2021-01-05 06:34:37.992447,2020-07-05 00:00:00.000000,0.21409638,0.35447428,0.61931558,276,457,800,154,228,412,0.11943411,0.17663047,0.31933067,0.31499995,0.41990819,0.53469226
53057,0,USWashingtonSkagit,Washington,Skagit,2021-01-05 06:34:37.992447,2020-07-06 00:00:00.000000,0.23556652,0.37244322,0.64933363,304,481,838,163,240,431,0.12675965,0.18579492,0.33383001,0.30398252,0.40220641,0.53362950
53057,0,USWashingtonSkagit,Washington,Skagit,2021-01-05 06:34:37.992447,2020-07-07 00:00:00.000000,0.25241833,0.39028185,0.67438021,326,504,871,172,252,449,0.13378064,0.19579324,0.34824357,0.30553888,0.39625363,0.52939148
53057,0,USWashingtonSkagit,Washington,Skagit,2021-01-05 06:34:37.992447,2020-07-08 00:00:00.000000,0.26894946,0.40943127,0.69443114,347,529,897,185,269,467,0.14334650,0.20858354,0.36210588,0.29596404,0.38348597,0.52300495
53057,0,USWashingtonSkagit,Washington,Skagit,2021-01-05 06:34:37.992447,2020-07-09 00:00:00.000000,0.28039626,0.42887372,0.73013155,362,554,943,192,286,484,0.14904375,0.22144622,0.37516767,0.27659304,0.37559168,0.51544977
53057,0,USWashingtonSkagit,Washington,Skagit,2021-01-05 06:34:37.992447,2020-07-10 00:00:00.000000,0.29832298,0.44787112,0.75001536,385,578,969,200,302,502,0.15490894,0.23445182,0.38926073,0.26936546,0.36606875,0.49334981
53057,0,USWashingtonSkagit,Washington,Skagit,2021-01-05 06:34:37.992447,2020-07-11 00:00:00.000000,0.30191907,0.46734486,0.78703933,390,603,1016,207,316,525,0.16038120,0.24523703,0.40703620,0.26044772,0.34682603,0.47528538
53057,0,USWashingtonSkagit,Washington,Skagit,2021-01-05 06:34:37.992447,2020-07-12 00:00:00.000000,0.30378189,0.48107090,0.81911302,392,621,1058,214,330,548,0.16603666,0.25552207,0.42468650,0.24345589,0.33745709,0.44036505
53057,0,USWashingtonSkagit,Washington,Skagit,2021-01-05 06:34:37.992447,2020-07-13 00:00:00.000000,0.30630011,0.49262380,0.84933615,395,636,1097,217,340,573,0.16849855,0.26324887,0.44377535,0.22025189,0.33163356,0.42308560
53057,0,USWashingtonSkagit,Washington,Skagit,2021-01-05 06:34:37.992447,2020-07-14 00:00:00.000000,0.31054936,0.50098195,0.87806013,401,647,1134,221,349,598,0.17128049,0.27043939,0.46356116,0.21897064,0.32299065,0.41560486
53057,0,USWashingtonSkagit,Washington,Skagit,2021-01-05 06:34:37.992447,2020-07-15 00:00:00.000000,0.31409711,0.51036397,0.90619733,405,659,1170,224,358,622,0.17410093,0.27754729,0.48191120,0.21476950,0.31575107,0.39800502
53057,0,USWashingtonSkagit,Washington,Skagit,2021-01-05 06:34:37.992447,2020-07-16 00:00:00.000000,0.31692083,0.51680679,0.93404683,409,667,1206,228,368,645,0.17661225,0.28544420,0.49928284,0.21280003,0.30686514,0.39012915
53057,0,USWashingtonSkagit,Washington,Skagit,2021-01-05 06:34:37.992447,2020-07-17 00:00:00.000000,0.31937491,0.52434154,0.93501854,412,677,1208,230,375,666,0.17870478,0.29049233,0.51600582,0.21081959,0.29275295,0.37732742
53057,0,USWashingtonSkagit,Washington,Skagit,2021-01-05 06:34:37.992447,2020-07-18 00:00:00.000000,0.32425405,0.53290897,0.93209997,418,688,1204,233,380,687,0.18069855,0.29455864,0.53226272,0.20200228,0.27769023,0.36120902
53057,0,USWashingtonSkagit,Washington,Skagit,2021-01-05 06:34:37.992447,2020-07-19 00:00:00.000000,0.32934663,0.53401821,0.92714961,425,689,1197,236,384,707,0.18307073,0.29772145,0.54736174,0.19024183,0.26626284,0.35970063
53057,0,USWashingtonSkagit,Washington,Skagit,2021-01-05 06:34:37.992447,2020-07-20 00:00:00.000000,0.33341377,0.54076587,0.92642488,430,698,1196,240,388,720,0.18575885,0.30036177,0.55795790,0.18159390,0.26000027,0.35873679
53057,0,USWashingtonSkagit,Washington,Skagit,2021-01-05 06:34:37.992447,2020-07-21 00:00:00.000000,0.32944835,0.54262322,0.92514675,425,701,1195,238,387,725,0.18463233,0.29962472,0.56148520,0.18515020,0.25460015,0.35512034
53057,0,USWashingtonSkagit,Washington,Skagit,2021-01-05 06:34:37.992447,2020-07-22 00:00:00.000000,0.32786714,0.55022179,0.92381302,423,710,1193,236,393,723,0.18335652,0.30457558,0.55962979,0.18546015,0.25322691,0.34925644
53057,0,USWashingtonSkagit,Washington,Skagit,2021-01-05 06:34:37.992447,2020-07-23 00:00:00.000000,0.32196407,0.55371943,0.92242024,415,715,1191,236,399,716,0.18342450,0.30956443,0.55427031,0.18608340,0.24881015,0.34161183
53057,0,USWashingtonSkagit,Washington,Skagit,2021-01-05 06:34:37.992447,2020-07-24 00:00:00.000000,0.32089791,0.55235484,0.91300654,414,713,1179,233,400,706,0.18089191,0.30972391,0.54666707,0.17891514,0.24164039,0.33496593
53057,0,USWashingtonSkagit,Washington,Skagit,2021-01-05 06:34:37.992447,2020-07-25 00:00:00.000000,0.31878772,0.54441636,0.89047630,411,703,1150,229,400,694,0.17725770,0.30963282,0.53743530,0.17693592,0.23973077,0.34524230
53057,0,USWashingtonSkagit,Washington,Skagit,2021-01-05 06:34:37.992447,2020-07-26 00:00:00.000000,0.31624310,0.53692599,0.86531056,408,693,1118,229,400,680,0.17794787,0.30984254,0.52659727,0.17573478,0.23440819,0.33940833
53057,0,USWashingtonSkagit,Washington,Skagit,2021-01-05 06:34:37.992447,2020-07-27 00:00:00.000000,0.31407443,0.53366934,0.84051416,405,689,1085,230,396,667,0.17835993,0.30713608,0.51673827,0.16538222,0.22687348,0.31539702
53057,0,USWashingtonSkagit,Washington,Skagit,2021-01-05 06:34:37.992447,2020-07-28 00:00:00.000000,0.31181083,0.52506967,0.83380881,402,678,1077,230,390,664,0.17869518,0.30218887,0.51453130,0.16319563,0.22378930,0.29851858
53057,0,USWashingtonSkagit,Washington,Skagit,2021-01-05 06:34:37.992447,2020-07-29 00:00:00.000000,0.31178737,0.51609622,0.82680054,402,666,1068,228,382,660,0.17672385,0.29600492,0.51148906,0.15942540,0.22012581,0.29603022
53057,0,USWashingtonSkagit,Washington,Skagit,2021-01-05 06:34:37.992447,2020-07-30 00:00:00.000000,0.30654651,0.50788681,0.81957435,396,656,1058,225,379,656,0.17421709,0.29353841,0.50790385,0.15727332,0.21935552,0.29220132
53057,0,USWashingtonSkagit,Washington,Skagit,2021-01-05 06:34:37.992447,2020-07-31 00:00:00.000000,0.30306585,0.49689719,0.81559622,391,642,1053,222,377,651,0.17184971,0.29239551,0.50395856,0.15016047,0.21301503,0.28775911
53057,0,USWashingtonSkagit,Washington,Skagit,2021-01-05 06:34:37.992447,2020-08-01 00:00:00.000000,0.29871338,0.48299715,0.81416877,385,624,1051,220,375,645,0.17082798,0.29069670,0.49974368,0.14866467,0.20881968,0.28212195
53057,0,USWashingtonSkagit,Washington,Skagit,2021-01-05 06:34:37.992447,2020-08-02 00:00:00.000000,0.29362876,0.47168235,0.81247094,379,609,1049,221,372,639,0.17159920,0.28794985,0.49527651,0.14531748,0.20599612,0.26812783
53057,0,USWashingtonSkagit,Washington,Skagit,2021-01-05 06:34:37.992447,2020-08-03 00:00:00.000000,0.28705762,0.45726038,0.80894423,370,590,1045,219,366,633,0.17004055,0.28368239,0.49051048,0.14517326,0.20125686,0.26838913
53057,0,USWashingtonSkagit,Washington,Skagit,2021-01-05 06:34:37.992447,2020-08-04 00:00:00.000000,0.28035979,0.45387253,0.80453142,362,586,1039,215,356,627,0.16694035,0.27563406,0.48542663,0.14513618,0.19339971,0.26124514
53057,0,USWashingtonSkagit,Washington,Skagit,2021-01-05 06:34:37.992447,2020-08-05 00:00:00.000000,0.27361273,0.44426134,0.79856012,353,574,1031,211,346,622,0.16346283,0.26780242,0.48168594,0.14510563,0.19114465,0.26107788
53057,0,USWashingtonSkagit,Washington,Skagit,2021-01-05 06:34:37.992447,2020-08-06 00:00:00.000000,0.26685648,0.42864465,0.79028784,344,553,1021,206,340,619,0.15979095,0.26372557,0.47927763,0.14080283,0.18563368,0.25520151
53057,0,USWashingtonSkagit,Washington,Skagit,2021-01-05 06:34:37.992447,2020-08-07 00:00:00.000000,0.25989062,0.41734090,0.77905999,335,539,1006,201,332,614,0.15602425,0.25722480,0.47598384,0.13908755,0.17992050,0.24153783
53057,0,USWashingtonSkagit,Washington,Skagit,2021-01-05 06:34:37.992447,2020-08-08 00:00:00.000000,0.25214315,0.40598334,0.76494482,325,524,988,196,323,609,0.15215237,0.25052752,0.47149795,0.13238327,0.18020033,0.24723027
53057,0,USWashingtonSkagit,Washington,Skagit,2021-01-05 06:34:37.992447,2020-08-09 00:00:00.000000,0.24793256,0.39541565,0.74909982,320,510,967,191,315,601,0.14799895,0.24442171,0.46563377,0.12858973,0.17901488,0.25092050
53057,0,USWashingtonSkagit,Washington,Skagit,2021-01-05 06:34:37.992447,2020-08-10 00:00:00.000000,0.24278485,0.38514337,0.73225349,313,497,946,185,307,592,0.14344894,0.23788048,0.45851217,0.12044984,0.17139297,0.25053579
53057,0,USWashingtonSkagit,Washington,Skagit,2021-01-05 06:34:37.992447,2020-08-11 00:00:00.000000,0.23414037,0.36918491,0.71523637,302,477,924,179,299,581,0.13870877,0.23154233,0.45036206,0.11777599,0.16961291,0.24095210
53057,0,USWashingtonSkagit,Washington,Skagit,2021-01-05 06:34:37.992447,2020-08-12 00:00:00.000000,0.22571123,0.35458673,0.69824660,291,458,902,173,292,570,0.13391788,0.22623111,0.44151411,0.11799520,0.16801374,0.24111969
53057,0,USWashingtonSkagit,Washington,Skagit,2021-01-05 06:34:37.992447,2020-08-13 00:00:00.000000,0.21744267,0.34578980,0.68120584,280,446,880,166,284,558,0.12922638,0.22029091,0.43222376,0.12057930,0.16873728,0.22721888
53057,0,USWashingtonSkagit,Washington,Skagit,2021-01-05 06:34:37.992447,2020-08-14 00:00:00.000000,0.20917369,0.33686536,0.66364739,270,435,857,160,278,546,0.12460618,0.21520663,0.42263662,0.11635286,0.16921193,0.22571931
53057,0,USWashingtonSkagit,Washington,Skagit,2021-01-05 06:34:37.992447,2020-08-15 00:00:00.000000,0.19882196,0.32574592,0.64601971,256,420,834,155,272,533,0.12003513,0.21052813,0.41274714,0.11364363,0.16859840,0.22354048
53057,0,USWashingtonSkagit,Washington,Skagit,2021-01-05 06:34:37.992447,2020-08-16 00:00:00.000000,0.18895584,0.31798075,0.62865888,244,410,812,149,266,520,0.11553980,0.20632419,0.40264185,0.10989290,0.16617116,0.22033420
53057,0,USWashingtonSkagit,Washington,Skagit,2021-01-05 06:34:37.992447,2020-08-17 00:00:00.000000,0.18215344,0.31021422,0.61288313,235,400,791,143,261,507,0.11117900,0.20261611,0.39245142,0.10841182,0.16528282,0.21531642
53057,0,USWashingtonSkagit,Washington,Skagit,2021-01-05 06:34:37.992447,2020-08-18 00:00:00.000000,0.17609115,0.30246637,0.59748771,227,390,771,137,253,494,0.10676955,0.19621968,0.38255085,0.10770023,0.16335724,0.21470800
53057,0,USWashingtonSkagit,Washington,Skagit,2021-01-05 06:34:37.992447,2020-08-19 00:00:00.000000,0.17028287,0.29247991,0.58250579,220,377,752,132,241,481,0.10242324,0.18696941,0.37292245,0.11034627,0.15970589,0.21571953
53057,0,USWashingtonSkagit,Washington,Skagit,2021-01-05 06:34:37.992447,2020-08-20 00:00:00.000000,0.16408084,0.28508675,0.56788740,212,368,733,126,230,469,0.09821214,0.17822046,0.36355437,0.11240524,0.15549143,0.21607427
53057,0,USWashingtonSkagit,Washington,Skagit,2021-01-05 06:34:37.992447,2020-08-21 00:00:00.000000,0.15722338,0.27747034,0.55347987,203,358,715,121,224,457,0.09419071,0.17352421,0.35442978,0.11257629,0.15322128,0.21295698
53057,0,USWashingtonSkagit,Washington,Skagit,2021-01-05 06:34:37.992447,2020-08-22 00:00:00.000000,0.15071033,0.26987331,0.53884428,194,348,696,117,214,446,0.09129455,0.16594009,0.34550635,0.11243379,0.15122670,0.21380432
53057,0,USWashingtonSkagit,Washington,Skagit,2021-01-05 06:34:37.992447,2020-08-23 00:00:00.000000,0.14494438,0.26097174,0.52307720,187,337,675,114,204,434,0.08858060,0.15845666,0.33666536,0.11079241,0.14925687,0.20758260
53057,0,USWashingtonSkagit,Washington,Skagit,2021-01-05 06:34:37.992447,2020-08-24 00:00:00.000000,0.13924090,0.25192082,0.50429466,179,325,651,109,195,423,0.08502778,0.15138354,0.32764162,0.10726413,0.14695667,0.20958395
53057,0,USWashingtonSkagit,Washington,Skagit,2021-01-05 06:34:37.992447,2020-08-25 00:00:00.000000,0.13385176,0.24386228,0.48447052,172,315,625,105,187,410,0.08139643,0.14530915,0.31785745,0.10514263,0.14480157,0.20965662
53057,0,USWashingtonSkagit,Washington,Skagit,2021-01-05 06:34:37.992447,2020-08-26 00:00:00.000000,0.12875349,0.23217331,0.46456406,166,299,600,101,182,397,0.07821027,0.14089105,0.30735690,0.10391439,0.14354431,0.20943786
53057,0,USWashingtonSkagit,Washington,Skagit,2021-01-05 06:34:37.992447,2020-08-27 00:00:00.000000,0.12393682,0.22304878,0.44509690,160,288,575,97,177,382,0.07536007,0.13733965,0.29638025,0.10402955,0.14311936,0.20690594
53057,0,USWashingtonSkagit,Washington,Skagit,2021-01-05 06:34:37.992447,2020-08-28 00:00:00.000000,0.11939032,0.21319818,0.42628907,154,275,550,93,172,368,0.07213631,0.13373656,0.28519484,0.10563072,0.14397125,0.20834361
53057,0,USWashingtonSkagit,Washington,Skagit,2021-01-05 06:34:37.992447,2020-08-29 00:00:00.000000,0.11505587,0.20394839,0.40823142,148,263,527,88,165,354,0.06855611,0.12783698,0.27401848,0.10815037,0.14330509,0.21023734
53057,0,USWashingtonSkagit,Washington,Skagit,2021-01-05 06:34:37.992447,2020-08-30 00:00:00.000000,0.11096079,0.19778444,0.39095817,143,255,505,84,158,339,0.06559391,0.12260841,0.26300780,0.10750414,0.14368651,0.21059008
53057,0,USWashingtonSkagit,Washington,Skagit,2021-01-05 06:34:37.992447,2020-08-31 00:00:00.000000,0.10597896,0.19221694,0.37646385,136,248,486,80,151,325,0.06251216,0.11726129,0.25226910,0.10529364,0.14494773,0.21165150
53057,0,USWashingtonSkagit,Washington,Skagit,2021-01-05 06:34:37.992447,2020-09-01 00:00:00.000000,0.10072572,0.18589876,0.36273085,130,240,468,77,145,313,0.05987841,0.11235701,0.24227862,0.10435243,0.14631628,0.21517773
53057,0,USWashingtonSkagit,Washington,Skagit,2021-01-05 06:34:37.992447,2020-09-02 00:00:00.000000,0.09715453,0.18148928,0.34975457,125,234,451,74,140,300,0.05754606,0.10889059,0.23294272,0.10578036,0.14754669,0.21726738
53057,0,USWashingtonSkagit,Washington,Skagit,2021-01-05 06:34:37.992447,2020-09-03 00:00:00.000000,0.09246029,0.17552799,0.33749994,119,226,436,71,138,289,0.05543048,0.10751514,0.22418572,0.10839893,0.14845856,0.21931856
53057,0,USWashingtonSkagit,Washington,Skagit,2021-01-05 06:34:37.992447,2020-09-04 00:00:00.000000,0.08799922,0.16982547,0.32607898,113,219,421,67,137,279,0.05246353,0.10623638,0.21595201,0.11007712,0.15010400,0.21908758
53057,0,USWashingtonSkagit,Washington,Skagit,2021-01-05 06:34:37.992447,2020-09-05 00:00:00.000000,0.08501619,0.16482321,0.31603349,109,212,408,64,133,269,0.04955345,0.10345627,0.20822951,0.11150512,0.15287306,0.21984488
53057,0,USWashingtonSkagit,Washington,Skagit,2021-01-05 06:34:37.992447,2020-09-06 00:00:00.000000,0.08181446,0.15948903,0.30793532,105,206,397,61,129,259,0.04774075,0.10043604,0.20112402,0.11288746,0.15345879,0.22015499
53057,0,USWashingtonSkagit,Washington,Skagit,2021-01-05 06:34:37.992447,2020-09-07 00:00:00.000000,0.07813646,0.15376555,0.30021890,100,198,387,59,126,251,0.04632170,0.09759598,0.19482705,0.10913068,0.15604671,0.22027638
53057,0,USWashingtonSkagit,Washington,Skagit,2021-01-05 06:34:37.992447,2020-09-08 00:00:00.000000,0.07314083,0.14733173,0.29310758,94,190,378,58,122,244,0.04536571,0.09472714,0.18913710,0.10895392,0.15883226,0.22566003
53057,0,USWashingtonSkagit,Washington,Skagit,2021-01-05 06:34:37.992447,2020-09-09 00:00:00.000000,0.06899166,0.14398931,0.28634121,89,186,369,56,118,237,0.04335952,0.09199174,0.18396504,0.10956901,0.16155298,0.23373704
53057,0,USWashingtonSkagit,Washington,Skagit,2021-01-05 06:34:37.992447,2020-09-10 00:00:00.000000,0.06581936,0.14083044,0.27983054,85,181,361,53,114,231,0.04132498,0.08849545,0.17919938,0.11665872,0.16562447,0.23847341
53057,0,USWashingtonSkagit,Washington,Skagit,2021-01-05 06:34:37.992447,2020-09-11 00:00:00.000000,0.06285730,0.13777957,0.27351104,81,178,353,50,109,225,0.03941609,0.08471066,0.17474888,0.12080402,0.16826561,0.24796855
53057,0,USWashingtonSkagit,Washington,Skagit,2021-01-05 06:34:37.992447,2020-09-12 00:00:00.000000,0.06012710,0.13428345,0.26732331,77,173,345,48,106,220,0.03754705,0.08241021,0.17054160,0.12161558,0.17221736,0.26070376
53057,0,USWashingtonSkagit,Washington,Skagit,2021-01-05 06:34:37.992447,2020-09-13 00:00:00.000000,0.05764351,0.13157335,0.26122418,74,169,337,45,104,215,0.03520552,0.08089728,0.16651859,0.12635277,0.17726468,0.26344222
53057,0,USWashingtonSkagit,Washington,Skagit,2021-01-05 06:34:37.992447,2020-09-14 00:00:00.000000,0.05585960,0.13012203,0.25443493,72,168,328,42,102,210,0.03305441,0.07902135,0.16263268,0.13150562,0.18267855,0.26669255
53057,0,USWashingtonSkagit,Washington,Skagit,2021-01-05 06:34:37.992447,2020-09-15 00:00:00.000000,0.05901094,0.12827837,0.24774957,76,165,320,42,98,205,0.03296586,0.07651254,0.15869421,0.13122345,0.18668968,0.27826414
53057,0,USWashingtonSkagit,Washington,Skagit,2021-01-05 06:34:37.992447,2020-09-16 00:00:00.000000,0.06026133,0.12656600,0.24122610,77,163,311,40,97,199,0.03165729,0.07510599,0.15473874,0.13270387,0.18768112,0.28888114
53057,0,USWashingtonSkagit,Washington,Skagit,2021-01-05 06:34:37.992447,2020-09-17 00:00:00.000000,0.05925880,0.12420019,0.23501997,76,160,303,39,96,194,0.03043780,0.07447693,0.15080708,0.13658103,0.19373045,0.29990273
53057,0,USWashingtonSkagit,Washington,Skagit,2021-01-05 06:34:37.992447,2020-09-18 00:00:00.000000,0.05833333,0.12385086,0.23289391,75,160,300,37,94,189,0.02930977,0.07314529,0.14695789,0.14480510,0.19928025,0.29896351
53057,0,USWashingtonSkagit,Washington,Skagit,2021-01-05 06:34:37.992447,2020-09-19 00:00:00.000000,0.05748097,0.12242006,0.23740197,74,158,306,36,94,185,0.02826364,0.07305035,0.14328809,0.14659328,0.20339355,0.30551652
53057,0,USWashingtonSkagit,Washington,Skagit,2021-01-05 06:34:37.992447,2020-09-20 00:00:00.000000,0.05670413,0.12318873,0.24157079,73,159,312,35,94,180,0.02752444,0.07275362,0.13992890,0.14864785,0.20873568,0.29848335
53057,0,USWashingtonSkagit,Washington,Skagit,2021-01-05 06:34:37.992447,2020-09-21 00:00:00.000000,0.05627239,0.12322504,0.24431231,72,159,315,35,94,176,0.02709249,0.07344098,0.13696481,0.15097098,0.21747423,0.29847630
53057,0,USWashingtonSkagit,Washington,Skagit,2021-01-05 06:34:37.992447,2020-09-22 00:00:00.000000,0.05697073,0.12326939,0.24704461,73,159,319,35,95,174,0.02742902,0.07369158,0.13522927,0.16283526,0.22837077,0.31442394
53057,0,USWashingtonSkagit,Washington,Skagit,2021-01-05 06:34:37.992447,2020-09-23 00:00:00.000000,0.06321696,0.12343412,0.25001917,81,159,323,38,94,173,0.02961191,0.07352620,0.13436629,0.16766641,0.22831660,0.33785789
53057,0,USWashingtonSkagit,Washington,Skagit,2021-01-05 06:34:37.992447,2020-09-24 00:00:00.000000,0.06969406,0.12443499,0.25337791,90,160,327,41,94,173,0.03240644,0.07290253,0.13410949,0.16878657,0.23576196,0.34460999
53057,0,USWashingtonSkagit,Washington,Skagit,2021-01-05 06:34:37.992447,2020-09-25 00:00:00.000000,0.07324492,0.12531483,0.25688606,94,161,331,45,94,173,0.03551009,0.07305447,0.13426898,0.17018255,0.24549706,0.34627898
53057,0,USWashingtonSkagit,Washington,Skagit,2021-01-05 06:34:37.992447,2020-09-26 00:00:00.000000,0.07452063,0.12659884,0.26041799,96,163,336,49,94,174,0.03867150,0.07334818,0.13471288,0.17272939,0.25141097,0.34826849
53057,0,USWashingtonSkagit,Washington,Skagit,2021-01-05 06:34:37.992447,2020-09-27 00:00:00.000000,0.07338673,0.12826629,0.26152631,94,165,337,54,96,175,0.04183017,0.07442745,0.13606938,0.18236559,0.26472201,0.34859474
53057,0,USWashingtonSkagit,Washington,Skagit,2021-01-05 06:34:37.992447,2020-09-28 00:00:00.000000,0.07512045,0.13159455,0.26200081,97,170,338,56,97,178,0.04405979,0.07546556,0.13790979,0.19686312,0.27499133,0.36402279
53057,0,USWashingtonSkagit,Washington,Skagit,2021-01-05 06:34:37.992447,2020-09-29 00:00:00.000000,0.08096519,0.13443407,0.26230047,104,173,338,57,98,180,0.04474225,0.07608330,0.13961410,0.21489285,0.27861738,0.37106810
53057,0,USWashingtonSkagit,Washington,Skagit,2021-01-05 06:34:37.992447,2020-09-30 00:00:00.000000,0.08479798,0.13713084,0.26068443,109,177,336,59,100,182,0.04602362,0.07804566,0.14127950,0.22220862,0.28427514,0.37405317
53057,0,USWashingtonSkagit,Washington,Skagit,2021-01-05 06:34:37.992447,2020-10-01 00:00:00.000000,0.08855222,0.14023591,0.25951853,114,181,335,61,102,184,0.04770019,0.07935379,0.14288671,0.23158658,0.29187674,0.38485036
53057,0,USWashingtonSkagit,Washington,Skagit,2021-01-05 06:34:37.992447,2020-10-02 00:00:00.000000,0.09255836,0.14395461,0.25906601,119,185,334,64,104,186,0.04964364,0.08068091,0.14452872,0.23922737,0.29744161,0.40708616
53057,0,USWashingtonSkagit,Washington,Skagit,2021-01-05 06:34:37.992447,2020-10-03 00:00:00.000000,0.09686224,0.14902707,0.25965618,125,192,335,66,107,189,0.05177446,0.08286241,0.14649885,0.24544580,0.30600515,0.42207227
53057,0,USWashingtonSkagit,Washington,Skagit,2021-01-05 06:34:37.992447,2020-10-04 00:00:00.000000,0.10012841,0.15347755,0.26110054,129,198,337,69,110,192,0.05405319,0.08579917,0.14921051,0.24966843,0.31398330,0.46270991
53057,0,USWashingtonSkagit,Washington,Skagit,2021-01-05 06:34:37.992447,2020-10-05 00:00:00.000000,0.10555711,0.16121115,0.26293130,136,208,339,70,114,197,0.05464493,0.08863013,0.15268187,0.25313146,0.32823371,0.47175956
53057,0,USWashingtonSkagit,Washington,Skagit,2021-01-05 06:34:37.992447,2020-10-06 00:00:00.000000,0.10826675,0.16812657,0.27777342,139,217,358,74,118,203,0.05739491,0.09192865,0.15712561,0.25461786,0.34296772,0.47541556
53057,0,USWashingtonSkagit,Washington,Skagit,2021-01-05 06:34:37.992447,2020-10-07 00:00:00.000000,0.11274790,0.17650584,0.29371547,145,228,379,76,123,209,0.05904152,0.09582953,0.16226120,0.25521562,0.34664733,0.47665669
53057,0,USWashingtonSkagit,Washington,Skagit,2021-01-05 06:34:37.992447,2020-10-08 00:00:00.000000,0.11589369,0.18235829,0.30999685,149,235,400,77,129,216,0.05997153,0.09987409,0.16790246,0.25619915,0.34931616,0.50083488
53057,0,USWashingtonSkagit,Washington,Skagit,2021-01-05 06:34:37.992447,2020-10-09 00:00:00.000000,0.11896717,0.19291424,0.31599757,153,249,408,82,134,227,0.06372994,0.10415522,0.17640898,0.26536096,0.35115032,0.50349571
53057,0,USWashingtonSkagit,Washington,Skagit,2021-01-05 06:34:37.992447,2020-10-10 00:00:00.000000,0.12229578,0.20215070,0.32387948,158,261,418,84,140,233,0.06574186,0.10888337,0.18045230,0.26711184,0.35592556,0.49687774
53057,0,USWashingtonSkagit,Washington,Skagit,2021-01-05 06:34:37.992447,2020-10-11 00:00:00.000000,0.12612129,0.20999116,0.33283366,162,271,430,87,146,241,0.06751681,0.11318565,0.18724278,0.26964599,0.36538643,0.49530957
53057,0,USWashingtonSkagit,Washington,Skagit,2021-01-05 06:34:37.992447,2020-10-12 00:00:00.000000,0.13242375,0.21754742,0.34412469,171,281,444,89,150,250,0.06943888,0.11649551,0.19423197,0.27129975,0.37488560,0.54620143
53057,0,USWashingtonSkagit,Washington,Skagit,2021-01-05 06:34:37.992447,2020-10-13 00:00:00.000000,0.13915720,0.22642568,0.35654186,179,292,460,93,155,259,0.07200274,0.12029611,0.20107423,0.28151559,0.38630218,0.55895869
53057,0,USWashingtonSkagit,Washington,Skagit,2021-01-05 06:34:37.992447,2020-10-14 00:00:00.000000,0.14561403,0.23335708,0.37052179,188,301,478,96,160,268,0.07497376,0.12460553,0.20782697,0.27371491,0.39772367,0.56061548
53057,0,USWashingtonSkagit,Washington,Skagit,2021-01-05 06:34:37.992447,2020-10-15 00:00:00.000000,0.15285795,0.24004465,0.38678960,197,310,499,101,167,277,0.07828555,0.12974409,0.21464302,0.28626718,0.40195520,0.56102438
53057,0,USWashingtonSkagit,Washington,Skagit,2021-01-05 06:34:37.992447,2020-10-16 00:00:00.000000,0.16140186,0.25381888,0.40539074,208,327,523,105,172,286,0.08200768,0.13370873,0.22203344,0.29034263,0.40854424,0.56463029
53057,0,USWashingtonSkagit,Washington,Skagit,2021-01-05 06:34:37.992447,2020-10-17 00:00:00.000000,0.17184641,0.26838816,0.42599816,222,346,550,111,180,302,0.08633853,0.13965401,0.23434381,0.29722099,0.41856534,0.58286226
53057,0,USWashingtonSkagit,Washington,Skagit,2021-01-05 06:34:37.992447,2020-10-18 00:00:00.000000,0.18441254,0.28459715,0.46036770,238,367,594,118,188,319,0.09154362,0.14577730,0.24725479,0.30428240,0.43411128,0.60308057
53057,0,USWashingtonSkagit,Washington,Skagit,2021-01-05 06:34:37.992447,2020-10-19 00:00:00.000000,0.19834070,0.30345805,0.49882111,256,392,644,126,197,338,0.09784196,0.15270869,0.26226427,0.32303042,0.45548177,0.58807623
53057,0,USWashingtonSkagit,Washington,Skagit,2021-01-05 06:34:37.992447,2020-10-20 00:00:00.000000,0.21273994,0.32171451,0.54047415,274,415,698,135,207,359,0.10506566,0.16044573,0.27800543,0.32797096,0.47104340,0.56891554
53057,0,USWashingtonSkagit,Washington,Skagit,2021-01-05 06:34:37.992447,2020-10-21 00:00:00.000000,0.22457016,0.34420546,0.59426571,290,444,767,144,219,387,0.11172046,0.16980542,0.30024004,0.34208854,0.48453795,0.57829374
53057,0,USWashingtonSkagit,Washington,Skagit,2021-01-05 06:34:37.992447,2020-10-22 00:00:00.000000,0.23887829,0.36724991,0.64289973,308,474,830,150,235,422,0.11629545,0.18236570,0.32664796,0.35518671,0.49280243,0.60978145
53057,0,USWashingtonSkagit,Washington,Skagit,2021-01-05 06:34:37.992447,2020-10-23 00:00:00.000000,0.25600035,0.39838853,0.68492374,330,514,884,156,251,450,0.12140996,0.19434585,0.34876603,0.36348060,0.50420665,0.62574371
53057,0,USWashingtonSkagit,Washington,Skagit,2021-01-05 06:34:37.992447,2020-10-24 00:00:00.000000,0.27521127,0.43035790,0.73704491,355,556,952,164,268,485,0.12718866,0.20785135,0.37602153,0.37687129,0.50994571,0.63018815
53057,0,USWashingtonSkagit,Washington,Skagit,2021-01-05 06:34:37.992447,2020-10-25 00:00:00.000000,0.29616520,0.46716166,0.78763128,382,603,1017,176,289,522,0.13696420,0.22441254,0.40441161,0.38721829,0.50733580,0.63107452
53057,0,USWashingtonSkagit,Washington,Skagit,2021-01-05 06:34:37.992447,2020-10-26 00:00:00.000000,0.31879726,0.50217061,0.84060007,411,648,1086,192,314,547,0.14901138,0.24347767,0.42336418,0.39550087,0.51762967,0.64007895
53057,0,USWashingtonSkagit,Washington,Skagit,2021-01-05 06:34:37.992447,2020-10-27 00:00:00.000000,0.34323548,0.53619649,0.90387088,443,692,1167,209,338,573,0.16227563,0.26237362,0.44390460,0.40402288,0.52525817,0.64116070
53057,0,USWashingtonSkagit,Washington,Skagit,2021-01-05 06:34:37.992447,2020-10-28 00:00:00.000000,0.36952959,0.57032072,0.99263594,477,736,1282,226,365,602,0.17522656,0.28323399,0.46595585,0.41346075,0.52915972,0.64505489
53057,0,USWashingtonSkagit,Washington,Skagit,2021-01-05 06:34:37.992447,2020-10-29 00:00:00.000000,0.39771885,0.61665422,1.08956222,513,796,1407,245,395,641,0.19017018,0.30630299,0.49659080,0.41739050,0.53088526,0.65263751
53057,0,USWashingtonSkagit,Washington,Skagit,2021-01-05 06:34:37.992447,2020-10-30 00:00:00.000000,0.42752151,0.67093885,1.17886171,552,866,1523,265,426,707,0.20550576,0.32972993,0.54738651,0.41885601,0.52292201,0.64515399
53057,0,USWashingtonSkagit,Washington,Skagit,2021-01-05 06:34:37.992447,2020-10-31 00:00:00.000000,0.46147499,0.71844349,1.25147485,596,928,1616,285,456,780,0.22096130,0.35297391,0.60382471,0.42158098,0.52043240,0.64434267
53057,0,USWashingtonSkagit,Washington,Skagit,2021-01-05 06:34:37.992447,2020-11-01 00:00:00.000000,0.50171339,0.76789783,1.32571109,648,992,1712,312,489,861,0.24201062,0.37871275,0.66640281,0.41758767,0.51395401,0.63819868
53057,0,USWashingtonSkagit,Washington,Skagit,2021-01-05 06:34:37.992447,2020-11-02 00:00:00.000000,0.53736701,0.82300689,1.40249280,694,1063,1812,345,525,950,0.26717936,0.40685203,0.73551627,0.40453407,0.50466593,0.63681632
53057,0,USWashingtonSkagit,Washington,Skagit,2021-01-05 06:34:37.992447,2020-11-03 00:00:00.000000,0.57352744,0.86978536,1.48166805,741,1123,1914,374,560,1048,0.28963274,0.43356607,0.81130591,0.40394977,0.50169187,0.63403406
53057,0,USWashingtonSkagit,Washington,Skagit,2021-01-05 06:34:37.992447,2020-11-04 00:00:00.000000,0.60893378,0.92966982,1.60816106,786,1201,2077,399,598,1155,0.30948032,0.46352214,0.89401269,0.40363490,0.49956036,0.62749323
53057,0,USWashingtonSkagit,Washington,Skagit,2021-01-05 06:34:37.992447,2020-11-05 00:00:00.000000,0.64304077,1.00080531,1.76044971,830,1293,2274,423,645,1270,0.32796896,0.49932950,0.98370651,0.39052010,0.49859567,0.62463667
53057,0,USWashingtonSkagit,Washington,Skagit,2021-01-05 06:34:37.992447,2020-11-06 00:00:00.000000,0.67697989,1.06256828,1.86404082,874,1372,2408,448,687,1388,0.34691384,0.53234697,1.07471431,0.36711761,0.49296673,0.60620639
53057,0,USWashingtonSkagit,Washington,Skagit,2021-01-05 06:34:37.992447,2020-11-07 00:00:00.000000,0.71425657,1.12032091,1.93137502,922,1447,2495,473,736,1451,0.36659489,0.57004795,1.12314491,0.35150736,0.48554038,0.56750563
53057,0,USWashingtonSkagit,Washington,Skagit,2021-01-05 06:34:37.992447,2020-11-08 00:00:00.000000,0.75347313,1.19374910,1.99531638,973,1542,2578,500,781,1511,0.38718148,0.60497348,1.16955065,0.33986234,0.47078587,0.56359271
53057,0,USWashingtonSkagit,Washington,Skagit,2021-01-05 06:34:37.992447,2020-11-09 00:00:00.000000,0.79483719,1.25829269,2.07881196,1026,1625,2685,530,831,1568,0.41076406,0.64341489,1.21385380,0.33166220,0.45679735,0.55473819
53057,0,USWashingtonSkagit,Washington,Skagit,2021-01-05 06:34:37.992447,2020-11-10 00:00:00.000000,0.83885777,1.33307440,2.20665583,1083,1722,2851,570,881,1623,0.44117156,0.68263111,1.25649282,0.32783732,0.44381701,0.52797584
53057,0,USWashingtonSkagit,Washington,Skagit,2021-01-05 06:34:37.992447,2020-11-11 00:00:00.000000,0.88619981,1.39871849,2.34032087,1145,1807,3023,606,931,1676,0.46965870,0.72069793,1.29788537,0.32130731,0.43289631,0.50975317
53057,0,USWashingtonSkagit,Washington,Skagit,2021-01-05 06:34:37.992447,2020-11-12 00:00:00.000000,0.93754587,1.46183679,2.47551429,1211,1888,3198,636,980,1729,0.49241413,0.75880428,1.33848968,0.31312126,0.41665560,0.50575767
53057,0,USWashingtonSkagit,Washington,Skagit,2021-01-05 06:34:37.992447,2020-11-13 00:00:00.000000,0.99347013,1.52991477,2.59409131,1283,1976,3351,666,1039,1781,0.51575329,0.80447747,1.37866418,0.29556197,0.40237009,0.50091612
53057,0,USWashingtonSkagit,Washington,Skagit,2021-01-05 06:34:37.992447,2020-11-14 00:00:00.000000,1.03193679,1.57852932,2.67652802,1333,2039,3458,694,1086,1832,0.53757642,0.84077177,1.41860660,0.29395948,0.39247584,0.49621907
53057,0,USWashingtonSkagit,Washington,Skagit,2021-01-05 06:34:37.992447,2020-11-15 00:00:00.000000,1.08736033,1.61733534,2.73990133,1404,2089,3540,723,1125,1890,0.56027030,0.87090134,1.46313053,0.28415049,0.38206625,0.48951852
53057,0,USWashingtonSkagit,Washington,Skagit,2021-01-05 06:34:37.992447,2020-11-16 00:00:00.000000,1.11482204,1.65284691,2.79407195,1440,2135,3610,749,1162,1956,0.58003408,0.89989309,1.51425152,0.28348680,0.37642386,0.48189220
53057,0,USWashingtonSkagit,Washington,Skagit,2021-01-05 06:34:37.992447,2020-11-17 00:00:00.000000,1.13335049,1.70357764,2.84387576,1464,2201,3674,778,1198,2011,0.60231369,0.92777796,1.55711366,0.28326471,0.36904332,0.47221083
53057,0,USWashingtonSkagit,Washington,Skagit,2021-01-05 06:34:37.992447,2020-11-18 00:00:00.000000,1.15938820,1.75156240,2.97898637,1497,2263,3848,796,1235,2099,0.61635898,0.95623685,1.62529573,0.28319083,0.36323717,0.46544415
53057,0,USWashingtonSkagit,Washington,Skagit,2021-01-05 06:34:37.992447,2020-11-19 00:00:00.000000,1.19455106,1.78487246,3.12683739,1543,2306,4040,818,1277,2181,0.63374427,0.98892084,1.68852749,0.27628109,0.35566836,0.44609158
53057,0,USWashingtonSkagit,Washington,Skagit,2021-01-05 06:34:37.992447,2020-11-20 00:00:00.000000,1.23088465,1.84763595,3.26759677,1590,2387,4221,841,1308,2253,0.65125035,1.01267568,1.74425867,0.27217418,0.34338662,0.44316098
53057,0,USWashingtonSkagit,Washington,Skagit,2021-01-05 06:34:37.992447,2020-11-21 00:00:00.000000,1.26872054,1.90962287,3.39156047,1639,2467,4382,864,1337,2316,0.66916066,1.03510313,1.79262792,0.27064855,0.33962150,0.42581519
53057,0,USWashingtonSkagit,Washington,Skagit,2021-01-05 06:34:37.992447,2020-11-22 00:00:00.000000,1.30849600,1.96145077,3.49859839,1690,2534,4520,888,1367,2416,0.68775411,1.05877751,1.87021953,0.27028777,0.33733908,0.42574081
53057,0,USWashingtonSkagit,Washington,Skagit,2021-01-05 06:34:37.992447,2020-11-23 00:00:00.000000,1.32236341,1.99404126,3.59631318,1708,2576,4646,913,1406,2512,0.70717135,1.08888813,1.94420767,0.26754072,0.33483675,0.42570621
53057,0,USWashingtonSkagit,Washington,Skagit,2021-01-05 06:34:37.992447,2020-11-24 00:00:00.000000,1.31857891,2.02219814,3.69073268,1703,2612,4768,940,1439,2600,0.72765918,1.11391679,2.01247882,0.26257597,0.33252634,0.42563718
53057,0,USWashingtonSkagit,Washington,Skagit,2021-01-05 06:34:37.992447,2020-11-25 00:00:00.000000,1.32587619,2.04657295,3.78436692,1713,2644,4889,946,1460,2682,0.73289227,1.13056865,2.07636922,0.26209868,0.32642497,0.42942621
53057,0,USWashingtonSkagit,Washington,Skagit,2021-01-05 06:34:37.992447,2020-11-26 00:00:00.000000,1.34381034,2.06872503,3.87730440,1736,2672,5009,942,1475,2761,0.72972494,1.14216192,2.13729009,0.26160636,0.32939590,0.42461713
53057,0,USWashingtonSkagit,Washington,Skagit,2021-01-05 06:34:37.992447,2020-11-27 00:00:00.000000,1.37076298,2.08839112,3.96268477,1771,2698,5119,936,1497,2837,0.72456785,1.15862679,2.19617190,0.26030403,0.32300733,0.40864242
53057,0,USWashingtonSkagit,Washington,Skagit,2021-01-05 06:34:37.992447,2020-11-28 00:00:00.000000,1.39819297,2.10526567,4.01279836,1806,2720,5184,953,1521,2909,0.73829187,1.17758851,2.25218405,0.25364236,0.32052391,0.40252795
53057,0,USWashingtonSkagit,Washington,Skagit,2021-01-05 06:34:37.992447,2020-11-29 00:00:00.000000,1.42652343,2.12749924,4.03008663,1843,2748,5207,963,1543,2970,0.74550567,1.19433185,2.29901213,0.25109506,0.31946847,0.39902741
53057,0,USWashingtonSkagit,Washington,Skagit,2021-01-05 06:34:37.992447,2020-11-30 00:00:00.000000,1.45627015,2.16141637,4.03815665,1881,2792,5217,957,1558,3014,0.74076513,1.20589226,2.33291748,0.24525797,0.31725603,0.39866875
53057,0,USWashingtonSkagit,Washington,Skagit,2021-01-05 06:34:37.992447,2020-12-01 00:00:00.000000,1.48968547,2.20541326,4.04320522,1924,2849,5224,952,1566,3044,0.73724600,1.21213543,2.35641143,0.24245355,0.31754622,0.39826571
53057,0,USWashingtonSkagit,Washington,Skagit,2021-01-05 06:34:37.992447,2020-12-02 00:00:00.000000,1.48920669,2.24637482,4.04714539,1924,2902,5229,949,1575,3065,0.73489631,1.21970703,2.37258509,0.24248464,0.31691832,0.39805423
53057,0,USWashingtonSkagit,Washington,Skagit,2021-01-05 06:34:37.992447,2020-12-03 00:00:00.000000,1.47214673,2.28537313,4.05059017,1902,2952,5233,949,1589,3080,0.73464287,1.23044638,2.38389925,0.24602499,0.31807897,0.39799742
53057,0,USWashingtonSkagit,Washington,Skagit,2021-01-05 06:34:37.992447,2020-12-04 00:00:00.000000,1.45629452,2.31351893,4.05450031,1881,2989,5238,969,1604,3090,0.75071885,1.24189455,2.39200782,0.24328216,0.31892804,0.39575636
53057,0,USWashingtonSkagit,Washington,Skagit,2021-01-05 06:34:37.992447,2020-12-05 00:00:00.000000,1.44241573,2.32758890,4.06018514,1863,3007,5245,1004,1617,3098,0.77734541,1.25217528,2.39814773,0.23701903,0.31678901,0.39343126
53057,0,USWashingtonSkagit,Washington,Skagit,2021-01-05 06:34:37.992447,2020-12-06 00:00:00.000000,1.43105936,2.34448435,4.06913885,1849,3029,5257,1023,1642,3105,0.79199122,1.27093020,2.40338442,0.23523553,0.31329008,0.39324785
53057,0,USWashingtonSkagit,Washington,Skagit,2021-01-05 06:34:37.992447,2020-12-07 00:00:00.000000,1.42646511,2.33960619,4.08203470,1843,3022,5274,1014,1669,3112,0.78482840,1.29201948,2.40871643,0.22713959,0.31117487,0.39274629
53057,0,USWashingtonSkagit,Washington,Skagit,2021-01-05 06:34:37.992447,2020-12-08 00:00:00.000000,1.43659872,2.33456485,4.10018802,1856,3016,5297,1007,1701,3120,0.77999689,1.31673024,2.41493004,0.22552984,0.30727478,0.39441614
53057,0,USWashingtonSkagit,Washington,Skagit,2021-01-05 06:34:37.992447,2020-12-09 00:00:00.000000,1.45817901,2.35918338,4.12315363,1884,3048,5327,1020,1728,3130,0.78958683,1.33803529,2.42280729,0.22801222,0.30208565,0.39317875
53057,0,USWashingtonSkagit,Washington,Skagit,2021-01-05 06:34:37.992447,2020-12-10 00:00:00.000000,1.47866170,2.34575222,4.14970685,1910,3030,5361,1035,1752,3143,0.80169355,1.35640846,2.43276959,0.22553796,0.30048503,0.38463320
53057,0,USWashingtonSkagit,Washington,Skagit,2021-01-05 06:34:37.992447,2020-12-11 00:00:00.000000,1.49768815,2.36588063,4.17848265,1935,3056,5398,1051,1753,3158,0.81346563,1.35708813,2.44484512,0.22544754,0.29956743,0.37764666
53057,0,USWashingtonSkagit,Washington,Skagit,2021-01-05 06:34:37.992447,2020-12-12 00:00:00.000000,1.51497808,2.36739690,4.20808858,1957,3058,5437,1065,1765,3176,0.82477746,1.36619279,2.45878648,0.22532005,0.29281972,0.37689343
53057,0,USWashingtonSkagit,Washington,Skagit,2021-01-05 06:34:37.992447,2020-12-13 00:00:00.000000,1.53081707,2.35452361,4.23735354,1977,3042,5474,1079,1764,3196,0.83527358,1.36538802,2.47412748,0.22504973,0.29227086,0.37041218
53057,0,USWashingtonSkagit,Washington,Skagit,2021-01-05 06:34:37.992447,2020-12-14 00:00:00.000000,1.54759293,2.35317468,4.26678555,1999,3040,5512,1091,1766,3217,0.84481523,1.36705248,2.49028427,0.22439778,0.29068717,0.36816149
53057,0,USWashingtonSkagit,Washington,Skagit,2021-01-05 06:34:37.992447,2020-12-15 00:00:00.000000,1.56253760,2.34851803,4.29300846,2018,3034,5546,1103,1776,3239,0.85418607,1.37494697,2.50697192,0.22210999,0.28759318,0.36678498
53057,0,USWashingtonSkagit,Washington,Skagit,2021-01-05 06:34:37.992447,2020-12-16 00:00:00.000000,1.57599336,2.33288147,4.31649707,2036,3014,5577,1114,1777,3260,0.86296165,1.37542747,2.52371604,0.22036450,0.28790107,0.36084303
53057,0,USWashingtonSkagit,Washington,Skagit,2021-01-05 06:34:37.992447,2020-12-17 00:00:00.000000,1.57088725,2.30343973,4.33761306,2029,2976,5604,1125,1767,3280,0.87098878,1.36816955,2.53925734,0.21739434,0.28474848,0.35881185
53057,0,USWashingtonSkagit,Washington,Skagit,2021-01-05 06:34:37.992447,2020-12-18 00:00:00.000000,1.55487301,2.27820509,4.35592960,2008,2943,5628,1134,1764,3298,0.87826864,1.36573215,2.55304525,0.20670708,0.27852052,0.35198270
53057,0,USWashingtonSkagit,Washington,Skagit,2021-01-05 06:34:37.992447,2020-12-19 00:00:00.000000,1.53886613,2.27490525,4.34127133,1988,2939,5609,1128,1759,3315,0.87343398,1.36176519,2.56584514,0.20378762,0.27654629,0.35194261
53057,0,USWashingtonSkagit,Washington,Skagit,2021-01-05 06:34:37.992447,2020-12-20 00:00:00.000000,1.50758931,2.26176716,4.31728259,1947,2922,5578,1117,1751,3329,0.86455016,1.35558103,2.57711573,0.20326844,0.27466029,0.35449327
53057,0,USWashingtonSkagit,Washington,Skagit,2021-01-05 06:34:37.992447,2020-12-21 00:00:00.000000,1.48701003,2.24146575,4.29155757,1921,2896,5544,1105,1735,3341,0.85564343,1.34283120,2.58650005,0.20303152,0.27477674,0.36051242
53057,0,USWashingtonSkagit,Washington,Skagit,2021-01-05 06:34:37.992447,2020-12-22 00:00:00.000000,1.47307327,2.22130605,4.26447847,1903,2870,5509,1094,1718,3351,0.84676635,1.33041869,2.59368934,0.19641648,0.27558710,0.36313903
53057,0,USWashingtonSkagit,Washington,Skagit,2021-01-05 06:34:37.992447,2020-12-23 00:00:00.000000,1.45747090,2.20486160,4.23562903,1883,2848,5472,1083,1713,3357,0.83842473,1.32637644,2.59896942,0.19384338,0.27597444,0.36303084
53057,0,USWashingtonSkagit,Washington,Skagit,2021-01-05 06:34:37.992447,2020-12-24 00:00:00.000000,1.44173801,2.18906172,4.20446945,1862,2828,5432,1073,1704,3362,0.83081181,1.31944951,2.60262837,0.19318676,0.27705560,0.36301350
53057,0,USWashingtonSkagit,Washington,Skagit,2021-01-05 06:34:37.992447,2020-12-25 00:00:00.000000,1.42540238,2.17839527,4.16988880,1841,2814,5387,1064,1692,3365,0.82411188,1.30975013,2.60483471,0.19353618,0.27791200,0.36311026
53057,0,USWashingtonSkagit,Washington,Skagit,2021-01-05 06:34:37.992447,2020-12-26 00:00:00.000000,1.40887580,2.15354774,4.12987301,1820,2782,5336,1057,1680,3366,0.81880336,1.30060775,2.60522178,0.19522932,0.28265993,0.39565803
53057,0,USWashingtonSkagit,Washington,Skagit,2021-01-05 06:34:37.992447,2020-12-27 00:00:00.000000,1.39319208,2.13505060,4.08240607,1800,2758,5274,1048,1669,3362,0.81162005,1.29231218,2.60225871,0.18930526,0.28856170,0.40167268
53057,0,USWashingtonSkagit,Washington,Skagit,2021-01-05 06:34:37.992447,2020-12-28 00:00:00.000000,1.42414160,2.12607311,4.02649856,1840,2746,5202,1036,1659,3353,0.80245200,1.28412437,2.59556514,0.18017909,0.29111954,0.41487405
53057,0,USWashingtonSkagit,Washington,Skagit,2021-01-05 06:34:37.992447,2020-12-29 00:00:00.000000,1.37390786,2.14256394,3.96802159,1775,2768,5126,1024,1652,3340,0.79307394,1.27862007,2.58575242,0.18084048,0.29402838,0.43871671
53057,0,USWashingtonSkagit,Washington,Skagit,2021-01-05 06:34:37.992447,2020-12-30 00:00:00.000000,1.33785797,2.14141230,4.04644876,1728,2766,5228,1012,1622,3325,0.78365699,1.25554177,2.57371978,0.18048544,0.29167205,0.45229576
53057,0,USWashingtonSkagit,Washington,Skagit,2021-01-05 06:34:37.992447,2020-12-31 00:00:00.000000,1.31945733,2.14599236,4.12371509,1704,2772,5328,1018,1621,3307,0.78858363,1.25490470,2.56021085,0.18549607,0.29242753,0.45946168
53057,0,USWashingtonSkagit,Washington,Skagit,2021-01-05 06:34:37.992447,2021-01-01 00:00:00.000000,1.30133920,2.14105790,4.08517500,1681,2766,5278,1007,1609,3289,0.77972752,1.24564430,2.54587835,0.18232874,0.29377155,0.46925464
53057,0,USWashingtonSkagit,Washington,Skagit,2021-01-05 06:34:37.992447,2021-01-02 00:00:00.000000,1.28271126,2.16219171,4.01147247,1657,2793,5183,999,1609,3270,0.77331637,1.24596408,2.53123261,0.17946922,0.29978259,0.49138308
53057,0,USWashingtonSkagit,Washington,Skagit,2021-01-05 06:34:37.992447,2021-01-03 00:00:00.000000,1.25631521,2.16987801,3.94843160,1623,2803,5101,964,1609,3217,0.74658950,1.24585689,2.48989738,0.17377799,0.29934933,0.52242463
53057,0,USWashingtonSkagit,Washington,Skagit,2021-01-05 06:34:37.992447,2021-01-04 00:00:00.000000,1.23914117,2.13919698,3.89811434,1601,2763,5036,944,1600,3167,0.73086498,1.23880245,2.45177621,0.17361655,0.30111472,0.53506916
53057,0,USWashingtonSkagit,Washington,Skagit,2021-01-05 06:34:37.992447,2021-01-05 00:00:00.000000,1.21641091,2.13443556,3.89349216,1571,2757,5030,928,1601,3212,0.71847103,1.23946691,2.48663922,0.16917716,0.30058058,0.53606646
53057,0,USWashingtonSkagit,Washington,Skagit,2021-01-05 06:34:37.992447,2021-01-06 00:00:00.000000,1.16559014,2.12049894,4.06659917,1506,2739,5254,911,1598,3218,0.70572263,1.23685095,2.49081385,0.16781632,0.30474392,0.53621452
53057,0,USWashingtonSkagit,Washington,Skagit,2021-01-05 06:34:37.992447,2021-01-07 00:00:00.000000,1.14001113,2.13015746,4.19992417,1472,2752,5426,895,1595,3215,0.69284389,1.23489415,2.48858076,0.16778999,0.30712610,0.53623733
53057,0,USWashingtonSkagit,Washington,Skagit,2021-01-05 06:34:37.992447,2021-01-08 00:00:00.000000,1.14807857,2.16019835,4.24754118,1483,2791,5488,872,1596,3215,0.67555424,1.23555228,2.48905742,0.16778480,0.30720375,0.53624092
53057,0,USWashingtonSkagit,Washington,Skagit,2021-01-05 06:34:37.992447,2021-01-09 00:00:00.000000,1.12723097,2.16645990,4.39390666,1456,2799,5677,850,1600,3289,0.65842054,1.23875750,2.54572933,0.16778373,0.30678120,0.53624148
53057,0,USWashingtonSkagit,Washington,Skagit,2021-01-05 06:34:37.992447,2021-01-10 00:00:00.000000,1.09661146,2.14270671,4.58886242,1416,2768,5929,828,1603,3433,0.64161585,1.24108497,2.65765170,0.16778350,0.30664679,0.53624156
53057,0,USWashingtonSkagit,Washington,Skagit,2021-01-05 06:34:37.992447,2021-01-11 00:00:00.000000,1.06678100,2.11142536,4.78542661,1378,2728,6183,807,1613,3542,0.62465063,1.24873005,2.74164351,0.16778344,0.30660952,0.53624156
53057,0,USWashingtonSkagit,Washington,Skagit,2021-01-05 06:34:37.992447,2021-01-12 00:00:00.000000,1.03780551,2.08421895,4.98447569,1340,2692,6440,785,1593,3595,0.60781861,1.23340773,2.78287695,0.16778342,0.30659943,0.53624155
53057,0,USWashingtonSkagit,Washington,Skagit,2021-01-05 06:34:37.992447,2021-01-13 00:00:00.000000,1.00952164,2.08477547,5.06751064,1304,2693,6547,764,1577,3647,0.59137032,1.22074522,2.82309720,0.16778342,0.30659675,0.53624154
53057,0,USWashingtonSkagit,Washington,Skagit,2021-01-05 06:34:37.992447,2021-01-14 00:00:00.000000,0.98192048,2.06343892,5.13051854,1268,2666,6628,743,1560,3698,0.57530556,1.20796792,2.86221698,0.16778342,0.30659607,0.53624153
53057,0,USWashingtonSkagit,Washington,Skagit,2021-01-05 06:34:37.992447,2021-01-15 00:00:00.000000,0.95499203,2.04072526,5.25701493,1233,2636,6792,723,1544,3747,0.55962175,1.19509822,2.90014978,0.16778341,0.30659592,0.53624153
53057,0,USWashingtonSkagit,Washington,Skagit,2021-01-05 06:34:37.992447,2021-01-16 00:00:00.000000,0.92872554,2.02059262,5.40579805,1199,2610,6984,703,1527,3794,0.54431489,1.18215339,2.93681000,0.16778341,0.30659590,0.53624153
53057,0,USWashingtonSkagit,Washington,Skagit,2021-01-05 06:34:37.992447,2021-01-17 00:00:00.000000,0.90310981,2.00077617,5.55457837,1166,2585,7176,683,1510,3840,0.52938002,1.16914723,2.97211314,0.16778341,0.30659590,0.53624152
