FIPS,HR_UID,nameid,province,region,analysisTime,dates,pointprevalence_025,pointprevalence_50,pointprevalence_975,pointinfections_025,pointinfections_50,pointinfections_975,pointinfectious_025,pointinfectious_50,pointinfectious_975,pointinfectiousprevalence_05,pointinfectiousprevalence_50,pointinfectiousprevalence_95,infectrate_025,infectrate_50,infectrate_975
36113,0,USNewYorkWarren,New York,Warren,2021-01-05 14:37:43.428709,2020-03-09 00:00:00.000000,0.00644689,0.01861600,0.03760759,4,11,24,1,4,12,0.00219180,0.00721401,0.01986795,0.52843008,0.75313069,1.06622807
36113,0,USNewYorkWarren,New York,Warren,2021-01-05 14:37:43.428709,2020-03-10 00:00:00.000000,0.00891671,0.02539003,0.05237542,5,16,33,1,5,12,0.00296528,0.00858654,0.01988051,0.52842982,0.75312790,1.06622336
36113,0,USNewYorkWarren,New York,Warren,2021-01-05 14:37:43.428709,2020-03-11 00:00:00.000000,0.01161260,0.03209282,0.07153984,7,20,45,2,7,14,0.00394130,0.01128293,0.02306466,0.52842926,0.75312063,1.06621585
36113,0,USNewYorkWarren,New York,Warren,2021-01-05 14:37:43.428709,2020-03-12 00:00:00.000000,0.01459717,0.03908271,0.09183322,9,24,58,3,9,17,0.00510366,0.01487197,0.02740252,0.52842791,0.75310195,1.06620373
36113,0,USNewYorkWarren,New York,Warren,2021-01-05 14:37:43.428709,2020-03-13 00:00:00.000000,0.01792347,0.04607334,0.10735860,11,29,68,4,11,20,0.00645185,0.01875019,0.03263945,0.52842446,0.75305481,1.06618384
36113,0,USNewYorkWarren,New York,Warren,2021-01-05 14:37:43.428709,2020-03-14 00:00:00.000000,0.02164249,0.05524692,0.12502440,13,35,79,5,14,26,0.00807550,0.02272735,0.04139159,0.52841529,0.75293903,1.06615039
36113,0,USNewYorkWarren,New York,Warren,2021-01-05 14:37:43.428709,2020-03-15 00:00:00.000000,0.02580723,0.06531897,0.14516590,16,41,92,6,17,33,0.00991320,0.02721223,0.05171504,0.52839031,0.75266641,1.06609200
36113,0,USNewYorkWarren,New York,Warren,2021-01-05 14:37:43.428709,2020-03-16 00:00:00.000000,0.03662846,0.07943764,0.17131029,23,50,109,7,20,40,0.01198059,0.03277959,0.06320465,0.52832154,0.75050964,1.06598470
36113,0,USNewYorkWarren,New York,Warren,2021-01-05 14:37:43.428709,2020-03-17 00:00:00.000000,0.04932658,0.09411630,0.20067771,31,60,128,9,24,46,0.01476835,0.03858658,0.07338553,0.52813359,0.74395321,1.06455924
36113,0,USNewYorkWarren,New York,Warren,2021-01-05 14:37:43.428709,2020-03-18 00:00:00.000000,0.05778133,0.11248103,0.23323469,36,71,149,13,28,53,0.02089459,0.04520710,0.08377408,0.52763890,0.73030762,1.04445313
36113,0,USNewYorkWarren,New York,Warren,2021-01-05 14:37:43.428709,2020-03-19 00:00:00.000000,0.06527148,0.13137160,0.26005220,41,84,166,17,34,60,0.02747403,0.05337125,0.09495536,0.52203796,0.74489923,1.02982274
36113,0,USNewYorkWarren,New York,Warren,2021-01-05 14:37:43.428709,2020-03-20 00:00:00.000000,0.07315310,0.15358595,0.28989905,46,98,185,20,39,68,0.03268843,0.06185160,0.10704705,0.52352695,0.74451379,1.01708992
36113,0,USNewYorkWarren,New York,Warren,2021-01-05 14:37:43.428709,2020-03-21 00:00:00.000000,0.08198778,0.18135436,0.32306429,52,115,206,23,45,76,0.03700590,0.07156871,0.12034907,0.51987173,0.73340689,0.97231555
36113,0,USNewYorkWarren,New York,Warren,2021-01-05 14:37:43.428709,2020-03-22 00:00:00.000000,0.09185870,0.20736562,0.35990391,58,132,230,26,52,89,0.04148840,0.08281007,0.13972280,0.50579071,0.70913612,0.97182707
36113,0,USNewYorkWarren,New York,Warren,2021-01-05 14:37:43.428709,2020-03-23 00:00:00.000000,0.10573662,0.23430088,0.40768013,67,149,260,29,60,103,0.04649769,0.09520131,0.16131418,0.51038468,0.71009493,0.96787731
36113,0,USNewYorkWarren,New York,Warren,2021-01-05 14:37:43.428709,2020-03-24 00:00:00.000000,0.12086937,0.26441298,0.46001309,77,169,294,33,69,122,0.05287142,0.10820397,0.19099212,0.50814627,0.72107890,0.95223072
36113,0,USNewYorkWarren,New York,Warren,2021-01-05 14:37:43.428709,2020-03-25 00:00:00.000000,0.13787848,0.29179774,0.51800324,88,186,331,38,78,145,0.06032376,0.12243700,0.22765561,0.50000585,0.70667718,0.94023881
36113,0,USNewYorkWarren,New York,Warren,2021-01-05 14:37:43.428709,2020-03-26 00:00:00.000000,0.15822767,0.32718093,0.59972743,101,209,383,44,90,164,0.06882664,0.14146611,0.25705603,0.49254931,0.69802981,0.93721174
36113,0,USNewYorkWarren,New York,Warren,2021-01-05 14:37:43.428709,2020-03-27 00:00:00.000000,0.18448299,0.37000169,0.69351201,117,236,443,50,98,185,0.07877835,0.15456327,0.28987271,0.48360929,0.70129329,0.92357928
36113,0,USNewYorkWarren,New York,Warren,2021-01-05 14:37:43.428709,2020-03-28 00:00:00.000000,0.21312337,0.41468252,0.77097574,136,265,492,58,113,211,0.09110410,0.17697912,0.33024309,0.46399834,0.67803059,0.91399948
36113,0,USNewYorkWarren,New York,Warren,2021-01-05 14:37:43.428709,2020-03-29 00:00:00.000000,0.24181856,0.45968498,0.85376979,154,293,545,67,129,242,0.10577697,0.20214170,0.37880369,0.45324944,0.65635428,0.91391655
36113,0,USNewYorkWarren,New York,Warren,2021-01-05 14:37:43.428709,2020-03-30 00:00:00.000000,0.27112562,0.51275641,0.93724733,173,327,599,77,144,271,0.12106090,0.22558873,0.42388971,0.43049797,0.64395492,0.91236716
36113,0,USNewYorkWarren,New York,Warren,2021-01-05 14:37:43.428709,2020-03-31 00:00:00.000000,0.30481925,0.56257469,1.02108488,194,359,652,87,159,299,0.13645204,0.24955556,0.46885745,0.41792613,0.63557722,0.92023519
36113,0,USNewYorkWarren,New York,Warren,2021-01-05 14:37:43.428709,2020-04-01 00:00:00.000000,0.33122251,0.60637047,1.11260296,211,387,711,98,174,330,0.15355433,0.27242940,0.51641900,0.41117403,0.60784482,0.92351822
36113,0,USNewYorkWarren,New York,Warren,2021-01-05 14:37:43.428709,2020-04-02 00:00:00.000000,0.35622336,0.64947380,1.19138033,227,415,761,109,192,368,0.17102274,0.30172876,0.57595325,0.40597877,0.60303463,0.91822732
36113,0,USNewYorkWarren,New York,Warren,2021-01-05 14:37:43.428709,2020-04-03 00:00:00.000000,0.38121245,0.70281447,1.32329052,243,449,846,118,212,409,0.18472495,0.33182677,0.64106297,0.39541934,0.57808389,0.90077510
36113,0,USNewYorkWarren,New York,Warren,2021-01-05 14:37:43.428709,2020-04-04 00:00:00.000000,0.41053043,0.76238234,1.45038946,262,487,927,127,231,456,0.19875371,0.36234500,0.71447766,0.39651069,0.56546551,0.83948356
36113,0,USNewYorkWarren,New York,Warren,2021-01-05 14:37:43.428709,2020-04-05 00:00:00.000000,0.44154828,0.83289820,1.57209002,282,532,1005,136,252,506,0.21328571,0.39528925,0.79211602,0.38181502,0.54727946,0.78819805
36113,0,USNewYorkWarren,New York,Warren,2021-01-05 14:37:43.428709,2020-04-06 00:00:00.000000,0.47193948,0.89672996,1.69687552,301,573,1085,146,275,555,0.22846295,0.43024485,0.86861544,0.35612476,0.54353015,0.71535543
36113,0,USNewYorkWarren,New York,Warren,2021-01-05 14:37:43.428709,2020-04-07 00:00:00.000000,0.50422516,0.97443953,1.81901356,322,623,1163,156,297,604,0.24510883,0.46498889,0.94487068,0.33457587,0.52726017,0.69089994
36113,0,USNewYorkWarren,New York,Warren,2021-01-05 14:37:43.428709,2020-04-08 00:00:00.000000,0.53866393,1.05631506,1.94284369,344,675,1242,168,319,652,0.26305000,0.49953642,1.02083610,0.30263824,0.50469212,0.68944135
36113,0,USNewYorkWarren,New York,Warren,2021-01-05 14:37:43.428709,2020-04-09 00:00:00.000000,0.57650612,1.13445116,2.00926093,368,725,1284,180,342,701,0.28218929,0.53489221,1.09720649,0.29790088,0.47813018,0.68706702
36113,0,USNewYorkWarren,New York,Warren,2021-01-05 14:37:43.428709,2020-04-10 00:00:00.000000,0.61527290,1.23294410,2.09340841,393,788,1338,193,372,748,0.30243705,0.58226136,1.17006758,0.28551698,0.45705735,0.67794504
36113,0,USNewYorkWarren,New York,Warren,2021-01-05 14:37:43.428709,2020-04-11 00:00:00.000000,0.65233330,1.29060169,2.16549028,417,825,1384,206,398,792,0.32357857,0.62247989,1.23950746,0.26836313,0.41643253,0.63508295
36113,0,USNewYorkWarren,New York,Warren,2021-01-05 14:37:43.428709,2020-04-12 00:00:00.000000,0.68232390,1.34246721,2.23099835,436,858,1426,220,425,835,0.34490784,0.66545062,1.30633505,0.25212208,0.37632740,0.59389496
36113,0,USNewYorkWarren,New York,Warren,2021-01-05 14:37:43.428709,2020-04-13 00:00:00.000000,0.70517751,1.40808468,2.29371297,450,900,1466,233,452,871,0.36481172,0.70822687,1.36255673,0.22214367,0.35159160,0.54707875
36113,0,USNewYorkWarren,New York,Warren,2021-01-05 14:37:43.428709,2020-04-14 00:00:00.000000,0.72661157,1.47307035,2.35502556,464,941,1505,243,470,897,0.38158126,0.73577719,1.40420657,0.20515888,0.33086841,0.49816407
36113,0,USNewYorkWarren,New York,Warren,2021-01-05 14:37:43.428709,2020-04-15 00:00:00.000000,0.74356189,1.52317946,2.41585025,475,973,1544,252,493,916,0.39504190,0.77220191,1.43375002,0.19883994,0.32366728,0.45058098
36113,0,USNewYorkWarren,New York,Warren,2021-01-05 14:37:43.428709,2020-04-16 00:00:00.000000,0.75650195,1.55063816,2.47555574,483,991,1582,259,511,930,0.40538942,0.80035267,1.45523620,0.18876772,0.30924958,0.43609356
36113,0,USNewYorkWarren,New York,Warren,2021-01-05 14:37:43.428709,2020-04-17 00:00:00.000000,0.76580842,1.55402693,2.52496252,489,993,1614,265,520,941,0.41578793,0.81330936,1.47161623,0.17830498,0.29099847,0.41198744
36113,0,USNewYorkWarren,New York,Warren,2021-01-05 14:37:43.428709,2020-04-18 00:00:00.000000,0.76968361,1.54290421,2.52840154,492,986,1616,271,527,949,0.42395731,0.82546446,1.48503746,0.16651165,0.27613410,0.38300088
36113,0,USNewYorkWarren,New York,Warren,2021-01-05 14:37:43.428709,2020-04-19 00:00:00.000000,0.76690257,1.52521604,2.49158200,490,975,1593,274,532,962,0.42953482,0.83315286,1.50514016,0.15030016,0.26049177,0.36252090
36113,0,USNewYorkWarren,New York,Warren,2021-01-05 14:37:43.428709,2020-04-20 00:00:00.000000,0.76361526,1.52254299,2.45047819,488,973,1566,276,532,963,0.43200765,0.83344713,1.50633851,0.14196910,0.24739757,0.35781719
36113,0,USNewYorkWarren,New York,Warren,2021-01-05 14:37:43.428709,2020-04-21 00:00:00.000000,0.75873657,1.50838482,2.40489371,485,964,1537,276,529,960,0.43254798,0.82810408,1.50282971,0.13556871,0.24012228,0.34675180
36113,0,USNewYorkWarren,New York,Warren,2021-01-05 14:37:43.428709,2020-04-22 00:00:00.000000,0.75312113,1.48046303,2.35611035,481,946,1506,276,525,958,0.43163043,0.82173806,1.49943570,0.13111069,0.23142601,0.32009373
36113,0,USNewYorkWarren,New York,Warren,2021-01-05 14:37:43.428709,2020-04-23 00:00:00.000000,0.74693915,1.44811810,2.30278717,477,925,1472,274,522,953,0.42970959,0.81666522,1.49177415,0.12807376,0.21848206,0.31382878
36113,0,USNewYorkWarren,New York,Warren,2021-01-05 14:37:43.428709,2020-04-24 00:00:00.000000,0.74016619,1.42681691,2.24090895,473,912,1432,273,518,946,0.42708873,0.81133420,1.48094481,0.11991584,0.20666981,0.30904949
36113,0,USNewYorkWarren,New York,Warren,2021-01-05 14:37:43.428709,2020-04-25 00:00:00.000000,0.73267283,1.38877401,2.16707875,468,888,1385,271,513,938,0.42393258,0.80245270,1.46787560,0.11766329,0.19848100,0.30434976
36113,0,USNewYorkWarren,New York,Warren,2021-01-05 14:37:43.428709,2020-04-26 00:00:00.000000,0.71521122,1.34603649,2.08415827,457,860,1332,268,505,929,0.42030073,0.79007466,1.45308724,0.10713751,0.18400120,0.29339230
36113,0,USNewYorkWarren,New York,Warren,2021-01-05 14:37:43.428709,2020-04-27 00:00:00.000000,0.68553876,1.29636344,2.02236080,438,828,1293,266,494,918,0.41617723,0.77258536,1.43650598,0.09776770,0.17483932,0.25893030
36113,0,USNewYorkWarren,New York,Warren,2021-01-05 14:37:43.428709,2020-04-28 00:00:00.000000,0.65545992,1.24769049,2.00298824,419,797,1280,259,478,906,0.40520033,0.74830364,1.41763894,0.09693017,0.17001920,0.24344674
36113,0,USNewYorkWarren,New York,Warren,2021-01-05 14:37:43.428709,2020-04-29 00:00:00.000000,0.62461806,1.20401877,1.95765650,399,769,1251,249,459,886,0.38958484,0.71857578,1.38713732,0.08652897,0.16519392,0.23385144
36113,0,USNewYorkWarren,New York,Warren,2021-01-05 14:37:43.428709,2020-04-30 00:00:00.000000,0.59284808,1.16067040,1.89944048,379,742,1214,238,442,844,0.37308282,0.69232819,1.31994773,0.08386600,0.15826111,0.22054114
36113,0,USNewYorkWarren,New York,Warren,2021-01-05 14:37:43.428709,2020-05-01 00:00:00.000000,0.56010056,1.11518747,1.80309461,358,713,1152,227,423,823,0.35577719,0.66267099,1.28758072,0.08126156,0.15110968,0.21900828
36113,0,USNewYorkWarren,New York,Warren,2021-01-05 14:37:43.428709,2020-05-02 00:00:00.000000,0.52657527,1.06387785,1.69467922,336,680,1083,216,405,790,0.33788790,0.63387267,1.23625803,0.07708465,0.14419988,0.21590622
36113,0,USNewYorkWarren,New York,Warren,2021-01-05 14:37:43.428709,2020-05-03 00:00:00.000000,0.49311284,1.01420834,1.59050772,315,648,1017,205,386,757,0.32162942,0.60428211,1.18465803,0.07368268,0.13407077,0.21105092
36113,0,USNewYorkWarren,New York,Warren,2021-01-05 14:37:43.428709,2020-05-04 00:00:00.000000,0.47024327,0.96482439,1.52634634,300,616,976,197,370,724,0.30957405,0.58009342,1.13331623,0.06787803,0.12954171,0.19894769
36113,0,USNewYorkWarren,New York,Warren,2021-01-05 14:37:43.428709,2020-05-05 00:00:00.000000,0.44218339,0.91582103,1.47785948,282,585,945,188,354,692,0.29420511,0.55449959,1.08258372,0.06235050,0.12705870,0.19655941
36113,0,USNewYorkWarren,New York,Warren,2021-01-05 14:37:43.428709,2020-05-06 00:00:00.000000,0.41736113,0.85777512,1.42985003,266,548,914,176,339,660,0.27611876,0.53153715,1.03271093,0.06129353,0.12553203,0.18795467
36113,0,USNewYorkWarren,New York,Warren,2021-01-05 14:37:43.428709,2020-05-07 00:00:00.000000,0.39444195,0.80013452,1.38203051,252,511,883,166,322,629,0.26105756,0.50491306,0.98394079,0.06090347,0.12136225,0.18656124
36113,0,USNewYorkWarren,New York,Warren,2021-01-05 14:37:43.428709,2020-05-08 00:00:00.000000,0.37098282,0.74212911,1.33238991,237,474,851,158,307,598,0.24780690,0.48030317,0.93642779,0.06107615,0.11892708,0.18252624
36113,0,USNewYorkWarren,New York,Warren,2021-01-05 14:37:43.428709,2020-05-09 00:00:00.000000,0.34758803,0.69382656,1.27022715,222,443,812,149,292,570,0.23433062,0.45703054,0.89233749,0.05814244,0.11219335,0.18008189
36113,0,USNewYorkWarren,New York,Warren,2021-01-05 14:37:43.428709,2020-05-10 00:00:00.000000,0.32486990,0.64783869,1.20732257,207,414,772,141,277,545,0.22057092,0.43336772,0.85303372,0.05663218,0.11094314,0.17577086
36113,0,USNewYorkWarren,New York,Warren,2021-01-05 14:37:43.428709,2020-05-11 00:00:00.000000,0.30617754,0.60333082,1.15743034,195,385,740,132,262,520,0.20688828,0.41018428,0.81382448,0.05332907,0.10473977,0.17517032
36113,0,USNewYorkWarren,New York,Warren,2021-01-05 14:37:43.428709,2020-05-12 00:00:00.000000,0.28874634,0.56738147,1.10881682,184,362,709,124,248,496,0.19445254,0.38849453,0.77570491,0.05081694,0.10389631,0.17354555
36113,0,USNewYorkWarren,New York,Warren,2021-01-05 14:37:43.428709,2020-05-13 00:00:00.000000,0.27269397,0.53887747,1.06160880,174,344,678,117,235,472,0.18306704,0.36882745,0.73853526,0.05075320,0.10291130,0.16973904
36113,0,USNewYorkWarren,New York,Warren,2021-01-05 14:37:43.428709,2020-05-14 00:00:00.000000,0.25793165,0.51090499,1.00594683,164,326,643,110,221,449,0.17263680,0.34707759,0.70226300,0.04663383,0.09941931,0.16555792
36113,0,USNewYorkWarren,New York,Warren,2021-01-05 14:37:43.428709,2020-05-15 00:00:00.000000,0.24439781,0.48214942,0.95159848,156,308,608,104,208,426,0.16304569,0.32590740,0.66688562,0.04567462,0.09764601,0.16417891
36113,0,USNewYorkWarren,New York,Warren,2021-01-05 14:37:43.428709,2020-05-16 00:00:00.000000,0.23203450,0.45533283,0.89943879,148,291,575,97,197,404,0.15216785,0.30926067,0.63246721,0.04542540,0.09736014,0.16354747
36113,0,USNewYorkWarren,New York,Warren,2021-01-05 14:37:43.428709,2020-05-17 00:00:00.000000,0.21784437,0.42834200,0.84975054,139,273,543,88,188,383,0.13908804,0.29463699,0.59914123,0.04368070,0.09567749,0.16080276
36113,0,USNewYorkWarren,New York,Warren,2021-01-05 14:37:43.428709,2020-05-18 00:00:00.000000,0.20635219,0.40422614,0.79920972,131,258,511,82,178,362,0.12955127,0.27848849,0.56705832,0.04292923,0.09568036,0.15689757
36113,0,USNewYorkWarren,New York,Warren,2021-01-05 14:37:43.428709,2020-05-19 00:00:00.000000,0.19481886,0.38248931,0.75128711,124,244,480,78,166,342,0.12256831,0.26002594,0.53557218,0.04280882,0.09598640,0.15452281
36113,0,USNewYorkWarren,New York,Warren,2021-01-05 14:37:43.428709,2020-05-20 00:00:00.000000,0.18283655,0.35743564,0.70590544,116,228,451,74,154,322,0.11612811,0.24141311,0.50503123,0.04307000,0.09479146,0.15268253
36113,0,USNewYorkWarren,New York,Warren,2021-01-05 14:37:43.428709,2020-05-21 00:00:00.000000,0.17169820,0.33397745,0.66303931,109,213,423,70,145,304,0.11096269,0.22812418,0.47566401,0.04260291,0.09217252,0.15135571
36113,0,USNewYorkWarren,New York,Warren,2021-01-05 14:37:43.428709,2020-05-22 00:00:00.000000,0.16367358,0.31552139,0.62260637,104,201,398,68,137,286,0.10731934,0.21466379,0.44760498,0.03835020,0.09042064,0.15095246
36113,0,USNewYorkWarren,New York,Warren,2021-01-05 14:37:43.428709,2020-05-23 00:00:00.000000,0.15866303,0.29717579,0.58451844,101,190,373,64,126,269,0.10031444,0.19832967,0.42091745,0.03637287,0.08882496,0.15007878
36113,0,USNewYorkWarren,New York,Warren,2021-01-05 14:37:43.428709,2020-05-24 00:00:00.000000,0.14476560,0.27515516,0.54871384,92,175,350,60,117,252,0.09440443,0.18452831,0.39561931,0.03657926,0.08749939,0.14981742
36113,0,USNewYorkWarren,New York,Warren,2021-01-05 14:37:43.428709,2020-05-25 00:00:00.000000,0.13512937,0.25908562,0.51504600,86,165,329,57,109,237,0.08971700,0.17169637,0.37170665,0.03688364,0.08644147,0.14962030
36113,0,USNewYorkWarren,New York,Warren,2021-01-05 14:37:43.428709,2020-05-26 00:00:00.000000,0.12824114,0.24457133,0.48350906,82,156,309,53,102,223,0.08382345,0.16069859,0.34914469,0.03689703,0.08565887,0.15226362
36113,0,USNewYorkWarren,New York,Warren,2021-01-05 14:37:43.428709,2020-05-27 00:00:00.000000,0.12191074,0.23046041,0.45397747,77,147,290,50,96,209,0.07838994,0.15049060,0.32790811,0.03653418,0.08532608,0.16021394
36113,0,USNewYorkWarren,New York,Warren,2021-01-05 14:37:43.428709,2020-05-28 00:00:00.000000,0.11607000,0.21573207,0.42627727,74,137,272,47,90,196,0.07369707,0.14098775,0.30795332,0.03583747,0.08530959,0.16548812
36113,0,USNewYorkWarren,New York,Warren,2021-01-05 14:37:43.428709,2020-05-29 00:00:00.000000,0.11066357,0.20214297,0.40016136,70,129,255,44,84,184,0.06960486,0.13215755,0.28921371,0.03480131,0.08521246,0.17529652
36113,0,USNewYorkWarren,New York,Warren,2021-01-05 14:37:43.428709,2020-05-30 00:00:00.000000,0.10564695,0.18830415,0.37539989,67,120,240,41,79,173,0.06522591,0.12404969,0.27159174,0.03345817,0.08541678,0.17164001
36113,0,USNewYorkWarren,New York,Warren,2021-01-05 14:37:43.428709,2020-05-31 00:00:00.000000,0.10009160,0.17720981,0.35197667,64,113,225,38,75,163,0.06082965,0.11758294,0.25497400,0.03350842,0.08325200,0.15987930
36113,0,USNewYorkWarren,New York,Warren,2021-01-05 14:37:43.428709,2020-06-01 00:00:00.000000,0.09453890,0.16589488,0.32908376,60,106,210,36,70,153,0.05670188,0.11088279,0.23928513,0.03446088,0.08436975,0.15467317
36113,0,USNewYorkWarren,New York,Warren,2021-01-05 14:37:43.428709,2020-06-02 00:00:00.000000,0.08872208,0.15824987,0.30764715,56,101,196,34,65,143,0.05349857,0.10301098,0.22429910,0.03494610,0.08614034,0.16305033
36113,0,USNewYorkWarren,New York,Warren,2021-01-05 14:37:43.428709,2020-06-03 00:00:00.000000,0.08354130,0.14915147,0.28792148,53,95,184,32,62,134,0.05098849,0.09772423,0.21007535,0.03535513,0.08835615,0.16762889
36113,0,USNewYorkWarren,New York,Warren,2021-01-05 14:37:43.428709,2020-06-04 00:00:00.000000,0.07896202,0.14193530,0.27821550,50,90,177,31,59,125,0.04900069,0.09245959,0.19664810,0.03615883,0.08874751,0.16909100
36113,0,USNewYorkWarren,New York,Warren,2021-01-05 14:37:43.428709,2020-06-05 00:00:00.000000,0.07587356,0.13660516,0.26878881,48,87,171,30,56,117,0.04734514,0.08772973,0.18402783,0.03756625,0.08890898,0.16901285
36113,0,USNewYorkWarren,New York,Warren,2021-01-05 14:37:43.428709,2020-06-06 00:00:00.000000,0.07125508,0.13143973,0.25960533,45,84,166,28,53,110,0.04403369,0.08290810,0.17220811,0.03866420,0.08961678,0.16883534
36113,0,USNewYorkWarren,New York,Warren,2021-01-05 14:37:43.428709,2020-06-07 00:00:00.000000,0.06798750,0.12545385,0.25067940,43,80,160,26,50,103,0.04099994,0.07861549,0.16116970,0.03690027,0.09158447,0.16882760
36113,0,USNewYorkWarren,New York,Warren,2021-01-05 14:37:43.428709,2020-06-08 00:00:00.000000,0.06778839,0.11920869,0.24093416,43,76,154,24,47,98,0.03841622,0.07484055,0.15458585,0.03487921,0.09315431,0.17228160
36113,0,USNewYorkWarren,New York,Warren,2021-01-05 14:37:43.428709,2020-06-09 00:00:00.000000,0.06585592,0.11531219,0.23152271,42,73,148,23,46,95,0.03723794,0.07195367,0.14903941,0.03390533,0.09333304,0.17509745
36113,0,USNewYorkWarren,New York,Warren,2021-01-05 14:37:43.428709,2020-06-10 00:00:00.000000,0.06425877,0.10956115,0.22246729,41,70,142,23,43,91,0.03738520,0.06827243,0.14355475,0.03399755,0.09346680,0.17614394
36113,0,USNewYorkWarren,New York,Warren,2021-01-05 14:37:43.428709,2020-06-11 00:00:00.000000,0.06290953,0.10421362,0.21380416,40,66,136,23,41,88,0.03620362,0.06489712,0.13817619,0.03324765,0.09387368,0.17814581
36113,0,USNewYorkWarren,New York,Warren,2021-01-05 14:37:43.428709,2020-06-12 00:00:00.000000,0.06174953,0.10103753,0.20559104,39,64,131,22,39,85,0.03479717,0.06158870,0.13294135,0.03097775,0.09488757,0.18362307
36113,0,USNewYorkWarren,New York,Warren,2021-01-05 14:37:43.428709,2020-06-13 00:00:00.000000,0.06031289,0.09793271,0.19824408,38,62,126,21,37,81,0.03353954,0.05919766,0.12788659,0.03072838,0.09629770,0.18761852
36113,0,USNewYorkWarren,New York,Warren,2021-01-05 14:37:43.428709,2020-06-14 00:00:00.000000,0.05825319,0.09554860,0.19202629,37,61,122,20,36,78,0.03239770,0.05716963,0.12311105,0.03249586,0.09662599,0.18711317
36113,0,USNewYorkWarren,New York,Warren,2021-01-05 14:37:43.428709,2020-06-15 00:00:00.000000,0.05813050,0.09261203,0.18929327,37,59,121,20,35,75,0.03133660,0.05523250,0.11873103,0.03030918,0.09807611,0.18830733
36113,0,USNewYorkWarren,New York,Warren,2021-01-05 14:37:43.428709,2020-06-16 00:00:00.000000,0.05568103,0.09365918,0.18738871,35,59,119,19,34,73,0.03043175,0.05395630,0.11523492,0.02957653,0.10149294,0.18937687
36113,0,USNewYorkWarren,New York,Warren,2021-01-05 14:37:43.428709,2020-06-17 00:00:00.000000,0.05502837,0.09350088,0.18608189,35,59,118,18,33,71,0.02969372,0.05301232,0.11250589,0.02937198,0.10488938,0.19041473
36113,0,USNewYorkWarren,New York,Warren,2021-01-05 14:37:43.428709,2020-06-18 00:00:00.000000,0.05459698,0.08876191,0.18508637,34,56,118,18,33,70,0.02908629,0.05181400,0.11041678,0.02931869,0.10620747,0.19127068
36113,0,USNewYorkWarren,New York,Warren,2021-01-05 14:37:43.428709,2020-06-19 00:00:00.000000,0.05420925,0.08830750,0.18429695,34,56,117,18,32,69,0.02857298,0.05042550,0.10878626,0.02931146,0.10634300,0.19196381
36113,0,USNewYorkWarren,New York,Warren,2021-01-05 14:37:43.428709,2020-06-20 00:00:00.000000,0.05385984,0.08493302,0.18366194,34,54,117,17,31,68,0.02812791,0.04951844,0.10750989,0.02937124,0.10579291,0.19244581
36113,0,USNewYorkWarren,New York,Warren,2021-01-05 14:37:43.428709,2020-06-21 00:00:00.000000,0.05147882,0.08292659,0.18314617,32,53,117,17,30,68,0.02773314,0.04831282,0.10651271,0.02883393,0.10475785,0.19285996
36113,0,USNewYorkWarren,New York,Warren,2021-01-05 14:37:43.428709,2020-06-22 00:00:00.000000,0.04911753,0.08256522,0.17930554,31,52,114,17,30,67,0.02737659,0.04745796,0.10572759,0.03059212,0.10691548,0.19309699
36113,0,USNewYorkWarren,New York,Warren,2021-01-05 14:37:43.428709,2020-06-23 00:00:00.000000,0.04700963,0.08156590,0.17553761,30,52,112,17,29,66,0.02748002,0.04615217,0.10450459,0.03206011,0.10905899,0.19275197
36113,0,USNewYorkWarren,New York,Warren,2021-01-05 14:37:43.428709,2020-06-24 00:00:00.000000,0.04515860,0.08010163,0.17178523,28,51,109,17,29,65,0.02707672,0.04561786,0.10298156,0.03269855,0.11116136,0.19366134
36113,0,USNewYorkWarren,New York,Warren,2021-01-05 14:37:43.428709,2020-06-25 00:00:00.000000,0.04355136,0.08115752,0.16807396,27,51,107,16,29,64,0.02582619,0.04559723,0.10125902,0.03309525,0.11186658,0.19900054
36113,0,USNewYorkWarren,New York,Warren,2021-01-05 14:37:43.428709,2020-06-26 00:00:00.000000,0.04220503,0.08325646,0.16407408,26,53,104,15,29,63,0.02474845,0.04536815,0.09940952,0.03359499,0.11179372,0.20624305
36113,0,USNewYorkWarren,New York,Warren,2021-01-05 14:37:43.428709,2020-06-27 00:00:00.000000,0.04103669,0.08182986,0.15928372,26,52,101,15,29,62,0.02382823,0.04611019,0.09748259,0.03381881,0.11387290,0.21141560
36113,0,USNewYorkWarren,New York,Warren,2021-01-05 14:37:43.428709,2020-06-28 00:00:00.000000,0.03985821,0.08053610,0.15477233,25,51,98,14,29,61,0.02306059,0.04600753,0.09550920,0.03386632,0.11574553,0.21130676
36113,0,USNewYorkWarren,New York,Warren,2021-01-05 14:37:43.428709,2020-06-29 00:00:00.000000,0.04286312,0.08091928,0.15017884,27,51,96,14,29,59,0.02243448,0.04577220,0.09351273,0.03395685,0.12217146,0.21554850
36113,0,USNewYorkWarren,New York,Warren,2021-01-05 14:37:43.428709,2020-06-30 00:00:00.000000,0.04560323,0.08062475,0.15056067,29,51,96,14,28,58,0.02265401,0.04490370,0.09186471,0.03403824,0.12346951,0.21770822
36113,0,USNewYorkWarren,New York,Warren,2021-01-05 14:37:43.428709,2020-07-01 00:00:00.000000,0.04643148,0.08015066,0.15257074,29,51,97,14,28,57,0.02341234,0.04514469,0.09048469,0.03506140,0.12470506,0.21910425
36113,0,USNewYorkWarren,New York,Warren,2021-01-05 14:37:43.428709,2020-07-02 00:00:00.000000,0.04603551,0.08070693,0.15260947,29,51,97,15,29,57,0.02449913,0.04542161,0.08931484,0.03587065,0.12660174,0.22079782
36113,0,USNewYorkWarren,New York,Warren,2021-01-05 14:37:43.428709,2020-07-03 00:00:00.000000,0.04631230,0.07945174,0.15200016,29,50,97,15,29,56,0.02488430,0.04566422,0.08831821,0.03627530,0.12692951,0.21751316
36113,0,USNewYorkWarren,New York,Warren,2021-01-05 14:37:43.428709,2020-07-04 00:00:00.000000,0.04660877,0.08103234,0.15167362,29,51,96,16,29,56,0.02641641,0.04568910,0.08782908,0.03682109,0.13118390,0.21694619
36113,0,USNewYorkWarren,New York,Warren,2021-01-05 14:37:43.428709,2020-07-05 00:00:00.000000,0.04516037,0.08203252,0.15189009,28,52,97,17,29,58,0.02757586,0.04552161,0.09196762,0.03778358,0.13100017,0.22335983
36113,0,USNewYorkWarren,New York,Warren,2021-01-05 14:37:43.428709,2020-07-06 00:00:00.000000,0.04902693,0.08246989,0.15094969,31,52,96,17,29,60,0.02694861,0.04623322,0.09384446,0.03972353,0.13236287,0.22802854
36113,0,USNewYorkWarren,New York,Warren,2021-01-05 14:37:43.428709,2020-07-07 00:00:00.000000,0.05230225,0.08335196,0.14983559,33,53,95,17,29,59,0.02684037,0.04585405,0.09374002,0.04225931,0.13402849,0.23087300
36113,0,USNewYorkWarren,New York,Warren,2021-01-05 14:37:43.428709,2020-07-08 00:00:00.000000,0.05155188,0.08316992,0.14843548,32,53,94,17,29,61,0.02740180,0.04611607,0.09584753,0.04531030,0.13680712,0.23585308
36113,0,USNewYorkWarren,New York,Warren,2021-01-05 14:37:43.428709,2020-07-09 00:00:00.000000,0.04969960,0.08257700,0.14694248,31,52,93,17,29,63,0.02737433,0.04557938,0.09929175,0.04914731,0.13786105,0.23569341
36113,0,USNewYorkWarren,New York,Warren,2021-01-05 14:37:43.428709,2020-07-10 00:00:00.000000,0.04797656,0.08281227,0.15071457,30,52,96,17,29,63,0.02780508,0.04538873,0.09961458,0.04993638,0.13881454,0.23632012
36113,0,USNewYorkWarren,New York,Warren,2021-01-05 14:37:43.428709,2020-07-11 00:00:00.000000,0.04664324,0.08353459,0.15639611,29,53,100,17,29,63,0.02754430,0.04621728,0.09893775,0.05036698,0.14100157,0.23926349
36113,0,USNewYorkWarren,New York,Warren,2021-01-05 14:37:43.428709,2020-07-12 00:00:00.000000,0.04604380,0.08285667,0.16285625,29,52,104,17,29,62,0.02706872,0.04674429,0.09800970,0.05073947,0.13914025,0.24303100
36113,0,USNewYorkWarren,New York,Warren,2021-01-05 14:37:43.428709,2020-07-13 00:00:00.000000,0.05018532,0.08448061,0.16006502,32,54,102,17,30,61,0.02708369,0.04804891,0.09692486,0.05096112,0.14054106,0.24504401
36113,0,USNewYorkWarren,New York,Warren,2021-01-05 14:37:43.428709,2020-07-14 00:00:00.000000,0.05104952,0.08449383,0.15700702,32,54,100,17,30,60,0.02693814,0.04816414,0.09496111,0.05117986,0.14264244,0.24690320
36113,0,USNewYorkWarren,New York,Warren,2021-01-05 14:37:43.428709,2020-07-15 00:00:00.000000,0.05063601,0.08533482,0.15361777,32,54,98,17,30,59,0.02733654,0.04810374,0.09244954,0.05224573,0.14433986,0.24772328
36113,0,USNewYorkWarren,New York,Warren,2021-01-05 14:37:43.428709,2020-07-16 00:00:00.000000,0.05200238,0.08518960,0.15011428,33,54,95,17,30,57,0.02784017,0.04817654,0.08959836,0.05313171,0.15094619,0.25653768
36113,0,USNewYorkWarren,New York,Warren,2021-01-05 14:37:43.428709,2020-07-17 00:00:00.000000,0.05342274,0.08655252,0.14707935,34,55,94,18,30,55,0.02848622,0.04776110,0.08687342,0.05394222,0.15342120,0.26409454
36113,0,USNewYorkWarren,New York,Warren,2021-01-05 14:37:43.428709,2020-07-18 00:00:00.000000,0.05479645,0.08699047,0.14604182,35,55,93,18,31,53,0.02919309,0.04860377,0.08427750,0.05605312,0.15600392,0.27020866
36113,0,USNewYorkWarren,New York,Warren,2021-01-05 14:37:43.428709,2020-07-19 00:00:00.000000,0.05353953,0.08956618,0.14079494,34,57,90,18,31,52,0.02955426,0.04914044,0.08151597,0.05918309,0.15691289,0.27289098
36113,0,USNewYorkWarren,New York,Warren,2021-01-05 14:37:43.428709,2020-07-20 00:00:00.000000,0.05324414,0.08911870,0.13675486,34,56,87,18,31,51,0.02883035,0.04904134,0.08076952,0.06150338,0.15647493,0.28035992
36113,0,USNewYorkWarren,New York,Warren,2021-01-05 14:37:43.428709,2020-07-21 00:00:00.000000,0.05305423,0.08933026,0.13208634,33,57,84,18,31,51,0.02835163,0.04953965,0.08054948,0.06318647,0.15656932,0.28001976
36113,0,USNewYorkWarren,New York,Warren,2021-01-05 14:37:43.428709,2020-07-22 00:00:00.000000,0.05242232,0.08809132,0.13173574,33,56,84,17,31,51,0.02804410,0.04955295,0.07995481,0.06537693,0.16035239,0.28778884
36113,0,USNewYorkWarren,New York,Warren,2021-01-05 14:37:43.428709,2020-07-23 00:00:00.000000,0.05058617,0.08697770,0.13459467,32,55,86,17,31,50,0.02785575,0.04948293,0.07922027,0.06844640,0.16496271,0.31076053
36113,0,USNewYorkWarren,New York,Warren,2021-01-05 14:37:43.428709,2020-07-24 00:00:00.000000,0.04973911,0.08694060,0.13449307,31,55,86,17,31,50,0.02775179,0.04991934,0.07852877,0.07180958,0.16603439,0.31908981
36113,0,USNewYorkWarren,New York,Warren,2021-01-05 14:37:43.428709,2020-07-25 00:00:00.000000,0.04899894,0.08664215,0.13673043,31,55,87,17,32,52,0.02771076,0.05022974,0.08274292,0.07451696,0.17033703,0.32153000
36113,0,USNewYorkWarren,New York,Warren,2021-01-05 14:37:43.428709,2020-07-26 00:00:00.000000,0.04896188,0.08615017,0.14028242,31,55,89,17,31,55,0.02772146,0.04995352,0.08710187,0.07624964,0.17625202,0.32218166
36113,0,USNewYorkWarren,New York,Warren,2021-01-05 14:37:43.428709,2020-07-27 00:00:00.000000,0.05070716,0.08583718,0.14134450,32,54,90,17,31,58,0.02783241,0.04949011,0.09154257,0.07755950,0.17823797,0.32230693
36113,0,USNewYorkWarren,New York,Warren,2021-01-05 14:37:43.428709,2020-07-28 00:00:00.000000,0.05298450,0.08698756,0.14379419,33,55,91,17,31,57,0.02805402,0.04883312,0.09059322,0.07765734,0.17946734,0.32625272
36113,0,USNewYorkWarren,New York,Warren,2021-01-05 14:37:43.428709,2020-07-29 00:00:00.000000,0.05426369,0.08756131,0.14600791,34,55,93,18,31,58,0.02869488,0.04907850,0.09139870,0.07806992,0.17970289,0.33067877
36113,0,USNewYorkWarren,New York,Warren,2021-01-05 14:37:43.428709,2020-07-30 00:00:00.000000,0.05468656,0.08727979,0.14805390,34,55,94,18,31,59,0.02947985,0.04937828,0.09253628,0.07866564,0.18047550,0.33134760
36113,0,USNewYorkWarren,New York,Warren,2021-01-05 14:37:43.428709,2020-07-31 00:00:00.000000,0.05416644,0.08641400,0.14998031,34,55,95,18,31,60,0.02920798,0.04970141,0.09403199,0.07972230,0.18409342,0.33257985
36113,0,USNewYorkWarren,New York,Warren,2021-01-05 14:37:43.428709,2020-08-01 00:00:00.000000,0.05522290,0.08803253,0.15175460,35,56,97,18,32,60,0.02920400,0.05017070,0.09535132,0.08301289,0.18539381,0.33902732
36113,0,USNewYorkWarren,New York,Warren,2021-01-05 14:37:43.428709,2020-08-02 00:00:00.000000,0.05452487,0.08829636,0.15344051,34,56,98,19,31,60,0.02980272,0.04942312,0.09522061,0.08813086,0.18915557,0.35153853
36113,0,USNewYorkWarren,New York,Warren,2021-01-05 14:37:43.428709,2020-08-03 00:00:00.000000,0.05445019,0.09079398,0.15461033,34,58,98,19,31,60,0.03050230,0.04894131,0.09462386,0.09246177,0.19119261,0.36383195
36113,0,USNewYorkWarren,New York,Warren,2021-01-05 14:37:43.428709,2020-08-04 00:00:00.000000,0.05300768,0.09387802,0.15735855,33,60,100,19,31,60,0.03050177,0.04913356,0.09525206,0.09471321,0.19535904,0.36923384
36113,0,USNewYorkWarren,New York,Warren,2021-01-05 14:37:43.428709,2020-08-05 00:00:00.000000,0.05257246,0.09437421,0.16065838,33,60,102,19,31,62,0.03038180,0.04959142,0.09698871,0.09596647,0.19645031,0.37092183
36113,0,USNewYorkWarren,New York,Warren,2021-01-05 14:37:43.428709,2020-08-06 00:00:00.000000,0.05299345,0.09621998,0.16408973,33,61,104,19,32,62,0.03105259,0.05079116,0.09830341,0.09721944,0.19522833,0.37163833
36113,0,USNewYorkWarren,New York,Warren,2021-01-05 14:37:43.428709,2020-08-07 00:00:00.000000,0.05362767,0.09601829,0.16757953,34,61,107,19,33,63,0.03044986,0.05185444,0.09929803,0.10044052,0.20123030,0.37174025
36113,0,USNewYorkWarren,New York,Warren,2021-01-05 14:37:43.428709,2020-08-08 00:00:00.000000,0.05498065,0.09708315,0.17447034,35,62,111,19,33,63,0.03059512,0.05305284,0.10001263,0.10241871,0.20671531,0.38783817
36113,0,USNewYorkWarren,New York,Warren,2021-01-05 14:37:43.428709,2020-08-09 00:00:00.000000,0.05499985,0.09870900,0.18178540,35,63,116,19,34,65,0.03083859,0.05355848,0.10184906,0.10553059,0.20934987,0.38530778
36113,0,USNewYorkWarren,New York,Warren,2021-01-05 14:37:43.428709,2020-08-10 00:00:00.000000,0.05585204,0.10212325,0.18358827,35,65,117,19,34,66,0.03116653,0.05400295,0.10444743,0.10630974,0.22027733,0.39604484
36113,0,USNewYorkWarren,New York,Warren,2021-01-05 14:37:43.428709,2020-08-11 00:00:00.000000,0.05680161,0.10211085,0.18165840,36,65,116,20,34,67,0.03161018,0.05409374,0.10512075,0.10685587,0.22609137,0.39793303
36113,0,USNewYorkWarren,New York,Warren,2021-01-05 14:37:43.428709,2020-08-12 00:00:00.000000,0.05610423,0.10319080,0.18494478,35,65,118,20,35,67,0.03215355,0.05576495,0.10565375,0.10674187,0.23331268,0.39822555
36113,0,USNewYorkWarren,New York,Warren,2021-01-05 14:37:43.428709,2020-08-13 00:00:00.000000,0.05542174,0.10627736,0.18879613,35,67,120,20,36,68,0.03250059,0.05640948,0.10698426,0.10676983,0.23673507,0.39827242
36113,0,USNewYorkWarren,New York,Warren,2021-01-05 14:37:43.428709,2020-08-14 00:00:00.000000,0.05478458,0.10705859,0.19297712,35,68,123,21,36,70,0.03324798,0.05676063,0.11040459,0.10694697,0.23909829,0.39869371
36113,0,USNewYorkWarren,New York,Warren,2021-01-05 14:37:43.428709,2020-08-15 00:00:00.000000,0.05471636,0.10951038,0.20076619,34,70,128,21,36,73,0.03291616,0.05730714,0.11526015,0.10928136,0.24113026,0.40114845
36113,0,USNewYorkWarren,New York,Warren,2021-01-05 14:37:43.428709,2020-08-16 00:00:00.000000,0.05504266,0.11126941,0.21583110,35,71,138,20,37,75,0.03258469,0.05856204,0.11863278,0.11141576,0.24042390,0.42229228
36113,0,USNewYorkWarren,New York,Warren,2021-01-05 14:37:43.428709,2020-08-17 00:00:00.000000,0.05899086,0.11492195,0.21802599,37,73,139,20,38,78,0.03258632,0.06080362,0.12296010,0.11306208,0.25725447,0.43333779
36113,0,USNewYorkWarren,New York,Warren,2021-01-05 14:37:43.428709,2020-08-18 00:00:00.000000,0.06399685,0.11952767,0.22112737,40,76,141,21,40,82,0.03300832,0.06357374,0.12843017,0.12108164,0.26160026,0.43581875
36113,0,USNewYorkWarren,New York,Warren,2021-01-05 14:37:43.428709,2020-08-19 00:00:00.000000,0.06301056,0.12398877,0.23034852,40,79,147,21,42,85,0.03375138,0.06617598,0.13445797,0.13227939,0.26539535,0.44394064
36113,0,USNewYorkWarren,New York,Warren,2021-01-05 14:37:43.428709,2020-08-20 00:00:00.000000,0.06198683,0.13120738,0.23933189,39,83,153,23,43,90,0.03713390,0.06798775,0.14086681,0.13308544,0.27105869,0.45551342
36113,0,USNewYorkWarren,New York,Warren,2021-01-05 14:37:43.428709,2020-08-21 00:00:00.000000,0.06303843,0.13637160,0.24727988,40,87,158,24,44,94,0.03788475,0.06976314,0.14754925,0.13659244,0.27623916,0.46142827
36113,0,USNewYorkWarren,New York,Warren,2021-01-05 14:37:43.428709,2020-08-22 00:00:00.000000,0.06475295,0.14448010,0.25899380,41,92,165,23,47,98,0.03750852,0.07363227,0.15382060,0.14990688,0.27971558,0.47414180
36113,0,USNewYorkWarren,New York,Warren,2021-01-05 14:37:43.428709,2020-08-23 00:00:00.000000,0.06535448,0.15257268,0.27457057,41,97,175,23,50,101,0.03752762,0.07835541,0.15869359,0.16315012,0.28958895,0.49848493
36113,0,USNewYorkWarren,New York,Warren,2021-01-05 14:37:43.428709,2020-08-24 00:00:00.000000,0.06756939,0.15484649,0.28298467,43,99,180,24,52,104,0.03808766,0.08210319,0.16361262,0.16349729,0.29333212,0.53968666
36113,0,USNewYorkWarren,New York,Warren,2021-01-05 14:37:43.428709,2020-08-25 00:00:00.000000,0.07004666,0.16136566,0.29713838,44,103,190,25,53,108,0.03925093,0.08406001,0.17019413,0.16350766,0.29840645,0.54419349
36113,0,USNewYorkWarren,New York,Warren,2021-01-05 14:37:43.428709,2020-08-26 00:00:00.000000,0.07555081,0.16917006,0.31212365,48,108,199,26,54,113,0.04110630,0.08562440,0.17784778,0.16359812,0.30044344,0.53917018
36113,0,USNewYorkWarren,New York,Warren,2021-01-05 14:37:43.428709,2020-08-27 00:00:00.000000,0.08190672,0.17507860,0.32774092,52,111,209,27,56,118,0.04243641,0.08779823,0.18556517,0.16396448,0.31136038,0.53055269
36113,0,USNewYorkWarren,New York,Warren,2021-01-05 14:37:43.428709,2020-08-28 00:00:00.000000,0.08902928,0.18045238,0.34399150,56,115,219,29,57,123,0.04554582,0.09068689,0.19343015,0.16641230,0.32080161,0.51955658
36113,0,USNewYorkWarren,New York,Warren,2021-01-05 14:37:43.428709,2020-08-29 00:00:00.000000,0.09657537,0.18594248,0.36086001,61,118,230,31,60,127,0.04878301,0.09537589,0.20013019,0.17447782,0.32860810,0.51209661
36113,0,USNewYorkWarren,New York,Warren,2021-01-05 14:37:43.428709,2020-08-30 00:00:00.000000,0.10148890,0.19049076,0.37821056,64,121,241,33,63,132,0.05170648,0.09939720,0.20716159,0.17607120,0.33320466,0.52157211
36113,0,USNewYorkWarren,New York,Warren,2021-01-05 14:37:43.428709,2020-08-31 00:00:00.000000,0.10597163,0.20113503,0.39620790,67,128,253,34,66,137,0.05472723,0.10375561,0.21497520,0.17523038,0.33913321,0.52971022
36113,0,USNewYorkWarren,New York,Warren,2021-01-05 14:37:43.428709,2020-09-01 00:00:00.000000,0.10981848,0.21345835,0.41186150,70,136,263,36,68,143,0.05745108,0.10781496,0.22455426,0.17038921,0.34951609,0.55071914
36113,0,USNewYorkWarren,New York,Warren,2021-01-05 14:37:43.428709,2020-09-02 00:00:00.000000,0.11362585,0.22603778,0.42678397,72,144,272,38,71,150,0.05998535,0.11184698,0.23539932,0.16866886,0.35107052,0.56584667
36113,0,USNewYorkWarren,New York,Warren,2021-01-05 14:37:43.428709,2020-09-03 00:00:00.000000,0.11630264,0.23991758,0.45097722,74,153,288,39,74,158,0.06239844,0.11671023,0.24717060,0.17410348,0.35703598,0.56707509
36113,0,USNewYorkWarren,New York,Warren,2021-01-05 14:37:43.428709,2020-09-04 00:00:00.000000,0.11831648,0.25308936,0.47554833,75,161,304,41,79,166,0.06473359,0.12447438,0.25964652,0.17638485,0.35977214,0.56418714
36113,0,USNewYorkWarren,New York,Warren,2021-01-05 14:37:43.428709,2020-09-05 00:00:00.000000,0.12024151,0.26574157,0.48926263,76,169,312,42,82,175,0.06701751,0.12979981,0.27373168,0.17728013,0.35908531,0.55249804
36113,0,USNewYorkWarren,New York,Warren,2021-01-05 14:37:43.428709,2020-09-06 00:00:00.000000,0.12230990,0.27612572,0.50228223,78,176,321,43,86,183,0.06864763,0.13516630,0.28691583,0.18065185,0.35080746,0.56035171
36113,0,USNewYorkWarren,New York,Warren,2021-01-05 14:37:43.428709,2020-09-07 00:00:00.000000,0.12824634,0.28640920,0.52000668,82,183,332,44,91,191,0.07008420,0.14378128,0.29897975,0.17786766,0.34841167,0.54716266
36113,0,USNewYorkWarren,New York,Warren,2021-01-05 14:37:43.428709,2020-09-08 00:00:00.000000,0.13162375,0.29818455,0.53854216,84,190,344,46,95,200,0.07210888,0.14919368,0.31324547,0.17648544,0.34895825,0.53391202
36113,0,USNewYorkWarren,New York,Warren,2021-01-05 14:37:43.428709,2020-09-09 00:00:00.000000,0.13057391,0.31040565,0.55099933,83,198,352,47,98,206,0.07415452,0.15440500,0.32217949,0.17496079,0.34493520,0.53989161
36113,0,USNewYorkWarren,New York,Warren,2021-01-05 14:37:43.428709,2020-09-10 00:00:00.000000,0.13264882,0.31891942,0.56704517,84,203,362,48,103,211,0.07566665,0.16251797,0.33000521,0.17289497,0.34604875,0.54385417
36113,0,USNewYorkWarren,New York,Warren,2021-01-05 14:37:43.428709,2020-09-11 00:00:00.000000,0.13480872,0.32895957,0.59531111,86,210,380,49,109,215,0.07713486,0.17083743,0.33727669,0.16984975,0.34919431,0.54596158
36113,0,USNewYorkWarren,New York,Warren,2021-01-05 14:37:43.428709,2020-09-12 00:00:00.000000,0.13673151,0.34078903,0.61750080,87,217,394,50,112,223,0.07851440,0.17638923,0.34920067,0.16906352,0.33757135,0.54634341
36113,0,USNewYorkWarren,New York,Warren,2021-01-05 14:37:43.428709,2020-09-13 00:00:00.000000,0.13841500,0.35148522,0.63095267,88,224,403,51,116,234,0.07977770,0.18256992,0.36666819,0.16802595,0.32737076,0.54510968
36113,0,USNewYorkWarren,New York,Warren,2021-01-05 14:37:43.428709,2020-09-14 00:00:00.000000,0.14290105,0.36279703,0.64197649,91,231,410,51,121,245,0.08092158,0.18957880,0.38469401,0.16693598,0.32478246,0.50299628
36113,0,USNewYorkWarren,New York,Warren,2021-01-05 14:37:43.428709,2020-09-15 00:00:00.000000,0.14719113,0.36691102,0.65063084,94,234,416,52,125,257,0.08283379,0.19636714,0.40257637,0.16605733,0.32601534,0.49495363
36113,0,USNewYorkWarren,New York,Warren,2021-01-05 14:37:43.428709,2020-09-16 00:00:00.000000,0.15141534,0.37433595,0.69092593,96,239,441,54,128,268,0.08508292,0.20079633,0.42033620,0.16552529,0.32465121,0.49833560
36113,0,USNewYorkWarren,New York,Warren,2021-01-05 14:37:43.428709,2020-09-17 00:00:00.000000,0.15553703,0.38434174,0.70369810,99,245,449,55,131,280,0.08746885,0.20577325,0.43819027,0.16892990,0.31749176,0.49428511
36113,0,USNewYorkWarren,New York,Warren,2021-01-05 14:37:43.428709,2020-09-18 00:00:00.000000,0.15956259,0.39403045,0.70633718,102,251,451,57,135,291,0.08988677,0.21156896,0.45635438,0.16576576,0.31012002,0.49243580
36113,0,USNewYorkWarren,New York,Warren,2021-01-05 14:37:43.428709,2020-09-19 00:00:00.000000,0.16353310,0.40746478,0.73255369,104,260,468,59,136,303,0.09228945,0.21341583,0.47497510,0.16374027,0.30536708,0.48321343
36113,0,USNewYorkWarren,New York,Warren,2021-01-05 14:37:43.428709,2020-09-20 00:00:00.000000,0.16751340,0.42115792,0.75968427,107,269,485,60,138,315,0.09466717,0.21698953,0.49374795,0.16256971,0.29944281,0.47014833
36113,0,USNewYorkWarren,New York,Warren,2021-01-05 14:37:43.428709,2020-09-21 00:00:00.000000,0.17028554,0.42410664,0.78548626,108,271,502,62,141,322,0.09703520,0.22191003,0.50394900,0.16349350,0.29841270,0.46497062
36113,0,USNewYorkWarren,New York,Warren,2021-01-05 14:37:43.428709,2020-09-22 00:00:00.000000,0.17673048,0.42970372,0.80329872,113,274,513,62,146,328,0.09822690,0.22860270,0.51359995,0.16490055,0.28820061,0.46429963
36113,0,USNewYorkWarren,New York,Warren,2021-01-05 14:37:43.428709,2020-09-23 00:00:00.000000,0.18323702,0.43734743,0.80430359,117,279,514,63,149,334,0.09898174,0.23448460,0.52295675,0.16441241,0.28230165,0.45989983
36113,0,USNewYorkWarren,New York,Warren,2021-01-05 14:37:43.428709,2020-09-24 00:00:00.000000,0.18964879,0.44422003,0.80264580,121,284,513,65,152,340,0.10261353,0.23810847,0.53206704,0.15310868,0.27204991,0.44497986
36113,0,USNewYorkWarren,New York,Warren,2021-01-05 14:37:43.428709,2020-09-25 00:00:00.000000,0.20169567,0.45179234,0.79792983,128,288,510,67,155,345,0.10622656,0.24322647,0.54053437,0.15244651,0.26900712,0.43049534
36113,0,USNewYorkWarren,New York,Warren,2021-01-05 14:37:43.428709,2020-09-26 00:00:00.000000,0.20175029,0.45443040,0.79002886,129,290,505,70,157,350,0.10978126,0.24586286,0.54735754,0.14814711,0.26202801,0.42634524
36113,0,USNewYorkWarren,New York,Warren,2021-01-05 14:37:43.428709,2020-09-27 00:00:00.000000,0.20693458,0.45180730,0.77944960,132,288,498,72,159,353,0.11340146,0.24918948,0.55218860,0.14119382,0.24899791,0.41381324
36113,0,USNewYorkWarren,New York,Warren,2021-01-05 14:37:43.428709,2020-09-28 00:00:00.000000,0.20717021,0.44842764,0.76828969,132,286,491,74,159,355,0.11701990,0.24874306,0.55552594,0.13828795,0.24473374,0.40220771
36113,0,USNewYorkWarren,New York,Warren,2021-01-05 14:37:43.428709,2020-09-29 00:00:00.000000,0.20699686,0.45040699,0.76535245,132,288,489,76,159,357,0.11918710,0.24932121,0.55897782,0.13824710,0.23639920,0.39898418
36113,0,USNewYorkWarren,New York,Warren,2021-01-05 14:37:43.428709,2020-09-30 00:00:00.000000,0.20664599,0.45444205,0.76554651,132,290,489,77,159,359,0.12043949,0.24916245,0.56247229,0.14114587,0.23228884,0.38321018
36113,0,USNewYorkWarren,New York,Warren,2021-01-05 14:37:43.428709,2020-10-01 00:00:00.000000,0.20619028,0.45132625,0.76580396,131,288,489,76,159,361,0.12032558,0.25010608,0.56596712,0.14110776,0.23013698,0.36905123
36113,0,USNewYorkWarren,New York,Warren,2021-01-05 14:37:43.428709,2020-10-02 00:00:00.000000,0.20568740,0.44780926,0.76606195,131,286,489,77,161,364,0.12098843,0.25255356,0.56941141,0.13934530,0.22744480,0.35490827
36113,0,USNewYorkWarren,New York,Warren,2021-01-05 14:37:43.428709,2020-10-03 00:00:00.000000,0.20518202,0.44359518,0.76616347,131,283,489,77,160,366,0.12145020,0.25041999,0.57273939,0.14181067,0.22502124,0.34608010
36113,0,USNewYorkWarren,New York,Warren,2021-01-05 14:37:43.428709,2020-10-04 00:00:00.000000,0.20352205,0.43800354,0.76570875,130,280,489,77,158,368,0.12137470,0.24770024,0.57590589,0.13055621,0.22478173,0.34540183
36113,0,USNewYorkWarren,New York,Warren,2021-01-05 14:37:43.428709,2020-10-05 00:00:00.000000,0.19828090,0.43373940,0.76380696,126,277,488,77,157,370,0.12122238,0.24588500,0.57878806,0.12122543,0.22187213,0.34293513
36113,0,USNewYorkWarren,New York,Warren,2021-01-05 14:37:43.428709,2020-10-06 00:00:00.000000,0.19517726,0.43229597,0.76038402,124,276,486,76,157,371,0.11892902,0.24608184,0.58114493,0.12095230,0.21779494,0.34132801
36113,0,USNewYorkWarren,New York,Warren,2021-01-05 14:37:43.428709,2020-10-07 00:00:00.000000,0.19541619,0.42675530,0.75301953,124,272,481,75,157,371,0.11795104,0.24628374,0.58128527,0.11908199,0.21577609,0.34042819
36113,0,USNewYorkWarren,New York,Warren,2021-01-05 14:37:43.428709,2020-10-08 00:00:00.000000,0.19649490,0.42101344,0.74454171,125,269,476,75,157,364,0.11788864,0.24694616,0.57061209,0.11922320,0.21641439,0.32410196
36113,0,USNewYorkWarren,New York,Warren,2021-01-05 14:37:43.428709,2020-10-09 00:00:00.000000,0.19874387,0.41838687,0.73583495,127,267,470,75,156,354,0.11816731,0.24509374,0.55412285,0.11972784,0.22307043,0.32240945
36113,0,USNewYorkWarren,New York,Warren,2021-01-05 14:37:43.428709,2020-10-10 00:00:00.000000,0.20207271,0.41481470,0.72726784,129,265,465,76,154,343,0.11896285,0.24164380,0.53780024,0.11969178,0.21984801,0.32315520
36113,0,USNewYorkWarren,New York,Warren,2021-01-05 14:37:43.428709,2020-10-11 00:00:00.000000,0.19758277,0.40822025,0.71918594,126,261,459,76,152,333,0.12018925,0.23787867,0.52188522,0.11903918,0.22764238,0.31969624
36113,0,USNewYorkWarren,New York,Warren,2021-01-05 14:37:43.428709,2020-10-12 00:00:00.000000,0.19393252,0.39972847,0.70688740,124,255,452,75,150,323,0.11800576,0.23484685,0.50660279,0.11869931,0.23173137,0.32156599
36113,0,USNewYorkWarren,New York,Warren,2021-01-05 14:37:43.428709,2020-10-13 00:00:00.000000,0.19028579,0.39367100,0.69623665,121,251,445,74,149,315,0.11580410,0.23328472,0.49327077,0.11879538,0.23112590,0.32757754
36113,0,USNewYorkWarren,New York,Warren,2021-01-05 14:37:43.428709,2020-10-14 00:00:00.000000,0.18676825,0.38809624,0.68881264,119,248,440,72,145,308,0.11363753,0.22800538,0.48180515,0.12724625,0.23533920,0.33643605
36113,0,USNewYorkWarren,New York,Warren,2021-01-05 14:37:43.428709,2020-10-15 00:00:00.000000,0.18342282,0.38544663,0.68444424,117,246,437,71,142,302,0.11152103,0.22324890,0.47235601,0.13372566,0.23729699,0.33666614
36113,0,USNewYorkWarren,New York,Warren,2021-01-05 14:37:43.428709,2020-10-16 00:00:00.000000,0.18032403,0.38222756,0.67897836,115,244,434,70,140,297,0.10947383,0.21985713,0.46527871,0.13711985,0.23819122,0.34252938
36113,0,USNewYorkWarren,New York,Warren,2021-01-05 14:37:43.428709,2020-10-17 00:00:00.000000,0.17773873,0.38448906,0.67278161,113,245,430,68,139,294,0.10752435,0.21788941,0.46075939,0.14269026,0.24265294,0.35484356
36113,0,USNewYorkWarren,New York,Warren,2021-01-05 14:37:43.428709,2020-10-18 00:00:00.000000,0.17632268,0.38747846,0.66670404,112,247,426,67,138,293,0.10574920,0.21698908,0.45864448,0.14293144,0.24943822,0.36709047
36113,0,USNewYorkWarren,New York,Warren,2021-01-05 14:37:43.428709,2020-10-19 00:00:00.000000,0.17627225,0.38829187,0.65958483,112,248,421,66,138,293,0.10430120,0.21693338,0.45853094,0.14316006,0.25263506,0.38682242
36113,0,USNewYorkWarren,New York,Warren,2021-01-05 14:37:43.428709,2020-10-20 00:00:00.000000,0.17712042,0.39216066,0.66104819,113,250,422,65,137,293,0.10285955,0.21563642,0.45926012,0.14870025,0.25675121,0.40320797
36113,0,USNewYorkWarren,New York,Warren,2021-01-05 14:37:43.428709,2020-10-21 00:00:00.000000,0.17907026,0.38881381,0.66429821,114,248,424,65,137,294,0.10186655,0.21449551,0.46066133,0.15169715,0.25379818,0.40937024
36113,0,USNewYorkWarren,New York,Warren,2021-01-05 14:37:43.428709,2020-10-22 00:00:00.000000,0.18267412,0.39067254,0.66786532,116,249,427,64,136,295,0.10133901,0.21408516,0.46253417,0.15258542,0.26398190,0.41363429
36113,0,USNewYorkWarren,New York,Warren,2021-01-05 14:37:43.428709,2020-10-23 00:00:00.000000,0.18714647,0.39210975,0.67163131,119,250,429,64,137,297,0.10132351,0.21454244,0.46472462,0.15214414,0.27247384,0.41713809
36113,0,USNewYorkWarren,New York,Warren,2021-01-05 14:37:43.428709,2020-10-24 00:00:00.000000,0.19183018,0.39081866,0.67549605,122,249,431,65,138,298,0.10184931,0.21584744,0.46723830,0.15131058,0.28289179,0.42096702
36113,0,USNewYorkWarren,New York,Warren,2021-01-05 14:37:43.428709,2020-10-25 00:00:00.000000,0.19682074,0.39097099,0.68331070,125,250,436,65,139,301,0.10289830,0.21787987,0.47077751,0.15024609,0.29074314,0.42573205
36113,0,USNewYorkWarren,New York,Warren,2021-01-05 14:37:43.428709,2020-10-26 00:00:00.000000,0.20173034,0.39749715,0.69254551,128,254,442,68,141,304,0.10656377,0.22183955,0.47633072,0.14941973,0.29820432,0.44426720
36113,0,USNewYorkWarren,New York,Warren,2021-01-05 14:37:43.428709,2020-10-27 00:00:00.000000,0.20694972,0.40190777,0.70258541,132,256,449,71,144,309,0.11176392,0.22573536,0.48431746,0.15230458,0.30228771,0.44475674
36113,0,USNewYorkWarren,New York,Warren,2021-01-05 14:37:43.428709,2020-10-28 00:00:00.000000,0.21314281,0.40712748,0.71030063,136,260,454,73,146,313,0.11553546,0.22967847,0.48988350,0.15570867,0.31233819,0.44496888
36113,0,USNewYorkWarren,New York,Warren,2021-01-05 14:37:43.428709,2020-10-29 00:00:00.000000,0.22182094,0.40966587,0.71819789,141,261,459,75,147,311,0.11762667,0.23123067,0.48705695,0.15888189,0.31756546,0.44422158
36113,0,USNewYorkWarren,New York,Warren,2021-01-05 14:37:43.428709,2020-10-30 00:00:00.000000,0.23344681,0.41744640,0.73357583,149,266,469,76,148,309,0.11932307,0.23230215,0.48386742,0.16151546,0.33618574,0.46753534
36113,0,USNewYorkWarren,New York,Warren,2021-01-05 14:37:43.428709,2020-10-31 00:00:00.000000,0.23977551,0.42912802,0.75349085,153,274,481,77,149,307,0.12122683,0.23441146,0.48047066,0.16392877,0.34068473,0.48325704
36113,0,USNewYorkWarren,New York,Warren,2021-01-05 14:37:43.428709,2020-11-01 00:00:00.000000,0.23936111,0.43854771,0.77399630,153,280,494,79,154,305,0.12416138,0.24185083,0.47710496,0.16664060,0.34558199,0.51648160
36113,0,USNewYorkWarren,New York,Warren,2021-01-05 14:37:43.428709,2020-11-02 00:00:00.000000,0.24238647,0.44853725,0.79186464,154,286,506,84,157,303,0.13181220,0.24578456,0.47466126,0.16883514,0.34972706,0.52671682
36113,0,USNewYorkWarren,New York,Warren,2021-01-05 14:37:43.428709,2020-11-03 00:00:00.000000,0.24641485,0.46034945,0.81018721,157,294,518,87,161,303,0.13687081,0.25218688,0.47411102,0.17229829,0.35151478,0.52646853
36113,0,USNewYorkWarren,New York,Warren,2021-01-05 14:37:43.428709,2020-11-04 00:00:00.000000,0.25181500,0.47828305,0.82880671,161,305,529,89,164,305,0.13930363,0.25666030,0.47751601,0.17620834,0.35370841,0.51024652
36113,0,USNewYorkWarren,New York,Warren,2021-01-05 14:37:43.428709,2020-11-05 00:00:00.000000,0.25866280,0.49188361,0.84782910,165,314,542,90,171,312,0.14169716,0.26764624,0.48843114,0.17805323,0.35696064,0.50899008
36113,0,USNewYorkWarren,New York,Warren,2021-01-05 14:37:43.428709,2020-11-06 00:00:00.000000,0.26686766,0.50550766,0.86789960,170,323,554,92,176,319,0.14418626,0.27590733,0.49951611,0.18842055,0.36422638,0.51599112
36113,0,USNewYorkWarren,New York,Warren,2021-01-05 14:37:43.428709,2020-11-07 00:00:00.000000,0.27435206,0.52057728,0.89247919,175,332,570,93,182,326,0.14693061,0.28583713,0.51121865,0.20679606,0.37958914,0.51782279
36113,0,USNewYorkWarren,New York,Warren,2021-01-05 14:37:43.428709,2020-11-08 00:00:00.000000,0.28307468,0.54177002,0.92713638,181,346,592,96,188,335,0.15016459,0.29502004,0.52398590,0.22486482,0.39261106,0.54874571
36113,0,USNewYorkWarren,New York,Warren,2021-01-05 14:37:43.428709,2020-11-09 00:00:00.000000,0.29503907,0.56838793,0.96884473,188,363,619,98,196,345,0.15422245,0.30727678,0.54031871,0.23922288,0.40749657,0.56452638
36113,0,USNewYorkWarren,New York,Warren,2021-01-05 14:37:43.428709,2020-11-10 00:00:00.000000,0.30948537,0.59357386,0.99009636,197,379,633,102,206,358,0.15960391,0.32256182,0.56079187,0.25247164,0.41473234,0.57286652
36113,0,USNewYorkWarren,New York,Warren,2021-01-05 14:37:43.428709,2020-11-11 00:00:00.000000,0.32178601,0.61384014,1.01100665,205,392,646,106,216,373,0.16657467,0.33827771,0.58476839,0.25675544,0.41924655,0.57463812
36113,0,USNewYorkWarren,New York,Warren,2021-01-05 14:37:43.428709,2020-11-12 00:00:00.000000,0.33481425,0.64190354,1.03808670,214,410,663,112,225,391,0.17528043,0.35214146,0.61216375,0.25740242,0.42448061,0.57518389
36113,0,USNewYorkWarren,New York,Warren,2021-01-05 14:37:43.428709,2020-11-13 00:00:00.000000,0.34806340,0.67234418,1.08444705,222,429,693,118,233,411,0.18594258,0.36556584,0.64315719,0.25893174,0.42534449,0.58327090
36113,0,USNewYorkWarren,New York,Warren,2021-01-05 14:37:43.428709,2020-11-14 00:00:00.000000,0.35997870,0.70411085,1.14004966,230,450,728,125,242,433,0.19565672,0.37900632,0.67779683,0.26322022,0.43207702,0.58433391
36113,0,USNewYorkWarren,New York,Warren,2021-01-05 14:37:43.428709,2020-11-15 00:00:00.000000,0.36994637,0.73447678,1.20667653,236,469,771,130,251,457,0.20356987,0.39398524,0.71588612,0.26808520,0.44355251,0.58759509
36113,0,USNewYorkWarren,New York,Warren,2021-01-05 14:37:43.428709,2020-11-16 00:00:00.000000,0.39017290,0.77561532,1.28500193,249,495,821,136,262,480,0.21299081,0.41124393,0.75189820,0.27041572,0.44492035,0.59259983
36113,0,USNewYorkWarren,New York,Warren,2021-01-05 14:37:43.428709,2020-11-17 00:00:00.000000,0.41332229,0.80753401,1.36638819,264,516,873,141,275,501,0.22065832,0.43135460,0.78429584,0.27152231,0.44721726,0.59704096
36113,0,USNewYorkWarren,New York,Warren,2021-01-05 14:37:43.428709,2020-11-18 00:00:00.000000,0.42594989,0.84759481,1.45088876,272,541,927,145,289,522,0.22768647,0.45350417,0.81750208,0.27296696,0.44578030,0.61714695
36113,0,USNewYorkWarren,New York,Warren,2021-01-05 14:37:43.428709,2020-11-19 00:00:00.000000,0.44084956,0.89604745,1.53804019,281,572,983,149,303,544,0.23344643,0.47506774,0.85172806,0.27610976,0.44385788,0.61535909
36113,0,USNewYorkWarren,New York,Warren,2021-01-05 14:37:43.428709,2020-11-20 00:00:00.000000,0.45850658,0.93913793,1.61559049,293,600,1033,153,317,567,0.24072716,0.49636025,0.88785824,0.30285004,0.44917225,0.62044304
36113,0,USNewYorkWarren,New York,Warren,2021-01-05 14:37:43.428709,2020-11-21 00:00:00.000000,0.47880787,0.98887986,1.68260639,306,632,1075,159,331,594,0.24924634,0.51866616,0.93023285,0.32008979,0.45451631,0.61521205
36113,0,USNewYorkWarren,New York,Warren,2021-01-05 14:37:43.428709,2020-11-22 00:00:00.000000,0.50130927,1.03785870,1.75507337,320,663,1122,165,346,629,0.25907726,0.54238613,0.98425834,0.32238337,0.46477951,0.63917379
36113,0,USNewYorkWarren,New York,Warren,2021-01-05 14:37:43.428709,2020-11-23 00:00:00.000000,0.52809804,1.08706398,1.83198234,337,695,1171,172,361,661,0.27019797,0.56562098,1.03429749,0.32993631,0.47312162,0.64703318
36113,0,USNewYorkWarren,New York,Warren,2021-01-05 14:37:43.428709,2020-11-24 00:00:00.000000,0.55638234,1.14823584,1.91817237,355,734,1226,181,376,690,0.28308634,0.58921596,1.07911386,0.32291129,0.47981192,0.67432774
36113,0,USNewYorkWarren,New York,Warren,2021-01-05 14:37:43.428709,2020-11-25 00:00:00.000000,0.58616283,1.21379012,2.01469828,374,776,1288,190,393,721,0.29737165,0.61468244,1.12823616,0.32448319,0.48136305,0.66795921
36113,0,USNewYorkWarren,New York,Warren,2021-01-05 14:37:43.428709,2020-11-26 00:00:00.000000,0.61740328,1.27325515,2.12353468,394,814,1357,200,411,756,0.31281017,0.64379988,1.18272914,0.33092433,0.48678920,0.66571768
36113,0,USNewYorkWarren,New York,Warren,2021-01-05 14:37:43.428709,2020-11-27 00:00:00.000000,0.65016094,1.33864102,2.28119606,415,855,1458,210,435,794,0.32925743,0.68080685,1.24316353,0.33840837,0.48972896,0.68864511
36113,0,USNewYorkWarren,New York,Warren,2021-01-05 14:37:43.428709,2020-11-28 00:00:00.000000,0.68464858,1.40960441,2.39419567,437,901,1530,221,457,837,0.34664760,0.71619055,1.30957443,0.33174580,0.49859269,0.69200989
36113,0,USNewYorkWarren,New York,Warren,2021-01-05 14:37:43.428709,2020-11-29 00:00:00.000000,0.72134536,1.48697196,2.51747987,461,950,1609,233,480,883,0.36499611,0.75085528,1.38162619,0.33457496,0.49612278,0.69572906
36113,0,USNewYorkWarren,New York,Warren,2021-01-05 14:37:43.428709,2020-11-30 00:00:00.000000,0.76086681,1.58112382,2.65207133,486,1011,1695,245,502,932,0.38442877,0.78600128,1.45888251,0.33565320,0.49832147,0.69670310
36113,0,USNewYorkWarren,New York,Warren,2021-01-05 14:37:43.428709,2020-12-01 00:00:00.000000,0.80271198,1.69067644,2.79696816,513,1081,1788,259,531,984,0.40517324,0.83070355,1.53969112,0.33976375,0.50005680,0.69610065
36113,0,USNewYorkWarren,New York,Warren,2021-01-05 14:37:43.428709,2020-12-02 00:00:00.000000,0.84669526,1.79545337,2.94090759,541,1148,1880,273,558,1038,0.42723948,0.87297602,1.62426389,0.34346309,0.49811897,0.69397183
36113,0,USNewYorkWarren,New York,Warren,2021-01-05 14:37:43.428709,2020-12-03 00:00:00.000000,0.89292563,1.89333444,3.09776270,570,1210,1980,288,586,1095,0.45058234,0.91766000,1.71336787,0.34645723,0.49657966,0.68519288
36113,0,USNewYorkWarren,New York,Warren,2021-01-05 14:37:43.428709,2020-12-04 00:00:00.000000,0.94195493,2.00491170,3.28301639,602,1282,2099,303,624,1171,0.47520150,0.97642799,1.83241479,0.34264566,0.50186339,0.66872473
36113,0,USNewYorkWarren,New York,Warren,2021-01-05 14:37:43.428709,2020-12-05 00:00:00.000000,0.99463582,2.14223010,3.48975088,636,1369,2231,320,663,1251,0.50123212,1.03725338,1.95641592,0.34021747,0.50297537,0.65708262
36113,0,USNewYorkWarren,New York,Warren,2021-01-05 14:37:43.428709,2020-12-06 00:00:00.000000,1.05086951,2.26251190,3.71063260,671,1446,2372,338,708,1332,0.52896130,1.10873167,2.08386872,0.33858481,0.50275996,0.67099031
36113,0,USNewYorkWarren,New York,Warren,2021-01-05 14:37:43.428709,2020-12-07 00:00:00.000000,1.10737994,2.36685730,3.94609451,708,1513,2523,357,754,1415,0.55853515,1.17976792,2.21345633,0.33070999,0.50106990,0.67128987
36113,0,USNewYorkWarren,New York,Warren,2021-01-05 14:37:43.428709,2020-12-08 00:00:00.000000,1.16741796,2.46373886,4.19272456,746,1575,2680,377,785,1490,0.59079465,1.22857233,2.33080810,0.32709063,0.50411783,0.67220978
36113,0,USNewYorkWarren,New York,Warren,2021-01-05 14:37:43.428709,2020-12-09 00:00:00.000000,1.23176815,2.57259992,4.44947088,787,1645,2845,405,832,1584,0.63448716,1.30197661,2.47754269,0.33293695,0.50175389,0.67838387
36113,0,USNewYorkWarren,New York,Warren,2021-01-05 14:37:43.428709,2020-12-10 00:00:00.000000,1.30214701,2.69734903,4.68477019,832,1724,2995,435,890,1657,0.68147629,1.39323256,2.59164444,0.34582106,0.51042578,0.69138289
36113,0,USNewYorkWarren,New York,Warren,2021-01-05 14:37:43.428709,2020-12-11 00:00:00.000000,1.38218837,2.85327532,4.97638239,883,1824,3182,467,941,1749,0.73182470,1.47238465,2.73576393,0.35256242,0.52480439,0.70756517
36113,0,USNewYorkWarren,New York,Warren,2021-01-05 14:37:43.428709,2020-12-12 00:00:00.000000,1.47836367,3.00076903,5.28897219,945,1918,3381,490,993,1854,0.76641537,1.55318182,2.90075787,0.36494050,0.53154836,0.74031690
36113,0,USNewYorkWarren,New York,Warren,2021-01-05 14:37:43.428709,2020-12-13 00:00:00.000000,1.58630335,3.20814156,5.58883090,1014,2051,3573,512,1040,1964,0.80070437,1.62679116,3.07219787,0.37577177,0.53305967,0.75764391
36113,0,USNewYorkWarren,New York,Warren,2021-01-05 14:37:43.428709,2020-12-14 00:00:00.000000,1.66367216,3.42237640,5.89130852,1063,2188,3767,536,1095,2077,0.83964578,1.71300351,3.24939123,0.37743741,0.54387008,0.77358339
36113,0,USNewYorkWarren,New York,Warren,2021-01-05 14:37:43.428709,2020-12-15 00:00:00.000000,1.74475051,3.66992426,6.20012912,1115,2346,3964,575,1154,2217,0.90030856,1.80577004,3.46834629,0.37745759,0.57425705,0.82710959
36113,0,USNewYorkWarren,New York,Warren,2021-01-05 14:37:43.428709,2020-12-16 00:00:00.000000,1.83311058,3.92046840,6.51592557,1172,2506,4166,608,1228,2376,0.95153643,1.92074703,3.71684600,0.37767581,0.58077293,0.88800411
36113,0,USNewYorkWarren,New York,Warren,2021-01-05 14:37:43.428709,2020-12-17 00:00:00.000000,1.93527750,4.17690454,6.87803251,1237,2670,4398,637,1311,2539,0.99676246,2.05131615,3.97150560,0.38914518,0.58207748,0.90149928
36113,0,USNewYorkWarren,New York,Warren,2021-01-05 14:37:43.428709,2020-12-18 00:00:00.000000,2.05944249,4.49560266,7.40813997,1316,2874,4737,669,1406,2720,1.04742240,2.19941197,4.25525876,0.40947908,0.59618489,0.85469242
36113,0,USNewYorkWarren,New York,Warren,2021-01-05 14:37:43.428709,2020-12-19 00:00:00.000000,2.20714234,4.81929529,7.96899032,1411,3081,5095,707,1502,2915,1.10628656,2.34965892,4.55909540,0.41401223,0.62167419,0.85132520
36113,0,USNewYorkWarren,New York,Warren,2021-01-05 14:37:43.428709,2020-12-20 00:00:00.000000,2.37346582,5.19319100,8.55806901,1517,3320,5472,751,1605,3124,1.17545508,2.51004067,4.88703395,0.41554037,0.61796596,0.87130460
36113,0,USNewYorkWarren,New York,Warren,2021-01-05 14:37:43.428709,2020-12-21 00:00:00.000000,2.54187102,5.61629555,9.17469910,1625,3591,5866,802,1719,3344,1.25516485,2.68968753,5.23100723,0.41961802,0.62586129,0.91341363
36113,0,USNewYorkWarren,New York,Warren,2021-01-05 14:37:43.428709,2020-12-22 00:00:00.000000,2.72419612,6.02618161,9.81726127,1741,3853,6277,858,1860,3554,1.34194659,2.90880702,5.55837240,0.42325232,0.64457228,0.91944541
36113,0,USNewYorkWarren,New York,Warren,2021-01-05 14:37:43.428709,2020-12-23 00:00:00.000000,2.92028665,6.47353114,10.48335400,1867,4139,6703,918,1991,3770,1.43609738,3.11495834,5.89713146,0.43746105,0.65303147,0.92369961
36113,0,USNewYorkWarren,New York,Warren,2021-01-05 14:37:43.428709,2020-12-24 00:00:00.000000,3.13158213,6.94340336,11.16946701,2002,4439,7142,988,2129,3990,1.54583167,3.32969303,6.24105921,0.43532814,0.65981454,0.94673412
36113,0,USNewYorkWarren,New York,Warren,2021-01-05 14:37:43.428709,2020-12-25 00:00:00.000000,3.36031454,7.39277042,11.87085422,2148,4727,7590,1067,2272,4214,1.66967939,3.55464388,6.59083917,0.43190239,0.66911341,0.96466732
36113,0,USNewYorkWarren,New York,Warren,2021-01-05 14:37:43.428709,2020-12-26 00:00:00.000000,3.60940668,7.88240455,12.58146867,2307,5040,8045,1154,2435,4443,1.80501798,3.80838621,6.94919291,0.42958372,0.66948967,0.98023755
36113,0,USNewYorkWarren,New York,Warren,2021-01-05 14:37:43.428709,2020-12-27 00:00:00.000000,3.88269461,8.43238014,13.46713496,2482,5392,8611,1247,2598,4679,1.95138746,4.06418952,7.31773567,0.43544876,0.67090508,1.02173562
36113,0,USNewYorkWarren,New York,Warren,2021-01-05 14:37:43.428709,2020-12-28 00:00:00.000000,4.18623120,8.97782694,14.40027644,2676,5740,9208,1347,2772,4966,2.10803860,4.33519658,7.76749308,0.44200994,0.67178194,1.03527670
36113,0,USNewYorkWarren,New York,Warren,2021-01-05 14:37:43.428709,2020-12-29 00:00:00.000000,4.55652005,9.68696313,15.19651574,2913,6194,9717,1452,2957,5273,2.27220830,4.62460019,8.24710323,0.43211811,0.68545106,1.06340361
36113,0,USNewYorkWarren,New York,Warren,2021-01-05 14:37:43.428709,2020-12-30 00:00:00.000000,5.06606890,10.40522827,15.95130444,3239,6653,10199,1562,3149,5605,2.44326413,4.92534929,8.76634806,0.41685265,0.68939652,1.07668133
36113,0,USNewYorkWarren,New York,Warren,2021-01-05 14:37:43.428709,2020-12-31 00:00:00.000000,5.70608707,11.03509174,16.71754010,3648,7056,10689,1676,3346,5889,2.62136677,5.23420386,9.20989001,0.39740742,0.69672956,1.07891062
36113,0,USNewYorkWarren,New York,Warren,2021-01-05 14:37:43.428709,2021-01-01 00:00:00.000000,6.43129086,11.79358692,18.02460570,4112,7541,11525,1833,3549,6192,2.86808266,5.55111805,9.68491625,0.37820369,0.70388776,1.12613870
36113,0,USNewYorkWarren,New York,Warren,2021-01-05 14:37:43.428709,2021-01-02 00:00:00.000000,6.90347556,12.58555009,19.28830095,4414,8047,12333,2047,3821,6498,3.20130225,5.97671969,10.16261576,0.36628256,0.69654011,1.13257975
36113,0,USNewYorkWarren,New York,Warren,2021-01-05 14:37:43.428709,2021-01-03 00:00:00.000000,7.48398100,13.23512358,19.92072745,4785,8463,12738,2292,4087,6810,3.58552514,6.39158596,10.65039644,0.36442720,0.69763866,1.15020594
36113,0,USNewYorkWarren,New York,Warren,2021-01-05 14:37:43.428709,2021-01-04 00:00:00.000000,7.63405951,13.68543347,20.26233198,4881,8751,12956,2490,4306,7133,3.89529477,6.73415380,11.15522100,0.36289006,0.69573111,1.16879360
36113,0,USNewYorkWarren,New York,Warren,2021-01-05 14:37:43.428709,2021-01-05 00:00:00.000000,7.77549522,14.06774949,20.91703202,4971,8995,13375,2710,4476,7477,4.23963566,7.00022025,11.69379944,0.36190643,0.69611875,1.17526021
36113,0,USNewYorkWarren,New York,Warren,2021-01-05 14:37:43.428709,2021-01-06 00:00:00.000000,8.45316604,14.88693343,22.30340249,5405,9519,14261,2919,4703,7779,4.56536462,7.35637506,12.16577876,0.36138202,0.69744574,1.17750274
36113,0,USNewYorkWarren,New York,Warren,2021-01-05 14:37:43.428709,2021-01-07 00:00:00.000000,9.01638334,15.54033280,23.15840804,5765,9937,14808,2980,5014,8065,4.66037501,7.84136671,12.61401348,0.36112995,0.69714086,1.17833819
36113,0,USNewYorkWarren,New York,Warren,2021-01-05 14:37:43.428709,2021-01-08 00:00:00.000000,9.16737584,16.45321015,23.62544457,5861,10520,15107,3083,5285,8426,4.82274430,8.26614099,13.17777051,0.36101486,0.69611125,1.17867529
36113,0,USNewYorkWarren,New York,Warren,2021-01-05 14:37:43.428709,2021-01-09 00:00:00.000000,9.40898378,17.28855559,23.97926117,6016,11054,15333,3169,5455,8991,4.95614317,8.53177554,14.06084290,0.36096355,0.69576236,1.17882013
36113,0,USNewYorkWarren,New York,Warren,2021-01-05 14:37:43.428709,2021-01-10 00:00:00.000000,10.05773744,17.90271892,24.70719944,6431,11447,15798,3340,5738,9440,5.22401282,8.97355393,14.76292396,0.35984042,0.69573572,1.17888527
36113,0,USNewYorkWarren,New York,Warren,2021-01-05 14:37:43.428709,2021-01-11 00:00:00.000000,10.47702438,18.59277557,25.38715074,6699,11888,16233,3575,5982,9866,5.59114153,9.35657274,15.42969654,0.35440115,0.69573572,1.17891554
36113,0,USNewYorkWarren,New York,Warren,2021-01-05 14:37:43.428709,2021-01-12 00:00:00.000000,10.75468934,19.23251685,25.95270269,6876,12298,16595,3675,6209,10263,5.74796270,9.71143685,16.05048323,0.35028121,0.69573572,1.17892995
36113,0,USNewYorkWarren,New York,Warren,2021-01-05 14:37:43.428709,2021-01-13 00:00:00.000000,11.02551549,19.83758115,26.55735642,7050,12684,16981,3749,6439,10624,5.86439053,10.07013441,16.61500133,0.34720246,0.69573572,1.17893691
36113,0,USNewYorkWarren,New York,Warren,2021-01-05 14:37:43.428709,2021-01-14 00:00:00.000000,11.28828565,19.78274369,27.03572451,7218,12649,17287,3817,6553,10939,5.97059739,10.24925600,17.10725113,0.34492486,0.69573572,1.17894031
36113,0,USNewYorkWarren,New York,Warren,2021-01-05 14:37:43.428709,2021-01-15 00:00:00.000000,11.32683191,20.18039759,28.16853400,7242,12904,18012,3878,6707,11203,6.06604683,10.48917660,17.52146505,0.34415788,0.69573572,1.17894198
36113,0,USNewYorkWarren,New York,Warren,2021-01-05 14:37:43.428709,2021-01-16 00:00:00.000000,11.19546350,20.09879693,29.27811768,7158,12851,18721,3932,6918,11416,6.15017884,10.82036676,17.85408793,0.34412579,0.69573572,1.17894281
36113,0,USNewYorkWarren,New York,Warren,2021-01-05 14:37:43.428709,2021-01-17 00:00:00.000000,11.05262069,19.93362013,30.30486941,7067,12746,19378,3978,7050,11573,6.22244998,11.02572110,18.09984665,0.34410264,0.69573571,1.17894322
