FIPS,HR_UID,nameid,province,region,analysisTime,dates,pointprevalence_025,pointprevalence_50,pointprevalence_975,pointinfections_025,pointinfections_50,pointinfections_975,pointinfectious_025,pointinfectious_50,pointinfectious_975,pointinfectiousprevalence_05,pointinfectiousprevalence_50,pointinfectiousprevalence_95,infectrate_025,infectrate_50,infectrate_975
0,3555,CanadaOntarioPeterborough,Ontario,Peterborough,2021-01-17 16:53:37.966879,2020-03-09 00:00:00.000000,0.02215418,0.05188546,0.11560459,31,74,166,13,38,89,0.00913599,0.02667600,0.06184707,0.47746718,0.65384633,0.82564471
0,3555,CanadaOntarioPeterborough,Ontario,Peterborough,2021-01-17 16:53:37.966879,2020-03-10 00:00:00.000000,0.02689566,0.05909037,0.12323606,38,85,177,14,41,91,0.01038082,0.02870677,0.06360344,0.47746718,0.65383643,0.82561895
0,3555,CanadaOntarioPeterborough,Ontario,Peterborough,2021-01-17 16:53:37.966879,2020-03-11 00:00:00.000000,0.03172514,0.06708969,0.13308313,45,96,191,18,45,97,0.01271122,0.03125028,0.06785679,0.47746715,0.65381325,0.82556664
0,3555,CanadaOntarioPeterborough,Ontario,Peterborough,2021-01-17 16:53:37.966879,2020-03-12 00:00:00.000000,0.03704030,0.07472026,0.14558483,53,107,209,22,50,104,0.01563735,0.03489160,0.07268141,0.47746702,0.65375901,0.82546042
0,3555,CanadaOntarioPeterborough,Ontario,Peterborough,2021-01-17 16:53:37.966879,2020-03-13 00:00:00.000000,0.04292152,0.08405918,0.16479019,61,121,237,26,56,112,0.01838706,0.03910833,0.07769463,0.47746627,0.65363222,0.82531150
0,3555,CanadaOntarioPeterborough,Ontario,Peterborough,2021-01-17 16:53:37.966879,2020-03-14 00:00:00.000000,0.04945603,0.09210563,0.18125072,71,132,261,30,63,120,0.02142888,0.04405411,0.08330174,0.47746145,0.65333660,0.82528280
0,3555,CanadaOntarioPeterborough,Ontario,Peterborough,2021-01-17 16:53:37.966879,2020-03-15 00:00:00.000000,0.05673761,0.10332747,0.19550264,81,149,281,35,71,128,0.02486364,0.04988099,0.08942059,0.47742938,0.65276512,0.82520063
0,3555,CanadaOntarioPeterborough,Ontario,Peterborough,2021-01-17 16:53:37.966879,2020-03-16 00:00:00.000000,0.06576736,0.11495940,0.21047542,94,165,303,41,77,140,0.02876743,0.05407756,0.09720161,0.47721270,0.65275683,0.82495224
0,3555,CanadaOntarioPeterborough,Ontario,Peterborough,2021-01-17 16:53:37.966879,2020-03-17 00:00:00.000000,0.07574561,0.13103488,0.22649045,109,189,326,47,87,156,0.03299828,0.06039546,0.10845289,0.47575316,0.65272296,0.82414313
0,3555,CanadaOntarioPeterborough,Ontario,Peterborough,2021-01-17 16:53:37.966879,2020-03-18 00:00:00.000000,0.08546620,0.14707679,0.24360750,123,212,351,54,98,173,0.03806799,0.06808710,0.12027827,0.46074806,0.65177631,0.82192659
0,3555,CanadaOntarioPeterborough,Ontario,Peterborough,2021-01-17 16:53:37.966879,2020-03-19 00:00:00.000000,0.09503305,0.16379549,0.26189596,137,236,377,60,108,191,0.04222083,0.07543057,0.13267079,0.44950674,0.63695653,0.81590882
0,3555,CanadaOntarioPeterborough,Ontario,Peterborough,2021-01-17 16:53:37.966879,2020-03-20 00:00:00.000000,0.10536072,0.17875631,0.29268348,151,257,422,66,119,209,0.04606743,0.08262775,0.14538420,0.45030420,0.62479332,0.79921889
0,3555,CanadaOntarioPeterborough,Ontario,Peterborough,2021-01-17 16:53:37.966879,2020-03-21 00:00:00.000000,0.11615304,0.19443923,0.32695557,167,280,471,72,130,227,0.05039972,0.09081568,0.15745252,0.42371681,0.58881534,0.76381120
0,3555,CanadaOntarioPeterborough,Ontario,Peterborough,2021-01-17 16:53:37.966879,2020-03-22 00:00:00.000000,0.12417302,0.21498348,0.35116996,179,310,506,79,142,245,0.05502520,0.09871834,0.17031822,0.40937671,0.56259649,0.75154671
0,3555,CanadaOntarioPeterborough,Ontario,Peterborough,2021-01-17 16:53:37.966879,2020-03-23 00:00:00.000000,0.13116701,0.23006347,0.37509501,189,331,541,85,155,270,0.05911446,0.10758844,0.18769337,0.39607994,0.53921293,0.70099602
0,3555,CanadaOntarioPeterborough,Ontario,Peterborough,2021-01-17 16:53:37.966879,2020-03-24 00:00:00.000000,0.13932830,0.24733595,0.40395779,200,356,582,92,170,296,0.06427040,0.11800178,0.20573030,0.38833525,0.49873200,0.66231456
0,3555,CanadaOntarioPeterborough,Ontario,Peterborough,2021-01-17 16:53:37.966879,2020-03-25 00:00:00.000000,0.15070682,0.26021166,0.43027344,217,375,620,101,183,320,0.07034722,0.12744173,0.22193923,0.32091755,0.47250383,0.66438243
0,3555,CanadaOntarioPeterborough,Ontario,Peterborough,2021-01-17 16:53:37.966879,2020-03-26 00:00:00.000000,0.16530311,0.27059340,0.44803164,238,390,646,112,196,338,0.07827441,0.13608095,0.23499970,0.28181931,0.43978710,0.66377601
0,3555,CanadaOntarioPeterborough,Ontario,Peterborough,2021-01-17 16:53:37.966879,2020-03-27 00:00:00.000000,0.17775522,0.28398338,0.46969182,256,409,677,125,209,365,0.08704735,0.14549183,0.25330435,0.24253381,0.41366962,0.63941664
0,3555,CanadaOntarioPeterborough,Ontario,Peterborough,2021-01-17 16:53:37.966879,2020-03-28 00:00:00.000000,0.18712687,0.29370736,0.48000380,269,423,692,133,220,386,0.09277706,0.15307630,0.26793676,0.23610243,0.38382539,0.55838208
0,3555,CanadaOntarioPeterborough,Ontario,Peterborough,2021-01-17 16:53:37.966879,2020-03-29 00:00:00.000000,0.19416734,0.30262168,0.48564558,280,436,700,140,229,398,0.09745921,0.15919475,0.27635665,0.21458526,0.34650888,0.47481783
0,3555,CanadaOntarioPeterborough,Ontario,Peterborough,2021-01-17 16:53:37.966879,2020-03-30 00:00:00.000000,0.19666323,0.30608595,0.48712611,283,441,702,144,238,406,0.09989920,0.16511576,0.28190238,0.20702262,0.30206455,0.41942110
0,3555,CanadaOntarioPeterborough,Ontario,Peterborough,2021-01-17 16:53:37.966879,2020-03-31 00:00:00.000000,0.19739815,0.30583931,0.47867402,284,441,690,144,244,408,0.10033817,0.16958503,0.28309438,0.18426045,0.27178265,0.37621706
0,3555,CanadaOntarioPeterborough,Ontario,Peterborough,2021-01-17 16:53:37.966879,2020-04-01 00:00:00.000000,0.19686430,0.30724024,0.47270407,283,443,681,143,250,405,0.09923511,0.17346280,0.28098402,0.16525859,0.24893963,0.35590695
0,3555,CanadaOntarioPeterborough,Ontario,Peterborough,2021-01-17 16:53:37.966879,2020-04-02 00:00:00.000000,0.19265776,0.30474697,0.46889845,277,439,676,139,251,408,0.09700395,0.17441449,0.28295453,0.15044539,0.22823959,0.32892481
0,3555,CanadaOntarioPeterborough,Ontario,Peterborough,2021-01-17 16:53:37.966879,2020-04-03 00:00:00.000000,0.18429812,0.29975719,0.46470708,265,432,670,135,251,413,0.09398477,0.17467797,0.28658865,0.14290917,0.21297167,0.29824532
0,3555,CanadaOntarioPeterborough,Ontario,Peterborough,2021-01-17 16:53:37.966879,2020-04-04 00:00:00.000000,0.17710382,0.29402166,0.45979463,255,424,663,130,252,414,0.09041296,0.17506733,0.28748582,0.12952488,0.19926614,0.27538311
0,3555,CanadaOntarioPeterborough,Ontario,Peterborough,2021-01-17 16:53:37.966879,2020-04-05 00:00:00.000000,0.16808935,0.28687355,0.44595437,242,413,643,124,251,411,0.08645608,0.17440726,0.28551095,0.12059201,0.18416701,0.25601143
0,3555,CanadaOntarioPeterborough,Ontario,Peterborough,2021-01-17 16:53:37.966879,2020-04-06 00:00:00.000000,0.15849534,0.27997930,0.42726656,228,403,616,118,246,405,0.08224822,0.17085729,0.28106889,0.11356861,0.18090257,0.25511223
0,3555,CanadaOntarioPeterborough,Ontario,Peterborough,2021-01-17 16:53:37.966879,2020-04-07 00:00:00.000000,0.14902386,0.27263224,0.41519930,214,393,598,112,239,396,0.07789100,0.16586170,0.27464674,0.11100304,0.17367302,0.25377799
0,3555,CanadaOntarioPeterborough,Ontario,Peterborough,2021-01-17 16:53:37.966879,2020-04-08 00:00:00.000000,0.13982814,0.26437963,0.40499796,201,381,584,106,232,385,0.07349441,0.16120629,0.26698034,0.11001834,0.16810858,0.24604113
0,3555,CanadaOntarioPeterborough,Ontario,Peterborough,2021-01-17 16:53:37.966879,2020-04-09 00:00:00.000000,0.13101517,0.25563594,0.39378008,188,368,567,99,225,373,0.06914927,0.15599478,0.25860647,0.10199548,0.16372218,0.23600098
0,3555,CanadaOntarioPeterborough,Ontario,Peterborough,2021-01-17 16:53:37.966879,2020-04-10 00:00:00.000000,0.12254524,0.24507416,0.37558179,176,353,541,93,218,360,0.06492458,0.15145251,0.24972394,0.10162653,0.15557496,0.23124003
0,3555,CanadaOntarioPeterborough,Ontario,Peterborough,2021-01-17 16:53:37.966879,2020-04-11 00:00:00.000000,0.11352118,0.23206618,0.35654586,163,334,514,87,210,347,0.06084351,0.14608108,0.24069992,0.10137097,0.14504199,0.22474191
0,3555,CanadaOntarioPeterborough,Ontario,Peterborough,2021-01-17 16:53:37.966879,2020-04-12 00:00:00.000000,0.10390318,0.22113898,0.33813494,149,318,487,81,201,334,0.05670090,0.13981476,0.23168266,0.09958516,0.13917053,0.22055529
0,3555,CanadaOntarioPeterborough,Ontario,Peterborough,2021-01-17 16:53:37.966879,2020-04-13 00:00:00.000000,0.09575003,0.21071067,0.33119084,138,303,477,75,192,321,0.05237526,0.13355319,0.22276239,0.09630895,0.13836909,0.21442083
0,3555,CanadaOntarioPeterborough,Ontario,Peterborough,2021-01-17 16:53:37.966879,2020-04-14 00:00:00.000000,0.08827749,0.19891109,0.32713612,127,286,471,69,183,308,0.04830342,0.12707089,0.21409012,0.09169867,0.13846055,0.20831491
0,3555,CanadaOntarioPeterborough,Ontario,Peterborough,2021-01-17 16:53:37.966879,2020-04-15 00:00:00.000000,0.08155586,0.18898381,0.32030938,117,272,462,64,175,296,0.04454060,0.12169319,0.20568844,0.08510348,0.13710913,0.20460117
0,3555,CanadaOntarioPeterborough,Ontario,Peterborough,2021-01-17 16:53:37.966879,2020-04-16 00:00:00.000000,0.07554920,0.18347298,0.30804227,108,264,444,59,168,283,0.04111050,0.11660183,0.19674063,0.08033097,0.13460355,0.19952258
0,3555,CanadaOntarioPeterborough,Ontario,Peterborough,2021-01-17 16:53:37.966879,2020-04-17 00:00:00.000000,0.07023921,0.17533392,0.29590563,101,252,426,54,161,269,0.03801458,0.11175706,0.18707374,0.07814661,0.13150348,0.18551802
0,3555,CanadaOntarioPeterborough,Ontario,Peterborough,2021-01-17 16:53:37.966879,2020-04-18 00:00:00.000000,0.06555873,0.16672104,0.28381817,94,240,409,50,154,260,0.03532011,0.10680070,0.18045134,0.07622126,0.12868146,0.18403095
0,3555,CanadaOntarioPeterborough,Ontario,Peterborough,2021-01-17 16:53:37.966879,2020-04-19 00:00:00.000000,0.06140243,0.15882978,0.27175649,88,229,391,48,148,252,0.03347325,0.10313930,0.17510084,0.07478191,0.12560437,0.18413633
0,3555,CanadaOntarioPeterborough,Ontario,Peterborough,2021-01-17 16:53:37.966879,2020-04-20 00:00:00.000000,0.05878718,0.14939540,0.25990312,84,215,374,45,140,242,0.03177094,0.09769842,0.16807264,0.07416234,0.12312428,0.18022767
0,3555,CanadaOntarioPeterborough,Ontario,Peterborough,2021-01-17 16:53:37.966879,2020-04-21 00:00:00.000000,0.05647523,0.14136946,0.24834731,81,203,358,43,132,232,0.03031863,0.09217434,0.16144730,0.07424668,0.12220457,0.18111495
0,3555,CanadaOntarioPeterborough,Ontario,Peterborough,2021-01-17 16:53:37.966879,2020-04-22 00:00:00.000000,0.05437851,0.13465095,0.23721666,78,194,342,41,126,223,0.02904557,0.08761481,0.15502379,0.07329369,0.12263273,0.18177532
0,3555,CanadaOntarioPeterborough,Ontario,Peterborough,2021-01-17 16:53:37.966879,2020-04-23 00:00:00.000000,0.05246271,0.12825997,0.22658823,75,184,326,40,120,214,0.02790822,0.08375828,0.14876112,0.07162531,0.12434620,0.17743728
0,3555,CanadaOntarioPeterborough,Ontario,Peterborough,2021-01-17 16:53:37.966879,2020-04-24 00:00:00.000000,0.05070445,0.12265806,0.21649474,73,176,312,38,115,205,0.02687908,0.08009570,0.14269328,0.07218872,0.12573347,0.16808266
0,3555,CanadaOntarioPeterborough,Ontario,Peterborough,2021-01-17 16:53:37.966879,2020-04-25 00:00:00.000000,0.04908693,0.11685962,0.20693737,70,168,298,37,110,197,0.02594022,0.07640585,0.13686749,0.07484412,0.12479037,0.17198989
0,3555,CanadaOntarioPeterborough,Ontario,Peterborough,2021-01-17 16:53:37.966879,2020-04-26 00:00:00.000000,0.04759381,0.11061984,0.19789802,68,159,285,36,104,189,0.02507950,0.07225476,0.13129373,0.07117411,0.12262980,0.17616166
0,3555,CanadaOntarioPeterborough,Ontario,Peterborough,2021-01-17 16:53:37.966879,2020-04-27 00:00:00.000000,0.04514340,0.10462895,0.18930508,65,150,273,35,98,180,0.02428729,0.06832422,0.12517713,0.06890736,0.12046082,0.17612161
0,3555,CanadaOntarioPeterborough,Ontario,Peterborough,2021-01-17 16:53:37.966879,2020-04-28 00:00:00.000000,0.04262888,0.09903088,0.18116834,61,142,261,33,93,171,0.02326586,0.06512354,0.11910077,0.06924907,0.11999656,0.17036405
0,3555,CanadaOntarioPeterborough,Ontario,Peterborough,2021-01-17 16:53:37.966879,2020-04-29 00:00:00.000000,0.03977628,0.09402614,0.17345319,57,135,250,31,88,163,0.02210512,0.06131533,0.11316771,0.06826865,0.11960872,0.16215445
0,3555,CanadaOntarioPeterborough,Ontario,Peterborough,2021-01-17 16:53:37.966879,2020-04-30 00:00:00.000000,0.03677397,0.08922909,0.16461405,53,128,237,29,83,154,0.02079426,0.05769441,0.10743752,0.06857521,0.11797820,0.16211207
0,3555,CanadaOntarioPeterborough,Ontario,Peterborough,2021-01-17 16:53:37.966879,2020-05-01 00:00:00.000000,0.03387357,0.08521144,0.15616063,48,122,225,27,79,147,0.01937366,0.05493507,0.10194637,0.06833554,0.11562917,0.16206657
0,3555,CanadaOntarioPeterborough,Ontario,Peterborough,2021-01-17 16:53:37.966879,2020-05-02 00:00:00.000000,0.03116211,0.08066640,0.14838997,44,116,214,25,76,139,0.01793305,0.05276473,0.09672880,0.06298517,0.11339353,0.16609490
0,3555,CanadaOntarioPeterborough,Ontario,Peterborough,2021-01-17 16:53:37.966879,2020-05-03 00:00:00.000000,0.02866833,0.07718772,0.14119694,41,111,203,23,72,132,0.01653975,0.05023563,0.09183520,0.06301059,0.11443286,0.16914288
0,3555,CanadaOntarioPeterborough,Ontario,Peterborough,2021-01-17 16:53:37.966879,2020-05-04 00:00:00.000000,0.02622441,0.07375117,0.13537952,37,106,195,21,68,125,0.01523124,0.04767002,0.08726990,0.06332127,0.11432789,0.16993563
0,3555,CanadaOntarioPeterborough,Ontario,Peterborough,2021-01-17 16:53:37.966879,2020-05-05 00:00:00.000000,0.02464019,0.07135591,0.12993916,35,102,187,20,65,120,0.01397433,0.04531137,0.08323106,0.06390606,0.11284688,0.17207314
0,3555,CanadaOntarioPeterborough,Ontario,Peterborough,2021-01-17 16:53:37.966879,2020-05-06 00:00:00.000000,0.02666439,0.06957824,0.12486145,38,100,180,18,62,114,0.01279824,0.04350214,0.07959403,0.06477763,0.11106775,0.17056991
0,3555,CanadaOntarioPeterborough,Ontario,Peterborough,2021-01-17 16:53:37.966879,2020-05-07 00:00:00.000000,0.02869977,0.06713848,0.12009681,41,96,173,17,60,110,0.01181289,0.04188034,0.07627275,0.06318634,0.10999729,0.16910100
0,3555,CanadaOntarioPeterborough,Ontario,Peterborough,2021-01-17 16:53:37.966879,2020-05-08 00:00:00.000000,0.03065287,0.06550621,0.11560407,44,94,166,18,57,105,0.01267807,0.04007520,0.07320723,0.06162846,0.10679791,0.16840356
0,3555,CanadaOntarioPeterborough,Ontario,Peterborough,2021-01-17 16:53:37.966879,2020-05-09 00:00:00.000000,0.03138751,0.06368573,0.11133938,45,91,160,19,55,101,0.01357164,0.03823483,0.07035395,0.06083157,0.10439069,0.16313274
0,3555,CanadaOntarioPeterborough,Ontario,Peterborough,2021-01-17 16:53:37.966879,2020-05-10 00:00:00.000000,0.03003788,0.06088523,0.10727146,43,87,154,20,53,97,0.01443994,0.03725139,0.06767914,0.06077006,0.10291663,0.16448035
0,3555,CanadaOntarioPeterborough,Ontario,Peterborough,2021-01-17 16:53:37.966879,2020-05-11 00:00:00.000000,0.02987460,0.05915357,0.10220554,43,85,147,21,52,93,0.01524712,0.03662104,0.06515468,0.06048520,0.10066987,0.16241704
0,3555,CanadaOntarioPeterborough,Ontario,Peterborough,2021-01-17 16:53:37.966879,2020-05-12 00:00:00.000000,0.02778096,0.05649771,0.10006913,40,81,144,22,50,90,0.01550187,0.03527941,0.06247028,0.06045678,0.09911448,0.16098470
0,3555,CanadaOntarioPeterborough,Ontario,Peterborough,2021-01-17 16:53:37.966879,2020-05-13 00:00:00.000000,0.02576162,0.05415529,0.09651508,37,78,139,21,48,87,0.01516446,0.03352142,0.06058365,0.06053439,0.09905796,0.16004030
0,3555,CanadaOntarioPeterborough,Ontario,Peterborough,2021-01-17 16:53:37.966879,2020-05-14 00:00:00.000000,0.02391402,0.05137687,0.09374146,34,74,135,21,45,87,0.01485204,0.03176492,0.06044578,0.06052296,0.09908280,0.16016396
0,3555,CanadaOntarioPeterborough,Ontario,Peterborough,2021-01-17 16:53:37.966879,2020-05-15 00:00:00.000000,0.02217062,0.04900151,0.09137473,31,70,131,20,44,88,0.01393132,0.03100974,0.06116976,0.06049657,0.09872512,0.16342313
0,3555,CanadaOntarioPeterborough,Ontario,Peterborough,2021-01-17 16:53:37.966879,2020-05-16 00:00:00.000000,0.02068469,0.04697457,0.08691708,29,67,125,18,43,87,0.01278358,0.02984823,0.06042859,0.06020113,0.09914563,0.16548807
0,3555,CanadaOntarioPeterborough,Ontario,Peterborough,2021-01-17 16:53:37.966879,2020-05-17 00:00:00.000000,0.01926221,0.04506675,0.08405476,27,65,121,17,40,83,0.01203742,0.02829300,0.05808811,0.05854371,0.09802490,0.16658391
0,3555,CanadaOntarioPeterborough,Ontario,Peterborough,2021-01-17 16:53:37.966879,2020-05-18 00:00:00.000000,0.01892289,0.04492805,0.08263961,27,64,119,16,39,80,0.01151327,0.02712016,0.05581811,0.05782671,0.09876352,0.16706251
0,3555,CanadaOntarioPeterborough,Ontario,Peterborough,2021-01-17 16:53:37.966879,2020-05-19 00:00:00.000000,0.01957789,0.04411427,0.08131936,28,63,117,16,38,78,0.01163658,0.02670418,0.05417585,0.05787918,0.09653891,0.15998972
0,3555,CanadaOntarioPeterborough,Ontario,Peterborough,2021-01-17 16:53:37.966879,2020-05-20 00:00:00.000000,0.02041600,0.04347407,0.08010637,29,62,115,16,37,75,0.01159473,0.02608228,0.05235336,0.05703655,0.09503347,0.16045929
0,3555,CanadaOntarioPeterborough,Ontario,Peterborough,2021-01-17 16:53:37.966879,2020-05-21 00:00:00.000000,0.02133542,0.04252972,0.07896037,30,61,113,16,35,73,0.01130934,0.02495716,0.05084837,0.05721156,0.09505160,0.16089998
0,3555,CanadaOntarioPeterborough,Ontario,Peterborough,2021-01-17 16:53:37.966879,2020-05-22 00:00:00.000000,0.02118272,0.04180530,0.07784606,30,60,112,15,35,71,0.01090726,0.02437845,0.04957537,0.05652327,0.09504630,0.16164908
0,3555,CanadaOntarioPeterborough,Ontario,Peterborough,2021-01-17 16:53:37.966879,2020-05-23 00:00:00.000000,0.02033971,0.04039555,0.07673473,29,58,110,14,35,69,0.01038334,0.02440546,0.04847598,0.05443436,0.09494341,0.16343669
0,3555,CanadaOntarioPeterborough,Ontario,Peterborough,2021-01-17 16:53:37.966879,2020-05-24 00:00:00.000000,0.01955425,0.03907974,0.07560530,28,56,109,14,34,68,0.00990581,0.02378714,0.04750951,0.05414110,0.09464134,0.15232699
0,3555,CanadaOntarioPeterborough,Ontario,Peterborough,2021-01-17 16:53:37.966879,2020-05-25 00:00:00.000000,0.01968655,0.03822919,0.07319371,28,55,105,14,33,67,0.01035254,0.02343344,0.04664610,0.05483475,0.09287835,0.15419472
0,3555,CanadaOntarioPeterborough,Ontario,Peterborough,2021-01-17 16:53:37.966879,2020-05-26 00:00:00.000000,0.01962744,0.03648893,0.07074333,28,52,102,14,32,65,0.00978245,0.02270959,0.04562320,0.05424823,0.09077896,0.15444583
0,3555,CanadaOntarioPeterborough,Ontario,Peterborough,2021-01-17 16:53:37.966879,2020-05-27 00:00:00.000000,0.01814932,0.03534612,0.06826216,26,50,98,13,31,64,0.00940072,0.02199267,0.04451827,0.05052228,0.09038511,0.15383086
0,3555,CanadaOntarioPeterborough,Ontario,Peterborough,2021-01-17 16:53:37.966879,2020-05-28 00:00:00.000000,0.01724398,0.03490310,0.06583570,24,50,94,13,30,62,0.00955178,0.02146534,0.04338318,0.04826699,0.08976629,0.15208273
0,3555,CanadaOntarioPeterborough,Ontario,Peterborough,2021-01-17 16:53:37.966879,2020-05-29 00:00:00.000000,0.01717421,0.03459745,0.06539636,24,49,94,13,30,60,0.00967974,0.02083101,0.04223166,0.04797752,0.08945568,0.14902374
0,3555,CanadaOntarioPeterborough,Ontario,Peterborough,2021-01-17 16:53:37.966879,2020-05-30 00:00:00.000000,0.01711538,0.03389189,0.06647695,24,48,95,13,29,61,0.00920916,0.02012796,0.04254810,0.04772774,0.08908163,0.14841583
0,3555,CanadaOntarioPeterborough,Ontario,Peterborough,2021-01-17 16:53:37.966879,2020-05-31 00:00:00.000000,0.01668036,0.03286969,0.06600349,24,47,95,12,28,62,0.00875492,0.01968190,0.04301740,0.04756437,0.09037726,0.14817450
0,3555,CanadaOntarioPeterborough,Ontario,Peterborough,2021-01-17 16:53:37.966879,2020-06-01 00:00:00.000000,0.01596915,0.03209391,0.06290957,23,46,90,12,27,59,0.00844961,0.01931899,0.04128397,0.04744509,0.09308813,0.14810894
0,3555,CanadaOntarioPeterborough,Ontario,Peterborough,2021-01-17 16:53:37.966879,2020-06-02 00:00:00.000000,0.01478585,0.03165983,0.06005817,21,45,86,11,27,56,0.00800223,0.01889401,0.03950682,0.04731691,0.09107011,0.14821832
0,3555,CanadaOntarioPeterborough,Ontario,Peterborough,2021-01-17 16:53:37.966879,2020-06-03 00:00:00.000000,0.01364584,0.03116649,0.05853160,19,44,84,10,26,54,0.00748984,0.01847937,0.03774124,0.04556681,0.08936468,0.14850495
0,3555,CanadaOntarioPeterborough,Ontario,Peterborough,2021-01-17 16:53:37.966879,2020-06-04 00:00:00.000000,0.01288208,0.03042504,0.05545723,18,43,79,10,25,52,0.00726624,0.01769482,0.03606867,0.04214564,0.08863564,0.14904699
0,3555,CanadaOntarioPeterborough,Ontario,Peterborough,2021-01-17 16:53:37.966879,2020-06-05 00:00:00.000000,0.01289020,0.02983724,0.05829800,18,43,84,10,25,50,0.00721386,0.01771890,0.03517288,0.04154628,0.08769501,0.14997077
0,3555,CanadaOntarioPeterborough,Ontario,Peterborough,2021-01-17 16:53:37.966879,2020-06-06 00:00:00.000000,0.01292918,0.02876719,0.06116019,18,41,88,10,25,49,0.00719700,0.01758469,0.03433967,0.04127143,0.08729649,0.15149386
0,3555,CanadaOntarioPeterborough,Ontario,Peterborough,2021-01-17 16:53:37.966879,2020-06-07 00:00:00.000000,0.01259282,0.02782357,0.06390355,18,40,92,10,24,48,0.00720431,0.01698085,0.03387877,0.04119423,0.08692878,0.15276424
0,3555,CanadaOntarioPeterborough,Ontario,Peterborough,2021-01-17 16:53:37.966879,2020-06-08 00:00:00.000000,0.01223669,0.02745490,0.06211161,17,39,89,10,23,47,0.00722745,0.01641431,0.03291979,0.04130318,0.08648499,0.15118521
0,3555,CanadaOntarioPeterborough,Ontario,Peterborough,2021-01-17 16:53:37.966879,2020-06-09 00:00:00.000000,0.01196084,0.02710066,0.06020112,17,39,86,10,22,46,0.00735368,0.01590922,0.03192486,0.04302531,0.08667975,0.15513977
0,3555,CanadaOntarioPeterborough,Ontario,Peterborough,2021-01-17 16:53:37.966879,2020-06-10 00:00:00.000000,0.01269129,0.02658916,0.05820147,18,38,83,10,22,45,0.00710015,0.01575107,0.03136524,0.04363142,0.08678308,0.15249220
0,3555,CanadaOntarioPeterborough,Ontario,Peterborough,2021-01-17 16:53:37.966879,2020-06-11 00:00:00.000000,0.01212708,0.02600918,0.05623644,17,37,81,9,22,44,0.00683447,0.01548945,0.03112655,0.04361005,0.08756557,0.15261945
0,3555,CanadaOntarioPeterborough,Ontario,Peterborough,2021-01-17 16:53:37.966879,2020-06-12 00:00:00.000000,0.01144100,0.02600046,0.05429004,16,37,78,9,21,45,0.00656511,0.01517973,0.03156197,0.04361270,0.08744387,0.15104671
0,3555,CanadaOntarioPeterborough,Ontario,Peterborough,2021-01-17 16:53:37.966879,2020-06-13 00:00:00.000000,0.01089333,0.02546694,0.05241818,15,36,75,9,21,45,0.00626388,0.01507858,0.03120747,0.04368650,0.08725504,0.14545191
0,3555,CanadaOntarioPeterborough,Ontario,Peterborough,2021-01-17 16:53:37.966879,2020-06-14 00:00:00.000000,0.01031590,0.02517392,0.05278787,14,36,76,8,21,43,0.00601741,0.01495277,0.03020436,0.04469898,0.08598780,0.14440681
0,3555,CanadaOntarioPeterborough,Ontario,Peterborough,2021-01-17 16:53:37.966879,2020-06-15 00:00:00.000000,0.00985200,0.02524713,0.05099958,14,36,73,8,21,42,0.00575886,0.01463776,0.02921095,0.04565935,0.08669198,0.14261452
0,3555,CanadaOntarioPeterborough,Ontario,Peterborough,2021-01-17 16:53:37.966879,2020-06-16 00:00:00.000000,0.00956829,0.02570747,0.04875795,13,37,70,8,21,40,0.00588915,0.01465749,0.02815861,0.04579112,0.08436776,0.14329107
0,3555,CanadaOntarioPeterborough,Ontario,Peterborough,2021-01-17 16:53:37.966879,2020-06-17 00:00:00.000000,0.00991390,0.02492473,0.04657068,14,35,67,8,21,38,0.00600838,0.01468526,0.02703805,0.04614773,0.08335725,0.14696727
0,3555,CanadaOntarioPeterborough,Ontario,Peterborough,2021-01-17 16:53:37.966879,2020-06-18 00:00:00.000000,0.01034026,0.02467753,0.04444812,14,35,64,8,21,37,0.00617290,0.01463175,0.02623274,0.04585690,0.08475471,0.14886893
0,3555,CanadaOntarioPeterborough,Ontario,Peterborough,2021-01-17 16:53:37.966879,2020-06-19 00:00:00.000000,0.01063351,0.02430228,0.04667386,15,35,67,8,21,37,0.00616924,0.01472189,0.02577296,0.04576952,0.08739770,0.14857199
0,3555,CanadaOntarioPeterborough,Ontario,Peterborough,2021-01-17 16:53:37.966879,2020-06-20 00:00:00.000000,0.01054925,0.02415436,0.04531918,15,34,65,8,20,36,0.00618479,0.01441808,0.02525588,0.04573538,0.08911051,0.14811078
0,3555,CanadaOntarioPeterborough,Ontario,Peterborough,2021-01-17 16:53:37.966879,2020-06-21 00:00:00.000000,0.01047337,0.02382873,0.04618286,15,34,66,8,20,36,0.00620685,0.01403483,0.02510355,0.04570203,0.08954013,0.14804509
0,3555,CanadaOntarioPeterborough,Ontario,Peterborough,2021-01-17 16:53:37.966879,2020-06-22 00:00:00.000000,0.00970587,0.02218346,0.04442064,13,31,64,8,19,37,0.00623156,0.01377603,0.02626136,0.04568116,0.08947041,0.14797994
0,3555,CanadaOntarioPeterborough,Ontario,Peterborough,2021-01-17 16:53:37.966879,2020-06-23 00:00:00.000000,0.00894502,0.02066570,0.04239871,12,29,61,8,19,36,0.00601375,0.01320959,0.02547661,0.04568078,0.08926761,0.14764640
0,3555,CanadaOntarioPeterborough,Ontario,Peterborough,2021-01-17 16:53:37.966879,2020-06-24 00:00:00.000000,0.00818264,0.01931658,0.04009725,11,27,57,8,18,36,0.00566996,0.01271987,0.02498636,0.04569247,0.08845423,0.14666367
0,3555,CanadaOntarioPeterborough,Ontario,Peterborough,2021-01-17 16:53:37.966879,2020-06-25 00:00:00.000000,0.00744850,0.01785880,0.03770426,10,25,54,7,17,34,0.00522789,0.01210767,0.02408661,0.04571704,0.08812790,0.14384054
0,3555,CanadaOntarioPeterborough,Ontario,Peterborough,2021-01-17 16:53:37.966879,2020-06-26 00:00:00.000000,0.00675805,0.01644381,0.03533280,9,23,50,6,16,33,0.00474784,0.01135212,0.02295133,0.04575886,0.08818861,0.14364534
0,3555,CanadaOntarioPeterborough,Ontario,Peterborough,2021-01-17 16:53:37.966879,2020-06-27 00:00:00.000000,0.00605430,0.01496306,0.03304065,8,21,47,6,15,31,0.00426585,0.01048443,0.02170166,0.04581453,0.08861227,0.14371980
0,3555,CanadaOntarioPeterborough,Ontario,Peterborough,2021-01-17 16:53:37.966879,2020-06-28 00:00:00.000000,0.00537811,0.01360382,0.03085482,7,19,44,5,13,29,0.00380295,0.00963222,0.02041613,0.04584338,0.08927523,0.14351092
0,3555,CanadaOntarioPeterborough,Ontario,Peterborough,2021-01-17 16:53:37.966879,2020-06-29 00:00:00.000000,0.00476876,0.01263440,0.02878650,6,18,41,4,12,27,0.00337019,0.00874467,0.01914247,0.04547064,0.09083563,0.14550584
0,3555,CanadaOntarioPeterborough,Ontario,Peterborough,2021-01-17 16:53:37.966879,2020-06-30 00:00:00.000000,0.00422279,0.01161551,0.02683856,6,16,38,4,11,25,0.00297262,0.00792768,0.01790817,0.04551714,0.09134041,0.14809969
0,3555,CanadaOntarioPeterborough,Ontario,Peterborough,2021-01-17 16:53:37.966879,2020-07-01 00:00:00.000000,0.00372371,0.01062514,0.02500872,5,15,36,3,10,24,0.00261262,0.00738907,0.01672799,0.04560424,0.09179964,0.15021553
0,3555,CanadaOntarioPeterborough,Ontario,Peterborough,2021-01-17 16:53:37.966879,2020-07-02 00:00:00.000000,0.00325771,0.00970825,0.02329116,4,14,33,3,9,22,0.00229075,0.00677408,0.01560879,0.04572516,0.09130252,0.15234600
0,3555,CanadaOntarioPeterborough,Ontario,Peterborough,2021-01-17 16:53:37.966879,2020-07-03 00:00:00.000000,0.00285405,0.00884647,0.02167886,4,12,31,2,8,20,0.00200606,0.00622093,0.01455242,0.04596818,0.09334361,0.15514183
0,3555,CanadaOntarioPeterborough,Ontario,Peterborough,2021-01-17 16:53:37.966879,2020-07-04 00:00:00.000000,0.00250339,0.00804954,0.02016394,3,11,29,2,8,19,0.00175641,0.00570778,0.01355785,0.04500817,0.09363627,0.15807861
0,3555,CanadaOntarioPeterborough,Ontario,Peterborough,2021-01-17 16:53:37.966879,2020-07-05 00:00:00.000000,0.00219809,0.00735538,0.01936221,3,10,27,2,7,18,0.00153872,0.00523408,0.01289066,0.04451799,0.09468782,0.15997302
0,3555,CanadaOntarioPeterborough,Ontario,Peterborough,2021-01-17 16:53:37.966879,2020-07-06 00:00:00.000000,0.00193152,0.00688261,0.01844287,2,9,26,1,6,17,0.00134997,0.00479834,0.01222838,0.04513455,0.09532059,0.16059059
0,3555,CanadaOntarioPeterborough,Ontario,Peterborough,2021-01-17 16:53:37.966879,2020-07-07 00:00:00.000000,0.00169825,0.00643005,0.01742941,2,9,25,1,6,16,0.00118536,0.00439831,0.01123400,0.04690078,0.09537825,0.16002253
0,3555,CanadaOntarioPeterborough,Ontario,Peterborough,2021-01-17 16:53:37.966879,2020-07-08 00:00:00.000000,0.00149379,0.00590345,0.01675189,2,8,24,1,5,15,0.00104156,0.00400502,0.01042057,0.04752412,0.09439089,0.16085637
0,3555,CanadaOntarioPeterborough,Ontario,Peterborough,2021-01-17 16:53:37.966879,2020-07-09 00:00:00.000000,0.00131472,0.00538181,0.01595943,1,7,23,1,5,14,0.00091572,0.00367646,0.00997789,0.04799423,0.09382156,0.16101469
0,3555,CanadaOntarioPeterborough,Ontario,Peterborough,2021-01-17 16:53:37.966879,2020-07-10 00:00:00.000000,0.00117980,0.00496245,0.01498969,1,7,21,1,4,13,0.00082716,0.00341220,0.00950008,0.04748573,0.09438536,0.16564977
0,3555,CanadaOntarioPeterborough,Ontario,Peterborough,2021-01-17 16:53:37.966879,2020-07-11 00:00:00.000000,0.00103437,0.00458226,0.01403499,1,6,20,1,4,12,0.00075689,0.00316885,0.00900043,0.04777674,0.09408854,0.17084230
0,3555,CanadaOntarioPeterborough,Ontario,Peterborough,2021-01-17 16:53:37.966879,2020-07-12 00:00:00.000000,0.00090729,0.00423415,0.01310985,1,6,18,0,4,12,0.00068225,0.00287302,0.00849088,0.04893647,0.09319769,0.17582828
0,3555,CanadaOntarioPeterborough,Ontario,Peterborough,2021-01-17 16:53:37.966879,2020-07-13 00:00:00.000000,0.00163704,0.00552511,0.01362501,2,7,19,0,3,11,0.00059835,0.00260630,0.00798180,0.05022224,0.09388430,0.18435468
0,3555,CanadaOntarioPeterborough,Ontario,Peterborough,2021-01-17 16:53:37.966879,2020-07-14 00:00:00.000000,0.00203583,0.00630486,0.01497992,2,9,21,1,3,11,0.00080799,0.00273829,0.00777629,0.05062186,0.09445838,0.18662155
0,3555,CanadaOntarioPeterborough,Ontario,Peterborough,2021-01-17 16:53:37.966879,2020-07-15 00:00:00.000000,0.00256524,0.00694734,0.01714731,3,10,24,1,4,11,0.00100015,0.00316191,0.00808596,0.05077256,0.09495022,0.18811847
0,3555,CanadaOntarioPeterborough,Ontario,Peterborough,2021-01-17 16:53:37.966879,2020-07-16 00:00:00.000000,0.00283984,0.00753729,0.01962650,4,10,28,1,5,13,0.00127737,0.00353618,0.00916097,0.05079842,0.09642994,0.18871585
0,3555,CanadaOntarioPeterborough,Ontario,Peterborough,2021-01-17 16:53:37.966879,2020-07-17 00:00:00.000000,0.00311775,0.00873898,0.02201238,4,12,31,2,5,14,0.00142992,0.00406109,0.01015858,0.05075900,0.09770682,0.18987218
0,3555,CanadaOntarioPeterborough,Ontario,Peterborough,2021-01-17 16:53:37.966879,2020-07-18 00:00:00.000000,0.00345051,0.00970808,0.02330471,4,14,33,2,6,16,0.00156959,0.00462582,0.01159790,0.05068522,0.09856648,0.19015869
0,3555,CanadaOntarioPeterborough,Ontario,Peterborough,2021-01-17 16:53:37.966879,2020-07-19 00:00:00.000000,0.00375497,0.01010247,0.02425377,5,14,34,2,7,18,0.00170672,0.00516306,0.01306140,0.04981639,0.10029925,0.19418911
0,3555,CanadaOntarioPeterborough,Ontario,Peterborough,2021-01-17 16:53:37.966879,2020-07-20 00:00:00.000000,0.00495150,0.01113341,0.02392612,7,16,34,2,7,20,0.00185521,0.00531887,0.01451753,0.04948636,0.10086343,0.19466176
0,3555,CanadaOntarioPeterborough,Ontario,Peterborough,2021-01-17 16:53:37.966879,2020-07-21 00:00:00.000000,0.00622560,0.01207162,0.02440583,8,17,35,3,8,22,0.00238246,0.00575498,0.01542612,0.04932659,0.10193802,0.19508076
0,3555,CanadaOntarioPeterborough,Ontario,Peterborough,2021-01-17 16:53:37.966879,2020-07-22 00:00:00.000000,0.00655646,0.01240672,0.02776181,9,17,40,3,8,22,0.00271143,0.00612577,0.01540270,0.04926541,0.10364421,0.19626437
0,3555,CanadaOntarioPeterborough,Ontario,Peterborough,2021-01-17 16:53:37.966879,2020-07-23 00:00:00.000000,0.00677302,0.01322834,0.03093432,9,19,44,4,9,21,0.00338922,0.00650222,0.01505598,0.04930585,0.10404641,0.19301126
0,3555,CanadaOntarioPeterborough,Ontario,Peterborough,2021-01-17 16:53:37.966879,2020-07-24 00:00:00.000000,0.00683192,0.01383477,0.03216680,9,19,46,5,10,21,0.00375005,0.00700007,0.01457280,0.04949416,0.10473996,0.18417836
0,3555,CanadaOntarioPeterborough,Ontario,Peterborough,2021-01-17 16:53:37.966879,2020-07-25 00:00:00.000000,0.00675189,0.01437816,0.03329557,9,20,48,5,11,22,0.00379508,0.00786400,0.01581498,0.04981697,0.10628724,0.17918242
0,3555,CanadaOntarioPeterborough,Ontario,Peterborough,2021-01-17 16:53:37.966879,2020-07-26 00:00:00.000000,0.00664445,0.01515118,0.03556019,9,21,51,5,12,24,0.00365593,0.00853772,0.01679611,0.04934453,0.10489524,0.17753990
0,3555,CanadaOntarioPeterborough,Ontario,Peterborough,2021-01-17 16:53:37.966879,2020-07-27 00:00:00.000000,0.00699512,0.01628995,0.03593627,10,23,51,5,12,26,0.00351615,0.00889173,0.01814933,0.04943255,0.10568633,0.17709935
0,3555,CanadaOntarioPeterborough,Ontario,Peterborough,2021-01-17 16:53:37.966879,2020-07-28 00:00:00.000000,0.00732997,0.01692448,0.03620158,10,24,52,5,13,27,0.00362996,0.00917439,0.01906503,0.04986457,0.10347514,0.17710695
0,3555,CanadaOntarioPeterborough,Ontario,Peterborough,2021-01-17 16:53:37.966879,2020-07-29 00:00:00.000000,0.00808218,0.01742887,0.03632500,11,25,52,5,13,28,0.00392947,0.00963293,0.01965118,0.05050764,0.10316223,0.17786543
0,3555,CanadaOntarioPeterborough,Ontario,Peterborough,2021-01-17 16:53:37.966879,2020-07-30 00:00:00.000000,0.00861974,0.01803788,0.03634812,12,26,52,6,13,28,0.00421208,0.00970268,0.02005521,0.05221415,0.10527709,0.17771903
0,3555,CanadaOntarioPeterborough,Ontario,Peterborough,2021-01-17 16:53:37.966879,2020-07-31 00:00:00.000000,0.00868487,0.01822926,0.03632523,12,26,52,6,14,29,0.00456905,0.00985342,0.02037010,0.05328157,0.10717063,0.17706206
0,3555,CanadaOntarioPeterborough,Ontario,Peterborough,2021-01-17 16:53:37.966879,2020-08-01 00:00:00.000000,0.00875486,0.01841516,0.03635735,12,26,52,6,14,29,0.00475810,0.00996146,0.02040720,0.05372272,0.11093775,0.17593909
0,3555,CanadaOntarioPeterborough,Ontario,Peterborough,2021-01-17 16:53:37.966879,2020-08-02 00:00:00.000000,0.00877362,0.01833070,0.03645837,12,26,52,7,14,29,0.00493255,0.01012343,0.02050680,0.05413806,0.11128326,0.17582124
0,3555,CanadaOntarioPeterborough,Ontario,Peterborough,2021-01-17 16:53:37.966879,2020-08-03 00:00:00.000000,0.00907680,0.01900098,0.03580111,13,27,51,7,14,29,0.00510010,0.01003979,0.02068902,0.05454705,0.11003410,0.17622593
0,3555,CanadaOntarioPeterborough,Ontario,Peterborough,2021-01-17 16:53:37.966879,2020-08-04 00:00:00.000000,0.00946324,0.01937846,0.03513761,13,27,50,7,14,29,0.00514849,0.01032663,0.02072969,0.05500510,0.11215953,0.17642688
0,3555,CanadaOntarioPeterborough,Ontario,Peterborough,2021-01-17 16:53:37.966879,2020-08-05 00:00:00.000000,0.01014842,0.01930167,0.03445754,14,27,49,7,15,29,0.00512062,0.01075441,0.02044922,0.05558047,0.11163010,0.17649164
0,3555,CanadaOntarioPeterborough,Ontario,Peterborough,2021-01-17 16:53:37.966879,2020-08-06 00:00:00.000000,0.01039268,0.01964044,0.03377863,14,28,48,7,15,28,0.00546854,0.01095252,0.02004994,0.05637232,0.11260872,0.17402967
0,3555,CanadaOntarioPeterborough,Ontario,Peterborough,2021-01-17 16:53:37.966879,2020-08-07 00:00:00.000000,0.01055847,0.01989275,0.03395552,15,28,48,8,16,28,0.00583544,0.01120138,0.02000849,0.05750246,0.11440466,0.17419041
0,3555,CanadaOntarioPeterborough,Ontario,Peterborough,2021-01-17 16:53:37.966879,2020-08-08 00:00:00.000000,0.01072652,0.02008147,0.03721450,15,28,53,8,16,29,0.00604317,0.01152259,0.02035286,0.05906044,0.11415366,0.17450366
0,3555,CanadaOntarioPeterborough,Ontario,Peterborough,2021-01-17 16:53:37.966879,2020-08-09 00:00:00.000000,0.01089925,0.02043299,0.04051634,15,29,58,8,16,31,0.00611353,0.01154905,0.02151189,0.05958509,0.11545483,0.17556275
0,3555,CanadaOntarioPeterborough,Ontario,Peterborough,2021-01-17 16:53:37.966879,2020-08-10 00:00:00.000000,0.01142135,0.02064510,0.04040896,16,29,58,8,16,32,0.00608883,0.01154317,0.02261632,0.05847744,0.11538340,0.17960620
0,3555,CanadaOntarioPeterborough,Ontario,Peterborough,2021-01-17 16:53:37.966879,2020-08-11 00:00:00.000000,0.01171899,0.02098079,0.04060414,16,30,58,8,17,32,0.00616040,0.01192031,0.02284918,0.06294385,0.11528144,0.18125444
0,3555,CanadaOntarioPeterborough,Ontario,Peterborough,2021-01-17 16:53:37.966879,2020-08-12 00:00:00.000000,0.01178725,0.02134332,0.04052470,17,30,58,9,17,32,0.00628241,0.01221231,0.02265413,0.06614724,0.11739352,0.18404720
0,3555,CanadaOntarioPeterborough,Ontario,Peterborough,2021-01-17 16:53:37.966879,2020-08-13 00:00:00.000000,0.01142056,0.02118201,0.03987414,16,30,57,9,17,32,0.00641956,0.01237039,0.02226606,0.06726024,0.11974450,0.18581121
0,3555,CanadaOntarioPeterborough,Ontario,Peterborough,2021-01-17 16:53:37.966879,2020-08-14 00:00:00.000000,0.01108549,0.02173938,0.03946688,15,31,56,9,17,31,0.00635015,0.01235906,0.02210735,0.06755825,0.12465569,0.19852365
0,3555,CanadaOntarioPeterborough,Ontario,Peterborough,2021-01-17 16:53:37.966879,2020-08-15 00:00:00.000000,0.01132879,0.02141500,0.03935839,16,30,56,8,17,31,0.00609591,0.01243452,0.02209387,0.06766257,0.12801019,0.19945870
0,3555,CanadaOntarioPeterborough,Ontario,Peterborough,2021-01-17 16:53:37.966879,2020-08-16 00:00:00.000000,0.01092109,0.02187907,0.04165854,15,31,60,8,18,31,0.00611458,0.01266110,0.02191127,0.06742977,0.12870864,0.20293109
0,3555,CanadaOntarioPeterborough,Ontario,Peterborough,2021-01-17 16:53:37.966879,2020-08-17 00:00:00.000000,0.01130592,0.02183018,0.04135422,16,31,59,9,18,31,0.00638900,0.01268518,0.02186829,0.06702569,0.13104779,0.20718646
0,3555,CanadaOntarioPeterborough,Ontario,Peterborough,2021-01-17 16:53:37.966879,2020-08-18 00:00:00.000000,0.01171793,0.02244363,0.04135742,16,32,59,9,18,31,0.00650606,0.01281722,0.02204747,0.06684701,0.13108975,0.20726648
0,3555,CanadaOntarioPeterborough,Ontario,Peterborough,2021-01-17 16:53:37.966879,2020-08-19 00:00:00.000000,0.01132480,0.02315410,0.04136758,16,33,59,9,18,32,0.00655178,0.01289649,0.02264830,0.06685338,0.13166620,0.20724994
0,3555,CanadaOntarioPeterborough,Ontario,Peterborough,2021-01-17 16:53:37.966879,2020-08-20 00:00:00.000000,0.01091933,0.02409363,0.04111734,15,34,59,9,18,33,0.00639264,0.01314637,0.02306636,0.06702329,0.13272495,0.20626013
0,3555,CanadaOntarioPeterborough,Ontario,Peterborough,2021-01-17 16:53:37.966879,2020-08-21 00:00:00.000000,0.01052018,0.02349525,0.04177465,15,33,60,8,19,32,0.00619363,0.01361736,0.02245914,0.06742608,0.13578198,0.20718437
0,3555,CanadaOntarioPeterborough,Ontario,Peterborough,2021-01-17 16:53:37.966879,2020-08-22 00:00:00.000000,0.01013888,0.02354840,0.04239596,14,33,61,8,20,31,0.00598066,0.01399437,0.02161061,0.06817545,0.13654834,0.21914806
0,3555,CanadaOntarioPeterborough,Ontario,Peterborough,2021-01-17 16:53:37.966879,2020-08-23 00:00:00.000000,0.00978299,0.02353679,0.04323972,14,33,62,8,20,32,0.00576792,0.01407371,0.02242313,0.07041461,0.13619562,0.22503843
0,3555,CanadaOntarioPeterborough,Ontario,Peterborough,2021-01-17 16:53:37.966879,2020-08-24 00:00:00.000000,0.00970448,0.02411243,0.04351210,13,34,62,8,20,33,0.00556360,0.01388415,0.02327579,0.07240655,0.13745600,0.22634957
0,3555,CanadaOntarioPeterborough,Ontario,Peterborough,2021-01-17 16:53:37.966879,2020-08-25 00:00:00.000000,0.00980967,0.02482058,0.04577573,14,35,66,7,20,34,0.00544595,0.01414111,0.02364818,0.07225837,0.13989505,0.22736316
0,3555,CanadaOntarioPeterborough,Ontario,Peterborough,2021-01-17 16:53:37.966879,2020-08-26 00:00:00.000000,0.00994242,0.02531717,0.04644402,14,36,66,7,20,34,0.00538578,0.01424596,0.02369938,0.07184411,0.14392477,0.22883965
0,3555,CanadaOntarioPeterborough,Ontario,Peterborough,2021-01-17 16:53:37.966879,2020-08-27 00:00:00.000000,0.01008412,0.02553358,0.04665685,14,36,67,7,20,35,0.00536808,0.01434144,0.02427725,0.07266873,0.14591580,0.23079911
0,3555,CanadaOntarioPeterborough,Ontario,Peterborough,2021-01-17 16:53:37.966879,2020-08-28 00:00:00.000000,0.01022791,0.02633555,0.04635217,14,37,66,7,21,36,0.00538135,0.01462977,0.02534199,0.07676623,0.14983870,0.23270785
0,3555,CanadaOntarioPeterborough,Ontario,Peterborough,2021-01-17 16:53:37.966879,2020-08-29 00:00:00.000000,0.01037515,0.02652489,0.04636354,14,38,66,7,21,37,0.00541544,0.01513056,0.02597857,0.07548265,0.15068998,0.23403069
0,3555,CanadaOntarioPeterborough,Ontario,Peterborough,2021-01-17 16:53:37.966879,2020-08-30 00:00:00.000000,0.01074718,0.02594213,0.04855747,15,37,70,7,22,37,0.00546653,0.01527458,0.02625320,0.07425867,0.15307415,0.24452042
0,3555,CanadaOntarioPeterborough,Ontario,Peterborough,2021-01-17 16:53:37.966879,2020-08-31 00:00:00.000000,0.01333788,0.02704668,0.04788272,19,39,69,8,21,39,0.00577242,0.01519958,0.02712286,0.07379474,0.15319644,0.24689856
0,3555,CanadaOntarioPeterborough,Ontario,Peterborough,2021-01-17 16:53:37.966879,2020-09-01 00:00:00.000000,0.01591455,0.02796523,0.04779172,22,40,68,9,22,40,0.00655343,0.01535683,0.02774376,0.07372869,0.15432551,0.24706318
0,3555,CanadaOntarioPeterborough,Ontario,Peterborough,2021-01-17 16:53:37.966879,2020-09-02 00:00:00.000000,0.01641546,0.02813424,0.04957036,23,40,71,11,22,40,0.00770641,0.01564567,0.02819688,0.07387732,0.15651211,0.24705366
0,3555,CanadaOntarioPeterborough,Ontario,Peterborough,2021-01-17 16:53:37.966879,2020-09-03 00:00:00.000000,0.01686260,0.02803176,0.05129205,24,40,73,12,22,41,0.00859193,0.01565553,0.02853742,0.07407975,0.15762322,0.24703288
0,3555,CanadaOntarioPeterborough,Ontario,Peterborough,2021-01-17 16:53:37.966879,2020-09-04 00:00:00.000000,0.01666078,0.02799219,0.05294171,24,40,76,12,23,41,0.00884115,0.01615879,0.02880615,0.07167261,0.16133683,0.24700693
0,3555,CanadaOntarioPeterborough,Ontario,Peterborough,2021-01-17 16:53:37.966879,2020-09-05 00:00:00.000000,0.01619264,0.02908255,0.05202602,23,41,75,12,23,41,0.00871697,0.01629226,0.02903861,0.07182706,0.16326741,0.24769492
0,3555,CanadaOntarioPeterborough,Ontario,Peterborough,2021-01-17 16:53:37.966879,2020-09-06 00:00:00.000000,0.01616546,0.03053803,0.05330161,23,44,76,12,23,41,0.00859883,0.01642573,0.02876993,0.07248725,0.16389699,0.24792286
0,3555,CanadaOntarioPeterborough,Ontario,Peterborough,2021-01-17 16:53:37.966879,2020-09-07 00:00:00.000000,0.01642272,0.03097636,0.05442609,23,44,78,12,24,42,0.00850053,0.01671010,0.02936259,0.07291554,0.17067906,0.25895449
0,3555,CanadaOntarioPeterborough,Ontario,Peterborough,2021-01-17 16:53:37.966879,2020-09-08 00:00:00.000000,0.01664595,0.03173121,0.05655066,24,45,81,12,24,43,0.00894339,0.01719656,0.02990644,0.07334391,0.17400415,0.26194980
0,3555,CanadaOntarioPeterborough,Ontario,Peterborough,2021-01-17 16:53:37.966879,2020-09-09 00:00:00.000000,0.01685553,0.03238928,0.05753881,24,46,82,13,25,43,0.00952114,0.01761348,0.03030327,0.07447674,0.17644245,0.25907527
0,3555,CanadaOntarioPeterborough,Ontario,Peterborough,2021-01-17 16:53:37.966879,2020-09-10 00:00:00.000000,0.01705792,0.03288148,0.05857943,24,47,84,13,25,44,0.00961697,0.01800040,0.03112817,0.07597465,0.17801100,0.26461796
0,3555,CanadaOntarioPeterborough,Ontario,Peterborough,2021-01-17 16:53:37.966879,2020-09-11 00:00:00.000000,0.01725415,0.03340256,0.05963722,24,48,86,14,26,46,0.00971830,0.01862525,0.03206704,0.08220161,0.18022095,0.29190171
0,3555,CanadaOntarioPeterborough,Ontario,Peterborough,2021-01-17 16:53:37.966879,2020-09-12 00:00:00.000000,0.01744863,0.03413970,0.06111617,25,49,88,13,27,47,0.00962590,0.01912282,0.03263862,0.08732085,0.18548849,0.30093833
0,3555,CanadaOntarioPeterborough,Ontario,Peterborough,2021-01-17 16:53:37.966879,2020-09-13 00:00:00.000000,0.01764469,0.03499505,0.06320673,25,50,91,14,28,47,0.00997119,0.01960682,0.03317798,0.08679914,0.18487453,0.30271697
0,3555,CanadaOntarioPeterborough,Ontario,Peterborough,2021-01-17 16:53:37.966879,2020-09-14 00:00:00.000000,0.01786659,0.03757963,0.06551336,25,54,94,14,28,48,0.01008212,0.01993135,0.03370550,0.08690528,0.18772723,0.29638763
0,3555,CanadaOntarioPeterborough,Ontario,Peterborough,2021-01-17 16:53:37.966879,2020-09-15 00:00:00.000000,0.01824186,0.03978245,0.06804382,26,57,98,14,30,50,0.01019094,0.02084819,0.03513033,0.08746045,0.18854392,0.30345034
0,3555,CanadaOntarioPeterborough,Ontario,Peterborough,2021-01-17 16:53:37.966879,2020-09-16 00:00:00.000000,0.02065563,0.04086246,0.07210120,29,58,103,14,31,54,0.01033292,0.02188801,0.03750821,0.08839791,0.18870546,0.30401959
0,3555,CanadaOntarioPeterborough,Ontario,Peterborough,2021-01-17 16:53:37.966879,2020-09-17 00:00:00.000000,0.02210835,0.04360115,0.07502862,31,62,108,16,32,55,0.01133353,0.02259171,0.03853175,0.08977129,0.19149404,0.31726263
0,3555,CanadaOntarioPeterborough,Ontario,Peterborough,2021-01-17 16:53:37.966879,2020-09-18 00:00:00.000000,0.02202796,0.04571583,0.07798316,31,65,112,17,33,54,0.01211040,0.02328244,0.03756935,0.09169305,0.19579281,0.32066842
0,3555,CanadaOntarioPeterborough,Ontario,Peterborough,2021-01-17 16:53:37.966879,2020-09-19 00:00:00.000000,0.02197098,0.04749716,0.08109228,31,68,116,17,34,55,0.01238782,0.02404482,0.03816778,0.10486453,0.19750421,0.32255360
0,3555,CanadaOntarioPeterborough,Ontario,Peterborough,2021-01-17 16:53:37.966879,2020-09-20 00:00:00.000000,0.02193829,0.04920238,0.08434306,31,70,121,18,35,60,0.01266385,0.02493395,0.04168129,0.10646893,0.20136810,0.32352224
0,3555,CanadaOntarioPeterborough,Ontario,Peterborough,2021-01-17 16:53:37.966879,2020-09-21 00:00:00.000000,0.02379347,0.05067239,0.08686850,34,73,125,18,37,65,0.01295237,0.02577235,0.04529752,0.10866574,0.20209994,0.32384742
0,3555,CanadaOntarioPeterborough,Ontario,Peterborough,2021-01-17 16:53:37.966879,2020-09-22 00:00:00.000000,0.02558620,0.05092974,0.08806478,36,73,127,19,38,68,0.01340861,0.02638084,0.04738870,0.11183467,0.20954515,0.32360200
0,3555,CanadaOntarioPeterborough,Ontario,Peterborough,2021-01-17 16:53:37.966879,2020-09-23 00:00:00.000000,0.02725774,0.05170419,0.08682012,39,74,125,20,39,70,0.01395570,0.02726924,0.04855512,0.11313047,0.21460497,0.32410041
0,3555,CanadaOntarioPeterborough,Ontario,Peterborough,2021-01-17 16:53:37.966879,2020-09-24 00:00:00.000000,0.02795984,0.05400665,0.09158437,40,77,132,20,40,70,0.01455026,0.02806932,0.04916037,0.11375654,0.21682434,0.33452139
0,3555,CanadaOntarioPeterborough,Ontario,Peterborough,2021-01-17 16:53:37.966879,2020-09-25 00:00:00.000000,0.02888094,0.05384672,0.09704460,41,77,139,21,41,72,0.01516889,0.02885066,0.05056054,0.12301561,0.21955113,0.32848884
0,3555,CanadaOntarioPeterborough,Ontario,Peterborough,2021-01-17 16:53:37.966879,2020-09-26 00:00:00.000000,0.02893434,0.05399493,0.09885307,41,77,142,22,43,74,0.01584058,0.02992690,0.05171691,0.13146751,0.21959002,0.32242795
0,3555,CanadaOntarioPeterborough,Ontario,Peterborough,2021-01-17 16:53:37.966879,2020-09-27 00:00:00.000000,0.02871739,0.05502963,0.09937536,41,79,143,23,43,74,0.01623390,0.03038420,0.05131664,0.13453587,0.21960139,0.32368940
0,3555,CanadaOntarioPeterborough,Ontario,Peterborough,2021-01-17 16:53:37.966879,2020-09-28 00:00:00.000000,0.03028495,0.05740203,0.09787695,43,82,141,23,44,80,0.01645238,0.03076259,0.05553373,0.13466637,0.22003930,0.32412712
0,3555,CanadaOntarioPeterborough,Ontario,Peterborough,2021-01-17 16:53:37.966879,2020-09-29 00:00:00.000000,0.03187746,0.05905606,0.09917779,45,85,143,24,44,84,0.01686723,0.03094442,0.05831548,0.14005833,0.22121071,0.32433052
0,3555,CanadaOntarioPeterborough,Ontario,Peterborough,2021-01-17 16:53:37.966879,2020-09-30 00:00:00.000000,0.03353681,0.05898121,0.10036130,48,85,144,24,46,86,0.01727640,0.03214855,0.06021402,0.14127188,0.22208436,0.32453569
0,3555,CanadaOntarioPeterborough,Ontario,Peterborough,2021-01-17 16:53:37.966879,2020-10-01 00:00:00.000000,0.03520522,0.05815192,0.10142146,50,83,146,25,47,88,0.01782954,0.03268117,0.06114610,0.14306776,0.22164783,0.32494729
0,3555,CanadaOntarioPeterborough,Ontario,Peterborough,2021-01-17 16:53:37.966879,2020-10-02 00:00:00.000000,0.03684970,0.05743457,0.10237423,53,82,147,26,48,86,0.01836233,0.03331519,0.06011742,0.14473508,0.21922313,0.32932197
0,3555,CanadaOntarioPeterborough,Ontario,Peterborough,2021-01-17 16:53:37.966879,2020-10-03 00:00:00.000000,0.03675685,0.05740552,0.10336869,53,82,149,26,48,85,0.01847213,0.03383554,0.05900905,0.14856450,0.22091142,0.33022169
0,3555,CanadaOntarioPeterborough,Ontario,Peterborough,2021-01-17 16:53:37.966879,2020-10-04 00:00:00.000000,0.03578752,0.05847012,0.10380622,51,84,149,25,49,84,0.01801137,0.03410831,0.05892081,0.15358480,0.22018057,0.33450827
0,3555,CanadaOntarioPeterborough,Ontario,Peterborough,2021-01-17 16:53:37.966879,2020-10-05 00:00:00.000000,0.03582391,0.05828980,0.10663074,51,84,153,25,49,85,0.01746395,0.03438897,0.05941397,0.16146131,0.22251201,0.34972935
0,3555,CanadaOntarioPeterborough,Ontario,Peterborough,2021-01-17 16:53:37.966879,2020-10-06 00:00:00.000000,0.03595806,0.06075150,0.11006885,51,87,158,24,50,88,0.01722919,0.03494235,0.06133133,0.16300128,0.22806678,0.37323716
0,3555,CanadaOntarioPeterborough,Ontario,Peterborough,2021-01-17 16:53:37.966879,2020-10-07 00:00:00.000000,0.03619603,0.06274467,0.11214655,52,90,161,24,50,91,0.01718355,0.03508795,0.06369386,0.16257823,0.23153484,0.37815337
0,3555,CanadaOntarioPeterborough,Ontario,Peterborough,2021-01-17 16:53:37.966879,2020-10-08 00:00:00.000000,0.03649897,0.06377660,0.11426921,52,91,164,24,50,93,0.01725019,0.03515868,0.06470768,0.16243979,0.23246927,0.37896593
0,3555,CanadaOntarioPeterborough,Ontario,Peterborough,2021-01-17 16:53:37.966879,2020-10-09 00:00:00.000000,0.03688241,0.06547127,0.11658505,53,94,168,25,50,94,0.01738370,0.03532320,0.06583802,0.16446892,0.23440939,0.39076890
0,3555,CanadaOntarioPeterborough,Ontario,Peterborough,2021-01-17 16:53:37.966879,2020-10-10 00:00:00.000000,0.03728788,0.06498229,0.12068352,53,93,174,25,51,96,0.01756141,0.03568681,0.06722624,0.16939732,0.23871286,0.39119745
0,3555,CanadaOntarioPeterborough,Ontario,Peterborough,2021-01-17 16:53:37.966879,2020-10-11 00:00:00.000000,0.03782946,0.06636758,0.12202327,54,95,176,25,51,100,0.01777990,0.03597224,0.06959955,0.17363836,0.24305227,0.39449596
0,3555,CanadaOntarioPeterborough,Ontario,Peterborough,2021-01-17 16:53:37.966879,2020-10-12 00:00:00.000000,0.03900873,0.06818628,0.12658905,56,98,182,26,52,102,0.01805129,0.03650759,0.07084143,0.18310243,0.25240626,0.39634507
0,3555,CanadaOntarioPeterborough,Ontario,Peterborough,2021-01-17 16:53:37.966879,2020-10-13 00:00:00.000000,0.03895790,0.06910483,0.12933640,56,99,186,26,53,103,0.01814030,0.03676225,0.07203847,0.18697948,0.25461263,0.39736637
0,3555,CanadaOntarioPeterborough,Ontario,Peterborough,2021-01-17 16:53:37.966879,2020-10-14 00:00:00.000000,0.03856775,0.07074617,0.13181256,55,102,190,26,54,108,0.01816272,0.03758918,0.07499566,0.17975092,0.25655769,0.40818785
0,3555,CanadaOntarioPeterborough,Ontario,Peterborough,2021-01-17 16:53:37.966879,2020-10-15 00:00:00.000000,0.03809689,0.07279896,0.13429860,54,105,193,26,55,111,0.01817570,0.03853107,0.07728835,0.17947707,0.25990260,0.41413007
0,3555,CanadaOntarioPeterborough,Ontario,Peterborough,2021-01-17 16:53:37.966879,2020-10-16 00:00:00.000000,0.03780733,0.07494227,0.13680841,54,108,197,26,56,113,0.01820532,0.03882500,0.07887093,0.18914585,0.26839881,0.40791198
0,3555,CanadaOntarioPeterborough,Ontario,Peterborough,2021-01-17 16:53:37.966879,2020-10-17 00:00:00.000000,0.03801296,0.07757918,0.13934226,54,111,200,26,57,116,0.01826180,0.03966818,0.08042509,0.19039498,0.26979947,0.40225665
0,3555,CanadaOntarioPeterborough,Ontario,Peterborough,2021-01-17 16:53:37.966879,2020-10-18 00:00:00.000000,0.03826640,0.07853138,0.14214774,55,113,205,26,59,118,0.01834655,0.04129049,0.08193951,0.19172275,0.27004107,0.40114185
0,3555,CanadaOntarioPeterborough,Ontario,Peterborough,2021-01-17 16:53:37.966879,2020-10-19 00:00:00.000000,0.04045520,0.08171105,0.14524536,58,117,209,26,61,120,0.01845613,0.04238487,0.08345424,0.19992211,0.27107393,0.39991500
0,3555,CanadaOntarioPeterborough,Ontario,Peterborough,2021-01-17 16:53:37.966879,2020-10-20 00:00:00.000000,0.04125679,0.08404500,0.14858201,59,121,214,27,63,122,0.01879915,0.04399220,0.08515966,0.20353511,0.27727226,0.39564656
0,3555,CanadaOntarioPeterborough,Ontario,Peterborough,2021-01-17 16:53:37.966879,2020-10-21 00:00:00.000000,0.04124004,0.08456507,0.15179005,59,121,218,27,65,123,0.01924438,0.04540016,0.08542839,0.20340476,0.28254999,0.39387400
0,3555,CanadaOntarioPeterborough,Ontario,Peterborough,2021-01-17 16:53:37.966879,2020-10-22 00:00:00.000000,0.04191450,0.08695051,0.15477110,60,125,223,29,67,126,0.02021346,0.04704706,0.08739005,0.20376089,0.28597221,0.40401867
0,3555,CanadaOntarioPeterborough,Ontario,Peterborough,2021-01-17 16:53:37.966879,2020-10-23 00:00:00.000000,0.04337045,0.09024553,0.15743471,62,130,227,30,70,130,0.02124696,0.04866783,0.09056435,0.21326908,0.29321899,0.40510960
0,3555,CanadaOntarioPeterborough,Ontario,Peterborough,2021-01-17 16:53:37.966879,2020-10-24 00:00:00.000000,0.04319433,0.09247986,0.16051257,62,133,231,32,71,133,0.02230148,0.04990604,0.09242820,0.22114036,0.30330747,0.40636480
0,3555,CanadaOntarioPeterborough,Ontario,Peterborough,2021-01-17 16:53:37.966879,2020-10-25 00:00:00.000000,0.04375294,0.09501149,0.16642502,63,137,240,33,73,135,0.02334677,0.05109063,0.09401134,0.22313828,0.29997555,0.40676515
0,3555,CanadaOntarioPeterborough,Ontario,Peterborough,2021-01-17 16:53:37.966879,2020-10-26 00:00:00.000000,0.04477104,0.09707358,0.17465778,64,140,251,35,76,137,0.02432054,0.05271024,0.09540975,0.22321847,0.30050332,0.40768824
0,3555,CanadaOntarioPeterborough,Ontario,Peterborough,2021-01-17 16:53:37.966879,2020-10-27 00:00:00.000000,0.04594336,0.09931953,0.18195738,66,143,262,35,78,139,0.02472126,0.05429631,0.09659272,0.22317795,0.30143762,0.40953026
0,3555,CanadaOntarioPeterborough,Ontario,Peterborough,2021-01-17 16:53:37.966879,2020-10-28 00:00:00.000000,0.04721536,0.10189134,0.18589097,68,146,268,36,80,140,0.02510977,0.05562017,0.09759815,0.22289358,0.30875266,0.41099148
0,3555,CanadaOntarioPeterborough,Ontario,Peterborough,2021-01-17 16:53:37.966879,2020-10-29 00:00:00.000000,0.04855841,0.10381795,0.18802798,70,149,271,36,81,142,0.02528717,0.05656085,0.09846878,0.22295827,0.30702496,0.41130726
0,3555,CanadaOntarioPeterborough,Ontario,Peterborough,2021-01-17 16:53:37.966879,2020-10-30 00:00:00.000000,0.04996729,0.10600658,0.19012740,72,152,274,37,82,143,0.02567131,0.05732687,0.09924596,0.22229117,0.31147458,0.41985011
0,3555,CanadaOntarioPeterborough,Ontario,Peterborough,2021-01-17 16:53:37.966879,2020-10-31 00:00:00.000000,0.05180110,0.10767194,0.19222587,74,155,277,36,84,144,0.02559532,0.05868664,0.09996671,0.22241478,0.31709416,0.42987873
0,3555,CanadaOntarioPeterborough,Ontario,Peterborough,2021-01-17 16:53:37.966879,2020-11-01 00:00:00.000000,0.05250179,0.11238172,0.19432697,75,162,280,36,87,145,0.02558580,0.06065498,0.10066417,0.22312548,0.32085527,0.46214591
0,3555,CanadaOntarioPeterborough,Ontario,Peterborough,2021-01-17 16:53:37.966879,2020-11-02 00:00:00.000000,0.05353595,0.11554742,0.19552256,77,166,282,37,89,147,0.02570464,0.06238984,0.10236473,0.22483010,0.32679510,0.46306664
0,3555,CanadaOntarioPeterborough,Ontario,Peterborough,2021-01-17 16:53:37.966879,2020-11-03 00:00:00.000000,0.05465906,0.11947284,0.19666900,78,172,283,37,92,150,0.02588621,0.06388809,0.10403124,0.22840598,0.32959945,0.48135228
0,3555,CanadaOntarioPeterborough,Ontario,Peterborough,2021-01-17 16:53:37.966879,2020-11-04 00:00:00.000000,0.05594305,0.12360158,0.19763552,80,178,285,37,95,151,0.02622782,0.06590482,0.10526959,0.23437918,0.33218505,0.48775295
0,3555,CanadaOntarioPeterborough,Ontario,Peterborough,2021-01-17 16:53:37.966879,2020-11-05 00:00:00.000000,0.05736740,0.12902935,0.19815800,82,186,285,38,98,154,0.02674493,0.06815989,0.10736100,0.24271531,0.33136647,0.48633777
0,3555,CanadaOntarioPeterborough,Ontario,Peterborough,2021-01-17 16:53:37.966879,2020-11-06 00:00:00.000000,0.05891990,0.13527672,0.19985268,84,195,288,39,102,160,0.02740998,0.07090004,0.11100555,0.25136598,0.33089430,0.48229433
0,3555,CanadaOntarioPeterborough,Ontario,Peterborough,2021-01-17 16:53:37.966879,2020-11-07 00:00:00.000000,0.06060287,0.13894478,0.21020822,87,200,303,40,107,163,0.02820981,0.07424534,0.11323471,0.24830981,0.33956384,0.47337976
0,3555,CanadaOntarioPeterborough,Ontario,Peterborough,2021-01-17 16:53:37.966879,2020-11-08 00:00:00.000000,0.06245519,0.14259924,0.21766778,90,205,313,42,111,163,0.02913667,0.07722540,0.11341099,0.26199207,0.34408396,0.45700990
0,3555,CanadaOntarioPeterborough,Ontario,Peterborough,2021-01-17 16:53:37.966879,2020-11-09 00:00:00.000000,0.06395402,0.14661967,0.21889546,92,211,315,43,113,170,0.03017607,0.07878446,0.11798947,0.26416458,0.35158524,0.45371037
0,3555,CanadaOntarioPeterborough,Ontario,Peterborough,2021-01-17 16:53:37.966879,2020-11-10 00:00:00.000000,0.06582994,0.15193420,0.22861313,94,219,329,48,117,176,0.03340407,0.08112713,0.12262288,0.26415187,0.35392762,0.45145244
0,3555,CanadaOntarioPeterborough,Ontario,Peterborough,2021-01-17 16:53:37.966879,2020-11-11 00:00:00.000000,0.07394208,0.15657532,0.23970994,106,225,345,54,119,184,0.03771701,0.08304661,0.12805458,0.26290518,0.35343932,0.46022724
0,3555,CanadaOntarioPeterborough,Ontario,Peterborough,2021-01-17 16:53:37.966879,2020-11-12 00:00:00.000000,0.08151981,0.16106500,0.25075381,117,232,361,59,123,189,0.04091691,0.08570415,0.13109554,0.26393095,0.35016141,0.45305589
0,3555,CanadaOntarioPeterborough,Ontario,Peterborough,2021-01-17 16:53:37.966879,2020-11-13 00:00:00.000000,0.08735812,0.16656298,0.26165006,126,240,377,61,127,198,0.04267518,0.08870834,0.13760228,0.26456901,0.34677750,0.45616147
0,3555,CanadaOntarioPeterborough,Ontario,Peterborough,2021-01-17 16:53:37.966879,2020-11-14 00:00:00.000000,0.09316005,0.16975524,0.27202986,134,244,392,64,131,208,0.04443580,0.09145134,0.14459257,0.26592209,0.33781378,0.44456099
0,3555,CanadaOntarioPeterborough,Ontario,Peterborough,2021-01-17 16:53:37.966879,2020-11-15 00:00:00.000000,0.09868051,0.17397619,0.28083744,142,250,405,66,135,218,0.04618335,0.09423553,0.15161994,0.26586849,0.33625399,0.45429140
0,3555,CanadaOntarioPeterborough,Ontario,Peterborough,2021-01-17 16:53:37.966879,2020-11-16 00:00:00.000000,0.10093925,0.17918989,0.28488598,145,258,410,69,140,228,0.04790939,0.09735527,0.15847181,0.26671584,0.33567808,0.45520140
0,3555,CanadaOntarioPeterborough,Ontario,Peterborough,2021-01-17 16:53:37.966879,2020-11-17 00:00:00.000000,0.10316405,0.18397440,0.28778972,148,265,415,71,144,236,0.04930588,0.10004119,0.16425487,0.26705452,0.33613059,0.46243032
0,3555,CanadaOntarioPeterborough,Ontario,Peterborough,2021-01-17 16:53:37.966879,2020-11-18 00:00:00.000000,0.10529680,0.18835921,0.29037941,151,271,418,72,147,243,0.05052550,0.10230418,0.16907962,0.26682216,0.33569233,0.45412763
0,3555,CanadaOntarioPeterborough,Ontario,Peterborough,2021-01-17 16:53:37.966879,2020-11-19 00:00:00.000000,0.10737377,0.19438664,0.29389892,154,280,423,74,152,249,0.05164869,0.10582076,0.17308815,0.26928668,0.33688814,0.43894636
0,3555,CanadaOntarioPeterborough,Ontario,Peterborough,2021-01-17 16:53:37.966879,2020-11-20 00:00:00.000000,0.10941453,0.19928959,0.30407801,157,287,438,76,156,254,0.05271762,0.10882009,0.17627440,0.26457340,0.33615364,0.43640678
0,3555,CanadaOntarioPeterborough,Ontario,Peterborough,2021-01-17 16:53:37.966879,2020-11-21 00:00:00.000000,0.11143187,0.20682334,0.31483483,160,298,454,77,161,259,0.05375455,0.11186984,0.17992014,0.26165001,0.33929328,0.43703124
0,3555,CanadaOntarioPeterborough,Ontario,Peterborough,2021-01-17 16:53:37.966879,2020-11-22 00:00:00.000000,0.11344553,0.21225576,0.31591175,163,306,455,79,165,263,0.05477187,0.11459825,0.18286863,0.25723633,0.34220460,0.43799801
0,3555,CanadaOntarioPeterborough,Ontario,Peterborough,2021-01-17 16:53:37.966879,2020-11-23 00:00:00.000000,0.11526714,0.21407823,0.31641693,166,308,456,80,169,267,0.05577982,0.11738845,0.18562766,0.25245437,0.34150337,0.45064261
0,3555,CanadaOntarioPeterborough,Ontario,Peterborough,2021-01-17 16:53:37.966879,2020-11-24 00:00:00.000000,0.11718450,0.21800605,0.32032616,169,314,462,81,173,271,0.05672990,0.12008907,0.18798073,0.24988468,0.33906276,0.45183374
0,3555,CanadaOntarioPeterborough,Ontario,Peterborough,2021-01-17 16:53:37.966879,2020-11-25 00:00:00.000000,0.11932416,0.22352136,0.32757250,172,322,472,83,176,274,0.05767695,0.12225322,0.19008424,0.24880153,0.33787608,0.46112588
0,3555,CanadaOntarioPeterborough,Ontario,Peterborough,2021-01-17 16:53:37.966879,2020-11-26 00:00:00.000000,0.12190948,0.22888767,0.33406782,175,330,481,84,179,276,0.05868641,0.12427823,0.19194412,0.25605924,0.33375001,0.46821764
0,3555,CanadaOntarioPeterborough,Ontario,Peterborough,2021-01-17 16:53:37.966879,2020-11-27 00:00:00.000000,0.12504334,0.23488639,0.33547076,180,338,483,86,183,279,0.05984920,0.12694742,0.19344385,0.25860595,0.33652761,0.47247374
0,3555,CanadaOntarioPeterborough,Ontario,Peterborough,2021-01-17 16:53:37.966879,2020-11-28 00:00:00.000000,0.12846925,0.24066030,0.34912399,185,347,503,88,186,280,0.06123604,0.12909422,0.19458375,0.25594406,0.33837410,0.47389674
0,3555,CanadaOntarioPeterborough,Ontario,Peterborough,2021-01-17 16:53:37.966879,2020-11-29 00:00:00.000000,0.13176898,0.24518505,0.35870452,190,353,517,90,189,281,0.06280816,0.13161230,0.19547749,0.25305341,0.33921802,0.49642634
0,3555,CanadaOntarioPeterborough,Ontario,Peterborough,2021-01-17 16:53:37.966879,2020-11-30 00:00:00.000000,0.13364920,0.24833335,0.36518823,192,358,526,92,193,289,0.06442775,0.13424051,0.20039050,0.25144530,0.34076027,0.51783867
0,3555,CanadaOntarioPeterborough,Ontario,Peterborough,2021-01-17 16:53:37.966879,2020-12-01 00:00:00.000000,0.13519895,0.25349660,0.37231062,195,365,537,94,198,299,0.06567626,0.13757765,0.20790811,0.25912469,0.34286096,0.53663588
0,3555,CanadaOntarioPeterborough,Ontario,Peterborough,2021-01-17 16:53:37.966879,2020-12-02 00:00:00.000000,0.14097129,0.26048682,0.38059507,203,375,548,96,206,313,0.06664076,0.14337138,0.21763653,0.26016729,0.35724022,0.53411467
0,3555,CanadaOntarioPeterborough,Ontario,Peterborough,2021-01-17 16:53:37.966879,2020-12-03 00:00:00.000000,0.14877583,0.26820074,0.39080014,214,386,563,97,211,328,0.06740114,0.14684445,0.22762619,0.27070216,0.35978285,0.52603576
0,3555,CanadaOntarioPeterborough,Ontario,Peterborough,2021-01-17 16:53:37.966879,2020-12-04 00:00:00.000000,0.15702073,0.27717057,0.40835213,226,399,588,98,215,343,0.06803725,0.14909774,0.23799007,0.27631129,0.36868746,0.52794301
0,3555,CanadaOntarioPeterborough,Ontario,Peterborough,2021-01-17 16:53:37.966879,2020-12-05 00:00:00.000000,0.16235612,0.28769003,0.42854996,234,414,618,101,219,355,0.07028143,0.15230292,0.24617784,0.28300770,0.37537216,0.53532811
0,3555,CanadaOntarioPeterborough,Ontario,Peterborough,2021-01-17 16:53:37.966879,2020-12-06 00:00:00.000000,0.16454590,0.30033082,0.44993040,237,433,648,107,226,365,0.07452015,0.15723869,0.25360414,0.30709393,0.39328170,0.53956911
0,3555,CanadaOntarioPeterborough,Ontario,Peterborough,2021-01-17 16:53:37.966879,2020-12-07 00:00:00.000000,0.17392430,0.31161377,0.47235120,250,449,681,113,233,377,0.07893093,0.16221683,0.26189460,0.31610857,0.41068222,0.54381776
0,3555,CanadaOntarioPeterborough,Ontario,Peterborough,2021-01-17 16:53:37.966879,2020-12-08 00:00:00.000000,0.18116798,0.32374901,0.49676991,261,466,716,120,242,391,0.08344512,0.16845568,0.27126622,0.31850864,0.42095517,0.55486811
0,3555,CanadaOntarioPeterborough,Ontario,Peterborough,2021-01-17 16:53:37.966879,2020-12-09 00:00:00.000000,0.18882650,0.33871977,0.52335991,272,488,754,127,253,406,0.08812710,0.17595454,0.28168113,0.32132230,0.43111348,0.56022495
0,3555,CanadaOntarioPeterborough,Ontario,Peterborough,2021-01-17 16:53:37.966879,2020-12-10 00:00:00.000000,0.20123875,0.35910636,0.55176149,290,517,795,134,264,422,0.09301771,0.18307559,0.29294940,0.32840647,0.43848642,0.57082440
0,3555,CanadaOntarioPeterborough,Ontario,Peterborough,2021-01-17 16:53:37.966879,2020-12-11 00:00:00.000000,0.21678757,0.38016311,0.58177684,312,548,839,141,274,440,0.09814781,0.19028673,0.30511899,0.33354710,0.44046455,0.60632267
0,3555,CanadaOntarioPeterborough,Ontario,Peterborough,2021-01-17 16:53:37.966879,2020-12-12 00:00:00.000000,0.23285189,0.40216055,0.61341896,335,580,884,149,286,459,0.10354867,0.19867409,0.31831988,0.34071775,0.45166930,0.64021332
0,3555,CanadaOntarioPeterborough,Ontario,Peterborough,2021-01-17 16:53:37.966879,2020-12-13 00:00:00.000000,0.24496303,0.42475336,0.64679575,353,612,932,157,299,479,0.10926312,0.20739052,0.33273100,0.36099685,0.46517882,0.64567298
0,3555,CanadaOntarioPeterborough,Ontario,Peterborough,2021-01-17 16:53:37.966879,2020-12-14 00:00:00.000000,0.25834811,0.45168400,0.68304790,372,651,985,166,316,502,0.11536199,0.21913959,0.34866309,0.36046775,0.48659423,0.64881873
0,3555,CanadaOntarioPeterborough,Ontario,Peterborough,2021-01-17 16:53:37.966879,2020-12-15 00:00:00.000000,0.27356345,0.47854653,0.72149893,394,690,1040,175,334,529,0.12192148,0.23223267,0.36681764,0.37344951,0.49165304,0.65107393
0,3555,CanadaOntarioPeterborough,Ontario,Peterborough,2021-01-17 16:53:37.966879,2020-12-16 00:00:00.000000,0.29088043,0.50736592,0.76267141,419,731,1100,186,356,558,0.12915582,0.24701720,0.38712842,0.39942781,0.49462668,0.65324255
0,3555,CanadaOntarioPeterborough,Ontario,Peterborough,2021-01-17 16:53:37.966879,2020-12-17 00:00:00.000000,0.31017089,0.53813769,0.80735525,447,776,1164,198,378,590,0.13729975,0.26208343,0.40952778,0.39980692,0.49840312,0.65550515
0,3555,CanadaOntarioPeterborough,Ontario,Peterborough,2021-01-17 16:53:37.966879,2020-12-18 00:00:00.000000,0.33120760,0.57227493,0.85673100,477,825,1235,211,399,625,0.14638558,0.27707841,0.43394664,0.40136807,0.50107706,0.65746248
0,3555,CanadaOntarioPeterborough,Ontario,Peterborough,2021-01-17 16:53:37.966879,2020-12-19 00:00:00.000000,0.35386744,0.61057224,0.89340515,510,880,1288,225,428,663,0.15638506,0.29718764,0.46033424,0.40419881,0.50066227,0.65856504
0,3555,CanadaOntarioPeterborough,Ontario,Peterborough,2021-01-17 16:53:37.966879,2020-12-20 00:00:00.000000,0.37811440,0.64825798,0.92699319,545,935,1337,241,462,704,0.16725114,0.32054455,0.48840138,0.40834779,0.50307121,0.65848664
0,3555,CanadaOntarioPeterborough,Ontario,Peterborough,2021-01-17 16:53:37.966879,2020-12-21 00:00:00.000000,0.40549942,0.68985704,0.96339599,584,995,1389,258,491,731,0.17895319,0.34082111,0.50720462,0.41649953,0.50673704,0.65717215
0,3555,CanadaOntarioPeterborough,Ontario,Peterborough,2021-01-17 16:53:37.966879,2020-12-22 00:00:00.000000,0.43438017,0.73372306,1.00756436,626,1058,1453,276,525,772,0.19181817,0.36412555,0.53538820,0.40947114,0.50858204,0.65461468
0,3555,CanadaOntarioPeterborough,Ontario,Peterborough,2021-01-17 16:53:37.966879,2020-12-23 00:00:00.000000,0.46463420,0.77934707,1.07133197,670,1124,1545,296,559,821,0.20566688,0.38785631,0.56978882,0.40785081,0.50616541,0.65083876
0,3555,CanadaOntarioPeterborough,Ontario,Peterborough,2021-01-17 16:53:37.966879,2020-12-24 00:00:00.000000,0.49564676,0.82969775,1.13173308,714,1196,1632,317,600,874,0.22042586,0.41635591,0.60647437,0.39904527,0.50267952,0.64486431
0,3555,CanadaOntarioPeterborough,Ontario,Peterborough,2021-01-17 16:53:37.966879,2020-12-25 00:00:00.000000,0.52622851,0.87085649,1.18123224,759,1256,1703,340,638,930,0.23581381,0.44250323,0.64543091,0.36489752,0.49016217,0.63426562
0,3555,CanadaOntarioPeterborough,Ontario,Peterborough,2021-01-17 16:53:37.966879,2020-12-26 00:00:00.000000,0.55468848,0.92030889,1.22697602,800,1327,1769,362,677,990,0.25137656,0.46944596,0.68657193,0.35981444,0.47706805,0.62075099
0,3555,CanadaOntarioPeterborough,Ontario,Peterborough,2021-01-17 16:53:37.966879,2020-12-27 00:00:00.000000,0.57959038,0.96725366,1.31855732,835,1395,1901,384,715,1052,0.26639781,0.49623221,0.72966408,0.35633582,0.45363146,0.60960157
0,3555,CanadaOntarioPeterborough,Ontario,Peterborough,2021-01-17 16:53:37.966879,2020-12-28 00:00:00.000000,0.59994250,1.00989848,1.38029795,865,1456,1990,404,758,1100,0.28011133,0.52559204,0.76264519,0.33271324,0.43598523,0.59511923
0,3555,CanadaOntarioPeterborough,Ontario,Peterborough,2021-01-17 16:53:37.966879,2020-12-29 00:00:00.000000,0.61424997,1.06456275,1.43205921,885,1535,2065,421,795,1143,0.29192008,0.55184375,0.79268896,0.30573074,0.41184434,0.56575192
0,3555,CanadaOntarioPeterborough,Ontario,Peterborough,2021-01-17 16:53:37.966879,2020-12-30 00:00:00.000000,0.61904598,1.10483564,1.47736747,892,1593,2130,434,828,1186,0.30119809,0.57441175,0.82233712,0.27699886,0.37813027,0.54641253
0,3555,CanadaOntarioPeterborough,Ontario,Peterborough,2021-01-17 16:53:37.966879,2020-12-31 00:00:00.000000,0.61748729,1.12380597,1.50948413,890,1620,2177,442,853,1233,0.30687137,0.59150868,0.85524220,0.24718348,0.35245194,0.48865877
0,3555,CanadaOntarioPeterborough,Ontario,Peterborough,2021-01-17 16:53:37.966879,2021-01-01 00:00:00.000000,0.61345075,1.13245180,1.52209678,884,1633,2195,445,874,1270,0.30918776,0.60636079,0.88098440,0.23823983,0.31659225,0.45696223
0,3555,CanadaOntarioPeterborough,Ontario,Peterborough,2021-01-17 16:53:37.966879,2021-01-02 00:00:00.000000,0.60828633,1.13089982,1.51675619,877,1631,2187,446,886,1294,0.30927546,0.61458536,0.89749380,0.20695233,0.28628089,0.39638980
0,3555,CanadaOntarioPeterborough,Ontario,Peterborough,2021-01-17 16:53:37.966879,2021-01-03 00:00:00.000000,0.60256646,1.12498129,1.50009709,869,1622,2163,444,918,1307,0.30805776,0.63703280,0.90651018,0.19579432,0.27128043,0.37273032
0,3555,CanadaOntarioPeterborough,Ontario,Peterborough,2021-01-17 16:53:37.966879,2021-01-04 00:00:00.000000,0.59497458,1.11032895,1.47790754,858,1601,2131,441,916,1301,0.30611286,0.63518645,0.90249460,0.19105470,0.26376237,0.34534586
0,3555,CanadaOntarioPeterborough,Ontario,Peterborough,2021-01-17 16:53:37.966879,2021-01-05 00:00:00.000000,0.58321821,1.08881673,1.45275448,841,1570,2095,437,913,1291,0.30338045,0.63336494,0.89515805,0.18522588,0.25596515,0.33845977
0,3555,CanadaOntarioPeterborough,Ontario,Peterborough,2021-01-17 16:53:37.966879,2021-01-06 00:00:00.000000,0.56719342,1.07887472,1.42624043,818,1556,2057,433,896,1288,0.30023172,0.62183446,0.89313855,0.18315849,0.24537286,0.33837867
0,3555,CanadaOntarioPeterborough,Ontario,Peterborough,2021-01-17 16:53:37.966879,2021-01-07 00:00:00.000000,0.55118060,1.06786069,1.40285835,795,1540,2023,428,891,1278,0.29687264,0.61791655,0.88629979,0.17530093,0.24149804,0.33689693
0,3555,CanadaOntarioPeterborough,Ontario,Peterborough,2021-01-17 16:53:37.966879,2021-01-08 00:00:00.000000,0.53500277,1.05085054,1.38712927,771,1515,2000,423,883,1263,0.29341628,0.61230444,0.87595470,0.17237702,0.23631808,0.33627801
0,3555,CanadaOntarioPeterborough,Ontario,Peterborough,2021-01-17 16:53:37.966879,2021-01-09 00:00:00.000000,0.51830709,1.03253855,1.37306948,747,1489,1980,418,869,1243,0.28992339,0.60272217,0.86205314,0.15791390,0.23328856,0.33553003
0,3555,CanadaOntarioPeterborough,Ontario,Peterborough,2021-01-17 16:53:37.966879,2021-01-10 00:00:00.000000,0.50081186,1.01614848,1.35857819,722,1465,1959,411,855,1216,0.28520956,0.59339928,0.84363771,0.15294535,0.22942493,0.33461732
0,3555,CanadaOntarioPeterborough,Ontario,Peterborough,2021-01-17 16:53:37.966879,2021-01-11 00:00:00.000000,0.48132639,0.99277779,1.32974005,694,1431,1917,398,836,1183,0.27620229,0.57965278,0.82076189,0.15116050,0.22817963,0.33726259
0,3555,CanadaOntarioPeterborough,Ontario,Peterborough,2021-01-17 16:53:37.966879,2021-01-12 00:00:00.000000,0.46116125,0.97038458,1.31084367,665,1399,1890,384,822,1165,0.26646901,0.57034414,0.80799987,0.15098189,0.22723584,0.33942974
0,3555,CanadaOntarioPeterborough,Ontario,Peterborough,2021-01-17 16:53:37.966879,2021-01-13 00:00:00.000000,0.43230606,0.94670697,1.29266610,623,1365,1864,369,803,1157,0.25627834,0.55698557,0.80227929,0.15080832,0.22743992,0.33481166
0,3555,CanadaOntarioPeterborough,Ontario,Peterborough,2021-01-17 16:53:37.966879,2021-01-14 00:00:00.000000,0.40534256,0.91806172,1.27466312,584,1324,1838,358,782,1148,0.24846339,0.54253793,0.79601615,0.15076481,0.22702989,0.32152227
0,3555,CanadaOntarioPeterborough,Ontario,Peterborough,2021-01-17 16:53:37.966879,2021-01-15 00:00:00.000000,0.38717552,0.90211350,1.25693604,558,1301,1812,351,766,1138,0.24388066,0.53108518,0.78904908,0.15016778,0.22704102,0.32476759
0,3555,CanadaOntarioPeterborough,Ontario,Peterborough,2021-01-17 16:53:37.966879,2021-01-16 00:00:00.000000,0.37345359,0.89289835,1.23946719,538,1287,1787,333,753,1126,0.23130893,0.52229342,0.78095748,0.14912689,0.22811261,0.31165098
0,3555,CanadaOntarioPeterborough,Ontario,Peterborough,2021-01-17 16:53:37.966879,2021-01-17 00:00:00.000000,0.36107071,0.87355269,1.22220059,520,1259,1762,313,741,1112,0.21712186,0.51392425,0.77130808,0.14653336,0.22727812,0.32974339
0,3555,CanadaOntarioPeterborough,Ontario,Peterborough,2021-01-17 16:53:37.966879,2021-01-18 00:00:00.000000,0.34868510,0.85514926,1.22395173,502,1233,1765,296,725,1096,0.20526928,0.50310833,0.76005273,0.14183579,0.22579997,0.32554893
0,3555,CanadaOntarioPeterborough,Ontario,Peterborough,2021-01-17 16:53:37.966879,2021-01-19 00:00:00.000000,0.32906329,0.83486478,1.25029346,474,1204,1803,278,709,1078,0.19281843,0.49212779,0.74750695,0.14172385,0.22648767,0.34319876
0,3555,CanadaOntarioPeterborough,Ontario,Peterborough,2021-01-17 16:53:37.966879,2021-01-20 00:00:00.000000,0.31012351,0.80890405,1.25668223,447,1166,1812,260,694,1069,0.18069634,0.48124255,0.74121939,0.14167212,0.22786340,0.34698762
0,3555,CanadaOntarioPeterborough,Ontario,Peterborough,2021-01-17 16:53:37.966879,2021-01-21 00:00:00.000000,0.29471136,0.78156644,1.25151388,425,1127,1805,245,679,1070,0.17022782,0.47102364,0.74206709,0.14001366,0.22783175,0.34712033
0,3555,CanadaOntarioPeterborough,Ontario,Peterborough,2021-01-17 16:53:37.966879,2021-01-22 00:00:00.000000,0.27598605,0.76432259,1.24783116,398,1102,1799,237,664,1073,0.16435309,0.46093616,0.74415899,0.13906483,0.22781275,0.34717460
0,3555,CanadaOntarioPeterborough,Ontario,Peterborough,2021-01-17 16:53:37.966879,2021-01-23 00:00:00.000000,0.25797320,0.74838017,1.24854287,372,1079,1800,223,650,1078,0.15470049,0.45094299,0.74763283,0.13882391,0.22821907,0.34719606
0,3555,CanadaOntarioPeterborough,Ontario,Peterborough,2021-01-17 16:53:37.966879,2021-01-24 00:00:00.000000,0.24227366,0.73358619,1.25615232,349,1058,1811,209,636,1083,0.14551938,0.44111711,0.75123687,0.13876364,0.22848600,0.34720444
0,3555,CanadaOntarioPeterborough,Ontario,Peterborough,2021-01-17 16:53:37.966879,2021-01-25 00:00:00.000000,0.22749930,0.71640416,1.26391726,328,1033,1823,197,622,1080,0.13682682,0.43149874,0.74901768,0.13874846,0.22855955,0.34720769
0,3555,CanadaOntarioPeterborough,Ontario,Peterborough,2021-01-17 16:53:37.966879,2021-01-26 00:00:00.000000,0.21365741,0.69862681,1.27167000,308,1007,1834,185,604,1092,0.12861967,0.41944028,0.75720902,0.13874455,0.22857889,0.34720896
0,3555,CanadaOntarioPeterborough,Ontario,Peterborough,2021-01-17 16:53:37.966879,2021-01-27 00:00:00.000000,0.20076280,0.67610739,1.27939309,289,975,1845,174,580,1101,0.12088403,0.40263892,0.76390929,0.13874351,0.22858360,0.34720945
0,3555,CanadaOntarioPeterborough,Ontario,Peterborough,2021-01-17 16:53:37.966879,2021-01-28 00:00:00.000000,0.18852185,0.65973618,1.29403288,271,951,1866,161,559,1108,0.11177819,0.38774874,0.76848527,0.13874321,0.22858454,0.34720964
0,3555,CanadaOntarioPeterborough,Ontario,Peterborough,2021-01-17 16:53:37.966879,2021-01-29 00:00:00.000000,0.17586981,0.64454624,1.33254151,253,929,1922,145,547,1115,0.10099650,0.37956099,0.77309223,0.13874312,0.22858460,0.34720971
0,3555,CanadaOntarioPeterborough,Ontario,Peterborough,2021-01-17 16:53:37.966879,2021-01-30 00:00:00.000000,0.16406668,0.62930468,1.35372489,236,907,1952,136,536,1144,0.09439240,0.37173888,0.79325321,0.13874310,0.22858449,0.34720974
0,3555,CanadaOntarioPeterborough,Ontario,Peterborough,2021-01-17 16:53:37.966879,2021-01-31 00:00:00.000000,0.15305576,0.60847802,1.37004816,220,877,1976,127,518,1158,0.08840582,0.35974173,0.80294780,0.13874308,0.22858440,0.34720975
