FIPS,HR_UID,nameid,province,region,analysisTime,dates,pointprevalence_025,pointprevalence_50,pointprevalence_975,pointinfections_025,pointinfections_50,pointinfections_975,pointinfectious_025,pointinfectious_50,pointinfectious_975,pointinfectiousprevalence_05,pointinfectiousprevalence_50,pointinfectiousprevalence_95,infectrate_025,infectrate_50,infectrate_975
47081,0,USTennesseeHickman,Tennessee,Hickman,2021-01-05 10:36:44.586020,2020-03-09 00:00:00.000000,0.00126712,0.01645797,0.05118560,0,4,12,0,2,6,0.00067809,0.00889554,0.02670769,0.42284657,0.61021221,0.83430834
47081,0,USTennesseeHickman,Tennessee,Hickman,2021-01-05 10:36:44.586020,2020-03-10 00:00:00.000000,0.00146106,0.01802577,0.05663558,0,4,14,0,2,6,0.00074896,0.00901216,0.02659403,0.42284281,0.61021163,0.83430831
47081,0,USTennesseeHickman,Tennessee,Hickman,2021-01-05 10:36:44.586020,2020-03-11 00:00:00.000000,0.00168640,0.01980136,0.06293162,0,4,15,0,2,7,0.00086527,0.00961837,0.02933729,0.42283542,0.61020828,0.83430819
47081,0,USTennesseeHickman,Tennessee,Hickman,2021-01-05 10:36:44.586020,2020-03-12 00:00:00.000000,0.00199180,0.02226438,0.06952415,0,5,17,0,2,8,0.00101422,0.01085389,0.03204324,0.42282114,0.61018913,0.83430765
47081,0,USTennesseeHickman,Tennessee,Hickman,2021-01-05 10:36:44.586020,2020-03-13 00:00:00.000000,0.00235512,0.02503201,0.07642374,0,6,19,0,2,8,0.00119438,0.01168174,0.03434873,0.42279420,0.60991977,0.83430517
47081,0,USTennesseeHickman,Tennessee,Hickman,2021-01-05 10:36:44.586020,2020-03-14 00:00:00.000000,0.00278609,0.02812556,0.08377120,0,7,21,0,3,9,0.00134294,0.01294160,0.03717157,0.42274507,0.60871555,0.83429383
47081,0,USTennesseeHickman,Tennessee,Hickman,2021-01-05 10:36:44.586020,2020-03-15 00:00:00.000000,0.00314360,0.03120689,0.09165313,0,7,23,0,3,10,0.00150006,0.01405194,0.04046948,0.42265878,0.60434657,0.83424198
47081,0,USTennesseeHickman,Tennessee,Hickman,2021-01-05 10:36:44.586020,2020-03-16 00:00:00.000000,0.01072763,0.04043240,0.10700053,2,10,26,0,3,11,0.00166486,0.01528561,0.04416113,0.42250814,0.59932583,0.83400481
47081,0,USTennesseeHickman,Tennessee,Hickman,2021-01-05 10:36:44.586020,2020-03-17 00:00:00.000000,0.01546211,0.05177243,0.12399269,3,13,31,0,4,13,0.00371417,0.01874460,0.05351080,0.42323887,0.59685589,0.83274348
47081,0,USTennesseeHickman,Tennessee,Hickman,2021-01-05 10:36:44.586020,2020-03-18 00:00:00.000000,0.02064700,0.06389471,0.14252833,5,16,35,1,5,15,0.00646962,0.02274886,0.06193359,0.42140376,0.58955647,0.82786676
47081,0,USTennesseeHickman,Tennessee,Hickman,2021-01-05 10:36:44.586020,2020-03-19 00:00:00.000000,0.02646423,0.07760627,0.16283151,6,19,40,2,7,17,0.00893103,0.02848211,0.07048104,0.41845263,0.57892509,0.80837171
47081,0,USTennesseeHickman,Tennessee,Hickman,2021-01-05 10:36:44.586020,2020-03-20 00:00:00.000000,0.03303509,0.08892193,0.18501902,8,22,46,2,8,20,0.01124760,0.03556632,0.08007918,0.41442720,0.56402584,0.78200421
47081,0,USTennesseeHickman,Tennessee,Hickman,2021-01-05 10:36:44.586020,2020-03-21 00:00:00.000000,0.04047761,0.10296034,0.20844532,10,25,52,3,10,22,0.01428956,0.04179378,0.09073388,0.40087763,0.53239327,0.78121562
47081,0,USTennesseeHickman,Tennessee,Hickman,2021-01-05 10:36:44.586020,2020-03-22 00:00:00.000000,0.04849227,0.11644325,0.23241793,12,29,58,4,12,25,0.01802204,0.04863684,0.10241405,0.38535682,0.51173656,0.77634562
47081,0,USTennesseeHickman,Tennessee,Hickman,2021-01-05 10:36:44.586020,2020-03-23 00:00:00.000000,0.05600530,0.13393728,0.26065165,14,33,65,5,14,28,0.02219708,0.05635694,0.11503774,0.36747852,0.50243862,0.75524052
47081,0,USTennesseeHickman,Tennessee,Hickman,2021-01-05 10:36:44.586020,2020-03-24 00:00:00.000000,0.06449520,0.15018062,0.28750248,16,37,72,6,16,32,0.02706645,0.06540421,0.12869648,0.35009512,0.49459544,0.73221562
47081,0,USTennesseeHickman,Tennessee,Hickman,2021-01-05 10:36:44.586020,2020-03-25 00:00:00.000000,0.07382932,0.16523198,0.31267385,18,41,78,8,18,36,0.03254988,0.07388101,0.14316178,0.33021164,0.48601098,0.71485438
47081,0,USTennesseeHickman,Tennessee,Hickman,2021-01-05 10:36:44.586020,2020-03-26 00:00:00.000000,0.08403696,0.18191422,0.33859090,21,45,85,9,21,39,0.03842789,0.08524960,0.15825234,0.31287044,0.47617491,0.70483012
47081,0,USTennesseeHickman,Tennessee,Hickman,2021-01-05 10:36:44.586020,2020-03-27 00:00:00.000000,0.09533236,0.19981753,0.37838221,24,50,95,11,23,43,0.04432745,0.09423829,0.17386860,0.30890215,0.46674308,0.67401409
47081,0,USTennesseeHickman,Tennessee,Hickman,2021-01-05 10:36:44.586020,2020-03-28 00:00:00.000000,0.10517236,0.21494036,0.42033206,26,54,105,12,26,49,0.04964900,0.10535736,0.19639519,0.30444219,0.45643974,0.60707927
47081,0,USTennesseeHickman,Tennessee,Hickman,2021-01-05 10:36:44.586020,2020-03-29 00:00:00.000000,0.11312720,0.23237707,0.45372338,28,58,114,13,28,55,0.05403636,0.11302476,0.22218081,0.29478315,0.44031174,0.59616959
47081,0,USTennesseeHickman,Tennessee,Hickman,2021-01-05 10:36:44.586020,2020-03-30 00:00:00.000000,0.11886374,0.26454321,0.48367831,29,66,121,14,30,60,0.05852168,0.12055133,0.23918516,0.27628020,0.42834717,0.59191756
47081,0,USTennesseeHickman,Tennessee,Hickman,2021-01-05 10:36:44.586020,2020-03-31 00:00:00.000000,0.13754927,0.29750551,0.51721023,34,74,130,16,33,64,0.06600865,0.13406996,0.25547109,0.27245281,0.42251866,0.59134080
47081,0,USTennesseeHickman,Tennessee,Hickman,2021-01-05 10:36:44.586020,2020-04-01 00:00:00.000000,0.15675721,0.32920686,0.57076803,39,82,143,18,37,68,0.07165103,0.14851424,0.27158177,0.27042885,0.41134264,0.58879132
47081,0,USTennesseeHickman,Tennessee,Hickman,2021-01-05 10:36:44.586020,2020-04-02 00:00:00.000000,0.16507980,0.35302620,0.61115147,41,88,153,19,40,73,0.07679638,0.15954848,0.29028324,0.27084323,0.40057031,0.55194606
47081,0,USTennesseeHickman,Tennessee,Hickman,2021-01-05 10:36:44.586020,2020-04-03 00:00:00.000000,0.17293376,0.37959090,0.65043655,43,95,163,20,43,78,0.08193236,0.17272167,0.31019612,0.26672212,0.38547773,0.53213434
47081,0,USTennesseeHickman,Tennessee,Hickman,2021-01-05 10:36:44.586020,2020-04-04 00:00:00.000000,0.18024345,0.40472382,0.66900600,45,101,168,22,46,83,0.08998987,0.18565860,0.33016927,0.26367460,0.37627860,0.52223786
47081,0,USTennesseeHickman,Tennessee,Hickman,2021-01-05 10:36:44.586020,2020-04-05 00:00:00.000000,0.18708540,0.43652295,0.68193585,47,109,171,25,50,88,0.10163896,0.19920344,0.35033047,0.26341069,0.37498975,0.51727433
47081,0,USTennesseeHickman,Tennessee,Hickman,2021-01-05 10:36:44.586020,2020-04-06 00:00:00.000000,0.21239560,0.46099503,0.72674905,53,116,182,28,53,93,0.11393205,0.21423201,0.37094388,0.26327332,0.36349642,0.50033560
47081,0,USTennesseeHickman,Tennessee,Hickman,2021-01-05 10:36:44.586020,2020-04-07 00:00:00.000000,0.23756069,0.50324062,0.80007594,59,126,201,31,57,99,0.12405296,0.22958327,0.39390176,0.26328340,0.34806365,0.49859702
47081,0,USTennesseeHickman,Tennessee,Hickman,2021-01-05 10:36:44.586020,2020-04-08 00:00:00.000000,0.26320441,0.54046880,0.87447417,66,136,220,34,62,105,0.13618640,0.24664857,0.41844765,0.26335322,0.33852304,0.49304774
47081,0,USTennesseeHickman,Tennessee,Hickman,2021-01-05 10:36:44.586020,2020-04-09 00:00:00.000000,0.28948134,0.58187865,0.93162343,72,146,234,37,67,111,0.14748426,0.26803734,0.44433921,0.25448798,0.33976923,0.48966796
47081,0,USTennesseeHickman,Tennessee,Hickman,2021-01-05 10:36:44.586020,2020-04-10 00:00:00.000000,0.31632368,0.61734380,0.98502009,79,155,248,39,72,119,0.15530809,0.28948999,0.47534526,0.24769416,0.32767264,0.48346851
47081,0,USTennesseeHickman,Tennessee,Hickman,2021-01-05 10:36:44.586020,2020-04-11 00:00:00.000000,0.33826724,0.65570959,1.03398906,85,165,260,41,79,127,0.16312577,0.31432606,0.50711552,0.22968802,0.31567559,0.47090612
47081,0,USTennesseeHickman,Tennessee,Hickman,2021-01-05 10:36:44.586020,2020-04-12 00:00:00.000000,0.37206468,0.69430703,1.07258895,93,174,270,43,82,135,0.17105796,0.32951464,0.53812989,0.21695651,0.30509962,0.44758125
47081,0,USTennesseeHickman,Tennessee,Hickman,2021-01-05 10:36:44.586020,2020-04-13 00:00:00.000000,0.39462718,0.70756444,1.09954396,99,178,276,46,89,142,0.18646469,0.35385921,0.56650866,0.20866445,0.29584567,0.42557454
47081,0,USTennesseeHickman,Tennessee,Hickman,2021-01-05 10:36:44.586020,2020-04-14 00:00:00.000000,0.40444871,0.72890413,1.11401719,101,183,280,51,91,147,0.20286240,0.36537721,0.58619701,0.20758548,0.29116033,0.43304651
47081,0,USTennesseeHickman,Tennessee,Hickman,2021-01-05 10:36:44.586020,2020-04-15 00:00:00.000000,0.41842658,0.76629969,1.15194366,105,192,290,54,94,152,0.21816886,0.37633797,0.60555134,0.20193437,0.28503630,0.42788637
47081,0,USTennesseeHickman,Tennessee,Hickman,2021-01-05 10:36:44.586020,2020-04-16 00:00:00.000000,0.44779664,0.79228437,1.18377931,112,199,298,58,97,157,0.23306203,0.38797309,0.62585194,0.18729618,0.27694852,0.41699022
47081,0,USTennesseeHickman,Tennessee,Hickman,2021-01-05 10:36:44.586020,2020-04-17 00:00:00.000000,0.47601283,0.80589075,1.22436803,119,202,308,62,101,165,0.24893544,0.40269827,0.65857657,0.16567123,0.26347440,0.41053130
47081,0,USTennesseeHickman,Tennessee,Hickman,2021-01-05 10:36:44.586020,2020-04-18 00:00:00.000000,0.49606453,0.83000456,1.26398336,124,208,318,67,106,174,0.26861082,0.42397579,0.69109060,0.16238518,0.24874312,0.40234122
47081,0,USTennesseeHickman,Tennessee,Hickman,2021-01-05 10:36:44.586020,2020-04-19 00:00:00.000000,0.51549056,0.84540254,1.28967336,129,212,324,70,110,176,0.28153499,0.43789166,0.70236140,0.15668164,0.22470109,0.35539117
47081,0,USTennesseeHickman,Tennessee,Hickman,2021-01-05 10:36:44.586020,2020-04-20 00:00:00.000000,0.51944639,0.85062977,1.31266959,130,214,330,74,112,184,0.29440746,0.44714938,0.73138439,0.14753786,0.21043113,0.33442641
47081,0,USTennesseeHickman,Tennessee,Hickman,2021-01-05 10:36:44.586020,2020-04-21 00:00:00.000000,0.53211677,0.85826909,1.33134045,133,216,335,77,114,190,0.30618374,0.45666596,0.75803595,0.13826185,0.20647752,0.31399600
47081,0,USTennesseeHickman,Tennessee,Hickman,2021-01-05 10:36:44.586020,2020-04-22 00:00:00.000000,0.54775993,0.86560698,1.34506364,137,217,338,79,118,197,0.31553887,0.47218419,0.78248153,0.12987090,0.19961192,0.31399833
47081,0,USTennesseeHickman,Tennessee,Hickman,2021-01-05 10:36:44.586020,2020-04-23 00:00:00.000000,0.56145393,0.88280715,1.35232178,141,222,340,82,121,202,0.32614330,0.48233916,0.80466397,0.12317181,0.18613043,0.30385785
47081,0,USTennesseeHickman,Tennessee,Hickman,2021-01-05 10:36:44.586020,2020-04-24 00:00:00.000000,0.57314807,0.88033536,1.35256298,144,221,340,80,124,205,0.32114154,0.49455293,0.81481009,0.11772407,0.17465553,0.29144324
47081,0,USTennesseeHickman,Tennessee,Hickman,2021-01-05 10:36:44.586020,2020-04-25 00:00:00.000000,0.56932880,0.86466178,1.34664844,143,217,339,78,125,206,0.31232056,0.49741084,0.82101642,0.11286567,0.16583681,0.28284460
47081,0,USTennesseeHickman,Tennessee,Hickman,2021-01-05 10:36:44.586020,2020-04-26 00:00:00.000000,0.54194370,0.86286256,1.33551890,136,217,336,78,127,207,0.31359231,0.50498749,0.82335465,0.10883187,0.15787066,0.25347455
47081,0,USTennesseeHickman,Tennessee,Hickman,2021-01-05 10:36:44.586020,2020-04-27 00:00:00.000000,0.51232022,0.85050920,1.32342059,128,214,333,78,127,206,0.31023540,0.50457773,0.82208252,0.10575817,0.15252713,0.21787064
47081,0,USTennesseeHickman,Tennessee,Hickman,2021-01-05 10:36:44.586020,2020-04-28 00:00:00.000000,0.48386769,0.83661391,1.30930969,121,210,329,75,126,205,0.29956405,0.50229704,0.81746113,0.10329480,0.15160053,0.20895868
47081,0,USTennesseeHickman,Tennessee,Hickman,2021-01-05 10:36:44.586020,2020-04-29 00:00:00.000000,0.46066793,0.81962807,1.30962698,115,206,329,72,125,204,0.28944558,0.49970726,0.81045816,0.10237172,0.14629536,0.20467371
47081,0,USTennesseeHickman,Tennessee,Hickman,2021-01-05 10:36:44.586020,2020-04-30 00:00:00.000000,0.43983235,0.80128263,1.30489266,110,201,328,70,124,202,0.28013526,0.49561473,0.80449826,0.10175324,0.14462612,0.20289769
47081,0,USTennesseeHickman,Tennessee,Hickman,2021-01-05 10:36:44.586020,2020-05-01 00:00:00.000000,0.41717333,0.78050395,1.25789774,105,196,316,67,122,200,0.26978670,0.48770044,0.79630891,0.09799268,0.14064245,0.19770180
47081,0,USTennesseeHickman,Tennessee,Hickman,2021-01-05 10:36:44.586020,2020-05-02 00:00:00.000000,0.39485297,0.76547064,1.22684920,99,192,308,65,120,200,0.25839945,0.47980819,0.79474116,0.09532111,0.13761311,0.19093066
47081,0,USTennesseeHickman,Tennessee,Hickman,2021-01-05 10:36:44.586020,2020-05-03 00:00:00.000000,0.37335071,0.75159772,1.20724913,94,189,303,62,118,199,0.24649111,0.47188953,0.79271828,0.09284256,0.13765937,0.19075924
47081,0,USTennesseeHickman,Tennessee,Hickman,2021-01-05 10:36:44.586020,2020-05-04 00:00:00.000000,0.35813761,0.73678115,1.20308431,90,185,302,59,117,198,0.23524737,0.46549701,0.78654653,0.08868995,0.13555341,0.18923540
47081,0,USTennesseeHickman,Tennessee,Hickman,2021-01-05 10:36:44.586020,2020-05-05 00:00:00.000000,0.34397110,0.72265452,1.19902238,86,181,301,57,115,195,0.22697873,0.45849728,0.77707629,0.08531557,0.13318081,0.17995857
47081,0,USTennesseeHickman,Tennessee,Hickman,2021-01-05 10:36:44.586020,2020-05-06 00:00:00.000000,0.33093469,0.69800610,1.19542510,83,175,300,54,112,192,0.21718471,0.44518784,0.76433086,0.08431302,0.12857978,0.17982037
47081,0,USTennesseeHickman,Tennessee,Hickman,2021-01-05 10:36:44.586020,2020-05-07 00:00:00.000000,0.31891163,0.66942508,1.18364421,80,168,298,52,108,187,0.20847870,0.43104567,0.74552512,0.08285730,0.12748958,0.17951856
47081,0,USTennesseeHickman,Tennessee,Hickman,2021-01-05 10:36:44.586020,2020-05-08 00:00:00.000000,0.30782942,0.65071812,1.16243170,77,163,292,50,104,184,0.20061110,0.41671184,0.73459353,0.08228789,0.12493768,0.17885725
47081,0,USTennesseeHickman,Tennessee,Hickman,2021-01-05 10:36:44.586020,2020-05-09 00:00:00.000000,0.29769296,0.64329421,1.14101054,74,161,287,48,101,180,0.19262246,0.40238045,0.71863989,0.08315493,0.12161200,0.17740920
47081,0,USTennesseeHickman,Tennessee,Hickman,2021-01-05 10:36:44.586020,2020-05-10 00:00:00.000000,0.28709908,0.63061321,1.11585641,72,158,280,46,98,176,0.18462046,0.39050021,0.70209770,0.08744472,0.11929933,0.17444163
47081,0,USTennesseeHickman,Tennessee,Hickman,2021-01-05 10:36:44.586020,2020-05-11 00:00:00.000000,0.27786061,0.61398605,1.08761650,69,154,273,44,95,172,0.17625372,0.37810886,0.68562290,0.08654114,0.11739050,0.16882412
47081,0,USTennesseeHickman,Tennessee,Hickman,2021-01-05 10:36:44.586020,2020-05-12 00:00:00.000000,0.27424540,0.60207173,1.05982357,69,151,266,42,92,169,0.16980889,0.36542736,0.67148340,0.08318786,0.11773110,0.17416220
47081,0,USTennesseeHickman,Tennessee,Hickman,2021-01-05 10:36:44.586020,2020-05-13 00:00:00.000000,0.26500015,0.58491521,1.03281519,66,147,260,41,88,164,0.16310705,0.35152617,0.65334831,0.08231213,0.11826679,0.17632698
47081,0,USTennesseeHickman,Tennessee,Hickman,2021-01-05 10:36:44.586020,2020-05-14 00:00:00.000000,0.25215330,0.57444433,1.00628625,63,144,253,39,85,160,0.15688220,0.33945370,0.63606771,0.07919677,0.12067246,0.17710859
47081,0,USTennesseeHickman,Tennessee,Hickman,2021-01-05 10:36:44.586020,2020-05-15 00:00:00.000000,0.24066838,0.56007828,0.97999612,60,141,246,38,82,155,0.15107929,0.32834922,0.61942633,0.07612716,0.12118567,0.17837767
47081,0,USTennesseeHickman,Tennessee,Hickman,2021-01-05 10:36:44.586020,2020-05-16 00:00:00.000000,0.23037316,0.54429725,0.95388468,58,137,240,36,81,151,0.14571185,0.32234423,0.60323654,0.07648601,0.12220237,0.18191014
47081,0,USTennesseeHickman,Tennessee,Hickman,2021-01-05 10:36:44.586020,2020-05-17 00:00:00.000000,0.22087608,0.53092369,0.92807640,55,133,233,35,79,147,0.14086795,0.31492664,0.58736672,0.07725609,0.12289753,0.18201204
47081,0,USTennesseeHickman,Tennessee,Hickman,2021-01-05 10:36:44.586020,2020-05-18 00:00:00.000000,0.22028005,0.52530911,0.89298232,55,132,224,34,77,143,0.13665981,0.30647368,0.57176154,0.07738255,0.12402812,0.18071765
47081,0,USTennesseeHickman,Tennessee,Hickman,2021-01-05 10:36:44.586020,2020-05-19 00:00:00.000000,0.22027178,0.51042303,0.85861408,55,128,216,33,75,139,0.13231628,0.29852420,0.55435374,0.07740033,0.12437116,0.18019427
47081,0,USTennesseeHickman,Tennessee,Hickman,2021-01-05 10:36:44.586020,2020-05-20 00:00:00.000000,0.22148750,0.50081207,0.82499017,55,126,207,32,73,134,0.12812087,0.29238099,0.53589600,0.07740373,0.12634345,0.18000098
47081,0,USTennesseeHickman,Tennessee,Hickman,2021-01-05 10:36:44.586020,2020-05-21 00:00:00.000000,0.21955491,0.48944930,0.80804794,55,123,203,31,72,130,0.12414341,0.28786538,0.51694635,0.07741182,0.12814707,0.17994471
47081,0,USTennesseeHickman,Tennessee,Hickman,2021-01-05 10:36:44.586020,2020-05-22 00:00:00.000000,0.21084665,0.47971497,0.80276326,53,120,202,30,70,125,0.12039288,0.27975108,0.49791350,0.07746683,0.12954027,0.17996675
47081,0,USTennesseeHickman,Tennessee,Hickman,2021-01-05 10:36:44.586020,2020-05-23 00:00:00.000000,0.20297862,0.46693799,0.79744014,51,117,200,29,69,120,0.11686469,0.27456805,0.47910588,0.07785898,0.13135794,0.18017798
47081,0,USTennesseeHickman,Tennessee,Hickman,2021-01-05 10:36:44.586020,2020-05-24 00:00:00.000000,0.19600756,0.45669275,0.79144808,49,114,199,29,67,119,0.11545676,0.26999105,0.47518380,0.07929593,0.13424514,0.18144537
47081,0,USTennesseeHickman,Tennessee,Hickman,2021-01-05 10:36:44.586020,2020-05-25 00:00:00.000000,0.19241924,0.44728131,0.77488369,48,112,195,29,66,118,0.11683770,0.26467779,0.47223489,0.07734179,0.13166288,0.18754711
47081,0,USTennesseeHickman,Tennessee,Hickman,2021-01-05 10:36:44.586020,2020-05-26 00:00:00.000000,0.18974765,0.43851371,0.75760810,47,110,190,28,65,117,0.11513978,0.26191573,0.46719969,0.07663460,0.13269434,0.19134563
47081,0,USTennesseeHickman,Tennessee,Hickman,2021-01-05 10:36:44.586020,2020-05-27 00:00:00.000000,0.18826017,0.43119553,0.74026997,47,108,186,29,64,115,0.11613507,0.25695420,0.46056125,0.07787798,0.13327720,0.19392283
47081,0,USTennesseeHickman,Tennessee,Hickman,2021-01-05 10:36:44.586020,2020-05-28 00:00:00.000000,0.19730929,0.42467014,0.72306070,49,106,182,29,63,114,0.11714882,0.25242446,0.45281456,0.08748870,0.13387041,0.19730039
47081,0,USTennesseeHickman,Tennessee,Hickman,2021-01-05 10:36:44.586020,2020-05-29 00:00:00.000000,0.20575789,0.42224755,0.70614981,51,106,177,29,63,111,0.11647757,0.25087213,0.44433468,0.09159216,0.13692806,0.20173616
47081,0,USTennesseeHickman,Tennessee,Hickman,2021-01-05 10:36:44.586020,2020-05-30 00:00:00.000000,0.20257036,0.41692554,0.68976334,51,104,173,29,62,109,0.11565189,0.24899575,0.43540787,0.10074497,0.14086173,0.20726376
47081,0,USTennesseeHickman,Tennessee,Hickman,2021-01-05 10:36:44.586020,2020-05-31 00:00:00.000000,0.20001519,0.41418706,0.67405781,50,104,169,28,61,107,0.11478841,0.24560637,0.42627039,0.10074947,0.14469974,0.21009159
47081,0,USTennesseeHickman,Tennessee,Hickman,2021-01-05 10:36:44.586020,2020-06-01 00:00:00.000000,0.19770276,0.40913810,0.67806861,49,103,170,28,61,105,0.11404385,0.24229722,0.41711250,0.10070826,0.14639445,0.21182634
47081,0,USTennesseeHickman,Tennessee,Hickman,2021-01-05 10:36:44.586020,2020-06-02 00:00:00.000000,0.19603238,0.40237234,0.68587983,49,101,172,28,60,102,0.11380895,0.23982179,0.40878665,0.10066253,0.14973015,0.21851118
47081,0,USTennesseeHickman,Tennessee,Hickman,2021-01-05 10:36:44.586020,2020-06-03 00:00:00.000000,0.19497393,0.39418953,0.68961839,49,99,173,28,59,100,0.11400674,0.23811941,0.40113473,0.10064130,0.15615665,0.22385873
47081,0,USTennesseeHickman,Tennessee,Hickman,2021-01-05 10:36:44.586020,2020-06-04 00:00:00.000000,0.19458360,0.38999434,0.68561725,48,98,172,28,59,99,0.11453323,0.23680903,0.39403083,0.10068353,0.15923562,0.22911135
47081,0,USTennesseeHickman,Tennessee,Hickman,2021-01-05 10:36:44.586020,2020-06-05 00:00:00.000000,0.19501058,0.39219104,0.68224005,49,98,171,29,59,97,0.11530564,0.23531388,0.38800837,0.10101202,0.16315400,0.24026205
47081,0,USTennesseeHickman,Tennessee,Hickman,2021-01-05 10:36:44.586020,2020-06-06 00:00:00.000000,0.19642761,0.39319044,0.67960865,49,98,171,29,59,97,0.11626525,0.23668431,0.38732633,0.10381590,0.16684729,0.26014864
47081,0,USTennesseeHickman,Tennessee,Hickman,2021-01-05 10:36:44.586020,2020-06-07 00:00:00.000000,0.19889166,0.39064230,0.68104846,50,98,171,29,58,98,0.11736715,0.23376550,0.39234594,0.10773950,0.17223809,0.27541244
47081,0,USTennesseeHickman,Tennessee,Hickman,2021-01-05 10:36:44.586020,2020-06-08 00:00:00.000000,0.20598163,0.39568503,0.68166282,51,99,171,29,57,100,0.11858734,0.23019551,0.39736489,0.12192661,0.17674821,0.29096064
47081,0,USTennesseeHickman,Tennessee,Hickman,2021-01-05 10:36:44.586020,2020-06-09 00:00:00.000000,0.19804117,0.39732363,0.68229638,49,100,171,30,56,101,0.11955366,0.22612350,0.40159772,0.12694264,0.17858865,0.29847212
47081,0,USTennesseeHickman,Tennessee,Hickman,2021-01-05 10:36:44.586020,2020-06-10 00:00:00.000000,0.20551596,0.39846325,0.70562396,51,100,177,30,55,101,0.12044323,0.22203469,0.40315661,0.12881622,0.18130033,0.30382179
47081,0,USTennesseeHickman,Tennessee,Hickman,2021-01-05 10:36:44.586020,2020-06-11 00:00:00.000000,0.21484450,0.40255986,0.69258337,54,101,174,30,55,102,0.12147188,0.22073221,0.40746491,0.13054893,0.18577584,0.31275635
47081,0,USTennesseeHickman,Tennessee,Hickman,2021-01-05 10:36:44.586020,2020-06-12 00:00:00.000000,0.22620002,0.40543031,0.69559163,56,102,175,30,56,103,0.12275597,0.22460130,0.41147969,0.13064368,0.19000894,0.32575210
47081,0,USTennesseeHickman,Tennessee,Hickman,2021-01-05 10:36:44.586020,2020-06-13 00:00:00.000000,0.22621105,0.41001761,0.70664728,56,103,177,30,56,104,0.12124323,0.22532443,0.41480105,0.13170362,0.19850503,0.33598394
47081,0,USTennesseeHickman,Tennessee,Hickman,2021-01-05 10:36:44.586020,2020-06-14 00:00:00.000000,0.23803012,0.41621272,0.71845203,59,104,180,31,57,105,0.12612082,0.22717555,0.41747219,0.13851482,0.20773394,0.34219367
47081,0,USTennesseeHickman,Tennessee,Hickman,2021-01-05 10:36:44.586020,2020-06-15 00:00:00.000000,0.25173649,0.42558713,0.73887130,63,107,186,32,57,105,0.12921702,0.22817512,0.41948183,0.13855127,0.21469337,0.35512012
47081,0,USTennesseeHickman,Tennessee,Hickman,2021-01-05 10:36:44.586020,2020-06-16 00:00:00.000000,0.24392358,0.43838054,0.75954575,61,110,191,34,58,105,0.13622991,0.23063987,0.42075024,0.13857127,0.21812979,0.37158045
47081,0,USTennesseeHickman,Tennessee,Hickman,2021-01-05 10:36:44.586020,2020-06-17 00:00:00.000000,0.23651564,0.45182821,0.76427836,59,113,192,34,59,106,0.13693838,0.23541137,0.42263067,0.13858314,0.22237919,0.38028032
47081,0,USTennesseeHickman,Tennessee,Hickman,2021-01-05 10:36:44.586020,2020-06-18 00:00:00.000000,0.22946734,0.46858837,0.78234978,57,117,196,35,60,106,0.14250827,0.23937400,0.42348766,0.13860514,0.23034324,0.38198706
47081,0,USTennesseeHickman,Tennessee,Hickman,2021-01-05 10:36:44.586020,2020-06-19 00:00:00.000000,0.22275600,0.48272121,0.82596023,56,121,207,37,61,109,0.14865621,0.24496322,0.43312956,0.13871135,0.24372300,0.38241654
47081,0,USTennesseeHickman,Tennessee,Hickman,2021-01-05 10:36:44.586020,2020-06-20 00:00:00.000000,0.21640086,0.49278731,0.84997719,54,124,214,39,63,112,0.15520941,0.25130572,0.44592141,0.13930482,0.25543009,0.38442576
47081,0,USTennesseeHickman,Tennessee,Hickman,2021-01-05 10:36:44.586020,2020-06-21 00:00:00.000000,0.21060075,0.51070677,0.87469299,53,128,220,39,65,118,0.15505311,0.25973845,0.47019946,0.14255645,0.27125481,0.39524675
47081,0,USTennesseeHickman,Tennessee,Hickman,2021-01-05 10:36:44.586020,2020-06-22 00:00:00.000000,0.21246235,0.52711375,0.88776845,53,132,223,37,67,121,0.15076836,0.26710286,0.48402466,0.15763780,0.27959916,0.40040693
47081,0,USTennesseeHickman,Tennessee,Hickman,2021-01-05 10:36:44.586020,2020-06-23 00:00:00.000000,0.21746292,0.54516354,0.92838147,54,137,233,37,70,124,0.14985509,0.27929595,0.49468557,0.18078251,0.28295792,0.40411381
47081,0,USTennesseeHickman,Tennessee,Hickman,2021-01-05 10:36:44.586020,2020-06-24 00:00:00.000000,0.22516831,0.56175299,0.97100649,56,141,244,38,73,126,0.15177116,0.29177869,0.50363640,0.21027209,0.29066696,0.42544741
47081,0,USTennesseeHickman,Tennessee,Hickman,2021-01-05 10:36:44.586020,2020-06-25 00:00:00.000000,0.23388246,0.58269723,1.01569642,58,146,255,39,76,128,0.15592606,0.30531957,0.51149141,0.21579187,0.30307616,0.44501626
47081,0,USTennesseeHickman,Tennessee,Hickman,2021-01-05 10:36:44.586020,2020-06-26 00:00:00.000000,0.24304712,0.60800350,1.06246054,61,153,267,40,80,130,0.16136678,0.31806136,0.51868688,0.21639625,0.32124684,0.44922942
47081,0,USTennesseeHickman,Tennessee,Hickman,2021-01-05 10:36:44.586020,2020-06-27 00:00:00.000000,0.25263069,0.64306377,1.11130142,63,161,279,42,82,132,0.16744556,0.32915170,0.52546013,0.22799294,0.33222352,0.45134969
47081,0,USTennesseeHickman,Tennessee,Hickman,2021-01-05 10:36:44.586020,2020-06-28 00:00:00.000000,0.26517860,0.67969893,1.17039687,66,171,294,43,86,138,0.17386955,0.34211071,0.54884404,0.23818462,0.34558252,0.45233291
47081,0,USTennesseeHickman,Tennessee,Hickman,2021-01-05 10:36:44.586020,2020-06-29 00:00:00.000000,0.28379960,0.72109422,1.22765876,71,181,309,45,90,145,0.18068441,0.35864919,0.57861277,0.24826163,0.35692423,0.46024975
47081,0,USTennesseeHickman,Tennessee,Hickman,2021-01-05 10:36:44.586020,2020-06-30 00:00:00.000000,0.30464042,0.76026859,1.29167593,76,191,325,47,95,153,0.19009094,0.37820366,0.60924474,0.25341598,0.36454193,0.46844733
47081,0,USTennesseeHickman,Tennessee,Hickman,2021-01-05 10:36:44.586020,2020-07-01 00:00:00.000000,0.32647514,0.79712247,1.36294251,82,200,343,50,100,161,0.20142899,0.39821070,0.64115391,0.25835573,0.37421800,0.46128836
47081,0,USTennesseeHickman,Tennessee,Hickman,2021-01-05 10:36:44.586020,2020-07-02 00:00:00.000000,0.34956431,0.84596352,1.43812287,88,212,362,53,105,169,0.21421441,0.42011363,0.67517480,0.26257594,0.37507245,0.47177801
47081,0,USTennesseeHickman,Tennessee,Hickman,2021-01-05 10:36:44.586020,2020-07-03 00:00:00.000000,0.37798163,0.89393184,1.51370560,95,225,381,57,112,179,0.22804717,0.44553015,0.71133256,0.26604344,0.37255825,0.47793968
47081,0,USTennesseeHickman,Tennessee,Hickman,2021-01-05 10:36:44.586020,2020-07-04 00:00:00.000000,0.41092287,0.93725500,1.58798032,103,235,399,61,117,188,0.24295139,0.46725879,0.74906052,0.26946202,0.37425417,0.47683216
47081,0,USTennesseeHickman,Tennessee,Hickman,2021-01-05 10:36:44.586020,2020-07-05 00:00:00.000000,0.44690086,0.98736456,1.66066849,112,248,418,66,124,195,0.26402818,0.49404537,0.77729012,0.27060318,0.37330031,0.48370004
47081,0,USTennesseeHickman,Tennessee,Hickman,2021-01-05 10:36:44.586020,2020-07-06 00:00:00.000000,0.51039539,1.04438238,1.72809104,128,262,435,72,131,200,0.28713068,0.52149549,0.79571102,0.27184316,0.38289296,0.49562753
47081,0,USTennesseeHickman,Tennessee,Hickman,2021-01-05 10:36:44.586020,2020-07-07 00:00:00.000000,0.57981035,1.10380564,1.79547665,145,277,452,81,138,206,0.32185611,0.54884958,0.82203375,0.27600229,0.38482561,0.49524584
47081,0,USTennesseeHickman,Tennessee,Hickman,2021-01-05 10:36:44.586020,2020-07-08 00:00:00.000000,0.65784943,1.15583114,1.86349067,165,291,469,88,143,213,0.35295353,0.57074910,0.84785995,0.28219422,0.38371461,0.48879246
47081,0,USTennesseeHickman,Tennessee,Hickman,2021-01-05 10:36:44.586020,2020-07-09 00:00:00.000000,0.74358264,1.20312499,1.93272231,187,302,486,101,149,219,0.40169315,0.59483495,0.87198952,0.28926634,0.38362625,0.47120655
47081,0,USTennesseeHickman,Tennessee,Hickman,2021-01-05 10:36:44.586020,2020-07-10 00:00:00.000000,0.82431957,1.24173771,2.00355635,207,312,504,113,156,225,0.44977789,0.62307095,0.89491634,0.29569281,0.38106552,0.46487309
47081,0,USTennesseeHickman,Tennessee,Hickman,2021-01-05 10:36:44.586020,2020-07-11 00:00:00.000000,0.90309590,1.29140405,2.05860881,227,325,518,122,165,231,0.48566292,0.65556501,0.91997573,0.29523723,0.38173583,0.45724605
47081,0,USTennesseeHickman,Tennessee,Hickman,2021-01-05 10:36:44.586020,2020-07-12 00:00:00.000000,0.94591065,1.36287725,2.09554138,238,343,527,128,173,241,0.51183606,0.69020439,0.95781000,0.29016837,0.38100027,0.44859926
47081,0,USTennesseeHickman,Tennessee,Hickman,2021-01-05 10:36:44.586020,2020-07-13 00:00:00.000000,0.99739835,1.41492396,2.12685197,251,356,535,135,181,250,0.53993440,0.72058484,0.99522687,0.28747831,0.37868520,0.44473816
47081,0,USTennesseeHickman,Tennessee,Hickman,2021-01-05 10:36:44.586020,2020-07-14 00:00:00.000000,1.05612271,1.48269424,2.17567763,265,373,547,143,190,263,0.57110279,0.75470833,1.04726160,0.28661950,0.37281789,0.46985037
47081,0,USTennesseeHickman,Tennessee,Hickman,2021-01-05 10:36:44.586020,2020-07-15 00:00:00.000000,1.12387639,1.55427877,2.21365384,282,391,557,150,197,279,0.59926775,0.78572603,1.10826174,0.28906919,0.36645440,0.47876135
47081,0,USTennesseeHickman,Tennessee,Hickman,2021-01-05 10:36:44.586020,2020-07-16 00:00:00.000000,1.18807284,1.62928930,2.29803618,299,410,578,157,206,295,0.62659838,0.81976967,1.17232966,0.28581005,0.36089169,0.47599101
47081,0,USTennesseeHickman,Tennessee,Hickman,2021-01-05 10:36:44.586020,2020-07-17 00:00:00.000000,1.25453744,1.71776113,2.36283885,315,432,594,164,216,311,0.65497297,0.85867357,1.23831338,0.27717280,0.34945292,0.47042233
47081,0,USTennesseeHickman,Tennessee,Hickman,2021-01-05 10:36:44.586020,2020-07-18 00:00:00.000000,1.32335522,1.79317780,2.44739207,333,451,616,172,226,327,0.68420517,0.89780744,1.30190370,0.27134638,0.33753907,0.46027925
47081,0,USTennesseeHickman,Tennessee,Hickman,2021-01-05 10:36:44.586020,2020-07-19 00:00:00.000000,1.37239184,1.84322997,2.54017738,345,464,639,178,236,342,0.71085926,0.93917837,1.36073125,0.26641703,0.34028283,0.44307225
47081,0,USTennesseeHickman,Tennessee,Hickman,2021-01-05 10:36:44.586020,2020-07-20 00:00:00.000000,1.40209711,1.88135792,2.63287289,353,473,662,185,246,353,0.73835402,0.97969125,1.40293675,0.26338030,0.34035529,0.42711436
47081,0,USTennesseeHickman,Tennessee,Hickman,2021-01-05 10:36:44.586020,2020-07-21 00:00:00.000000,1.42940542,1.92852001,2.74154370,359,485,690,193,258,362,0.76744353,1.02492582,1.44144991,0.26173197,0.33956087,0.42872049
47081,0,USTennesseeHickman,Tennessee,Hickman,2021-01-05 10:36:44.586020,2020-07-22 00:00:00.000000,1.45513435,1.99484375,2.82527475,366,502,711,200,267,371,0.79740653,1.06255288,1.47636525,0.25979777,0.33237820,0.41100876
47081,0,USTennesseeHickman,Tennessee,Hickman,2021-01-05 10:36:44.586020,2020-07-23 00:00:00.000000,1.49596324,2.04662837,2.87488011,376,515,723,208,276,383,0.82687497,1.09892665,1.52342154,0.25955864,0.32845728,0.40700916
47081,0,USTennesseeHickman,Tennessee,Hickman,2021-01-05 10:36:44.586020,2020-07-24 00:00:00.000000,1.55374072,2.09545752,2.91612593,391,527,734,215,287,397,0.85424495,1.14082291,1.57985777,0.25446158,0.32232348,0.40239414
47081,0,USTennesseeHickman,Tennessee,Hickman,2021-01-05 10:36:44.586020,2020-07-25 00:00:00.000000,1.61351265,2.14640699,2.99328319,406,540,753,221,294,410,0.87917810,1.17148609,1.63176744,0.24519640,0.31764474,0.38995489
47081,0,USTennesseeHickman,Tennessee,Hickman,2021-01-05 10:36:44.586020,2020-07-26 00:00:00.000000,1.67751746,2.19897457,3.06735192,422,553,772,227,302,422,0.90224762,1.20046551,1.67987410,0.23231929,0.30982687,0.38531808
47081,0,USTennesseeHickman,Tennessee,Hickman,2021-01-05 10:36:44.586020,2020-07-27 00:00:00.000000,1.74805822,2.26464478,3.13964730,440,570,790,232,309,434,0.92412058,1.22888367,1.72392277,0.21595777,0.30137533,0.39214432
47081,0,USTennesseeHickman,Tennessee,Hickman,2021-01-05 10:36:44.586020,2020-07-28 00:00:00.000000,1.79162259,2.32281978,3.18137550,451,584,801,238,318,443,0.94553523,1.26604768,1.76259564,0.21668414,0.29619945,0.39229621
47081,0,USTennesseeHickman,Tennessee,Hickman,2021-01-05 10:36:44.586020,2020-07-29 00:00:00.000000,1.82870725,2.38660761,3.20815412,460,600,807,243,329,452,0.96677606,1.30692482,1.79539710,0.22555026,0.29276648,0.39071976
47081,0,USTennesseeHickman,Tennessee,Hickman,2021-01-05 10:36:44.586020,2020-07-30 00:00:00.000000,1.86840636,2.42081922,3.23014542,470,609,813,248,335,458,0.98806701,1.33298257,1.82261603,0.22819242,0.29091057,0.38277588
47081,0,USTennesseeHickman,Tennessee,Hickman,2021-01-05 10:36:44.586020,2020-07-31 00:00:00.000000,1.91949146,2.50376533,3.25141752,483,630,818,258,343,464,1.02542765,1.36402516,1.84518545,0.22150329,0.28990145,0.37710375
47081,0,USTennesseeHickman,Tennessee,Hickman,2021-01-05 10:36:44.586020,2020-08-01 00:00:00.000000,1.95386406,2.56906785,3.33074805,491,646,838,262,351,469,1.04359710,1.39535230,1.86434317,0.21576261,0.28057682,0.38399086
47081,0,USTennesseeHickman,Tennessee,Hickman,2021-01-05 10:36:44.586020,2020-08-02 00:00:00.000000,1.96938824,2.60826111,3.35660503,495,656,845,267,360,479,1.06342013,1.43122317,1.90616502,0.22021206,0.27488918,0.40407278
47081,0,USTennesseeHickman,Tennessee,Hickman,2021-01-05 10:36:44.586020,2020-08-03 00:00:00.000000,1.97839869,2.66501392,3.36723602,498,670,847,275,366,491,1.09599640,1.45741227,1.95159608,0.22464893,0.27163538,0.40565422
47081,0,USTennesseeHickman,Tennessee,Hickman,2021-01-05 10:36:44.586020,2020-08-04 00:00:00.000000,1.98317223,2.70199801,3.41701446,499,680,860,280,375,498,1.11341986,1.49126671,1.98133717,0.22714658,0.27033204,0.40603429
47081,0,USTennesseeHickman,Tennessee,Hickman,2021-01-05 10:36:44.586020,2020-08-05 00:00:00.000000,1.98759080,2.73100059,3.48191691,500,687,876,285,380,503,1.13511373,1.50995784,1.99948969,0.22778893,0.26718188,0.40575539
47081,0,USTennesseeHickman,Tennessee,Hickman,2021-01-05 10:36:44.586020,2020-08-06 00:00:00.000000,2.03772388,2.75064077,3.55039003,513,692,893,291,381,506,1.15769681,1.51580425,2.01095300,0.22712604,0.26675608,0.40493579
47081,0,USTennesseeHickman,Tennessee,Hickman,2021-01-05 10:36:44.586020,2020-08-07 00:00:00.000000,2.11336630,2.78273823,3.61982215,532,700,911,301,383,508,1.19884967,1.52472249,2.01881681,0.22190836,0.26666710,0.40304948
47081,0,USTennesseeHickman,Tennessee,Hickman,2021-01-05 10:36:44.586020,2020-08-08 00:00:00.000000,2.11763728,2.80473702,3.68525826,533,706,927,305,387,514,1.21336014,1.53927499,2.04329114,0.21957086,0.26786489,0.39903420
47081,0,USTennesseeHickman,Tennessee,Hickman,2021-01-05 10:36:44.586020,2020-08-09 00:00:00.000000,2.11946760,2.81247762,3.73762931,533,708,941,307,397,520,1.22157635,1.57796188,2.06764173,0.22084062,0.26853525,0.39193281
47081,0,USTennesseeHickman,Tennessee,Hickman,2021-01-05 10:36:44.586020,2020-08-10 00:00:00.000000,2.11918835,2.83439311,3.77395425,533,713,950,309,398,523,1.22901031,1.58223253,2.08075511,0.22071017,0.26811423,0.38164532
47081,0,USTennesseeHickman,Tennessee,Hickman,2021-01-05 10:36:44.586020,2020-08-11 00:00:00.000000,2.11832818,2.86095815,3.80062903,533,720,956,311,398,527,1.23645930,1.58440169,2.09501016,0.22128948,0.27140182,0.37912269
47081,0,USTennesseeHickman,Tennessee,Hickman,2021-01-05 10:36:44.586020,2020-08-12 00:00:00.000000,2.11694329,2.87324094,3.82335497,533,723,962,313,401,533,1.24467384,1.59596632,2.11847177,0.22379558,0.27011987,0.37422510
47081,0,USTennesseeHickman,Tennessee,Hickman,2021-01-05 10:36:44.586020,2020-08-13 00:00:00.000000,2.11512135,2.91356630,3.84413535,532,733,967,314,407,543,1.24884519,1.61717100,2.15856076,0.22188542,0.26794323,0.35750764
47081,0,USTennesseeHickman,Tennessee,Hickman,2021-01-05 10:36:44.586020,2020-08-14 00:00:00.000000,2.11295349,2.93706626,3.86359125,531,739,972,314,411,550,1.25100515,1.63527881,2.18698001,0.22082807,0.26840416,0.36253369
47081,0,USTennesseeHickman,Tennessee,Hickman,2021-01-05 10:36:44.586020,2020-08-15 00:00:00.000000,2.11098489,2.98074083,3.88193946,531,750,977,315,417,559,1.25291018,1.65721195,2.22059133,0.22076294,0.26863446,0.36423022
47081,0,USTennesseeHickman,Tennessee,Hickman,2021-01-05 10:36:44.586020,2020-08-16 00:00:00.000000,2.11195824,3.00260597,3.92202661,531,755,987,315,420,564,1.25467239,1.66887469,2.24120811,0.22125277,0.26842212,0.36408429
47081,0,USTennesseeHickman,Tennessee,Hickman,2021-01-05 10:36:44.586020,2020-08-17 00:00:00.000000,2.11570328,3.02759899,3.97148786,532,762,999,316,422,568,1.25678913,1.67952433,2.25871033,0.22168928,0.26678189,0.36331986
47081,0,USTennesseeHickman,Tennessee,Hickman,2021-01-05 10:36:44.586020,2020-08-18 00:00:00.000000,2.15663699,3.04717819,3.97721890,542,767,1001,317,430,579,1.25941823,1.70962942,2.30209802,0.22197061,0.26802041,0.35205153
47081,0,USTennesseeHickman,Tennessee,Hickman,2021-01-05 10:36:44.586020,2020-08-19 00:00:00.000000,2.19797014,3.06451336,4.03140977,553,771,1015,317,437,595,1.26078139,1.73590479,2.36505528,0.22051480,0.26977010,0.35198977
47081,0,USTennesseeHickman,Tennessee,Hickman,2021-01-05 10:36:44.586020,2020-08-20 00:00:00.000000,2.21137346,3.09333215,4.11895922,556,778,1037,318,441,611,1.26310046,1.75156898,2.42834080,0.21758240,0.27291010,0.35205862
47081,0,USTennesseeHickman,Tennessee,Hickman,2021-01-05 10:36:44.586020,2020-08-21 00:00:00.000000,2.19977627,3.12814440,4.20696841,553,787,1059,318,443,617,1.26593255,1.76011241,2.45126575,0.21779024,0.27904084,0.35145535
47081,0,USTennesseeHickman,Tennessee,Hickman,2021-01-05 10:36:44.586020,2020-08-22 00:00:00.000000,2.18420158,3.16282369,4.29523793,549,796,1081,319,447,622,1.26925743,1.77729558,2.47111791,0.21804536,0.28120509,0.35331219
47081,0,USTennesseeHickman,Tennessee,Hickman,2021-01-05 10:36:44.586020,2020-08-23 00:00:00.000000,2.16190816,3.19775996,4.38106503,544,805,1103,319,453,627,1.26879808,1.79979572,2.49049305,0.21848595,0.28520748,0.37012530
47081,0,USTennesseeHickman,Tennessee,Hickman,2021-01-05 10:36:44.586020,2020-08-24 00:00:00.000000,2.14268077,3.23332295,4.40665171,539,814,1109,321,455,631,1.27812971,1.80751728,2.50974122,0.21937178,0.28803842,0.37193162
47081,0,USTennesseeHickman,Tennessee,Hickman,2021-01-05 10:36:44.586020,2020-08-25 00:00:00.000000,2.12282853,3.26028553,4.42935276,534,820,1115,323,455,636,1.28584859,1.80813487,2.52988589,0.22068842,0.29383538,0.37227071
47081,0,USTennesseeHickman,Tennessee,Hickman,2021-01-05 10:36:44.586020,2020-08-26 00:00:00.000000,2.12904847,3.28325224,4.44978754,536,826,1120,326,458,642,1.29807351,1.81957656,2.55128261,0.22388837,0.29467036,0.37212157
47081,0,USTennesseeHickman,Tennessee,Hickman,2021-01-05 10:36:44.586020,2020-08-27 00:00:00.000000,2.17104205,3.33630758,4.49787032,546,840,1132,331,465,648,1.31541239,1.84862591,2.57367600,0.22664475,0.29260919,0.37162484
47081,0,USTennesseeHickman,Tennessee,Hickman,2021-01-05 10:36:44.586020,2020-08-28 00:00:00.000000,2.17036057,3.36176041,4.54819893,546,846,1145,336,474,653,1.33705145,1.88487011,2.59664247,0.22618359,0.29568285,0.37678534
47081,0,USTennesseeHickman,Tennessee,Hickman,2021-01-05 10:36:44.586020,2020-08-29 00:00:00.000000,2.16776818,3.41284839,4.59725825,545,859,1157,342,477,659,1.36169267,1.89592307,2.62024787,0.22774045,0.28788996,0.38174313
47081,0,USTennesseeHickman,Tennessee,Hickman,2021-01-05 10:36:44.586020,2020-08-30 00:00:00.000000,2.17568210,3.42156997,4.63097949,547,861,1165,343,478,665,1.36605192,1.90038995,2.64250202,0.22553845,0.28297276,0.38465584
47081,0,USTennesseeHickman,Tennessee,Hickman,2021-01-05 10:36:44.586020,2020-08-31 00:00:00.000000,2.19245890,3.45475716,4.65995384,552,869,1173,340,481,678,1.35247837,1.91332445,2.69544926,0.22883330,0.28337828,0.38665973
47081,0,USTennesseeHickman,Tennessee,Hickman,2021-01-05 10:36:44.586020,2020-09-01 00:00:00.000000,2.20739004,3.49192630,4.70225352,555,879,1183,337,485,693,1.34153501,1.92792898,2.75420692,0.21978680,0.28322729,0.38727831
47081,0,USTennesseeHickman,Tennessee,Hickman,2021-01-05 10:36:44.586020,2020-09-02 00:00:00.000000,2.21784147,3.52307795,4.72421116,558,887,1189,335,489,695,1.33219810,1.94481388,2.76239692,0.21291199,0.28574782,0.38553134
47081,0,USTennesseeHickman,Tennessee,Hickman,2021-01-05 10:36:44.586020,2020-09-03 00:00:00.000000,2.22737199,3.55060833,4.74620813,560,893,1195,333,497,697,1.32541178,1.97548585,2.76830977,0.21743292,0.28708482,0.37977082
47081,0,USTennesseeHickman,Tennessee,Hickman,2021-01-05 10:36:44.586020,2020-09-04 00:00:00.000000,2.23829049,3.57981569,4.76602076,563,901,1199,333,504,699,1.32592461,2.00334426,2.77671069,0.22657751,0.29016049,0.37384892
47081,0,USTennesseeHickman,Tennessee,Hickman,2021-01-05 10:36:44.586020,2020-09-05 00:00:00.000000,2.25355660,3.61920058,4.79249638,567,911,1206,336,511,702,1.33701423,2.03028720,2.79100940,0.22789866,0.29234417,0.37562016
47081,0,USTennesseeHickman,Tennessee,Hickman,2021-01-05 10:36:44.586020,2020-09-06 00:00:00.000000,2.27625671,3.65329593,4.86144545,573,919,1224,341,516,709,1.35609810,2.05276073,2.81840104,0.22759471,0.29788665,0.37742853
47081,0,USTennesseeHickman,Tennessee,Hickman,2021-01-05 10:36:44.586020,2020-09-07 00:00:00.000000,2.30815247,3.68232152,4.98075853,581,927,1254,347,522,723,1.37973899,2.07687639,2.87372137,0.22296890,0.30449516,0.37776209
47081,0,USTennesseeHickman,Tennessee,Hickman,2021-01-05 10:36:44.586020,2020-09-08 00:00:00.000000,2.34219766,3.70949154,5.10321639,589,933,1284,353,531,735,1.40426681,2.11095094,2.92167336,0.21877138,0.30599137,0.37728326
47081,0,USTennesseeHickman,Tennessee,Hickman,2021-01-05 10:36:44.586020,2020-09-09 00:00:00.000000,2.37637967,3.72603486,5.22670165,598,938,1315,359,535,745,1.42924298,2.12634361,2.95940105,0.21352390,0.30762843,0.37746913
47081,0,USTennesseeHickman,Tennessee,Hickman,2021-01-05 10:36:44.586020,2020-09-10 00:00:00.000000,2.40947122,3.77044536,5.32693602,606,949,1341,366,535,752,1.45435257,2.12883261,2.98956407,0.21258469,0.30618168,0.37859510
47081,0,USTennesseeHickman,Tennessee,Hickman,2021-01-05 10:36:44.586020,2020-09-11 00:00:00.000000,2.44062662,3.79091488,5.37720497,614,954,1353,372,540,758,1.47924876,2.14676321,3.01388226,0.21217178,0.31086453,0.38056677
47081,0,USTennesseeHickman,Tennessee,Hickman,2021-01-05 10:36:44.586020,2020-09-12 00:00:00.000000,2.46924592,3.81817049,5.38596871,621,961,1356,378,547,763,1.50345579,2.17476102,3.03244624,0.21206114,0.30723848,0.36455081
47081,0,USTennesseeHickman,Tennessee,Hickman,2021-01-05 10:36:44.586020,2020-09-13 00:00:00.000000,2.49504225,3.83957401,5.36199323,628,966,1350,384,554,766,1.52664741,2.20400777,3.04332127,0.21096945,0.29952652,0.37424014
47081,0,USTennesseeHickman,Tennessee,Hickman,2021-01-05 10:36:44.586020,2020-09-14 00:00:00.000000,2.51134206,3.86867501,5.31734074,632,974,1338,390,563,774,1.54899877,2.23824258,3.07503694,0.21375027,0.29890522,0.37811080
47081,0,USTennesseeHickman,Tennessee,Hickman,2021-01-05 10:36:44.586020,2020-09-15 00:00:00.000000,2.52547857,3.89321522,5.32212873,635,980,1340,395,568,784,1.57108062,2.25873893,3.11600228,0.22010297,0.29829827,0.37149886
47081,0,USTennesseeHickman,Tennessee,Hickman,2021-01-05 10:36:44.586020,2020-09-16 00:00:00.000000,2.53830524,3.89015520,5.33603495,639,979,1343,397,576,792,1.57847663,2.28822631,3.14939234,0.21854407,0.29176999,0.37445352
47081,0,USTennesseeHickman,Tennessee,Hickman,2021-01-05 10:36:44.586020,2020-09-17 00:00:00.000000,2.55162924,3.90919554,5.33128874,642,984,1342,397,582,798,1.57865199,2.31225616,3.17120166,0.21968649,0.28606510,0.37859022
47081,0,USTennesseeHickman,Tennessee,Hickman,2021-01-05 10:36:44.586020,2020-09-18 00:00:00.000000,2.56795798,3.94353457,5.32708229,646,992,1341,397,584,799,1.57864865,2.32056655,3.17662051,0.21571143,0.28422470,0.37122464
47081,0,USTennesseeHickman,Tennessee,Hickman,2021-01-05 10:36:44.586020,2020-09-19 00:00:00.000000,2.59012326,3.94475585,5.33405962,652,993,1343,397,579,797,1.57845491,2.30303834,3.16559093,0.21321638,0.28474268,0.36705533
47081,0,USTennesseeHickman,Tennessee,Hickman,2021-01-05 10:36:44.586020,2020-09-20 00:00:00.000000,2.63368689,3.97875992,5.30752571,663,1001,1336,397,580,791,1.57812308,2.30547199,3.14172833,0.21260568,0.28643149,0.36583885
47081,0,USTennesseeHickman,Tennessee,Hickman,2021-01-05 10:36:44.586020,2020-09-21 00:00:00.000000,2.68695081,3.98739416,5.31640736,676,1003,1338,397,584,793,1.57813637,2.32139799,3.15136796,0.21310023,0.28280853,0.36549321
47081,0,USTennesseeHickman,Tennessee,Hickman,2021-01-05 10:36:44.586020,2020-09-22 00:00:00.000000,2.73622356,4.00850193,5.33525964,688,1009,1343,397,586,798,1.57970186,2.32778887,3.17168622,0.20543998,0.28092040,0.36505905
47081,0,USTennesseeHickman,Tennessee,Hickman,2021-01-05 10:36:44.586020,2020-09-23 00:00:00.000000,2.75536642,3.99985605,5.34908873,693,1007,1346,398,588,795,1.58347429,2.33933396,3.16084197,0.20525945,0.27824878,0.37000962
47081,0,USTennesseeHickman,Tennessee,Hickman,2021-01-05 10:36:44.586020,2020-09-24 00:00:00.000000,2.79996131,3.99297861,5.35794459,704,1005,1349,400,589,795,1.58877787,2.34244966,3.16116945,0.20684577,0.27697114,0.37229141
47081,0,USTennesseeHickman,Tennessee,Hickman,2021-01-05 10:36:44.586020,2020-09-25 00:00:00.000000,2.78055289,3.97377044,5.36264466,700,1000,1350,397,589,799,1.57977763,2.34247786,3.17473835,0.20714817,0.27480636,0.37080407
47081,0,USTennesseeHickman,Tennessee,Hickman,2021-01-05 10:36:44.586020,2020-09-26 00:00:00.000000,2.76474469,3.98884734,5.39736927,696,1004,1358,394,585,802,1.56861434,2.32662520,3.18680675,0.20845991,0.27644803,0.37198187
47081,0,USTennesseeHickman,Tennessee,Hickman,2021-01-05 10:36:44.586020,2020-09-27 00:00:00.000000,2.75229583,3.99376575,5.43350806,692,1005,1368,398,580,805,1.58457620,2.30571506,3.19750637,0.20543844,0.27630807,0.36601769
47081,0,USTennesseeHickman,Tennessee,Hickman,2021-01-05 10:36:44.586020,2020-09-28 00:00:00.000000,2.76201230,4.01702298,5.45263073,695,1011,1372,405,582,807,1.61116289,2.31531995,3.20696995,0.20654069,0.27912546,0.37227089
47081,0,USTennesseeHickman,Tennessee,Hickman,2021-01-05 10:36:44.586020,2020-09-29 00:00:00.000000,2.72062269,4.01551753,5.46291856,684,1011,1375,406,580,809,1.61522341,2.30579674,3.21541645,0.20731717,0.28051408,0.36336338
47081,0,USTennesseeHickman,Tennessee,Hickman,2021-01-05 10:36:44.586020,2020-09-30 00:00:00.000000,2.70469987,4.02303336,5.46947506,680,1012,1377,407,578,811,1.61845905,2.29688841,3.22404380,0.20774368,0.27985137,0.36954484
47081,0,USTennesseeHickman,Tennessee,Hickman,2021-01-05 10:36:44.586020,2020-10-01 00:00:00.000000,2.70319339,4.01508175,5.47223633,680,1010,1377,408,578,814,1.62062433,2.29895841,3.23330857,0.20827292,0.27967830,0.36517724
47081,0,USTennesseeHickman,Tennessee,Hickman,2021-01-05 10:36:44.586020,2020-10-02 00:00:00.000000,2.71321627,3.98477645,5.47035261,683,1003,1377,408,579,816,1.62157297,2.29999738,3.24179141,0.21139679,0.28024190,0.36208815
47081,0,USTennesseeHickman,Tennessee,Hickman,2021-01-05 10:36:44.586020,2020-10-03 00:00:00.000000,2.72728516,3.95931589,5.52108026,686,996,1390,408,576,817,1.62092391,2.28859348,3.24756776,0.22028222,0.27965573,0.36766196
47081,0,USTennesseeHickman,Tennessee,Hickman,2021-01-05 10:36:44.586020,2020-10-04 00:00:00.000000,2.74204240,3.95851030,5.53187694,690,996,1392,407,572,818,1.61746852,2.27415822,3.24954488,0.23055263,0.27812195,0.36593944
47081,0,USTennesseeHickman,Tennessee,Hickman,2021-01-05 10:36:44.586020,2020-10-05 00:00:00.000000,2.75495834,3.97303085,5.54549196,693,1000,1396,403,573,817,1.60298356,2.27947243,3.24766816,0.22581100,0.28255667,0.36220216
47081,0,USTennesseeHickman,Tennessee,Hickman,2021-01-05 10:36:44.586020,2020-10-06 00:00:00.000000,2.76777831,3.99428187,5.61826707,696,1005,1414,397,574,816,1.57976186,2.28013329,3.24296813,0.21995812,0.28265833,0.36130511
47081,0,USTennesseeHickman,Tennessee,Hickman,2021-01-05 10:36:44.586020,2020-10-07 00:00:00.000000,2.77969930,3.97857657,5.68788940,699,1001,1432,392,574,814,1.55780283,2.28266843,3.23591257,0.21980524,0.28262325,0.35653114
47081,0,USTennesseeHickman,Tennessee,Hickman,2021-01-05 10:36:44.586020,2020-10-08 00:00:00.000000,2.73288140,3.92763553,5.74653165,688,988,1446,386,571,819,1.53677833,2.26936917,3.25359628,0.22220496,0.28452363,0.35335701
47081,0,USTennesseeHickman,Tennessee,Hickman,2021-01-05 10:36:44.586020,2020-10-09 00:00:00.000000,2.69076716,3.89263144,5.78111179,677,980,1455,387,567,828,1.53788061,2.25455038,3.29217318,0.21895358,0.28365347,0.35332634
47081,0,USTennesseeHickman,Tennessee,Hickman,2021-01-05 10:36:44.586020,2020-10-10 00:00:00.000000,2.62814375,3.87378747,5.77784832,661,975,1454,381,564,837,1.51689040,2.24325788,3.32492969,0.21699659,0.28782535,0.35632246
47081,0,USTennesseeHickman,Tennessee,Hickman,2021-01-05 10:36:44.586020,2020-10-11 00:00:00.000000,2.59540309,3.87877558,5.76045591,653,976,1450,381,561,843,1.51330695,2.23155093,3.35066687,0.21763114,0.29176579,0.36427637
47081,0,USTennesseeHickman,Tennessee,Hickman,2021-01-05 10:36:44.586020,2020-10-12 00:00:00.000000,2.60853724,3.90137500,5.75128593,656,982,1448,382,560,840,1.51786305,2.22424691,3.33645472,0.21612360,0.29662369,0.37564163
47081,0,USTennesseeHickman,Tennessee,Hickman,2021-01-05 10:36:44.586020,2020-10-13 00:00:00.000000,2.61226518,3.91067124,5.74117164,657,984,1445,383,553,834,1.52391430,2.19981537,3.31413240,0.24204236,0.29996724,0.40365361
47081,0,USTennesseeHickman,Tennessee,Hickman,2021-01-05 10:36:44.586020,2020-10-14 00:00:00.000000,2.60912221,3.92486643,5.73019825,656,988,1442,385,555,829,1.53045713,2.20434330,3.29366888,0.24502253,0.30906836,0.40573516
47081,0,USTennesseeHickman,Tennessee,Hickman,2021-01-05 10:36:44.586020,2020-10-15 00:00:00.000000,2.60807040,3.95293662,5.71897998,656,995,1439,387,555,825,1.53716696,2.20479025,3.28040610,0.24390940,0.31777605,0.40533000
47081,0,USTennesseeHickman,Tennessee,Hickman,2021-01-05 10:36:44.586020,2020-10-16 00:00:00.000000,2.61125545,3.96848319,5.69441841,657,999,1433,388,553,825,1.54390656,2.19654911,3.27788836,0.23679719,0.32123610,0.40562281
47081,0,USTennesseeHickman,Tennessee,Hickman,2021-01-05 10:36:44.586020,2020-10-17 00:00:00.000000,2.65289323,3.99104930,5.64216513,667,1004,1420,390,552,823,1.55097019,2.19426351,3.26874263,0.22427574,0.32639219,0.42037818
47081,0,USTennesseeHickman,Tennessee,Hickman,2021-01-05 10:36:44.586020,2020-10-18 00:00:00.000000,2.69355097,4.00235330,5.59175919,678,1007,1407,392,555,819,1.56077432,2.20798871,3.25345916,0.23709352,0.33850948,0.43225395
47081,0,USTennesseeHickman,Tennessee,Hickman,2021-01-05 10:36:44.586020,2020-10-19 00:00:00.000000,2.72760206,4.01667481,5.60695657,686,1011,1411,397,559,823,1.58016983,2.22290727,3.27072416,0.24059389,0.34712909,0.44023695
47081,0,USTennesseeHickman,Tennessee,Hickman,2021-01-05 10:36:44.586020,2020-10-20 00:00:00.000000,2.74333613,4.05354057,5.62176993,690,1020,1415,401,563,832,1.59362014,2.23810693,3.30704667,0.23879682,0.34754664,0.44517973
47081,0,USTennesseeHickman,Tennessee,Hickman,2021-01-05 10:36:44.586020,2020-10-21 00:00:00.000000,2.77898793,4.10311134,5.65349279,699,1033,1423,403,569,825,1.60434461,2.26268922,3.27829830,0.23840425,0.35303138,0.44853631
47081,0,USTennesseeHickman,Tennessee,Hickman,2021-01-05 10:36:44.586020,2020-10-22 00:00:00.000000,2.83682670,4.12567395,5.78471269,714,1038,1456,407,574,826,1.61649628,2.27981778,3.28430196,0.24269893,0.35797495,0.47203673
47081,0,USTennesseeHickman,Tennessee,Hickman,2021-01-05 10:36:44.586020,2020-10-23 00:00:00.000000,2.87729361,4.15331843,5.91648650,724,1045,1489,410,578,829,1.62938356,2.29716151,3.29401520,0.24576268,0.35617209,0.48084095
47081,0,USTennesseeHickman,Tennessee,Hickman,2021-01-05 10:36:44.586020,2020-10-24 00:00:00.000000,2.92330450,4.18203411,5.92452008,736,1052,1491,414,585,831,1.64785241,2.32662828,3.30288516,0.24925140,0.35722916,0.48017475
47081,0,USTennesseeHickman,Tennessee,Hickman,2021-01-05 10:36:44.586020,2020-10-25 00:00:00.000000,2.97658587,4.22810973,5.88014425,749,1064,1480,421,590,833,1.67278666,2.34425015,3.31065237,0.25589113,0.36169986,0.47892998
47081,0,USTennesseeHickman,Tennessee,Hickman,2021-01-05 10:36:44.586020,2020-10-26 00:00:00.000000,3.00782007,4.26795355,5.91211163,757,1074,1488,428,597,835,1.70144454,2.37290928,3.31714064,0.25951485,0.36562369,0.48733531
47081,0,USTennesseeHickman,Tennessee,Hickman,2021-01-05 10:36:44.586020,2020-10-27 00:00:00.000000,2.98886533,4.29279867,6.01516409,752,1080,1514,436,605,836,1.73304829,2.40470513,3.32290437,0.27591473,0.36919074,0.48806677
47081,0,USTennesseeHickman,Tennessee,Hickman,2021-01-05 10:36:44.586020,2020-10-28 00:00:00.000000,2.97430454,4.33888406,6.12528595,748,1092,1542,444,617,838,1.76645759,2.45069452,3.32849874,0.28226427,0.37467790,0.48849508
47081,0,USTennesseeHickman,Tennessee,Hickman,2021-01-05 10:36:44.586020,2020-10-29 00:00:00.000000,3.05104732,4.41500303,6.16090571,768,1111,1551,449,627,839,1.78336042,2.49212007,3.33544942,0.30649124,0.37720091,0.48858203
47081,0,USTennesseeHickman,Tennessee,Hickman,2021-01-05 10:36:44.586020,2020-10-30 00:00:00.000000,3.11364170,4.46750711,6.19916245,783,1124,1560,452,634,842,1.79854136,2.52054761,3.34465466,0.29870763,0.38339086,0.51250754
47081,0,USTennesseeHickman,Tennessee,Hickman,2021-01-05 10:36:44.586020,2020-10-31 00:00:00.000000,3.15219417,4.52435127,6.25315311,793,1139,1574,456,640,857,1.81367164,2.54470545,3.40484908,0.28365781,0.40178123,0.53980974
47081,0,USTennesseeHickman,Tennessee,Hickman,2021-01-05 10:36:44.586020,2020-11-01 00:00:00.000000,3.19684859,4.62831384,6.31466346,804,1165,1589,460,645,873,1.82896088,2.56386021,3.46787168,0.29422176,0.41373334,0.52119719
47081,0,USTennesseeHickman,Tennessee,Hickman,2021-01-05 10:36:44.586020,2020-11-02 00:00:00.000000,3.23999578,4.69544065,6.36961055,815,1182,1603,464,658,888,1.84462509,2.61391750,3.52975377,0.30417064,0.41859270,0.57039663
47081,0,USTennesseeHickman,Tennessee,Hickman,2021-01-05 10:36:44.586020,2020-11-03 00:00:00.000000,3.28691021,4.75940022,6.42336728,827,1198,1617,468,671,904,1.86114089,2.66711061,3.59080621,0.30802157,0.42194158,0.57330669
47081,0,USTennesseeHickman,Tennessee,Hickman,2021-01-05 10:36:44.586020,2020-11-04 00:00:00.000000,3.34153576,4.89026351,6.48073689,841,1231,1631,472,687,919,1.87861859,2.73140803,3.65045598,0.32031533,0.42753552,0.57378435
47081,0,USTennesseeHickman,Tennessee,Hickman,2021-01-05 10:36:44.586020,2020-11-05 00:00:00.000000,3.40809576,5.02543061,6.56318903,858,1265,1652,477,705,933,1.89718336,2.80168028,3.70836619,0.32971454,0.43161253,0.55505865
47081,0,USTennesseeHickman,Tennessee,Hickman,2021-01-05 10:36:44.586020,2020-11-06 00:00:00.000000,3.48385338,5.19857292,6.70468839,877,1308,1688,482,722,947,1.91701283,2.86767384,3.76444099,0.34670125,0.44109643,0.54958721
47081,0,USTennesseeHickman,Tennessee,Hickman,2021-01-05 10:36:44.586020,2020-11-07 00:00:00.000000,3.56236833,5.28702805,6.89033362,896,1331,1734,488,737,961,1.93833246,2.92878136,3.81885923,0.36021293,0.43969479,0.55394515
47081,0,USTennesseeHickman,Tennessee,Hickman,2021-01-05 10:36:44.586020,2020-11-08 00:00:00.000000,3.63889032,5.39964783,7.04964980,916,1359,1774,493,751,974,1.96120921,2.98317950,3.87178483,0.36197141,0.44128388,0.55516038
47081,0,USTennesseeHickman,Tennessee,Hickman,2021-01-05 10:36:44.586020,2020-11-09 00:00:00.000000,3.70756247,5.49602887,7.11696096,933,1383,1791,499,767,987,1.98540115,3.04947119,3.92328801,0.35578266,0.44021052,0.55675118
47081,0,USTennesseeHickman,Tennessee,Hickman,2021-01-05 10:36:44.586020,2020-11-10 00:00:00.000000,3.73031308,5.64838826,7.18525405,939,1422,1809,507,784,1008,2.01548649,3.11428208,4.00561043,0.34825006,0.44350329,0.56530039
47081,0,USTennesseeHickman,Tennessee,Hickman,2021-01-05 10:36:44.586020,2020-11-11 00:00:00.000000,3.75451701,5.80121777,7.25192824,945,1460,1825,517,804,1036,2.05685425,3.19330768,4.11771060,0.34643537,0.44511622,0.56010742
47081,0,USTennesseeHickman,Tennessee,Hickman,2021-01-05 10:36:44.586020,2020-11-12 00:00:00.000000,3.81150826,5.92976977,7.31570927,959,1492,1841,527,821,1063,2.09366665,3.26415072,4.22363088,0.35649988,0.44419116,0.58231987
47081,0,USTennesseeHickman,Tennessee,Hickman,2021-01-05 10:36:44.586020,2020-11-13 00:00:00.000000,3.91199574,6.03460151,7.48281674,984,1519,1884,530,844,1088,2.10837737,3.35324550,4.32375711,0.36683780,0.44715191,0.57854585
47081,0,USTennesseeHickman,Tennessee,Hickman,2021-01-05 10:36:44.586020,2020-11-14 00:00:00.000000,4.03025915,6.17352032,7.68001169,1014,1554,1933,535,862,1112,2.12864642,3.42454425,4.41890723,0.37765167,0.45134579,0.59731067
47081,0,USTennesseeHickman,Tennessee,Hickman,2021-01-05 10:36:44.586020,2020-11-15 00:00:00.000000,4.16078990,6.31015306,7.88146307,1047,1588,1984,542,878,1135,2.15491741,3.48868731,4.50973961,0.37728594,0.45766846,0.59991024
47081,0,USTennesseeHickman,Tennessee,Hickman,2021-01-05 10:36:44.586020,2020-11-16 00:00:00.000000,4.23869509,6.41564732,8.08163661,1067,1615,2034,550,892,1157,2.18555580,3.54349254,4.59648010,0.37133127,0.47527194,0.61332556
47081,0,USTennesseeHickman,Tennessee,Hickman,2021-01-05 10:36:44.586020,2020-11-17 00:00:00.000000,4.31430427,6.54515705,8.35623473,1086,1647,2103,560,910,1178,2.22558944,3.61813741,4.67902302,0.36857244,0.48121223,0.62465008
47081,0,USTennesseeHickman,Tennessee,Hickman,2021-01-05 10:36:44.586020,2020-11-18 00:00:00.000000,4.39175911,6.65881679,8.68869337,1105,1676,2187,571,927,1197,2.27173312,3.68430926,4.75798573,0.36766954,0.49023704,0.63935701
47081,0,USTennesseeHickman,Tennessee,Hickman,2021-01-05 10:36:44.586020,2020-11-19 00:00:00.000000,4.47248379,6.76905811,8.88113266,1126,1704,2236,584,946,1217,2.32186348,3.76026621,4.83583288,0.36824714,0.49671139,0.63870526
47081,0,USTennesseeHickman,Tennessee,Hickman,2021-01-05 10:36:44.586020,2020-11-20 00:00:00.000000,4.56198474,6.91712253,8.98133245,1148,1741,2261,597,964,1238,2.37469742,3.83051500,4.91921361,0.37275812,0.49814604,0.61882866
47081,0,USTennesseeHickman,Tennessee,Hickman,2021-01-05 10:36:44.586020,2020-11-21 00:00:00.000000,4.66846673,7.05182664,9.09285987,1175,1775,2289,611,977,1262,2.43036119,3.88121240,5.01332511,0.39001016,0.51586502,0.64044549
47081,0,USTennesseeHickman,Tennessee,Hickman,2021-01-05 10:36:44.586020,2020-11-22 00:00:00.000000,4.81951617,7.18059027,9.32432249,1213,1807,2347,628,995,1288,2.49807727,3.95435773,5.11684035,0.42041957,0.53310243,0.66432900
47081,0,USTennesseeHickman,Tennessee,Hickman,2021-01-05 10:36:44.586020,2020-11-23 00:00:00.000000,4.99425673,7.36580688,9.66337713,1257,1854,2433,648,1018,1316,2.57653693,4.04474348,5.22896767,0.43359450,0.54868908,0.73099892
47081,0,USTennesseeHickman,Tennessee,Hickman,2021-01-05 10:36:44.586020,2020-11-24 00:00:00.000000,5.16030232,7.55709992,10.00611911,1299,1902,2519,670,1046,1348,2.66450985,4.15682536,5.35400110,0.44386191,0.56785135,0.75333057
47081,0,USTennesseeHickman,Tennessee,Hickman,2021-01-05 10:36:44.586020,2020-11-25 00:00:00.000000,5.24487209,7.76271372,10.34882829,1320,1954,2605,694,1077,1384,2.75769754,4.27864810,5.49973963,0.44635370,0.58495978,0.75366164
47081,0,USTennesseeHickman,Tennessee,Hickman,2021-01-05 10:36:44.586020,2020-11-26 00:00:00.000000,5.36810270,8.01543107,10.68339512,1351,2018,2689,719,1116,1431,2.85619803,4.43284981,5.68623327,0.44878810,0.60040488,0.75650241
47081,0,USTennesseeHickman,Tennessee,Hickman,2021-01-05 10:36:44.586020,2020-11-27 00:00:00.000000,5.52538452,8.27783770,10.98631452,1391,2084,2766,745,1151,1492,2.96055226,4.57165042,5.92671773,0.45220971,0.61576666,0.76955371
47081,0,USTennesseeHickman,Tennessee,Hickman,2021-01-05 10:36:44.586020,2020-11-28 00:00:00.000000,5.69281362,8.58752462,11.26312842,1433,2162,2835,773,1179,1555,3.07227639,4.68389011,6.17657233,0.46553945,0.62301257,0.81098403
47081,0,USTennesseeHickman,Tennessee,Hickman,2021-01-05 10:36:44.586020,2020-11-29 00:00:00.000000,5.87538099,8.83266255,11.71983716,1479,2223,2950,804,1219,1619,3.19374873,4.84220748,6.43321466,0.48189840,0.64191037,0.83595240
47081,0,USTennesseeHickman,Tennessee,Hickman,2021-01-05 10:36:44.586020,2020-11-30 00:00:00.000000,6.08933906,9.18505888,12.20835697,1533,2312,3073,837,1255,1685,3.32772130,4.98570860,6.69447735,0.48574858,0.66779659,0.91632482
47081,0,USTennesseeHickman,Tennessee,Hickman,2021-01-05 10:36:44.586020,2020-12-01 00:00:00.000000,6.32999570,9.60058105,12.70501706,1593,2417,3198,875,1301,1751,3.47690755,5.17114459,6.95797995,0.49911280,0.69911798,0.92556893
47081,0,USTennesseeHickman,Tennessee,Hickman,2021-01-05 10:36:44.586020,2020-12-02 00:00:00.000000,6.60227272,9.96162590,13.20008452,1662,2508,3323,917,1350,1818,3.64226202,5.36552132,7.22125769,0.50500661,0.70675537,0.95419086
47081,0,USTennesseeHickman,Tennessee,Hickman,2021-01-05 10:36:44.586020,2020-12-03 00:00:00.000000,6.90839394,10.41909949,13.69057506,1739,2623,3447,962,1399,1883,3.82348660,5.55929987,7.48010259,0.52082629,0.72530001,0.96656032
47081,0,USTennesseeHickman,Tennessee,Hickman,2021-01-05 10:36:44.586020,2020-12-04 00:00:00.000000,7.25734600,10.78903379,14.17726389,1827,2716,3569,1012,1444,1946,4.01946040,5.73880334,7.72913073,0.55733825,0.74394561,0.98915711
47081,0,USTennesseeHickman,Tennessee,Hickman,2021-01-05 10:36:44.586020,2020-12-05 00:00:00.000000,7.64949243,11.15554118,14.88344898,1925,2808,3747,1064,1502,2004,4.22892848,5.96887224,7.96311497,0.58449902,0.76639850,1.03532395
47081,0,USTennesseeHickman,Tennessee,Hickman,2021-01-05 10:36:44.586020,2020-12-06 00:00:00.000000,8.07657963,11.61440544,15.60190011,2033,2924,3928,1120,1562,2079,4.45103835,6.20737282,8.25860203,0.59970578,0.80296384,1.11817051
47081,0,USTennesseeHickman,Tennessee,Hickman,2021-01-05 10:36:44.586020,2020-12-07 00:00:00.000000,8.51643290,12.11776542,16.29871235,2144,3051,4103,1179,1627,2156,4.68508478,6.46471190,8.56589159,0.58268449,0.83863937,1.17171490
47081,0,USTennesseeHickman,Tennessee,Hickman,2021-01-05 10:36:44.586020,2020-12-08 00:00:00.000000,8.96908693,12.63568368,16.71199644,2258,3181,4207,1240,1683,2236,4.92781878,6.68803392,8.88426635,0.56006866,0.84657157,1.18281477
47081,0,USTennesseeHickman,Tennessee,Hickman,2021-01-05 10:36:44.586020,2020-12-09 00:00:00.000000,9.42058174,13.08822738,16.78361963,2371,3295,4225,1288,1752,2321,5.11884377,6.95887223,9.21846747,0.56090129,0.84320660,1.17689823
47081,0,USTennesseeHickman,Tennessee,Hickman,2021-01-05 10:36:44.586020,2020-12-10 00:00:00.000000,9.84567644,13.47593362,16.91863218,2478,3392,4259,1334,1817,2407,5.29922237,7.21832485,9.56113262,0.56055611,0.85197100,1.17207180
47081,0,USTennesseeHickman,Tennessee,Hickman,2021-01-05 10:36:44.586020,2020-12-11 00:00:00.000000,10.14150568,13.82333114,17.26117206,2553,3480,4346,1361,1881,2493,5.40850561,7.47159564,9.90326696,0.50466418,0.84800244,1.22399748
47081,0,USTennesseeHickman,Tennessee,Hickman,2021-01-05 10:36:44.586020,2020-12-12 00:00:00.000000,10.31302793,14.10263564,17.72900092,2596,3550,4463,1387,1937,2578,5.51233735,7.69587156,10.24081511,0.48484376,0.83326917,1.26531330
47081,0,USTennesseeHickman,Tennessee,Hickman,2021-01-05 10:36:44.586020,2020-12-13 00:00:00.000000,10.49214705,14.31221518,18.15092130,2641,3603,4570,1413,1978,2653,5.61254106,7.85946041,10.53874207,0.47748810,0.82314650,1.27714189
47081,0,USTennesseeHickman,Tennessee,Hickman,2021-01-05 10:36:44.586020,2020-12-14 00:00:00.000000,10.67516322,14.52412319,18.49369460,2687,3656,4656,1441,2014,2723,5.72602275,8.00039885,10.81601431,0.45157099,0.80752733,1.28087531
47081,0,USTennesseeHickman,Tennessee,Hickman,2021-01-05 10:36:44.586020,2020-12-15 00:00:00.000000,10.83357527,14.72969140,18.76637117,2727,3708,4724,1470,2056,2787,5.84178291,8.16968613,11.07263370,0.44649512,0.80877142,1.28200347
47081,0,USTennesseeHickman,Tennessee,Hickman,2021-01-05 10:36:44.586020,2020-12-16 00:00:00.000000,10.89522645,14.86970610,18.97714826,2743,3743,4778,1493,2097,2862,5.93000761,8.33024445,11.36747009,0.44565808,0.81659618,1.28366852
47081,0,USTennesseeHickman,Tennessee,Hickman,2021-01-05 10:36:44.586020,2020-12-17 00:00:00.000000,10.93452859,14.98730571,19.12973879,2753,3773,4816,1513,2121,2938,6.00974280,8.42501359,11.66900108,0.44541137,0.81150645,1.30820030
47081,0,USTennesseeHickman,Tennessee,Hickman,2021-01-05 10:36:44.586020,2020-12-18 00:00:00.000000,10.95240817,15.03456547,19.22747625,2757,3785,4841,1536,2135,3003,6.10226519,8.48248008,11.92804580,0.44532782,0.81163982,1.33567080
47081,0,USTennesseeHickman,Tennessee,Hickman,2021-01-05 10:36:44.586020,2020-12-19 00:00:00.000000,10.75628778,15.03901025,19.27351849,2708,3786,4852,1529,2147,3056,6.07598596,8.52981534,12.13824178,0.41991347,0.80467463,1.37021122
47081,0,USTennesseeHickman,Tennessee,Hickman,2021-01-05 10:36:44.586020,2020-12-20 00:00:00.000000,10.49376104,14.99649949,19.27044401,2642,3775,4851,1533,2161,3089,6.09131870,8.58663198,12.26979408,0.39900903,0.78520208,1.42705930
47081,0,USTennesseeHickman,Tennessee,Hickman,2021-01-05 10:36:44.586020,2020-12-21 00:00:00.000000,10.20468825,14.78586675,19.22498767,2569,3722,4840,1534,2163,3107,6.09285528,8.59270579,12.34126866,0.39514427,0.80043309,1.45481101
47081,0,USTennesseeHickman,Tennessee,Hickman,2021-01-05 10:36:44.586020,2020-12-22 00:00:00.000000,9.89539719,14.62805705,19.12823600,2491,3683,4816,1526,2162,3117,6.06304332,8.58709685,12.38065181,0.39476925,0.80229375,1.46555810
47081,0,USTennesseeHickman,Tennessee,Hickman,2021-01-05 10:36:44.586020,2020-12-23 00:00:00.000000,9.65123390,14.52896094,18.97155231,2429,3658,4776,1503,2154,3118,5.97342890,8.55749240,12.38755533,0.39729176,0.80430709,1.46742191
47081,0,USTennesseeHickman,Tennessee,Hickman,2021-01-05 10:36:44.586020,2020-12-24 00:00:00.000000,9.52179810,14.28565438,18.75287657,2397,3596,4721,1479,2137,3111,5.87447082,8.48816847,12.35980342,0.40310699,0.80001292,1.47616589
47081,0,USTennesseeHickman,Tennessee,Hickman,2021-01-05 10:36:44.586020,2020-12-25 00:00:00.000000,9.37851809,13.98581473,18.47628295,2361,3521,4651,1452,2108,3095,5.76934734,8.37508211,12.29544725,0.40320341,0.80103713,1.45904202
47081,0,USTennesseeHickman,Tennessee,Hickman,2021-01-05 10:36:44.586020,2020-12-26 00:00:00.000000,9.22040035,13.70199885,18.03593794,2321,3449,4541,1424,2084,3062,5.65925436,8.27826087,12.16390096,0.40424746,0.79969898,1.51302521
47081,0,USTennesseeHickman,Tennessee,Hickman,2021-01-05 10:36:44.586020,2020-12-27 00:00:00.000000,9.04669706,13.35086658,17.49115928,2277,3361,4403,1396,2050,3013,5.54516793,8.14420482,11.97015462,0.40893189,0.79270728,1.61673703
47081,0,USTennesseeHickman,Tennessee,Hickman,2021-01-05 10:36:44.586020,2020-12-28 00:00:00.000000,8.84721013,13.01917307,17.05407716,2227,3277,4293,1367,2016,2954,5.42952719,8.00797259,11.73555941,0.41502559,0.78393694,1.67434482
47081,0,USTennesseeHickman,Tennessee,Hickman,2021-01-05 10:36:44.586020,2020-12-29 00:00:00.000000,8.55769221,12.66526355,16.68397833,2154,3188,4200,1337,1976,2881,5.31334418,7.85086566,11.44550395,0.41983831,0.75891732,1.73225020
47081,0,USTennesseeHickman,Tennessee,Hickman,2021-01-05 10:36:44.586020,2020-12-30 00:00:00.000000,8.12899085,12.38545262,16.27904464,2046,3118,4098,1297,1916,2795,5.15165353,7.61111176,11.10491584,0.41895513,0.75798212,1.76307548
47081,0,USTennesseeHickman,Tennessee,Hickman,2021-01-05 10:36:44.586020,2020-12-31 00:00:00.000000,7.71608835,11.95504565,15.87208567,1942,3010,3996,1250,1857,2701,4.96627304,7.37884450,10.72795939,0.41765531,0.75385755,1.81099364
47081,0,USTennesseeHickman,Tennessee,Hickman,2021-01-05 10:36:44.586020,2021-01-01 00:00:00.000000,7.39261045,11.52775021,15.36902172,1861,2902,3869,1200,1818,2601,4.76645149,7.22452623,10.33313511,0.41513484,0.73913402,1.81681030
47081,0,USTennesseeHickman,Tennessee,Hickman,2021-01-05 10:36:44.586020,2021-01-02 00:00:00.000000,7.05879233,11.16702866,14.86535507,1777,2811,3742,1145,1766,2498,4.54952568,7.01546846,9.92337380,0.37052438,0.72826157,1.81966091
47081,0,USTennesseeHickman,Tennessee,Hickman,2021-01-05 10:36:44.586020,2021-01-03 00:00:00.000000,6.68275379,10.74161878,14.53501633,1682,2704,3659,1111,1705,2391,4.41315675,6.77558862,9.49821266,0.32369179,0.74129663,1.86402526
47081,0,USTennesseeHickman,Tennessee,Hickman,2021-01-05 10:36:44.586020,2021-01-04 00:00:00.000000,6.29122411,10.27340259,14.18388352,1584,2586,3571,1082,1643,2294,4.30014995,6.52658314,9.11453518,0.32350579,0.75071626,1.87859184
47081,0,USTennesseeHickman,Tennessee,Hickman,2021-01-05 10:36:44.586020,2021-01-05 00:00:00.000000,5.90331206,9.96350566,13.81458344,1486,2508,3478,1035,1580,2221,4.11202672,6.27875673,8.82189337,0.32356346,0.73278683,1.88006388
47081,0,USTennesseeHickman,Tennessee,Hickman,2021-01-05 10:36:44.586020,2021-01-06 00:00:00.000000,5.53222584,9.52328547,13.42956739,1392,2397,3381,984,1520,2144,3.91183668,6.03724491,8.51797227,0.31349142,0.72470852,1.87935378
47081,0,USTennesseeHickman,Tennessee,Hickman,2021-01-05 10:36:44.586020,2021-01-07 00:00:00.000000,5.21894499,9.06181140,13.03139405,1314,2281,3281,930,1463,2066,3.69682472,5.81205391,8.20625145,0.30464583,0.74141286,1.87851865
47081,0,USTennesseeHickman,Tennessee,Hickman,2021-01-05 10:36:44.586020,2021-01-08 00:00:00.000000,4.92042479,8.65552708,12.62263569,1238,2179,3178,878,1403,1986,3.49099114,5.57449756,7.88970620,0.30225976,0.73821359,1.87787048
47081,0,USTennesseeHickman,Tennessee,Hickman,2021-01-05 10:36:44.586020,2021-01-09 00:00:00.000000,4.63637373,8.31134027,12.24446992,1167,2092,3082,829,1347,1906,3.29434528,5.35091907,7.57089620,0.30165699,0.73652713,1.87740800
47081,0,USTennesseeHickman,Tennessee,Hickman,2021-01-05 10:36:44.586020,2021-01-10 00:00:00.000000,4.36643529,7.88498509,12.05875635,1099,1985,3036,782,1283,1841,3.10680694,5.09674853,7.31251459,0.30150328,0.73592100,1.87708623
47081,0,USTennesseeHickman,Tennessee,Hickman,2021-01-05 10:36:44.586020,2021-01-11 00:00:00.000000,4.11020572,7.52375658,11.69078138,1034,1894,2943,737,1218,1795,2.92822959,4.83867448,7.12994837,0.30146156,0.73570681,1.87686445
47081,0,USTennesseeHickman,Tennessee,Hickman,2021-01-05 10:36:44.586020,2021-01-12 00:00:00.000000,3.86724703,7.12495697,11.26276289,973,1793,2835,694,1162,1747,2.75841782,4.61557874,6.94061262,0.30144864,0.73563157,1.87671224
47081,0,USTennesseeHickman,Tennessee,Hickman,2021-01-05 10:36:44.586020,2021-01-13 00:00:00.000000,3.63709705,6.73807860,10.83786132,915,1696,2728,653,1106,1697,2.59714030,4.39626490,6.74129217,0.30144373,0.73560520,1.87660801
47081,0,USTennesseeHickman,Tennessee,Hickman,2021-01-05 10:36:44.586020,2021-01-14 00:00:00.000000,3.41927743,6.36584629,10.41751542,860,1602,2622,615,1060,1646,2.44413959,4.21122852,6.53978725,0.30144143,0.73559597,1.87653671
47081,0,USTennesseeHickman,Tennessee,Hickman,2021-01-05 10:36:44.586020,2021-01-15 00:00:00.000000,3.21330015,6.03853644,10.00300976,809,1520,2518,578,1009,1594,2.29913957,4.01072133,6.33240345,0.30144017,0.73559273,1.87648799
47081,0,USTennesseeHickman,Tennessee,Hickman,2021-01-05 10:36:44.586020,2021-01-16 00:00:00.000000,3.01867279,5.77200560,9.59547674,760,1453,2415,544,960,1541,2.16185131,3.81678089,6.12049991,0.30143943,0.73559160,1.87645472
47081,0,USTennesseeHickman,Tennessee,Hickman,2021-01-05 10:36:44.586020,2021-01-17 00:00:00.000000,2.83490297,5.47305073,9.19590113,713,1378,2315,511,907,1486,2.03197778,3.60463701,5.90538519,0.30143898,0.73559120,1.87643199
