FIPS,HR_UID,nameid,province,region,analysisTime,dates,pointprevalence_025,pointprevalence_50,pointprevalence_975,pointinfections_025,pointinfections_50,pointinfections_975,pointinfectious_025,pointinfectious_50,pointinfectious_975,pointinfectiousprevalence_05,pointinfectiousprevalence_50,pointinfectiousprevalence_95,infectrate_025,infectrate_50,infectrate_975
47179,0,USTennesseeWashington,Tennessee,Washington,2021-01-05 09:55:52.941866,2020-03-09 00:00:00.000000,0.00115130,0.00290937,0.00622038,1,3,8,0,1,3,0.00022246,0.00103254,0.00289336,0.38114171,0.51697748,0.65642833
47179,0,USTennesseeWashington,Tennessee,Washington,2021-01-05 09:55:52.941866,2020-03-10 00:00:00.000000,0.00182567,0.00414389,0.00746587,2,5,9,0,1,4,0.00042557,0.00116873,0.00333165,0.38114106,0.51688932,0.65642832
47179,0,USTennesseeWashington,Tennessee,Washington,2021-01-05 09:55:52.941866,2020-03-11 00:00:00.000000,0.00247839,0.00531610,0.00932270,3,6,12,0,1,4,0.00059702,0.00152061,0.00376337,0.38113966,0.51688839,0.65642828
47179,0,USTennesseeWashington,Tennessee,Washington,2021-01-05 09:55:52.941866,2020-03-12 00:00:00.000000,0.00317489,0.00650805,0.01163072,4,8,15,1,2,5,0.00082697,0.00206433,0.00437588,0.38113664,0.51688505,0.65642816
47179,0,USTennesseeWashington,Tennessee,Washington,2021-01-05 09:55:52.941866,2020-03-13 00:00:00.000000,0.00392334,0.00782761,0.01360131,5,10,17,1,3,7,0.00111056,0.00257274,0.00547042,0.38113012,0.51606089,0.65642782
47179,0,USTennesseeWashington,Tennessee,Washington,2021-01-05 09:55:52.941866,2020-03-14 00:00:00.000000,0.00462825,0.00921681,0.01594743,5,11,20,1,3,8,0.00141197,0.00308163,0.00654648,0.38111603,0.51362347,0.65642676
47179,0,USTennesseeWashington,Tennessee,Washington,2021-01-05 09:55:52.941866,2020-03-15 00:00:00.000000,0.00544070,0.01046700,0.01882707,7,13,24,2,4,9,0.00175911,0.00371509,0.00749163,0.38108546,0.51345418,0.65642342
47179,0,USTennesseeWashington,Tennessee,Washington,2021-01-05 09:55:52.941866,2020-03-16 00:00:00.000000,0.00642332,0.01205364,0.02097951,8,15,27,2,5,11,0.00211356,0.00451968,0.00861174,0.38101843,0.51269656,0.65641211
47179,0,USTennesseeWashington,Tennessee,Washington,2021-01-05 09:55:52.941866,2020-03-17 00:00:00.000000,0.00729564,0.01401134,0.02385680,9,18,30,3,6,12,0.00247633,0.00525024,0.01000864,0.37706456,0.50794541,0.65636618
47179,0,USTennesseeWashington,Tennessee,Washington,2021-01-05 09:55:52.941866,2020-03-18 00:00:00.000000,0.00820295,0.01561969,0.02647917,10,20,34,3,7,15,0.00295465,0.00602670,0.01176102,0.35987985,0.49623242,0.65611396
47179,0,USTennesseeWashington,Tennessee,Washington,2021-01-05 09:55:52.941866,2020-03-19 00:00:00.000000,0.00914677,0.01743304,0.02930630,11,22,37,4,8,17,0.00331437,0.00695242,0.01360323,0.35653108,0.47165612,0.65426608
47179,0,USTennesseeWashington,Tennessee,Washington,2021-01-05 09:55:52.941866,2020-03-20 00:00:00.000000,0.01012992,0.01946724,0.03205857,13,25,41,4,10,19,0.00369630,0.00777338,0.01543751,0.31994130,0.42908911,0.63866032
47179,0,USTennesseeWashington,Tennessee,Washington,2021-01-05 09:55:52.941866,2020-03-21 00:00:00.000000,0.01116257,0.02157865,0.03470019,14,27,44,5,11,21,0.00410512,0.00865649,0.01687858,0.30907044,0.40349415,0.57765172
47179,0,USTennesseeWashington,Tennessee,Washington,2021-01-05 09:55:52.941866,2020-03-22 00:00:00.000000,0.01223658,0.02368587,0.03721555,15,30,48,5,12,23,0.00453888,0.00951824,0.01818384,0.28158517,0.38054312,0.51735580
47179,0,USTennesseeWashington,Tennessee,Washington,2021-01-05 09:55:52.941866,2020-03-23 00:00:00.000000,0.01368333,0.02493573,0.03929277,17,32,50,6,13,25,0.00515604,0.01051112,0.01935169,0.27821811,0.35412327,0.50270873
47179,0,USTennesseeWashington,Tennessee,Washington,2021-01-05 09:55:52.941866,2020-03-24 00:00:00.000000,0.01545617,0.02679831,0.04333988,19,34,56,7,14,26,0.00595840,0.01152615,0.02049116,0.26627553,0.33949565,0.48608048
47179,0,USTennesseeWashington,Tennessee,Washington,2021-01-05 09:55:52.941866,2020-03-25 00:00:00.000000,0.01747090,0.02854826,0.04747952,22,36,61,8,16,28,0.00686993,0.01260581,0.02236759,0.24728582,0.32694766,0.47966772
47179,0,USTennesseeWashington,Tennessee,Washington,2021-01-05 09:55:52.941866,2020-03-26 00:00:00.000000,0.01884567,0.03017000,0.04989097,24,39,64,10,17,31,0.00784951,0.01340809,0.02455524,0.22000230,0.31652151,0.46362415
47179,0,USTennesseeWashington,Tennessee,Washington,2021-01-05 09:55:52.941866,2020-03-27 00:00:00.000000,0.02018651,0.03161496,0.05161166,26,40,66,11,18,33,0.00864811,0.01429987,0.02612717,0.20120942,0.30141995,0.44503515
47179,0,USTennesseeWashington,Tennessee,Washington,2021-01-05 09:55:52.941866,2020-03-28 00:00:00.000000,0.02106470,0.03260446,0.05326936,27,42,68,11,19,35,0.00924613,0.01533362,0.02715367,0.19054854,0.28986479,0.41180060
47179,0,USTennesseeWashington,Tennessee,Washington,2021-01-05 09:55:52.941866,2020-03-29 00:00:00.000000,0.02187159,0.03406809,0.05623657,28,44,72,12,20,36,0.00984220,0.01616860,0.02813370,0.17243476,0.28128546,0.39191651
47179,0,USTennesseeWashington,Tennessee,Washington,2021-01-05 09:55:52.941866,2020-03-30 00:00:00.000000,0.02303589,0.03511200,0.05652329,29,45,73,13,21,37,0.01042631,0.01688375,0.02906129,0.15954107,0.27271624,0.38041888
47179,0,USTennesseeWashington,Tennessee,Washington,2021-01-05 09:55:52.941866,2020-03-31 00:00:00.000000,0.02418107,0.03632286,0.05772446,31,46,74,14,22,38,0.01091791,0.01718488,0.02975718,0.15590023,0.26565882,0.38030523
47179,0,USTennesseeWashington,Tennessee,Washington,2021-01-05 09:55:52.941866,2020-04-01 00:00:00.000000,0.02568851,0.03715661,0.06131081,33,48,79,14,22,40,0.01127056,0.01738157,0.03128950,0.15464038,0.25771046,0.38471100
47179,0,USTennesseeWashington,Tennessee,Washington,2021-01-05 09:55:52.941866,2020-04-02 00:00:00.000000,0.02638660,0.03797800,0.06581627,34,49,85,15,23,43,0.01176926,0.01797255,0.03367866,0.15420185,0.24677653,0.38240371
47179,0,USTennesseeWashington,Tennessee,Washington,2021-01-05 09:55:52.941866,2020-04-03 00:00:00.000000,0.02745241,0.03861154,0.06885965,35,49,89,15,24,46,0.01226634,0.01872307,0.03620790,0.15408564,0.24032452,0.37641849
47179,0,USTennesseeWashington,Tennessee,Washington,2021-01-05 09:55:52.941866,2020-04-04 00:00:00.000000,0.02850924,0.03951413,0.07133620,36,51,92,16,24,50,0.01276157,0.01927868,0.03880335,0.15421825,0.23286035,0.36703933
47179,0,USTennesseeWashington,Tennessee,Washington,2021-01-05 09:55:52.941866,2020-04-05 00:00:00.000000,0.02822685,0.04058829,0.07173659,36,52,92,17,25,52,0.01325062,0.01975091,0.04049262,0.13349554,0.22156616,0.33536536
47179,0,USTennesseeWashington,Tennessee,Washington,2021-01-05 09:55:52.941866,2020-04-06 00:00:00.000000,0.02834766,0.04128182,0.07252752,36,53,93,17,26,52,0.01355359,0.02041710,0.04086202,0.12875274,0.21560753,0.30314269
47179,0,USTennesseeWashington,Tennessee,Washington,2021-01-05 09:55:52.941866,2020-04-07 00:00:00.000000,0.02848281,0.04218447,0.07321544,36,54,94,17,26,53,0.01382627,0.02068706,0.04101390,0.12944548,0.20443766,0.30204732
47179,0,USTennesseeWashington,Tennessee,Washington,2021-01-05 09:55:52.941866,2020-04-08 00:00:00.000000,0.02866573,0.04366830,0.07388415,37,56,95,18,27,53,0.01391981,0.02090494,0.04100948,0.13354798,0.19841531,0.30124179
47179,0,USTennesseeWashington,Tennessee,Washington,2021-01-05 09:55:52.941866,2020-04-09 00:00:00.000000,0.02883272,0.04386732,0.07452146,37,56,96,18,27,52,0.01406649,0.02157873,0.04089336,0.13585523,0.19576305,0.29933516
47179,0,USTennesseeWashington,Tennessee,Washington,2021-01-05 09:55:52.941866,2020-04-10 00:00:00.000000,0.02904161,0.04407182,0.07433457,37,57,96,18,28,52,0.01418892,0.02227074,0.04069725,0.12516314,0.18655134,0.29946584
47179,0,USTennesseeWashington,Tennessee,Washington,2021-01-05 09:55:52.941866,2020-04-11 00:00:00.000000,0.02927497,0.04483288,0.07229428,37,58,93,18,29,54,0.01428473,0.02260436,0.04223251,0.12399088,0.18024007,0.29840778
47179,0,USTennesseeWashington,Tennessee,Washington,2021-01-05 09:55:52.941866,2020-04-12 00:00:00.000000,0.02953370,0.04556653,0.07019334,38,58,90,18,29,56,0.01435243,0.02314499,0.04395927,0.11396843,0.17585754,0.29732870
47179,0,USTennesseeWashington,Tennessee,Washington,2021-01-05 09:55:52.941866,2020-04-13 00:00:00.000000,0.02919302,0.04569537,0.06864605,37,59,88,18,30,55,0.01439320,0.02364486,0.04295327,0.10639249,0.17275831,0.29595684
47179,0,USTennesseeWashington,Tennessee,Washington,2021-01-05 09:55:52.941866,2020-04-14 00:00:00.000000,0.02886476,0.04592406,0.06711355,37,59,86,18,30,54,0.01438898,0.02372205,0.04194951,0.10514873,0.17128777,0.29317906
47179,0,USTennesseeWashington,Tennessee,Washington,2021-01-05 09:55:52.941866,2020-04-15 00:00:00.000000,0.02856545,0.04623362,0.06561580,36,59,84,18,30,53,0.01435359,0.02391788,0.04098981,0.10459568,0.16973852,0.28659225
47179,0,USTennesseeWashington,Tennessee,Washington,2021-01-05 09:55:52.941866,2020-04-16 00:00:00.000000,0.02817971,0.04550564,0.06549985,36,58,84,18,30,51,0.01429760,0.02371706,0.04006335,0.10448573,0.16798075,0.27337546
47179,0,USTennesseeWashington,Tennessee,Washington,2021-01-05 09:55:52.941866,2020-04-17 00:00:00.000000,0.02783267,0.04552472,0.06752709,36,58,87,17,30,50,0.01387860,0.02390548,0.03915996,0.10464635,0.16299836,0.25548250
47179,0,USTennesseeWashington,Tennessee,Washington,2021-01-05 09:55:52.941866,2020-04-18 00:00:00.000000,0.02749618,0.04590648,0.06920673,35,59,89,17,30,49,0.01373803,0.02363156,0.03826972,0.10417312,0.15841341,0.25395787
47179,0,USTennesseeWashington,Tennessee,Washington,2021-01-05 09:55:52.941866,2020-04-19 00:00:00.000000,0.02717249,0.04613360,0.07054988,35,59,91,17,30,48,0.01368438,0.02339766,0.03738472,0.10299896,0.16051475,0.25101654
47179,0,USTennesseeWashington,Tennessee,Washington,2021-01-05 09:55:52.941866,2020-04-20 00:00:00.000000,0.02707029,0.04565604,0.06877943,35,59,88,17,30,48,0.01362777,0.02325820,0.03721405,0.10321143,0.16082203,0.24148877
47179,0,USTennesseeWashington,Tennessee,Washington,2021-01-05 09:55:52.941866,2020-04-21 00:00:00.000000,0.02697196,0.04569391,0.06692342,34,59,86,17,29,48,0.01358315,0.02313397,0.03720514,0.10350850,0.15887996,0.24595169
47179,0,USTennesseeWashington,Tennessee,Washington,2021-01-05 09:55:52.941866,2020-04-22 00:00:00.000000,0.02686020,0.04552773,0.06499042,34,58,84,17,29,48,0.01389826,0.02290990,0.03724112,0.10458471,0.16124266,0.24657147
47179,0,USTennesseeWashington,Tennessee,Washington,2021-01-05 09:55:52.941866,2020-04-23 00:00:00.000000,0.02645469,0.04525024,0.06403887,34,58,82,18,29,48,0.01428846,0.02309445,0.03728020,0.10098320,0.15948805,0.24118487
47179,0,USTennesseeWashington,Tennessee,Washington,2021-01-05 09:55:52.941866,2020-04-24 00:00:00.000000,0.02603838,0.04475500,0.06350153,33,57,82,17,30,48,0.01378102,0.02321966,0.03729708,0.09931865,0.15658366,0.22885416
47179,0,USTennesseeWashington,Tennessee,Washington,2021-01-05 09:55:52.941866,2020-04-25 00:00:00.000000,0.02519484,0.04442492,0.06300454,32,57,81,17,30,48,0.01323104,0.02365114,0.03723201,0.09908496,0.15378342,0.22857674
47179,0,USTennesseeWashington,Tennessee,Washington,2021-01-05 09:55:52.941866,2020-04-26 00:00:00.000000,0.02428270,0.04459243,0.06242911,31,57,80,16,30,47,0.01269983,0.02372963,0.03703157,0.09836696,0.15118208,0.22897300
47179,0,USTennesseeWashington,Tennessee,Washington,2021-01-05 09:55:52.941866,2020-04-27 00:00:00.000000,0.02508813,0.04434313,0.06248378,32,57,80,16,30,46,0.01245505,0.02364680,0.03630337,0.09655180,0.15244458,0.22932035
47179,0,USTennesseeWashington,Tennessee,Washington,2021-01-05 09:55:52.941866,2020-04-28 00:00:00.000000,0.02442629,0.04402319,0.06373472,31,56,82,16,30,46,0.01256968,0.02333556,0.03632520,0.09613810,0.15046272,0.22877211
47179,0,USTennesseeWashington,Tennessee,Washington,2021-01-05 09:55:52.941866,2020-04-29 00:00:00.000000,0.02434899,0.04419370,0.06346443,31,57,82,16,29,47,0.01290144,0.02304452,0.03634229,0.09602104,0.15238097,0.21835010
47179,0,USTennesseeWashington,Tennessee,Washington,2021-01-05 09:55:52.941866,2020-04-30 00:00:00.000000,0.02456871,0.04493985,0.06276764,31,58,81,17,29,46,0.01334943,0.02297988,0.03623727,0.09623985,0.15364454,0.21303832
47179,0,USTennesseeWashington,Tennessee,Washington,2021-01-05 09:55:52.941866,2020-05-01 00:00:00.000000,0.02478551,0.04522599,0.06343035,32,58,82,17,30,46,0.01388474,0.02323848,0.03611501,0.09692107,0.15228408,0.21164859
47179,0,USTennesseeWashington,Tennessee,Washington,2021-01-05 09:55:52.941866,2020-05-02 00:00:00.000000,0.02470939,0.04481717,0.06399262,31,57,82,17,30,46,0.01359417,0.02349988,0.03600552,0.10157389,0.15063212,0.20841392
47179,0,USTennesseeWashington,Tennessee,Washington,2021-01-05 09:55:52.941866,2020-05-03 00:00:00.000000,0.02466152,0.04443910,0.06440728,31,57,83,17,30,46,0.01319640,0.02323861,0.03590673,0.09976492,0.15266332,0.21075900
47179,0,USTennesseeWashington,Tennessee,Washington,2021-01-05 09:55:52.941866,2020-05-04 00:00:00.000000,0.02421149,0.04463772,0.06478827,31,57,83,16,29,46,0.01279784,0.02313282,0.03581743,0.10067091,0.15274664,0.21299735
47179,0,USTennesseeWashington,Tennessee,Washington,2021-01-05 09:55:52.941866,2020-05-05 00:00:00.000000,0.02306061,0.04426690,0.06513643,29,57,84,16,30,46,0.01251478,0.02329926,0.03568893,0.09936058,0.15152576,0.21660692
47179,0,USTennesseeWashington,Tennessee,Washington,2021-01-05 09:55:52.941866,2020-05-06 00:00:00.000000,0.02284058,0.04365004,0.06538452,29,56,84,15,30,45,0.01194273,0.02334982,0.03554186,0.09943936,0.15105415,0.21860390
47179,0,USTennesseeWashington,Tennessee,Washington,2021-01-05 09:55:52.941866,2020-05-07 00:00:00.000000,0.02203396,0.04361389,0.06586201,28,56,85,15,30,45,0.01187308,0.02328037,0.03538836,0.09968597,0.15089266,0.21958942
47179,0,USTennesseeWashington,Tennessee,Washington,2021-01-05 09:55:52.941866,2020-05-08 00:00:00.000000,0.02128820,0.04385643,0.06680145,27,56,86,15,30,45,0.01209922,0.02323424,0.03523518,0.10012738,0.15505230,0.22027115
47179,0,USTennesseeWashington,Tennessee,Washington,2021-01-05 09:55:52.941866,2020-05-09 00:00:00.000000,0.02060998,0.04326421,0.06795604,26,55,87,15,30,45,0.01215731,0.02329315,0.03549340,0.10095368,0.15866767,0.23572812
47179,0,USTennesseeWashington,Tennessee,Washington,2021-01-05 09:55:52.941866,2020-05-10 00:00:00.000000,0.01999192,0.04291055,0.06886448,25,55,89,15,30,46,0.01177078,0.02325991,0.03609271,0.10875372,0.16182968,0.23382345
47179,0,USTennesseeWashington,Tennessee,Washington,2021-01-05 09:55:52.941866,2020-05-11 00:00:00.000000,0.02009971,0.04273875,0.06873523,26,55,88,14,29,47,0.01138552,0.02313629,0.03665920,0.10906913,0.16378857,0.22831549
47179,0,USTennesseeWashington,Tennessee,Washington,2021-01-05 09:55:52.941866,2020-05-12 00:00:00.000000,0.02128384,0.04277920,0.06926581,27,55,89,14,29,47,0.01114705,0.02291576,0.03696613,0.11010685,0.16770578,0.23301150
47179,0,USTennesseeWashington,Tennessee,Washington,2021-01-05 09:55:52.941866,2020-05-13 00:00:00.000000,0.02129767,0.04324144,0.07036110,27,55,91,14,29,48,0.01101069,0.02288552,0.03710970,0.11325234,0.16809764,0.23527723
47179,0,USTennesseeWashington,Tennessee,Washington,2021-01-05 09:55:52.941866,2020-05-14 00:00:00.000000,0.02136781,0.04335838,0.07144916,27,56,92,14,29,48,0.01094704,0.02262339,0.03714528,0.11829628,0.16922914,0.23668560
47179,0,USTennesseeWashington,Tennessee,Washington,2021-01-05 09:55:52.941866,2020-05-15 00:00:00.000000,0.02148342,0.04330739,0.07265468,27,56,93,14,29,48,0.01106576,0.02248751,0.03710681,0.11905723,0.17057635,0.24875355
47179,0,USTennesseeWashington,Tennessee,Washington,2021-01-05 09:55:52.941866,2020-05-16 00:00:00.000000,0.02163246,0.04341238,0.07440474,27,56,96,14,29,47,0.01093264,0.02253045,0.03701895,0.11961961,0.17053225,0.26020755
47179,0,USTennesseeWashington,Tennessee,Washington,2021-01-05 09:55:52.941866,2020-05-17 00:00:00.000000,0.02147096,0.04416988,0.07547778,27,57,97,14,28,47,0.01087335,0.02239877,0.03689952,0.11737186,0.17191003,0.26469657
47179,0,USTennesseeWashington,Tennessee,Washington,2021-01-05 09:55:52.941866,2020-05-18 00:00:00.000000,0.02204897,0.04447910,0.07535289,28,57,97,13,28,48,0.01067265,0.02219915,0.03733795,0.11654891,0.17656395,0.26532707
47179,0,USTennesseeWashington,Tennessee,Washington,2021-01-05 09:55:52.941866,2020-05-19 00:00:00.000000,0.02267132,0.04419538,0.07681425,29,57,99,13,28,49,0.01065092,0.02233271,0.03805668,0.11888960,0.17983177,0.27693314
47179,0,USTennesseeWashington,Tennessee,Washington,2021-01-05 09:55:52.941866,2020-05-20 00:00:00.000000,0.02333749,0.04438160,0.07851060,30,57,101,13,29,50,0.01075379,0.02252265,0.03892457,0.12265056,0.18163469,0.29388144
47179,0,USTennesseeWashington,Tennessee,Washington,2021-01-05 09:55:52.941866,2020-05-21 00:00:00.000000,0.02420686,0.04542248,0.07771201,31,58,100,14,29,51,0.01094107,0.02263391,0.03958153,0.12733428,0.18498929,0.29961168
47179,0,USTennesseeWashington,Tennessee,Washington,2021-01-05 09:55:52.941866,2020-05-22 00:00:00.000000,0.02580344,0.04646443,0.07689518,33,60,99,14,29,51,0.01121575,0.02283496,0.04010670,0.12764450,0.18864424,0.30722391
47179,0,USTennesseeWashington,Tennessee,Washington,2021-01-05 09:55:52.941866,2020-05-23 00:00:00.000000,0.02733109,0.04685193,0.07701937,35,60,99,15,29,52,0.01167423,0.02295715,0.04056670,0.13595427,0.19563280,0.31002011
47179,0,USTennesseeWashington,Tennessee,Washington,2021-01-05 09:55:52.941866,2020-05-24 00:00:00.000000,0.02646392,0.04746560,0.07793173,34,61,100,15,30,53,0.01226948,0.02349652,0.04100960,0.14521421,0.20409510,0.31182046
47179,0,USTennesseeWashington,Tennessee,Washington,2021-01-05 09:55:52.941866,2020-05-25 00:00:00.000000,0.02780921,0.04839007,0.08259912,35,62,106,16,31,52,0.01295783,0.02402003,0.04090334,0.14508880,0.20629140,0.31404707
47179,0,USTennesseeWashington,Tennessee,Washington,2021-01-05 09:55:52.941866,2020-05-26 00:00:00.000000,0.02919008,0.04937683,0.08729579,37,63,112,17,32,53,0.01364140,0.02507396,0.04169430,0.14512115,0.20824566,0.32153653
47179,0,USTennesseeWashington,Tennessee,Washington,2021-01-05 09:55:52.941866,2020-05-27 00:00:00.000000,0.03064015,0.04966382,0.09017921,39,64,116,18,33,55,0.01432598,0.02574071,0.04275963,0.14431667,0.21408931,0.32870303
47179,0,USTennesseeWashington,Tennessee,Washington,2021-01-05 09:55:52.941866,2020-05-28 00:00:00.000000,0.03187411,0.05084346,0.09058058,41,65,117,19,33,56,0.01501670,0.02604278,0.04385177,0.14484484,0.22210630,0.33530408
47179,0,USTennesseeWashington,Tennessee,Washington,2021-01-05 09:55:52.941866,2020-05-29 00:00:00.000000,0.03179593,0.05178545,0.09262685,41,66,119,20,34,58,0.01554873,0.02645241,0.04496516,0.14796778,0.22864851,0.34123144
47179,0,USTennesseeWashington,Tennessee,Washington,2021-01-05 09:55:52.941866,2020-05-30 00:00:00.000000,0.03121126,0.05282514,0.09629806,40,68,124,20,34,60,0.01568726,0.02700033,0.04693784,0.14824373,0.23642254,0.35418684
47179,0,USTennesseeWashington,Tennessee,Washington,2021-01-05 09:55:52.941866,2020-05-31 00:00:00.000000,0.03071380,0.05464786,0.09998566,39,70,129,19,35,64,0.01538427,0.02754650,0.05001413,0.14830777,0.24957059,0.37700216
47179,0,USTennesseeWashington,Tennessee,Washington,2021-01-05 09:55:52.941866,2020-06-01 00:00:00.000000,0.03129271,0.05669563,0.10361743,40,73,134,19,36,69,0.01511241,0.02804478,0.05338116,0.14852423,0.25472152,0.39952766
47179,0,USTennesseeWashington,Tennessee,Washington,2021-01-05 09:55:52.941866,2020-06-02 00:00:00.000000,0.03223411,0.05862771,0.10431004,41,75,134,19,37,73,0.01512009,0.02861720,0.05664578,0.15681309,0.26179328,0.40405223
47179,0,USTennesseeWashington,Tennessee,Washington,2021-01-05 09:55:52.941866,2020-06-03 00:00:00.000000,0.03278577,0.06097189,0.10625476,42,78,137,19,38,77,0.01536839,0.02946094,0.05990519,0.17205626,0.26842289,0.40501978
47179,0,USTennesseeWashington,Tennessee,Washington,2021-01-05 09:55:52.941866,2020-06-04 00:00:00.000000,0.03319207,0.06292806,0.11094454,42,81,143,20,39,81,0.01582644,0.03025087,0.06318490,0.17982386,0.27830278,0.41391397
47179,0,USTennesseeWashington,Tennessee,Washington,2021-01-05 09:55:52.941866,2020-06-05 00:00:00.000000,0.03366454,0.06638242,0.11581832,43,85,149,21,39,85,0.01644351,0.03076418,0.06607583,0.18173721,0.28297055,0.43169825
47179,0,USTennesseeWashington,Tennessee,Washington,2021-01-05 09:55:52.941866,2020-06-06 00:00:00.000000,0.03416921,0.06978117,0.12085599,44,90,156,22,40,87,0.01710755,0.03148695,0.06777786,0.18512456,0.29707012,0.45287311
47179,0,USTennesseeWashington,Tennessee,Washington,2021-01-05 09:55:52.941866,2020-06-07 00:00:00.000000,0.03468776,0.07231632,0.12601488,44,93,163,22,42,89,0.01716348,0.03268403,0.06929105,0.18967980,0.31302948,0.46258258
47179,0,USTennesseeWashington,Tennessee,Washington,2021-01-05 09:55:52.941866,2020-06-08 00:00:00.000000,0.03675954,0.07475442,0.13005906,47,96,168,22,44,91,0.01729671,0.03415329,0.07077089,0.19436205,0.32496111,0.47144131
47179,0,USTennesseeWashington,Tennessee,Washington,2021-01-05 09:55:52.941866,2020-06-09 00:00:00.000000,0.03887561,0.08013336,0.13434482,50,103,173,23,45,93,0.01783914,0.03511504,0.07219022,0.20695070,0.33657002,0.49647103
47179,0,USTennesseeWashington,Tennessee,Washington,2021-01-05 09:55:52.941866,2020-06-10 00:00:00.000000,0.04107391,0.08577965,0.13879497,53,110,179,24,46,95,0.01871672,0.03620160,0.07360055,0.20986421,0.34571088,0.52397752
47179,0,USTennesseeWashington,Tennessee,Washington,2021-01-05 09:55:52.941866,2020-06-11 00:00:00.000000,0.04247679,0.08987269,0.14340311,54,116,185,25,49,97,0.01987648,0.03815776,0.07506678,0.22388813,0.35649218,0.51044808
47179,0,USTennesseeWashington,Tennessee,Washington,2021-01-05 09:55:52.941866,2020-06-12 00:00:00.000000,0.04553518,0.09489392,0.15015257,58,122,194,27,52,99,0.02129140,0.04080719,0.07668686,0.25408362,0.36472957,0.56086660
47179,0,USTennesseeWashington,Tennessee,Washington,2021-01-05 09:55:52.941866,2020-06-13 00:00:00.000000,0.04776513,0.10090724,0.16023007,61,130,207,29,55,101,0.02295846,0.04319087,0.07859573,0.25926093,0.37262569,0.58111750
47179,0,USTennesseeWashington,Tennessee,Washington,2021-01-05 09:55:52.941866,2020-06-14 00:00:00.000000,0.05044620,0.10710961,0.17148894,65,138,221,31,59,104,0.02406847,0.04620703,0.08093347,0.26447219,0.38798158,0.63469869
47179,0,USTennesseeWashington,Tennessee,Washington,2021-01-05 09:55:52.941866,2020-06-15 00:00:00.000000,0.05530259,0.11337941,0.18163002,71,146,234,32,65,108,0.02519180,0.05038589,0.08379309,0.27112176,0.41745237,0.66243104
47179,0,USTennesseeWashington,Tennessee,Washington,2021-01-05 09:55:52.941866,2020-06-16 00:00:00.000000,0.06059480,0.11900639,0.19352454,78,153,250,35,69,117,0.02750059,0.05374561,0.09056674,0.28419983,0.43431591,0.67471149
47179,0,USTennesseeWashington,Tennessee,Washington,2021-01-05 09:55:52.941866,2020-06-17 00:00:00.000000,0.06659605,0.12855979,0.20622644,86,166,266,39,72,126,0.03021829,0.05613125,0.09810986,0.31175487,0.45286599,0.67964111
47179,0,USTennesseeWashington,Tennessee,Washington,2021-01-05 09:55:52.941866,2020-06-18 00:00:00.000000,0.07324756,0.13889839,0.22903093,94,179,296,42,78,137,0.03270435,0.06064939,0.10614934,0.33839147,0.46359545,0.68297676
47179,0,USTennesseeWashington,Tennessee,Washington,2021-01-05 09:55:52.941866,2020-06-19 00:00:00.000000,0.08079646,0.14870389,0.25639272,104,192,331,45,83,143,0.03546064,0.06441132,0.11093579,0.35443784,0.49260156,0.70440995
47179,0,USTennesseeWashington,Tennessee,Washington,2021-01-05 09:55:52.941866,2020-06-20 00:00:00.000000,0.08982596,0.15887710,0.27894754,116,205,360,50,89,150,0.03886463,0.06948987,0.11659267,0.36621240,0.51864814,0.74024248
47179,0,USTennesseeWashington,Tennessee,Washington,2021-01-05 09:55:52.941866,2020-06-21 00:00:00.000000,0.09866781,0.17180508,0.30118233,127,222,389,55,97,159,0.04273430,0.07556469,0.12306700,0.38468284,0.53937691,0.76958504
47179,0,USTennesseeWashington,Tennessee,Washington,2021-01-05 09:55:52.941866,2020-06-22 00:00:00.000000,0.10814342,0.18591625,0.32512855,139,240,420,61,104,174,0.04723991,0.08087303,0.13519031,0.38571957,0.55686825,0.78476647
47179,0,USTennesseeWashington,Tennessee,Washington,2021-01-05 09:55:52.941866,2020-06-23 00:00:00.000000,0.11830987,0.20243190,0.35112440,153,261,454,65,112,195,0.05098542,0.08696087,0.15115624,0.41030609,0.56882124,0.79081937
47179,0,USTennesseeWashington,Tennessee,Washington,2021-01-05 09:55:52.941866,2020-06-24 00:00:00.000000,0.12922985,0.22142624,0.37928311,167,286,490,71,121,218,0.05564291,0.09429712,0.16891954,0.43688055,0.59595814,0.79494418
47179,0,USTennesseeWashington,Tennessee,Washington,2021-01-05 09:55:52.941866,2020-06-25 00:00:00.000000,0.14105645,0.24167962,0.41001226,182,312,530,81,132,243,0.06289027,0.10256679,0.18841019,0.43766631,0.62726854,0.80826455
47179,0,USTennesseeWashington,Tennessee,Washington,2021-01-05 09:55:52.941866,2020-06-26 00:00:00.000000,0.15407905,0.26419141,0.44431513,199,341,574,90,144,271,0.06991119,0.11141844,0.20979791,0.43904465,0.65231848,0.90886783
47179,0,USTennesseeWashington,Tennessee,Washington,2021-01-05 09:55:52.941866,2020-06-27 00:00:00.000000,0.17013735,0.29092080,0.49158599,220,376,635,100,159,301,0.07774108,0.12345348,0.23301359,0.44324716,0.65489319,0.93982156
47179,0,USTennesseeWashington,Tennessee,Washington,2021-01-05 09:55:52.941866,2020-06-28 00:00:00.000000,0.19207985,0.31876486,0.54789433,248,412,708,112,176,328,0.08659973,0.13612144,0.25367305,0.43762402,0.66797788,0.97086989
47179,0,USTennesseeWashington,Tennessee,Washington,2021-01-05 09:55:52.941866,2020-06-29 00:00:00.000000,0.22030451,0.35840589,0.62431767,285,463,807,124,192,357,0.09658853,0.14884560,0.27647421,0.45173965,0.67895842,1.01808728
47179,0,USTennesseeWashington,Tennessee,Washington,2021-01-05 09:55:52.941866,2020-06-30 00:00:00.000000,0.25175559,0.40168076,0.71135091,325,519,920,138,213,391,0.10706964,0.16504109,0.30283292,0.46635530,0.68788171,1.00779616
47179,0,USTennesseeWashington,Tennessee,Washington,2021-01-05 09:55:52.941866,2020-07-01 00:00:00.000000,0.28737866,0.44546794,0.81039843,371,576,1048,153,235,437,0.11868915,0.18222447,0.33797309,0.47707883,0.68821163,0.99698694
47179,0,USTennesseeWashington,Tennessee,Washington,2021-01-05 09:55:52.941866,2020-07-02 00:00:00.000000,0.32740848,0.49267236,0.92284005,423,637,1193,170,260,488,0.13212634,0.20158228,0.37779223,0.48322213,0.68993348,0.98897967
47179,0,USTennesseeWashington,Tennessee,Washington,2021-01-05 09:55:52.941866,2020-07-03 00:00:00.000000,0.35596782,0.56066278,1.04147669,460,725,1347,191,293,535,0.14798019,0.22661573,0.41420320,0.48710933,0.69828464,0.99841368
47179,0,USTennesseeWashington,Tennessee,Washington,2021-01-05 09:55:52.941866,2020-07-04 00:00:00.000000,0.39685577,0.62649928,1.13893540,513,810,1473,216,323,587,0.16733187,0.25038818,0.45377652,0.50861086,0.69985392,1.01184107
47179,0,USTennesseeWashington,Tennessee,Washington,2021-01-05 09:55:52.941866,2020-07-05 00:00:00.000000,0.45374050,0.69599061,1.24445878,587,900,1610,239,357,647,0.18478371,0.27663769,0.50047150,0.50927950,0.68714415,0.99980085
47179,0,USTennesseeWashington,Tennessee,Washington,2021-01-05 09:55:52.941866,2020-07-06 00:00:00.000000,0.50308513,0.78079219,1.35824471,650,1010,1757,264,396,721,0.20455111,0.30672806,0.55755863,0.50759722,0.68748197,1.00400390
47179,0,USTennesseeWashington,Tennessee,Washington,2021-01-05 09:55:52.941866,2020-07-07 00:00:00.000000,0.55748660,0.86910793,1.47995380,721,1124,1914,293,439,806,0.22694426,0.33970361,0.62317580,0.50229821,0.68508796,0.99908096
47179,0,USTennesseeWashington,Tennessee,Washington,2021-01-05 09:55:52.941866,2020-07-08 00:00:00.000000,0.61694593,0.95553818,1.60449184,798,1236,2075,319,487,903,0.24700917,0.37663011,0.69831337,0.50436690,0.67477163,0.98739117
47179,0,USTennesseeWashington,Tennessee,Washington,2021-01-05 09:55:52.941866,2020-07-09 00:00:00.000000,0.68319123,1.04490793,1.76885631,883,1351,2288,363,535,1015,0.28075326,0.41428523,0.78495586,0.51019744,0.67085791,0.95259594
47179,0,USTennesseeWashington,Tennessee,Washington,2021-01-05 09:55:52.941866,2020-07-10 00:00:00.000000,0.75664088,1.14616904,1.93420447,978,1482,2502,391,595,1122,0.30283515,0.45997458,0.86748409,0.50994828,0.66040682,0.94649852
47179,0,USTennesseeWashington,Tennessee,Washington,2021-01-05 09:55:52.941866,2020-07-11 00:00:00.000000,0.82442092,1.24799948,2.07155209,1066,1614,2680,419,656,1202,0.32450619,0.50756204,0.92979317,0.49403693,0.64784566,0.87448430
47179,0,USTennesseeWashington,Tennessee,Washington,2021-01-05 09:55:52.941866,2020-07-12 00:00:00.000000,0.89304947,1.36729978,2.21780141,1155,1768,2869,449,719,1288,0.34714355,0.55650326,0.99628548,0.48741931,0.64988045,0.81678754
47179,0,USTennesseeWashington,Tennessee,Washington,2021-01-05 09:55:52.941866,2020-07-13 00:00:00.000000,0.96821929,1.48225902,2.37096762,1252,1917,3067,479,797,1380,0.37100540,0.61616338,1.06717728,0.45592033,0.62223203,0.75720570
47179,0,USTennesseeWashington,Tennessee,Washington,2021-01-05 09:55:52.941866,2020-07-14 00:00:00.000000,1.04961127,1.60786156,2.55029559,1357,2080,3299,513,868,1477,0.39707026,0.67142878,1.14224485,0.45441823,0.60069980,0.73052257
47179,0,USTennesseeWashington,Tennessee,Washington,2021-01-05 09:55:52.941866,2020-07-15 00:00:00.000000,1.13718797,1.73249438,2.76630252,1471,2241,3578,557,948,1580,0.43112236,0.73310292,1.22183313,0.43888215,0.57564695,0.72517233
47179,0,USTennesseeWashington,Tennessee,Washington,2021-01-05 09:55:52.941866,2020-07-16 00:00:00.000000,1.23072452,1.86485033,2.88837669,1592,2412,3736,606,1028,1688,0.46853545,0.79466756,1.30504776,0.42871644,0.56198977,0.72117524
47179,0,USTennesseeWashington,Tennessee,Washington,2021-01-05 09:55:52.941866,2020-07-17 00:00:00.000000,1.32905971,2.01244791,3.01015721,1719,2603,3894,659,1125,1841,0.50951085,0.87006152,1.42345350,0.37164600,0.54057438,0.70373643
47179,0,USTennesseeWashington,Tennessee,Washington,2021-01-05 09:55:52.941866,2020-07-18 00:00:00.000000,1.42900344,2.16534621,3.12744106,1848,2801,4046,716,1209,2016,0.55418397,0.93464568,1.55874150,0.36158876,0.52118000,0.69025366
47179,0,USTennesseeWashington,Tennessee,Washington,2021-01-05 09:55:52.941866,2020-07-19 00:00:00.000000,1.52524040,2.32948383,3.21012859,1973,3013,4153,779,1300,2184,0.60260890,1.00496913,1.68863307,0.33756537,0.50379959,0.66095209
47179,0,USTennesseeWashington,Tennessee,Washington,2021-01-05 09:55:52.941866,2020-07-20 00:00:00.000000,1.61397036,2.45798585,3.25830505,2088,3180,4215,846,1389,2273,0.65452731,1.07419736,1.75720107,0.30743773,0.48160221,0.60832297
47179,0,USTennesseeWashington,Tennessee,Washington,2021-01-05 09:55:52.941866,2020-07-21 00:00:00.000000,1.69526813,2.58331641,3.30230301,2193,3342,4272,918,1472,2349,0.70956665,1.13822976,1.81612211,0.28930927,0.45388786,0.59542640
47179,0,USTennesseeWashington,Tennessee,Washington,2021-01-05 09:55:52.941866,2020-07-22 00:00:00.000000,1.79863540,2.71255728,3.34371528,2326,3509,4325,990,1554,2414,0.76562907,1.20179120,1.86663039,0.28240960,0.43378678,0.58334434
47179,0,USTennesseeWashington,Tennessee,Washington,2021-01-05 09:55:52.941866,2020-07-23 00:00:00.000000,1.92033758,2.79214526,3.46256047,2484,3612,4479,1053,1652,2471,0.81466774,1.27722430,1.91044055,0.27945149,0.41553623,0.57175323
47179,0,USTennesseeWashington,Tennessee,Washington,2021-01-05 09:55:52.941866,2020-07-24 00:00:00.000000,1.98465206,2.85702082,3.52183068,2567,3696,4556,1089,1727,2521,0.84180813,1.33508308,1.94926147,0.27108182,0.38165071,0.54042988
47179,0,USTennesseeWashington,Tennessee,Washington,2021-01-05 09:55:52.941866,2020-07-25 00:00:00.000000,2.02619576,2.91782406,3.58575780,2621,3774,4639,1144,1795,2565,0.88442365,1.38783685,1.98306372,0.23974872,0.34903027,0.50282669
47179,0,USTennesseeWashington,Tennessee,Washington,2021-01-05 09:55:52.941866,2020-07-26 00:00:00.000000,2.04871025,2.96091314,3.67647695,2650,3830,4756,1176,1865,2596,0.90967958,1.44193202,2.00702172,0.21896716,0.33692271,0.47312036
47179,0,USTennesseeWashington,Tennessee,Washington,2021-01-05 09:55:52.941866,2020-07-27 00:00:00.000000,2.05660895,3.01573920,3.73880295,2660,3901,4837,1203,1916,2629,0.92992860,1.48172530,2.03283002,0.21123225,0.31823324,0.43690999
47179,0,USTennesseeWashington,Tennessee,Washington,2021-01-05 09:55:52.941866,2020-07-28 00:00:00.000000,2.04677932,3.07161554,3.75999323,2648,3973,4864,1223,1966,2644,0.94553871,1.51975399,2.04441600,0.20024708,0.30256982,0.42582699
47179,0,USTennesseeWashington,Tennessee,Washington,2021-01-05 09:55:52.941866,2020-07-29 00:00:00.000000,2.03199153,3.08365636,3.72381759,2628,3989,4817,1237,1987,2653,0.95661370,1.53630150,2.05127794,0.19791219,0.28806659,0.41168166
47179,0,USTennesseeWashington,Tennessee,Washington,2021-01-05 09:55:52.941866,2020-07-30 00:00:00.000000,2.01443131,3.13486004,3.72609739,2606,4055,4820,1249,2007,2680,0.96601557,1.55194320,2.07167484,0.19049126,0.27572316,0.39838517
47179,0,USTennesseeWashington,Tennessee,Washington,2021-01-05 09:55:52.941866,2020-07-31 00:00:00.000000,2.00565489,3.11468324,3.77954457,2594,4029,4889,1274,2028,2671,0.98536841,1.56774868,2.06457822,0.18713319,0.25748606,0.36948857
47179,0,USTennesseeWashington,Tennessee,Washington,2021-01-05 09:55:52.941866,2020-08-01 00:00:00.000000,1.97318652,3.09150267,3.92274047,2552,3999,5075,1295,2038,2721,1.00149372,1.57599215,2.10353701,0.18511021,0.24829204,0.36067618
47179,0,USTennesseeWashington,Tennessee,Washington,2021-01-05 09:55:52.941866,2020-08-02 00:00:00.000000,1.95836898,3.05325801,4.02228509,2533,3950,5203,1312,2038,2776,1.01453738,1.57554108,2.14586865,0.18005914,0.24034426,0.35832247
47179,0,USTennesseeWashington,Tennessee,Washington,2021-01-05 09:55:52.941866,2020-08-03 00:00:00.000000,1.89810100,3.00934766,4.01706681,2455,3893,5197,1306,2049,2770,1.00947360,1.58405529,2.14154870,0.17369505,0.23578381,0.33588598
47179,0,USTennesseeWashington,Tennessee,Washington,2021-01-05 09:55:52.941866,2020-08-04 00:00:00.000000,1.86340775,2.96359217,3.96035608,2410,3834,5123,1281,2044,2777,0.99052798,1.58044316,2.14705689,0.17120115,0.23328014,0.32945673
47179,0,USTennesseeWashington,Tennessee,Washington,2021-01-05 09:55:52.941866,2020-08-05 00:00:00.000000,1.82954428,2.91835746,3.90112468,2366,3775,5047,1251,2028,2811,0.96763521,1.56786693,2.17300108,0.16720224,0.23173213,0.32160116
47179,0,USTennesseeWashington,Tennessee,Washington,2021-01-05 09:55:52.941866,2020-08-06 00:00:00.000000,1.79638524,2.85388789,3.84117168,2324,3692,4969,1235,2005,2826,0.95522642,1.55005563,2.18484937,0.16397827,0.23114267,0.31288322
47179,0,USTennesseeWashington,Tennessee,Washington,2021-01-05 09:55:52.941866,2020-08-07 00:00:00.000000,1.76454180,2.80485883,3.78757056,2282,3628,4900,1205,1978,2828,0.93164789,1.52949191,2.18621132,0.16298070,0.22722191,0.29711761
47179,0,USTennesseeWashington,Tennessee,Washington,2021-01-05 09:55:52.941866,2020-08-08 00:00:00.000000,1.73492103,2.74249157,3.72243863,2244,3548,4815,1161,1943,2818,0.89763689,1.50216798,2.17816558,0.16336344,0.22359723,0.29001658
47179,0,USTennesseeWashington,Tennessee,Washington,2021-01-05 09:55:52.941866,2020-08-09 00:00:00.000000,1.70866115,2.68866564,3.66044437,2210,3478,4735,1125,1910,2795,0.87018557,1.47696823,2.16087808,0.16564944,0.21997939,0.29813553
47179,0,USTennesseeWashington,Tennessee,Washington,2021-01-05 09:55:52.941866,2020-08-10 00:00:00.000000,1.66979978,2.64215524,3.58744100,2160,3418,4641,1093,1887,2764,0.84514712,1.45903306,2.13666291,0.16557932,0.21600406,0.29682685
47179,0,USTennesseeWashington,Tennessee,Washington,2021-01-05 09:55:52.941866,2020-08-11 00:00:00.000000,1.59270294,2.59060175,3.50632658,2060,3351,4536,1043,1867,2726,0.80668495,1.44345822,2.10776451,0.16513345,0.21416669,0.29532741
47179,0,USTennesseeWashington,Tennessee,Washington,2021-01-05 09:55:52.941866,2020-08-12 00:00:00.000000,1.51895742,2.54645574,3.43624582,1965,3294,4445,995,1835,2685,0.76961284,1.41841778,2.07593401,0.16535276,0.21167920,0.29455961
47179,0,USTennesseeWashington,Tennessee,Washington,2021-01-05 09:55:52.941866,2020-08-13 00:00:00.000000,1.45787440,2.51016139,3.36758426,1886,3247,4356,966,1777,2642,0.74667146,1.37373904,2.04238115,0.16444388,0.20656279,0.29382338
47179,0,USTennesseeWashington,Tennessee,Washington,2021-01-05 09:55:52.941866,2020-08-14 00:00:00.000000,1.44374562,2.44675849,3.28074890,1867,3165,4244,958,1734,2597,0.74107164,1.34076858,2.00801239,0.16113340,0.20697664,0.29237632
47179,0,USTennesseeWashington,Tennessee,Washington,2021-01-05 09:55:52.941866,2020-08-15 00:00:00.000000,1.42846894,2.37917292,3.18009119,1848,3078,4114,946,1691,2553,0.73181731,1.30712668,1.97363715,0.15983070,0.20737744,0.29074636
47179,0,USTennesseeWashington,Tennessee,Washington,2021-01-05 09:55:52.941866,2020-08-16 00:00:00.000000,1.38410727,2.32080678,3.09669125,1790,3002,4006,917,1642,2505,0.70921888,1.26952209,1.93655309,0.16327997,0.21023725,0.28385924
47179,0,USTennesseeWashington,Tennessee,Washington,2021-01-05 09:55:52.941866,2020-08-17 00:00:00.000000,1.34128384,2.27191583,3.01999389,1735,2939,3907,889,1612,2451,0.68742407,1.24676150,1.89505321,0.16543895,0.21641961,0.27754006
47179,0,USTennesseeWashington,Tennessee,Washington,2021-01-05 09:55:52.941866,2020-08-18 00:00:00.000000,1.30043757,2.23172308,2.94578070,1682,2887,3811,862,1578,2376,0.66639665,1.22043689,1.83713605,0.16953467,0.21865914,0.28886069
47179,0,USTennesseeWashington,Tennessee,Washington,2021-01-05 09:55:52.941866,2020-08-19 00:00:00.000000,1.26208814,2.19333607,2.87701414,1632,2837,3722,836,1535,2304,0.64618876,1.18657800,1.78125675,0.17056528,0.21865663,0.29345162
47179,0,USTennesseeWashington,Tennessee,Washington,2021-01-05 09:55:52.941866,2020-08-20 00:00:00.000000,1.22711472,2.14561950,2.81413975,1587,2775,3640,811,1496,2251,0.62691572,1.15679914,1.74060212,0.17264872,0.22018006,0.30157567
47179,0,USTennesseeWashington,Tennessee,Washington,2021-01-05 09:55:52.941866,2020-08-21 00:00:00.000000,1.19672522,2.09229749,2.77806390,1548,2706,3594,787,1462,2199,0.60883731,1.13024281,1.70013503,0.17346635,0.22610407,0.31509094
47179,0,USTennesseeWashington,Tennessee,Washington,2021-01-05 09:55:52.941866,2020-08-22 00:00:00.000000,1.17154774,2.03618645,2.76327934,1515,2634,3574,766,1437,2147,0.59236479,1.11082805,1.66024522,0.17320678,0.23220290,0.32758942
47179,0,USTennesseeWashington,Tennessee,Washington,2021-01-05 09:55:52.941866,2020-08-23 00:00:00.000000,1.15113328,1.99672114,2.75028906,1489,2583,3558,747,1406,2097,0.57785882,1.08677024,1.62121196,0.17301329,0.23246513,0.34812406
47179,0,USTennesseeWashington,Tennessee,Washington,2021-01-05 09:55:52.941866,2020-08-24 00:00:00.000000,1.13635320,1.97530666,2.70728157,1470,2555,3502,732,1370,2061,0.56580408,1.05905915,1.59326553,0.17251278,0.23722124,0.35846557
47179,0,USTennesseeWashington,Tennessee,Washington,2021-01-05 09:55:52.941866,2020-08-25 00:00:00.000000,1.12318983,1.95679867,2.69302444,1453,2531,3484,727,1348,2044,0.56264688,1.04252917,1.58013831,0.17063560,0.24648418,0.36050362
47179,0,USTennesseeWashington,Tennessee,Washington,2021-01-05 09:55:52.941866,2020-08-26 00:00:00.000000,1.11108394,1.94757090,2.67720245,1437,2519,3463,725,1330,2029,0.56096136,1.02870489,1.56874454,0.17074209,0.24722055,0.36063632
47179,0,USTennesseeWashington,Tennessee,Washington,2021-01-05 09:55:52.941866,2020-08-27 00:00:00.000000,1.11161339,1.91210247,2.65917395,1438,2473,3440,724,1309,2015,0.56037289,1.01229792,1.55815024,0.17269565,0.25108864,0.36041134
47179,0,USTennesseeWashington,Tennessee,Washington,2021-01-05 09:55:52.941866,2020-08-28 00:00:00.000000,1.10920717,1.89317254,2.63884135,1435,2449,3414,725,1290,2002,0.56050896,0.99738633,1.54762523,0.17746542,0.24992110,0.37144200
47179,0,USTennesseeWashington,Tennessee,Washington,2021-01-05 09:55:52.941866,2020-08-29 00:00:00.000000,1.09781346,1.87630736,2.61661099,1420,2427,3385,712,1270,1988,0.55083388,0.98190476,1.53668634,0.18467168,0.25042468,0.36905531
47179,0,USTennesseeWashington,Tennessee,Washington,2021-01-05 09:55:52.941866,2020-08-30 00:00:00.000000,1.08323844,1.84039247,2.59308469,1401,2381,3354,697,1255,1973,0.53909232,0.97066218,1.52511272,0.19380248,0.25321535,0.37202932
47179,0,USTennesseeWashington,Tennessee,Washington,2021-01-05 09:55:52.941866,2020-08-31 00:00:00.000000,1.07773589,1.80413307,2.56773985,1394,2334,3322,685,1244,1957,0.52974350,0.96171736,1.51288695,0.20192378,0.25433119,0.37300818
47179,0,USTennesseeWashington,Tennessee,Washington,2021-01-05 09:55:52.941866,2020-09-01 00:00:00.000000,1.07394923,1.78971793,2.54191103,1389,2315,3288,677,1238,1940,0.52372865,0.95744305,1.49989178,0.20049703,0.25958976,0.37334032
47179,0,USTennesseeWashington,Tennessee,Washington,2021-01-05 09:55:52.941866,2020-09-02 00:00:00.000000,1.07122215,1.76592110,2.51577763,1385,2284,3254,672,1236,1922,0.51980544,0.95578599,1.48631905,0.20183731,0.26602358,0.37346750
47179,0,USTennesseeWashington,Tennessee,Washington,2021-01-05 09:55:52.941866,2020-09-03 00:00:00.000000,1.06895822,1.74886372,2.48950380,1382,2262,3220,669,1232,1904,0.51713259,0.95242857,1.47233372,0.20577882,0.26907043,0.37985696
47179,0,USTennesseeWashington,Tennessee,Washington,2021-01-05 09:55:52.941866,2020-09-04 00:00:00.000000,1.06688335,1.73066015,2.46351890,1380,2239,3187,666,1218,1886,0.51517576,0.94208841,1.45807332,0.20946857,0.27139774,0.37950655
47179,0,USTennesseeWashington,Tennessee,Washington,2021-01-05 09:55:52.941866,2020-09-05 00:00:00.000000,1.06468803,1.71385680,2.44071041,1377,2217,3157,664,1202,1867,0.51364254,0.92951187,1.44370833,0.21084571,0.27602586,0.38460910
47179,0,USTennesseeWashington,Tennessee,Washington,2021-01-05 09:55:52.941866,2020-09-06 00:00:00.000000,1.05740828,1.69944668,2.42590505,1368,2198,3138,662,1187,1849,0.51236627,0.91807097,1.42958009,0.20969362,0.28067426,0.39414803
47179,0,USTennesseeWashington,Tennessee,Washington,2021-01-05 09:55:52.941866,2020-09-07 00:00:00.000000,1.05777984,1.69042343,2.41302163,1368,2186,3121,661,1173,1833,0.51142538,0.90679417,1.41742053,0.21236147,0.28292224,0.40530727
47179,0,USTennesseeWashington,Tennessee,Washington,2021-01-05 09:55:52.941866,2020-09-08 00:00:00.000000,1.06303024,1.69724534,2.40051667,1375,2195,3105,659,1157,1820,0.50978400,0.89477693,1.40696085,0.21094607,0.28564480,0.40565951
47179,0,USTennesseeWashington,Tennessee,Washington,2021-01-05 09:55:52.941866,2020-09-09 00:00:00.000000,1.06615146,1.69286719,2.38804415,1379,2190,3089,657,1144,1811,0.50858942,0.88428081,1.40011149,0.21188044,0.29165090,0.39801164
47179,0,USTennesseeWashington,Tennessee,Washington,2021-01-05 09:55:52.941866,2020-09-10 00:00:00.000000,1.06950346,1.68928432,2.37550306,1383,2185,3073,660,1142,1800,0.51021993,0.88304014,1.39136659,0.21571419,0.29594988,0.39240733
47179,0,USTennesseeWashington,Tennessee,Washington,2021-01-05 09:55:52.941866,2020-09-11 00:00:00.000000,1.07312669,1.69864536,2.40131958,1388,2197,3106,670,1153,1786,0.51825790,0.89137177,1.38108106,0.21666568,0.29521811,0.39769188
47179,0,USTennesseeWashington,Tennessee,Washington,2021-01-05 09:55:52.941866,2020-09-12 00:00:00.000000,1.07719658,1.70107983,2.43785211,1393,2200,3153,681,1152,1776,0.52669426,0.89118382,1.37329075,0.22198944,0.30430600,0.39890770
47179,0,USTennesseeWashington,Tennessee,Washington,2021-01-05 09:55:52.941866,2020-09-13 00:00:00.000000,1.08203796,1.69663647,2.43957900,1399,2195,3156,692,1147,1766,0.53536769,0.88707370,1.36564093,0.22252173,0.30957689,0.40022345
47179,0,USTennesseeWashington,Tennessee,Washington,2021-01-05 09:55:52.941866,2020-09-14 00:00:00.000000,1.09068727,1.71315074,2.43004328,1411,2216,3143,704,1150,1756,0.54418124,0.88909001,1.35804350,0.22455161,0.31632631,0.40200943
47179,0,USTennesseeWashington,Tennessee,Washington,2021-01-05 09:55:52.941866,2020-09-15 00:00:00.000000,1.10158657,1.73142612,2.42087262,1425,2240,3132,714,1152,1747,0.55241255,0.89097954,1.35101013,0.22778502,0.31677380,0.41396918
47179,0,USTennesseeWashington,Tennessee,Washington,2021-01-05 09:55:52.941866,2020-09-16 00:00:00.000000,1.11486312,1.74642630,2.41275149,1442,2259,3121,723,1164,1739,0.55951381,0.90005666,1.34431617,0.22787615,0.31804338,0.41954877
47179,0,USTennesseeWashington,Tennessee,Washington,2021-01-05 09:55:52.941866,2020-09-17 00:00:00.000000,1.13125204,1.76053747,2.43455660,1463,2277,3149,724,1185,1730,0.56020862,0.91609201,1.33780058,0.22798842,0.31794450,0.41855498
47179,0,USTennesseeWashington,Tennessee,Washington,2021-01-05 09:55:52.941866,2020-09-18 00:00:00.000000,1.15248178,1.77096403,2.45597425,1491,2291,3177,725,1201,1722,0.56100558,0.92855184,1.33130336,0.22836880,0.31893460,0.42993609
47179,0,USTennesseeWashington,Tennessee,Washington,2021-01-05 09:55:52.941866,2020-09-19 00:00:00.000000,1.18127667,1.79731333,2.50099872,1528,2325,3235,720,1212,1746,0.55720421,0.93731903,1.34985642,0.24413794,0.32374516,0.44777384
47179,0,USTennesseeWashington,Tennessee,Washington,2021-01-05 09:55:52.941866,2020-09-20 00:00:00.000000,1.17986037,1.83499236,2.55736252,1526,2374,3308,717,1221,1776,0.55441038,0.94382302,1.37318755,0.24553124,0.33306729,0.46512848
47179,0,USTennesseeWashington,Tennessee,Washington,2021-01-05 09:55:52.941866,2020-09-21 00:00:00.000000,1.16313124,1.87713373,2.62013260,1504,2428,3389,716,1230,1811,0.55343926,0.95126127,1.39985627,0.24526079,0.34459452,0.47577759
47179,0,USTennesseeWashington,Tennessee,Washington,2021-01-05 09:55:52.941866,2020-09-22 00:00:00.000000,1.14919670,1.91207901,2.68646171,1486,2473,3475,723,1249,1848,0.55897830,0.96550379,1.42907405,0.24678741,0.35196202,0.48853603
47179,0,USTennesseeWashington,Tennessee,Washington,2021-01-05 09:55:52.941866,2020-09-23 00:00:00.000000,1.13724329,1.95616760,2.75657165,1471,2530,3566,747,1257,1889,0.57743192,0.97200023,1.46075326,0.25053064,0.35862535,0.49782364
47179,0,USTennesseeWashington,Tennessee,Washington,2021-01-05 09:55:52.941866,2020-09-24 00:00:00.000000,1.12729590,1.98859584,2.83655145,1458,2572,3669,773,1265,1934,0.59811032,0.97780388,1.49540904,0.25843233,0.36495823,0.51780682
47179,0,USTennesseeWashington,Tennessee,Washington,2021-01-05 09:55:52.941866,2020-09-25 00:00:00.000000,1.16616456,2.00189801,2.89257240,1508,2589,3742,772,1272,1969,0.59732234,0.98327006,1.52247695,0.26902647,0.36491008,0.54229058
47179,0,USTennesseeWashington,Tennessee,Washington,2021-01-05 09:55:52.941866,2020-09-26 00:00:00.000000,1.22413031,2.01236861,2.92680771,1583,2603,3786,764,1293,2013,0.59123641,0.99947798,1.55634214,0.26552790,0.36708742,0.55480279
47179,0,USTennesseeWashington,Tennessee,Washington,2021-01-05 09:55:52.941866,2020-09-27 00:00:00.000000,1.28735041,2.04733013,2.96364927,1665,2648,3834,757,1311,2059,0.58584554,1.01385113,1.59151307,0.26686143,0.36970657,0.56035350
47179,0,USTennesseeWashington,Tennessee,Washington,2021-01-05 09:55:52.941866,2020-09-28 00:00:00.000000,1.30087528,2.11731822,3.00506213,1683,2739,3887,765,1321,2106,0.59203316,1.02179596,1.62819534,0.27423447,0.37808408,0.56262897
47179,0,USTennesseeWashington,Tennessee,Washington,2021-01-05 09:55:52.941866,2020-09-29 00:00:00.000000,1.29719179,2.14344797,3.05310670,1678,2773,3949,804,1347,2155,0.62148509,1.04178354,1.66645318,0.27957004,0.39141973,0.56354258
47179,0,USTennesseeWashington,Tennessee,Washington,2021-01-05 09:55:52.941866,2020-09-30 00:00:00.000000,1.30427992,2.17685866,3.10864226,1687,2816,4021,845,1361,2207,0.65316808,1.05254987,1.70648515,0.28064741,0.39966568,0.56397262
47179,0,USTennesseeWashington,Tennessee,Washington,2021-01-05 09:55:52.941866,2020-10-01 00:00:00.000000,1.29600968,2.21346293,3.21292231,1676,2863,4156,862,1402,2262,0.66675847,1.08371099,1.74847245,0.28249156,0.40544364,0.59722617
47179,0,USTennesseeWashington,Tennessee,Washington,2021-01-05 09:55:52.941866,2020-10-02 00:00:00.000000,1.30657575,2.25452089,3.33978798,1690,2916,4320,859,1422,2319,0.66471103,1.09968995,1.79254434,0.32443933,0.41962750,0.59777928
47179,0,USTennesseeWashington,Tennessee,Washington,2021-01-05 09:55:52.941866,2020-10-03 00:00:00.000000,1.32389210,2.31435158,3.46943915,1712,2994,4488,857,1443,2378,0.66311214,1.11539881,1.83871938,0.33267982,0.43555133,0.60515965
47179,0,USTennesseeWashington,Tennessee,Washington,2021-01-05 09:55:52.941866,2020-10-04 00:00:00.000000,1.36361379,2.40089115,3.60138850,1764,3106,4659,864,1470,2441,0.66855016,1.13694655,1.88688914,0.34291783,0.45781730,0.61350598
47179,0,USTennesseeWashington,Tennessee,Washington,2021-01-05 09:55:52.941866,2020-10-05 00:00:00.000000,1.42071804,2.51537804,3.73633403,1838,3254,4833,906,1524,2505,0.70088985,1.17865681,1.93685971,0.35187032,0.47641138,0.61373870
47179,0,USTennesseeWashington,Tennessee,Washington,2021-01-05 09:55:52.941866,2020-10-06 00:00:00.000000,1.49241156,2.63319162,3.88499031,1930,3406,5026,941,1580,2572,0.72762326,1.22163283,1.98859905,0.36049893,0.48720648,0.61192421
47179,0,USTennesseeWashington,Tennessee,Washington,2021-01-05 09:55:52.941866,2020-10-07 00:00:00.000000,1.57849784,2.74575205,4.07575367,2042,3552,5273,974,1646,2641,0.75351225,1.27251173,2.04197601,0.36552042,0.50031305,0.60935033
47179,0,USTennesseeWashington,Tennessee,Washington,2021-01-05 09:55:52.941866,2020-10-08 00:00:00.000000,1.67631433,2.86971609,4.17279515,2168,3712,5398,1019,1711,2713,0.78764681,1.32314765,2.09758123,0.37920271,0.50478122,0.62061449
47179,0,USTennesseeWashington,Tennessee,Washington,2021-01-05 09:55:52.941866,2020-10-09 00:00:00.000000,1.78312321,3.01673927,4.30026779,2306,3902,5563,1072,1780,2791,0.82918835,1.37601781,2.15753926,0.38088102,0.51553153,0.64089539
47179,0,USTennesseeWashington,Tennessee,Washington,2021-01-05 09:55:52.941866,2020-10-10 00:00:00.000000,1.89752771,3.15170403,4.44664915,2454,4077,5752,1134,1862,2875,0.87703944,1.43989300,2.22277098,0.38159812,0.52326986,0.65121658
47179,0,USTennesseeWashington,Tennessee,Washington,2021-01-05 09:55:52.941866,2020-10-11 00:00:00.000000,2.01909308,3.33350700,4.59021191,2612,4312,5938,1203,1947,2965,0.93023966,1.50503230,2.29239518,0.38246196,0.54032392,0.65336460
47179,0,USTennesseeWashington,Tennessee,Washington,2021-01-05 09:55:52.941866,2020-10-12 00:00:00.000000,2.14811270,3.52512249,4.73160391,2779,4560,6121,1276,2046,3060,0.98673885,1.58196388,2.36543843,0.38697719,0.54250418,0.65835650
47179,0,USTennesseeWashington,Tennessee,Washington,2021-01-05 09:55:52.941866,2020-10-13 00:00:00.000000,2.28451895,3.72171838,4.91331280,2955,4814,6356,1332,2165,3158,1.03025761,1.67406598,2.44138123,0.39310678,0.54233788,0.66686236
47179,0,USTennesseeWashington,Tennessee,Washington,2021-01-05 09:55:52.941866,2020-10-14 00:00:00.000000,2.42865045,3.86139250,5.14554707,3142,4995,6657,1393,2268,3259,1.07673141,1.75358789,2.51973311,0.39309266,0.54851410,0.67120554
47179,0,USTennesseeWashington,Tennessee,Washington,2021-01-05 09:55:52.941866,2020-10-15 00:00:00.000000,2.55066593,4.00754429,5.37871521,3299,5184,6958,1456,2385,3363,1.12571276,1.84349004,2.60015521,0.40539194,0.54929698,0.71689814
47179,0,USTennesseeWashington,Tennessee,Washington,2021-01-05 09:55:52.941866,2020-10-16 00:00:00.000000,2.65883314,4.20322605,5.55648648,3439,5437,7188,1522,2502,3481,1.17692590,1.93403955,2.69105203,0.40164639,0.54280571,0.71738465
47179,0,USTennesseeWashington,Tennessee,Washington,2021-01-05 09:55:52.941866,2020-10-17 00:00:00.000000,2.77129265,4.39970210,5.67608954,3585,5692,7343,1591,2603,3588,1.23021793,2.01242582,2.77356379,0.39663134,0.53428708,0.70589153
47179,0,USTennesseeWashington,Tennessee,Washington,2021-01-05 09:55:52.941866,2020-10-18 00:00:00.000000,2.88757336,4.62186670,5.78931580,3735,5979,7489,1663,2740,3702,1.28550688,2.11788993,2.86159284,0.39089589,0.52568418,0.68320667
47179,0,USTennesseeWashington,Tennessee,Washington,2021-01-05 09:55:52.941866,2020-10-19 00:00:00.000000,3.00542307,4.82662892,5.93130503,3888,6244,7673,1737,2877,3822,1.34269876,2.22453429,2.95444904,0.38794846,0.51867525,0.65448013
47179,0,USTennesseeWashington,Tennessee,Washington,2021-01-05 09:55:52.941866,2020-10-20 00:00:00.000000,3.09070380,5.04472471,6.10005676,3998,6526,7891,1812,3011,3947,1.40120990,2.32738600,3.05111630,0.38503655,0.51195644,0.64918895
47179,0,USTennesseeWashington,Tennessee,Washington,2021-01-05 09:55:52.941866,2020-10-21 00:00:00.000000,3.23096308,5.24659190,6.26374709,4180,6787,8103,1889,3149,4144,1.46044947,2.43456942,3.20326325,0.38912472,0.50293284,0.64635919
47179,0,USTennesseeWashington,Tennessee,Washington,2021-01-05 09:55:52.941866,2020-10-22 00:00:00.000000,3.32495948,5.44600812,6.41932714,4301,7045,8305,1964,3291,4344,1.51843833,2.54413823,3.35841233,0.39768314,0.49037521,0.59841147
47179,0,USTennesseeWashington,Tennessee,Washington,2021-01-05 09:55:52.941866,2020-10-23 00:00:00.000000,3.40220517,5.62129620,6.60423796,4401,7272,8544,2037,3419,4525,1.57474082,2.64280452,3.49775595,0.38313339,0.47636586,0.61607153
47179,0,USTennesseeWashington,Tennessee,Washington,2021-01-05 09:55:52.941866,2020-10-24 00:00:00.000000,3.46692956,5.77237825,6.85027536,4485,7468,8862,2107,3526,4684,1.62931293,2.72609412,3.62091446,0.36928829,0.46092544,0.59475038
47179,0,USTennesseeWashington,Tennessee,Washington,2021-01-05 09:55:52.941866,2020-10-25 00:00:00.000000,3.52435120,5.84355345,7.12115831,4559,7560,9212,2174,3623,4824,1.68101024,2.80064541,3.72943192,0.35785141,0.44544883,0.58956061
47179,0,USTennesseeWashington,Tennessee,Washington,2021-01-05 09:55:52.941866,2020-10-26 00:00:00.000000,3.57835413,5.96010652,7.28541776,4629,7710,9425,2237,3702,4950,1.72957822,2.86206585,3.82610215,0.34279182,0.43752090,0.57105716
47179,0,USTennesseeWashington,Tennessee,Washington,2021-01-05 09:55:52.941866,2020-10-27 00:00:00.000000,3.69885102,6.01897858,7.36737338,4785,7787,9531,2295,3807,5064,1.77401020,2.94288988,3.91432993,0.33401909,0.42943375,0.57113336
47179,0,USTennesseeWashington,Tennessee,Washington,2021-01-05 09:55:52.941866,2020-10-28 00:00:00.000000,3.85766560,6.09215194,7.55065174,4990,7881,9768,2346,3906,5169,1.81395547,3.01975079,3.99584435,0.32766521,0.41892499,0.57069888
47179,0,USTennesseeWashington,Tennessee,Washington,2021-01-05 09:55:52.941866,2020-10-29 00:00:00.000000,3.97469469,6.15777343,7.72257791,5142,7966,9991,2450,3960,5267,1.89413765,3.06115045,4.07173344,0.32516280,0.41365301,0.56743623
47179,0,USTennesseeWashington,Tennessee,Washington,2021-01-05 09:55:52.941866,2020-10-30 00:00:00.000000,4.03441730,6.23802005,7.87947784,5219,8070,10194,2556,4019,5359,1.97642038,3.10697239,4.14264701,0.32557730,0.41831317,0.54479476
47179,0,USTennesseeWashington,Tennessee,Washington,2021-01-05 09:55:52.941866,2020-10-31 00:00:00.000000,4.08685593,6.30820690,8.02648074,5287,8161,10384,2588,4098,5445,2.00090314,3.16777653,4.20903421,0.32388923,0.41998611,0.53906986
47179,0,USTennesseeWashington,Tennessee,Washington,2021-01-05 09:55:52.941866,2020-11-01 00:00:00.000000,4.10834036,6.42512736,8.13480903,5315,8312,10524,2618,4167,5525,2.02361204,3.22117765,4.27127955,0.32132068,0.42134734,0.53037155
47179,0,USTennesseeWashington,Tennessee,Washington,2021-01-05 09:55:52.941866,2020-11-02 00:00:00.000000,4.12849964,6.46267358,8.21521056,5341,8361,10628,2645,4191,5601,2.04449896,3.23961730,4.32968521,0.29866424,0.41665996,0.52666013
47179,0,USTennesseeWashington,Tennessee,Washington,2021-01-05 09:55:52.941866,2020-11-03 00:00:00.000000,4.13793824,6.44388472,8.26938241,5353,8336,10698,2670,4238,5671,2.06399649,3.27631565,4.38390161,0.29988390,0.41687612,0.52107201
47179,0,USTennesseeWashington,Tennessee,Washington,2021-01-05 09:55:52.941866,2020-11-04 00:00:00.000000,4.15169875,6.46252250,8.44648533,5371,8360,10927,2672,4264,5739,2.06538678,3.29596862,4.43647739,0.30644688,0.41490327,0.49808016
47179,0,USTennesseeWashington,Tennessee,Washington,2021-01-05 09:55:52.941866,2020-11-05 00:00:00.000000,4.16320345,6.49272924,8.61124418,5386,8399,11140,2665,4253,5878,2.06048027,3.28771435,4.54388121,0.31366524,0.41474325,0.49663980
47179,0,USTennesseeWashington,Tennessee,Washington,2021-01-05 09:55:52.941866,2020-11-06 00:00:00.000000,4.17348092,6.48414105,8.74854980,5399,8388,11318,2657,4289,6004,2.05424660,3.31583667,4.64085192,0.31637876,0.41500342,0.49813906
47179,0,USTennesseeWashington,Tennessee,Washington,2021-01-05 09:55:52.941866,2020-11-07 00:00:00.000000,4.18645914,6.46842646,8.83780070,5416,8368,11433,2648,4356,6112,2.04720790,3.36747410,4.72491888,0.31942647,0.40899578,0.49931644
47179,0,USTennesseeWashington,Tennessee,Washington,2021-01-05 09:55:52.941866,2020-11-08 00:00:00.000000,4.20345948,6.53784699,8.87957033,5438,8458,11487,2639,4431,6172,2.03996120,3.42493460,4.77134977,0.32021859,0.41148147,0.50251318
47179,0,USTennesseeWashington,Tennessee,Washington,2021-01-05 09:55:52.941866,2020-11-09 00:00:00.000000,4.21876906,6.58413246,8.89750360,5458,8518,11511,2630,4484,6173,2.03315746,3.46615702,4.77178467,0.32070163,0.41597877,0.51727144
47179,0,USTennesseeWashington,Tennessee,Washington,2021-01-05 09:55:52.941866,2020-11-10 00:00:00.000000,4.24892169,6.62971136,8.91239831,5497,8577,11530,2623,4541,6196,2.02771546,3.51024525,4.78974583,0.32154331,0.41665304,0.52474712
47179,0,USTennesseeWashington,Tennessee,Washington,2021-01-05 09:55:52.941866,2020-11-11 00:00:00.000000,4.30729571,6.67308072,8.93483877,5572,8633,11559,2618,4572,6234,2.02375490,3.53426454,4.81887341,0.32714734,0.42171554,0.52911383
47179,0,USTennesseeWashington,Tennessee,Washington,2021-01-05 09:55:52.941866,2020-11-12 00:00:00.000000,4.36510086,6.74381292,8.96732171,5647,8724,11601,2615,4579,6264,2.02127684,3.54008421,4.84220048,0.33458957,0.42727262,0.55378238
47179,0,USTennesseeWashington,Tennessee,Washington,2021-01-05 09:55:52.941866,2020-11-13 00:00:00.000000,4.42563885,6.79669023,9.02896009,5725,8793,11681,2624,4593,6292,2.02887369,3.55047851,4.86379095,0.33816052,0.43335267,0.55835045
47179,0,USTennesseeWashington,Tennessee,Washington,2021-01-05 09:55:52.941866,2020-11-14 00:00:00.000000,4.49614733,6.80557686,9.08380419,5816,8804,11752,2641,4619,6320,2.04159117,3.57034201,4.88578895,0.34759548,0.44261946,0.58465558
47179,0,USTennesseeWashington,Tennessee,Washington,2021-01-05 09:55:52.941866,2020-11-15 00:00:00.000000,4.57766053,6.84906818,9.12775656,5922,8860,11809,2659,4664,6350,2.05591921,3.60549296,4.90866724,0.35158335,0.45640476,0.59232281
47179,0,USTennesseeWashington,Tennessee,Washington,2021-01-05 09:55:52.941866,2020-11-16 00:00:00.000000,4.66229827,6.91494685,9.23039643,6031,8946,11941,2680,4707,6380,2.07195485,3.63888147,4.93171878,0.36536104,0.46909703,0.63360886
47179,0,USTennesseeWashington,Tennessee,Washington,2021-01-05 09:55:52.941866,2020-11-17 00:00:00.000000,4.74729675,7.06208448,9.36735257,6141,9136,12119,2704,4709,6409,2.09018374,3.64036777,4.95398900,0.36654661,0.47964193,0.65442008
47179,0,USTennesseeWashington,Tennessee,Washington,2021-01-05 09:55:52.941866,2020-11-18 00:00:00.000000,4.83123135,7.19587583,9.50239746,6250,9309,12293,2739,4734,6435,2.11754024,3.65925555,4.97448056,0.37456448,0.49872125,0.68959196
47179,0,USTennesseeWashington,Tennessee,Washington,2021-01-05 09:55:52.941866,2020-11-19 00:00:00.000000,4.91352395,7.34836819,9.59990365,6356,9506,12419,2810,4724,6458,2.17208908,3.65173493,4.99235440,0.37763478,0.50519404,0.69103645
47179,0,USTennesseeWashington,Tennessee,Washington,2021-01-05 09:55:52.941866,2020-11-20 00:00:00.000000,4.99438984,7.42428488,9.79700460,6461,9605,12674,2895,4761,6477,2.23789464,3.68032107,5.00710951,0.39774115,0.51944610,0.69573845
47179,0,USTennesseeWashington,Tennessee,Washington,2021-01-05 09:55:52.941866,2020-11-21 00:00:00.000000,5.07698771,7.43635090,10.08366214,6568,9620,13045,2992,4850,6637,2.31340158,3.74940574,5.13070158,0.42287730,0.53109517,0.72079846
47179,0,USTennesseeWashington,Tennessee,Washington,2021-01-05 09:55:52.941866,2020-11-22 00:00:00.000000,5.17395979,7.58343885,10.33463860,6693,9811,13370,3101,4941,6804,2.39698977,3.81920892,5.25953440,0.43570670,0.57493824,0.76274794
47179,0,USTennesseeWashington,Tennessee,Washington,2021-01-05 09:55:52.941866,2020-11-23 00:00:00.000000,5.31616623,7.85080272,10.62102858,6877,10156,13740,3217,5076,6922,2.48720092,3.92363467,5.35097341,0.43879519,0.60111821,0.78193811
47179,0,USTennesseeWashington,Tennessee,Washington,2021-01-05 09:55:52.941866,2020-11-24 00:00:00.000000,5.51427172,8.06085107,10.92553382,7134,10428,14134,3339,5243,7088,2.58088751,4.05322782,5.47904816,0.45112797,0.61323253,0.81267652
47179,0,USTennesseeWashington,Tennessee,Washington,2021-01-05 09:55:52.941866,2020-11-25 00:00:00.000000,5.73835690,8.28044782,11.29891796,7423,10712,14617,3462,5388,7250,2.67620218,4.16492362,5.60413556,0.45077019,0.62544473,0.82409572
47179,0,USTennesseeWashington,Tennessee,Washington,2021-01-05 09:55:52.941866,2020-11-26 00:00:00.000000,5.97177688,8.50706015,11.76277498,7725,11006,15218,3586,5480,7407,2.77219370,4.23630613,5.72565748,0.45216078,0.63840654,0.89973084
47179,0,USTennesseeWashington,Tennessee,Washington,2021-01-05 09:55:52.941866,2020-11-27 00:00:00.000000,6.20951637,8.87325567,12.11393215,8033,11479,15672,3710,5598,7559,2.86837483,4.32722112,5.84335772,0.45675741,0.65933167,0.92440585
47179,0,USTennesseeWashington,Tennessee,Washington,2021-01-05 09:55:52.941866,2020-11-28 00:00:00.000000,6.44827516,9.23802508,12.43650261,8342,11951,16089,3835,5728,7707,2.96444449,4.42758995,5.95765416,0.46706764,0.69139432,0.94606561
47179,0,USTennesseeWashington,Tennessee,Washington,2021-01-05 09:55:52.941866,2020-11-29 00:00:00.000000,6.68489196,9.55090285,12.76427464,8648,12356,16513,3958,5923,7931,3.05997043,4.57849982,6.13093517,0.48645786,0.70465084,0.96594785
47179,0,USTennesseeWashington,Tennessee,Washington,2021-01-05 09:55:52.941866,2020-11-30 00:00:00.000000,6.91957140,9.86135120,13.15599623,8952,12758,17020,4081,6065,8260,3.15447330,4.68799773,6.38502175,0.51191404,0.72888672,1.00391526
47179,0,USTennesseeWashington,Tennessee,Washington,2021-01-05 09:55:52.941866,2020-12-01 00:00:00.000000,7.14477146,10.19343703,13.68483501,9243,13187,17704,4200,6235,8612,3.24702912,4.81965764,6.65720722,0.52206655,0.74322115,1.07765819
47179,0,USTennesseeWashington,Tennessee,Washington,2021-01-05 09:55:52.941866,2020-12-02 00:00:00.000000,7.35955594,10.51191745,14.21597714,9521,13599,18391,4317,6404,8977,3.33724060,4.95005288,6.93905896,0.52441269,0.76040352,1.11759546
47179,0,USTennesseeWashington,Tennessee,Washington,2021-01-05 09:55:52.941866,2020-12-03 00:00:00.000000,7.56413162,10.91154922,14.73136347,9786,14116,19058,4430,6604,9346,3.42465839,5.10516102,7.22455303,0.52538463,0.77025691,1.16429048
47179,0,USTennesseeWashington,Tennessee,Washington,2021-01-05 09:55:52.941866,2020-12-04 00:00:00.000000,7.75821320,11.28616835,15.22712856,10037,14601,19700,4539,6797,9713,3.50864608,5.25401126,7.50769247,0.52743723,0.78106036,1.18595254
47179,0,USTennesseeWashington,Tennessee,Washington,2021-01-05 09:55:52.941866,2020-12-05 00:00:00.000000,7.93975655,11.62390267,15.69885751,10272,15038,20310,4642,7013,10072,3.58812756,5.42133675,7.78566088,0.50590853,0.80950142,1.20909220
47179,0,USTennesseeWashington,Tennessee,Washington,2021-01-05 09:55:52.941866,2020-12-06 00:00:00.000000,8.10485022,12.01230210,16.14240505,10485,15540,20884,4737,7266,10421,3.66147756,5.61690490,8.05536213,0.49084196,0.83066677,1.21119112
47179,0,USTennesseeWashington,Tennessee,Washington,2021-01-05 09:55:52.941866,2020-12-07 00:00:00.000000,8.26243036,12.37531944,16.55580469,10689,16010,21419,4822,7524,10755,3.72727006,5.81616705,8.31350118,0.48772230,0.83895731,1.21166443
47179,0,USTennesseeWashington,Tennessee,Washington,2021-01-05 09:55:52.941866,2020-12-08 00:00:00.000000,8.43479769,12.67687666,16.93487298,10912,16400,21909,4936,7775,11070,3.81594842,6.01017999,8.55670534,0.48725688,0.85234020,1.21656625
47179,0,USTennesseeWashington,Tennessee,Washington,2021-01-05 09:55:52.941866,2020-12-09 00:00:00.000000,8.59813521,12.92513429,17.27574833,11123,16721,22350,5048,8042,11360,3.90215265,6.21680748,8.78077456,0.48720842,0.85762180,1.20344956
47179,0,USTennesseeWashington,Tennessee,Washington,2021-01-05 09:55:52.941866,2020-12-10 00:00:00.000000,8.64560748,13.15737597,17.57411615,11185,17022,22736,5156,8286,11618,3.98532518,6.40476774,8.98042454,0.48720063,0.86021179,1.20905929
47179,0,USTennesseeWashington,Tennessee,Washington,2021-01-05 09:55:52.941866,2020-12-11 00:00:00.000000,8.78266625,13.44188496,17.82753932,11362,17390,23064,5259,8516,11837,4.06559062,6.58283556,9.14999477,0.48714957,0.84377242,1.24401188
47179,0,USTennesseeWashington,Tennessee,Washington,2021-01-05 09:55:52.941866,2020-12-12 00:00:00.000000,8.87550691,13.71932519,18.03358926,11482,17749,23330,5362,8745,12013,4.14459736,6.76002691,9.28571235,0.48702293,0.83452898,1.29610977
47179,0,USTennesseeWashington,Tennessee,Washington,2021-01-05 09:55:52.941866,2020-12-13 00:00:00.000000,8.91696549,13.88055647,18.19034064,11536,17957,23533,5490,8963,12287,4.24348917,6.92816422,9.49751504,0.48692767,0.83398017,1.32346478
47179,0,USTennesseeWashington,Tennessee,Washington,2021-01-05 09:55:52.941866,2020-12-14 00:00:00.000000,8.95197309,13.96755808,18.27649856,11581,18070,23645,5594,9103,12605,4.32462112,7.03671243,9.74316186,0.48702163,0.82821614,1.35812281
47179,0,USTennesseeWashington,Tennessee,Washington,2021-01-05 09:55:52.941866,2020-12-15 00:00:00.000000,8.97613971,14.06896369,18.27513460,11612,18201,23643,5676,9238,12872,4.38760626,7.14089777,9.95014364,0.48652408,0.83388345,1.38471696
47179,0,USTennesseeWashington,Tennessee,Washington,2021-01-05 09:55:52.941866,2020-12-16 00:00:00.000000,8.98962922,14.06743232,18.19161945,11630,18199,23535,5736,9334,13093,4.43399503,7.21539530,10.12076825,0.48306520,0.82548679,1.39492847
47179,0,USTennesseeWashington,Tennessee,Washington,2021-01-05 09:55:52.941866,2020-12-17 00:00:00.000000,8.99250393,14.03459974,17.99899358,11634,18157,23286,5777,9322,13268,4.46592373,7.20599729,10.25571309,0.47897102,0.81537259,1.44968059
47179,0,USTennesseeWashington,Tennessee,Washington,2021-01-05 09:55:52.941866,2020-12-18 00:00:00.000000,8.98539097,13.94987911,17.76771266,11624,18047,22986,5802,9322,13394,4.48525145,7.20549372,10.35355728,0.46914188,0.81810315,1.48135857
47179,0,USTennesseeWashington,Tennessee,Washington,2021-01-05 09:55:52.941866,2020-12-19 00:00:00.000000,8.92880542,13.85400172,17.59894761,11551,17923,22768,5800,9323,13476,4.48344089,7.20631419,10.41666251,0.46258610,0.84287248,1.48787549
47179,0,USTennesseeWashington,Tennessee,Washington,2021-01-05 09:55:52.941866,2020-12-20 00:00:00.000000,8.84365094,13.82072945,17.37742762,11441,17880,22482,5756,9357,13514,4.44969353,7.23279135,10.44565431,0.46014739,0.84214781,1.48847285
47179,0,USTennesseeWashington,Tennessee,Washington,2021-01-05 09:55:52.941866,2020-12-21 00:00:00.000000,8.78682981,13.76193854,17.19426106,11367,17804,22245,5768,9350,13510,4.45888642,7.22762271,10.44253374,0.46784086,0.85765634,1.48675487
47179,0,USTennesseeWashington,Tennessee,Washington,2021-01-05 09:55:52.941866,2020-12-22 00:00:00.000000,8.82556658,13.60977479,17.03157807,11418,17607,22034,5767,9264,13418,4.45825503,7.16115716,10.37203721,0.47095428,0.85566660,1.60232982
47179,0,USTennesseeWashington,Tennessee,Washington,2021-01-05 09:55:52.941866,2020-12-23 00:00:00.000000,8.86704800,13.40517101,16.86665197,11471,17342,21821,5733,9156,13143,4.43156338,7.07769823,10.15945582,0.47191670,0.86338184,1.61102695
47179,0,USTennesseeWashington,Tennessee,Washington,2021-01-05 09:55:52.941866,2020-12-24 00:00:00.000000,8.82517817,13.06831745,16.66746204,11417,16907,21563,5693,9046,12831,4.40050039,6.99259969,9.91835393,0.47230235,0.87380255,1.79650808
47179,0,USTennesseeWashington,Tennessee,Washington,2021-01-05 09:55:52.941866,2020-12-25 00:00:00.000000,8.78633425,12.65475912,16.37401762,11367,16372,21183,5647,8942,12487,4.36486186,6.91222134,9.65185915,0.47352942,0.87187191,1.81838818
47179,0,USTennesseeWashington,Tennessee,Washington,2021-01-05 09:55:52.941866,2020-12-26 00:00:00.000000,8.75618208,12.29642695,15.98416645,11328,15908,20679,5593,8778,12113,4.32382296,6.78528324,9.36319315,0.48430221,0.87907988,1.85681697
47179,0,USTennesseeWashington,Tennessee,Washington,2021-01-05 09:55:52.941866,2020-12-27 00:00:00.000000,8.54834225,11.92862938,15.50383616,11059,15432,20058,5535,8638,11715,4.27867188,6.67672817,9.05555967,0.54420338,0.88725512,1.92632448
47179,0,USTennesseeWashington,Tennessee,Washington,2021-01-05 09:55:52.941866,2020-12-28 00:00:00.000000,8.29145709,11.59761888,14.96583754,10727,15004,19362,5470,8497,11298,4.22852722,6.56796601,8.73317623,0.53297101,0.88429668,2.03723683
47179,0,USTennesseeWashington,Tennessee,Washington,2021-01-05 09:55:52.941866,2020-12-29 00:00:00.000000,8.09286788,11.38274952,14.39835128,10470,14726,18627,5357,8316,11052,4.14077795,6.42792233,8.54296973,0.51933909,0.89168484,2.17985182
47179,0,USTennesseeWashington,Tennessee,Washington,2021-01-05 09:55:52.941866,2020-12-30 00:00:00.000000,7.80440408,11.17532107,13.81786248,10096,14458,17876,5189,8148,10875,4.01099233,6.29865579,8.40652794,0.52772651,0.88871802,2.25116070
47179,0,USTennesseeWashington,Tennessee,Washington,2021-01-05 09:55:52.941866,2020-12-31 00:00:00.000000,7.51129991,10.82915747,13.78747805,9717,14010,17837,5015,8022,10802,3.87697533,6.20077006,8.34976845,0.54565832,0.88273707,2.26284530
47179,0,USTennesseeWashington,Tennessee,Washington,2021-01-05 09:55:52.941866,2021-01-01 00:00:00.000000,7.21543937,10.56879769,13.72777512,9334,13673,17760,4838,7782,10716,3.73973362,6.01523494,8.28309107,0.54914613,0.88344827,2.28039701
47179,0,USTennesseeWashington,Tennessee,Washington,2021-01-05 09:55:52.941866,2021-01-02 00:00:00.000000,6.91857914,10.23200668,13.30822084,8950,13237,17217,4659,7525,10588,3.60163758,5.81692277,8.18420294,0.54961748,0.88898165,2.36524725
47179,0,USTennesseeWashington,Tennessee,Washington,2021-01-05 09:55:52.941866,2021-01-03 00:00:00.000000,6.62233924,9.81308181,13.53489500,8567,12695,17510,4479,7250,10152,3.46273711,5.60459331,7.84760555,0.54958334,0.88972022,2.57912172
47179,0,USTennesseeWashington,Tennessee,Washington,2021-01-05 09:55:52.941866,2021-01-04 00:00:00.000000,6.32819635,9.61211780,13.40776905,8187,12435,17346,4343,7067,9771,3.35726628,5.46262372,7.55310889,0.52778992,0.89805248,2.67459117
47179,0,USTennesseeWashington,Tennessee,Washington,2021-01-05 09:55:52.941866,2021-01-05 00:00:00.000000,6.03747997,9.15695852,13.24607155,7810,11846,17137,4272,6835,9821,3.30269806,5.28349178,7.59132949,0.51197614,0.89935389,2.74237088
47179,0,USTennesseeWashington,Tennessee,Washington,2021-01-05 09:55:52.941866,2021-01-06 00:00:00.000000,5.71256843,8.86239317,13.03928093,7390,11465,16869,4199,6610,9615,3.24591569,5.10964439,7.43220833,0.50617823,0.91252030,2.79548986
47179,0,USTennesseeWashington,Tennessee,Washington,2021-01-05 09:55:52.941866,2021-01-07 00:00:00.000000,5.43913284,8.47041376,12.80636478,7036,10958,16568,4043,6419,9510,3.12503144,4.96168080,7.35108650,0.49761173,0.91833988,2.79779528
47179,0,USTennesseeWashington,Tennessee,Washington,2021-01-05 09:55:52.941866,2021-01-08 00:00:00.000000,5.17227909,8.11752934,12.54949796,6691,10502,16235,3853,6148,9385,2.97820221,4.75239380,7.25483369,0.49681412,0.91876279,2.79823228
47179,0,USTennesseeWashington,Tennessee,Washington,2021-01-05 09:55:52.941866,2021-01-09 00:00:00.000000,4.91264668,7.77006300,12.27097274,6355,10052,15875,3633,5842,9242,2.80842571,4.51577211,7.14406349,0.49664935,0.91892660,2.79826467
47179,0,USTennesseeWashington,Tennessee,Washington,2021-01-05 09:55:52.941866,2021-01-10 00:00:00.000000,4.66076130,7.42650845,11.97316764,6029,9608,15490,3422,5586,9081,2.64536493,4.31815942,7.01960091,0.49657810,0.91899121,2.79826995
47179,0,USTennesseeWashington,Tennessee,Washington,2021-01-05 09:55:52.941866,2021-01-11 00:00:00.000000,4.41525135,7.03837203,11.65851111,5712,9105,15083,3220,5315,8904,2.48916065,4.10841989,6.88242934,0.49654256,0.91901722,2.79827084
47179,0,USTennesseeWashington,Tennessee,Washington,2021-01-05 09:55:52.941866,2021-01-12 00:00:00.000000,4.17301226,6.64920179,11.44076472,5398,8602,14801,3025,5081,8711,2.33870909,3.92762753,6.73364792,0.49652492,0.91902791,2.79827099
47179,0,USTennesseeWashington,Tennessee,Washington,2021-01-05 09:55:52.941866,2021-01-13 00:00:00.000000,3.93997862,6.31048661,11.40426537,5097,8164,14754,2836,4872,8474,2.19237405,3.76652199,6.55011085,0.49651628,0.91903241,2.79827103
47179,0,USTennesseeWashington,Tennessee,Washington,2021-01-05 09:55:52.941866,2021-01-14 00:00:00.000000,3.71632562,6.00423476,11.01935793,4807,7767,14256,2656,4634,8223,2.05297409,3.58256844,6.35645808,0.49651208,0.91903434,2.79827104
47179,0,USTennesseeWashington,Tennessee,Washington,2021-01-05 09:55:52.941866,2021-01-15 00:00:00.000000,3.50214400,5.71801643,10.63734953,4530,7397,13762,2484,4415,7970,1.92050029,3.41258037,6.16112826,0.49651004,0.91903520,2.79827104
47179,0,USTennesseeWashington,Tennessee,Washington,2021-01-05 09:55:52.941866,2021-01-16 00:00:00.000000,3.29744968,5.40329001,10.25921118,4266,6990,13272,2322,4163,7717,1.79488825,3.21807802,5.96500148,0.49650904,0.91903558,2.79827104
47179,0,USTennesseeWashington,Tennessee,Washington,2021-01-05 09:55:52.941866,2021-01-17 00:00:00.000000,3.10219308,5.08446646,10.04323804,4013,6578,12993,2186,3932,7535,1.69036832,3.03967896,5.82449547,0.49650856,0.91903575,2.79827104
