FIPS,HR_UID,nameid,province,region,analysisTime,dates,pointprevalence_025,pointprevalence_50,pointprevalence_975,pointinfections_025,pointinfections_50,pointinfections_975,pointinfectious_025,pointinfectious_50,pointinfectious_975,pointinfectiousprevalence_05,pointinfectiousprevalence_50,pointinfectiousprevalence_95,infectrate_025,infectrate_50,infectrate_975
32029,0,USNevadaStorey,Nevada,Storey,2021-01-05 15:47:23.045243,2020-03-09 00:00:00.000000,0.01178436,0.06753958,0.25743346,0,2,10,0,1,5,0.00634129,0.03895359,0.13217485,0.38934721,0.53905807,0.70790515
32029,0,USNevadaStorey,Nevada,Storey,2021-01-05 15:47:23.045243,2020-03-10 00:00:00.000000,0.01291285,0.07196373,0.27221055,0,2,11,0,1,5,0.00708619,0.03862769,0.13278151,0.38934715,0.53890365,0.70789907
32029,0,USNevadaStorey,Nevada,Storey,2021-01-05 15:47:23.045243,2020-03-11 00:00:00.000000,0.01417946,0.07679263,0.28795359,0,3,11,0,1,5,0.00750679,0.04143556,0.14348897,0.38934692,0.53855868,0.70788853
32029,0,USNevadaStorey,Nevada,Storey,2021-01-05 15:47:23.045243,2020-03-12 00:00:00.000000,0.01558093,0.08149572,0.30447070,0,3,12,0,1,6,0.00810834,0.04461548,0.15537964,0.38934578,0.53779672,0.70786943
32029,0,USNevadaStorey,Nevada,Storey,2021-01-05 15:47:23.045243,2020-03-13 00:00:00.000000,0.01703048,0.08778565,0.32363316,0,3,13,0,1,6,0.00879512,0.04798078,0.16836109,0.38934005,0.53615523,0.70783159
32029,0,USNevadaStorey,Nevada,Storey,2021-01-05 15:47:23.045243,2020-03-14 00:00:00.000000,0.01827870,0.09455026,0.35224878,0,3,14,0,2,7,0.00952733,0.05152965,0.18431007,0.38931028,0.53323386,0.70774418
32029,0,USNevadaStorey,Nevada,Storey,2021-01-05 15:47:23.045243,2020-03-15 00:00:00.000000,0.01958247,0.09971135,0.38178322,0,4,15,0,2,8,0.01029078,0.05521486,0.20205419,0.38915461,0.53319515,0.70749894
32029,0,USNevadaStorey,Nevada,Storey,2021-01-05 15:47:23.045243,2020-03-16 00:00:00.000000,0.02094977,0.10579973,0.40119168,0,4,16,0,2,9,0.01108285,0.05962539,0.21989179,0.38837303,0.52446142,0.70668377
32029,0,USNevadaStorey,Nevada,Storey,2021-01-05 15:47:23.045243,2020-03-17 00:00:00.000000,0.02238840,0.11271069,0.40076693,0,4,16,0,2,9,0.01190586,0.06370631,0.23829115,0.38523219,0.51487396,0.70369077
32029,0,USNevadaStorey,Nevada,Storey,2021-01-05 15:47:23.045243,2020-03-18 00:00:00.000000,0.02390505,0.11961518,0.41386111,0,4,17,0,2,10,0.01276415,0.06741416,0.25227370,0.36272972,0.49784579,0.69580766
32029,0,USNevadaStorey,Nevada,Storey,2021-01-05 15:47:23.045243,2020-03-19 00:00:00.000000,0.02550035,0.12638076,0.43693171,1,5,18,0,2,10,0.01366236,0.07179222,0.25192015,0.35783322,0.48323234,0.68734766
32029,0,USNevadaStorey,Nevada,Storey,2021-01-05 15:47:23.045243,2020-03-20 00:00:00.000000,0.02713521,0.13343924,0.47401805,1,5,19,0,3,10,0.01460325,0.07636837,0.26069147,0.34070246,0.47485086,0.66924650
32029,0,USNevadaStorey,Nevada,Storey,2021-01-05 15:47:23.045243,2020-03-21 00:00:00.000000,0.02858417,0.14162167,0.50376206,1,5,20,0,3,11,0.01557625,0.07933135,0.27769147,0.32252935,0.45211265,0.64631437
32029,0,USNevadaStorey,Nevada,Storey,2021-01-05 15:47:23.045243,2020-03-22 00:00:00.000000,0.02970301,0.14485920,0.53656338,1,5,22,0,3,12,0.01650670,0.08205683,0.29889744,0.29829291,0.43825061,0.63567882
32029,0,USNevadaStorey,Nevada,Storey,2021-01-05 15:47:23.045243,2020-03-23 00:00:00.000000,0.03074476,0.15201406,0.58502308,1,6,24,0,3,13,0.01731091,0.08383841,0.31728382,0.29065886,0.43118497,0.62530384
32029,0,USNevadaStorey,Nevada,Storey,2021-01-05 15:47:23.045243,2020-03-24 00:00:00.000000,0.03201884,0.15616291,0.63270157,1,6,26,0,3,13,0.01826903,0.08848226,0.33774703,0.27426140,0.42262940,0.60432496
32029,0,USNevadaStorey,Nevada,Storey,2021-01-05 15:47:23.045243,2020-03-25 00:00:00.000000,0.03370980,0.15958147,0.67226010,1,6,27,0,3,15,0.01928078,0.09329341,0.36649453,0.26185872,0.41542912,0.58051629
32029,0,USNevadaStorey,Nevada,Storey,2021-01-05 15:47:23.045243,2020-03-26 00:00:00.000000,0.03546809,0.16222583,0.67906096,1,6,27,0,3,16,0.02031796,0.09425907,0.39241103,0.24395845,0.41167389,0.56395838
32029,0,USNevadaStorey,Nevada,Storey,2021-01-05 15:47:23.045243,2020-03-27 00:00:00.000000,0.03728694,0.16166731,0.67719544,1,6,27,0,3,16,0.02139106,0.09443823,0.40638945,0.22927025,0.39315679,0.55698064
32029,0,USNevadaStorey,Nevada,Storey,2021-01-05 15:47:23.045243,2020-03-28 00:00:00.000000,0.03914501,0.16519583,0.69393849,1,6,28,0,4,16,0.02250155,0.09766908,0.40656277,0.21876669,0.38352833,0.54847862
32029,0,USNevadaStorey,Nevada,Storey,2021-01-05 15:47:23.045243,2020-03-29 00:00:00.000000,0.04100433,0.16691102,0.72805670,1,6,30,0,4,17,0.02364201,0.09887643,0.41939323,0.20673538,0.37395433,0.52223153
32029,0,USNevadaStorey,Nevada,Storey,2021-01-05 15:47:23.045243,2020-03-30 00:00:00.000000,0.04281208,0.16847846,0.76408938,1,6,31,1,4,18,0.02428172,0.10018613,0.43967707,0.20611817,0.35539267,0.52050427
32029,0,USNevadaStorey,Nevada,Storey,2021-01-05 15:47:23.045243,2020-03-31 00:00:00.000000,0.04328378,0.17284695,0.80191069,1,7,33,1,4,19,0.02442494,0.10203840,0.46126285,0.20597985,0.34775528,0.51121803
32029,0,USNevadaStorey,Nevada,Storey,2021-01-05 15:47:23.045243,2020-04-01 00:00:00.000000,0.04353343,0.17673844,0.84153152,1,7,34,1,4,19,0.02456844,0.10448631,0.48404011,0.20577332,0.33493678,0.51053236
32029,0,USNevadaStorey,Nevada,Storey,2021-01-05 15:47:23.045243,2020-04-02 00:00:00.000000,0.04378387,0.17625370,0.88298830,1,7,36,1,4,20,0.02471208,0.10815168,0.50796399,0.20541206,0.32718443,0.50672985
32029,0,USNevadaStorey,Nevada,Storey,2021-01-05 15:47:23.045243,2020-04-03 00:00:00.000000,0.04403535,0.17951065,0.92619157,1,7,38,1,4,21,0.02485591,0.10908218,0.53303079,0.20510280,0.32512422,0.50380282
32029,0,USNevadaStorey,Nevada,Storey,2021-01-05 15:47:23.045243,2020-04-04 00:00:00.000000,0.04428787,0.18211056,0.96844109,1,7,39,1,4,23,0.02536678,0.11005466,0.55921027,0.20324068,0.30821495,0.49378366
32029,0,USNevadaStorey,Nevada,Storey,2021-01-05 15:47:23.045243,2020-04-05 00:00:00.000000,0.04574645,0.18384714,0.98793214,1,7,40,1,4,24,0.02610914,0.10910776,0.58555942,0.17472324,0.30373477,0.48500220
32029,0,USNevadaStorey,Nevada,Storey,2021-01-05 15:47:23.045243,2020-04-06 00:00:00.000000,0.04779373,0.17923974,0.99221903,1,7,40,1,4,24,0.02695410,0.10901998,0.60411926,0.16285255,0.29607260,0.47266241
32029,0,USNevadaStorey,Nevada,Storey,2021-01-05 15:47:23.045243,2020-04-07 00:00:00.000000,0.04839511,0.17325519,0.99385288,1,7,40,1,4,25,0.02800426,0.10884398,0.61299855,0.16074400,0.28912316,0.46005163
32029,0,USNevadaStorey,Nevada,Storey,2021-01-05 15:47:23.045243,2020-04-08 00:00:00.000000,0.04837069,0.16882768,0.99020235,1,6,40,1,4,25,0.02934298,0.10408205,0.61121392,0.16093310,0.28500693,0.44108201
32029,0,USNevadaStorey,Nevada,Storey,2021-01-05 15:47:23.045243,2020-04-09 00:00:00.000000,0.04591073,0.16737810,0.97315580,1,6,40,1,4,24,0.02891771,0.10141684,0.60481981,0.15950263,0.27961397,0.42986307
32029,0,USNevadaStorey,Nevada,Storey,2021-01-05 15:47:23.045243,2020-04-10 00:00:00.000000,0.04427181,0.16618381,0.95482048,1,6,39,1,4,24,0.02721721,0.10082082,0.59585131,0.13980778,0.27689556,0.42844540
32029,0,USNevadaStorey,Nevada,Storey,2021-01-05 15:47:23.045243,2020-04-11 00:00:00.000000,0.04327626,0.16505689,0.93572836,1,6,38,1,4,24,0.02526716,0.09979540,0.58549576,0.13146970,0.27180026,0.42805512
32029,0,USNevadaStorey,Nevada,Storey,2021-01-05 15:47:23.045243,2020-04-12 00:00:00.000000,0.04088644,0.16137093,0.91577413,1,6,37,1,4,23,0.02499744,0.09837137,0.57437123,0.11946583,0.26667830,0.42701632
32029,0,USNevadaStorey,Nevada,Storey,2021-01-05 15:47:23.045243,2020-04-13 00:00:00.000000,0.03848740,0.16033647,0.89492911,1,6,36,0,4,23,0.02354128,0.09708129,0.56277881,0.11836621,0.25195520,0.42375808
32029,0,USNevadaStorey,Nevada,Storey,2021-01-05 15:47:23.045243,2020-04-14 00:00:00.000000,0.03615629,0.15890844,0.86578061,1,6,35,0,3,22,0.02209968,0.09543246,0.55033501,0.11809759,0.24544776,0.42159741
32029,0,USNevadaStorey,Nevada,Storey,2021-01-05 15:47:23.045243,2020-04-15 00:00:00.000000,0.03393979,0.15418133,0.81972608,1,6,33,0,3,22,0.02069770,0.09241765,0.53779572,0.11801177,0.24044306,0.41778989
32029,0,USNevadaStorey,Nevada,Storey,2021-01-05 15:47:23.045243,2020-04-16 00:00:00.000000,0.03187085,0.15220487,0.77589941,1,6,31,0,3,21,0.01935037,0.09119910,0.52540989,0.11796262,0.23409766,0.41002058
32029,0,USNevadaStorey,Nevada,Storey,2021-01-05 15:47:23.045243,2020-04-17 00:00:00.000000,0.02997624,0.14732344,0.73395851,1,6,30,0,3,20,0.01806356,0.09074988,0.49763556,0.11798403,0.23116182,0.39746342
32029,0,USNevadaStorey,Nevada,Storey,2021-01-05 15:47:23.045243,2020-04-18 00:00:00.000000,0.02828064,0.14433335,0.69367934,1,5,28,0,3,19,0.01683404,0.08944001,0.47108365,0.11867186,0.23073952,0.39539413
32029,0,USNevadaStorey,Nevada,Storey,2021-01-05 15:47:23.045243,2020-04-19 00:00:00.000000,0.02680602,0.14158925,0.65538218,1,5,27,0,3,18,0.01568174,0.08794329,0.44585527,0.12077300,0.22375751,0.39386876
32029,0,USNevadaStorey,Nevada,Storey,2021-01-05 15:47:23.045243,2020-04-20 00:00:00.000000,0.02529625,0.13740590,0.61904842,1,5,25,0,3,17,0.01458253,0.08597902,0.42146654,0.11307080,0.21480790,0.37174468
32029,0,USNevadaStorey,Nevada,Storey,2021-01-05 15:47:23.045243,2020-04-21 00:00:00.000000,0.02337296,0.13093207,0.58996726,0,5,24,0,3,16,0.01353024,0.08260121,0.39822147,0.10669764,0.21158086,0.36982602
32029,0,USNevadaStorey,Nevada,Storey,2021-01-05 15:47:23.045243,2020-04-22 00:00:00.000000,0.02158108,0.12182792,0.55827238,0,5,23,0,3,15,0.01322102,0.07781398,0.38401182,0.10405658,0.21008144,0.36912484
32029,0,USNevadaStorey,Nevada,Storey,2021-01-05 15:47:23.045243,2020-04-23 00:00:00.000000,0.02177698,0.11516762,0.55340897,0,4,22,0,3,15,0.01359925,0.07433375,0.37176102,0.10141603,0.20768541,0.36680013
32029,0,USNevadaStorey,Nevada,Storey,2021-01-05 15:47:23.045243,2020-04-24 00:00:00.000000,0.02015406,0.10935330,0.54889466,0,4,22,0,2,14,0.01393877,0.07115281,0.34291618,0.09767626,0.20370408,0.36409069
32029,0,USNevadaStorey,Nevada,Storey,2021-01-05 15:47:23.045243,2020-04-25 00:00:00.000000,0.01760334,0.10359659,0.54361985,0,4,22,0,2,13,0.01294468,0.06915201,0.32234077,0.09447142,0.20072727,0.36163370
32029,0,USNevadaStorey,Nevada,Storey,2021-01-05 15:47:23.045243,2020-04-26 00:00:00.000000,0.01534693,0.09824636,0.52969177,0,4,21,0,2,13,0.01130765,0.06724644,0.32027991,0.09184618,0.19786256,0.35511509
32029,0,USNevadaStorey,Nevada,Storey,2021-01-05 15:47:23.045243,2020-04-27 00:00:00.000000,0.05080113,0.15319178,0.53494402,2,6,22,0,2,13,0.00985932,0.06542586,0.31879918,0.08998308,0.19519784,0.34659444
32029,0,USNevadaStorey,Nevada,Storey,2021-01-05 15:47:23.045243,2020-04-28 00:00:00.000000,0.08008569,0.19316414,0.54016268,3,7,22,0,3,13,0.02367990,0.07306850,0.32852906,0.08874313,0.19328983,0.33514109
32029,0,USNevadaStorey,Nevada,Storey,2021-01-05 15:47:23.045243,2020-04-29 00:00:00.000000,0.10154910,0.22564775,0.55566828,4,9,22,1,4,14,0.03586699,0.10368881,0.34475255,0.08779338,0.18965463,0.32116545
32029,0,USNevadaStorey,Nevada,Storey,2021-01-05 15:47:23.045243,2020-04-30 00:00:00.000000,0.12285633,0.25389760,0.58378382,5,10,24,1,5,14,0.04793348,0.12581946,0.34735405,0.08658867,0.17843832,0.30652501
32029,0,USNevadaStorey,Nevada,Storey,2021-01-05 15:47:23.045243,2020-05-01 00:00:00.000000,0.14338916,0.29168945,0.67522637,5,12,27,2,5,14,0.06291988,0.14444679,0.36092883,0.08417310,0.17837883,0.29348586
32029,0,USNevadaStorey,Nevada,Storey,2021-01-05 15:47:23.045243,2020-05-02 00:00:00.000000,0.16297192,0.32496133,0.78746594,6,13,32,3,6,15,0.07577570,0.16236176,0.37445911,0.08282296,0.17625834,0.29829411
32029,0,USNevadaStorey,Nevada,Storey,2021-01-05 15:47:23.045243,2020-05-03 00:00:00.000000,0.18162671,0.35723193,0.81480006,7,14,33,3,7,17,0.08787840,0.18252418,0.41579546,0.08281139,0.17315484,0.29327783
32029,0,USNevadaStorey,Nevada,Storey,2021-01-05 15:47:23.045243,2020-05-04 00:00:00.000000,0.22829104,0.38126002,0.81256246,9,15,33,4,8,19,0.09983282,0.20245671,0.48064209,0.08275104,0.17153032,0.29174487
32029,0,USNevadaStorey,Nevada,Storey,2021-01-05 15:47:23.045243,2020-05-05 00:00:00.000000,0.24941761,0.42621400,0.80737566,10,17,33,4,9,20,0.12005019,0.22160866,0.49161546,0.08270739,0.16881500,0.29135949
32029,0,USNevadaStorey,Nevada,Storey,2021-01-05 15:47:23.045243,2020-05-06 00:00:00.000000,0.26747793,0.45995568,0.79855113,11,18,32,5,9,20,0.14249104,0.23306741,0.49230512,0.08269177,0.16445243,0.29134037
32029,0,USNevadaStorey,Nevada,Storey,2021-01-05 15:47:23.045243,2020-05-07 00:00:00.000000,0.27910563,0.49299718,0.78589588,11,20,32,6,10,20,0.15568364,0.25894668,0.49433084,0.08268757,0.16314191,0.29146364
32029,0,USNevadaStorey,Nevada,Storey,2021-01-05 15:47:23.045243,2020-05-08 00:00:00.000000,0.28915101,0.52424024,0.82978752,11,21,34,6,11,19,0.16745157,0.27905326,0.48048847,0.08268018,0.15843682,0.29166730
32029,0,USNevadaStorey,Nevada,Storey,2021-01-05 15:47:23.045243,2020-05-09 00:00:00.000000,0.30065733,0.54464447,0.88037358,12,22,36,7,11,20,0.17190851,0.29068201,0.49254826,0.08263148,0.15850227,0.29179285
32029,0,USNevadaStorey,Nevada,Storey,2021-01-05 15:47:23.045243,2020-05-10 00:00:00.000000,0.30695428,0.56014557,0.92787302,12,23,38,7,12,20,0.17477048,0.31306454,0.49151210,0.08233045,0.15583883,0.29172532
32029,0,USNevadaStorey,Nevada,Storey,2021-01-05 15:47:23.045243,2020-05-11 00:00:00.000000,0.28857139,0.53552591,0.89686173,11,22,36,7,13,20,0.17748735,0.32855712,0.50696997,0.08065528,0.15344037,0.29131876
32029,0,USNevadaStorey,Nevada,Storey,2021-01-05 15:47:23.045243,2020-05-12 00:00:00.000000,0.26955403,0.51506854,0.87711155,11,21,36,7,13,21,0.17482709,0.32813857,0.51342011,0.07417218,0.15058680,0.29027812
32029,0,USNevadaStorey,Nevada,Storey,2021-01-05 15:47:23.045243,2020-05-13 00:00:00.000000,0.24936789,0.48018030,0.85292135,10,19,35,6,13,21,0.16807635,0.31687598,0.51834199,0.07493381,0.14989393,0.28949430
32029,0,USNevadaStorey,Nevada,Storey,2021-01-05 15:47:23.045243,2020-05-14 00:00:00.000000,0.22918710,0.44876032,0.80682271,9,18,33,6,12,21,0.15653138,0.30163350,0.51731180,0.07636584,0.14907095,0.29231002
32029,0,USNevadaStorey,Nevada,Storey,2021-01-05 15:47:23.045243,2020-05-15 00:00:00.000000,0.20972413,0.41743169,0.79333377,8,17,32,5,11,21,0.14457540,0.28665402,0.51289094,0.07844847,0.14762914,0.28189151
32029,0,USNevadaStorey,Nevada,Storey,2021-01-05 15:47:23.045243,2020-05-16 00:00:00.000000,0.19121353,0.39443113,0.77951704,7,16,32,5,11,19,0.13287435,0.27662369,0.47998249,0.07860779,0.14676445,0.27300200
32029,0,USNevadaStorey,Nevada,Storey,2021-01-05 15:47:23.045243,2020-05-17 00:00:00.000000,0.17366469,0.37237886,0.76531577,7,15,31,5,10,18,0.12152269,0.26282874,0.45787258,0.07757046,0.14710458,0.26010817
32029,0,USNevadaStorey,Nevada,Storey,2021-01-05 15:47:23.045243,2020-05-18 00:00:00.000000,0.15721295,0.34959767,0.75031649,6,14,30,4,10,18,0.11067397,0.24809129,0.44305779,0.07640718,0.14500293,0.25862167
32029,0,USNevadaStorey,Nevada,Storey,2021-01-05 15:47:23.045243,2020-05-19 00:00:00.000000,0.14196058,0.32901125,0.72090658,5,13,29,4,9,17,0.09725826,0.23354467,0.42712856,0.07570072,0.14529334,0.25622185
32029,0,USNevadaStorey,Nevada,Storey,2021-01-05 15:47:23.045243,2020-05-20 00:00:00.000000,0.12679833,0.31134779,0.69185675,5,12,28,3,9,16,0.08452822,0.21893905,0.41084201,0.07537666,0.14298272,0.25376078
32029,0,USNevadaStorey,Nevada,Storey,2021-01-05 15:47:23.045243,2020-05-21 00:00:00.000000,0.11008416,0.28928146,0.66342759,4,11,27,3,8,16,0.07338166,0.20396878,0.39462622,0.07509592,0.14282760,0.25026541
32029,0,USNevadaStorey,Nevada,Storey,2021-01-05 15:47:23.045243,2020-05-22 00:00:00.000000,0.09584131,0.26829886,0.63572621,3,11,26,2,7,15,0.06370685,0.18586854,0.37869507,0.07452687,0.14149759,0.24499307
32029,0,USNevadaStorey,Nevada,Storey,2021-01-05 15:47:23.045243,2020-05-23 00:00:00.000000,0.08393858,0.24402702,0.59686365,3,10,24,2,6,14,0.05542574,0.16858040,0.36311337,0.07331438,0.14229343,0.24307373
32029,0,USNevadaStorey,Nevada,Storey,2021-01-05 15:47:23.045243,2020-05-24 00:00:00.000000,0.07393071,0.21842633,0.55023379,3,9,22,1,6,14,0.04846698,0.15293633,0.34786384,0.07156984,0.14081843,0.24155063
32029,0,USNevadaStorey,Nevada,Storey,2021-01-05 15:47:23.045243,2020-05-25 00:00:00.000000,0.06534955,0.20199714,0.51430692,2,8,21,1,5,13,0.04263022,0.14090579,0.32594592,0.07015217,0.13904577,0.24191962
32029,0,USNevadaStorey,Nevada,Storey,2021-01-05 15:47:23.045243,2020-05-26 00:00:00.000000,0.05788922,0.18731304,0.49020103,2,7,20,1,5,12,0.03765846,0.13218145,0.29986785,0.06938307,0.13928658,0.24040555
32029,0,USNevadaStorey,Nevada,Storey,2021-01-05 15:47:23.045243,2020-05-27 00:00:00.000000,0.05133538,0.17308867,0.46711696,2,7,19,1,5,11,0.03335265,0.12228768,0.28195494,0.06908600,0.13662489,0.24126245
32029,0,USNevadaStorey,Nevada,Storey,2021-01-05 15:47:23.045243,2020-05-28 00:00:00.000000,0.04552501,0.16013197,0.44510348,1,6,18,1,4,11,0.02989424,0.11322180,0.26875537,0.06903436,0.13224416,0.23924160
32029,0,USNevadaStorey,Nevada,Storey,2021-01-05 15:47:23.045243,2020-05-29 00:00:00.000000,0.04033804,0.14823004,0.42416543,1,6,17,1,4,10,0.02711556,0.10517018,0.25612357,0.06845062,0.13056064,0.23810711
32029,0,USNevadaStorey,Nevada,Storey,2021-01-05 15:47:23.045243,2020-05-30 00:00:00.000000,0.03570722,0.13771723,0.40427763,1,5,16,1,4,10,0.02446066,0.09829956,0.24407929,0.05989818,0.13020126,0.23876126
32029,0,USNevadaStorey,Nevada,Storey,2021-01-05 15:47:23.045243,2020-05-31 00:00:00.000000,0.03130049,0.12762142,0.38539322,1,5,15,0,3,9,0.02136250,0.09130757,0.23262161,0.05302933,0.12685700,0.23926039
32029,0,USNevadaStorey,Nevada,Storey,2021-01-05 15:47:23.045243,2020-06-01 00:00:00.000000,0.02732971,0.11601133,0.36745295,1,4,15,0,3,9,0.01865097,0.08364718,0.22173416,0.04974402,0.12105969,0.24830569
32029,0,USNevadaStorey,Nevada,Storey,2021-01-05 15:47:23.045243,2020-06-02 00:00:00.000000,0.02385380,0.10651739,0.34989736,0,4,14,0,3,8,0.01627666,0.07688330,0.21444442,0.04855344,0.12117065,0.24242947
32029,0,USNevadaStorey,Nevada,Storey,2021-01-05 15:47:23.045243,2020-06-03 00:00:00.000000,0.02149541,0.09807539,0.32878551,0,4,13,0,2,8,0.01419899,0.07083031,0.20302937,0.04816417,0.12106697,0.24273674
32029,0,USNevadaStorey,Nevada,Storey,2021-01-05 15:47:23.045243,2020-06-04 00:00:00.000000,0.01925324,0.09005016,0.30851873,0,3,12,0,2,7,0.01252936,0.06406114,0.19332680,0.04803804,0.11753268,0.24369251
32029,0,USNevadaStorey,Nevada,Storey,2021-01-05 15:47:23.045243,2020-06-05 00:00:00.000000,0.01702858,0.08254870,0.29008260,0,3,11,0,2,7,0.01106461,0.05867247,0.18521918,0.04799164,0.11729886,0.24470466
32029,0,USNevadaStorey,Nevada,Storey,2021-01-05 15:47:23.045243,2020-06-06 00:00:00.000000,0.01518689,0.07564477,0.28219205,0,3,11,0,2,7,0.00978175,0.05383423,0.17741470,0.04795108,0.11712986,0.24636206
32029,0,USNevadaStorey,Nevada,Storey,2021-01-05 15:47:23.045243,2020-06-07 00:00:00.000000,0.01371861,0.06940032,0.27399230,0,2,11,0,2,7,0.00870285,0.04934256,0.17217241,0.04781534,0.11887897,0.24806766
32029,0,USNevadaStorey,Nevada,Storey,2021-01-05 15:47:23.045243,2020-06-08 00:00:00.000000,0.02701952,0.11954112,0.30081636,1,4,12,0,1,7,0.00783318,0.04523287,0.17113044,0.04760466,0.11951388,0.24901557
32029,0,USNevadaStorey,Nevada,Storey,2021-01-05 15:47:23.045243,2020-06-09 00:00:00.000000,0.04081631,0.15310038,0.39469408,1,6,16,0,2,7,0.01399029,0.06235029,0.18375003,0.04753833,0.11889225,0.24936660
32029,0,USNevadaStorey,Nevada,Storey,2021-01-05 15:47:23.045243,2020-06-10 00:00:00.000000,0.05371361,0.18913943,0.49028849,2,7,20,0,3,8,0.02061186,0.08051886,0.20557343,0.04754976,0.11947586,0.24945018
32029,0,USNevadaStorey,Nevada,Storey,2021-01-05 15:47:23.045243,2020-06-11 00:00:00.000000,0.06358674,0.21805387,0.58343376,2,8,24,1,4,10,0.02792103,0.09862789,0.26185125,0.04603593,0.12022945,0.24921862
32029,0,USNevadaStorey,Nevada,Storey,2021-01-05 15:47:23.045243,2020-06-12 00:00:00.000000,0.06787885,0.25078215,0.67944764,2,10,28,1,4,13,0.03538602,0.11752738,0.31971329,0.04389593,0.11833422,0.24379919
32029,0,USNevadaStorey,Nevada,Storey,2021-01-05 15:47:23.045243,2020-06-13 00:00:00.000000,0.07244268,0.27327577,0.76949426,2,11,31,1,5,14,0.03879289,0.14085182,0.36104731,0.04271960,0.11654750,0.24204386
32029,0,USNevadaStorey,Nevada,Storey,2021-01-05 15:47:23.045243,2020-06-14 00:00:00.000000,0.08036899,0.30384670,0.85267068,3,12,35,1,6,16,0.04124568,0.16031030,0.39801188,0.04255173,0.11593301,0.23672514
32029,0,USNevadaStorey,Nevada,Storey,2021-01-05 15:47:23.045243,2020-06-15 00:00:00.000000,0.14173444,0.34078691,0.84557864,5,14,34,1,7,18,0.04488474,0.17552308,0.44716432,0.04243710,0.11372487,0.23507965
32029,0,USNevadaStorey,Nevada,Storey,2021-01-05 15:47:23.045243,2020-06-16 00:00:00.000000,0.18067002,0.37299924,0.82587607,7,15,34,2,7,19,0.06627603,0.19336492,0.46824947,0.04235611,0.11450106,0.23357451
32029,0,USNevadaStorey,Nevada,Storey,2021-01-05 15:47:23.045243,2020-06-17 00:00:00.000000,0.19328835,0.43235823,0.82775561,7,17,34,3,8,19,0.09611237,0.21481768,0.47301066,0.04226747,0.11396123,0.23179811
32029,0,USNevadaStorey,Nevada,Storey,2021-01-05 15:47:23.045243,2020-06-18 00:00:00.000000,0.20019521,0.45222865,0.89245552,8,18,36,4,9,19,0.11505766,0.23430419,0.48301735,0.04211896,0.11454468,0.22892071
32029,0,USNevadaStorey,Nevada,Storey,2021-01-05 15:47:23.045243,2020-06-19 00:00:00.000000,0.19976588,0.47177639,0.97905469,8,19,40,4,10,21,0.11237131,0.25503096,0.52245009,0.04183909,0.11261058,0.23511091
32029,0,USNevadaStorey,Nevada,Storey,2021-01-05 15:47:23.045243,2020-06-20 00:00:00.000000,0.20464301,0.48763752,1.08185021,8,20,44,4,11,23,0.11099741,0.27737941,0.56158514,0.04134202,0.10747942,0.23079042
32029,0,USNevadaStorey,Nevada,Storey,2021-01-05 15:47:23.045243,2020-06-21 00:00:00.000000,0.20359342,0.49793654,1.18969495,8,20,49,5,11,24,0.12144242,0.29053244,0.59913521,0.04058287,0.10738540,0.21871470
32029,0,USNevadaStorey,Nevada,Storey,2021-01-05 15:47:23.045243,2020-06-22 00:00:00.000000,0.18776211,0.47200248,1.15340465,7,19,47,4,12,27,0.12085348,0.29494588,0.65592148,0.04011201,0.10663941,0.21721500
32029,0,USNevadaStorey,Nevada,Storey,2021-01-05 15:47:23.045243,2020-06-23 00:00:00.000000,0.17195121,0.44207639,1.11045773,7,18,45,4,12,27,0.11427103,0.29152920,0.66778745,0.04116645,0.10230386,0.21670602
32029,0,USNevadaStorey,Nevada,Storey,2021-01-05 15:47:23.045243,2020-06-24 00:00:00.000000,0.15029822,0.40747526,1.05898911,6,16,43,4,11,27,0.10532090,0.27965949,0.67392491,0.04265036,0.10351488,0.21164153
32029,0,USNevadaStorey,Nevada,Storey,2021-01-05 15:47:23.045243,2020-06-25 00:00:00.000000,0.12636542,0.37430933,1.00360082,5,15,41,3,10,27,0.09577142,0.26293129,0.65647070,0.04280405,0.10532921,0.21159247
32029,0,USNevadaStorey,Nevada,Storey,2021-01-05 15:47:23.045243,2020-06-26 00:00:00.000000,0.11070131,0.34133403,0.94582153,4,14,38,3,9,25,0.08156545,0.24252797,0.63050149,0.04292386,0.10720044,0.21329269
32029,0,USNevadaStorey,Nevada,Storey,2021-01-05 15:47:23.045243,2020-06-27 00:00:00.000000,0.09854130,0.31122489,0.88585167,4,12,36,2,9,24,0.06807164,0.22323706,0.59998679,0.04344574,0.10583496,0.21303841
32029,0,USNevadaStorey,Nevada,Storey,2021-01-05 15:47:23.045243,2020-06-28 00:00:00.000000,0.08760716,0.28526424,0.82620889,3,11,34,2,8,23,0.05663506,0.20585332,0.56663751,0.04496169,0.10646884,0.21911110
32029,0,USNevadaStorey,Nevada,Storey,2021-01-05 15:47:23.045243,2020-06-29 00:00:00.000000,0.07780671,0.26080646,0.76885688,3,10,31,2,7,21,0.05035287,0.18902596,0.53137579,0.04595992,0.10518070,0.22223842
32029,0,USNevadaStorey,Nevada,Storey,2021-01-05 15:47:23.045243,2020-06-30 00:00:00.000000,0.06903489,0.24233624,0.71449649,2,9,29,1,7,20,0.04472235,0.17263152,0.49702974,0.04594726,0.10523950,0.22773226
32029,0,USNevadaStorey,Nevada,Storey,2021-01-05 15:47:23.045243,2020-07-01 00:00:00.000000,0.06117725,0.21649079,0.66338835,2,8,27,1,6,19,0.03968371,0.15745372,0.46375899,0.04594725,0.10526874,0.22990238
32029,0,USNevadaStorey,Nevada,Storey,2021-01-05 15:47:23.045243,2020-07-02 00:00:00.000000,0.05410394,0.19869467,0.61562887,2,8,25,1,5,17,0.03517303,0.14285914,0.43158378,0.04596114,0.10473339,0.23033012
32029,0,USNevadaStorey,Nevada,Storey,2021-01-05 15:47:23.045243,2020-07-03 00:00:00.000000,0.04770650,0.18202542,0.57131188,1,7,23,1,5,16,0.03113743,0.13010569,0.40115042,0.04600895,0.10548704,0.22999722
32029,0,USNevadaStorey,Nevada,Storey,2021-01-05 15:47:23.045243,2020-07-04 00:00:00.000000,0.04186828,0.16514115,0.53060008,1,6,21,1,4,15,0.02748499,0.11760896,0.37262077,0.04614952,0.10600969,0.22899242
32029,0,USNevadaStorey,Nevada,Storey,2021-01-05 15:47:23.045243,2020-07-05 00:00:00.000000,0.03657351,0.14912062,0.49342316,1,6,20,0,4,14,0.02415214,0.10661813,0.34612337,0.04647172,0.10698427,0.22698134
32029,0,USNevadaStorey,Nevada,Storey,2021-01-05 15:47:23.045243,2020-07-06 00:00:00.000000,0.07849714,0.19135127,0.48786088,3,7,20,0,3,13,0.02112248,0.09652315,0.32170399,0.04500318,0.10817007,0.22879922
32029,0,USNevadaStorey,Nevada,Storey,2021-01-05 15:47:23.045243,2020-07-07 00:00:00.000000,0.08723485,0.22988187,0.49743144,3,9,20,1,4,12,0.04191655,0.10534118,0.30768274,0.04616330,0.11191403,0.22471624
32029,0,USNevadaStorey,Nevada,Storey,2021-01-05 15:47:23.045243,2020-07-08 00:00:00.000000,0.09709417,0.24855569,0.57765069,4,10,23,2,4,12,0.05206912,0.12036527,0.31009971,0.04735549,0.11151308,0.22168373
32029,0,USNevadaStorey,Nevada,Storey,2021-01-05 15:47:23.045243,2020-07-09 00:00:00.000000,0.10677270,0.28580883,0.69495490,4,11,28,2,5,13,0.05314675,0.13614649,0.32875976,0.04653200,0.11011694,0.21949723
32029,0,USNevadaStorey,Nevada,Storey,2021-01-05 15:47:23.045243,2020-07-10 00:00:00.000000,0.11594827,0.31718619,0.80599764,4,13,33,2,6,16,0.06508700,0.15848569,0.39021356,0.04603290,0.11161811,0.21204835
32029,0,USNevadaStorey,Nevada,Storey,2021-01-05 15:47:23.045243,2020-07-11 00:00:00.000000,0.11877218,0.34747708,0.84829182,4,14,34,2,7,19,0.06459205,0.17803028,0.46142664,0.04527643,0.11226403,0.21219404
32029,0,USNevadaStorey,Nevada,Storey,2021-01-05 15:47:23.045243,2020-07-12 00:00:00.000000,0.11994580,0.36597104,0.94371247,4,15,38,2,7,20,0.06460103,0.19282679,0.50793085,0.04423713,0.11375888,0.20651785
32029,0,USNevadaStorey,Nevada,Storey,2021-01-05 15:47:23.045243,2020-07-13 00:00:00.000000,0.15674054,0.40104233,0.95090472,6,16,39,2,8,23,0.06497996,0.21021686,0.57820692,0.04566198,0.11233115,0.20131778
32029,0,USNevadaStorey,Nevada,Storey,2021-01-05 15:47:23.045243,2020-07-14 00:00:00.000000,0.17347831,0.43032212,0.94983220,7,17,39,3,9,25,0.08354115,0.23709488,0.60785523,0.04331315,0.11046107,0.19895431
32029,0,USNevadaStorey,Nevada,Storey,2021-01-05 15:47:23.045243,2020-07-15 00:00:00.000000,0.20261630,0.44878126,0.94837979,8,18,39,4,10,25,0.09836893,0.25045261,0.61656504,0.04231073,0.11147038,0.19892226
32029,0,USNevadaStorey,Nevada,Storey,2021-01-05 15:47:23.045243,2020-07-16 00:00:00.000000,0.21830296,0.47810741,0.98289026,9,19,40,4,10,25,0.10491972,0.26247633,0.61475544,0.04163017,0.11035578,0.19897115
32029,0,USNevadaStorey,Nevada,Storey,2021-01-05 15:47:23.045243,2020-07-17 00:00:00.000000,0.21518872,0.49974720,1.03382828,8,20,42,4,11,25,0.11714955,0.28333446,0.62084681,0.04188748,0.10990090,0.19950275
32029,0,USNevadaStorey,Nevada,Storey,2021-01-05 15:47:23.045243,2020-07-18 00:00:00.000000,0.21235155,0.51704704,1.10124994,8,21,45,5,12,26,0.13083799,0.29937739,0.63333843,0.04581820,0.10923304,0.20250905
32029,0,USNevadaStorey,Nevada,Storey,2021-01-05 15:47:23.045243,2020-07-19 00:00:00.000000,0.20994393,0.53912298,1.16422931,8,22,48,5,13,27,0.12912935,0.31686141,0.67796246,0.04543588,0.10823534,0.20743431
32029,0,USNevadaStorey,Nevada,Storey,2021-01-05 15:47:23.045243,2020-07-20 00:00:00.000000,0.22910084,0.55059844,1.16098479,9,22,47,5,13,28,0.12758685,0.32905902,0.70007416,0.04498500,0.10718733,0.20908931
32029,0,USNevadaStorey,Nevada,Storey,2021-01-05 15:47:23.045243,2020-07-21 00:00:00.000000,0.25428096,0.55374400,1.15323497,10,22,47,5,14,29,0.13414020,0.34092192,0.71033540,0.04486724,0.10635153,0.21403692
32029,0,USNevadaStorey,Nevada,Storey,2021-01-05 15:47:23.045243,2020-07-22 00:00:00.000000,0.26922980,0.55491558,1.14031557,11,22,47,6,14,30,0.15181833,0.34620940,0.72895702,0.04530730,0.10945194,0.21930022
32029,0,USNevadaStorey,Nevada,Storey,2021-01-05 15:47:23.045243,2020-07-23 00:00:00.000000,0.28953205,0.55407970,1.12472894,11,22,46,6,13,30,0.16576538,0.33543186,0.73900361,0.04593859,0.11033662,0.22292395
32029,0,USNevadaStorey,Nevada,Storey,2021-01-05 15:47:23.045243,2020-07-24 00:00:00.000000,0.29376996,0.57705451,1.17168185,12,23,48,7,13,30,0.17167121,0.33239700,0.73552884,0.04827777,0.10910949,0.22480980
32029,0,USNevadaStorey,Nevada,Storey,2021-01-05 15:47:23.045243,2020-07-25 00:00:00.000000,0.29725143,0.58565225,1.23947432,12,24,51,7,14,29,0.18039825,0.34018351,0.72650930,0.04980400,0.10978910,0.22413917
32029,0,USNevadaStorey,Nevada,Storey,2021-01-05 15:47:23.045243,2020-07-26 00:00:00.000000,0.29871553,0.58068625,1.23659121,12,23,50,7,13,29,0.18478364,0.33667218,0.71612121,0.05058965,0.11065791,0.21757392
32029,0,USNevadaStorey,Nevada,Storey,2021-01-05 15:47:23.045243,2020-07-27 00:00:00.000000,0.33532708,0.59937015,1.20213587,13,24,49,7,14,29,0.18837466,0.34761991,0.72130439,0.04993987,0.11367521,0.21346812
32029,0,USNevadaStorey,Nevada,Storey,2021-01-05 15:47:23.045243,2020-07-28 00:00:00.000000,0.33951738,0.60357595,1.16745981,13,24,48,8,14,30,0.20055608,0.34967797,0.73157943,0.05213428,0.11306999,0.21479896
32029,0,USNevadaStorey,Nevada,Storey,2021-01-05 15:47:23.045243,2020-07-29 00:00:00.000000,0.36229345,0.61638602,1.13169491,14,25,46,8,14,29,0.20572575,0.34752053,0.71532863,0.05773693,0.11281454,0.21278228
32029,0,USNevadaStorey,Nevada,Storey,2021-01-05 15:47:23.045243,2020-07-30 00:00:00.000000,0.37322559,0.61387396,1.19130161,15,25,49,8,14,28,0.20798224,0.34738001,0.69657330,0.05978045,0.11396076,0.21146109
32029,0,USNevadaStorey,Nevada,Storey,2021-01-05 15:47:23.045243,2020-07-31 00:00:00.000000,0.35821588,0.61451567,1.15707123,14,25,47,8,14,28,0.20997163,0.35926655,0.68450386,0.06058939,0.11415426,0.21043456
32029,0,USNevadaStorey,Nevada,Storey,2021-01-05 15:47:23.045243,2020-08-01 00:00:00.000000,0.35071261,0.62099962,1.12290563,14,25,46,8,14,30,0.20727462,0.36271418,0.72783154,0.06118884,0.11521920,0.20842531
32029,0,USNevadaStorey,Nevada,Storey,2021-01-05 15:47:23.045243,2020-08-02 00:00:00.000000,0.35275417,0.63917195,1.15583044,14,26,47,8,15,29,0.20829701,0.37130177,0.71814145,0.06157709,0.11340707,0.20085035
32029,0,USNevadaStorey,Nevada,Storey,2021-01-05 15:47:23.045243,2020-08-03 00:00:00.000000,0.38829783,0.67244510,1.14767799,16,27,47,8,15,29,0.21095184,0.37814050,0.70603079,0.05957116,0.10943959,0.19737084
32029,0,USNevadaStorey,Nevada,Storey,2021-01-05 15:47:23.045243,2020-08-04 00:00:00.000000,0.39601968,0.68712772,1.14599204,16,28,47,9,16,28,0.21968312,0.38860464,0.69001225,0.06131108,0.11236957,0.20072856
32029,0,USNevadaStorey,Nevada,Storey,2021-01-05 15:47:23.045243,2020-08-05 00:00:00.000000,0.39831157,0.70248133,1.15491879,16,28,47,9,17,27,0.23145684,0.41313938,0.67136137,0.05875847,0.11124458,0.20173564
32029,0,USNevadaStorey,Nevada,Storey,2021-01-05 15:47:23.045243,2020-08-06 00:00:00.000000,0.40133966,0.71037951,1.15696503,16,29,47,9,17,27,0.23136740,0.42991012,0.67757682,0.05818433,0.10930336,0.20199025
32029,0,USNevadaStorey,Nevada,Storey,2021-01-05 15:47:23.045243,2020-08-07 00:00:00.000000,0.40483007,0.71284795,1.15638658,16,29,47,9,17,29,0.23146509,0.43241531,0.70618307,0.05730957,0.11094709,0.20197942
32029,0,USNevadaStorey,Nevada,Storey,2021-01-05 15:47:23.045243,2020-08-08 00:00:00.000000,0.40394166,0.72073385,1.20046138,16,29,49,9,18,30,0.22733230,0.43744594,0.73318272,0.05745890,0.10956173,0.20171904
32029,0,USNevadaStorey,Nevada,Storey,2021-01-05 15:47:23.045243,2020-08-09 00:00:00.000000,0.40668560,0.73413566,1.30365099,16,30,53,9,18,31,0.22331619,0.44901958,0.75612176,0.05668175,0.10973486,0.20345453
32029,0,USNevadaStorey,Nevada,Storey,2021-01-05 15:47:23.045243,2020-08-10 00:00:00.000000,0.37346348,0.68360830,1.22228605,15,28,50,9,18,31,0.21993758,0.44309099,0.76603942,0.05358974,0.11121864,0.22267478
32029,0,USNevadaStorey,Nevada,Storey,2021-01-05 15:47:23.045243,2020-08-11 00:00:00.000000,0.34022028,0.64261754,1.13075272,14,26,46,8,17,30,0.20966540,0.42651480,0.74705948,0.05279729,0.11196734,0.21859178
32029,0,USNevadaStorey,Nevada,Storey,2021-01-05 15:47:23.045243,2020-08-12 00:00:00.000000,0.30865672,0.60263161,1.02785374,12,24,42,8,16,30,0.19607869,0.40992496,0.72964973,0.05273361,0.11331560,0.21070349
32029,0,USNevadaStorey,Nevada,Storey,2021-01-05 15:47:23.045243,2020-08-13 00:00:00.000000,0.28143746,0.56403516,0.98990918,11,23,40,7,16,28,0.18121422,0.39034691,0.70238795,0.05293622,0.11188648,0.20573214
32029,0,USNevadaStorey,Nevada,Storey,2021-01-05 15:47:23.045243,2020-08-14 00:00:00.000000,0.25585464,0.52400403,0.95174829,10,21,39,6,15,27,0.16621916,0.36920285,0.66194910,0.05350282,0.11211710,0.20909006
32029,0,USNevadaStorey,Nevada,Storey,2021-01-05 15:47:23.045243,2020-08-15 00:00:00.000000,0.22456933,0.47665280,0.91121032,9,19,37,6,14,25,0.15177116,0.33999149,0.62689410,0.05439002,0.11378182,0.23180734
32029,0,USNevadaStorey,Nevada,Storey,2021-01-05 15:47:23.045243,2020-08-16 00:00:00.000000,0.19520381,0.43847170,0.87047486,8,18,35,5,12,24,0.13356857,0.31284896,0.59078988,0.05602932,0.11277630,0.23103223
32029,0,USNevadaStorey,Nevada,Storey,2021-01-05 15:47:23.045243,2020-08-17 00:00:00.000000,0.22636232,0.44714163,0.85546805,9,18,35,4,11,22,0.11627856,0.28793170,0.55433890,0.05649913,0.11368578,0.23087128
32029,0,USNevadaStorey,Nevada,Storey,2021-01-05 15:47:23.045243,2020-08-18 00:00:00.000000,0.22173666,0.44586788,0.84651245,9,18,34,4,11,22,0.11824004,0.27496682,0.55474280,0.05665737,0.11367053,0.23086087
32029,0,USNevadaStorey,Nevada,Storey,2021-01-05 15:47:23.045243,2020-08-19 00:00:00.000000,0.24708957,0.46620181,0.83890510,10,19,34,5,11,23,0.13459823,0.27458083,0.57779250,0.05685199,0.11540611,0.23076964
32029,0,USNevadaStorey,Nevada,Storey,2021-01-05 15:47:23.045243,2020-08-20 00:00:00.000000,0.24743974,0.46568476,0.86010631,10,19,35,5,11,23,0.13950745,0.28664085,0.57620430,0.05740360,0.11823331,0.21963006
32029,0,USNevadaStorey,Nevada,Storey,2021-01-05 15:47:23.045243,2020-08-21 00:00:00.000000,0.23505299,0.48844461,0.93526080,9,20,38,5,11,23,0.14420249,0.28858586,0.57075383,0.05900052,0.11768228,0.21460775
32029,0,USNevadaStorey,Nevada,Storey,2021-01-05 15:47:23.045243,2020-08-22 00:00:00.000000,0.22486430,0.49042019,0.99557175,9,20,41,5,12,23,0.13658534,0.29186466,0.56695251,0.06264536,0.11789462,0.21684353
32029,0,USNevadaStorey,Nevada,Storey,2021-01-05 15:47:23.045243,2020-08-23 00:00:00.000000,0.21641607,0.48573011,1.02376780,8,20,42,5,12,23,0.13023912,0.29156297,0.56447416,0.06591553,0.12116822,0.21831148
32029,0,USNevadaStorey,Nevada,Storey,2021-01-05 15:47:23.045243,2020-08-24 00:00:00.000000,0.29076692,0.53548281,1.03824954,11,22,42,5,12,24,0.12495198,0.29142133,0.60302281,0.06596183,0.12188090,0.22051649
32029,0,USNevadaStorey,Nevada,Storey,2021-01-05 15:47:23.045243,2020-08-25 00:00:00.000000,0.34685674,0.56807547,1.02917004,14,23,42,5,12,25,0.14324830,0.30307219,0.62023896,0.06600734,0.12252264,0.22354862
32029,0,USNevadaStorey,Nevada,Storey,2021-01-05 15:47:23.045243,2020-08-26 00:00:00.000000,0.37248237,0.59230198,1.05786602,15,24,43,7,13,26,0.17799322,0.32585910,0.63330512,0.06603613,0.12380315,0.22563748
32029,0,USNevadaStorey,Nevada,Storey,2021-01-05 15:47:23.045243,2020-08-27 00:00:00.000000,0.37512081,0.62105560,1.06200787,15,25,43,8,13,26,0.20903381,0.33929114,0.64121748,0.06607999,0.12423708,0.23137503
32029,0,USNevadaStorey,Nevada,Storey,2021-01-05 15:47:23.045243,2020-08-28 00:00:00.000000,0.37987426,0.65999505,1.12171293,15,27,46,8,15,26,0.21700000,0.37114124,0.64632181,0.06760257,0.12362530,0.24846700
32029,0,USNevadaStorey,Nevada,Storey,2021-01-05 15:47:23.045243,2020-08-29 00:00:00.000000,0.37849444,0.69855775,1.18347636,15,28,48,9,16,26,0.22630050,0.39672361,0.64730830,0.07131746,0.12648883,0.26576787
32029,0,USNevadaStorey,Nevada,Storey,2021-01-05 15:47:23.045243,2020-08-30 00:00:00.000000,0.38045586,0.73023254,1.28376090,15,30,52,9,17,28,0.22133178,0.42495530,0.69511797,0.07643658,0.13100135,0.25196679
32029,0,USNevadaStorey,Nevada,Storey,2021-01-05 15:47:23.045243,2020-08-31 00:00:00.000000,0.39398223,0.73827976,1.25548615,16,30,51,9,17,29,0.21928112,0.43112323,0.70406690,0.07570640,0.13369184,0.25508172
32029,0,USNevadaStorey,Nevada,Storey,2021-01-05 15:47:23.045243,2020-09-01 00:00:00.000000,0.40856469,0.75063834,1.27530626,16,30,52,9,17,29,0.22628665,0.42740924,0.70658285,0.07441840,0.13191164,0.25668596
32029,0,USNevadaStorey,Nevada,Storey,2021-01-05 15:47:23.045243,2020-09-02 00:00:00.000000,0.38927881,0.73114384,1.28229104,16,30,52,9,18,30,0.23327887,0.43689876,0.73814697,0.07436684,0.13459540,0.25732955
32029,0,USNevadaStorey,Nevada,Storey,2021-01-05 15:47:23.045243,2020-09-03 00:00:00.000000,0.38646242,0.74898579,1.23912517,15,30,51,9,18,31,0.22766548,0.43871220,0.76472472,0.07439088,0.13451922,0.25692906
32029,0,USNevadaStorey,Nevada,Storey,2021-01-05 15:47:23.045243,2020-09-04 00:00:00.000000,0.38572098,0.75002441,1.19513105,15,30,49,9,18,30,0.22699621,0.44138681,0.74173773,0.07650713,0.13526927,0.25423261
32029,0,USNevadaStorey,Nevada,Storey,2021-01-05 15:47:23.045243,2020-09-05 00:00:00.000000,0.38547655,0.74259046,1.25252854,15,30,51,9,17,29,0.22657971,0.42762908,0.71668657,0.07768054,0.13790064,0.24648319
32029,0,USNevadaStorey,Nevada,Storey,2021-01-05 15:47:23.045243,2020-09-06 00:00:00.000000,0.37634508,0.73994436,1.30866581,15,30,53,9,17,30,0.22633483,0.43252247,0.73159052,0.07758821,0.14062277,0.25830647
32029,0,USNevadaStorey,Nevada,Storey,2021-01-05 15:47:23.045243,2020-09-07 00:00:00.000000,0.35827514,0.72714976,1.28679988,14,29,53,9,17,31,0.22636246,0.42264818,0.76958637,0.07429271,0.14072387,0.26240210
32029,0,USNevadaStorey,Nevada,Storey,2021-01-05 15:47:23.045243,2020-09-08 00:00:00.000000,0.34853704,0.73703650,1.31161506,14,30,54,9,17,33,0.21903007,0.42454608,0.80659694,0.07303798,0.14365722,0.26324720
32029,0,USNevadaStorey,Nevada,Storey,2021-01-05 15:47:23.045243,2020-09-09 00:00:00.000000,0.34712354,0.75894923,1.32556224,14,31,54,8,17,34,0.20960540,0.43320137,0.83009526,0.07286686,0.14196493,0.27467807
32029,0,USNevadaStorey,Nevada,Storey,2021-01-05 15:47:23.045243,2020-09-10 00:00:00.000000,0.34536119,0.73463397,1.33134066,14,30,54,8,18,34,0.20011512,0.45050331,0.84338904,0.07633562,0.14147556,0.27541278
32029,0,USNevadaStorey,Nevada,Storey,2021-01-05 15:47:23.045243,2020-09-11 00:00:00.000000,0.34370223,0.72871466,1.33408015,14,30,55,8,18,35,0.19853771,0.44442711,0.85029505,0.08054457,0.14262668,0.27357908
32029,0,USNevadaStorey,Nevada,Storey,2021-01-05 15:47:23.045243,2020-09-12 00:00:00.000000,0.34231627,0.72672836,1.36253638,14,29,56,8,18,35,0.19857511,0.45386409,0.85293957,0.08411058,0.14436040,0.26110679
32029,0,USNevadaStorey,Nevada,Storey,2021-01-05 15:47:23.045243,2020-09-13 00:00:00.000000,0.33707681,0.74635900,1.44830351,13,30,59,8,19,36,0.19463548,0.46437762,0.88421323,0.08618617,0.14625980,0.24475615
32029,0,USNevadaStorey,Nevada,Storey,2021-01-05 15:47:23.045243,2020-09-14 00:00:00.000000,0.37331498,0.76270163,1.46113806,15,31,60,7,19,36,0.19390865,0.47099719,0.89334528,0.08625221,0.14871770,0.24944904
32029,0,USNevadaStorey,Nevada,Storey,2021-01-05 15:47:23.045243,2020-09-15 00:00:00.000000,0.37093041,0.76044994,1.46224164,15,31,60,8,19,37,0.20983263,0.47722731,0.89913947,0.08661799,0.15046207,0.25281986
32029,0,USNevadaStorey,Nevada,Storey,2021-01-05 15:47:23.045243,2020-09-16 00:00:00.000000,0.35706109,0.74500454,1.46773954,14,30,60,8,19,36,0.21047300,0.47318724,0.88643664,0.08964496,0.15274201,0.26720977
32029,0,USNevadaStorey,Nevada,Storey,2021-01-05 15:47:23.045243,2020-09-17 00:00:00.000000,0.35015757,0.75301626,1.52264784,14,31,62,8,19,36,0.20344451,0.47348328,0.88414998,0.09081006,0.15558987,0.27468362
32029,0,USNevadaStorey,Nevada,Storey,2021-01-05 15:47:23.045243,2020-09-18 00:00:00.000000,0.34525090,0.78737287,1.57980862,14,32,65,8,19,37,0.19626415,0.48116854,0.91452966,0.09104218,0.16256040,0.27928118
32029,0,USNevadaStorey,Nevada,Storey,2021-01-05 15:47:23.045243,2020-09-19 00:00:00.000000,0.34158037,0.82479484,1.71574402,14,34,70,7,19,38,0.19048099,0.47734314,0.94441919,0.09147749,0.16533715,0.28547033
32029,0,USNevadaStorey,Nevada,Storey,2021-01-05 15:47:23.045243,2020-09-20 00:00:00.000000,0.33911660,0.85825117,1.82480303,13,35,75,7,19,41,0.18790014,0.48254402,1.00296424,0.09154903,0.16842457,0.29859303
32029,0,USNevadaStorey,Nevada,Storey,2021-01-05 15:47:23.045243,2020-09-21 00:00:00.000000,0.38372193,0.86131718,1.80033785,15,35,74,7,20,43,0.18602203,0.48877362,1.04474840,0.09200020,0.17335586,0.29949233
32029,0,USNevadaStorey,Nevada,Storey,2021-01-05 15:47:23.045243,2020-09-22 00:00:00.000000,0.40612678,0.88487481,1.77609669,16,36,73,8,21,44,0.21027558,0.51037916,1.07629619,0.09421019,0.17540862,0.30637457
32029,0,USNevadaStorey,Nevada,Storey,2021-01-05 15:47:23.045243,2020-09-23 00:00:00.000000,0.44039063,0.89644439,1.75152952,18,36,72,9,21,44,0.21951113,0.53098876,1.08609906,0.09631436,0.17967245,0.31531913
32029,0,USNevadaStorey,Nevada,Storey,2021-01-05 15:47:23.045243,2020-09-24 00:00:00.000000,0.44021314,0.92451904,1.72655262,18,38,71,9,22,44,0.22180567,0.55134440,1.07215735,0.09967014,0.18354439,0.31547305
32029,0,USNevadaStorey,Nevada,Storey,2021-01-05 15:47:23.045243,2020-09-25 00:00:00.000000,0.41688990,0.94351778,1.73022580,17,38,71,10,23,43,0.25226348,0.56769552,1.05732981,0.10400637,0.18872637,0.31721473
32029,0,USNevadaStorey,Nevada,Storey,2021-01-05 15:47:23.045243,2020-09-26 00:00:00.000000,0.40948648,0.95485938,1.84783168,16,39,76,10,24,44,0.25878502,0.58675471,1.07609482,0.10940368,0.18981888,0.31931981
32029,0,USNevadaStorey,Nevada,Storey,2021-01-05 15:47:23.045243,2020-09-27 00:00:00.000000,0.41659058,0.98034575,2.00482367,17,40,82,10,24,43,0.24526496,0.59436966,1.05716913,0.11370055,0.19329432,0.32747479
32029,0,USNevadaStorey,Nevada,Storey,2021-01-05 15:47:23.045243,2020-09-28 00:00:00.000000,0.59955941,1.12899121,2.10158179,24,46,86,9,25,43,0.23616494,0.60641907,1.06617785,0.11480723,0.20205857,0.35103483
32029,0,USNevadaStorey,Nevada,Storey,2021-01-05 15:47:23.045243,2020-09-29 00:00:00.000000,0.71828142,1.20046280,2.06061154,29,49,84,11,26,46,0.28641663,0.63873066,1.13829121,0.11620980,0.20570319,0.36258731
32029,0,USNevadaStorey,Nevada,Storey,2021-01-05 15:47:23.045243,2020-09-30 00:00:00.000000,0.81534778,1.30993721,2.01449407,33,54,83,14,29,48,0.35665062,0.70595917,1.18139878,0.11797447,0.20880309,0.36877810
32029,0,USNevadaStorey,Nevada,Storey,2021-01-05 15:47:23.045243,2020-10-01 00:00:00.000000,0.85502491,1.42535065,2.02887273,35,58,83,18,30,48,0.43956646,0.74801211,1.17827277,0.12190192,0.20662537,0.37600952
32029,0,USNevadaStorey,Nevada,Storey,2021-01-05 15:47:23.045243,2020-10-02 00:00:00.000000,0.88135226,1.53338492,2.15293446,36,63,88,20,34,51,0.48780359,0.83099591,1.24749217,0.12410045,0.20687146,0.38266770
32029,0,USNevadaStorey,Nevada,Storey,2021-01-05 15:47:23.045243,2020-10-03 00:00:00.000000,0.90754787,1.65727465,2.37514269,37,68,97,21,36,54,0.52221741,0.89198891,1.31791853,0.12413857,0.21161536,0.36949627
32029,0,USNevadaStorey,Nevada,Storey,2021-01-05 15:47:23.045243,2020-10-04 00:00:00.000000,0.91602082,1.74023143,2.48722453,37,71,102,21,39,57,0.51652292,0.94767381,1.38878212,0.12348810,0.21785889,0.35364583
32029,0,USNevadaStorey,Nevada,Storey,2021-01-05 15:47:23.045243,2020-10-05 00:00:00.000000,0.89609772,1.75656614,2.50000971,36,72,103,20,42,60,0.49886072,1.02633884,1.45974971,0.13259249,0.22303616,0.33782428
32029,0,USNevadaStorey,Nevada,Storey,2021-01-05 15:47:23.045243,2020-10-06 00:00:00.000000,0.88162825,1.78033198,2.51483471,36,73,103,19,42,62,0.48461340,1.02728786,1.52135066,0.14024878,0.22136497,0.33539410
32029,0,USNevadaStorey,Nevada,Storey,2021-01-05 15:47:23.045243,2020-10-07 00:00:00.000000,0.89509642,1.83110231,2.60787966,36,75,107,19,43,63,0.47362107,1.05412824,1.54429387,0.14260379,0.22194135,0.34351873
32029,0,USNevadaStorey,Nevada,Storey,2021-01-05 15:47:23.045243,2020-10-08 00:00:00.000000,0.92752896,1.83879789,2.61904201,38,75,107,19,44,64,0.46633741,1.07968163,1.57413319,0.14461828,0.22564909,0.34654949
32029,0,USNevadaStorey,Nevada,Storey,2021-01-05 15:47:23.045243,2020-10-09 00:00:00.000000,0.89828623,1.84160328,2.63925952,37,75,108,19,44,65,0.46310172,1.08968416,1.59998849,0.14608311,0.23068499,0.34618414
32029,0,USNevadaStorey,Nevada,Storey,2021-01-05 15:47:23.045243,2020-10-10 00:00:00.000000,0.89186875,1.83189173,2.61426472,36,75,107,19,45,66,0.46474942,1.10376938,1.62215109,0.14680180,0.23366902,0.34662700
32029,0,USNevadaStorey,Nevada,Storey,2021-01-05 15:47:23.045243,2020-10-11 00:00:00.000000,0.92335070,1.83258020,2.58901367,38,75,106,20,45,67,0.48548608,1.11501190,1.63407382,0.14770946,0.24004466,0.34989911
32029,0,USNevadaStorey,Nevada,Storey,2021-01-05 15:47:23.045243,2020-10-12 00:00:00.000000,0.92658921,1.81426385,2.60037542,38,74,107,20,45,67,0.50636373,1.10728017,1.64793896,0.14783530,0.24942661,0.35439548
32029,0,USNevadaStorey,Nevada,Storey,2021-01-05 15:47:23.045243,2020-10-13 00:00:00.000000,0.92405136,1.79043306,2.61188610,38,73,107,21,45,67,0.51180934,1.09728197,1.64702523,0.14809515,0.25639236,0.35894680
32029,0,USNevadaStorey,Nevada,Storey,2021-01-05 15:47:23.045243,2020-10-14 00:00:00.000000,0.94488278,1.78134372,2.62875970,38,73,108,22,44,67,0.53383273,1.08950056,1.64406315,0.14895183,0.25960765,0.36166280
32029,0,USNevadaStorey,Nevada,Storey,2021-01-05 15:47:23.045243,2020-10-15 00:00:00.000000,0.97547089,1.75878525,2.64727626,40,72,109,22,44,67,0.55257992,1.08640488,1.64436545,0.15160371,0.26106130,0.36171130
32029,0,USNevadaStorey,Nevada,Storey,2021-01-05 15:47:23.045243,2020-10-16 00:00:00.000000,1.00536381,1.72838949,2.66564016,41,71,109,22,44,67,0.55680192,1.07014103,1.64570302,0.15813916,0.26334167,0.36621929
32029,0,USNevadaStorey,Nevada,Storey,2021-01-05 15:47:23.045243,2020-10-17 00:00:00.000000,1.03473019,1.74205753,2.68298642,42,71,110,23,44,68,0.56286463,1.07907473,1.66024268,0.16798761,0.26971444,0.36650639
32029,0,USNevadaStorey,Nevada,Storey,2021-01-05 15:47:23.045243,2020-10-18 00:00:00.000000,1.06597491,1.74265196,2.70008019,43,71,111,24,44,68,0.59302794,1.07084313,1.65560622,0.17417486,0.27284502,0.39066971
32029,0,USNevadaStorey,Nevada,Storey,2021-01-05 15:47:23.045243,2020-10-19 00:00:00.000000,1.08019091,1.73638665,2.74024770,44,71,112,25,43,69,0.61547870,1.05548651,1.68161033,0.17231987,0.28163261,0.39555134
32029,0,USNevadaStorey,Nevada,Storey,2021-01-05 15:47:23.045243,2020-10-20 00:00:00.000000,1.10777978,1.74122390,2.79172142,45,71,115,26,42,70,0.63508290,1.03767005,1.71851427,0.16717722,0.28393585,0.40209579
32029,0,USNevadaStorey,Nevada,Storey,2021-01-05 15:47:23.045243,2020-10-21 00:00:00.000000,1.13418328,1.72755077,2.79594379,46,71,115,26,43,71,0.64930872,1.04619977,1.73248811,0.16715718,0.29024693,0.40346041
32029,0,USNevadaStorey,Nevada,Storey,2021-01-05 15:47:23.045243,2020-10-22 00:00:00.000000,1.10617171,1.74232328,2.79747013,45,71,115,25,43,73,0.62640464,1.06055062,1.78431724,0.17382649,0.29702108,0.40932916
32029,0,USNevadaStorey,Nevada,Storey,2021-01-05 15:47:23.045243,2020-10-23 00:00:00.000000,1.08817654,1.75909379,2.87051229,44,72,118,25,44,74,0.62045782,1.07377165,1.81886721,0.18197465,0.30092105,0.42510727
32029,0,USNevadaStorey,Nevada,Storey,2021-01-05 15:47:23.045243,2020-10-24 00:00:00.000000,1.09892471,1.78081935,2.95631212,45,73,121,26,45,76,0.63574426,1.09856686,1.85299572,0.20877840,0.30290863,0.44314784
32029,0,USNevadaStorey,Nevada,Storey,2021-01-05 15:47:23.045243,2020-10-25 00:00:00.000000,1.12938935,1.80441391,3.06282905,46,74,126,26,45,77,0.65203600,1.09437652,1.88743591,0.22707003,0.32071537,0.47661126
32029,0,USNevadaStorey,Nevada,Storey,2021-01-05 15:47:23.045243,2020-10-26 00:00:00.000000,1.17890559,1.85353450,3.22605102,48,76,133,27,45,79,0.66965025,1.10109351,1.92202453,0.24220464,0.33682295,0.52315931
32029,0,USNevadaStorey,Nevada,Storey,2021-01-05 15:47:23.045243,2020-10-27 00:00:00.000000,1.15996277,1.90035030,3.41721316,47,78,140,28,46,82,0.69543946,1.12221033,2.00810874,0.24839587,0.34408262,0.55845954
32029,0,USNevadaStorey,Nevada,Storey,2021-01-05 15:47:23.045243,2020-10-28 00:00:00.000000,1.17892414,1.97852561,3.60115067,48,81,148,27,47,85,0.66883685,1.14932906,2.06835389,0.25604441,0.36226682,0.58190472
32029,0,USNevadaStorey,Nevada,Storey,2021-01-05 15:47:23.045243,2020-10-29 00:00:00.000000,1.18306142,2.07458129,3.82513914,48,85,157,26,49,89,0.64308131,1.19059372,2.17984259,0.26286943,0.37112331,0.61963401
32029,0,USNevadaStorey,Nevada,Storey,2021-01-05 15:47:23.045243,2020-10-30 00:00:00.000000,1.23536055,2.17541712,4.05738870,50,89,167,27,51,95,0.67534108,1.24996351,2.30643394,0.26297235,0.39243130,0.63506935
32029,0,USNevadaStorey,Nevada,Storey,2021-01-05 15:47:23.045243,2020-10-31 00:00:00.000000,1.32275057,2.25164561,4.29970014,54,92,177,29,52,100,0.70498956,1.28462872,2.44324598,0.26530327,0.41948866,0.64897687
32029,0,USNevadaStorey,Nevada,Storey,2021-01-05 15:47:23.045243,2020-11-01 00:00:00.000000,1.41591543,2.36267818,4.55545280,58,97,187,29,54,105,0.71700747,1.32890905,2.56933398,0.29166185,0.44077918,0.67202643
32029,0,USNevadaStorey,Nevada,Storey,2021-01-05 15:47:23.045243,2020-11-02 00:00:00.000000,1.41082673,2.52918817,4.72730346,58,104,194,30,57,110,0.73589728,1.38307620,2.68972785,0.31684519,0.45450596,0.67475787
32029,0,USNevadaStorey,Nevada,Storey,2021-01-05 15:47:23.045243,2020-11-03 00:00:00.000000,1.41437751,2.69117730,4.91081283,58,110,202,32,59,116,0.78307633,1.45035264,2.82003300,0.33006548,0.48293371,0.68718287
32029,0,USNevadaStorey,Nevada,Storey,2021-01-05 15:47:23.045243,2020-11-04 00:00:00.000000,1.44114952,2.84247784,5.21415383,59,117,214,34,63,123,0.84093472,1.52999954,2.99844350,0.33662145,0.50129422,0.68573027
32029,0,USNevadaStorey,Nevada,Storey,2021-01-05 15:47:23.045243,2020-11-05 00:00:00.000000,1.51672903,3.10654989,5.64915097,62,128,232,37,67,128,0.90179833,1.64560465,3.12115306,0.34856686,0.52088468,0.74437898
32029,0,USNevadaStorey,Nevada,Storey,2021-01-05 15:47:23.045243,2020-11-06 00:00:00.000000,1.61573516,3.37042954,6.08361850,66,138,250,38,72,133,0.92678800,1.76504207,3.24397433,0.37438825,0.56169873,0.78765256
32029,0,USNevadaStorey,Nevada,Storey,2021-01-05 15:47:23.045243,2020-11-07 00:00:00.000000,1.76495301,3.68988302,6.53879625,72,152,269,39,79,140,0.95904752,1.93302510,3.40859399,0.41486971,0.58300958,0.86316349
32029,0,USNevadaStorey,Nevada,Storey,2021-01-05 15:47:23.045243,2020-11-08 00:00:00.000000,1.97287522,4.08027964,7.01528775,81,168,289,41,86,151,1.01792636,2.09022102,3.67251954,0.44764313,0.63237316,0.89050155
32029,0,USNevadaStorey,Nevada,Storey,2021-01-05 15:47:23.045243,2020-11-09 00:00:00.000000,2.32706483,4.46557552,7.42314553,95,184,306,46,94,162,1.12678205,2.28585991,3.94758460,0.47087959,0.66437645,0.92136844
32029,0,USNevadaStorey,Nevada,Storey,2021-01-05 15:47:23.045243,2020-11-10 00:00:00.000000,2.71642099,4.98645013,7.84892040,111,205,323,53,106,174,1.30759843,2.57568510,4.23207182,0.48728618,0.70045684,0.93168597
32029,0,USNevadaStorey,Nevada,Storey,2021-01-05 15:47:23.045243,2020-11-11 00:00:00.000000,3.15780822,5.54877707,8.55496563,130,228,352,63,115,186,1.52816353,2.79134477,4.52734754,0.52307292,0.73448350,0.93971670
32029,0,USNevadaStorey,Nevada,Storey,2021-01-05 15:47:23.045243,2020-11-12 00:00:00.000000,3.65588648,6.21692080,9.33782847,150,256,384,69,127,199,1.69114631,3.08786124,4.82811293,0.53367737,0.76889796,0.94121427
32029,0,USNevadaStorey,Nevada,Storey,2021-01-05 15:47:23.045243,2020-11-13 00:00:00.000000,4.03490123,6.91320772,10.44772430,166,285,430,76,139,212,1.85878254,3.39469785,5.15560193,0.58593224,0.79930310,0.96101632
32029,0,USNevadaStorey,Nevada,Storey,2021-01-05 15:47:23.045243,2020-11-14 00:00:00.000000,4.43728627,7.67345259,11.63687761,182,316,479,87,156,227,2.11279731,3.80758244,5.51995809,0.61153809,0.80831292,0.99149059
32029,0,USNevadaStorey,Nevada,Storey,2021-01-05 15:47:23.045243,2020-11-15 00:00:00.000000,5.01704035,8.54773703,12.90762899,206,352,532,99,175,251,2.40954531,4.26638465,6.10862105,0.63272048,0.82955122,0.98686473
32029,0,USNevadaStorey,Nevada,Storey,2021-01-05 15:47:23.045243,2020-11-16 00:00:00.000000,5.65499754,9.56385595,14.25809357,233,394,587,112,194,281,2.73862813,4.72912970,6.81614235,0.64982463,0.83878649,0.97877685
32029,0,USNevadaStorey,Nevada,Storey,2021-01-05 15:47:23.045243,2020-11-17 00:00:00.000000,6.35582263,10.54345115,15.66960309,262,434,646,127,217,313,3.09551097,5.27995822,7.60110454,0.66281531,0.83937169,0.99469729
32029,0,USNevadaStorey,Nevada,Storey,2021-01-05 15:47:23.045243,2020-11-18 00:00:00.000000,7.11838005,11.56300259,17.11435312,293,476,705,149,241,347,3.62959471,5.85311345,8.42673386,0.67106001,0.84057245,0.98616656
32029,0,USNevadaStorey,Nevada,Storey,2021-01-05 15:47:23.045243,2020-11-19 00:00:00.000000,7.98581190,12.80875537,18.53811789,329,528,764,175,268,384,4.25049947,6.50141898,9.33354030,0.67194275,0.83574266,0.98478867
32029,0,USNevadaStorey,Nevada,Storey,2021-01-05 15:47:23.045243,2020-11-20 00:00:00.000000,9.20299605,14.03740451,19.71925919,379,578,813,203,296,426,4.94434000,7.19006387,10.34691435,0.66482521,0.82948769,0.98573537
32029,0,USNevadaStorey,Nevada,Storey,2021-01-05 15:47:23.045243,2020-11-21 00:00:00.000000,10.36018716,15.04757633,20.91143436,427,620,862,226,327,463,5.49483317,7.94733403,11.23815045,0.56647686,0.79292852,0.98244116
32029,0,USNevadaStorey,Nevada,Storey,2021-01-05 15:47:23.045243,2020-11-22 00:00:00.000000,10.96590531,15.87952382,22.39071271,452,654,923,239,356,497,5.81965393,8.64948908,12.06994788,0.37285976,0.72531831,0.95341648
32029,0,USNevadaStorey,Nevada,Storey,2021-01-05 15:47:23.045243,2020-11-23 00:00:00.000000,11.22487724,16.38584101,23.08486880,462,675,951,249,380,540,6.04578044,9.24060274,13.10849177,0.32764842,0.56344657,0.83268720
32029,0,USNevadaStorey,Nevada,Storey,2021-01-05 15:47:23.045243,2020-11-24 00:00:00.000000,10.93696617,16.35126981,22.88084527,450,674,943,259,398,572,6.29034140,9.67594405,13.88263225,0.25839000,0.40281025,0.64645516
32029,0,USNevadaStorey,Nevada,Storey,2021-01-05 15:47:23.045243,2020-11-25 00:00:00.000000,10.67086519,15.95460899,22.05003895,439,657,909,258,403,584,6.26864633,9.77944911,14.17181877,0.19082793,0.30925836,0.49810402
32029,0,USNevadaStorey,Nevada,Storey,2021-01-05 15:47:23.045243,2020-11-26 00:00:00.000000,10.07291032,15.36742232,20.85320990,415,633,859,247,400,580,6.01001693,9.70735139,14.07302852,0.17867641,0.26199836,0.39229335
32029,0,USNevadaStorey,Nevada,Storey,2021-01-05 15:47:23.045243,2020-11-27 00:00:00.000000,9.40983409,14.55042124,19.80854344,387,599,816,235,389,566,5.71389800,9.43725471,13.73718671,0.16225156,0.23367510,0.36313731
32029,0,USNevadaStorey,Nevada,Storey,2021-01-05 15:47:23.045243,2020-11-28 00:00:00.000000,8.74054913,13.69889641,18.79961941,360,564,775,222,370,547,5.40078128,8.99359888,13.26961932,0.15847077,0.21947355,0.34674147
32029,0,USNevadaStorey,Nevada,Storey,2021-01-05 15:47:23.045243,2020-11-29 00:00:00.000000,8.08961631,12.73705216,17.62450739,333,525,726,208,349,524,5.05645850,8.48704949,12.71187071,0.15790404,0.21317463,0.32030094
32029,0,USNevadaStorey,Nevada,Storey,2021-01-05 15:47:23.045243,2020-11-30 00:00:00.000000,7.46349735,11.71379083,16.52238789,307,482,681,193,329,495,4.70469398,7.99535144,12.02025509,0.15781350,0.20657626,0.29251954
32029,0,USNevadaStorey,Nevada,Storey,2021-01-05 15:47:23.045243,2020-12-01 00:00:00.000000,6.87408862,10.78745984,15.45098856,283,444,637,179,306,466,4.35730052,7.43570204,11.32503148,0.15314170,0.19976625,0.29198638
32029,0,USNevadaStorey,Nevada,Storey,2021-01-05 15:47:23.045243,2020-12-02 00:00:00.000000,6.14361452,9.92109058,14.42671194,253,409,594,165,281,438,4.02397832,6.81703411,10.63776126,0.14575287,0.19205424,0.28972050
32029,0,USNevadaStorey,Nevada,Storey,2021-01-05 15:47:23.045243,2020-12-03 00:00:00.000000,5.47024949,9.16990801,13.43253319,225,378,553,152,258,410,3.70613594,6.26624950,9.96374855,0.13654189,0.18595317,0.27575220
32029,0,USNevadaStorey,Nevada,Storey,2021-01-05 15:47:23.045243,2020-12-04 00:00:00.000000,4.86847812,8.45151426,12.49477849,200,348,515,136,236,383,3.30261786,5.72879713,9.30216363,0.13146468,0.17919492,0.27050387
32029,0,USNevadaStorey,Nevada,Storey,2021-01-05 15:47:23.045243,2020-12-05 00:00:00.000000,4.43288432,7.77911874,11.59954007,182,320,478,121,217,357,2.94062454,5.27689569,8.66719817,0.12864953,0.17615040,0.27011051
32029,0,USNevadaStorey,Nevada,Storey,2021-01-05 15:47:23.045243,2020-12-06 00:00:00.000000,4.05173103,7.12290091,10.75544685,167,293,443,107,200,332,2.61829405,4.85924568,8.06393031,0.12042577,0.16580280,0.26427226
32029,0,USNevadaStorey,Nevada,Storey,2021-01-05 15:47:23.045243,2020-12-07 00:00:00.000000,3.68890097,6.47497822,9.95971751,152,266,410,98,183,309,2.38330846,4.44926225,7.49549225,0.11429081,0.16098509,0.26188600
32029,0,USNevadaStorey,Nevada,Storey,2021-01-05 15:47:23.045243,2020-12-08 00:00:00.000000,3.34735146,5.88421936,9.20544255,138,242,379,89,168,286,2.17208974,4.09384752,6.95538509,0.10939519,0.15806193,0.26139083
32029,0,USNevadaStorey,Nevada,Storey,2021-01-05 15:47:23.045243,2020-12-09 00:00:00.000000,3.00727353,5.40069524,8.50430343,123,222,350,81,154,265,1.97392664,3.74738150,6.44677250,0.10732517,0.15644584,0.26174644
32029,0,USNevadaStorey,Nevada,Storey,2021-01-05 15:47:23.045243,2020-12-10 00:00:00.000000,2.75128064,4.92538553,7.85456199,113,203,323,73,141,246,1.77976907,3.43838023,5.97052827,0.10430388,0.15367809,0.26257813
32029,0,USNevadaStorey,Nevada,Storey,2021-01-05 15:47:23.045243,2020-12-11 00:00:00.000000,2.53868173,4.50797232,7.25854684,104,185,299,67,129,227,1.62890480,3.14643718,5.52128062,0.10413514,0.15175669,0.26485281
32029,0,USNevadaStorey,Nevada,Storey,2021-01-05 15:47:23.045243,2020-12-12 00:00:00.000000,2.34014832,4.09207082,6.70231807,96,168,276,62,118,210,1.50400293,2.86744797,5.10187049,0.10010792,0.14988023,0.25522341
32029,0,USNevadaStorey,Nevada,Storey,2021-01-05 15:47:23.045243,2020-12-13 00:00:00.000000,2.15926764,3.73208763,6.18291269,89,153,254,57,108,194,1.38659042,2.63251239,4.71186447,0.09665321,0.14677385,0.25355759
32029,0,USNevadaStorey,Nevada,Storey,2021-01-05 15:47:23.045243,2020-12-14 00:00:00.000000,1.98081625,3.42588162,5.70756627,81,141,235,52,98,179,1.27896123,2.38666192,4.36427768,0.09520949,0.14682773,0.25390002
32029,0,USNevadaStorey,Nevada,Storey,2021-01-05 15:47:23.045243,2020-12-15 00:00:00.000000,1.82212865,3.16769859,5.27938232,75,130,217,47,89,166,1.16218387,2.17163091,4.03455341,0.09243799,0.14546468,0.25514830
32029,0,USNevadaStorey,Nevada,Storey,2021-01-05 15:47:23.045243,2020-12-16 00:00:00.000000,1.67947125,2.95514086,4.88691957,69,121,201,43,82,154,1.06227911,1.99005591,3.74555665,0.09063534,0.14299347,0.25805144
32029,0,USNevadaStorey,Nevada,Storey,2021-01-05 15:47:23.045243,2020-12-17 00:00:00.000000,1.55342379,2.72338834,4.52728884,64,112,186,40,75,143,0.97876115,1.83968795,3.48022266,0.09000766,0.14137655,0.26359452
32029,0,USNevadaStorey,Nevada,Storey,2021-01-05 15:47:23.045243,2020-12-18 00:00:00.000000,1.44577739,2.49561877,4.19782657,59,102,173,37,69,133,0.90798323,1.68904453,3.23708238,0.08708659,0.14344302,0.27344084
32029,0,USNevadaStorey,Nevada,Storey,2021-01-05 15:47:23.045243,2020-12-19 00:00:00.000000,1.34639104,2.28312545,3.89648281,55,94,160,35,63,124,0.85328004,1.54410272,3.01529207,0.08759322,0.14299155,0.28659131
32029,0,USNevadaStorey,Nevada,Storey,2021-01-05 15:47:23.045243,2020-12-20 00:00:00.000000,1.23609625,2.08304289,3.64207988,50,85,150,32,58,116,0.79653289,1.42574438,2.81375054,0.08647676,0.14229373,0.29848892
32029,0,USNevadaStorey,Nevada,Storey,2021-01-05 15:47:23.045243,2020-12-21 00:00:00.000000,1.16805178,1.93444906,3.46741499,48,79,142,30,55,107,0.74429205,1.33587503,2.61789121,0.08251388,0.14279793,0.30601951
32029,0,USNevadaStorey,Nevada,Storey,2021-01-05 15:47:23.045243,2020-12-22 00:00:00.000000,1.11003872,1.84080581,3.31148782,45,75,136,29,51,100,0.70572041,1.25362625,2.43693937,0.08145661,0.14050233,0.30976735
32029,0,USNevadaStorey,Nevada,Storey,2021-01-05 15:47:23.045243,2020-12-23 00:00:00.000000,1.04409162,1.71197862,3.14598884,43,70,129,27,48,93,0.65871522,1.17119948,2.27253689,0.07931668,0.14034395,0.31140620
32029,0,USNevadaStorey,Nevada,Storey,2021-01-05 15:47:23.045243,2020-12-24 00:00:00.000000,0.96123599,1.63270267,2.95005046,39,67,121,25,45,88,0.60961655,1.10836753,2.15530276,0.07667359,0.13864973,0.31205979
32029,0,USNevadaStorey,Nevada,Storey,2021-01-05 15:47:23.045243,2020-12-25 00:00:00.000000,0.87790146,1.54699392,2.77322743,36,63,114,23,42,83,0.56709041,1.03927919,2.02065616,0.07366699,0.13912909,0.31219441
32029,0,USNevadaStorey,Nevada,Storey,2021-01-05 15:47:23.045243,2020-12-26 00:00:00.000000,0.82316104,1.47917377,2.63535108,33,60,108,21,41,77,0.52956791,0.99791384,1.88991556,0.07241169,0.13998483,0.31146430
32029,0,USNevadaStorey,Nevada,Storey,2021-01-05 15:47:23.045243,2020-12-27 00:00:00.000000,0.75008808,1.44468018,2.65603321,30,59,109,20,39,73,0.49631468,0.95121736,1.77998430,0.07197995,0.13998929,0.30647501
32029,0,USNevadaStorey,Nevada,Storey,2021-01-05 15:47:23.045243,2020-12-28 00:00:00.000000,0.66096945,1.33177955,2.44527987,27,54,100,18,37,69,0.45770287,0.90167335,1.69705736,0.07149613,0.13862400,0.29677157
32029,0,USNevadaStorey,Nevada,Storey,2021-01-05 15:47:23.045243,2020-12-29 00:00:00.000000,0.57989552,1.19991807,2.23300517,23,49,92,17,34,67,0.41898005,0.84063045,1.63157615,0.06939923,0.13868680,0.29377529
32029,0,USNevadaStorey,Nevada,Storey,2021-01-05 15:47:23.045243,2020-12-30 00:00:00.000000,0.50556266,1.08734958,2.03599802,20,44,83,15,31,63,0.37217344,0.77484570,1.53160147,0.06601484,0.14024713,0.29357359
32029,0,USNevadaStorey,Nevada,Storey,2021-01-05 15:47:23.045243,2020-12-31 00:00:00.000000,0.43890419,0.98185553,1.86373768,18,40,76,13,28,58,0.32544368,0.70253463,1.41849252,0.06514529,0.14134736,0.29376603
32029,0,USNevadaStorey,Nevada,Storey,2021-01-05 15:47:23.045243,2021-01-01 00:00:00.000000,0.37993065,0.87940032,1.73706968,15,36,71,11,26,53,0.28315385,0.63563137,1.30347012,0.06510271,0.14048565,0.31540365
32029,0,USNevadaStorey,Nevada,Storey,2021-01-05 15:47:23.045243,2021-01-02 00:00:00.000000,0.32815612,0.78718054,1.59210872,13,32,65,10,23,49,0.24548689,0.57525519,1.19484679,0.06508600,0.14476067,0.32683706
32029,0,USNevadaStorey,Nevada,Storey,2021-01-05 15:47:23.045243,2021-01-03 00:00:00.000000,0.28294854,0.70581717,1.44519797,11,29,59,8,21,45,0.21233127,0.51404333,1.11370572,0.06455487,0.14482092,0.33081557
32029,0,USNevadaStorey,Nevada,Storey,2021-01-05 15:47:23.045243,2021-01-04 00:00:00.000000,0.24537296,0.62888623,1.31346528,10,25,54,7,18,42,0.18329250,0.45938917,1.02152629,0.06344510,0.14375939,0.33211184
32029,0,USNevadaStorey,Nevada,Storey,2021-01-05 15:47:23.045243,2021-01-05 00:00:00.000000,0.21549241,0.56518415,1.22873433,8,23,50,6,17,38,0.15817942,0.41401838,0.94366284,0.06263796,0.14330946,0.33256565
32029,0,USNevadaStorey,Nevada,Storey,2021-01-05 15:47:23.045243,2021-01-06 00:00:00.000000,0.18307383,0.50619344,1.14260993,7,20,47,5,15,36,0.13586330,0.36781802,0.88314691,0.06209654,0.14752041,0.33274642
32029,0,USNevadaStorey,Nevada,Storey,2021-01-05 15:47:23.045243,2021-01-07 00:00:00.000000,0.15538606,0.45338901,1.03712236,6,18,42,4,13,33,0.11717928,0.32506724,0.81486656,0.06175287,0.14774266,0.33282843
32029,0,USNevadaStorey,Nevada,Storey,2021-01-05 15:47:23.045243,2021-01-08 00:00:00.000000,0.13494792,0.40611483,0.95290268,5,16,39,4,12,30,0.10238493,0.29191950,0.74004196,0.06154230,0.14798372,0.33286944
32029,0,USNevadaStorey,Nevada,Storey,2021-01-05 15:47:23.045243,2021-01-09 00:00:00.000000,0.11805549,0.36378593,0.89642190,4,14,36,3,10,27,0.08950966,0.25966302,0.67172971,0.06141607,0.14821533,0.33289120
32029,0,USNevadaStorey,Nevada,Storey,2021-01-05 15:47:23.045243,2021-01-10 00:00:00.000000,0.10330193,0.32588063,0.84325380,4,13,34,3,9,25,0.07828717,0.23289164,0.60950115,0.06134139,0.14833742,0.33290312
32029,0,USNevadaStorey,Nevada,Storey,2021-01-05 15:47:23.045243,2021-01-11 00:00:00.000000,0.09040678,0.28917663,0.79277647,3,11,32,2,8,23,0.06849276,0.20901605,0.56565270,0.06129755,0.14847017,0.33290976
32029,0,USNevadaStorey,Nevada,Storey,2021-01-05 15:47:23.045243,2021-01-12 00:00:00.000000,0.07913016,0.25676753,0.73109055,3,10,30,2,7,21,0.05993654,0.18758409,0.53210079,0.06127194,0.14857475,0.33291349
32029,0,USNevadaStorey,Nevada,Storey,2021-01-05 15:47:23.045243,2021-01-13 00:00:00.000000,0.06926547,0.22996465,0.67417455,2,9,27,2,6,20,0.05245694,0.16834585,0.50052103,0.06125701,0.14865633,0.33291559
32029,0,USNevadaStorey,Nevada,Storey,2021-01-05 15:47:23.045243,2021-01-14 00:00:00.000000,0.06063385,0.20680252,0.62167068,2,8,25,1,6,19,0.04591543,0.15107723,0.46871813,0.06124832,0.14871956,0.33291677
32029,0,USNevadaStorey,Nevada,Storey,2021-01-05 15:47:23.045243,2021-01-15 00:00:00.000000,0.05307992,0.18477597,0.57324367,2,7,23,1,5,17,0.04019252,0.13557708,0.43226250,0.06124328,0.14876836,0.33291745
32029,0,USNevadaStorey,Nevada,Storey,2021-01-05 15:47:23.045243,2021-01-16 00:00:00.000000,0.04646840,0.16714733,0.52858112,1,6,21,1,5,16,0.03518468,0.12166479,0.39862315,0.06124034,0.14880591,0.33291783
32029,0,USNevadaStorey,Nevada,Storey,2021-01-05 15:47:23.045243,2021-01-17 00:00:00.000000,0.04068126,0.15125658,0.48739312,1,6,20,1,4,15,0.03080190,0.10904396,0.36758875,0.06123864,0.14883472,0.33291804
