FIPS,HR_UID,nameid,province,region,analysisTime,dates,pointprevalence_025,pointprevalence_50,pointprevalence_975,pointinfections_025,pointinfections_50,pointinfections_975,pointinfectious_025,pointinfectious_50,pointinfectious_975,pointinfectiousprevalence_05,pointinfectiousprevalence_50,pointinfectiousprevalence_95,infectrate_025,infectrate_50,infectrate_975
30063,0,USMontanaMissoula,Montana,Missoula,2021-01-05 16:57:57.648434,2020-03-09 00:00:00.000000,0.00130206,0.00313616,0.00744422,1,3,8,0,1,3,0.00028461,0.00114605,0.00294876,0.36475356,0.49343068,0.66630069
30063,0,USMontanaMissoula,Montana,Missoula,2021-01-05 16:57:57.648434,2020-03-10 00:00:00.000000,0.00205269,0.00443126,0.00945984,2,5,11,0,1,4,0.00045294,0.00141042,0.00337646,0.36475172,0.49342271,0.66630069
30063,0,USMontanaMissoula,Montana,Missoula,2021-01-05 16:57:57.648434,2020-03-11 00:00:00.000000,0.00280414,0.00554150,0.01207891,3,6,14,0,2,4,0.00070377,0.00175924,0.00407611,0.36474879,0.49340589,0.66630069
30063,0,USMontanaMissoula,Montana,Missoula,2021-01-05 16:57:57.648434,2020-03-12 00:00:00.000000,0.00346622,0.00672599,0.01428446,4,8,17,1,2,5,0.00101616,0.00218001,0.00491456,0.36474396,0.49337039,0.66630069
30063,0,USMontanaMissoula,Montana,Missoula,2021-01-05 16:57:57.648434,2020-03-13 00:00:00.000000,0.00425489,0.00805734,0.01665684,5,9,19,1,3,7,0.00128615,0.00281208,0.00640810,0.36473571,0.49329534,0.66630069
30063,0,USMontanaMissoula,Montana,Missoula,2021-01-05 16:57:57.648434,2020-03-14 00:00:00.000000,0.00513387,0.00924787,0.01906886,6,11,22,1,3,9,0.00159646,0.00332108,0.00833516,0.36472111,0.49313636,0.66630067
30063,0,USMontanaMissoula,Montana,Missoula,2021-01-05 16:57:57.648434,2020-03-15 00:00:00.000000,0.00602923,0.01071944,0.02150593,7,12,25,2,4,12,0.00199411,0.00387693,0.01043501,0.36442238,0.49062456,0.66630055
30063,0,USMontanaMissoula,Montana,Missoula,2021-01-05 16:57:57.648434,2020-03-16 00:00:00.000000,0.00682739,0.01257610,0.02463289,8,15,29,2,5,15,0.00239830,0.00459299,0.01271394,0.34728094,0.48928879,0.66629981
30063,0,USMontanaMissoula,Montana,Missoula,2021-01-05 16:57:57.648434,2020-03-17 00:00:00.000000,0.00804948,0.01461704,0.02795466,9,17,33,3,6,17,0.00285225,0.00544205,0.01456884,0.32617726,0.48621245,0.66629458
30063,0,USMontanaMissoula,Montana,Missoula,2021-01-05 16:57:57.648434,2020-03-18 00:00:00.000000,0.00948696,0.01661502,0.03153652,11,19,37,3,7,19,0.00332525,0.00645366,0.01622930,0.30567237,0.47899837,0.66598976
30063,0,USMontanaMissoula,Montana,Missoula,2021-01-05 16:57:57.648434,2020-03-19 00:00:00.000000,0.01079759,0.01863585,0.03299508,12,22,39,4,8,21,0.00395601,0.00738229,0.01766011,0.27839216,0.45918102,0.65411129
30063,0,USMontanaMissoula,Montana,Missoula,2021-01-05 16:57:57.648434,2020-03-20 00:00:00.000000,0.01175270,0.02064114,0.03604295,14,24,43,5,10,22,0.00448788,0.00839208,0.01887807,0.26255433,0.42689410,0.63702820
30063,0,USMontanaMissoula,Montana,Missoula,2021-01-05 16:57:57.648434,2020-03-21 00:00:00.000000,0.01271674,0.02274661,0.03949725,15,27,47,6,11,23,0.00504507,0.00945206,0.01997232,0.24486763,0.40499739,0.60185083
30063,0,USMontanaMissoula,Montana,Missoula,2021-01-05 16:57:57.648434,2020-03-22 00:00:00.000000,0.01370346,0.02433302,0.04267996,16,29,51,6,12,25,0.00562101,0.01046152,0.02101408,0.23622279,0.39169628,0.56402317
30063,0,USMontanaMissoula,Montana,Missoula,2021-01-05 16:57:57.648434,2020-03-23 00:00:00.000000,0.01572889,0.02614050,0.04846056,18,31,57,7,13,26,0.00612998,0.01129448,0.02204254,0.22559052,0.37098955,0.51985751
30063,0,USMontanaMissoula,Montana,Missoula,2021-01-05 16:57:57.648434,2020-03-24 00:00:00.000000,0.01680427,0.02839239,0.05044531,20,33,60,7,14,27,0.00663207,0.01239100,0.02339420,0.21771795,0.35492596,0.50266740
30063,0,USMontanaMissoula,Montana,Missoula,2021-01-05 16:57:57.648434,2020-03-25 00:00:00.000000,0.01802532,0.02987338,0.05234921,21,35,62,8,16,30,0.00749085,0.01344905,0.02571845,0.21035729,0.34467497,0.47002518
30063,0,USMontanaMissoula,Montana,Missoula,2021-01-05 16:57:57.648434,2020-03-26 00:00:00.000000,0.01970577,0.03151567,0.05413565,23,37,64,9,17,33,0.00807602,0.01457268,0.02815684,0.18765484,0.33636746,0.45698149
30063,0,USMontanaMissoula,Montana,Missoula,2021-01-05 16:57:57.648434,2020-03-27 00:00:00.000000,0.02013146,0.03337145,0.05578655,24,39,66,10,18,35,0.00868194,0.01551850,0.02979353,0.17811366,0.32116468,0.45373890
30063,0,USMontanaMissoula,Montana,Missoula,2021-01-05 16:57:57.648434,2020-03-28 00:00:00.000000,0.02084000,0.03476510,0.05726205,24,41,68,11,19,36,0.00930058,0.01635445,0.03043703,0.16182409,0.30585501,0.43189587
30063,0,USMontanaMissoula,Montana,Missoula,2021-01-05 16:57:57.648434,2020-03-29 00:00:00.000000,0.02198463,0.03612528,0.05854361,26,43,70,11,20,39,0.00993609,0.01735008,0.03315858,0.15708176,0.28781192,0.42239592
30063,0,USMontanaMissoula,Montana,Missoula,2021-01-05 16:57:57.648434,2020-03-30 00:00:00.000000,0.02291398,0.03834221,0.05997273,27,45,71,12,21,42,0.01055871,0.01807495,0.03537160,0.15590503,0.27544301,0.40786723
30063,0,USMontanaMissoula,Montana,Missoula,2021-01-05 16:57:57.648434,2020-03-31 00:00:00.000000,0.02346762,0.04007858,0.06192880,28,47,74,13,22,43,0.01113395,0.01911059,0.03623496,0.15527767,0.26484662,0.39927323
30063,0,USMontanaMissoula,Montana,Missoula,2021-01-05 16:57:57.648434,2020-04-01 00:00:00.000000,0.02371738,0.04137770,0.06432761,28,49,76,13,24,44,0.01151841,0.02019398,0.03701658,0.15373248,0.25164177,0.39678620
30063,0,USMontanaMissoula,Montana,Missoula,2021-01-05 16:57:57.648434,2020-04-02 00:00:00.000000,0.02434983,0.04347794,0.06674440,29,51,79,14,25,45,0.01192208,0.02104614,0.03767428,0.14959934,0.24742926,0.37377796
30063,0,USMontanaMissoula,Montana,Missoula,2021-01-05 16:57:57.648434,2020-04-03 00:00:00.000000,0.02486484,0.04492466,0.06915392,29,53,82,14,25,45,0.01228105,0.02173580,0.03816693,0.14498987,0.23975643,0.35493699
30063,0,USMontanaMissoula,Montana,Missoula,2021-01-05 16:57:57.648434,2020-04-04 00:00:00.000000,0.02545496,0.04522325,0.07135113,30,54,85,15,26,46,0.01262981,0.02252664,0.03847109,0.14726544,0.22990261,0.34541443
30063,0,USMontanaMissoula,Montana,Missoula,2021-01-05 16:57:57.648434,2020-04-05 00:00:00.000000,0.02608839,0.04589346,0.07336223,31,54,87,15,27,46,0.01278342,0.02305319,0.03860168,0.14258238,0.22032522,0.32494796
30063,0,USMontanaMissoula,Montana,Missoula,2021-01-05 16:57:57.648434,2020-04-06 00:00:00.000000,0.02599207,0.04690976,0.07612747,31,56,91,15,28,46,0.01286913,0.02371449,0.03859945,0.14031454,0.21715775,0.31151989
30063,0,USMontanaMissoula,Montana,Missoula,2021-01-05 16:57:57.648434,2020-04-07 00:00:00.000000,0.02588961,0.04759269,0.07877325,30,56,94,15,29,46,0.01301949,0.02453683,0.03861046,0.13930001,0.21516687,0.30638666
30063,0,USMontanaMissoula,Montana,Missoula,2021-01-05 16:57:57.648434,2020-04-08 00:00:00.000000,0.02629536,0.04804315,0.08133573,31,57,97,15,30,46,0.01320697,0.02547028,0.03860853,0.13422336,0.21410663,0.30201825
30063,0,USMontanaMissoula,Montana,Missoula,2021-01-05 16:57:57.648434,2020-04-09 00:00:00.000000,0.02673002,0.04827064,0.08382833,31,57,100,16,30,46,0.01341473,0.02580544,0.03910584,0.12909434,0.21205193,0.29511238
30063,0,USMontanaMissoula,Montana,Missoula,2021-01-05 16:57:57.648434,2020-04-10 00:00:00.000000,0.02716170,0.04941201,0.08626057,32,59,103,16,31,48,0.01363232,0.02647471,0.04044448,0.12283676,0.20886775,0.28381265
30063,0,USMontanaMissoula,Montana,Missoula,2021-01-05 16:57:57.648434,2020-04-11 00:00:00.000000,0.02731518,0.05051373,0.08864030,32,60,106,16,31,49,0.01370117,0.02653486,0.04176982,0.11769510,0.20405557,0.28150909
30063,0,USMontanaMissoula,Montana,Missoula,2021-01-05 16:57:57.648434,2020-04-12 00:00:00.000000,0.02720035,0.05108897,0.09098080,32,61,108,16,31,51,0.01363375,0.02667258,0.04307806,0.11564792,0.20130521,0.28178415
30063,0,USMontanaMissoula,Montana,Missoula,2021-01-05 16:57:57.648434,2020-04-13 00:00:00.000000,0.02807032,0.05121549,0.09353222,33,61,111,16,32,53,0.01360646,0.02683466,0.04436824,0.11493176,0.19669642,0.28453173
30063,0,USMontanaMissoula,Montana,Missoula,2021-01-05 16:57:57.648434,2020-04-14 00:00:00.000000,0.02937753,0.05166191,0.09618412,35,61,115,16,32,54,0.01398694,0.02693054,0.04567354,0.11469602,0.19282013,0.28290625
30063,0,USMontanaMissoula,Montana,Missoula,2021-01-05 16:57:57.648434,2020-04-15 00:00:00.000000,0.03081020,0.05153917,0.09820610,36,61,117,17,32,56,0.01451753,0.02726074,0.04700454,0.11322823,0.18980186,0.28210716
30063,0,USMontanaMissoula,Montana,Missoula,2021-01-05 16:57:57.648434,2020-04-16 00:00:00.000000,0.03172513,0.05137086,0.09577464,37,61,114,17,32,57,0.01470052,0.02727486,0.04819217,0.11429419,0.18519948,0.28168438
30063,0,USMontanaMissoula,Montana,Missoula,2021-01-05 16:57:57.648434,2020-04-17 00:00:00.000000,0.03219348,0.05085703,0.09326006,38,60,111,18,33,56,0.01525734,0.02774836,0.04742277,0.11372993,0.18138698,0.28049167
30063,0,USMontanaMissoula,Montana,Missoula,2021-01-05 16:57:57.648434,2020-04-18 00:00:00.000000,0.03275246,0.05030564,0.09072167,39,60,108,18,33,55,0.01561310,0.02768844,0.04654046,0.11108410,0.18119372,0.27775337
30063,0,USMontanaMissoula,Montana,Missoula,2021-01-05 16:57:57.648434,2020-04-19 00:00:00.000000,0.03233893,0.05011574,0.08849649,38,59,105,18,33,54,0.01556361,0.02796346,0.04557461,0.11110824,0.18093135,0.29271759
30063,0,USMontanaMissoula,Montana,Missoula,2021-01-05 16:57:57.648434,2020-04-20 00:00:00.000000,0.03140216,0.04826240,0.08918942,37,57,106,18,33,53,0.01526865,0.02770259,0.04507014,0.10866611,0.17909246,0.29264368
30063,0,USMontanaMissoula,Montana,Missoula,2021-01-05 16:57:57.648434,2020-04-21 00:00:00.000000,0.02989466,0.04604966,0.09028827,35,55,107,17,32,54,0.01486107,0.02735567,0.04555381,0.10618184,0.17799768,0.29111214
30063,0,USMontanaMissoula,Montana,Missoula,2021-01-05 16:57:57.648434,2020-04-22 00:00:00.000000,0.02804484,0.04429044,0.09068259,33,52,108,17,32,55,0.01477983,0.02679294,0.04608761,0.10375558,0.17805546,0.28592111
30063,0,USMontanaMissoula,Montana,Missoula,2021-01-05 16:57:57.648434,2020-04-23 00:00:00.000000,0.02671680,0.04356611,0.09047165,31,52,108,17,31,55,0.01456473,0.02597870,0.04651802,0.10105750,0.17831043,0.27296361
30063,0,USMontanaMissoula,Montana,Missoula,2021-01-05 16:57:57.648434,2020-04-24 00:00:00.000000,0.02535009,0.04218711,0.09015174,30,50,107,17,30,55,0.01427473,0.02542459,0.04677039,0.09774075,0.17833745,0.26767927
30063,0,USMontanaMissoula,Montana,Missoula,2021-01-05 16:57:57.648434,2020-04-25 00:00:00.000000,0.02392360,0.04082035,0.08972556,28,48,107,16,29,56,0.01394690,0.02496170,0.04684336,0.09411413,0.17645584,0.27111969
30063,0,USMontanaMissoula,Montana,Missoula,2021-01-05 16:57:57.648434,2020-04-26 00:00:00.000000,0.02311202,0.03957621,0.08923302,27,47,106,16,28,55,0.01347710,0.02393954,0.04678701,0.09450126,0.17714766,0.27212967
30063,0,USMontanaMissoula,Montana,Missoula,2021-01-05 16:57:57.648434,2020-04-27 00:00:00.000000,0.02201998,0.03847871,0.08865314,26,46,106,15,27,55,0.01267444,0.02297106,0.04664075,0.09412279,0.17740858,0.27787015
30063,0,USMontanaMissoula,Montana,Missoula,2021-01-05 16:57:57.648434,2020-04-28 00:00:00.000000,0.02099027,0.03771668,0.08791107,25,45,105,14,26,55,0.01206134,0.02216824,0.04642362,0.09233338,0.17746268,0.28920829
30063,0,USMontanaMissoula,Montana,Missoula,2021-01-05 16:57:57.648434,2020-04-29 00:00:00.000000,0.02002973,0.03724866,0.08687577,23,44,103,13,25,55,0.01132806,0.02135407,0.04613121,0.09213380,0.17588703,0.29144904
30063,0,USMontanaMissoula,Montana,Missoula,2021-01-05 16:57:57.648434,2020-04-30 00:00:00.000000,0.01914728,0.03622354,0.08543773,22,43,102,12,24,54,0.01063715,0.02060886,0.04573345,0.09272713,0.17611978,0.28939982
30063,0,USMontanaMissoula,Montana,Missoula,2021-01-05 16:57:57.648434,2020-05-01 00:00:00.000000,0.01834753,0.03533049,0.08363233,21,42,100,11,23,54,0.00998779,0.01991096,0.04551589,0.09826239,0.17936395,0.28304399
30063,0,USMontanaMissoula,Montana,Missoula,2021-01-05 16:57:57.648434,2020-05-02 00:00:00.000000,0.01762391,0.03413795,0.08160165,21,40,97,11,23,54,0.00938163,0.01937912,0.04544389,0.10695946,0.18070025,0.27298032
30063,0,USMontanaMissoula,Montana,Missoula,2021-01-05 16:57:57.648434,2020-05-03 00:00:00.000000,0.01696131,0.03352413,0.07947068,20,40,95,10,23,53,0.00881346,0.01932997,0.04479045,0.11013097,0.18090045,0.28610340
30063,0,USMontanaMissoula,Montana,Missoula,2021-01-05 16:57:57.648434,2020-05-04 00:00:00.000000,0.01634306,0.03299932,0.07730274,19,39,92,9,22,52,0.00835704,0.01877783,0.04402471,0.11156851,0.18550547,0.27091133
30063,0,USMontanaMissoula,Montana,Missoula,2021-01-05 16:57:57.648434,2020-05-05 00:00:00.000000,0.01528100,0.03197169,0.07512790,18,38,89,9,21,51,0.00803219,0.01803220,0.04327895,0.11315999,0.18620429,0.27117018
30063,0,USMontanaMissoula,Montana,Missoula,2021-01-05 16:57:57.648434,2020-05-06 00:00:00.000000,0.01427890,0.03138715,0.07297932,17,37,87,9,20,50,0.00773011,0.01741103,0.04255502,0.11566438,0.18655886,0.27023983
30063,0,USMontanaMissoula,Montana,Missoula,2021-01-05 16:57:57.648434,2020-05-07 00:00:00.000000,0.01334154,0.03103373,0.07086183,15,37,84,8,20,50,0.00744672,0.01690089,0.04185377,0.11909255,0.18640576,0.27648521
30063,0,USMontanaMissoula,Montana,Missoula,2021-01-05 16:57:57.648434,2020-05-08 00:00:00.000000,0.01247654,0.03071849,0.06901709,14,36,82,8,19,49,0.00717895,0.01655613,0.04117442,0.12391734,0.18864343,0.28071967
30063,0,USMontanaMissoula,Montana,Missoula,2021-01-05 16:57:57.648434,2020-05-09 00:00:00.000000,0.01169829,0.03043448,0.06789326,13,36,81,8,19,48,0.00692470,0.01638505,0.04051381,0.12514177,0.19347856,0.29079838
30063,0,USMontanaMissoula,Montana,Missoula,2021-01-05 16:57:57.648434,2020-05-10 00:00:00.000000,0.01102039,0.03000038,0.06672452,13,35,79,7,19,47,0.00668319,0.01602750,0.03986517,0.12812514,0.19978520,0.30091181
30063,0,USMontanaMissoula,Montana,Missoula,2021-01-05 16:57:57.648434,2020-05-11 00:00:00.000000,0.01208977,0.03099619,0.06766854,14,37,80,7,18,46,0.00645719,0.01559238,0.03929047,0.13192547,0.20431555,0.30269307
30063,0,USMontanaMissoula,Montana,Missoula,2021-01-05 16:57:57.648434,2020-05-12 00:00:00.000000,0.01322351,0.03132125,0.06859841,15,37,82,7,18,46,0.00659694,0.01556797,0.03923721,0.13533571,0.20624121,0.30257908
30063,0,USMontanaMissoula,Montana,Missoula,2021-01-05 16:57:57.648434,2020-05-13 00:00:00.000000,0.01445256,0.03248671,0.07088409,17,38,84,8,19,46,0.00697387,0.01599838,0.03925884,0.13422632,0.20684701,0.31147494
30063,0,USMontanaMissoula,Montana,Missoula,2021-01-05 16:57:57.648434,2020-05-14 00:00:00.000000,0.01557147,0.03300242,0.07497983,18,39,89,8,19,47,0.00750122,0.01618370,0.03932809,0.13600008,0.20762662,0.30968051
30063,0,USMontanaMissoula,Montana,Missoula,2021-01-05 16:57:57.648434,2020-05-15 00:00:00.000000,0.01609169,0.03402991,0.07915607,19,40,94,9,20,47,0.00782502,0.01675319,0.03942911,0.13795943,0.21272946,0.30657368
30063,0,USMontanaMissoula,Montana,Missoula,2021-01-05 16:57:57.648434,2020-05-16 00:00:00.000000,0.01657912,0.03487979,0.08343063,19,41,99,9,20,47,0.00813800,0.01690293,0.03955280,0.13870550,0.21733692,0.30966166
30063,0,USMontanaMissoula,Montana,Missoula,2021-01-05 16:57:57.648434,2020-05-17 00:00:00.000000,0.01703850,0.03631208,0.08783645,20,43,105,10,20,47,0.00845344,0.01727478,0.03983213,0.14294006,0.22440311,0.31519102
30063,0,USMontanaMissoula,Montana,Missoula,2021-01-05 16:57:57.648434,2020-05-18 00:00:00.000000,0.01698398,0.03762852,0.08988022,20,45,107,10,21,48,0.00876331,0.01783447,0.04038910,0.14974922,0.22659389,0.30755623
30063,0,USMontanaMissoula,Montana,Missoula,2021-01-05 16:57:57.648434,2020-05-19 00:00:00.000000,0.01692049,0.03890529,0.09206305,20,46,110,10,22,48,0.00908616,0.01905892,0.04083513,0.14810738,0.23126033,0.31655716
30063,0,USMontanaMissoula,Montana,Missoula,2021-01-05 16:57:57.648434,2020-05-20 00:00:00.000000,0.01686452,0.03983063,0.09292794,20,47,111,11,23,49,0.00942816,0.01982246,0.04123419,0.14994239,0.23410939,0.33943604
30063,0,USMontanaMissoula,Montana,Missoula,2021-01-05 16:57:57.648434,2020-05-21 00:00:00.000000,0.01737229,0.04140863,0.09343704,20,49,111,11,24,49,0.00973069,0.02061800,0.04161776,0.15041439,0.24206498,0.34007761
30063,0,USMontanaMissoula,Montana,Missoula,2021-01-05 16:57:57.648434,2020-05-22 00:00:00.000000,0.01816756,0.04384787,0.09383271,21,52,112,11,25,51,0.00972046,0.02096039,0.04296305,0.15171699,0.25040624,0.35569563
30063,0,USMontanaMissoula,Montana,Missoula,2021-01-05 16:57:57.648434,2020-05-23 00:00:00.000000,0.01826572,0.04573741,0.10078819,21,54,120,11,26,55,0.00991220,0.02196347,0.04670353,0.15303335,0.25178012,0.37520340
30063,0,USMontanaMissoula,Montana,Missoula,2021-01-05 16:57:57.648434,2020-05-24 00:00:00.000000,0.01842824,0.04730559,0.10424648,22,56,124,12,27,58,0.01045839,0.02265405,0.04904447,0.15055836,0.25381986,0.38464332
30063,0,USMontanaMissoula,Montana,Missoula,2021-01-05 16:57:57.648434,2020-05-25 00:00:00.000000,0.01905738,0.04821800,0.10730956,22,57,128,12,29,58,0.01049287,0.02448379,0.04926468,0.14986788,0.25646329,0.39509979
30063,0,USMontanaMissoula,Montana,Missoula,2021-01-05 16:57:57.648434,2020-05-26 00:00:00.000000,0.01975302,0.05054202,0.11022868,23,60,131,12,30,59,0.01066888,0.02582882,0.04939895,0.15824728,0.26563179,0.39555892
30063,0,USMontanaMissoula,Montana,Missoula,2021-01-05 16:57:57.648434,2020-05-27 00:00:00.000000,0.02055176,0.05304554,0.11306405,24,63,135,13,31,59,0.01091507,0.02648764,0.04946406,0.15991004,0.28143193,0.39661951
30063,0,USMontanaMissoula,Montana,Missoula,2021-01-05 16:57:57.648434,2020-05-28 00:00:00.000000,0.02142777,0.05542877,0.11611169,25,66,138,13,32,61,0.01119301,0.02719017,0.05149557,0.16518612,0.28567832,0.39933899
30063,0,USMontanaMissoula,Montana,Missoula,2021-01-05 16:57:57.648434,2020-05-29 00:00:00.000000,0.02247436,0.05671363,0.12168533,26,67,145,13,33,64,0.01148211,0.02831134,0.05374738,0.16845223,0.29414719,0.40106896
30063,0,USMontanaMissoula,Montana,Missoula,2021-01-05 16:57:57.648434,2020-05-30 00:00:00.000000,0.02400243,0.05916625,0.12913406,28,70,154,14,36,67,0.01177533,0.03014941,0.05611833,0.17413021,0.29906781,0.40142748
30063,0,USMontanaMissoula,Montana,Missoula,2021-01-05 16:57:57.648434,2020-05-31 00:00:00.000000,0.02551985,0.06123330,0.13687407,30,73,163,14,38,70,0.01239579,0.03231425,0.05858661,0.18760979,0.30753680,0.40151719
30063,0,USMontanaMissoula,Montana,Missoula,2021-01-05 16:57:57.648434,2020-06-01 00:00:00.000000,0.02736887,0.06448265,0.14325463,32,77,171,15,41,73,0.01321671,0.03454829,0.06113038,0.19203850,0.30858975,0.41358839
30063,0,USMontanaMissoula,Montana,Missoula,2021-01-05 16:57:57.648434,2020-06-02 00:00:00.000000,0.02919584,0.06918235,0.14991668,34,82,179,16,42,76,0.01413574,0.03588800,0.06356273,0.19596769,0.30996430,0.44110388
30063,0,USMontanaMissoula,Montana,Missoula,2021-01-05 16:57:57.648434,2020-06-03 00:00:00.000000,0.03100954,0.07362911,0.15690652,37,88,187,18,44,80,0.01509851,0.03699692,0.06722595,0.19394080,0.31595857,0.45162081
30063,0,USMontanaMissoula,Montana,Missoula,2021-01-05 16:57:57.648434,2020-06-04 00:00:00.000000,0.03184925,0.07819941,0.16442920,38,93,196,18,46,84,0.01556669,0.03888742,0.07063449,0.19483272,0.32081518,0.45669078
30063,0,USMontanaMissoula,Montana,Missoula,2021-01-05 16:57:57.648434,2020-06-05 00:00:00.000000,0.03395241,0.08233466,0.17173195,40,98,205,18,48,88,0.01585547,0.04067663,0.07399760,0.19779450,0.33301324,0.46394991
30063,0,USMontanaMissoula,Montana,Missoula,2021-01-05 16:57:57.648434,2020-06-06 00:00:00.000000,0.03625679,0.08766709,0.17990480,43,104,215,20,50,92,0.01688347,0.04217419,0.07762275,0.20209508,0.34590579,0.47927471
30063,0,USMontanaMissoula,Montana,Missoula,2021-01-05 16:57:57.648434,2020-06-07 00:00:00.000000,0.03799190,0.09409384,0.18523753,45,112,221,21,54,97,0.01799883,0.04534125,0.08164721,0.20673604,0.35815923,0.51825991
30063,0,USMontanaMissoula,Montana,Missoula,2021-01-05 16:57:57.648434,2020-06-08 00:00:00.000000,0.04043628,0.09989921,0.19638449,48,119,234,21,56,103,0.01810926,0.04713588,0.08619038,0.21353505,0.38111897,0.53977745
30063,0,USMontanaMissoula,Montana,Missoula,2021-01-05 16:57:57.648434,2020-06-09 00:00:00.000000,0.03984789,0.10517309,0.20835075,47,125,249,21,59,109,0.01808435,0.05003715,0.09122522,0.23213400,0.38788140,0.54948143
30063,0,USMontanaMissoula,Montana,Missoula,2021-01-05 16:57:57.648434,2020-06-10 00:00:00.000000,0.04737546,0.11123454,0.22349816,56,133,267,25,63,115,0.02102203,0.05321626,0.09668318,0.23253576,0.39666723,0.55320678
30063,0,USMontanaMissoula,Montana,Missoula,2021-01-05 16:57:57.648434,2020-06-11 00:00:00.000000,0.05057073,0.11581441,0.23911283,60,138,285,28,67,122,0.02394000,0.05606183,0.10243047,0.24207023,0.39927925,0.55426615
30063,0,USMontanaMissoula,Montana,Missoula,2021-01-05 16:57:57.648434,2020-06-12 00:00:00.000000,0.05401727,0.12349462,0.25524190,64,147,305,30,69,129,0.02578662,0.05821763,0.10833714,0.24222621,0.40323082,0.58633599
30063,0,USMontanaMissoula,Montana,Missoula,2021-01-05 16:57:57.648434,2020-06-13 00:00:00.000000,0.05777782,0.12999827,0.26979577,69,155,322,33,73,137,0.02783064,0.06180093,0.11512002,0.24613994,0.40606954,0.59506156
30063,0,USMontanaMissoula,Montana,Missoula,2021-01-05 16:57:57.648434,2020-06-14 00:00:00.000000,0.06206221,0.13838142,0.28268804,74,165,338,35,78,148,0.02967631,0.06598917,0.12390884,0.25438617,0.41347715,0.59373800
30063,0,USMontanaMissoula,Montana,Missoula,2021-01-05 16:57:57.648434,2020-06-15 00:00:00.000000,0.06826483,0.14598871,0.29635235,81,174,354,37,82,159,0.03174002,0.06860292,0.13297728,0.25418355,0.42220204,0.61012592
30063,0,USMontanaMissoula,Montana,Missoula,2021-01-05 16:57:57.648434,2020-06-16 00:00:00.000000,0.06929021,0.15370985,0.31051714,82,183,371,41,85,167,0.03474521,0.07182574,0.14041952,0.25441453,0.43432889,0.64635549
30063,0,USMontanaMissoula,Montana,Missoula,2021-01-05 16:57:57.648434,2020-06-17 00:00:00.000000,0.07095174,0.16171003,0.32520781,84,193,388,46,90,175,0.03849384,0.07541817,0.14709783,0.25458775,0.44143544,0.67978973
30063,0,USMontanaMissoula,Montana,Missoula,2021-01-05 16:57:57.648434,2020-06-18 00:00:00.000000,0.07624078,0.17286593,0.34041156,91,206,407,49,95,184,0.04164094,0.07999704,0.15414538,0.26733763,0.44534190,0.70995776
30063,0,USMontanaMissoula,Montana,Missoula,2021-01-05 16:57:57.648434,2020-06-19 00:00:00.000000,0.08509505,0.18439014,0.35608678,101,220,425,52,102,195,0.04381792,0.08553971,0.16354515,0.26529249,0.45553644,0.72715959
30063,0,USMontanaMissoula,Montana,Missoula,2021-01-05 16:57:57.648434,2020-06-20 00:00:00.000000,0.09229787,0.19657102,0.37216359,110,235,445,54,109,207,0.04590815,0.09116061,0.17335750,0.26819273,0.46459138,0.74066245
30063,0,USMontanaMissoula,Montana,Missoula,2021-01-05 16:57:57.648434,2020-06-21 00:00:00.000000,0.09691747,0.20883663,0.38852980,115,249,464,57,117,219,0.04810775,0.09783572,0.18367981,0.27337549,0.45937209,0.74490001
30063,0,USMontanaMissoula,Montana,Missoula,2021-01-05 16:57:57.648434,2020-06-22 00:00:00.000000,0.10308402,0.22144109,0.40445387,123,264,483,62,123,228,0.05188636,0.10347863,0.19082264,0.26436114,0.46290965,0.74589491
30063,0,USMontanaMissoula,Montana,Missoula,2021-01-05 16:57:57.648434,2020-06-23 00:00:00.000000,0.11187592,0.23198860,0.42094026,133,277,503,66,129,235,0.05552462,0.10844433,0.19718185,0.26767579,0.46367797,0.74139301
30063,0,USMontanaMissoula,Montana,Missoula,2021-01-05 16:57:57.648434,2020-06-24 00:00:00.000000,0.12490806,0.24738274,0.43808841,149,295,523,70,136,242,0.05858226,0.11450023,0.20302004,0.26857401,0.46185250,0.72998280
30063,0,USMontanaMissoula,Montana,Missoula,2021-01-05 16:57:57.648434,2020-06-25 00:00:00.000000,0.13919712,0.26270088,0.45653786,166,314,546,74,147,249,0.06194086,0.12357672,0.20851243,0.27436352,0.45036999,0.71233961
30063,0,USMontanaMissoula,Montana,Missoula,2021-01-05 16:57:57.648434,2020-06-26 00:00:00.000000,0.15128678,0.28124056,0.47767511,180,336,571,78,158,259,0.06556205,0.13254574,0.21669423,0.27339564,0.45381731,0.71142003
30063,0,USMontanaMissoula,Montana,Missoula,2021-01-05 16:57:57.648434,2020-06-27 00:00:00.000000,0.16505474,0.30181370,0.50203167,197,360,600,83,170,270,0.06947558,0.14222780,0.22630452,0.26607997,0.46052106,0.70273404
30063,0,USMontanaMissoula,Montana,Missoula,2021-01-05 16:57:57.648434,2020-06-28 00:00:00.000000,0.18304971,0.32146154,0.52725114,218,384,630,88,182,284,0.07376262,0.15268791,0.23764014,0.25927909,0.46123633,0.67315426
30063,0,USMontanaMissoula,Montana,Missoula,2021-01-05 16:57:57.648434,2020-06-29 00:00:00.000000,0.19762268,0.34077947,0.55167078,236,407,659,93,193,302,0.07845827,0.16159471,0.25281771,0.25919535,0.46160931,0.66528149
30063,0,USMontanaMissoula,Montana,Missoula,2021-01-05 16:57:57.648434,2020-06-30 00:00:00.000000,0.20867256,0.36457316,0.58077488,249,436,694,99,205,320,0.08340863,0.17147176,0.26768480,0.25901932,0.45854086,0.66547103
30063,0,USMontanaMissoula,Montana,Missoula,2021-01-05 16:57:57.648434,2020-07-01 00:00:00.000000,0.21184598,0.38535809,0.61110404,253,460,730,105,214,338,0.08861565,0.17957108,0.28319285,0.26456919,0.45218335,0.64730457
30063,0,USMontanaMissoula,Montana,Missoula,2021-01-05 16:57:57.648434,2020-07-02 00:00:00.000000,0.22410768,0.39998356,0.64289601,268,478,768,112,222,357,0.09437623,0.18631046,0.29913823,0.26323985,0.44222876,0.60052914
30063,0,USMontanaMissoula,Montana,Missoula,2021-01-05 16:57:57.648434,2020-07-03 00:00:00.000000,0.23754243,0.41802092,0.67548306,284,499,807,121,232,377,0.10139266,0.19472601,0.31558072,0.25631854,0.44166309,0.59708602
30063,0,USMontanaMissoula,Montana,Missoula,2021-01-05 16:57:57.648434,2020-07-04 00:00:00.000000,0.25177092,0.43962852,0.70422024,301,525,842,129,245,397,0.10855068,0.20502282,0.33235520,0.26452788,0.42841046,0.59985230
30063,0,USMontanaMissoula,Montana,Missoula,2021-01-05 16:57:57.648434,2020-07-05 00:00:00.000000,0.26685154,0.45837118,0.72768637,319,548,870,135,255,417,0.11356154,0.21381311,0.34884723,0.26625738,0.42642022,0.60104400
30063,0,USMontanaMissoula,Montana,Missoula,2021-01-05 16:57:57.648434,2020-07-06 00:00:00.000000,0.28257744,0.47910615,0.76800138,337,573,918,143,268,435,0.11999234,0.22452353,0.36421737,0.25136788,0.43244479,0.59711286
30063,0,USMontanaMissoula,Montana,Missoula,2021-01-05 16:57:57.648434,2020-07-07 00:00:00.000000,0.29927672,0.49206385,0.78981816,357,588,944,151,285,454,0.12632517,0.23879559,0.37987492,0.25683580,0.42097724,0.59788768
30063,0,USMontanaMissoula,Montana,Missoula,2021-01-05 16:57:57.648434,2020-07-08 00:00:00.000000,0.31697381,0.51582674,0.81783971,379,616,978,158,304,473,0.13275064,0.25438670,0.39556384,0.26349904,0.41717788,0.60850704
30063,0,USMontanaMissoula,Montana,Missoula,2021-01-05 16:57:57.648434,2020-07-09 00:00:00.000000,0.33570729,0.53926018,0.85749535,401,644,1025,166,317,491,0.13953715,0.26578280,0.41118544,0.26269116,0.41389567,0.61941085
30063,0,USMontanaMissoula,Montana,Missoula,2021-01-05 16:57:57.648434,2020-07-10 00:00:00.000000,0.35552753,0.56376027,0.90025883,425,674,1076,175,332,510,0.14688861,0.27791785,0.42684374,0.26212270,0.40977663,0.60695391
30063,0,USMontanaMissoula,Montana,Missoula,2021-01-05 16:57:57.648434,2020-07-11 00:00:00.000000,0.37650631,0.59043810,0.94978182,450,706,1135,185,342,529,0.15475553,0.28636161,0.44262835,0.26125265,0.40155210,0.57294923
30063,0,USMontanaMissoula,Montana,Missoula,2021-01-05 16:57:57.648434,2020-07-12 00:00:00.000000,0.39876312,0.61692913,1.00328007,476,737,1199,195,356,552,0.16309644,0.29787849,0.46221059,0.25866340,0.40016101,0.55539990
30063,0,USMontanaMissoula,Montana,Missoula,2021-01-05 16:57:57.648434,2020-07-13 00:00:00.000000,0.42464859,0.64464806,1.05910364,507,770,1266,205,372,581,0.17195413,0.31167208,0.48647039,0.25245495,0.39424265,0.54817731
30063,0,USMontanaMissoula,Montana,Missoula,2021-01-05 16:57:57.648434,2020-07-14 00:00:00.000000,0.44475651,0.67062320,1.10569521,531,802,1322,216,389,605,0.18129295,0.32608482,0.50591142,0.25232096,0.38315489,0.54735805
30063,0,USMontanaMissoula,Montana,Missoula,2021-01-05 16:57:57.648434,2020-07-15 00:00:00.000000,0.45816784,0.69356889,1.13254405,547,829,1354,228,407,637,0.19111434,0.34080918,0.53267778,0.25154818,0.37987484,0.54603477
30063,0,USMontanaMissoula,Montana,Missoula,2021-01-05 16:57:57.648434,2020-07-16 00:00:00.000000,0.46813720,0.71570211,1.14426689,559,855,1368,240,423,673,0.20105209,0.35424265,0.56341774,0.24160202,0.37686634,0.54395612
30063,0,USMontanaMissoula,Montana,Missoula,2021-01-05 16:57:57.648434,2020-07-17 00:00:00.000000,0.47841977,0.73878060,1.16933483,572,883,1398,251,443,708,0.21012291,0.37078780,0.59265599,0.23379325,0.37141546,0.54740504
30063,0,USMontanaMissoula,Montana,Missoula,2021-01-05 16:57:57.648434,2020-07-18 00:00:00.000000,0.48903727,0.75465736,1.18455498,584,902,1416,262,455,743,0.21945091,0.38071288,0.62156339,0.22931047,0.36058113,0.53612133
30063,0,USMontanaMissoula,Montana,Missoula,2021-01-05 16:57:57.648434,2020-07-19 00:00:00.000000,0.50083526,0.77710325,1.19907886,598,929,1434,275,464,774,0.23037974,0.38856691,0.64732054,0.22717573,0.34781758,0.52725765
30063,0,USMontanaMissoula,Montana,Missoula,2021-01-05 16:57:57.648434,2020-07-20 00:00:00.000000,0.51468040,0.80661812,1.21108113,615,964,1448,291,478,800,0.24353176,0.40047077,0.66961668,0.22627277,0.34418665,0.51525364
30063,0,USMontanaMissoula,Montana,Missoula,2021-01-05 16:57:57.648434,2020-07-21 00:00:00.000000,0.52287809,0.82902520,1.22160280,625,991,1461,301,493,824,0.25235169,0.41290722,0.68941263,0.22601822,0.33819899,0.51331077
30063,0,USMontanaMissoula,Montana,Missoula,2021-01-05 16:57:57.648434,2020-07-22 00:00:00.000000,0.53448157,0.84212312,1.22499203,639,1007,1465,312,505,846,0.26091016,0.42286249,0.70744468,0.22004019,0.32596798,0.47522837
30063,0,USMontanaMissoula,Montana,Missoula,2021-01-05 16:57:57.648434,2020-07-23 00:00:00.000000,0.54633643,0.85557252,1.21883293,653,1023,1457,322,515,866,0.26942778,0.43141824,0.72414107,0.21229590,0.32215353,0.44691782
30063,0,USMontanaMissoula,Montana,Missoula,2021-01-05 16:57:57.648434,2020-07-24 00:00:00.000000,0.55838577,0.86327312,1.24242871,667,1032,1485,331,523,884,0.27734162,0.43798619,0.73954860,0.20026541,0.31892168,0.42792204
30063,0,USMontanaMissoula,Montana,Missoula,2021-01-05 16:57:57.648434,2020-07-25 00:00:00.000000,0.57062458,0.86889638,1.27203759,682,1039,1521,340,527,884,0.28459062,0.44070890,0.73993259,0.19548098,0.30359084,0.41428244
30063,0,USMontanaMissoula,Montana,Missoula,2021-01-05 16:57:57.648434,2020-07-26 00:00:00.000000,0.58296337,0.87622036,1.30174187,697,1047,1556,346,531,879,0.28950675,0.44448628,0.73506332,0.19340914,0.30233341,0.40595349
30063,0,USMontanaMissoula,Montana,Missoula,2021-01-05 16:57:57.648434,2020-07-27 00:00:00.000000,0.59514106,0.88645590,1.32987309,711,1060,1590,353,546,869,0.29532556,0.45656946,0.72690882,0.19224491,0.29340898,0.39805177
30063,0,USMontanaMissoula,Montana,Missoula,2021-01-05 16:57:57.648434,2020-07-28 00:00:00.000000,0.59782656,0.89431772,1.35778959,715,1069,1623,360,555,866,0.30151188,0.46431292,0.72425528,0.19112324,0.28237716,0.38632931
30063,0,USMontanaMissoula,Montana,Missoula,2021-01-05 16:57:57.648434,2020-07-29 00:00:00.000000,0.60934196,0.89008951,1.38532120,728,1064,1656,367,561,883,0.30740161,0.46966856,0.73903611,0.18967591,0.27543129,0.38484129
30063,0,USMontanaMissoula,Montana,Missoula,2021-01-05 16:57:57.648434,2020-07-30 00:00:00.000000,0.62707522,0.88182399,1.41220371,749,1054,1688,371,559,896,0.31070706,0.46807495,0.74916831,0.18639082,0.26567415,0.38580349
30063,0,USMontanaMissoula,Montana,Missoula,2021-01-05 16:57:57.648434,2020-07-31 00:00:00.000000,0.64005591,0.87230113,1.43689307,765,1043,1718,375,559,904,0.31399773,0.46761268,0.75597131,0.17428053,0.25610178,0.38707844
30063,0,USMontanaMissoula,Montana,Missoula,2021-01-05 16:57:57.648434,2020-08-01 00:00:00.000000,0.63491547,0.86499874,1.45429968,759,1034,1739,371,564,909,0.31101537,0.47208225,0.76024165,0.16090136,0.24861298,0.38645924
30063,0,USMontanaMissoula,Montana,Missoula,2021-01-05 16:57:57.648434,2020-08-02 00:00:00.000000,0.61520536,0.85701106,1.46307694,735,1024,1749,367,576,911,0.30687214,0.48169137,0.76191704,0.15179286,0.24283069,0.38402051
30063,0,USMontanaMissoula,Montana,Missoula,2021-01-05 16:57:57.648434,2020-08-03 00:00:00.000000,0.59638028,0.85570263,1.46486628,713,1023,1751,361,573,909,0.30264007,0.47958676,0.76064869,0.14868222,0.23236040,0.37879842
30063,0,USMontanaMissoula,Montana,Missoula,2021-01-05 16:57:57.648434,2020-08-04 00:00:00.000000,0.59606771,0.85104987,1.47400993,712,1017,1762,357,571,929,0.29855318,0.47769199,0.77708891,0.14785061,0.22364613,0.37985044
30063,0,USMontanaMissoula,Montana,Missoula,2021-01-05 16:57:57.648434,2020-08-05 00:00:00.000000,0.60397572,0.83618151,1.47511918,722,1000,1764,352,562,953,0.29433921,0.47046769,0.79706352,0.14721163,0.21900193,0.37502241
30063,0,USMontanaMissoula,Montana,Missoula,2021-01-05 16:57:57.648434,2020-08-06 00:00:00.000000,0.61156273,0.83177185,1.46679176,731,994,1754,348,557,977,0.29140724,0.46573736,0.81713881,0.14668165,0.21547111,0.35966078
30063,0,USMontanaMissoula,Montana,Missoula,2021-01-05 16:57:57.648434,2020-08-07 00:00:00.000000,0.60469513,0.83030527,1.44855223,723,993,1732,347,548,1001,0.29075318,0.45864580,0.83716723,0.14616491,0.21726947,0.36736696
30063,0,USMontanaMissoula,Montana,Missoula,2021-01-05 16:57:57.648434,2020-08-08 00:00:00.000000,0.59726298,0.81364805,1.42393321,714,973,1703,346,543,984,0.29000446,0.45431939,0.82293361,0.14522769,0.21731719,0.35923948
30063,0,USMontanaMissoula,Montana,Missoula,2021-01-05 16:57:57.648434,2020-08-09 00:00:00.000000,0.58950322,0.80164547,1.39709659,705,958,1670,345,534,965,0.28919035,0.44686730,0.80701381,0.14401775,0.21571429,0.36983614
30063,0,USMontanaMissoula,Montana,Missoula,2021-01-05 16:57:57.648434,2020-08-10 00:00:00.000000,0.57016449,0.78424112,1.37363946,681,937,1642,344,524,946,0.28837073,0.43862381,0.79117627,0.14256047,0.21521258,0.37030271
30063,0,USMontanaMissoula,Montana,Missoula,2021-01-05 16:57:57.648434,2020-08-11 00:00:00.000000,0.54702379,0.77212096,1.35195170,654,923,1616,339,514,927,0.28421258,0.43011396,0.77558798,0.14100202,0.21447204,0.37241842
30063,0,USMontanaMissoula,Montana,Missoula,2021-01-05 16:57:57.648434,2020-08-12 00:00:00.000000,0.52417990,0.75761729,1.33271446,626,906,1593,332,509,909,0.27811393,0.42585050,0.76024572,0.13967818,0.21506828,0.37239045
30063,0,USMontanaMissoula,Montana,Missoula,2021-01-05 16:57:57.648434,2020-08-13 00:00:00.000000,0.50199214,0.74881333,1.31571661,600,895,1573,325,500,891,0.27216435,0.41870054,0.74514929,0.14049286,0.21701256,0.35796236
30063,0,USMontanaMissoula,Montana,Missoula,2021-01-05 16:57:57.648434,2020-08-14 00:00:00.000000,0.48062962,0.74790453,1.30031525,574,894,1555,318,491,873,0.26637091,0.41063378,0.73030276,0.14572139,0.21939950,0.32933732
30063,0,USMontanaMissoula,Montana,Missoula,2021-01-05 16:57:57.648434,2020-08-15 00:00:00.000000,0.46016845,0.74369074,1.29379381,550,889,1547,307,487,863,0.25681798,0.40788442,0.72221308,0.15613735,0.22503615,0.33031777
30063,0,USMontanaMissoula,Montana,Missoula,2021-01-05 16:57:57.648434,2020-08-16 00:00:00.000000,0.45166134,0.74322345,1.29565474,540,888,1549,294,479,867,0.24597723,0.40087281,0.72492569,0.16213739,0.23086655,0.33088362
30063,0,USMontanaMissoula,Montana,Missoula,2021-01-05 16:57:57.648434,2020-08-17 00:00:00.000000,0.44947723,0.74362118,1.30094054,537,889,1555,290,478,869,0.24271131,0.39998121,0.72730562,0.16256432,0.23854033,0.32861424
30063,0,USMontanaMissoula,Montana,Missoula,2021-01-05 16:57:57.648434,2020-08-18 00:00:00.000000,0.44216903,0.73834098,1.30626074,528,883,1562,286,474,873,0.23985353,0.39702893,0.73027489,0.16347897,0.24343653,0.32898181
30063,0,USMontanaMissoula,Montana,Missoula,2021-01-05 16:57:57.648434,2020-08-19 00:00:00.000000,0.43044399,0.72756932,1.31162544,514,870,1568,278,468,877,0.23267276,0.39203957,0.73408354,0.16508506,0.24617147,0.32957695
30063,0,USMontanaMissoula,Montana,Missoula,2021-01-05 16:57:57.648434,2020-08-20 00:00:00.000000,0.41930497,0.71926368,1.31711735,501,860,1575,271,462,882,0.22664132,0.38707603,0.73760579,0.16940430,0.24781999,0.34238054
30063,0,USMontanaMissoula,Montana,Missoula,2021-01-05 16:57:57.648434,2020-08-21 00:00:00.000000,0.41380754,0.71191997,1.32295187,494,851,1582,265,453,868,0.22169977,0.37948512,0.72655955,0.17012115,0.25299415,0.35399155
30063,0,USMontanaMissoula,Montana,Missoula,2021-01-05 16:57:57.648434,2020-08-22 00:00:00.000000,0.41632552,0.71699549,1.32954822,497,857,1590,260,452,871,0.21784534,0.37839968,0.72848351,0.17288810,0.26260542,0.35926589
30063,0,USMontanaMissoula,Montana,Missoula,2021-01-05 16:57:57.648434,2020-08-23 00:00:00.000000,0.41540383,0.71609634,1.33753044,496,856,1599,257,448,880,0.21499255,0.37483249,0.73602536,0.18802522,0.27409578,0.36116600
30063,0,USMontanaMissoula,Montana,Missoula,2021-01-05 16:57:57.648434,2020-08-24 00:00:00.000000,0.41716916,0.72350098,1.34685451,498,865,1610,254,447,889,0.21296157,0.37451603,0.74338373,0.20078775,0.28411018,0.37997341
30063,0,USMontanaMissoula,Montana,Missoula,2021-01-05 16:57:57.648434,2020-08-25 00:00:00.000000,0.42032793,0.72466917,1.35888673,502,866,1625,253,447,898,0.21229221,0.37424459,0.75145679,0.20134371,0.29085175,0.39821322
30063,0,USMontanaMissoula,Montana,Missoula,2021-01-05 16:57:57.648434,2020-08-26 00:00:00.000000,0.42487647,0.73504355,1.37946982,508,879,1649,254,447,909,0.21272570,0.37439138,0.76028256,0.20930561,0.30232439,0.40914790
30063,0,USMontanaMissoula,Montana,Missoula,2021-01-05 16:57:57.648434,2020-08-27 00:00:00.000000,0.43051319,0.75370415,1.42370542,514,901,1702,256,449,920,0.21408523,0.37624245,0.76995652,0.21569838,0.31467067,0.44798074
30063,0,USMontanaMissoula,Montana,Missoula,2021-01-05 16:57:57.648434,2020-08-28 00:00:00.000000,0.43690998,0.75106832,1.46940791,522,898,1757,258,452,933,0.21620353,0.37860183,0.78072753,0.21609743,0.32910471,0.49047591
30063,0,USMontanaMissoula,Montana,Missoula,2021-01-05 16:57:57.648434,2020-08-29 00:00:00.000000,0.44379862,0.75256550,1.51654649,530,900,1813,263,456,948,0.22038681,0.38137575,0.79308172,0.21683293,0.34281334,0.50388452
30063,0,USMontanaMissoula,Montana,Missoula,2021-01-05 16:57:57.648434,2020-08-30 00:00:00.000000,0.45111625,0.76849318,1.56481798,539,919,1871,265,460,966,0.22180850,0.38473566,0.80777341,0.22834075,0.35805127,0.51152637
30063,0,USMontanaMissoula,Montana,Missoula,2021-01-05 16:57:57.648434,2020-08-31 00:00:00.000000,0.45472026,0.80095649,1.61271954,543,957,1928,269,465,987,0.22501824,0.38921164,0.82571875,0.24659294,0.37115182,0.51618013
30063,0,USMontanaMissoula,Montana,Missoula,2021-01-05 16:57:57.648434,2020-09-01 00:00:00.000000,0.45871310,0.85070562,1.65862588,548,1017,1983,272,474,1013,0.22755120,0.39714642,0.84723316,0.27541442,0.38140204,0.53456355
30063,0,USMontanaMissoula,Montana,Missoula,2021-01-05 16:57:57.648434,2020-09-02 00:00:00.000000,0.46343935,0.90703051,1.70386462,554,1084,2037,274,491,1043,0.22976948,0.41111848,0.87289508,0.27571508,0.40459054,0.55204950
30063,0,USMontanaMissoula,Montana,Missoula,2021-01-05 16:57:57.648434,2020-09-03 00:00:00.000000,0.47051598,0.93912884,1.74976610,562,1123,2092,277,518,1079,0.23200635,0.43315000,0.90284784,0.28643128,0.42314501,0.57627155
30063,0,USMontanaMissoula,Montana,Missoula,2021-01-05 16:57:57.648434,2020-09-04 00:00:00.000000,0.48974143,0.96843964,1.84330909,585,1158,2204,280,541,1120,0.23486334,0.45263157,0.93692805,0.30000792,0.44049805,0.63136114
30063,0,USMontanaMissoula,Montana,Missoula,2021-01-05 16:57:57.648434,2020-09-05 00:00:00.000000,0.52625250,0.99800370,1.95217302,629,1193,2334,289,562,1165,0.24226822,0.47040026,0.97482816,0.31679063,0.46027952,0.65543351
30063,0,USMontanaMissoula,Montana,Missoula,2021-01-05 16:57:57.648434,2020-09-06 00:00:00.000000,0.56582900,1.04584845,2.06707208,676,1250,2472,305,586,1215,0.25523312,0.49057165,1.01619532,0.32442905,0.48458474,0.70274781
30063,0,USMontanaMissoula,Montana,Missoula,2021-01-05 16:57:57.648434,2020-09-07 00:00:00.000000,0.62238427,1.09802048,2.18757696,744,1313,2616,327,612,1267,0.27351488,0.51212609,1.06019440,0.32887814,0.50366377,0.77326250
30063,0,USMontanaMissoula,Montana,Missoula,2021-01-05 16:57:57.648434,2020-09-08 00:00:00.000000,0.68874839,1.17071944,2.31394193,823,1400,2767,356,648,1323,0.29791773,0.54238399,1.10652149,0.33242217,0.52532745,0.78482840
30063,0,USMontanaMissoula,Montana,Missoula,2021-01-05 16:57:57.648434,2020-09-09 00:00:00.000000,0.76391594,1.24795361,2.44664105,913,1492,2926,391,687,1381,0.32760010,0.57451460,1.15517544,0.33550013,0.54989444,0.78756836
30063,0,USMontanaMissoula,Montana,Missoula,2021-01-05 16:57:57.648434,2020-09-10 00:00:00.000000,0.82385685,1.32598885,2.58624567,985,1585,3093,433,722,1442,0.36222649,0.60383372,1.20626066,0.33917783,0.57169147,0.82758031
30063,0,USMontanaMissoula,Montana,Missoula,2021-01-05 16:57:57.648434,2020-09-11 00:00:00.000000,0.88687875,1.42318698,2.71935092,1060,1702,3252,470,769,1507,0.39315277,0.64344137,1.26015682,0.34559588,0.59636627,0.86473232
30063,0,USMontanaMissoula,Montana,Missoula,2021-01-05 16:57:57.648434,2020-09-12 00:00:00.000000,0.99057646,1.54336802,2.85580265,1184,1845,3415,498,817,1575,0.41693053,0.68360083,1.31764515,0.35835153,0.62019678,0.89255508
30063,0,USMontanaMissoula,Montana,Missoula,2021-01-05 16:57:57.648434,2020-09-13 00:00:00.000000,1.09981577,1.67981950,3.00104322,1315,2009,3589,533,886,1649,0.44568498,0.74114126,1.37936799,0.37997383,0.64717471,0.91663638
30063,0,USMontanaMissoula,Montana,Missoula,2021-01-05 16:57:57.648434,2020-09-14 00:00:00.000000,1.20896302,1.82424764,3.15436132,1445,2181,3772,573,961,1728,0.47961589,0.80374980,1.44549191,0.40528441,0.66420091,0.94193719
30063,0,USMontanaMissoula,Montana,Missoula,2021-01-05 16:57:57.648434,2020-09-15 00:00:00.000000,1.33200992,2.00663490,3.38123510,1593,2399,4043,620,1038,1813,0.51920446,0.86857058,1.51601593,0.42484767,0.67018871,0.95837164
30063,0,USMontanaMissoula,Montana,Missoula,2021-01-05 16:57:57.648434,2020-09-16 00:00:00.000000,1.47514165,2.18506510,3.66591017,1764,2613,4384,683,1131,1895,0.57122076,0.94607182,1.58513865,0.43660142,0.67468462,0.96940887
30063,0,USMontanaMissoula,Montana,Missoula,2021-01-05 16:57:57.648434,2020-09-17 00:00:00.000000,1.63799292,2.40039668,3.97112525,1959,2870,4749,764,1235,2013,0.63919553,1.03263009,1.68326668,0.44343768,0.67477527,0.97647432
30063,0,USMontanaMissoula,Montana,Missoula,2021-01-05 16:57:57.648434,2020-09-18 00:00:00.000000,1.83010603,2.59936984,4.29679169,2188,3108,5138,855,1351,2150,0.71570934,1.13020392,1.79826985,0.44759835,0.67381576,0.98081686
30063,0,USMontanaMissoula,Montana,Missoula,2021-01-05 16:57:57.648434,2020-09-19 00:00:00.000000,2.01801776,2.84446895,4.61907361,2413,3401,5524,958,1471,2303,0.80142022,1.23046954,1.92561466,0.44998448,0.66341509,0.98339546
30063,0,USMontanaMissoula,Montana,Missoula,2021-01-05 16:57:57.648434,2020-09-20 00:00:00.000000,2.23221142,3.08312992,4.99174860,2669,3687,5970,1072,1603,2493,0.89681712,1.34095527,2.08519110,0.45082967,0.65774763,0.97973902
30063,0,USMontanaMissoula,Montana,Missoula,2021-01-05 16:57:57.648434,2020-09-21 00:00:00.000000,2.46522059,3.34115510,5.38155812,2948,3996,6436,1196,1750,2699,1.00002731,1.46344759,2.25746275,0.44420207,0.65625200,0.96924982
30063,0,USMontanaMissoula,Montana,Missoula,2021-01-05 16:57:57.648434,2020-09-22 00:00:00.000000,2.69698513,3.62677138,5.76269570,3225,4337,6892,1327,1915,2924,1.10987811,1.60176399,2.44527289,0.44266615,0.65044875,0.94542697
30063,0,USMontanaMissoula,Montana,Missoula,2021-01-05 16:57:57.648434,2020-09-23 00:00:00.000000,2.90654420,3.94549423,6.21299306,3476,4718,7430,1465,2103,3165,1.22572356,1.75851264,2.64640631,0.43955033,0.63652186,0.90184326
30063,0,USMontanaMissoula,Montana,Missoula,2021-01-05 16:57:57.648434,2020-09-24 00:00:00.000000,3.15189133,4.26004815,6.69173780,3769,5095,8003,1612,2275,3419,1.34794729,1.90279611,2.85929499,0.43094980,0.61831665,0.86737734
30063,0,USMontanaMissoula,Montana,Missoula,2021-01-05 16:57:57.648434,2020-09-25 00:00:00.000000,3.40395452,4.57818470,7.19676072,4071,5475,8607,1759,2466,3686,1.47125447,2.06253973,3.08221084,0.42644142,0.61258105,0.86535102
30063,0,USMontanaMissoula,Montana,Missoula,2021-01-05 16:57:57.648434,2020-09-26 00:00:00.000000,3.65998594,4.90411168,7.71987120,4377,5865,9232,1887,2669,3962,1.57847902,2.23184392,3.31298611,0.41868321,0.60767184,0.85502369
30063,0,USMontanaMissoula,Montana,Missoula,2021-01-05 16:57:57.648434,2020-09-27 00:00:00.000000,3.92331655,5.24120803,8.20645517,4692,6268,9814,2027,2830,4245,1.69495224,2.36676698,3.54940807,0.41177215,0.59416030,0.81541890
30063,0,USMontanaMissoula,Montana,Missoula,2021-01-05 16:57:57.648434,2020-09-28 00:00:00.000000,4.19559457,5.56654476,8.65021660,5017,6657,10345,2179,3034,4457,1.82247293,2.53736296,3.72705755,0.40356940,0.58143106,0.79495460
30063,0,USMontanaMissoula,Montana,Missoula,2021-01-05 16:57:57.648434,2020-09-29 00:00:00.000000,4.47018364,5.89479129,9.08480670,5346,7050,10865,2346,3198,4706,1.96156678,2.67404047,3.93549263,0.39098622,0.55993689,0.77171322
30063,0,USMontanaMissoula,Montana,Missoula,2021-01-05 16:57:57.648434,2020-09-30 00:00:00.000000,4.74411193,6.24282080,9.50564477,5673,7466,11368,2526,3397,4984,2.11219628,2.84042478,4.16782995,0.37237619,0.55335114,0.74588040
30063,0,USMontanaMissoula,Montana,Missoula,2021-01-05 16:57:57.648434,2020-10-01 00:00:00.000000,5.01040674,6.57325449,9.87890519,5992,7861,11815,2720,3590,5290,2.27426444,3.00192095,4.42360038,0.36727829,0.53197571,0.69723515
30063,0,USMontanaMissoula,Montana,Missoula,2021-01-05 16:57:57.648434,2020-10-02 00:00:00.000000,5.25667653,6.85017131,10.23374232,6286,8192,12239,2875,3815,5616,2.40410637,3.19035016,4.69589161,0.36419285,0.51206284,0.68007938
30063,0,USMontanaMissoula,Montana,Missoula,2021-01-05 16:57:57.648434,2020-10-03 00:00:00.000000,5.40551594,7.08248880,10.59337376,6464,8470,12669,2968,4026,5948,2.48208521,3.36675546,4.97333967,0.35346232,0.49017458,0.66534164
30063,0,USMontanaMissoula,Montana,Missoula,2021-01-05 16:57:57.648434,2020-10-04 00:00:00.000000,5.52698755,7.39065803,10.95851798,6610,8839,13106,3056,4212,6283,2.55564910,3.52178815,5.25390457,0.33342870,0.47126528,0.63040740
30063,0,USMontanaMissoula,Montana,Missoula,2021-01-05 16:57:57.648434,2020-10-05 00:00:00.000000,5.71777377,7.60804845,11.32804235,6838,9099,13548,3140,4412,6617,2.62556438,3.68978359,5.53284434,0.32429101,0.44643325,0.58116091
30063,0,USMontanaMissoula,Montana,Missoula,2021-01-05 16:57:57.648434,2020-10-06 00:00:00.000000,5.84117784,7.86171047,11.69754466,6986,9402,13990,3223,4564,6932,2.69485217,3.81605777,5.79604233,0.32302559,0.43168604,0.57502896
30063,0,USMontanaMissoula,Montana,Missoula,2021-01-05 16:57:57.648434,2020-10-07 00:00:00.000000,5.90961071,8.05206209,12.06014112,7067,9630,14423,3305,4694,7202,2.76375079,3.92493417,6.02219481,0.32209499,0.40311461,0.56081587
30063,0,USMontanaMissoula,Montana,Missoula,2021-01-05 16:57:57.648434,2020-10-08 00:00:00.000000,5.97575327,8.21693742,12.36737433,7147,9827,14791,3386,4829,7438,2.83182908,4.03793676,6.21959725,0.30834213,0.38888175,0.53403248
30063,0,USMontanaMissoula,Montana,Missoula,2021-01-05 16:57:57.648434,2020-10-09 00:00:00.000000,6.03995119,8.36523691,12.44711637,7223,10004,14886,3467,4942,7638,2.89931937,4.13238876,6.38678917,0.29372898,0.37577951,0.50589857
30063,0,USMontanaMissoula,Montana,Missoula,2021-01-05 16:57:57.648434,2020-10-10 00:00:00.000000,6.10171030,8.38666323,12.51010694,7297,10030,14962,3552,5027,7807,2.96993034,4.20358704,6.52800861,0.29039765,0.36804001,0.50982352
30063,0,USMontanaMissoula,Montana,Missoula,2021-01-05 16:57:57.648434,2020-10-11 00:00:00.000000,6.14197350,8.48556802,12.56104586,7345,10148,15023,3642,5108,7952,3.04527196,4.27173564,6.64939993,0.28492805,0.36232008,0.50789523
30063,0,USMontanaMissoula,Montana,Missoula,2021-01-05 16:57:57.648434,2020-10-12 00:00:00.000000,6.18397250,8.65702614,12.60350439,7396,10353,15073,3721,5178,8080,3.11129709,4.32979591,6.75627120,0.27954858,0.36140946,0.50734296
30063,0,USMontanaMissoula,Montana,Missoula,2021-01-05 16:57:57.648434,2020-10-13 00:00:00.000000,6.21894376,8.76697925,12.63430720,7437,10485,15110,3790,5220,8196,3.16935953,4.36532437,6.85314607,0.28135626,0.36142348,0.50702685
30063,0,USMontanaMissoula,Montana,Missoula,2021-01-05 16:57:57.648434,2020-10-14 00:00:00.000000,6.18450133,8.82915732,12.76635161,7396,10559,15268,3854,5257,8302,3.22282775,4.39562010,6.94166707,0.28244067,0.36474811,0.50671122
30063,0,USMontanaMissoula,Montana,Missoula,2021-01-05 16:57:57.648434,2020-10-15 00:00:00.000000,6.13905440,8.82883860,12.90079506,7342,10559,15429,3900,5334,8399,3.26089796,4.46029074,7.02275699,0.28430203,0.36824003,0.50528239
30063,0,USMontanaMissoula,Montana,Missoula,2021-01-05 16:57:57.648434,2020-10-16 00:00:00.000000,6.13228684,8.87399434,13.04599359,7334,10613,15603,3890,5380,8463,3.25258590,4.49840951,7.07648484,0.28896870,0.37231041,0.50717028
30063,0,USMontanaMissoula,Montana,Missoula,2021-01-05 16:57:57.648434,2020-10-17 00:00:00.000000,6.19558398,8.83735699,13.19923468,7409,10569,15786,3882,5417,8559,3.24605394,4.52937813,7.15673876,0.28889372,0.38265503,0.52161300
30063,0,USMontanaMissoula,Montana,Missoula,2021-01-05 16:57:57.648434,2020-10-18 00:00:00.000000,6.24529220,8.88908854,13.35102643,7469,10631,15967,3941,5446,8644,3.29566505,4.55384074,7.22762800,0.29129148,0.38811792,0.53246991
30063,0,USMontanaMissoula,Montana,Missoula,2021-01-05 16:57:57.648434,2020-10-19 00:00:00.000000,6.25055543,9.05210812,13.49643535,7475,10826,16141,3924,5467,8710,3.28161765,4.57135308,7.28329822,0.29533222,0.39356898,0.54027499
30063,0,USMontanaMissoula,Montana,Missoula,2021-01-05 16:57:57.648434,2020-10-20 00:00:00.000000,6.26148902,9.22048695,13.63934403,7488,11027,16312,3900,5482,8769,3.26151734,4.58415475,7.33218209,0.29614572,0.39858259,0.54359973
30063,0,USMontanaMissoula,Montana,Missoula,2021-01-05 16:57:57.648434,2020-10-21 00:00:00.000000,6.28214318,9.32035870,13.86152393,7513,11147,16578,3925,5492,8819,3.28238770,4.59240060,7.37398971,0.29649807,0.40242541,0.54427582
30063,0,USMontanaMissoula,Montana,Missoula,2021-01-05 16:57:57.648434,2020-10-22 00:00:00.000000,6.33969028,9.35882952,14.07471510,7582,11193,16833,3958,5521,8861,3.30986885,4.61659674,7.40902067,0.29767488,0.40995571,0.54942831
30063,0,USMontanaMissoula,Montana,Missoula,2021-01-05 16:57:57.648434,2020-10-23 00:00:00.000000,6.42110047,9.35539952,14.27842854,7679,11189,17077,3997,5582,9019,3.34278045,4.66760179,7.54166829,0.30146038,0.42957035,0.56284302
30063,0,USMontanaMissoula,Montana,Missoula,2021-01-05 16:57:57.648434,2020-10-24 00:00:00.000000,6.48640753,9.35963874,14.47231907,7757,11194,17308,4042,5613,9172,3.38014056,4.69396498,7.66940005,0.30996264,0.44838709,0.57244075
30063,0,USMontanaMissoula,Montana,Missoula,2021-01-05 16:57:57.648434,2020-10-25 00:00:00.000000,6.53800763,9.50453746,14.65649865,7819,11367,17529,4092,5675,9319,3.42141639,4.74500221,7.79206115,0.31611218,0.45666246,0.60045076
30063,0,USMontanaMissoula,Montana,Missoula,2021-01-05 16:57:57.648434,2020-10-26 00:00:00.000000,6.64172832,9.62462025,14.83244159,7943,11511,17739,4144,5728,9459,3.46544644,4.78974393,7.90955465,0.31756420,0.46846765,0.61592491
30063,0,USMontanaMissoula,Montana,Missoula,2021-01-05 16:57:57.648434,2020-10-27 00:00:00.000000,6.76560623,9.77180005,15.00124610,8091,11687,17941,4199,5786,9594,3.51103741,4.83862102,8.02203012,0.34139298,0.47125801,0.62348533
30063,0,USMontanaMissoula,Montana,Missoula,2021-01-05 16:57:57.648434,2020-10-28 00:00:00.000000,6.84796020,9.89469021,15.17073662,8190,11834,18144,4254,5846,9723,3.55688746,4.88798313,8.12976064,0.34163881,0.48004538,0.62401084
30063,0,USMontanaMissoula,Montana,Missoula,2021-01-05 16:57:57.648434,2020-10-29 00:00:00.000000,6.92765231,10.11800770,15.54219348,8285,12101,18588,4308,5931,9847,3.60207219,4.95938122,8.23339063,0.34266740,0.49666408,0.64134366
30063,0,USMontanaMissoula,Montana,Missoula,2021-01-05 16:57:57.648434,2020-10-30 00:00:00.000000,7.03208072,10.33871631,15.91718365,8410,12365,19036,4360,6037,9963,3.64607844,5.04846448,8.33083397,0.34489475,0.52891176,0.65413587
30063,0,USMontanaMissoula,Montana,Missoula,2021-01-05 16:57:57.648434,2020-10-31 00:00:00.000000,7.19145685,10.56833072,16.12694227,8600,12639,19287,4412,6161,10090,3.68907938,5.15171461,8.43702873,0.36818861,0.53365400,0.69437167
30063,0,USMontanaMissoula,Montana,Missoula,2021-01-05 16:57:57.648434,2020-11-01 00:00:00.000000,7.38396995,10.78302709,16.27255952,8831,12896,19461,4464,6295,10215,3.73274497,5.26414855,8.54145599,0.38452338,0.55621856,0.70402532
30063,0,USMontanaMissoula,Montana,Missoula,2021-01-05 16:57:57.648434,2020-11-02 00:00:00.000000,7.58383291,11.01715191,16.46385614,9070,13176,19690,4521,6436,10346,3.78089352,5.38167440,8.65108308,0.39210304,0.56660965,0.70953841
30063,0,USMontanaMissoula,Montana,Missoula,2021-01-05 16:57:57.648434,2020-11-03 00:00:00.000000,7.73043931,11.30195511,16.69785752,9245,13517,19970,4588,6579,10489,3.83685975,5.50092429,8.77040210,0.39311498,0.57462225,0.71455117
30063,0,USMontanaMissoula,Montana,Missoula,2021-01-05 16:57:57.648434,2020-11-04 00:00:00.000000,7.90335959,11.58585564,16.98774661,9452,13856,20317,4666,6722,10649,3.90156007,5.62069378,8.90392367,0.40050551,0.58773370,0.73235838
30063,0,USMontanaMissoula,Montana,Missoula,2021-01-05 16:57:57.648434,2020-11-05 00:00:00.000000,8.09891258,11.76932813,17.39256482,9686,14076,20801,4752,6895,10956,3.97396098,5.76538847,9.16134703,0.41040230,0.59442604,0.76636391
30063,0,USMontanaMissoula,Montana,Missoula,2021-01-05 16:57:57.648434,2020-11-06 00:00:00.000000,8.21981596,11.99294512,17.91889790,9830,14343,21431,4825,7065,11313,4.03457375,5.90723760,9.45913841,0.41923699,0.59667277,0.79790153
30063,0,USMontanaMissoula,Montana,Missoula,2021-01-05 16:57:57.648434,2020-11-07 00:00:00.000000,8.33936950,12.15300111,18.40719866,9973,14534,22015,4928,7235,11629,4.12061085,6.04981945,9.72371953,0.43536858,0.59255750,0.81510991
30063,0,USMontanaMissoula,Montana,Missoula,2021-01-05 16:57:57.648434,2020-11-08 00:00:00.000000,8.47327037,12.39470840,18.64247488,10134,14824,22296,5058,7388,11922,4.22939395,6.17773685,9.96881538,0.42538786,0.59247310,0.83235064
30063,0,USMontanaMissoula,Montana,Missoula,2021-01-05 16:57:57.648434,2020-11-09 00:00:00.000000,8.61519241,12.62894538,18.85309073,10303,15104,22548,5184,7508,12163,4.33453674,6.27814477,10.17055959,0.41243723,0.59640067,0.83616958
30063,0,USMontanaMissoula,Montana,Missoula,2021-01-05 16:57:57.648434,2020-11-10 00:00:00.000000,8.76033545,12.70412476,19.14101444,10477,15194,22892,5300,7631,12342,4.43157347,6.38047655,10.31989908,0.41316774,0.59444131,0.83659095
30063,0,USMontanaMissoula,Montana,Missoula,2021-01-05 16:57:57.648434,2020-11-11 00:00:00.000000,8.95131216,12.79668706,19.45414304,10705,15304,23267,5408,7759,12472,4.52251975,6.48798280,10.42843568,0.41420884,0.59513770,0.83592695
30063,0,USMontanaMissoula,Montana,Missoula,2021-01-05 16:57:57.648434,2020-11-12 00:00:00.000000,9.14997991,12.90330989,19.73613198,10943,15432,23604,5502,7918,12565,4.60081798,6.62106378,10.50658468,0.41560252,0.60024842,0.82758912
30063,0,USMontanaMissoula,Montana,Missoula,2021-01-05 16:57:57.648434,2020-11-13 00:00:00.000000,9.25309063,12.99551893,19.98367398,11066,15542,23900,5588,8076,12682,4.67230042,6.75267184,10.60411575,0.41795257,0.59563129,0.79858604
30063,0,USMontanaMissoula,Montana,Missoula,2021-01-05 16:57:57.648434,2020-11-14 00:00:00.000000,9.28140534,13.09579984,20.19413678,11100,15662,24152,5664,8213,12885,4.73628234,6.86714951,10.77421677,0.41955970,0.59204054,0.78911342
30063,0,USMontanaMissoula,Montana,Missoula,2021-01-05 16:57:57.648434,2020-11-15 00:00:00.000000,9.38294753,13.21407855,20.36487230,11222,15804,24356,5732,8266,13071,4.79298245,6.91178038,10.92972921,0.40691996,0.58412846,0.77320063
30063,0,USMontanaMissoula,Montana,Missoula,2021-01-05 16:57:57.648434,2020-11-16 00:00:00.000000,9.46829772,13.30614215,20.49152123,11324,15914,24507,5792,8309,13238,4.84339907,6.94790527,11.06860613,0.40812842,0.57537291,0.77485612
30063,0,USMontanaMissoula,Montana,Missoula,2021-01-05 16:57:57.648434,2020-11-17 00:00:00.000000,9.53808879,13.32300867,20.57850637,11407,15934,24611,5846,8382,13381,4.88806981,7.00854529,11.18871839,0.40561949,0.56808303,0.77075963
30063,0,USMontanaMissoula,Montana,Missoula,2021-01-05 16:57:57.648434,2020-11-18 00:00:00.000000,9.59331236,13.25709514,20.64104172,11473,15855,24686,5892,8361,13501,4.92706414,6.99094819,11.28916992,0.40199986,0.56740977,0.76649392
30063,0,USMontanaMissoula,Montana,Missoula,2021-01-05 16:57:57.648434,2020-11-19 00:00:00.000000,9.60013730,13.20519873,20.58912696,11481,15793,24624,5931,8372,13581,4.95958046,7.00071537,11.35589744,0.39682140,0.56038353,0.76282501
30063,0,USMontanaMissoula,Montana,Missoula,2021-01-05 16:57:57.648434,2020-11-20 00:00:00.000000,9.54728041,13.14495503,20.36408453,11418,15721,24355,5943,8410,13502,4.96912514,7.03185555,11.28986230,0.39317747,0.55459083,0.76076999
30063,0,USMontanaMissoula,Montana,Missoula,2021-01-05 16:57:57.648434,2020-11-21 00:00:00.000000,9.47569053,13.06262442,20.09449382,11332,15622,24033,5889,8417,13397,4.92398455,7.03843844,11.20192970,0.39333045,0.54797726,0.77933252
30063,0,USMontanaMissoula,Montana,Missoula,2021-01-05 16:57:57.648434,2020-11-22 00:00:00.000000,9.38473503,12.95563846,19.78857880,11224,15494,23667,5814,8392,13268,4.86134372,7.01740982,11.09398585,0.38653569,0.54307081,0.77838912
30063,0,USMontanaMissoula,Montana,Missoula,2021-01-05 16:57:57.648434,2020-11-23 00:00:00.000000,9.25571978,12.75081708,19.45156153,11069,15249,23264,5722,8341,13117,4.78484664,6.97471903,10.96742871,0.37732612,0.54479255,0.77363760
30063,0,USMontanaMissoula,Montana,Missoula,2021-01-05 16:57:57.648434,2020-11-24 00:00:00.000000,9.04268723,12.53908546,19.08832287,10815,14996,22829,5619,8282,12944,4.69835554,6.92513378,10.82313553,0.37460226,0.55483250,0.77491792
30063,0,USMontanaMissoula,Montana,Missoula,2021-01-05 16:57:57.648434,2020-11-25 00:00:00.000000,8.81313731,12.35828599,18.70208313,10540,14780,22367,5507,8205,12751,4.60456736,6.86102450,10.66197402,0.37200203,0.56027811,0.78014513
30063,0,USMontanaMissoula,Montana,Missoula,2021-01-05 16:57:57.648434,2020-11-26 00:00:00.000000,8.62735764,12.16050493,18.29718843,10318,14543,21883,5310,8081,12539,4.43995784,6.75703742,10.48465428,0.37323667,0.56220842,0.79123199
30063,0,USMontanaMissoula,Montana,Missoula,2021-01-05 16:57:57.648434,2020-11-27 00:00:00.000000,8.32235985,11.87680065,17.88175785,9953,14204,21386,5098,7940,12325,4.26321443,6.63947503,10.30548052,0.37126983,0.57074909,0.81187540
30063,0,USMontanaMissoula,Montana,Missoula,2021-01-05 16:57:57.648434,2020-11-28 00:00:00.000000,8.07363512,11.68250592,17.47460954,9656,13972,20899,5010,7820,12223,4.18919338,6.53859398,10.22011296,0.36596782,0.57931674,0.83853068
30063,0,USMontanaMissoula,Montana,Missoula,2021-01-05 16:57:57.648434,2020-11-29 00:00:00.000000,7.83096578,11.41361322,17.09843183,9365,13650,20449,4919,7632,12089,4.11294119,6.38195405,10.10868596,0.35802382,0.59248405,0.86538375
30063,0,USMontanaMissoula,Montana,Missoula,2021-01-05 16:57:57.648434,2020-11-30 00:00:00.000000,7.59705614,11.11784923,16.74801297,9086,13296,20030,4824,7407,11928,4.03408934,6.19394589,9.97405640,0.36212240,0.61179863,0.87560576
30063,0,USMontanaMissoula,Montana,Missoula,2021-01-05 16:57:57.648434,2020-12-01 00:00:00.000000,7.40437870,10.80475732,16.41000177,8855,12922,19626,4726,7208,11742,3.95233522,6.02705634,9.81786148,0.38334589,0.62133850,0.84348934
30063,0,USMontanaMissoula,Montana,Missoula,2021-01-05 16:57:57.648434,2020-12-02 00:00:00.000000,7.22825498,10.51212310,16.08735246,8644,12572,19240,4625,7078,11532,3.86759813,5.91849888,9.64227095,0.38335693,0.62093766,0.90089721
30063,0,USMontanaMissoula,Montana,Missoula,2021-01-05 16:57:57.648434,2020-12-03 00:00:00.000000,7.11604143,10.37012020,15.77908134,8510,12402,18871,4506,6908,11301,3.76838083,5.77667835,9.44925759,0.38462118,0.64628325,0.90582391
30063,0,USMontanaMissoula,Montana,Missoula,2021-01-05 16:57:57.648434,2020-12-04 00:00:00.000000,7.02559986,10.12875197,15.47482361,8402,12113,18507,4369,6774,11051,3.65367571,5.66426470,9.24073992,0.38875158,0.65660674,0.91684429
30063,0,USMontanaMissoula,Montana,Missoula,2021-01-05 16:57:57.648434,2020-12-05 00:00:00.000000,6.86345949,9.88577906,15.16443861,8208,11823,18136,4243,6632,10786,3.54827158,5.54596556,9.01862172,0.39975977,0.66226588,0.97665352
30063,0,USMontanaMissoula,Montana,Missoula,2021-01-05 16:57:57.648434,2020-12-06 00:00:00.000000,6.71372517,9.62536118,14.84306145,8029,11511,17752,4131,6491,10506,3.45438098,5.42728126,8.78478782,0.42468676,0.65432572,0.95025944
30063,0,USMontanaMissoula,Montana,Missoula,2021-01-05 16:57:57.648434,2020-12-07 00:00:00.000000,6.49409313,9.41024698,14.51083210,7766,11254,17354,4032,6306,10215,3.37168606,5.27321015,8.54107262,0.42394475,0.64450447,0.98376189
30063,0,USMontanaMissoula,Montana,Missoula,2021-01-05 16:57:57.648434,2020-12-08 00:00:00.000000,6.29287074,9.22476949,14.16779348,7526,11032,16944,3944,6128,9913,3.29788293,5.12383573,8.28922917,0.42227527,0.64692980,1.03570206
30063,0,USMontanaMissoula,Montana,Missoula,2021-01-05 16:57:57.648434,2020-12-09 00:00:00.000000,6.17577672,8.97260488,13.77898994,7386,10731,16479,3862,5960,9605,3.22940476,4.98360052,8.03120751,0.42120470,0.65921851,1.08225328
30063,0,USMontanaMissoula,Montana,Missoula,2021-01-05 16:57:57.648434,2020-12-10 00:00:00.000000,6.05310252,8.72642056,13.35746991,7239,10436,15975,3783,5820,9374,3.16371345,4.86627371,7.83799121,0.42166154,0.66842690,1.11051850
30063,0,USMontanaMissoula,Montana,Missoula,2021-01-05 16:57:57.648434,2020-12-11 00:00:00.000000,5.92546223,8.43601077,12.95311109,7086,10089,15491,3742,5677,9155,3.12878640,4.74697168,7.65487880,0.42399032,0.68034901,1.10864751
30063,0,USMontanaMissoula,Montana,Missoula,2021-01-05 16:57:57.648434,2020-12-12 00:00:00.000000,5.79259089,8.14268120,12.56748158,6927,9738,15030,3643,5533,8987,3.04627899,4.62641582,7.51460798,0.42927706,0.69871015,1.11811168
30063,0,USMontanaMissoula,Montana,Missoula,2021-01-05 16:57:57.648434,2020-12-13 00:00:00.000000,5.58116885,7.94451571,12.19949930,6675,9501,14590,3517,5402,8905,2.94146742,4.51740264,7.44589610,0.43975717,0.70623109,1.14603223
30063,0,USMontanaMissoula,Montana,Missoula,2021-01-05 16:57:57.648434,2020-12-14 00:00:00.000000,5.36364462,7.72794070,11.84239596,6414,9242,14163,3394,5290,8835,2.83804794,4.42364599,7.38730870,0.44604834,0.71796139,1.15772960
30063,0,USMontanaMissoula,Montana,Missoula,2021-01-05 16:57:57.648434,2020-12-15 00:00:00.000000,5.14629719,7.52920871,11.49761527,6154,9004,13751,3278,5106,8674,2.74082885,4.26990013,7.25281316,0.42210120,0.72901746,1.19920117
30063,0,USMontanaMissoula,Montana,Missoula,2021-01-05 16:57:57.648434,2020-12-16 00:00:00.000000,4.92992498,7.33756136,11.16636870,5896,8775,13354,3158,4939,8424,2.64063655,4.13007814,7.04353090,0.42080933,0.73967171,1.27297991
30063,0,USMontanaMissoula,Montana,Missoula,2021-01-05 16:57:57.648434,2020-12-17 00:00:00.000000,4.74817705,7.13652684,10.85141986,5678,8535,12978,3036,4803,8182,2.53893030,4.01663355,6.84117117,0.41656650,0.74422213,1.28042977
30063,0,USMontanaMissoula,Montana,Missoula,2021-01-05 16:57:57.648434,2020-12-18 00:00:00.000000,4.61158684,6.88863063,10.54742405,5515,8238,12614,2922,4660,7948,2.44384471,3.89692914,6.64626778,0.41116300,0.75633479,1.29850373
30063,0,USMontanaMissoula,Montana,Missoula,2021-01-05 16:57:57.648434,2020-12-19 00:00:00.000000,4.48302987,6.68720764,10.24702672,5361,7997,12255,2825,4524,7724,2.36220655,3.78286156,6.45844074,0.43077969,0.76821099,1.35458579
30063,0,USMontanaMissoula,Montana,Missoula,2021-01-05 16:57:57.648434,2020-12-20 00:00:00.000000,4.30441845,6.47201343,9.94731729,5148,7740,11896,2740,4387,7506,2.29116590,3.66853239,6.27631182,0.42689353,0.77470979,1.39447845
30063,0,USMontanaMissoula,Montana,Missoula,2021-01-05 16:57:57.648434,2020-12-21 00:00:00.000000,4.12234887,6.26233737,9.64954621,4930,7489,11540,2663,4217,7309,2.22711060,3.52613567,6.11198563,0.40679871,0.78255561,1.40721340
30063,0,USMontanaMissoula,Montana,Missoula,2021-01-05 16:57:57.648434,2020-12-22 00:00:00.000000,3.94565057,6.02621011,9.33081284,4718,7207,11159,2590,4047,7160,2.16570005,3.38450745,5.98727834,0.39383929,0.78965745,1.41517578
30063,0,USMontanaMissoula,Montana,Missoula,2021-01-05 16:57:57.648434,2020-12-23 00:00:00.000000,3.77305158,5.81399158,9.00641625,4512,6953,10771,2518,3920,7014,2.10544698,3.27762900,5.86509561,0.38378385,0.78788218,1.41898248
30063,0,USMontanaMissoula,Montana,Missoula,2021-01-05 16:57:57.648434,2020-12-24 00:00:00.000000,3.60484486,5.64804273,8.76447658,4311,6755,10482,2446,3818,6871,2.04563153,3.19253728,5.74542911,0.36215279,0.77829580,1.41866451
30063,0,USMontanaMissoula,Montana,Missoula,2021-01-05 16:57:57.648434,2020-12-25 00:00:00.000000,3.45849344,5.47206362,8.47492790,4136,6544,10136,2375,3697,6732,1.98594758,3.09140602,5.62944951,0.35955866,0.78838183,1.49330206
30063,0,USMontanaMissoula,Montana,Missoula,2021-01-05 16:57:57.648434,2020-12-26 00:00:00.000000,3.33609700,5.23677092,8.21701907,3989,6263,9827,2301,3603,6598,1.92457183,3.01289909,5.51703592,0.35195210,0.77707736,1.53736489
30063,0,USMontanaMissoula,Montana,Missoula,2021-01-05 16:57:57.648434,2020-12-27 00:00:00.000000,3.20868357,5.06687793,8.02621056,3837,6059,9599,2225,3475,6466,1.86043052,2.90625711,5.40699567,0.34040433,0.77148787,1.54853146
30063,0,USMontanaMissoula,Montana,Missoula,2021-01-05 16:57:57.648434,2020-12-28 00:00:00.000000,3.07704727,4.89038289,7.82551969,3680,5848,9359,2145,3332,6336,1.79350776,2.78605504,5.29811783,0.32969704,0.77904363,1.55053263
30063,0,USMontanaMissoula,Montana,Missoula,2021-01-05 16:57:57.648434,2020-12-29 00:00:00.000000,2.94144059,4.65120952,7.61693873,3517,5562,9109,2062,3229,6206,1.72410810,2.70059330,5.18966573,0.32766669,0.76753806,1.54946569
30063,0,USMontanaMissoula,Montana,Missoula,2021-01-05 16:57:57.648434,2020-12-30 00:00:00.000000,2.80366787,4.37142465,7.40153326,3353,5228,8852,1976,3101,6077,1.65247435,2.59337595,5.08193354,0.31918710,0.76968813,1.54619510
30063,0,USMontanaMissoula,Montana,Missoula,2021-01-05 16:57:57.648434,2020-12-31 00:00:00.000000,2.66725720,4.18210903,7.18054972,3190,5001,8587,1888,2998,5951,1.57919990,2.50697514,4.97617336,0.31165199,0.77594212,1.53990482
30063,0,USMontanaMissoula,Montana,Missoula,2021-01-05 16:57:57.648434,2021-01-01 00:00:00.000000,2.49941189,3.93340933,6.96742149,2989,4704,8333,1800,2896,5830,1.50558022,2.42155061,4.87459375,0.30724308,0.77034358,1.53083523
30063,0,USMontanaMissoula,Montana,Missoula,2021-01-05 16:57:57.648434,2021-01-02 00:00:00.000000,2.33519043,3.75713074,6.85419367,2792,4493,8197,1706,2753,5716,1.42701487,2.30210876,4.77939231,0.30417454,0.76521091,1.67587427
30063,0,USMontanaMissoula,Montana,Missoula,2021-01-05 16:57:57.648434,2021-01-03 00:00:00.000000,2.18414156,3.56854328,6.74514241,2612,4267,8067,1612,2639,5610,1.34832472,2.20717856,4.69123449,0.30010351,0.76375601,1.84665104
30063,0,USMontanaMissoula,Montana,Missoula,2021-01-05 16:57:57.648434,2021-01-04 00:00:00.000000,2.06953442,3.42055309,6.51984178,2475,4090,7797,1521,2509,5512,1.27255112,2.09833160,4.60903903,0.29384766,0.76834694,1.95212052
30063,0,USMontanaMissoula,Montana,Missoula,2021-01-05 16:57:57.648434,2021-01-05 00:00:00.000000,1.96090390,3.28413773,6.29554799,2345,3927,7529,1434,2383,5419,1.19967801,1.99288305,4.53095931,0.28897696,0.78462330,1.99481824
30063,0,USMontanaMissoula,Montana,Missoula,2021-01-05 16:57:57.648434,2021-01-06 00:00:00.000000,1.85796128,3.15532609,6.07438829,2222,3773,7264,1351,2272,5328,1.12973752,1.90031361,4.45521623,0.28850100,0.78265369,2.00974834
30063,0,USMontanaMissoula,Montana,Missoula,2021-01-05 16:57:57.648434,2021-01-07 00:00:00.000000,1.78833803,3.03073852,5.85728021,2138,3624,7005,1271,2175,5227,1.06286974,1.81931528,4.37040545,0.28834742,0.78066301,2.01503021
30063,0,USMontanaMissoula,Montana,Missoula,2021-01-05 16:57:57.648434,2021-01-08 00:00:00.000000,1.72292128,2.91007819,5.64470319,2060,3480,6751,1195,2076,5030,0.99919437,1.73588896,4.20647415,0.28829637,0.77808817,2.01703080
30063,0,USMontanaMissoula,Montana,Missoula,2021-01-05 16:57:57.648434,2021-01-09 00:00:00.000000,1.61546889,2.77883587,5.43696544,1932,3323,6502,1122,1984,4836,0.93876191,1.65898987,4.04397885,0.28827822,0.77622805,2.01784720
30063,0,USMontanaMissoula,Montana,Missoula,2021-01-05 16:57:57.648434,2021-01-10 00:00:00.000000,1.51440480,2.63247802,5.30464273,1811,3148,6344,1050,1895,4644,0.87858410,1.58453042,3.88345180,0.28827122,0.77499710,2.01820221
30063,0,USMontanaMissoula,Montana,Missoula,2021-01-05 16:57:57.648434,2021-01-11 00:00:00.000000,1.40994763,2.49426377,5.19558827,1686,2983,6213,986,1808,4454,0.82467008,1.51250539,3.72476941,0.28826830,0.77415686,2.01836431
30063,0,USMontanaMissoula,Montana,Missoula,2021-01-05 16:57:57.648434,2021-01-12 00:00:00.000000,1.32931721,2.37193921,5.08519744,1589,2836,6081,916,1715,4266,0.76628159,1.43438211,3.56705104,0.28826699,0.77357050,2.01844096
30063,0,USMontanaMissoula,Montana,Missoula,2021-01-05 16:57:57.648434,2021-01-13 00:00:00.000000,1.24327601,2.24078812,4.97369591,1486,2679,5948,853,1619,4081,0.71373637,1.35381270,3.41272590,0.28826638,0.77315530,2.01847808
30063,0,USMontanaMissoula,Montana,Missoula,2021-01-05 16:57:57.648434,2021-01-14 00:00:00.000000,1.15829828,2.12628325,4.85750703,1385,2543,5809,792,1528,3901,0.66296261,1.27834179,3.26210275,0.28826608,0.77285858,2.01849633
30063,0,USMontanaMissoula,Montana,Missoula,2021-01-05 16:57:57.648434,2021-01-15 00:00:00.000000,1.07890420,2.02348307,4.62944655,1290,2420,5536,736,1452,3726,0.61572259,1.21460996,3.11543777,0.28826594,0.77264533,2.01850539
30063,0,USMontanaMissoula,Montana,Missoula,2021-01-05 16:57:57.648434,2021-01-16 00:00:00.000000,1.00475776,1.92481398,4.41062229,1201,2302,5275,683,1379,3555,0.57178851,1.15346782,2.97293834,0.28826586,0.77249154,2.01850991
30063,0,USMontanaMissoula,Montana,Missoula,2021-01-05 16:57:57.648434,2021-01-17 00:00:00.000000,0.93553876,1.83019712,4.20081454,1118,2188,5024,635,1309,3390,0.53094248,1.09487007,2.83476693,0.28826583,0.77241084,2.01851218
