FIPS,HR_UID,nameid,province,region,analysisTime,dates,pointprevalence_025,pointprevalence_50,pointprevalence_975,pointinfections_025,pointinfections_50,pointinfections_975,pointinfectious_025,pointinfectious_50,pointinfectious_975,pointinfectiousprevalence_05,pointinfectiousprevalence_50,pointinfectiousprevalence_95,infectrate_025,infectrate_50,infectrate_975
38101,0,USNorthDakotaWard,North Dakota,Ward,2021-01-05 13:36:09.566947,2020-03-09 00:00:00.000000,0.00206755,0.00504059,0.01045459,1,3,7,0,1,2,0.00044964,0.00176909,0.00408194,0.32719440,0.49574325,0.66015967
38101,0,USNorthDakotaWard,North Dakota,Ward,2021-01-05 13:36:09.566947,2020-03-10 00:00:00.000000,0.00272363,0.00643551,0.01328382,1,4,8,0,1,2,0.00060840,0.00197456,0.00419669,0.32715224,0.49572843,0.66015963
38101,0,USNorthDakotaWard,North Dakota,Ward,2021-01-05 13:36:09.566947,2020-03-11 00:00:00.000000,0.00331027,0.00828740,0.01619450,2,5,10,0,1,3,0.00099883,0.00259048,0.00487983,0.32707796,0.49569974,0.66015957
38101,0,USNorthDakotaWard,North Dakota,Ward,2021-01-05 13:36:09.566947,2020-03-12 00:00:00.000000,0.00392800,0.00982474,0.01923590,2,6,13,0,2,4,0.00133465,0.00322130,0.00609912,0.32694146,0.49564395,0.66015945
38101,0,USNorthDakotaWard,North Dakota,Ward,2021-01-05 13:36:09.566947,2020-03-13 00:00:00.000000,0.00461688,0.01156813,0.02360667,3,7,15,1,2,5,0.00165937,0.00409349,0.00769416,0.32667714,0.49553465,0.66015920
38101,0,USNorthDakotaWard,North Dakota,Ward,2021-01-05 13:36:09.566947,2020-03-14 00:00:00.000000,0.00535912,0.01339530,0.02853221,3,9,19,1,3,6,0.00190813,0.00489292,0.00997660,0.32613557,0.49531735,0.66015869
38101,0,USNorthDakotaWard,North Dakota,Ward,2021-01-05 13:36:09.566947,2020-03-15 00:00:00.000000,0.00616548,0.01557152,0.03265667,4,10,22,1,3,8,0.00221431,0.00586230,0.01201173,0.32496900,0.49118371,0.66015757
38101,0,USNorthDakotaWard,North Dakota,Ward,2021-01-05 13:36:09.566947,2020-03-16 00:00:00.000000,0.00893699,0.01861795,0.03689346,6,12,24,1,4,9,0.00257890,0.00684000,0.01407892,0.32239026,0.49008964,0.66015484
38101,0,USNorthDakotaWard,North Dakota,Ward,2021-01-05 13:36:09.566947,2020-03-17 00:00:00.000000,0.01129530,0.02184947,0.04168698,7,14,28,2,5,11,0.00321044,0.00797582,0.01666934,0.31682411,0.47759359,0.66014668
38101,0,USNorthDakotaWard,North Dakota,Ward,2021-01-05 13:36:09.566947,2020-03-18 00:00:00.000000,0.01258770,0.02556160,0.04934136,8,17,33,2,6,13,0.00421709,0.00931648,0.01975415,0.30606428,0.45958224,0.66011319
38101,0,USNorthDakotaWard,North Dakota,Ward,2021-01-05 13:36:09.566947,2020-03-19 00:00:00.000000,0.01392300,0.02924953,0.05734807,9,19,38,3,7,15,0.00498424,0.01092290,0.02314799,0.28968971,0.43798767,0.59108128
38101,0,USNorthDakotaWard,North Dakota,Ward,2021-01-05 13:36:09.566947,2020-03-20 00:00:00.000000,0.01573940,0.03348395,0.06567811,10,22,44,3,8,17,0.00572544,0.01284738,0.02609304,0.27207187,0.40732174,0.58193541
38101,0,USNorthDakotaWard,North Dakota,Ward,2021-01-05 13:36:09.566947,2020-03-21 00:00:00.000000,0.01728799,0.03766739,0.07366203,11,25,49,4,9,19,0.00656801,0.01442293,0.02893777,0.25906527,0.38035708,0.54331650
38101,0,USNorthDakotaWard,North Dakota,Ward,2021-01-05 13:36:09.566947,2020-03-22 00:00:00.000000,0.01865915,0.04106649,0.07959857,12,27,53,5,11,21,0.00740462,0.01647448,0.03169346,0.25197913,0.35144690,0.53307183
38101,0,USNorthDakotaWard,North Dakota,Ward,2021-01-05 13:36:09.566947,2020-03-23 00:00:00.000000,0.02036569,0.04463328,0.08262720,13,30,55,5,12,23,0.00832649,0.01817388,0.03520427,0.24410733,0.33619935,0.50766688
38101,0,USNorthDakotaWard,North Dakota,Ward,2021-01-05 13:36:09.566947,2020-03-24 00:00:00.000000,0.02352324,0.04723998,0.08517398,15,31,57,6,13,26,0.00926972,0.01976868,0.03886481,0.20345656,0.32458873,0.49791888
38101,0,USNorthDakotaWard,North Dakota,Ward,2021-01-05 13:36:09.566947,2020-03-25 00:00:00.000000,0.02439018,0.04940902,0.08755120,16,33,59,6,14,29,0.01033447,0.02128034,0.04309853,0.18786106,0.31641195,0.45548157
38101,0,USNorthDakotaWard,North Dakota,Ward,2021-01-05 13:36:09.566947,2020-03-26 00:00:00.000000,0.02523097,0.05367848,0.09711680,17,36,65,7,15,30,0.01141822,0.02300424,0.04549542,0.17107234,0.30239084,0.44392345
38101,0,USNorthDakotaWard,North Dakota,Ward,2021-01-05 13:36:09.566947,2020-03-27 00:00:00.000000,0.02603034,0.05551710,0.10705183,17,37,72,8,17,32,0.01227137,0.02523337,0.04804675,0.16025624,0.28918900,0.41944605
38101,0,USNorthDakotaWard,North Dakota,Ward,2021-01-05 13:36:09.566947,2020-03-28 00:00:00.000000,0.02722395,0.05742791,0.11614308,18,38,78,8,18,34,0.01311987,0.02708882,0.05123073,0.14426421,0.27075097,0.40853663
38101,0,USNorthDakotaWard,North Dakota,Ward,2021-01-05 13:36:09.566947,2020-03-29 00:00:00.000000,0.02843809,0.05891242,0.12084889,19,39,81,9,18,36,0.01468689,0.02791308,0.05431299,0.14232457,0.25666975,0.39502519
38101,0,USNorthDakotaWard,North Dakota,Ward,2021-01-05 13:36:09.566947,2020-03-30 00:00:00.000000,0.03078023,0.06106291,0.12164578,20,41,82,10,19,38,0.01576389,0.02913316,0.05731378,0.14170282,0.24339443,0.38854065
38101,0,USNorthDakotaWard,North Dakota,Ward,2021-01-05 13:36:09.566947,2020-03-31 00:00:00.000000,0.03491514,0.06341794,0.12500302,23,42,84,10,20,41,0.01615044,0.03044730,0.06070933,0.14140477,0.23478443,0.38492952
38101,0,USNorthDakotaWard,North Dakota,Ward,2021-01-05 13:36:09.566947,2020-04-01 00:00:00.000000,0.03909076,0.06782061,0.13212617,26,45,89,11,21,43,0.01648206,0.03189188,0.06463167,0.14103835,0.22865963,0.37381816
38101,0,USNorthDakotaWard,North Dakota,Ward,2021-01-05 13:36:09.566947,2020-04-02 00:00:00.000000,0.04324433,0.07116286,0.13411372,29,48,90,12,22,46,0.01784319,0.03337034,0.06804864,0.13455717,0.21928109,0.35906577
38101,0,USNorthDakotaWard,North Dakota,Ward,2021-01-05 13:36:09.566947,2020-04-03 00:00:00.000000,0.04444964,0.07458545,0.13513239,30,50,91,13,23,46,0.01983154,0.03514299,0.06906358,0.12945924,0.21531870,0.35066466
38101,0,USNorthDakotaWard,North Dakota,Ward,2021-01-05 13:36:09.566947,2020-04-04 00:00:00.000000,0.04532160,0.07596288,0.13546993,30,51,91,14,24,49,0.02187240,0.03690170,0.07274646,0.12141168,0.20403586,0.33900412
38101,0,USNorthDakotaWard,North Dakota,Ward,2021-01-05 13:36:09.566947,2020-04-05 00:00:00.000000,0.04554917,0.07826857,0.13531738,30,52,91,15,25,50,0.02247951,0.03788161,0.07509375,0.11525260,0.19625814,0.34550000
38101,0,USNorthDakotaWard,North Dakota,Ward,2021-01-05 13:36:09.566947,2020-04-06 00:00:00.000000,0.04485885,0.08055637,0.13873767,30,54,93,15,27,51,0.02301681,0.03997689,0.07684909,0.10944960,0.18766738,0.33981933
38101,0,USNorthDakotaWard,North Dakota,Ward,2021-01-05 13:36:09.566947,2020-04-07 00:00:00.000000,0.04418381,0.08306443,0.14170355,29,56,95,16,27,53,0.02376463,0.04095013,0.07869649,0.10530009,0.18216186,0.32710908
38101,0,USNorthDakotaWard,North Dakota,Ward,2021-01-05 13:36:09.566947,2020-04-08 00:00:00.000000,0.04441055,0.08470312,0.14419383,30,57,97,15,29,54,0.02352722,0.04312748,0.08032471,0.10250665,0.17648928,0.29837923
38101,0,USNorthDakotaWard,North Dakota,Ward,2021-01-05 13:36:09.566947,2020-04-09 00:00:00.000000,0.04646798,0.08675301,0.14605749,31,58,98,15,30,55,0.02326935,0.04523334,0.08131779,0.09998952,0.17135581,0.28967231
38101,0,USNorthDakotaWard,North Dakota,Ward,2021-01-05 13:36:09.566947,2020-04-10 00:00:00.000000,0.04621288,0.08847674,0.14739926,31,59,99,15,30,55,0.02333310,0.04505387,0.08216888,0.09858253,0.17018282,0.28217164
38101,0,USNorthDakotaWard,North Dakota,Ward,2021-01-05 13:36:09.566947,2020-04-11 00:00:00.000000,0.04542104,0.09050719,0.14844151,30,61,100,15,30,56,0.02299402,0.04571538,0.08323400,0.09988069,0.16975533,0.27917850
38101,0,USNorthDakotaWard,North Dakota,Ward,2021-01-05 13:36:09.566947,2020-04-12 00:00:00.000000,0.04464940,0.09146798,0.14932463,30,61,101,15,32,58,0.02269774,0.04734480,0.08593234,0.10348369,0.16796410,0.27888065
38101,0,USNorthDakotaWard,North Dakota,Ward,2021-01-05 13:36:09.566947,2020-04-13 00:00:00.000000,0.04427416,0.09573213,0.14839469,29,64,100,15,32,59,0.02244660,0.04810685,0.08844064,0.09219514,0.16427780,0.27364926
38101,0,USNorthDakotaWard,North Dakota,Ward,2021-01-05 13:36:09.566947,2020-04-14 00:00:00.000000,0.04393409,0.09512494,0.14739745,29,64,99,14,33,61,0.02203683,0.04943823,0.09047065,0.09086750,0.15831905,0.27349169
38101,0,USNorthDakotaWard,North Dakota,Ward,2021-01-05 13:36:09.566947,2020-04-15 00:00:00.000000,0.04363331,0.09471876,0.14728749,29,64,99,14,33,61,0.02153260,0.04925925,0.09064696,0.09141784,0.15463311,0.27376272
38101,0,USNorthDakotaWard,North Dakota,Ward,2021-01-05 13:36:09.566947,2020-04-16 00:00:00.000000,0.04339661,0.09788486,0.14916239,29,66,100,14,33,62,0.02115328,0.04952158,0.09287557,0.09406303,0.15205201,0.27494955
38101,0,USNorthDakotaWard,North Dakota,Ward,2021-01-05 13:36:09.566947,2020-04-17 00:00:00.000000,0.04318780,0.09829670,0.14963523,29,66,101,14,33,63,0.02096925,0.04966164,0.09363246,0.09321200,0.14866993,0.27853835
38101,0,USNorthDakotaWard,North Dakota,Ward,2021-01-05 13:36:09.566947,2020-04-18 00:00:00.000000,0.04299383,0.09740037,0.15255385,29,65,103,14,33,63,0.02080825,0.04980079,0.09445455,0.08883936,0.14654002,0.27729738
38101,0,USNorthDakotaWard,North Dakota,Ward,2021-01-05 13:36:09.566947,2020-04-19 00:00:00.000000,0.04281069,0.09885306,0.15626407,28,66,105,13,34,65,0.02066673,0.05044386,0.09679936,0.08631209,0.14378112,0.27525103
38101,0,USNorthDakotaWard,North Dakota,Ward,2021-01-05 13:36:09.566947,2020-04-20 00:00:00.000000,0.04186502,0.09798615,0.15666235,28,66,105,13,35,65,0.02055554,0.05186276,0.09736434,0.08486428,0.14105091,0.27526760
38101,0,USNorthDakotaWard,North Dakota,Ward,2021-01-05 13:36:09.566947,2020-04-21 00:00:00.000000,0.04093021,0.09871936,0.16023651,27,66,108,13,35,66,0.02032955,0.05244339,0.09777397,0.08005138,0.14172000,0.27533622
38101,0,USNorthDakotaWard,North Dakota,Ward,2021-01-05 13:36:09.566947,2020-04-22 00:00:00.000000,0.03999418,0.10123657,0.16374500,27,68,110,13,35,66,0.02002622,0.05245300,0.09805076,0.07889390,0.14061920,0.27499493
38101,0,USNorthDakotaWard,North Dakota,Ward,2021-01-05 13:36:09.566947,2020-04-23 00:00:00.000000,0.03933116,0.10299546,0.16707007,26,69,113,13,36,66,0.01968805,0.05345333,0.09822197,0.07799817,0.13916897,0.27185324
38101,0,USNorthDakotaWard,North Dakota,Ward,2021-01-05 13:36:09.566947,2020-04-24 00:00:00.000000,0.03900218,0.10331364,0.17021371,26,69,115,13,36,66,0.01964063,0.05440333,0.09830466,0.07713153,0.13996151,0.25106862
38101,0,USNorthDakotaWard,North Dakota,Ward,2021-01-05 13:36:09.566947,2020-04-25 00:00:00.000000,0.03863300,0.10347237,0.17466504,26,69,118,13,36,66,0.01952964,0.05447878,0.09829235,0.07691377,0.14010860,0.26093418
38101,0,USNorthDakotaWard,North Dakota,Ward,2021-01-05 13:36:09.566947,2020-04-26 00:00:00.000000,0.03822448,0.10497385,0.17936499,25,71,121,13,37,68,0.01937872,0.05501686,0.10053910,0.07667699,0.13846780,0.24705411
38101,0,USNorthDakotaWard,North Dakota,Ward,2021-01-05 13:36:09.566947,2020-04-27 00:00:00.000000,0.04195679,0.10543170,0.18444711,28,71,124,12,37,69,0.01919926,0.05555199,0.10250963,0.07649766,0.13616981,0.23320024
38101,0,USNorthDakotaWard,North Dakota,Ward,2021-01-05 13:36:09.566947,2020-04-28 00:00:00.000000,0.04742939,0.10640411,0.18901268,32,71,127,12,38,70,0.01904329,0.05618585,0.10441529,0.07636061,0.13364950,0.23109210
38101,0,USNorthDakotaWard,North Dakota,Ward,2021-01-05 13:36:09.566947,2020-04-29 00:00:00.000000,0.05090918,0.10962829,0.19342014,34,74,130,13,38,72,0.02003563,0.05708042,0.10729094,0.07632551,0.13142807,0.23108900
38101,0,USNorthDakotaWard,North Dakota,Ward,2021-01-05 13:36:09.566947,2020-04-30 00:00:00.000000,0.04974955,0.11110645,0.19576221,33,75,132,14,39,74,0.02182553,0.05842312,0.11025310,0.07668903,0.13054843,0.23312147
38101,0,USNorthDakotaWard,North Dakota,Ward,2021-01-05 13:36:09.566947,2020-05-01 00:00:00.000000,0.04854129,0.11161652,0.19850308,32,75,134,16,40,75,0.02391013,0.05941386,0.11155126,0.08150890,0.13186775,0.23870782
38101,0,USNorthDakotaWard,North Dakota,Ward,2021-01-05 13:36:09.566947,2020-05-02 00:00:00.000000,0.04734226,0.11193620,0.20114886,32,75,136,17,40,76,0.02615897,0.05930210,0.11248727,0.08460355,0.13124723,0.24917975
38101,0,USNorthDakotaWard,North Dakota,Ward,2021-01-05 13:36:09.566947,2020-05-03 00:00:00.000000,0.04617079,0.11310647,0.20373526,31,76,137,18,40,76,0.02715019,0.05915965,0.11307421,0.08668780,0.13051728,0.24951229
38101,0,USNorthDakotaWard,North Dakota,Ward,2021-01-05 13:36:09.566947,2020-05-04 00:00:00.000000,0.05524263,0.11492493,0.20852887,37,77,141,17,39,76,0.02657585,0.05899649,0.11332603,0.08698478,0.13285941,0.23975587
38101,0,USNorthDakotaWard,North Dakota,Ward,2021-01-05 13:36:09.566947,2020-05-05 00:00:00.000000,0.05718639,0.11740918,0.21113055,38,79,142,19,40,76,0.02819113,0.05934642,0.11331827,0.08692341,0.13090484,0.23602029
38101,0,USNorthDakotaWard,North Dakota,Ward,2021-01-05 13:36:09.566947,2020-05-06 00:00:00.000000,0.05893229,0.12008001,0.20942528,39,81,141,20,40,76,0.02968449,0.06047074,0.11306733,0.08688699,0.13082085,0.21987425
38101,0,USNorthDakotaWard,North Dakota,Ward,2021-01-05 13:36:09.566947,2020-05-07 00:00:00.000000,0.06072536,0.12418502,0.20770508,41,83,140,20,41,76,0.03026175,0.06174828,0.11260049,0.08692018,0.13099241,0.21786067
38101,0,USNorthDakotaWard,North Dakota,Ward,2021-01-05 13:36:09.566947,2020-05-08 00:00:00.000000,0.06259570,0.12724234,0.20693114,42,86,139,21,43,75,0.03129582,0.06423976,0.11195111,0.08712984,0.13160795,0.21399308
38101,0,USNorthDakotaWard,North Dakota,Ward,2021-01-05 13:36:09.566947,2020-05-09 00:00:00.000000,0.06381405,0.12900347,0.20984278,43,87,141,21,44,76,0.03202172,0.06640801,0.11319128,0.08739195,0.13059434,0.21039510
38101,0,USNorthDakotaWard,North Dakota,Ward,2021-01-05 13:36:09.566947,2020-05-10 00:00:00.000000,0.06263963,0.12787986,0.21109778,42,86,142,22,46,78,0.03282963,0.06871847,0.11568236,0.08700857,0.13019910,0.21190287
38101,0,USNorthDakotaWard,North Dakota,Ward,2021-01-05 13:36:09.566947,2020-05-11 00:00:00.000000,0.06630869,0.12984531,0.21203000,44,87,143,22,47,79,0.03370708,0.07030657,0.11824253,0.08592651,0.13063992,0.21740114
38101,0,USNorthDakotaWard,North Dakota,Ward,2021-01-05 13:36:09.566947,2020-05-12 00:00:00.000000,0.06839805,0.13485717,0.21285180,46,91,143,23,47,81,0.03480001,0.07026167,0.12030954,0.08423636,0.12896984,0.21957495
38101,0,USNorthDakotaWard,North Dakota,Ward,2021-01-05 13:36:09.566947,2020-05-13 00:00:00.000000,0.07063283,0.13898546,0.21380189,47,94,144,24,47,82,0.03556628,0.07093036,0.12199926,0.08227585,0.13022618,0.20963223
38101,0,USNorthDakotaWard,North Dakota,Ward,2021-01-05 13:36:09.566947,2020-05-14 00:00:00.000000,0.07299226,0.14141213,0.21490343,49,95,145,24,49,83,0.03620231,0.07247532,0.12330242,0.08157925,0.12866255,0.20203073
38101,0,USNorthDakotaWard,North Dakota,Ward,2021-01-05 13:36:09.566947,2020-05-15 00:00:00.000000,0.07658782,0.14380120,0.21590860,51,97,146,24,50,83,0.03689121,0.07398712,0.12349024,0.08071518,0.12573141,0.20262182
38101,0,USNorthDakotaWard,North Dakota,Ward,2021-01-05 13:36:09.566947,2020-05-16 00:00:00.000000,0.07732346,0.14621770,0.21655867,52,98,146,25,50,85,0.03763086,0.07505919,0.12572663,0.07992269,0.12378717,0.20722810
38101,0,USNorthDakotaWard,North Dakota,Ward,2021-01-05 13:36:09.566947,2020-05-17 00:00:00.000000,0.07928959,0.14865543,0.21704398,53,100,146,25,52,85,0.03835248,0.07764706,0.12663077,0.07926760,0.12177469,0.20913532
38101,0,USNorthDakotaWard,North Dakota,Ward,2021-01-05 13:36:09.566947,2020-05-18 00:00:00.000000,0.07845171,0.14786348,0.21638960,53,100,146,26,53,85,0.03901832,0.07954315,0.12714086,0.07975500,0.12097572,0.19970073
38101,0,USNorthDakotaWard,North Dakota,Ward,2021-01-05 13:36:09.566947,2020-05-19 00:00:00.000000,0.07739682,0.14637143,0.21513910,52,99,145,26,54,87,0.03926400,0.08049953,0.12984837,0.07977593,0.12216536,0.20395725
38101,0,USNorthDakotaWard,North Dakota,Ward,2021-01-05 13:36:09.566947,2020-05-20 00:00:00.000000,0.07607145,0.14677656,0.21320591,51,99,144,26,54,89,0.03921267,0.07997618,0.13200356,0.08145834,0.12129046,0.20638338
38101,0,USNorthDakotaWard,North Dakota,Ward,2021-01-05 13:36:09.566947,2020-05-21 00:00:00.000000,0.07461164,0.14588449,0.21129717,50,98,142,26,53,89,0.03895271,0.07962706,0.13305253,0.08097408,0.12108373,0.20722109
38101,0,USNorthDakotaWard,North Dakota,Ward,2021-01-05 13:36:09.566947,2020-05-22 00:00:00.000000,0.07439418,0.14233329,0.21192666,50,96,143,26,54,91,0.03854800,0.08054566,0.13589844,0.07955088,0.12194068,0.20565014
38101,0,USNorthDakotaWard,North Dakota,Ward,2021-01-05 13:36:09.566947,2020-05-23 00:00:00.000000,0.07290716,0.13979092,0.21246164,49,94,143,25,54,92,0.03804422,0.07998654,0.13651483,0.07936534,0.12147230,0.20019499
38101,0,USNorthDakotaWard,North Dakota,Ward,2021-01-05 13:36:09.566947,2020-05-24 00:00:00.000000,0.07140682,0.13875969,0.21283852,48,93,143,25,53,92,0.03747274,0.07915278,0.13623082,0.07843708,0.12164359,0.18543665
38101,0,USNorthDakotaWard,North Dakota,Ward,2021-01-05 13:36:09.566947,2020-05-25 00:00:00.000000,0.07294962,0.13674970,0.21065758,49,92,142,24,52,91,0.03685313,0.07815960,0.13595674,0.07553569,0.12148319,0.18509437
38101,0,USNorthDakotaWard,North Dakota,Ward,2021-01-05 13:36:09.566947,2020-05-26 00:00:00.000000,0.07183079,0.13574599,0.21051822,48,91,142,24,51,91,0.03642581,0.07619925,0.13546373,0.07319802,0.11814037,0.18366308
38101,0,USNorthDakotaWard,North Dakota,Ward,2021-01-05 13:36:09.566947,2020-05-27 00:00:00.000000,0.07070016,0.13402989,0.21039998,47,90,142,24,50,91,0.03604924,0.07480904,0.13481528,0.07411711,0.11877534,0.18301298
38101,0,USNorthDakotaWard,North Dakota,Ward,2021-01-05 13:36:09.566947,2020-05-28 00:00:00.000000,0.06959702,0.13218836,0.21034505,47,89,142,24,49,90,0.03560331,0.07357237,0.13406162,0.07567176,0.12081245,0.17944041
38101,0,USNorthDakotaWard,North Dakota,Ward,2021-01-05 13:36:09.566947,2020-05-29 00:00:00.000000,0.06855425,0.13014658,0.21040881,46,88,142,23,49,90,0.03511954,0.07338961,0.13324383,0.07657182,0.12276648,0.17430720
38101,0,USNorthDakotaWard,North Dakota,Ward,2021-01-05 13:36:09.566947,2020-05-30 00:00:00.000000,0.06760425,0.12899581,0.21064745,45,87,142,23,49,89,0.03462361,0.07367592,0.13238012,0.07699182,0.12663252,0.17037887
38101,0,USNorthDakotaWard,North Dakota,Ward,2021-01-05 13:36:09.566947,2020-05-31 00:00:00.000000,0.06636302,0.12772378,0.21108994,44,86,142,23,49,88,0.03413749,0.07301266,0.13150338,0.07665969,0.12696417,0.17349728
38101,0,USNorthDakotaWard,North Dakota,Ward,2021-01-05 13:36:09.566947,2020-06-01 00:00:00.000000,0.06596376,0.12729261,0.21037311,44,86,142,22,48,88,0.03368034,0.07147694,0.13064406,0.07728621,0.12963406,0.18925981
38101,0,USNorthDakotaWard,North Dakota,Ward,2021-01-05 13:36:09.566947,2020-06-02 00:00:00.000000,0.06585484,0.12614426,0.20979280,44,85,141,22,47,87,0.03355146,0.07047713,0.13001531,0.07749729,0.13187760,0.19240695
38101,0,USNorthDakotaWard,North Dakota,Ward,2021-01-05 13:36:09.566947,2020-06-03 00:00:00.000000,0.06598634,0.12412804,0.20925523,44,83,141,22,47,87,0.03366356,0.06952436,0.12954822,0.07790483,0.13257041,0.19574496
38101,0,USNorthDakotaWard,North Dakota,Ward,2021-01-05 13:36:09.566947,2020-06-04 00:00:00.000000,0.06630987,0.12189303,0.20844839,44,82,140,22,46,87,0.03395243,0.06886337,0.12918706,0.07876831,0.13357143,0.20002041
38101,0,USNorthDakotaWard,North Dakota,Ward,2021-01-05 13:36:09.566947,2020-06-05 00:00:00.000000,0.06656811,0.12113180,0.20990187,45,81,141,23,45,87,0.03437114,0.06788887,0.12886498,0.07850509,0.13744799,0.21363974
38101,0,USNorthDakotaWard,North Dakota,Ward,2021-01-05 13:36:09.566947,2020-06-06 00:00:00.000000,0.06627747,0.12030049,0.20876558,44,81,141,23,45,86,0.03451877,0.06738094,0.12849378,0.07942610,0.13727249,0.22966149
38101,0,USNorthDakotaWard,North Dakota,Ward,2021-01-05 13:36:09.566947,2020-06-07 00:00:00.000000,0.06604917,0.11875606,0.20518644,44,80,138,23,45,86,0.03406917,0.06686359,0.12804148,0.08131602,0.13797544,0.23051431
38101,0,USNorthDakotaWard,North Dakota,Ward,2021-01-05 13:36:09.566947,2020-06-08 00:00:00.000000,0.06577439,0.11859803,0.20473252,44,80,138,22,44,86,0.03326247,0.06576483,0.12752835,0.08189278,0.13939634,0.23012828
38101,0,USNorthDakotaWard,North Dakota,Ward,2021-01-05 13:36:09.566947,2020-06-09 00:00:00.000000,0.06529486,0.11807652,0.21032267,44,79,142,22,43,85,0.03259104,0.06475284,0.12609943,0.08206458,0.14099578,0.22939226
38101,0,USNorthDakotaWard,North Dakota,Ward,2021-01-05 13:36:09.566947,2020-06-10 00:00:00.000000,0.06493987,0.11750209,0.21600414,43,79,146,21,43,83,0.03204148,0.06426006,0.12384076,0.08313937,0.14320463,0.22634458
38101,0,USNorthDakotaWard,North Dakota,Ward,2021-01-05 13:36:09.566947,2020-06-11 00:00:00.000000,0.06384282,0.11782459,0.22192292,43,79,150,21,43,83,0.03162518,0.06421910,0.12358405,0.08474696,0.14613888,0.23267298
38101,0,USNorthDakotaWard,North Dakota,Ward,2021-01-05 13:36:09.566947,2020-06-12 00:00:00.000000,0.06266119,0.11741092,0.22843675,42,79,154,21,43,84,0.03136770,0.06407368,0.12422911,0.08503908,0.15066086,0.23972896
38101,0,USNorthDakotaWard,North Dakota,Ward,2021-01-05 13:36:09.566947,2020-06-13 00:00:00.000000,0.06148717,0.11770384,0.23542989,41,79,159,21,43,84,0.03127134,0.06406597,0.12556518,0.09034586,0.15085032,0.24933149
38101,0,USNorthDakotaWard,North Dakota,Ward,2021-01-05 13:36:09.566947,2020-06-14 00:00:00.000000,0.06033557,0.11926470,0.23547089,40,80,159,21,43,87,0.03130993,0.06414852,0.12903247,0.09427997,0.15851547,0.25140993
38101,0,USNorthDakotaWard,North Dakota,Ward,2021-01-05 13:36:09.566947,2020-06-15 00:00:00.000000,0.06250505,0.12069443,0.23622032,42,81,159,21,43,87,0.03145008,0.06372519,0.12919691,0.09619354,0.16099506,0.25479387
38101,0,USNorthDakotaWard,North Dakota,Ward,2021-01-05 13:36:09.566947,2020-06-16 00:00:00.000000,0.06504581,0.12205466,0.23478455,43,82,158,21,43,86,0.03144880,0.06371890,0.12762075,0.10081504,0.16331948,0.26203608
38101,0,USNorthDakotaWard,North Dakota,Ward,2021-01-05 13:36:09.566947,2020-06-17 00:00:00.000000,0.06433405,0.12447775,0.23328454,43,84,157,21,43,87,0.03135339,0.06488896,0.12863541,0.10702005,0.16474464,0.26385180
38101,0,USNorthDakotaWard,North Dakota,Ward,2021-01-05 13:36:09.566947,2020-06-18 00:00:00.000000,0.06337594,0.12750422,0.23188199,42,86,156,21,44,87,0.03173715,0.06621433,0.12987085,0.11152723,0.16956900,0.26870692
38101,0,USNorthDakotaWard,North Dakota,Ward,2021-01-05 13:36:09.566947,2020-06-19 00:00:00.000000,0.06200114,0.12977091,0.23090021,41,87,156,22,44,88,0.03252738,0.06560421,0.13134812,0.11421983,0.17560564,0.27678535
38101,0,USNorthDakotaWard,North Dakota,Ward,2021-01-05 13:36:09.566947,2020-06-20 00:00:00.000000,0.06247794,0.13253034,0.23084948,42,89,156,22,44,90,0.03263227,0.06626640,0.13309807,0.11946086,0.17918353,0.27908906
38101,0,USNorthDakotaWard,North Dakota,Ward,2021-01-05 13:36:09.566947,2020-06-21 00:00:00.000000,0.06298722,0.13538637,0.24064384,42,91,162,21,44,91,0.03229492,0.06607098,0.13509508,0.12078565,0.18182889,0.28026833
38101,0,USNorthDakotaWard,North Dakota,Ward,2021-01-05 13:36:09.566947,2020-06-22 00:00:00.000000,0.06587264,0.13723468,0.24298827,44,92,164,22,44,92,0.03287841,0.06629966,0.13729303,0.12215130,0.18402878,0.28543482
38101,0,USNorthDakotaWard,North Dakota,Ward,2021-01-05 13:36:09.566947,2020-06-23 00:00:00.000000,0.07099995,0.13856754,0.24526615,48,93,165,22,46,95,0.03364208,0.06862242,0.14051659,0.12553891,0.18821343,0.29122957
38101,0,USNorthDakotaWard,North Dakota,Ward,2021-01-05 13:36:09.566947,2020-06-24 00:00:00.000000,0.07155299,0.14065209,0.24740152,48,95,167,23,48,97,0.03524991,0.07127213,0.14447544,0.12929970,0.19068596,0.29619658
38101,0,USNorthDakotaWard,North Dakota,Ward,2021-01-05 13:36:09.566947,2020-06-25 00:00:00.000000,0.07289343,0.14289585,0.25585827,49,96,173,24,48,100,0.03622754,0.07184592,0.14896527,0.13316158,0.19986452,0.30453884
38101,0,USNorthDakotaWard,North Dakota,Ward,2021-01-05 13:36:09.566947,2020-06-26 00:00:00.000000,0.07628696,0.14607809,0.26490803,51,98,179,25,49,104,0.03746610,0.07291646,0.15384256,0.13529371,0.20594832,0.31491187
38101,0,USNorthDakotaWard,North Dakota,Ward,2021-01-05 13:36:09.566947,2020-06-27 00:00:00.000000,0.07673402,0.15095914,0.27389770,51,102,185,25,50,107,0.03810934,0.07449525,0.15900417,0.13598926,0.21252432,0.35215700
38101,0,USNorthDakotaWard,North Dakota,Ward,2021-01-05 13:36:09.566947,2020-06-28 00:00:00.000000,0.07744620,0.15479419,0.28227283,52,104,190,26,51,110,0.03870876,0.07586181,0.16393913,0.13642314,0.21595621,0.34493544
38101,0,USNorthDakotaWard,North Dakota,Ward,2021-01-05 13:36:09.566947,2020-06-29 00:00:00.000000,0.07916552,0.15767637,0.28611876,53,106,193,26,51,113,0.03929822,0.07676568,0.16743944,0.14102671,0.22673118,0.34946831
38101,0,USNorthDakotaWard,North Dakota,Ward,2021-01-05 13:36:09.566947,2020-06-30 00:00:00.000000,0.08156722,0.16104639,0.28986927,55,108,196,27,53,115,0.04029913,0.07929420,0.17148390,0.14788892,0.22979027,0.36196797
38101,0,USNorthDakotaWard,North Dakota,Ward,2021-01-05 13:36:09.566947,2020-07-01 00:00:00.000000,0.08668598,0.16579065,0.30240798,58,112,204,28,54,118,0.04204665,0.08099942,0.17503559,0.16126372,0.23327106,0.37793028
38101,0,USNorthDakotaWard,North Dakota,Ward,2021-01-05 13:36:09.566947,2020-07-02 00:00:00.000000,0.09157815,0.17098670,0.31924127,61,115,215,28,55,120,0.04283779,0.08207845,0.17825845,0.16249401,0.24017119,0.39906221
38101,0,USNorthDakotaWard,North Dakota,Ward,2021-01-05 13:36:09.566947,2020-07-03 00:00:00.000000,0.09568914,0.17858500,0.32786596,64,120,221,29,56,122,0.04371450,0.08310281,0.18126736,0.16533099,0.25460861,0.40136152
38101,0,USNorthDakotaWard,North Dakota,Ward,2021-01-05 13:36:09.566947,2020-07-04 00:00:00.000000,0.10064303,0.18489312,0.33455608,68,125,226,31,57,124,0.04609380,0.08477099,0.18414793,0.16682936,0.26231150,0.39885618
38101,0,USNorthDakotaWard,North Dakota,Ward,2021-01-05 13:36:09.566947,2020-07-05 00:00:00.000000,0.10549146,0.19130907,0.34169695,71,129,231,32,59,126,0.04831518,0.08828005,0.18698845,0.16371916,0.27136011,0.41526771
38101,0,USNorthDakotaWard,North Dakota,Ward,2021-01-05 13:36:09.566947,2020-07-06 00:00:00.000000,0.11062445,0.20083756,0.35875809,74,135,242,34,62,128,0.05081420,0.09288233,0.19070777,0.16859558,0.27584201,0.41817894
38101,0,USNorthDakotaWard,North Dakota,Ward,2021-01-05 13:36:09.566947,2020-07-07 00:00:00.000000,0.11577884,0.20869444,0.37590807,78,141,254,36,65,133,0.05325207,0.09735803,0.19781001,0.17258795,0.28646498,0.42181421
38101,0,USNorthDakotaWard,North Dakota,Ward,2021-01-05 13:36:09.566947,2020-07-08 00:00:00.000000,0.12091005,0.21628524,0.39336870,81,146,266,37,68,139,0.05571386,0.10145308,0.20552317,0.17851434,0.29172656,0.42236435
38101,0,USNorthDakotaWard,North Dakota,Ward,2021-01-05 13:36:09.566947,2020-07-09 00:00:00.000000,0.12617134,0.22543732,0.41113085,85,152,278,39,71,144,0.05822963,0.10549105,0.21388926,0.18421629,0.30046951,0.42434789
38101,0,USNorthDakotaWard,North Dakota,Ward,2021-01-05 13:36:09.566947,2020-07-10 00:00:00.000000,0.13154590,0.23965488,0.42920178,88,162,290,41,74,150,0.06164753,0.10982755,0.22281321,0.20055865,0.30502463,0.45832912
38101,0,USNorthDakotaWard,North Dakota,Ward,2021-01-05 13:36:09.566947,2020-07-11 00:00:00.000000,0.13982698,0.25467028,0.44760316,94,172,302,43,78,157,0.06447067,0.11630807,0.23226523,0.21270620,0.32179023,0.47554801
38101,0,USNorthDakotaWard,North Dakota,Ward,2021-01-05 13:36:09.566947,2020-07-12 00:00:00.000000,0.14736722,0.26791979,0.46637191,99,181,315,45,83,163,0.06759222,0.12384574,0.24223048,0.20626700,0.33770062,0.49169158
38101,0,USNorthDakotaWard,North Dakota,Ward,2021-01-05 13:36:09.566947,2020-07-13 00:00:00.000000,0.15779091,0.28118798,0.47571066,106,190,321,48,88,170,0.07111931,0.13139471,0.25251466,0.20424647,0.34191262,0.51058051
38101,0,USNorthDakotaWard,North Dakota,Ward,2021-01-05 13:36:09.566947,2020-07-14 00:00:00.000000,0.17011938,0.29398813,0.49677911,115,198,336,51,93,177,0.07604440,0.13861439,0.26311125,0.21731466,0.34229204,0.51291812
38101,0,USNorthDakotaWard,North Dakota,Ward,2021-01-05 13:36:09.566947,2020-07-15 00:00:00.000000,0.18506756,0.30687277,0.51485663,125,207,348,55,98,185,0.08191912,0.14520627,0.27439498,0.23033764,0.33963191,0.52361198
38101,0,USNorthDakotaWard,North Dakota,Ward,2021-01-05 13:36:09.566947,2020-07-16 00:00:00.000000,0.20421846,0.32233597,0.53167711,138,218,359,59,102,193,0.08853824,0.15186059,0.28673163,0.23580662,0.34115323,0.53677383
38101,0,USNorthDakotaWard,North Dakota,Ward,2021-01-05 13:36:09.566947,2020-07-17 00:00:00.000000,0.22243538,0.33851848,0.55858216,150,228,377,64,107,203,0.09573327,0.15930418,0.30039815,0.23746025,0.34126850,0.55777418
38101,0,USNorthDakotaWard,North Dakota,Ward,2021-01-05 13:36:09.566947,2020-07-18 00:00:00.000000,0.23438789,0.35561470,0.58779008,158,240,397,69,112,213,0.10342926,0.16673920,0.31555710,0.24070951,0.34240621,0.56574008
38101,0,USNorthDakotaWard,North Dakota,Ward,2021-01-05 13:36:09.566947,2020-07-19 00:00:00.000000,0.24752974,0.37674621,0.61851460,167,254,418,75,118,224,0.11160355,0.17536789,0.33226812,0.24289510,0.34723984,0.55797667
38101,0,USNorthDakotaWard,North Dakota,Ward,2021-01-05 13:36:09.566947,2020-07-20 00:00:00.000000,0.25843634,0.39963734,0.65029823,174,270,439,81,125,235,0.11994963,0.18591684,0.34862822,0.24486029,0.35069866,0.53258798
38101,0,USNorthDakotaWard,North Dakota,Ward,2021-01-05 13:36:09.566947,2020-07-21 00:00:00.000000,0.27230786,0.42401723,0.68318367,184,286,462,85,132,245,0.12597280,0.19545389,0.36309569,0.24333306,0.35055270,0.51771810
38101,0,USNorthDakotaWard,North Dakota,Ward,2021-01-05 13:36:09.566947,2020-07-22 00:00:00.000000,0.28148679,0.44780436,0.71750031,190,302,485,89,139,257,0.13245582,0.20587852,0.38113055,0.24257622,0.35144293,0.51923947
38101,0,USNorthDakotaWard,North Dakota,Ward,2021-01-05 13:36:09.566947,2020-07-23 00:00:00.000000,0.29104389,0.47092446,0.75313288,196,318,509,94,146,272,0.13973475,0.21703757,0.40292974,0.24615911,0.35211137,0.50819301
38101,0,USNorthDakotaWard,North Dakota,Ward,2021-01-05 13:36:09.566947,2020-07-24 00:00:00.000000,0.30856568,0.49710018,0.79006792,208,336,534,97,154,287,0.14433886,0.22903963,0.42531087,0.25023866,0.35575235,0.49583243
38101,0,USNorthDakotaWard,North Dakota,Ward,2021-01-05 13:36:09.566947,2020-07-25 00:00:00.000000,0.31889340,0.52360374,0.82838837,215,354,560,100,165,303,0.14794277,0.24433805,0.44813876,0.25278382,0.35919125,0.48315558
38101,0,USNorthDakotaWard,North Dakota,Ward,2021-01-05 13:36:09.566947,2020-07-26 00:00:00.000000,0.32763334,0.54931636,0.86825136,221,371,587,106,173,318,0.15791042,0.25695839,0.47146137,0.25736336,0.35896790,0.48589096
38101,0,USNorthDakotaWard,North Dakota,Ward,2021-01-05 13:36:09.566947,2020-07-27 00:00:00.000000,0.33901805,0.57396166,0.91145211,229,388,616,112,181,335,0.16572851,0.26836760,0.49527558,0.24955173,0.36343552,0.48323041
38101,0,USNorthDakotaWard,North Dakota,Ward,2021-01-05 13:36:09.566947,2020-07-28 00:00:00.000000,0.36211689,0.60758824,0.95623898,244,410,646,117,190,348,0.17336777,0.28125612,0.51566738,0.25173720,0.36375099,0.47882049
38101,0,USNorthDakotaWard,North Dakota,Ward,2021-01-05 13:36:09.566947,2020-07-29 00:00:00.000000,0.37796168,0.63971640,1.00313497,255,432,678,123,200,363,0.18312685,0.29608913,0.53679145,0.25465997,0.36787815,0.47934859
38101,0,USNorthDakotaWard,North Dakota,Ward,2021-01-05 13:36:09.566947,2020-07-30 00:00:00.000000,0.39301662,0.67316266,1.05298641,265,455,712,131,211,378,0.19471924,0.31243251,0.55897093,0.25658291,0.36779586,0.48238298
38101,0,USNorthDakotaWard,North Dakota,Ward,2021-01-05 13:36:09.566947,2020-07-31 00:00:00.000000,0.40900752,0.70746425,1.10553255,276,478,747,138,222,394,0.20502907,0.32921742,0.58251392,0.26162665,0.36292234,0.49466607
38101,0,USNorthDakotaWard,North Dakota,Ward,2021-01-05 13:36:09.566947,2020-08-01 00:00:00.000000,0.42798046,0.73669827,1.15995931,289,498,784,145,233,411,0.21559141,0.34583602,0.60793494,0.27035630,0.36426271,0.50380588
38101,0,USNorthDakotaWard,North Dakota,Ward,2021-01-05 13:36:09.566947,2020-08-02 00:00:00.000000,0.45262575,0.76111361,1.21260078,306,514,820,153,244,430,0.22624089,0.36114865,0.63583738,0.27430906,0.36653876,0.50995828
38101,0,USNorthDakotaWard,North Dakota,Ward,2021-01-05 13:36:09.566947,2020-08-03 00:00:00.000000,0.47400679,0.79545557,1.25879479,320,538,851,160,254,450,0.23675909,0.37592257,0.66634187,0.27581704,0.36639364,0.50799493
38101,0,USNorthDakotaWard,North Dakota,Ward,2021-01-05 13:36:09.566947,2020-08-04 00:00:00.000000,0.49391424,0.82628406,1.30305423,334,558,881,167,266,472,0.24732006,0.39337204,0.69917810,0.28132522,0.36312111,0.50254955
38101,0,USNorthDakotaWard,North Dakota,Ward,2021-01-05 13:36:09.566947,2020-08-05 00:00:00.000000,0.51456926,0.86621154,1.34714360,348,585,911,174,279,496,0.25807629,0.41287172,0.73404271,0.27638514,0.36106773,0.50331493
38101,0,USNorthDakotaWard,North Dakota,Ward,2021-01-05 13:36:09.566947,2020-08-06 00:00:00.000000,0.53600392,0.90586382,1.39176698,362,612,941,182,293,518,0.26912050,0.43347795,0.76617961,0.27257091,0.36038077,0.50726238
38101,0,USNorthDakotaWard,North Dakota,Ward,2021-01-05 13:36:09.566947,2020-08-07 00:00:00.000000,0.55826738,0.94306554,1.43711172,377,637,972,189,305,538,0.28051285,0.45122329,0.79583248,0.26418916,0.36485978,0.50879033
38101,0,USNorthDakotaWard,North Dakota,Ward,2021-01-05 13:36:09.566947,2020-08-08 00:00:00.000000,0.58147310,0.98414693,1.50281382,393,665,1016,197,317,557,0.29229857,0.46892887,0.82453472,0.26176546,0.36697611,0.48976292
38101,0,USNorthDakotaWard,North Dakota,Ward,2021-01-05 13:36:09.566947,2020-08-09 00:00:00.000000,0.60600555,1.04151586,1.59732564,409,704,1080,205,333,577,0.30452803,0.49251681,0.85316579,0.26070299,0.36881730,0.47618780
38101,0,USNorthDakotaWard,North Dakota,Ward,2021-01-05 13:36:09.566947,2020-08-10 00:00:00.000000,0.63636664,1.09094461,1.67892191,430,737,1135,214,347,597,0.31731148,0.51434044,0.88321018,0.26131336,0.36928099,0.50434949
38101,0,USNorthDakotaWard,North Dakota,Ward,2021-01-05 13:36:09.566947,2020-08-11 00:00:00.000000,0.68085217,1.14774571,1.72801953,460,776,1168,224,362,619,0.33157553,0.53590985,0.91538660,0.26398120,0.36772454,0.49798917
38101,0,USNorthDakotaWard,North Dakota,Ward,2021-01-05 13:36:09.566947,2020-08-12 00:00:00.000000,0.72766434,1.20412455,1.77825654,492,814,1202,235,379,642,0.34750719,0.56089299,0.94928705,0.26251716,0.36574354,0.49786543
38101,0,USNorthDakotaWard,North Dakota,Ward,2021-01-05 13:36:09.566947,2020-08-13 00:00:00.000000,0.77674960,1.26239710,1.83549933,525,853,1241,246,399,666,0.36506290,0.59072120,0.98473470,0.26098201,0.36772239,0.49053484
38101,0,USNorthDakotaWard,North Dakota,Ward,2021-01-05 13:36:09.566947,2020-08-14 00:00:00.000000,0.82755373,1.31911918,1.92540677,559,892,1302,258,421,690,0.38204263,0.62382764,1.02143430,0.26406737,0.36318706,0.48707239
38101,0,USNorthDakotaWard,North Dakota,Ward,2021-01-05 13:36:09.566947,2020-08-15 00:00:00.000000,0.87728395,1.38033824,2.00722243,593,933,1357,270,442,716,0.39995696,0.65414859,1.05900671,0.25230978,0.36331231,0.46768892
38101,0,USNorthDakotaWard,North Dakota,Ward,2021-01-05 13:36:09.566947,2020-08-16 00:00:00.000000,0.92646426,1.43786244,2.08297051,626,972,1408,283,461,741,0.41934472,0.68209023,1.09695880,0.25077669,0.36160595,0.46388975
38101,0,USNorthDakotaWard,North Dakota,Ward,2021-01-05 13:36:09.566947,2020-08-17 00:00:00.000000,0.96768458,1.49169006,2.15356384,654,1008,1456,297,482,767,0.43977629,0.71335986,1.13486542,0.25007825,0.35353979,0.46262306
38101,0,USNorthDakotaWard,North Dakota,Ward,2021-01-05 13:36:09.566947,2020-08-18 00:00:00.000000,1.01017993,1.54709959,2.22405111,683,1046,1504,310,507,793,0.45966189,0.75059324,1.17339054,0.24935194,0.34519761,0.46152137
38101,0,USNorthDakotaWard,North Dakota,Ward,2021-01-05 13:36:09.566947,2020-08-19 00:00:00.000000,1.05262461,1.60407789,2.29554443,712,1085,1552,323,530,820,0.47867169,0.78460126,1.21236998,0.24462360,0.34386738,0.46077087
38101,0,USNorthDakotaWard,North Dakota,Ward,2021-01-05 13:36:09.566947,2020-08-20 00:00:00.000000,1.09314478,1.65839107,2.36831644,739,1121,1601,336,552,846,0.49715357,0.81729872,1.25183296,0.23358361,0.34061204,0.45784296
38101,0,USNorthDakotaWard,North Dakota,Ward,2021-01-05 13:36:09.566947,2020-08-21 00:00:00.000000,1.12969291,1.70814458,2.44269727,764,1155,1652,348,566,873,0.51542935,0.83759848,1.29186401,0.22522980,0.33342757,0.45726342
38101,0,USNorthDakotaWard,North Dakota,Ward,2021-01-05 13:36:09.566947,2020-08-22 00:00:00.000000,1.16210861,1.76878906,2.47726558,786,1196,1675,360,578,901,0.53366938,0.85580109,1.33259728,0.22562927,0.32753119,0.45503061
38101,0,USNorthDakotaWard,North Dakota,Ward,2021-01-05 13:36:09.566947,2020-08-23 00:00:00.000000,1.21904959,1.83627672,2.54595364,824,1242,1722,373,599,929,0.55197076,0.88572321,1.37457848,0.22418892,0.31762146,0.44929532
38101,0,USNorthDakotaWard,North Dakota,Ward,2021-01-05 13:36:09.566947,2020-08-24 00:00:00.000000,1.28091454,1.89112437,2.63600753,866,1279,1783,385,614,960,0.57043991,0.90802465,1.41964858,0.22300888,0.31589694,0.42991434
38101,0,USNorthDakotaWard,North Dakota,Ward,2021-01-05 13:36:09.566947,2020-08-25 00:00:00.000000,1.34495582,1.93864387,2.73101931,909,1311,1847,399,633,992,0.59040901,0.93694589,1.46740832,0.21943970,0.31954775,0.45311500
38101,0,USNorthDakotaWard,North Dakota,Ward,2021-01-05 13:36:09.566947,2020-08-26 00:00:00.000000,1.39511791,1.99803509,2.83133504,943,1351,1915,413,653,1026,0.61154347,0.96683520,1.51765256,0.21915919,0.31833918,0.45440985
38101,0,USNorthDakotaWard,North Dakota,Ward,2021-01-05 13:36:09.566947,2020-08-27 00:00:00.000000,1.43281066,2.04349673,2.93635618,969,1382,1986,428,680,1061,0.63361344,1.00581696,1.56986201,0.21769184,0.31574167,0.45159350
38101,0,USNorthDakotaWard,North Dakota,Ward,2021-01-05 13:36:09.566947,2020-08-28 00:00:00.000000,1.48049893,2.09125384,2.98662215,1001,1414,2020,443,699,1097,0.65637829,1.03435845,1.62325258,0.20643593,0.31279492,0.44318266
38101,0,USNorthDakotaWard,North Dakota,Ward,2021-01-05 13:36:09.566947,2020-08-29 00:00:00.000000,1.52444978,2.13387053,3.02856241,1031,1443,2048,459,721,1133,0.67944093,1.06664588,1.67617146,0.19820677,0.31156134,0.41835136
38101,0,USNorthDakotaWard,North Dakota,Ward,2021-01-05 13:36:09.566947,2020-08-30 00:00:00.000000,1.57061453,2.18374663,3.07254537,1062,1477,2078,475,745,1167,0.70236896,1.10176138,1.72542499,0.19718040,0.31164303,0.40653175
38101,0,USNorthDakotaWard,North Dakota,Ward,2021-01-05 13:36:09.566947,2020-08-31 00:00:00.000000,1.61768950,2.24096593,3.14894121,1094,1515,2129,490,766,1195,0.72506143,1.13364696,1.76745654,0.19756802,0.31311254,0.40682348
38101,0,USNorthDakotaWard,North Dakota,Ward,2021-01-05 13:36:09.566947,2020-09-01 00:00:00.000000,1.66616107,2.30357659,3.26174284,1127,1558,2206,505,787,1218,0.74678427,1.16363083,1.80215010,0.19628464,0.31179472,0.41651955
38101,0,USNorthDakotaWard,North Dakota,Ward,2021-01-05 13:36:09.566947,2020-09-02 00:00:00.000000,1.71384219,2.34712278,3.38114379,1159,1587,2287,519,806,1243,0.76799415,1.19168807,1.83861379,0.19730713,0.31049891,0.41816155
38101,0,USNorthDakotaWard,North Dakota,Ward,2021-01-05 13:36:09.566947,2020-09-03 00:00:00.000000,1.75780693,2.39689845,3.50691549,1188,1621,2372,533,819,1285,0.78901784,1.21176100,1.90112006,0.20778572,0.30895409,0.41537371
38101,0,USNorthDakotaWard,North Dakota,Ward,2021-01-05 13:36:09.566947,2020-09-04 00:00:00.000000,1.80310930,2.45035323,3.63926851,1219,1657,2461,547,833,1325,0.81009901,1.23173512,1.95932024,0.21853008,0.30825335,0.42239770
38101,0,USNorthDakotaWard,North Dakota,Ward,2021-01-05 13:36:09.566947,2020-09-05 00:00:00.000000,1.84970851,2.51420271,3.77271925,1251,1700,2551,562,854,1363,0.83145405,1.26259677,2.01617481,0.21547107,0.30480414,0.41404604
38101,0,USNorthDakotaWard,North Dakota,Ward,2021-01-05 13:36:09.566947,2020-09-06 00:00:00.000000,1.89333016,2.56837461,3.87022407,1280,1737,2617,577,874,1398,0.85332065,1.29252400,2.06822547,0.21660070,0.30355590,0.40646538
38101,0,USNorthDakotaWard,North Dakota,Ward,2021-01-05 13:36:09.566947,2020-09-07 00:00:00.000000,1.94172438,2.64524525,3.97092232,1313,1789,2685,592,894,1430,0.87596140,1.32191088,2.11480578,0.21907312,0.30049255,0.40641999
38101,0,USNorthDakotaWard,North Dakota,Ward,2021-01-05 13:36:09.566947,2020-09-08 00:00:00.000000,1.99532726,2.69595295,4.00898755,1349,1823,2711,608,915,1457,0.89942053,1.35283719,2.15525128,0.22007290,0.29897224,0.40826618
38101,0,USNorthDakotaWard,North Dakota,Ward,2021-01-05 13:36:09.566947,2020-09-09 00:00:00.000000,2.05934406,2.76330052,4.08425474,1392,1869,2762,624,936,1480,0.92391319,1.38378878,2.18921319,0.21965928,0.29923512,0.41117324
38101,0,USNorthDakotaWard,North Dakota,Ward,2021-01-05 13:36:09.566947,2020-09-10 00:00:00.000000,2.12081225,2.78760791,4.17423135,1434,1885,2823,642,952,1519,0.94948127,1.40846298,2.24689815,0.21653478,0.30165568,0.41137825
38101,0,USNorthDakotaWard,North Dakota,Ward,2021-01-05 13:36:09.566947,2020-09-11 00:00:00.000000,2.17243690,2.85487505,4.25979006,1469,1931,2881,660,974,1559,0.97585864,1.43996641,2.30544116,0.21363396,0.30234999,0.41325558
38101,0,USNorthDakotaWard,North Dakota,Ward,2021-01-05 13:36:09.566947,2020-09-12 00:00:00.000000,2.21477032,2.91340012,4.33888300,1498,1970,2934,677,994,1598,1.00171736,1.46990803,2.36383681,0.21104026,0.30386307,0.41204432
38101,0,USNorthDakotaWard,North Dakota,Ward,2021-01-05 13:36:09.566947,2020-09-13 00:00:00.000000,2.25485948,2.99744990,4.41150497,1525,2027,2983,693,1017,1637,1.02561075,1.50363191,2.42156083,0.20702586,0.30460443,0.41678400
38101,0,USNorthDakotaWard,North Dakota,Ward,2021-01-05 13:36:09.566947,2020-09-14 00:00:00.000000,2.29099609,3.07724448,4.48314886,1549,2081,3032,708,1043,1676,1.04782149,1.54327808,2.47825076,0.20361730,0.30510667,0.42556800
38101,0,USNorthDakotaWard,North Dakota,Ward,2021-01-05 13:36:09.566947,2020-09-15 00:00:00.000000,2.31815623,3.14296895,4.56119774,1568,2125,3085,723,1073,1713,1.06898680,1.58718112,2.53359154,0.20108129,0.30389956,0.41128635
38101,0,USNorthDakotaWard,North Dakota,Ward,2021-01-05 13:36:09.566947,2020-09-16 00:00:00.000000,2.34352567,3.19702536,4.64657689,1585,2162,3142,736,1096,1750,1.08947604,1.62126259,2.58750032,0.19925957,0.30442177,0.41164833
38101,0,USNorthDakotaWard,North Dakota,Ward,2021-01-05 13:36:09.566947,2020-09-17 00:00:00.000000,2.36787085,3.26824852,4.73174334,1601,2210,3200,750,1123,1785,1.10951931,1.66073884,2.64000091,0.20289759,0.30112098,0.41202170
38101,0,USNorthDakotaWard,North Dakota,Ward,2021-01-05 13:36:09.566947,2020-09-18 00:00:00.000000,2.39164010,3.34322071,4.81397565,1617,2261,3256,763,1145,1820,1.12925708,1.69363015,2.69138318,0.21070309,0.29726984,0.41261170
38101,0,USNorthDakotaWard,North Dakota,Ward,2021-01-05 13:36:09.566947,2020-09-19 00:00:00.000000,2.41527054,3.37326432,4.89352001,1633,2281,3310,777,1175,1855,1.14875450,1.73731593,2.74350356,0.21872984,0.29625607,0.41737015
38101,0,USNorthDakotaWard,North Dakota,Ward,2021-01-05 13:36:09.566947,2020-09-20 00:00:00.000000,2.43946545,3.42489655,4.97131821,1650,2316,3362,790,1213,1893,1.16799206,1.79358593,2.80006362,0.23062841,0.29921253,0.41813354
38101,0,USNorthDakotaWard,North Dakota,Ward,2021-01-05 13:36:09.566947,2020-09-21 00:00:00.000000,2.46719592,3.46609599,5.05262594,1668,2344,3417,802,1235,1935,1.18698094,1.82659009,2.86134973,0.23214938,0.29532100,0.42420629
38101,0,USNorthDakotaWard,North Dakota,Ward,2021-01-05 13:36:09.566947,2020-09-22 00:00:00.000000,2.50071696,3.51958656,5.12247245,1691,2380,3464,815,1267,1979,1.20555363,1.87453316,2.92631326,0.23333612,0.29500339,0.43017907
38101,0,USNorthDakotaWard,North Dakota,Ward,2021-01-05 13:36:09.566947,2020-09-23 00:00:00.000000,2.54521989,3.63509526,5.24596009,1721,2458,3548,827,1290,2025,1.22394035,1.90810894,2.99426588,0.23531524,0.29921051,0.43425172
38101,0,USNorthDakotaWard,North Dakota,Ward,2021-01-05 13:36:09.566947,2020-09-24 00:00:00.000000,2.60401652,3.74110319,5.37527095,1761,2530,3635,840,1305,2073,1.24253849,1.92968511,3.06482153,0.24221965,0.30195721,0.43777224
38101,0,USNorthDakotaWard,North Dakota,Ward,2021-01-05 13:36:09.566947,2020-09-25 00:00:00.000000,2.67530734,3.80548620,5.49521955,1809,2574,3717,853,1324,2122,1.26232236,1.95791113,3.13793209,0.24432917,0.31441003,0.43882616
38101,0,USNorthDakotaWard,North Dakota,Ward,2021-01-05 13:36:09.566947,2020-09-26 00:00:00.000000,2.75491603,3.88110160,5.60633788,1863,2625,3792,869,1356,2173,1.28518581,2.00597828,3.21387788,0.24514370,0.32825545,0.45046515
38101,0,USNorthDakotaWard,North Dakota,Ward,2021-01-05 13:36:09.566947,2020-09-27 00:00:00.000000,2.83979387,3.95719231,5.74113592,1920,2676,3883,887,1384,2227,1.31276571,2.04663645,3.29310263,0.24740738,0.34314057,0.46513028
38101,0,USNorthDakotaWard,North Dakota,Ward,2021-01-05 13:36:09.566947,2020-09-28 00:00:00.000000,2.92701054,4.09729059,5.96505909,1979,2771,4034,909,1406,2283,1.34511039,2.07906351,3.37590691,0.25144760,0.35880834,0.47491777
38101,0,USNorthDakotaWard,North Dakota,Ward,2021-01-05 13:36:09.566947,2020-09-29 00:00:00.000000,3.01615053,4.26364431,6.15125327,2040,2883,4160,934,1456,2342,1.38149094,2.15345554,3.46275625,0.26325805,0.36475871,0.48995492
38101,0,USNorthDakotaWard,North Dakota,Ward,2021-01-05 13:36:09.566947,2020-09-30 00:00:00.000000,3.10576618,4.42909877,6.33909135,2100,2995,4287,962,1516,2403,1.42231282,2.24142372,3.55333682,0.26488675,0.37573310,0.49969881
38101,0,USNorthDakotaWard,North Dakota,Ward,2021-01-05 13:36:09.566947,2020-10-01 00:00:00.000000,3.19733035,4.59490403,6.53558283,2162,3108,4420,1000,1579,2477,1.47908642,2.33541204,3.66203871,0.27831106,0.38026981,0.50942712
38101,0,USNorthDakotaWard,North Dakota,Ward,2021-01-05 13:36:09.566947,2020-10-02 00:00:00.000000,3.29094514,4.84257251,6.82845585,2226,3275,4618,1043,1639,2538,1.54219978,2.42407061,3.75316797,0.28842421,0.39741563,0.52758281
38101,0,USNorthDakotaWard,North Dakota,Ward,2021-01-05 13:36:09.566947,2020-10-03 00:00:00.000000,3.38921202,5.09137971,7.18034813,2292,3443,4856,1089,1689,2625,1.61031536,2.49745190,3.88123566,0.30010778,0.41184351,0.57674930
38101,0,USNorthDakotaWard,North Dakota,Ward,2021-01-05 13:36:09.566947,2020-10-04 00:00:00.000000,3.49595659,5.32008317,7.54658792,2364,3598,5104,1137,1760,2727,1.68179775,2.60340041,4.03244307,0.30844798,0.43152559,0.61635207
38101,0,USNorthDakotaWard,North Dakota,Ward,2021-01-05 13:36:09.566947,2020-10-05 00:00:00.000000,3.66164406,5.53849919,7.92347524,2476,3746,5359,1187,1837,2843,1.75601806,2.71663595,4.20317468,0.31012994,0.43988971,0.64255750
38101,0,USNorthDakotaWard,North Dakota,Ward,2021-01-05 13:36:09.566947,2020-10-06 00:00:00.000000,3.90732416,5.81374590,8.31989291,2642,3932,5627,1240,1907,2968,1.83338594,2.81951421,4.38900084,0.31357149,0.44494013,0.65453460
38101,0,USNorthDakotaWard,North Dakota,Ward,2021-01-05 13:36:09.566947,2020-10-07 00:00:00.000000,4.16740180,6.09061205,8.70856774,2818,4119,5890,1295,1984,3104,1.91501884,2.93386960,4.58945270,0.32367920,0.46227719,0.67031859
38101,0,USNorthDakotaWard,North Dakota,Ward,2021-01-05 13:36:09.566947,2020-10-08 00:00:00.000000,4.44215148,6.42242309,9.16505738,3004,4344,6199,1355,2075,3224,2.00368120,3.06911154,4.76751691,0.33136014,0.48217303,0.67900296
38101,0,USNorthDakotaWard,North Dakota,Ward,2021-01-05 13:36:09.566947,2020-10-09 00:00:00.000000,4.73182970,6.81507535,9.69387351,3200,4609,6557,1423,2171,3364,2.10509272,3.21015163,4.97376613,0.35025520,0.49595888,0.69980959
38101,0,USNorthDakotaWard,North Dakota,Ward,2021-01-05 13:36:09.566947,2020-10-10 00:00:00.000000,5.05102613,7.19100916,10.31686727,3416,4864,6978,1505,2283,3532,2.22628460,3.37662097,5.22215777,0.37556419,0.51879409,0.71069001
38101,0,USNorthDakotaWard,North Dakota,Ward,2021-01-05 13:36:09.566947,2020-10-11 00:00:00.000000,5.47781858,7.65133627,10.82436460,3705,5175,7321,1603,2430,3733,2.37069106,3.59325281,5.51888952,0.38346554,0.53606192,0.71226674
38101,0,USNorthDakotaWard,North Dakota,Ward,2021-01-05 13:36:09.566947,2020-10-12 00:00:00.000000,5.94008235,8.08305305,11.45773963,4017,5467,7750,1716,2572,3928,2.53741886,3.80303954,5.80834723,0.38667802,0.54815897,0.71021391
38101,0,USNorthDakotaWard,North Dakota,Ward,2021-01-05 13:36:09.566947,2020-10-13 00:00:00.000000,6.38897302,8.63220938,12.13119796,4321,5838,8205,1842,2725,4137,2.72464691,4.02954120,6.11675940,0.39060222,0.55489608,0.72578964
38101,0,USNorthDakotaWard,North Dakota,Ward,2021-01-05 13:36:09.566947,2020-10-14 00:00:00.000000,6.83538329,9.22466024,12.84231117,4623,6239,8686,1981,2898,4373,2.93001246,4.28462227,6.46576858,0.39577552,0.56377809,0.72886173
38101,0,USNorthDakotaWard,North Dakota,Ward,2021-01-05 13:36:09.566947,2020-10-15 00:00:00.000000,7.30675766,9.80108129,13.55682298,4942,6629,9169,2132,3073,4624,3.15194596,4.54342428,6.83708769,0.43070743,0.57849450,0.74515098
38101,0,USNorthDakotaWard,North Dakota,Ward,2021-01-05 13:36:09.566947,2020-10-16 00:00:00.000000,7.74451607,10.39731520,14.28245751,5238,7032,9660,2292,3250,4893,3.38953361,4.80521633,7.23446065,0.44773855,0.59791812,0.77081920
38101,0,USNorthDakotaWard,North Dakota,Ward,2021-01-05 13:36:09.566947,2020-10-17 00:00:00.000000,8.26054887,11.08543432,15.07489573,5587,7498,10196,2463,3446,5186,3.64231189,5.09523921,7.66770153,0.45598896,0.61149011,0.79820596
38101,0,USNorthDakotaWard,North Dakota,Ward,2021-01-05 13:36:09.566947,2020-10-18 00:00:00.000000,8.87896685,11.82923725,16.22745682,6005,8001,10976,2628,3648,5474,3.88668323,5.39360306,8.09384855,0.47615918,0.63353460,0.82719687
38101,0,USNorthDakotaWard,North Dakota,Ward,2021-01-05 13:36:09.566947,2020-10-19 00:00:00.000000,9.53916166,12.61969181,17.36487268,6452,8536,11745,2807,3821,5787,4.15003203,5.64954881,8.55649869,0.49960002,0.64690929,0.86827240
38101,0,USNorthDakotaWard,North Dakota,Ward,2021-01-05 13:36:09.566947,2020-10-20 00:00:00.000000,10.18691263,13.45947508,18.57441423,6890,9104,12563,3021,4041,6164,4.46757774,5.97442134,9.11356582,0.51122586,0.66686116,0.87540158
38101,0,USNorthDakotaWard,North Dakota,Ward,2021-01-05 13:36:09.566947,2020-10-21 00:00:00.000000,10.87431978,14.36590766,20.02076106,7355,9717,13542,3252,4313,6626,4.80836636,6.37702744,9.79610798,0.53107835,0.67439951,0.88164592
38101,0,USNorthDakotaWard,North Dakota,Ward,2021-01-05 13:36:09.566947,2020-10-22 00:00:00.000000,11.61778155,15.32440043,21.49796274,7858,10365,14541,3488,4597,7023,5.15782007,6.79693139,10.38313488,0.53386167,0.69477596,0.90697128
38101,0,USNorthDakotaWard,North Dakota,Ward,2021-01-05 13:36:09.566947,2020-10-23 00:00:00.000000,12.43939995,16.21676899,22.99027016,8414,10969,15550,3748,4933,7445,5.54112414,7.29330741,11.00779569,0.53897454,0.70696543,0.91730958
38101,0,USNorthDakotaWard,North Dakota,Ward,2021-01-05 13:36:09.566947,2020-10-24 00:00:00.000000,13.36379683,17.15607390,24.47383545,9039,11604,16554,4027,5304,7955,5.95411436,7.84199074,11.76122968,0.56701925,0.72166258,0.94034294
38101,0,USNorthDakotaWard,North Dakota,Ward,2021-01-05 13:36:09.566947,2020-10-25 00:00:00.000000,14.40646593,18.27537669,25.92153057,9744,12361,17533,4309,5692,8508,6.37059883,8.41527967,12.57875692,0.58955676,0.73972645,0.95338455
38101,0,USNorthDakotaWard,North Dakota,Ward,2021-01-05 13:36:09.566947,2020-10-26 00:00:00.000000,15.40713906,19.48781823,27.72560938,10421,13181,18753,4600,6105,9107,6.80148551,9.02690659,13.46422922,0.59708050,0.75126467,0.95453630
38101,0,USNorthDakotaWard,North Dakota,Ward,2021-01-05 13:36:09.566947,2020-10-27 00:00:00.000000,16.44440291,20.58652570,29.51516291,11123,13924,19964,4901,6523,9694,7.24568380,9.64468496,14.33182161,0.60709203,0.75205504,0.94907716
38101,0,USNorthDakotaWard,North Dakota,Ward,2021-01-05 13:36:09.566947,2020-10-28 00:00:00.000000,17.22398071,21.57423614,31.15363940,11650,14593,21072,5207,6944,10171,7.69902437,10.26653222,15.03695802,0.60720533,0.73948076,0.93532296
38101,0,USNorthDakotaWard,North Dakota,Ward,2021-01-05 13:36:09.566947,2020-10-29 00:00:00.000000,17.95068383,22.65012999,32.25334774,12142,15320,21816,5517,7349,10855,8.15706478,10.86602742,16.04900482,0.60584469,0.73616854,0.92924248
38101,0,USNorthDakotaWard,North Dakota,Ward,2021-01-05 13:36:09.566947,2020-10-30 00:00:00.000000,18.60345578,23.66767152,33.85087952,12583,16009,22897,5787,7743,11545,8.55668119,11.44810387,17.06845470,0.59094667,0.71874438,0.92119931
38101,0,USNorthDakotaWard,North Dakota,Ward,2021-01-05 13:36:09.566947,2020-10-31 00:00:00.000000,19.16001415,24.53712542,35.23547011,12960,16597,23833,6030,8133,12220,8.91573586,12.02384787,18.06699126,0.57919331,0.70327644,0.92034784
38101,0,USNorthDakotaWard,North Dakota,Ward,2021-01-05 13:36:09.566947,2020-11-01 00:00:00.000000,19.60309325,25.35865087,36.01184558,13259,17152,24358,6318,8510,12882,9.34153306,12.58167867,19.04609900,0.55328479,0.67909383,0.86575225
38101,0,USNorthDakotaWard,North Dakota,Ward,2021-01-05 13:36:09.566947,2020-11-02 00:00:00.000000,19.92477971,26.15196298,36.17611166,13477,17689,24469,6643,8874,13494,9.82109884,13.11969731,19.95056528,0.51574760,0.65192771,0.84615758
38101,0,USNorthDakotaWard,North Dakota,Ward,2021-01-05 13:36:09.566947,2020-11-03 00:00:00.000000,20.11619202,26.76660172,36.15681265,13606,18105,24456,6830,9173,13955,10.09743217,13.56227281,20.63171288,0.48919743,0.62846109,0.82442518
38101,0,USNorthDakotaWard,North Dakota,Ward,2021-01-05 13:36:09.566947,2020-11-04 00:00:00.000000,20.37109605,26.97020050,36.00890125,13779,18242,24356,6975,9460,14243,10.31299102,13.98636079,21.05748720,0.48095134,0.60954832,0.79937585
38101,0,USNorthDakotaWard,North Dakota,Ward,2021-01-05 13:36:09.566947,2020-11-05 00:00:00.000000,20.66929175,27.28095830,35.78631751,13980,18453,24206,7084,9691,14440,10.47345023,14.32718308,21.34867846,0.47327572,0.57919178,0.77358507
38101,0,USNorthDakotaWard,North Dakota,Ward,2021-01-05 13:36:09.566947,2020-11-06 00:00:00.000000,20.69593075,26.93300740,35.46961394,13998,18217,23992,7156,9873,14557,10.57959972,14.59750816,21.52178597,0.43060789,0.55779526,0.75491353
38101,0,USNorthDakotaWard,North Dakota,Ward,2021-01-05 13:36:09.566947,2020-11-07 00:00:00.000000,20.16859468,26.78244080,34.95831764,13642,18115,23646,7189,9892,14603,10.62825315,14.62520123,21.58949730,0.38044940,0.53414085,0.73368109
38101,0,USNorthDakotaWard,North Dakota,Ward,2021-01-05 13:36:09.566947,2020-11-08 00:00:00.000000,19.55875071,26.54210192,34.34410858,13229,17953,23230,7180,9835,14590,10.61503785,14.54146776,21.57044573,0.37290239,0.51376544,0.73069348
38101,0,USNorthDakotaWard,North Dakota,Ward,2021-01-05 13:36:09.566947,2020-11-09 00:00:00.000000,18.89999586,26.06919982,33.73304649,12784,17633,22817,7128,9826,14518,10.53857989,14.52807064,21.46421048,0.34549488,0.49286133,0.71691918
38101,0,USNorthDakotaWard,North Dakota,Ward,2021-01-05 13:36:09.566947,2020-11-10 00:00:00.000000,18.20704076,25.51840427,32.94826684,12315,17260,22286,7036,9747,14384,10.40324888,14.41069680,21.26665225,0.33705998,0.47168896,0.71592985
38101,0,USNorthDakotaWard,North Dakota,Ward,2021-01-05 13:36:09.566947,2020-11-11 00:00:00.000000,17.49549507,24.79001231,32.43612527,11834,16768,21940,6816,9604,14190,10.07740233,14.19925303,20.97966334,0.31687983,0.45944523,0.71303049
38101,0,USNorthDakotaWard,North Dakota,Ward,2021-01-05 13:36:09.566947,2020-11-12 00:00:00.000000,16.77684489,24.06328115,31.88944777,11348,16276,21570,6580,9478,13961,9.72827991,14.01313907,20.64099020,0.30339962,0.44539352,0.70633444
38101,0,USNorthDakotaWard,North Dakota,Ward,2021-01-05 13:36:09.566947,2020-11-13 00:00:00.000000,16.05922125,23.36704293,31.11917354,10862,15805,21049,6334,9342,13681,9.36468718,13.81238674,20.22696799,0.30221834,0.43660775,0.69132794
38101,0,USNorthDakotaWard,North Dakota,Ward,2021-01-05 13:36:09.566947,2020-11-14 00:00:00.000000,15.34772499,22.47492233,30.13059410,10381,15202,20380,6083,9146,13354,8.99333723,13.52228390,19.74322220,0.28822939,0.42210073,0.68958930
38101,0,USNorthDakotaWard,North Dakota,Ward,2021-01-05 13:36:09.566947,2020-11-15 00:00:00.000000,14.64511713,21.46260962,29.11033396,9906,14517,19690,5830,8910,13119,8.61915926,13.17312733,19.39549828,0.28408003,0.41988260,0.65290655
38101,0,USNorthDakotaWard,North Dakota,Ward,2021-01-05 13:36:09.566947,2020-11-16 00:00:00.000000,13.94886913,20.41686306,28.07387811,9435,13810,18989,5577,8652,12915,8.24553691,12.79197375,19.09445169,0.28302727,0.41647146,0.63705223
38101,0,USNorthDakotaWard,North Dakota,Ward,2021-01-05 13:36:09.566947,2020-11-17 00:00:00.000000,13.26399770,19.43041925,27.02852049,8971,13142,18282,5325,8372,12626,7.87377769,12.37841217,18.66731491,0.27578120,0.41172059,0.65502685
38101,0,USNorthDakotaWard,North Dakota,Ward,2021-01-05 13:36:09.566947,2020-11-18 00:00:00.000000,12.59182421,18.44310480,25.98191160,8517,12475,17574,5076,8042,12271,7.50569517,11.88945951,18.14279999,0.27583516,0.40993422,0.62079797
38101,0,USNorthDakotaWard,North Dakota,Ward,2021-01-05 13:36:09.566947,2020-11-19 00:00:00.000000,11.93411775,17.55145629,24.93957412,8072,11871,16869,4799,7771,11870,7.09586128,11.48891581,17.54871197,0.27687395,0.41048334,0.61092989
38101,0,USNorthDakotaWard,North Dakota,Ward,2021-01-05 13:36:09.566947,2020-11-20 00:00:00.000000,11.29278656,16.76978413,23.90299842,7638,11343,16168,4517,7475,11435,6.67836301,11.05116304,16.90566161,0.27753896,0.41532304,0.60049645
38101,0,USNorthDakotaWard,North Dakota,Ward,2021-01-05 13:36:09.566947,2020-11-21 00:00:00.000000,10.60193232,16.00074871,22.88160694,7171,10823,15477,4240,7158,10976,6.26933565,10.58379442,16.22750028,0.28055060,0.40822801,0.60281580
38101,0,USNorthDakotaWard,North Dakota,Ward,2021-01-05 13:36:09.566947,2020-11-22 00:00:00.000000,9.88471792,15.24601376,21.87872740,6686,10312,14798,3972,6837,10503,5.87308856,10.10873280,15.52821508,0.27867562,0.40918951,0.60805212
38101,0,USNorthDakotaWard,North Dakota,Ward,2021-01-05 13:36:09.566947,2020-11-23 00:00:00.000000,9.22445222,14.50566325,20.89547162,6239,9811,14133,3715,6503,10024,5.49292363,9.61498138,14.82039679,0.27609098,0.41086908,0.64074810
38101,0,USNorthDakotaWard,North Dakota,Ward,2021-01-05 13:36:09.566947,2020-11-24 00:00:00.000000,8.62689670,13.77186797,19.93487472,5835,9315,13484,3472,6146,9577,5.13334563,9.08732993,14.15890881,0.28042251,0.41016391,0.63584855
38101,0,USNorthDakotaWard,North Dakota,Ward,2021-01-05 13:36:09.566947,2020-11-25 00:00:00.000000,8.07476546,13.03484753,18.99675852,5461,8816,12849,3245,5794,9229,4.79829216,8.56639839,13.64426913,0.28062155,0.41066793,0.63229968
38101,0,USNorthDakotaWard,North Dakota,Ward,2021-01-05 13:36:09.566947,2020-11-26 00:00:00.000000,7.55808481,12.32135807,18.08056019,5112,8334,12229,3035,5468,8881,4.48710356,8.08511664,13.12972608,0.28007104,0.41639134,0.64420078
38101,0,USNorthDakotaWard,North Dakota,Ward,2021-01-05 13:36:09.566947,2020-11-27 00:00:00.000000,7.07318591,11.64077004,17.18843189,4784,7873,11626,2839,5197,8534,4.19741951,7.68376079,12.61727428,0.27973863,0.43262904,0.66992422
38101,0,USNorthDakotaWard,North Dakota,Ward,2021-01-05 13:36:09.566947,2020-11-28 00:00:00.000000,6.61641097,10.93722519,16.32477541,4475,7398,11042,2656,4949,8190,3.92702464,7.31693836,12.10864667,0.27982543,0.43882643,0.70918177
38101,0,USNorthDakotaWard,North Dakota,Ward,2021-01-05 13:36:09.566947,2020-11-29 00:00:00.000000,6.17986110,10.26215649,15.53140796,4180,6941,10505,2485,4704,7849,3.67385344,6.95460434,11.60532734,0.28017760,0.44347165,0.73076378
38101,0,USNorthDakotaWard,North Dakota,Ward,2021-01-05 13:36:09.566947,2020-11-30 00:00:00.000000,5.76076336,9.65248584,14.80164145,3896,6529,10011,2323,4463,7514,3.43517138,6.59900394,11.10869546,0.28089631,0.44479364,0.73620358
38101,0,USNorthDakotaWard,North Dakota,Ward,2021-01-05 13:36:09.566947,2020-12-01 00:00:00.000000,5.36647024,9.13803592,14.09841583,3629,6181,9536,2170,4229,7183,3.20873115,6.25240207,10.62025708,0.28197277,0.44547763,0.73705855
38101,0,USNorthDakotaWard,North Dakota,Ward,2021-01-05 13:36:09.566947,2020-12-02 00:00:00.000000,4.99666755,8.66779337,13.42500568,3379,5862,9080,2025,4002,6859,2.99446162,5.91686168,10.14142449,0.28326732,0.45591561,0.73704534
38101,0,USNorthDakotaWard,North Dakota,Ward,2021-01-05 13:36:09.566947,2020-12-03 00:00:00.000000,4.65053342,8.17259495,12.78779321,3145,5528,8649,1888,3784,6543,2.79232584,5.59445803,9.67361841,0.28479519,0.46756461,0.74965576
38101,0,USNorthDakotaWard,North Dakota,Ward,2021-01-05 13:36:09.566947,2020-12-04 00:00:00.000000,4.32728303,7.72911624,12.19203866,2927,5228,8246,1760,3576,6235,2.60215334,5.28731672,9.21845288,0.28711963,0.47920775,0.88045376
38101,0,USNorthDakotaWard,North Dakota,Ward,2021-01-05 13:36:09.566947,2020-12-05 00:00:00.000000,4.02651272,7.35954141,11.60584989,2723,4978,7850,1639,3380,5937,2.42369091,4.99702800,8.77809455,0.28936380,0.48017610,0.91305014
38101,0,USNorthDakotaWard,North Dakota,Ward,2021-01-05 13:36:09.566947,2020-12-06 00:00:00.000000,3.74926319,6.96150413,11.01711397,2536,4708,7452,1526,3188,5651,2.25670677,4.71420060,8.35495035,0.28097060,0.46229705,0.95639091
38101,0,USNorthDakotaWard,North Dakota,Ward,2021-01-05 13:36:09.566947,2020-12-07 00:00:00.000000,3.49940160,6.57451176,10.46192302,2367,4447,7076,1421,3008,5377,2.10125466,4.44841102,7.95012863,0.27783207,0.46839061,0.97067788
38101,0,USNorthDakotaWard,North Dakota,Ward,2021-01-05 13:36:09.566947,2020-12-08 00:00:00.000000,3.27476715,6.20679413,9.93879293,2215,4198,6722,1324,2858,5116,1.95807826,4.22542284,7.56356529,0.27694144,0.48645218,0.97161862
38101,0,USNorthDakotaWard,North Dakota,Ward,2021-01-05 13:36:09.566947,2020-12-09 00:00:00.000000,3.03468449,5.85995900,9.44691972,2052,3963,6389,1235,2704,4866,1.82725174,3.99772003,7.19418337,0.28501798,0.49284185,0.97123060
38101,0,USNorthDakotaWard,North Dakota,Ward,2021-01-05 13:36:09.566947,2020-12-10 00:00:00.000000,2.87542616,5.53738451,8.98685128,1944,3745,6078,1155,2555,4627,1.70832889,3.77800618,6.84097794,0.29186019,0.50592626,0.94463372
38101,0,USNorthDakotaWard,North Dakota,Ward,2021-01-05 13:36:09.566947,2020-12-11 00:00:00.000000,2.72313444,5.21255657,8.55983017,1841,3525,5789,1082,2407,4398,1.60061228,3.55929328,6.50317862,0.29765843,0.51285333,0.92232971
38101,0,USNorthDakotaWard,North Dakota,Ward,2021-01-05 13:36:09.566947,2020-12-12 00:00:00.000000,2.57077360,4.89147904,8.16193442,1738,3308,5520,1016,2267,4180,1.50304297,3.35288850,6.18024061,0.30320797,0.52041925,0.92373735
38101,0,USNorthDakotaWard,North Dakota,Ward,2021-01-05 13:36:09.566947,2020-12-13 00:00:00.000000,2.42988959,4.58398017,7.78614944,1643,3100,5266,956,2136,3971,1.41431497,3.15871148,5.87174413,0.30711424,0.53500368,0.92645153
38101,0,USNorthDakotaWard,North Dakota,Ward,2021-01-05 13:36:09.566947,2020-12-14 00:00:00.000000,2.27352923,4.31707931,7.43522957,1537,2920,5029,890,2006,3772,1.31650802,2.96654954,5.57727013,0.31032273,0.55771616,0.93854854
38101,0,USNorthDakotaWard,North Dakota,Ward,2021-01-05 13:36:09.566947,2020-12-15 00:00:00.000000,2.10961833,4.06241806,7.09874732,1426,2747,4801,843,1879,3582,1.24704718,2.77925405,5.29573934,0.32280750,0.56367026,0.97808464
38101,0,USNorthDakotaWard,North Dakota,Ward,2021-01-05 13:36:09.566947,2020-12-16 00:00:00.000000,1.95680873,3.83109926,6.77865864,1323,2591,4585,793,1760,3400,1.17327517,2.60225264,5.02678929,0.34074934,0.56256401,0.98978166
38101,0,USNorthDakotaWard,North Dakota,Ward,2021-01-05 13:36:09.566947,2020-12-17 00:00:00.000000,1.81458406,3.62895470,6.47469420,1227,2454,4379,744,1652,3226,1.10111052,2.44339689,4.77015795,0.34328570,0.57109485,1.01572269
38101,0,USNorthDakotaWard,North Dakota,Ward,2021-01-05 13:36:09.566947,2020-12-18 00:00:00.000000,1.68240238,3.45914049,6.18548547,1137,2339,4183,699,1552,3061,1.03359175,2.29548640,4.52577333,0.37122580,0.57456089,1.09507463
38101,0,USNorthDakotaWard,North Dakota,Ward,2021-01-05 13:36:09.566947,2020-12-19 00:00:00.000000,1.55971239,3.26976508,5.90920889,1055,2211,3997,656,1458,2917,0.97027867,2.15676898,4.31269981,0.38625808,0.61150262,1.17637509
38101,0,USNorthDakotaWard,North Dakota,Ward,2021-01-05 13:36:09.566947,2020-12-20 00:00:00.000000,1.44596180,3.11876260,5.61345112,978,2109,3796,616,1374,2790,0.91082418,2.03238550,4.12569912,0.37626406,0.63566623,1.25280631
38101,0,USNorthDakotaWard,North Dakota,Ward,2021-01-05 13:36:09.566947,2020-12-21 00:00:00.000000,1.33882376,2.97358278,5.32899464,905,2011,3604,578,1303,2669,0.85494608,1.92664896,3.94658830,0.36663921,0.64402732,1.28994117
38101,0,USNorthDakotaWard,North Dakota,Ward,2021-01-05 13:36:09.566947,2020-12-22 00:00:00.000000,1.25534708,2.82801038,5.05714451,849,1912,3420,543,1246,2552,0.80355242,1.84223655,3.77356706,0.36103018,0.65749786,1.29381378
38101,0,USNorthDakotaWard,North Dakota,Ward,2021-01-05 13:36:09.566947,2020-12-23 00:00:00.000000,1.20315084,2.66762505,4.79741960,813,1804,3245,509,1182,2439,0.75311350,1.74770458,3.60658260,0.35741591,0.67140449,1.27761876
38101,0,USNorthDakotaWard,North Dakota,Ward,2021-01-05 13:36:09.566947,2020-12-24 00:00:00.000000,1.15367792,2.51940081,4.54853192,780,1704,3076,471,1121,2330,0.69739668,1.65760236,3.44557063,0.35251111,0.67166434,1.25332218
38101,0,USNorthDakotaWard,North Dakota,Ward,2021-01-05 13:36:09.566947,2020-12-25 00:00:00.000000,1.10587914,2.37900692,4.30691743,748,1609,2913,436,1058,2225,0.64562375,1.56496489,3.29045907,0.33515476,0.70419056,1.23097577
38101,0,USNorthDakotaWard,North Dakota,Ward,2021-01-05 13:36:09.566947,2020-12-26 00:00:00.000000,1.01553824,2.26663197,4.07276877,686,1533,2754,404,996,2124,0.59758520,1.47352200,3.14115672,0.32993832,0.70132684,1.21533117
38101,0,USNorthDakotaWard,North Dakota,Ward,2021-01-05 13:36:09.566947,2020-12-27 00:00:00.000000,0.93266565,2.16355411,3.84727996,630,1463,2602,374,939,2027,0.55313023,1.38877502,2.99754442,0.32794509,0.70240183,1.21562368
38101,0,USNorthDakotaWard,North Dakota,Ward,2021-01-05 13:36:09.566947,2020-12-28 00:00:00.000000,0.85571074,2.06138163,3.63009337,578,1394,2455,355,886,1934,0.52610618,1.30988892,2.85946489,0.32861804,0.70418568,1.22414456
38101,0,USNorthDakotaWard,North Dakota,Ward,2021-01-05 13:36:09.566947,2020-12-29 00:00:00.000000,0.79148485,1.94067820,3.48429494,535,1312,2356,339,840,1843,0.50166789,1.24302201,2.72603551,0.33114689,0.71383461,1.22172377
38101,0,USNorthDakotaWard,North Dakota,Ward,2021-01-05 13:36:09.566947,2020-12-30 00:00:00.000000,0.74646068,1.82619361,3.34460828,504,1235,2262,322,795,1756,0.47679774,1.17665128,2.59716653,0.33613702,0.72161878,1.26418387
38101,0,USNorthDakotaWard,North Dakota,Ward,2021-01-05 13:36:09.566947,2020-12-31 00:00:00.000000,0.70507033,1.71952697,3.20956957,476,1163,2170,305,753,1672,0.45148825,1.11330066,2.47213437,0.34324231,0.72829931,1.32635446
38101,0,USNorthDakotaWard,North Dakota,Ward,2021-01-05 13:36:09.566947,2021-01-01 00:00:00.000000,0.66634573,1.63281972,3.07899179,450,1104,2082,281,712,1589,0.41567178,1.05295194,2.35028699,0.35217146,0.73781059,1.37552838
38101,0,USNorthDakotaWard,North Dakota,Ward,2021-01-05 13:36:09.566947,2021-01-02 00:00:00.000000,0.62984284,1.55096828,2.95275190,426,1049,1997,259,673,1509,0.38362028,0.99556941,2.23213982,0.37168936,0.73733044,1.35325042
38101,0,USNorthDakotaWard,North Dakota,Ward,2021-01-05 13:36:09.566947,2021-01-03 00:00:00.000000,0.59539519,1.45746462,2.83076682,402,985,1914,245,639,1432,0.36228588,0.94517275,2.11820561,0.36198533,0.73032149,1.37385882
38101,0,USNorthDakotaWard,North Dakota,Ward,2021-01-05 13:36:09.566947,2021-01-04 00:00:00.000000,0.55828112,1.36020001,2.71295817,377,920,1835,231,607,1358,0.34227231,0.89836121,2.00867438,0.34732607,0.72326533,1.41874638
38101,0,USNorthDakotaWard,North Dakota,Ward,2021-01-05 13:36:09.566947,2021-01-05 00:00:00.000000,0.51531724,1.27473965,2.59879775,348,862,1757,218,574,1287,0.32344318,0.84878779,1.90362338,0.33902187,0.71232412,1.42061632
38101,0,USNorthDakotaWard,North Dakota,Ward,2021-01-05 13:36:09.566947,2021-01-06 00:00:00.000000,0.47559815,1.20985492,2.45562948,321,818,1661,202,545,1237,0.29926367,0.80719975,1.82945919,0.33634236,0.71128935,1.42139423
38101,0,USNorthDakotaWard,North Dakota,Ward,2021-01-05 13:36:09.566947,2021-01-07 00:00:00.000000,0.43888894,1.15088158,2.31929294,296,778,1568,186,515,1190,0.27627042,0.76166582,1.75951977,0.33376125,0.71097731,1.42796740
38101,0,USNorthDakotaWard,North Dakota,Ward,2021-01-05 13:36:09.566947,2021-01-08 00:00:00.000000,0.40496991,1.09062636,2.19001184,273,737,1481,172,485,1144,0.25500678,0.71740760,1.69157691,0.33242499,0.71097356,1.42823402
38101,0,USNorthDakotaWard,North Dakota,Ward,2021-01-05 13:36:09.566947,2021-01-09 00:00:00.000000,0.37363594,1.02898761,2.10010460,252,696,1420,159,459,1099,0.23534887,0.67944502,1.62562987,0.33174463,0.71105459,1.42823820
38101,0,USNorthDakotaWard,North Dakota,Ward,2021-01-05 13:36:09.566947,2021-01-10 00:00:00.000000,0.34469583,0.97262386,2.01530011,233,657,1363,146,433,1056,0.21718057,0.64118082,1.56167310,0.33140111,0.71113768,1.42823947
38101,0,USNorthDakotaWard,North Dakota,Ward,2021-01-05 13:36:09.566947,2021-01-11 00:00:00.000000,0.31797153,0.92474894,1.93750207,215,625,1310,135,407,1014,0.20039323,0.60301743,1.49969626,0.33122837,0.71120142,1.42823984
38101,0,USNorthDakotaWard,North Dakota,Ward,2021-01-05 13:36:09.566947,2021-01-12 00:00:00.000000,0.29329747,0.88364612,1.85583952,198,597,1255,125,386,973,0.18488541,0.57107498,1.43968448,0.33114166,0.71124527,1.42823995
38101,0,USNorthDakotaWard,North Dakota,Ward,2021-01-05 13:36:09.566947,2021-01-13 00:00:00.000000,0.27054960,0.83030971,1.77951309,183,561,1203,115,366,927,0.17056250,0.54172747,1.37169200,0.33109818,0.71127389,1.42823999
38101,0,USNorthDakotaWard,North Dakota,Ward,2021-01-05 13:36:09.566947,2021-01-14 00:00:00.000000,0.24955696,0.78017489,1.70583982,168,527,1153,106,347,882,0.15733639,0.51386910,1.30479154,0.33107637,0.71129205,1.42824000
38101,0,USNorthDakotaWard,North Dakota,Ward,2021-01-05 13:36:09.566947,2021-01-15 00:00:00.000000,0.23017964,0.73304908,1.63477233,155,495,1105,98,329,839,0.14512513,0.48751610,1.24092935,0.33106543,0.71130338,1.42824000
38101,0,USNorthDakotaWard,North Dakota,Ward,2021-01-05 13:36:09.566947,2021-01-16 00:00:00.000000,0.21229542,0.68875210,1.56625945,143,465,1059,90,313,798,0.13385255,0.46331365,1.17998459,0.33105994,0.71131038,1.42824000
38101,0,USNorthDakotaWard,North Dakota,Ward,2021-01-05 13:36:09.566947,2021-01-17 00:00:00.000000,0.19579099,0.64884279,1.50024688,132,438,1014,83,297,758,0.12344794,0.44028063,1.12184059,0.33105718,0.71131467,1.42824000
