FIPS,HR_UID,nameid,province,region,analysisTime,dates,pointprevalence_025,pointprevalence_50,pointprevalence_975,pointinfections_025,pointinfections_50,pointinfections_975,pointinfectious_025,pointinfectious_50,pointinfectious_975,pointinfectiousprevalence_05,pointinfectiousprevalence_50,pointinfectiousprevalence_95,infectrate_025,infectrate_50,infectrate_975
0,0,CanadaNewBrunswick,New Brunswick,,2021-01-17 16:34:32.534203,2020-03-09 00:00:00.000000,0.00104418,0.00247471,0.00538367,8,19,41,2,8,18,0.00027480,0.00105884,0.00239157,0.64981071,0.82262461,0.99724825
0,0,CanadaNewBrunswick,New Brunswick,,2021-01-17 16:34:32.534203,2020-03-10 00:00:00.000000,0.00155471,0.00319997,0.00649804,12,24,50,4,11,23,0.00054873,0.00143596,0.00296523,0.64980138,0.82262423,0.99724757
0,0,CanadaNewBrunswick,New Brunswick,,2021-01-17 16:34:32.534203,2020-03-11 00:00:00.000000,0.00218671,0.00392497,0.00775225,17,30,60,6,14,29,0.00081571,0.00183256,0.00381380,0.64978301,0.82262342,0.99724620
0,0,CanadaNewBrunswick,New Brunswick,,2021-01-17 16:34:32.534203,2020-03-12 00:00:00.000000,0.00270993,0.00483284,0.00919356,21,37,71,9,17,36,0.00120736,0.00229218,0.00462227,0.64974689,0.82262170,0.99724341
0,0,CanadaNewBrunswick,New Brunswick,,2021-01-17 16:34:32.534203,2020-03-13 00:00:00.000000,0.00332361,0.00596016,0.01074260,25,46,83,12,21,42,0.00163612,0.00279081,0.00550665,0.64967604,0.82261806,0.99723778
0,0,CanadaNewBrunswick,New Brunswick,,2021-01-17 16:34:32.534203,2020-03-14 00:00:00.000000,0.00404411,0.00710897,0.01282871,31,55,100,15,27,52,0.00201350,0.00348044,0.00675690,0.64953760,0.82244853,0.99722635
0,0,CanadaNewBrunswick,New Brunswick,,2021-01-17 16:34:32.534203,2020-03-15 00:00:00.000000,0.00487274,0.00850719,0.01556152,38,66,121,18,32,62,0.00242804,0.00422354,0.00804982,0.64926889,0.82025349,0.99720318
0,0,CanadaNewBrunswick,New Brunswick,,2021-01-17 16:34:32.534203,2020-03-16 00:00:00.000000,0.00592355,0.01023726,0.01887958,46,79,147,21,39,74,0.00270312,0.00509705,0.00949103,0.63284567,0.81442366,0.99715621
0,0,CanadaNewBrunswick,New Brunswick,,2021-01-17 16:34:32.534203,2020-03-17 00:00:00.000000,0.00705654,0.01217178,0.02264911,55,94,176,25,47,86,0.00325515,0.00609840,0.01108952,0.63568733,0.81284433,0.99706110
0,0,CanadaNewBrunswick,New Brunswick,,2021-01-17 16:34:32.534203,2020-03-18 00:00:00.000000,0.00814061,0.01420327,0.02615483,63,110,204,30,55,103,0.00389995,0.00716528,0.01323500,0.64503201,0.81048302,0.99686851
0,0,CanadaNewBrunswick,New Brunswick,,2021-01-17 16:34:32.534203,2020-03-19 00:00:00.000000,0.00924051,0.01613644,0.03011517,72,125,234,35,65,123,0.00461377,0.00834603,0.01579684,0.65289393,0.80654049,0.99646910
0,0,CanadaNewBrunswick,New Brunswick,,2021-01-17 16:34:32.534203,2020-03-20 00:00:00.000000,0.01035907,0.01883473,0.03455984,80,146,269,41,75,145,0.00535550,0.00963238,0.01868671,0.63612038,0.78659287,0.99121894
0,0,CanadaNewBrunswick,New Brunswick,,2021-01-17 16:34:32.534203,2020-03-21 00:00:00.000000,0.01176989,0.02175131,0.03865434,91,169,301,46,85,169,0.00600012,0.01092874,0.02175680,0.59041536,0.76357981,0.94139317
0,0,CanadaNewBrunswick,New Brunswick,,2021-01-17 16:34:32.534203,2020-03-22 00:00:00.000000,0.01342971,0.02525901,0.04399246,104,197,343,53,96,193,0.00681865,0.01243358,0.02483386,0.54446902,0.72320266,0.92280555
0,0,CanadaNewBrunswick,New Brunswick,,2021-01-17 16:34:32.534203,2020-03-23 00:00:00.000000,0.01505062,0.02756395,0.04859226,117,214,379,60,110,217,0.00779237,0.01420393,0.02792708,0.51901563,0.71549221,0.90528798
0,0,CanadaNewBrunswick,New Brunswick,,2021-01-17 16:34:32.534203,2020-03-24 00:00:00.000000,0.01669479,0.02986270,0.05331835,130,232,415,68,124,244,0.00875385,0.01592673,0.03128656,0.46123608,0.65546713,0.85031249
0,0,CanadaNewBrunswick,New Brunswick,,2021-01-17 16:34:32.534203,2020-03-25 00:00:00.000000,0.01835414,0.03269454,0.05815359,143,255,453,75,136,276,0.00972431,0.01744775,0.03541132,0.44799778,0.60979539,0.82505321
0,0,CanadaNewBrunswick,New Brunswick,,2021-01-17 16:34:32.534203,2020-03-26 00:00:00.000000,0.02000857,0.03596842,0.06292543,156,280,490,83,148,300,0.01069445,0.01907278,0.03857072,0.41592060,0.56965992,0.77385212
0,0,CanadaNewBrunswick,New Brunswick,,2021-01-17 16:34:32.534203,2020-03-27 00:00:00.000000,0.02161887,0.03833858,0.06722484,168,299,524,90,162,325,0.01157026,0.02085637,0.04174778,0.33391844,0.52219434,0.72913905
0,0,CanadaNewBrunswick,New Brunswick,,2021-01-17 16:34:32.534203,2020-03-28 00:00:00.000000,0.02271352,0.04002527,0.06992329,177,312,545,96,173,350,0.01236983,0.02225310,0.04489655,0.29250737,0.46590432,0.72419950
0,0,CanadaNewBrunswick,New Brunswick,,2021-01-17 16:34:32.534203,2020-03-29 00:00:00.000000,0.02379208,0.04049752,0.07149769,185,315,557,104,181,365,0.01341332,0.02329091,0.04680951,0.23683752,0.39928526,0.69975146
0,0,CanadaNewBrunswick,New Brunswick,,2021-01-17 16:34:32.534203,2020-03-30 00:00:00.000000,0.02357653,0.04000374,0.07193626,183,312,561,111,184,373,0.01424069,0.02369617,0.04793674,0.22296436,0.35362703,0.58951027
0,0,CanadaNewBrunswick,New Brunswick,,2021-01-17 16:34:32.534203,2020-03-31 00:00:00.000000,0.02314247,0.03905968,0.07134215,180,304,556,111,182,376,0.01429056,0.02343273,0.04829947,0.20623689,0.31380932,0.49549522
0,0,CanadaNewBrunswick,New Brunswick,,2021-01-17 16:34:32.534203,2020-04-01 00:00:00.000000,0.02236546,0.03743832,0.06987680,174,292,545,108,178,374,0.01395778,0.02283428,0.04795797,0.17941961,0.29340159,0.44289313
0,0,CanadaNewBrunswick,New Brunswick,,2021-01-17 16:34:32.534203,2020-04-02 00:00:00.000000,0.02138122,0.03545185,0.06771868,166,276,528,105,171,366,0.01347729,0.02195483,0.04702092,0.16126944,0.26468692,0.41512961
0,0,CanadaNewBrunswick,New Brunswick,,2021-01-17 16:34:32.534203,2020-04-03 00:00:00.000000,0.02025815,0.03314169,0.06522464,158,258,508,100,161,355,0.01288226,0.02065286,0.04560974,0.15211882,0.23552120,0.38065454
0,0,CanadaNewBrunswick,New Brunswick,,2021-01-17 16:34:32.534203,2020-04-04 00:00:00.000000,0.01938166,0.03073617,0.06271407,151,239,489,95,150,341,0.01220372,0.01928648,0.04384250,0.14195472,0.21377801,0.33587670
0,0,CanadaNewBrunswick,New Brunswick,,2021-01-17 16:34:32.534203,2020-04-05 00:00:00.000000,0.01857297,0.02835363,0.05959978,144,221,464,89,140,326,0.01147939,0.01798206,0.04182084,0.13475183,0.19661686,0.28386027
0,0,CanadaNewBrunswick,New Brunswick,,2021-01-17 16:34:32.534203,2020-04-06 00:00:00.000000,0.01691346,0.02589954,0.05671158,131,202,442,83,128,309,0.01069360,0.01647042,0.03961970,0.13153309,0.18781931,0.27367354
0,0,CanadaNewBrunswick,New Brunswick,,2021-01-17 16:34:32.534203,2020-04-07 00:00:00.000000,0.01540870,0.02372036,0.05386463,120,185,420,78,117,292,0.01003021,0.01512720,0.03754744,0.12848491,0.18310883,0.25461317
0,0,CanadaNewBrunswick,New Brunswick,,2021-01-17 16:34:32.534203,2020-04-08 00:00:00.000000,0.01370943,0.02157480,0.05115454,106,168,399,70,107,277,0.00897591,0.01383674,0.03553332,0.12209103,0.17764175,0.25231701
0,0,CanadaNewBrunswick,New Brunswick,,2021-01-17 16:34:32.534203,2020-04-09 00:00:00.000000,0.01218750,0.01943359,0.04860197,95,151,379,61,97,261,0.00794753,0.01251514,0.03358016,0.11593661,0.17350080,0.24241651
0,0,CanadaNewBrunswick,New Brunswick,,2021-01-17 16:34:32.534203,2020-04-10 00:00:00.000000,0.01083579,0.01789667,0.04620087,84,139,360,54,87,247,0.00701094,0.01120146,0.03170286,0.10617434,0.16976121,0.23266889
0,0,CanadaNewBrunswick,New Brunswick,,2021-01-17 16:34:32.534203,2020-04-11 00:00:00.000000,0.00963531,0.01654160,0.04393668,75,129,342,48,79,233,0.00616378,0.01024880,0.02991055,0.09831734,0.16051072,0.22255772
0,0,CanadaNewBrunswick,New Brunswick,,2021-01-17 16:34:32.534203,2020-04-12 00:00:00.000000,0.00856916,0.01494192,0.04177865,66,116,325,42,72,219,0.00540576,0.00933763,0.02820058,0.09156491,0.15010538,0.21691054
0,0,CanadaNewBrunswick,New Brunswick,,2021-01-17 16:34:32.534203,2020-04-13 00:00:00.000000,0.00775890,0.01319447,0.03934384,60,102,306,36,66,208,0.00473286,0.00847063,0.02674047,0.09132145,0.14658939,0.21489496
0,0,CanadaNewBrunswick,New Brunswick,,2021-01-17 16:34:32.534203,2020-04-14 00:00:00.000000,0.00705704,0.01169696,0.03669509,55,91,286,32,59,196,0.00416204,0.00760054,0.02523843,0.09033839,0.14352052,0.20918705
0,0,CanadaNewBrunswick,New Brunswick,,2021-01-17 16:34:32.534203,2020-04-15 00:00:00.000000,0.00641478,0.01032683,0.03359747,50,80,262,30,53,182,0.00387859,0.00679830,0.02341526,0.08677719,0.14086122,0.20071979
0,0,CanadaNewBrunswick,New Brunswick,,2021-01-17 16:34:32.534203,2020-04-16 00:00:00.000000,0.00583432,0.00932049,0.03073255,45,72,239,28,47,167,0.00367639,0.00609747,0.02145563,0.08554145,0.13602702,0.19911861
0,0,CanadaNewBrunswick,New Brunswick,,2021-01-17 16:34:32.534203,2020-04-17 00:00:00.000000,0.00517974,0.00834677,0.02811284,40,65,219,25,42,153,0.00330113,0.00544923,0.01963269,0.08428424,0.13338829,0.19752850
0,0,CanadaNewBrunswick,New Brunswick,,2021-01-17 16:34:32.534203,2020-04-18 00:00:00.000000,0.00461061,0.00740004,0.02573595,35,57,200,23,37,140,0.00296773,0.00486094,0.01795975,0.08392319,0.13042750,0.19701045
0,0,CanadaNewBrunswick,New Brunswick,,2021-01-17 16:34:32.534203,2020-04-19 00:00:00.000000,0.00407353,0.00659235,0.02359288,31,51,184,20,34,128,0.00266491,0.00436839,0.01643797,0.08055361,0.13104949,0.19248585
0,0,CanadaNewBrunswick,New Brunswick,,2021-01-17 16:34:32.534203,2020-04-20 00:00:00.000000,0.00374448,0.00599922,0.02158729,29,46,168,18,30,117,0.00236476,0.00389895,0.01506284,0.07990899,0.13309455,0.18890851
0,0,CanadaNewBrunswick,New Brunswick,,2021-01-17 16:34:32.534203,2020-04-21 00:00:00.000000,0.00338097,0.00544437,0.01977649,26,42,154,16,27,107,0.00213924,0.00352182,0.01379104,0.07707896,0.12989948,0.18816425
0,0,CanadaNewBrunswick,New Brunswick,,2021-01-17 16:34:32.534203,2020-04-22 00:00:00.000000,0.00305191,0.00498545,0.01813342,23,38,141,14,25,98,0.00187598,0.00324477,0.01263115,0.07260965,0.12955780,0.18838134
0,0,CanadaNewBrunswick,New Brunswick,,2021-01-17 16:34:32.534203,2020-04-23 00:00:00.000000,0.00273438,0.00448921,0.01664258,21,35,129,12,22,90,0.00165140,0.00294755,0.01157824,0.06500792,0.12900477,0.18854603
0,0,CanadaNewBrunswick,New Brunswick,,2021-01-17 16:34:32.534203,2020-04-24 00:00:00.000000,0.00243778,0.00417181,0.01528850,19,32,119,11,21,82,0.00149420,0.00271050,0.01062306,0.06034462,0.12920378,0.19067120
0,0,CanadaNewBrunswick,New Brunswick,,2021-01-17 16:34:32.534203,2020-04-25 00:00:00.000000,0.00217741,0.00388298,0.01405490,16,30,109,10,19,76,0.00132615,0.00247970,0.00975576,0.06138502,0.12976246,0.19225064
0,0,CanadaNewBrunswick,New Brunswick,,2021-01-17 16:34:32.534203,2020-04-26 00:00:00.000000,0.00194073,0.00357887,0.01291896,15,27,100,9,17,69,0.00117569,0.00228096,0.00896632,0.06387446,0.12913440,0.19364406
0,0,CanadaNewBrunswick,New Brunswick,,2021-01-17 16:34:32.534203,2020-04-27 00:00:00.000000,0.00188525,0.00334836,0.01191293,14,26,92,8,16,64,0.00105133,0.00214587,0.00824195,0.05944183,0.12581238,0.18972338
0,0,CanadaNewBrunswick,New Brunswick,,2021-01-17 16:34:32.534203,2020-04-28 00:00:00.000000,0.00188625,0.00324840,0.01099368,14,25,85,8,15,59,0.00104871,0.00200906,0.00759244,0.05942130,0.12592384,0.19809577
0,0,CanadaNewBrunswick,New Brunswick,,2021-01-17 16:34:32.534203,2020-04-29 00:00:00.000000,0.00182136,0.00317681,0.01015989,14,24,79,7,14,54,0.00102197,0.00191026,0.00700389,0.05941127,0.12613352,0.19984280
0,0,CanadaNewBrunswick,New Brunswick,,2021-01-17 16:34:32.534203,2020-04-30 00:00:00.000000,0.00168512,0.00309345,0.00940121,13,24,73,7,14,50,0.00102156,0.00187563,0.00646964,0.05941585,0.12650824,0.20447513
0,0,CanadaNewBrunswick,New Brunswick,,2021-01-17 16:34:32.534203,2020-05-01 00:00:00.000000,0.00157011,0.00300209,0.00870917,12,23,67,7,13,46,0.00093958,0.00178128,0.00598377,0.05945204,0.12634669,0.21454365
0,0,CanadaNewBrunswick,New Brunswick,,2021-01-17 16:34:32.534203,2020-05-02 00:00:00.000000,0.00147404,0.00290747,0.00807790,11,22,63,6,13,43,0.00087008,0.00174489,0.00554093,0.05956301,0.12509154,0.22002471
0,0,CanadaNewBrunswick,New Brunswick,,2021-01-17 16:34:32.534203,2020-05-03 00:00:00.000000,0.00139218,0.00283608,0.00749374,10,22,58,6,13,40,0.00081239,0.00167543,0.00513700,0.05984774,0.12466917,0.22520628
0,0,CanadaNewBrunswick,New Brunswick,,2021-01-17 16:34:32.534203,2020-05-04 00:00:00.000000,0.00142976,0.00260729,0.00701826,11,20,54,5,12,37,0.00076524,0.00163987,0.00476920,0.06048947,0.12539441,0.23153398
0,0,CanadaNewBrunswick,New Brunswick,,2021-01-17 16:34:32.534203,2020-05-05 00:00:00.000000,0.00146688,0.00261613,0.00658292,11,20,51,6,12,34,0.00080286,0.00155108,0.00448643,0.06053171,0.12444811,0.23326000
0,0,CanadaNewBrunswick,New Brunswick,,2021-01-17 16:34:32.534203,2020-05-06 00:00:00.000000,0.00137046,0.00255218,0.00631400,10,19,49,6,11,33,0.00083260,0.00153733,0.00426787,0.05928989,0.12456920,0.24173694
0,0,CanadaNewBrunswick,New Brunswick,,2021-01-17 16:34:32.534203,2020-05-07 00:00:00.000000,0.00122654,0.00245063,0.00607126,9,19,47,6,11,31,0.00083244,0.00149829,0.00405041,0.05826581,0.12342739,0.24906269
0,0,CanadaNewBrunswick,New Brunswick,,2021-01-17 16:34:32.534203,2020-05-08 00:00:00.000000,0.00110676,0.00236000,0.00639853,8,18,49,5,11,30,0.00074485,0.00144471,0.00385785,0.05756100,0.12292180,0.26377567
0,0,CanadaNewBrunswick,New Brunswick,,2021-01-17 16:34:32.534203,2020-05-09 00:00:00.000000,0.00102932,0.00226611,0.00629614,8,17,49,5,10,29,0.00067170,0.00139052,0.00380195,0.05877822,0.12597753,0.27818596
0,0,CanadaNewBrunswick,New Brunswick,,2021-01-17 16:34:32.534203,2020-05-10 00:00:00.000000,0.00107431,0.00227937,0.00605562,8,17,47,4,10,31,0.00060958,0.00134636,0.00409091,0.05983347,0.12452732,0.28037499
0,0,CanadaNewBrunswick,New Brunswick,,2021-01-17 16:34:32.534203,2020-05-11 00:00:00.000000,0.00106115,0.00225399,0.00591743,8,17,46,4,10,31,0.00054195,0.00130701,0.00402537,0.05945618,0.12419847,0.27981668
0,0,CanadaNewBrunswick,New Brunswick,,2021-01-17 16:34:32.534203,2020-05-12 00:00:00.000000,0.00105351,0.00229254,0.00579562,8,17,45,4,10,30,0.00056721,0.00133010,0.00392946,0.05909038,0.12748695,0.27819211
0,0,CanadaNewBrunswick,New Brunswick,,2021-01-17 16:34:32.534203,2020-05-13 00:00:00.000000,0.00113652,0.00232217,0.00563697,8,18,43,4,10,30,0.00060234,0.00132518,0.00385331,0.05867834,0.13240874,0.27578807
0,0,CanadaNewBrunswick,New Brunswick,,2021-01-17 16:34:32.534203,2020-05-14 00:00:00.000000,0.00110637,0.00234143,0.00543124,8,18,42,4,10,29,0.00061701,0.00133331,0.00378099,0.05918978,0.13313976,0.27262987
0,0,CanadaNewBrunswick,New Brunswick,,2021-01-17 16:34:32.534203,2020-05-15 00:00:00.000000,0.00107836,0.00236582,0.00547110,8,18,42,4,10,28,0.00060883,0.00134915,0.00364942,0.05932441,0.13203916,0.27283643
0,0,CanadaNewBrunswick,New Brunswick,,2021-01-17 16:34:32.534203,2020-05-16 00:00:00.000000,0.00105427,0.00232501,0.00549282,8,18,42,4,10,27,0.00059899,0.00135655,0.00351399,0.06175110,0.13240041,0.29146129
0,0,CanadaNewBrunswick,New Brunswick,,2021-01-17 16:34:32.534203,2020-05-17 00:00:00.000000,0.00101782,0.00232109,0.00555952,7,18,43,4,10,27,0.00058359,0.00134523,0.00353585,0.06110650,0.13279648,0.29879351
0,0,CanadaNewBrunswick,New Brunswick,,2021-01-17 16:34:32.534203,2020-05-18 00:00:00.000000,0.00105759,0.00240838,0.00551387,8,18,43,4,10,27,0.00057036,0.00134306,0.00352664,0.06043429,0.13258202,0.31962717
0,0,CanadaNewBrunswick,New Brunswick,,2021-01-17 16:34:32.534203,2020-05-19 00:00:00.000000,0.00102280,0.00255873,0.00544106,7,19,42,4,10,26,0.00057047,0.00137014,0.00344239,0.05983163,0.13213348,0.33117059
0,0,CanadaNewBrunswick,New Brunswick,,2021-01-17 16:34:32.534203,2020-05-20 00:00:00.000000,0.00098721,0.00252925,0.00568024,7,19,44,4,11,25,0.00058598,0.00143879,0.00332293,0.05929724,0.13355300,0.32281516
0,0,CanadaNewBrunswick,New Brunswick,,2021-01-17 16:34:32.534203,2020-05-21 00:00:00.000000,0.00097754,0.00252368,0.00591435,7,19,46,4,11,26,0.00058768,0.00150848,0.00342218,0.05881303,0.13403056,0.31762661
0,0,CanadaNewBrunswick,New Brunswick,,2021-01-17 16:34:32.534203,2020-05-22 00:00:00.000000,0.00099262,0.00244947,0.00640281,7,19,49,4,11,29,0.00059792,0.00151408,0.00377484,0.05827792,0.13723552,0.31512803
0,0,CanadaNewBrunswick,New Brunswick,,2021-01-17 16:34:32.534203,2020-05-23 00:00:00.000000,0.00100586,0.00241224,0.00697515,7,18,54,4,11,31,0.00060694,0.00145962,0.00401416,0.05718678,0.13693540,0.31416186
0,0,CanadaNewBrunswick,New Brunswick,,2021-01-17 16:34:32.534203,2020-05-24 00:00:00.000000,0.00091230,0.00248776,0.00730067,7,19,56,4,11,33,0.00060036,0.00148137,0.00424064,0.05466973,0.13749289,0.33585402
0,0,CanadaNewBrunswick,New Brunswick,,2021-01-17 16:34:32.534203,2020-05-25 00:00:00.000000,0.00118883,0.00273173,0.00760113,9,21,59,4,11,36,0.00055973,0.00148297,0.00465412,0.05417125,0.13931951,0.33920987
0,0,CanadaNewBrunswick,New Brunswick,,2021-01-17 16:34:32.534203,2020-05-26 00:00:00.000000,0.00117829,0.00315384,0.00758835,9,24,59,5,12,35,0.00065534,0.00163822,0.00460428,0.05381864,0.14200923,0.33942472
0,0,CanadaNewBrunswick,New Brunswick,,2021-01-17 16:34:32.534203,2020-05-27 00:00:00.000000,0.00116426,0.00346200,0.00776818,9,27,60,5,14,36,0.00064726,0.00185091,0.00470930,0.05356292,0.14362410,0.33872766
0,0,CanadaNewBrunswick,New Brunswick,,2021-01-17 16:34:32.534203,2020-05-28 00:00:00.000000,0.00115804,0.00378454,0.00825465,9,29,64,4,15,36,0.00063822,0.00200838,0.00464609,0.05332751,0.14482514,0.33558132
0,0,CanadaNewBrunswick,New Brunswick,,2021-01-17 16:34:32.534203,2020-05-29 00:00:00.000000,0.00114352,0.00387446,0.00907546,8,30,70,4,17,38,0.00063002,0.00221708,0.00495201,0.05308304,0.14346484,0.32981336
0,0,CanadaNewBrunswick,New Brunswick,,2021-01-17 16:34:32.534203,2020-05-30 00:00:00.000000,0.00113205,0.00413223,0.00986566,8,32,76,4,17,43,0.00062326,0.00229710,0.00560091,0.05285684,0.14513623,0.34347718
0,0,CanadaNewBrunswick,New Brunswick,,2021-01-17 16:34:32.534203,2020-05-31 00:00:00.000000,0.00112370,0.00431171,0.01067442,8,33,83,4,18,48,0.00061813,0.00240285,0.00620806,0.05269222,0.14666505,0.32921678
0,0,CanadaNewBrunswick,New Brunswick,,2021-01-17 16:34:32.534203,2020-06-01 00:00:00.000000,0.00204228,0.00488715,0.01085633,15,38,84,4,20,52,0.00061467,0.00258687,0.00677458,0.05257341,0.14821893,0.33466796
0,0,CanadaNewBrunswick,New Brunswick,,2021-01-17 16:34:32.534203,2020-06-02 00:00:00.000000,0.00304251,0.00562122,0.01099319,23,43,85,8,22,54,0.00106046,0.00290440,0.00696418,0.05233485,0.14487726,0.34093941
0,0,CanadaNewBrunswick,New Brunswick,,2021-01-17 16:34:32.534203,2020-06-03 00:00:00.000000,0.00383000,0.00638322,0.01104651,29,49,86,11,25,54,0.00146219,0.00329438,0.00702671,0.05142677,0.14333625,0.34378473
0,0,CanadaNewBrunswick,New Brunswick,,2021-01-17 16:34:32.534203,2020-06-04 00:00:00.000000,0.00422376,0.00713231,0.01139342,32,55,88,14,29,55,0.00185658,0.00381568,0.00708573,0.04951870,0.14065340,0.34028349
0,0,CanadaNewBrunswick,New Brunswick,,2021-01-17 16:34:32.534203,2020-06-05 00:00:00.000000,0.00462039,0.00785969,0.01208726,36,61,94,17,32,57,0.00221108,0.00418074,0.00734752,0.04930447,0.13801189,0.32980008
0,0,CanadaNewBrunswick,New Brunswick,,2021-01-17 16:34:32.534203,2020-06-06 00:00:00.000000,0.00519257,0.00839733,0.01255732,40,65,97,19,35,57,0.00251777,0.00458546,0.00731498,0.04985917,0.13826928,0.31782326
0,0,CanadaNewBrunswick,New Brunswick,,2021-01-17 16:34:32.534203,2020-06-07 00:00:00.000000,0.00541619,0.00895785,0.01260263,42,69,98,22,38,57,0.00282079,0.00488313,0.00738784,0.05031991,0.13945097,0.30108948
0,0,CanadaNewBrunswick,New Brunswick,,2021-01-17 16:34:32.534203,2020-06-08 00:00:00.000000,0.00585004,0.00859215,0.01256257,45,67,97,24,40,59,0.00309346,0.00523617,0.00760566,0.05048538,0.13955932,0.29105272
0,0,CanadaNewBrunswick,New Brunswick,,2021-01-17 16:34:32.534203,2020-06-09 00:00:00.000000,0.00570412,0.00834171,0.01219504,44,65,95,25,39,58,0.00323226,0.00508871,0.00749106,0.04971092,0.13853018,0.28286265
0,0,CanadaNewBrunswick,New Brunswick,,2021-01-17 16:34:32.534203,2020-06-10 00:00:00.000000,0.00572567,0.00789503,0.01208540,44,61,94,25,37,59,0.00320635,0.00485251,0.00759113,0.04925706,0.13580273,0.27108795
0,0,CanadaNewBrunswick,New Brunswick,,2021-01-17 16:34:32.534203,2020-06-11 00:00:00.000000,0.00554134,0.00760002,0.01207600,43,59,94,24,36,59,0.00312545,0.00471253,0.00764273,0.04916465,0.13419878,0.25145403
0,0,CanadaNewBrunswick,New Brunswick,,2021-01-17 16:34:32.534203,2020-06-12 00:00:00.000000,0.00532399,0.00720204,0.01165269,41,56,90,22,35,57,0.00288504,0.00449692,0.00734001,0.04936630,0.13263028,0.24341432
0,0,CanadaNewBrunswick,New Brunswick,,2021-01-17 16:34:32.534203,2020-06-13 00:00:00.000000,0.00471010,0.00693091,0.01179884,36,54,92,20,32,59,0.00267396,0.00422500,0.00760000,0.05005799,0.12948867,0.23404126
0,0,CanadaNewBrunswick,New Brunswick,,2021-01-17 16:34:32.534203,2020-06-14 00:00:00.000000,0.00419143,0.00647095,0.01208012,32,50,94,19,31,59,0.00249072,0.00407561,0.00757470,0.04917009,0.12299114,0.23824183
0,0,CanadaNewBrunswick,New Brunswick,,2021-01-17 16:34:32.534203,2020-06-15 00:00:00.000000,0.00386493,0.00598834,0.01131863,30,46,88,18,29,58,0.00233432,0.00378610,0.00750558,0.04756465,0.11923929,0.23012249
0,0,CanadaNewBrunswick,New Brunswick,,2021-01-17 16:34:32.534203,2020-06-16 00:00:00.000000,0.00348102,0.00556259,0.01054881,27,43,82,16,27,55,0.00215319,0.00354774,0.00715415,0.04767774,0.11958957,0.22165237
0,0,CanadaNewBrunswick,New Brunswick,,2021-01-17 16:34:32.534203,2020-06-17 00:00:00.000000,0.00305773,0.00504842,0.00976485,23,39,76,15,25,52,0.00198597,0.00329325,0.00669441,0.04803852,0.11848903,0.22144789
0,0,CanadaNewBrunswick,New Brunswick,,2021-01-17 16:34:32.534203,2020-06-18 00:00:00.000000,0.00277988,0.00454664,0.00903062,21,35,70,13,23,48,0.00179123,0.00299498,0.00621001,0.04890560,0.11660757,0.22124028
0,0,CanadaNewBrunswick,New Brunswick,,2021-01-17 16:34:32.534203,2020-06-19 00:00:00.000000,0.00252329,0.00415456,0.00838452,19,32,65,11,21,44,0.00153200,0.00273303,0.00574589,0.05059892,0.11960368,0.22072061
0,0,CanadaNewBrunswick,New Brunswick,,2021-01-17 16:34:32.534203,2020-06-20 00:00:00.000000,0.00231092,0.00383996,0.00781255,18,29,60,10,19,41,0.00131532,0.00246834,0.00532892,0.04877716,0.11920505,0.21939794
0,0,CanadaNewBrunswick,New Brunswick,,2021-01-17 16:34:32.534203,2020-06-21 00:00:00.000000,0.00213008,0.00354186,0.00729889,16,27,56,8,17,38,0.00113590,0.00228881,0.00495980,0.04751456,0.11855256,0.21232714
0,0,CanadaNewBrunswick,New Brunswick,,2021-01-17 16:34:32.534203,2020-06-22 00:00:00.000000,0.00197233,0.00336207,0.00699920,15,26,54,8,16,36,0.00104661,0.00213662,0.00464689,0.04691245,0.11598073,0.19582841
0,0,CanadaNewBrunswick,New Brunswick,,2021-01-17 16:34:32.534203,2020-06-23 00:00:00.000000,0.00183618,0.00308349,0.00674735,14,24,52,7,15,34,0.00096938,0.00198004,0.00442399,0.04666967,0.11883027,0.19549306
0,0,CanadaNewBrunswick,New Brunswick,,2021-01-17 16:34:32.534203,2020-06-24 00:00:00.000000,0.00171790,0.00295733,0.00652408,13,23,50,7,14,32,0.00090269,0.00186996,0.00420243,0.04657043,0.11892460,0.19397566
0,0,CanadaNewBrunswick,New Brunswick,,2021-01-17 16:34:32.534203,2020-06-25 00:00:00.000000,0.00155448,0.00279047,0.00632076,12,21,49,6,13,31,0.00084482,0.00175621,0.00399192,0.04660145,0.11846391,0.19294633
0,0,CanadaNewBrunswick,New Brunswick,,2021-01-17 16:34:32.534203,2020-06-26 00:00:00.000000,0.00144315,0.00266455,0.00613309,11,20,47,6,13,29,0.00079456,0.00167179,0.00379499,0.04750381,0.11564235,0.19255653
0,0,CanadaNewBrunswick,New Brunswick,,2021-01-17 16:34:32.534203,2020-06-27 00:00:00.000000,0.00138492,0.00247753,0.00595801,10,19,46,5,12,29,0.00075105,0.00160306,0.00382080,0.04847057,0.11346565,0.19167681
0,0,CanadaNewBrunswick,New Brunswick,,2021-01-17 16:34:32.534203,2020-06-28 00:00:00.000000,0.00133534,0.00235276,0.00578712,10,18,45,5,11,30,0.00070655,0.00152638,0.00384820,0.04906910,0.11159985,0.18981031
0,0,CanadaNewBrunswick,New Brunswick,,2021-01-17 16:34:32.534203,2020-06-29 00:00:00.000000,0.00128469,0.00226876,0.00548784,10,17,42,5,10,30,0.00066224,0.00140806,0.00384762,0.04888605,0.11171459,0.19505613
0,0,CanadaNewBrunswick,New Brunswick,,2021-01-17 16:34:32.534203,2020-06-30 00:00:00.000000,0.00123338,0.00224603,0.00539761,9,17,42,5,10,28,0.00066808,0.00134595,0.00364871,0.04943334,0.11222325,0.20538924
0,0,CanadaNewBrunswick,New Brunswick,,2021-01-17 16:34:32.534203,2020-07-01 00:00:00.000000,0.00119146,0.00225448,0.00521050,9,17,40,5,10,27,0.00068819,0.00134283,0.00346266,0.04986975,0.11169893,0.20388026
0,0,CanadaNewBrunswick,New Brunswick,,2021-01-17 16:34:32.534203,2020-07-02 00:00:00.000000,0.00119853,0.00225784,0.00502164,9,17,39,4,10,25,0.00061422,0.00131763,0.00329807,0.04463790,0.11280054,0.19936611
0,0,CanadaNewBrunswick,New Brunswick,,2021-01-17 16:34:32.534203,2020-07-03 00:00:00.000000,0.00111177,0.00228946,0.00493748,8,17,38,4,10,24,0.00059958,0.00136934,0.00315666,0.04283566,0.11320500,0.20181141
0,0,CanadaNewBrunswick,New Brunswick,,2021-01-17 16:34:32.534203,2020-07-04 00:00:00.000000,0.00104013,0.00230867,0.00511134,8,18,39,4,10,23,0.00059093,0.00138066,0.00303388,0.04274923,0.11410986,0.21066578
0,0,CanadaNewBrunswick,New Brunswick,,2021-01-17 16:34:32.534203,2020-07-05 00:00:00.000000,0.00094787,0.00222556,0.00526576,7,17,41,4,10,24,0.00058611,0.00136642,0.00313737,0.04379130,0.11485113,0.22173199
0,0,CanadaNewBrunswick,New Brunswick,,2021-01-17 16:34:32.534203,2020-07-06 00:00:00.000000,0.00098005,0.00214677,0.00533171,7,16,41,4,10,25,0.00053395,0.00128989,0.00323005,0.04661357,0.11489924,0.22945519
0,0,CanadaNewBrunswick,New Brunswick,,2021-01-17 16:34:32.534203,2020-07-07 00:00:00.000000,0.00094471,0.00204982,0.00516362,7,15,40,4,9,25,0.00055215,0.00127470,0.00326983,0.05033178,0.11308704,0.23306344
0,0,CanadaNewBrunswick,New Brunswick,,2021-01-17 16:34:32.534203,2020-07-08 00:00:00.000000,0.00095684,0.00212753,0.00490352,7,16,38,4,9,25,0.00055291,0.00122652,0.00325060,0.05272067,0.11378882,0.23220772
0,0,CanadaNewBrunswick,New Brunswick,,2021-01-17 16:34:32.534203,2020-07-09 00:00:00.000000,0.00091137,0.00203691,0.00468097,7,15,36,4,9,24,0.00053166,0.00123142,0.00308748,0.05363283,0.11620913,0.22941470
0,0,CanadaNewBrunswick,New Brunswick,,2021-01-17 16:34:32.534203,2020-07-10 00:00:00.000000,0.00089265,0.00193368,0.00455301,6,15,35,3,9,22,0.00051155,0.00119220,0.00294161,0.05389392,0.11522072,0.22380343
0,0,CanadaNewBrunswick,New Brunswick,,2021-01-17 16:34:32.534203,2020-07-11 00:00:00.000000,0.00087977,0.00195674,0.00494374,6,15,38,3,8,21,0.00050364,0.00114128,0.00281475,0.05405721,0.11529643,0.21642289
0,0,CanadaNewBrunswick,New Brunswick,,2021-01-17 16:34:32.534203,2020-07-12 00:00:00.000000,0.00086666,0.00192231,0.00519075,6,14,40,3,8,22,0.00049641,0.00112958,0.00282180,0.05416687,0.11144470,0.21315876
0,0,CanadaNewBrunswick,New Brunswick,,2021-01-17 16:34:32.534203,2020-07-13 00:00:00.000000,0.00099636,0.00198977,0.00491328,7,15,38,3,9,23,0.00048909,0.00115719,0.00303037,0.05422440,0.10704111,0.21363065
0,0,CanadaNewBrunswick,New Brunswick,,2021-01-17 16:34:32.534203,2020-07-14 00:00:00.000000,0.00099106,0.00204881,0.00473997,7,15,36,4,8,23,0.00055230,0.00113533,0.00298885,0.05442905,0.10913868,0.21437881
0,0,CanadaNewBrunswick,New Brunswick,,2021-01-17 16:34:32.534203,2020-07-15 00:00:00.000000,0.00094330,0.00204656,0.00497928,7,15,38,4,9,21,0.00057784,0.00116061,0.00280252,0.05543300,0.10934868,0.21517112
0,0,CanadaNewBrunswick,New Brunswick,,2021-01-17 16:34:32.534203,2020-07-16 00:00:00.000000,0.00090273,0.00199698,0.00520549,7,15,40,4,9,22,0.00056249,0.00119298,0.00291755,0.05774017,0.10986562,0.21654280
0,0,CanadaNewBrunswick,New Brunswick,,2021-01-17 16:34:32.534203,2020-07-17 00:00:00.000000,0.00092689,0.00199696,0.00518610,7,15,40,4,9,23,0.00052113,0.00120151,0.00305458,0.06175488,0.10983197,0.21963818
0,0,CanadaNewBrunswick,New Brunswick,,2021-01-17 16:34:32.534203,2020-07-18 00:00:00.000000,0.00088752,0.00198958,0.00490536,6,15,38,4,9,23,0.00052808,0.00119864,0.00306033,0.06186486,0.10968762,0.22485556
0,0,CanadaNewBrunswick,New Brunswick,,2021-01-17 16:34:32.534203,2020-07-19 00:00:00.000000,0.00080095,0.00196476,0.00466179,6,15,36,3,9,23,0.00049580,0.00118297,0.00304193,0.06235384,0.11035313,0.22997551
0,0,CanadaNewBrunswick,New Brunswick,,2021-01-17 16:34:32.534203,2020-07-20 00:00:00.000000,0.00102797,0.00200897,0.00476337,8,15,37,3,9,23,0.00048968,0.00116801,0.00297887,0.06248557,0.11159789,0.23285340
0,0,CanadaNewBrunswick,New Brunswick,,2021-01-17 16:34:32.534203,2020-07-21 00:00:00.000000,0.00105500,0.00200816,0.00486722,8,15,37,4,9,23,0.00057395,0.00116291,0.00296724,0.06563536,0.11275320,0.23392668
0,0,CanadaNewBrunswick,New Brunswick,,2021-01-17 16:34:32.534203,2020-07-22 00:00:00.000000,0.00116651,0.00206750,0.00472839,9,16,36,4,9,22,0.00060868,0.00118715,0.00289253,0.06355166,0.11395476,0.23427151
0,0,CanadaNewBrunswick,New Brunswick,,2021-01-17 16:34:32.534203,2020-07-23 00:00:00.000000,0.00109400,0.00199879,0.00445061,8,15,34,5,9,21,0.00066215,0.00117028,0.00280715,0.06306959,0.11333919,0.23089474
0,0,CanadaNewBrunswick,New Brunswick,,2021-01-17 16:34:32.534203,2020-07-24 00:00:00.000000,0.00107329,0.00195203,0.00414411,8,15,32,4,9,21,0.00061418,0.00121168,0.00269258,0.06460350,0.11028874,0.21691224
0,0,CanadaNewBrunswick,New Brunswick,,2021-01-17 16:34:32.534203,2020-07-25 00:00:00.000000,0.00101340,0.00195392,0.00426716,7,15,33,4,9,19,0.00059283,0.00117542,0.00254126,0.06494116,0.11191425,0.21860882
0,0,CanadaNewBrunswick,New Brunswick,,2021-01-17 16:34:32.534203,2020-07-26 00:00:00.000000,0.00096721,0.00194745,0.00431692,7,15,33,4,9,20,0.00055877,0.00116138,0.00259655,0.06441899,0.11154645,0.22556729
0,0,CanadaNewBrunswick,New Brunswick,,2021-01-17 16:34:32.534203,2020-07-27 00:00:00.000000,0.00107124,0.00212968,0.00418724,8,16,32,4,9,20,0.00052955,0.00116946,0.00268598,0.06413781,0.11215894,0.22729503
0,0,CanadaNewBrunswick,New Brunswick,,2021-01-17 16:34:32.534203,2020-07-28 00:00:00.000000,0.00105883,0.00223153,0.00408727,8,17,31,4,9,20,0.00061194,0.00126841,0.00263114,0.06695432,0.11777737,0.22990308
0,0,CanadaNewBrunswick,New Brunswick,,2021-01-17 16:34:32.534203,2020-07-29 00:00:00.000000,0.00106579,0.00230150,0.00406544,8,17,31,4,10,19,0.00061981,0.00132709,0.00255192,0.07165834,0.11772122,0.24242562
0,0,CanadaNewBrunswick,New Brunswick,,2021-01-17 16:34:32.534203,2020-07-30 00:00:00.000000,0.00102092,0.00227776,0.00431921,7,17,33,4,10,19,0.00061148,0.00132535,0.00247316,0.07147885,0.12137748,0.25167885
0,0,CanadaNewBrunswick,New Brunswick,,2021-01-17 16:34:32.534203,2020-07-31 00:00:00.000000,0.00101817,0.00234368,0.00487163,7,18,37,4,10,20,0.00060030,0.00133695,0.00257395,0.07693898,0.12075876,0.25679239
0,0,CanadaNewBrunswick,New Brunswick,,2021-01-17 16:34:32.534203,2020-08-01 00:00:00.000000,0.00100038,0.00245093,0.00518964,7,19,40,4,10,20,0.00060592,0.00136841,0.00267545,0.08068598,0.12261957,0.25928385
0,0,CanadaNewBrunswick,New Brunswick,,2021-01-17 16:34:32.534203,2020-08-02 00:00:00.000000,0.00092944,0.00246356,0.00546458,7,19,42,4,11,22,0.00056496,0.00142255,0.00284739,0.08065280,0.12440614,0.26077646
0,0,CanadaNewBrunswick,New Brunswick,,2021-01-17 16:34:32.534203,2020-08-03 00:00:00.000000,0.00116757,0.00266489,0.00545854,9,20,42,4,11,23,0.00052505,0.00142815,0.00299963,0.08078465,0.12669790,0.26209519
0,0,CanadaNewBrunswick,New Brunswick,,2021-01-17 16:34:32.534203,2020-08-04 00:00:00.000000,0.00131820,0.00281138,0.00541714,10,21,42,5,11,23,0.00068782,0.00153255,0.00302141,0.08214608,0.12693376,0.26356332
0,0,CanadaNewBrunswick,New Brunswick,,2021-01-17 16:34:32.534203,2020-08-05 00:00:00.000000,0.00147547,0.00294384,0.00559940,11,22,43,5,12,26,0.00075153,0.00164805,0.00340974,0.08257177,0.12890170,0.26523101
0,0,CanadaNewBrunswick,New Brunswick,,2021-01-17 16:34:32.534203,2020-08-06 00:00:00.000000,0.00162158,0.00316300,0.00610528,12,24,47,6,13,27,0.00081413,0.00174194,0.00358748,0.08204088,0.13076863,0.26692627
0,0,CanadaNewBrunswick,New Brunswick,,2021-01-17 16:34:32.534203,2020-08-07 00:00:00.000000,0.00174555,0.00319926,0.00688252,13,24,53,7,14,30,0.00089769,0.00184724,0.00387591,0.08315813,0.13198070,0.27002109
0,0,CanadaNewBrunswick,New Brunswick,,2021-01-17 16:34:32.534203,2020-08-08 00:00:00.000000,0.00183604,0.00326592,0.00758900,14,25,59,7,14,32,0.00093247,0.00188850,0.00420824,0.08315168,0.13436792,0.27400352
0,0,CanadaNewBrunswick,New Brunswick,,2021-01-17 16:34:32.534203,2020-08-09 00:00:00.000000,0.00170187,0.00337731,0.00831580,13,26,64,7,15,37,0.00098670,0.00197315,0.00475618,0.08518374,0.13876835,0.27570553
0,0,CanadaNewBrunswick,New Brunswick,,2021-01-17 16:34:32.534203,2020-08-10 00:00:00.000000,0.00170038,0.00349028,0.00801382,13,27,62,7,15,40,0.00095656,0.00204683,0.00522816,0.08560502,0.14095792,0.27596345
0,0,CanadaNewBrunswick,New Brunswick,,2021-01-17 16:34:32.534203,2020-08-11 00:00:00.000000,0.00196221,0.00361571,0.00764809,15,28,59,7,16,40,0.00096454,0.00212875,0.00518010,0.08580608,0.14448968,0.27594915
0,0,CanadaNewBrunswick,New Brunswick,,2021-01-17 16:34:32.534203,2020-08-12 00:00:00.000000,0.00184898,0.00375043,0.00719703,14,29,56,8,16,37,0.00103868,0.00211951,0.00481070,0.08526992,0.14485420,0.27937519
0,0,CanadaNewBrunswick,New Brunswick,,2021-01-17 16:34:32.534203,2020-08-13 00:00:00.000000,0.00180555,0.00378988,0.00673701,14,29,52,7,17,34,0.00102487,0.00220490,0.00444537,0.09000723,0.14708242,0.29176148
0,0,CanadaNewBrunswick,New Brunswick,,2021-01-17 16:34:32.534203,2020-08-14 00:00:00.000000,0.00185816,0.00377940,0.00700006,14,29,54,7,17,32,0.00102538,0.00220754,0.00411262,0.09366351,0.14798045,0.29964869
0,0,CanadaNewBrunswick,New Brunswick,,2021-01-17 16:34:32.534203,2020-08-15 00:00:00.000000,0.00189200,0.00372757,0.00685179,14,29,53,7,17,31,0.00099903,0.00224521,0.00409444,0.09593280,0.15009664,0.30541455
0,0,CanadaNewBrunswick,New Brunswick,,2021-01-17 16:34:32.534203,2020-08-16 00:00:00.000000,0.00182725,0.00372198,0.00672913,14,29,52,7,17,33,0.00098988,0.00224847,0.00432568,0.09633855,0.15028446,0.30842499
0,0,CanadaNewBrunswick,New Brunswick,,2021-01-17 16:34:32.534203,2020-08-17 00:00:00.000000,0.00191179,0.00360957,0.00613792,14,28,47,7,16,32,0.00098360,0.00216027,0.00418436,0.09692301,0.15153243,0.31000266
0,0,CanadaNewBrunswick,New Brunswick,,2021-01-17 16:34:32.534203,2020-08-18 00:00:00.000000,0.00185163,0.00351369,0.00563084,14,27,43,7,16,30,0.00098206,0.00206965,0.00387117,0.09709793,0.15683671,0.31157935
0,0,CanadaNewBrunswick,New Brunswick,,2021-01-17 16:34:32.534203,2020-08-19 00:00:00.000000,0.00179098,0.00334890,0.00535530,13,26,41,7,15,27,0.00098252,0.00200269,0.00354207,0.09796145,0.15728176,0.31230845
0,0,CanadaNewBrunswick,New Brunswick,,2021-01-17 16:34:32.534203,2020-08-20 00:00:00.000000,0.00171140,0.00318643,0.00519423,13,24,40,7,15,26,0.00098387,0.00194846,0.00338908,0.10032478,0.15809745,0.31232549
0,0,CanadaNewBrunswick,New Brunswick,,2021-01-17 16:34:32.534203,2020-08-21 00:00:00.000000,0.00161134,0.00301821,0.00507875,12,23,39,7,14,25,0.00098532,0.00186360,0.00330497,0.10541581,0.16240077,0.32076784
0,0,CanadaNewBrunswick,New Brunswick,,2021-01-17 16:34:32.534203,2020-08-22 00:00:00.000000,0.00152657,0.00289982,0.00498700,11,22,38,7,14,25,0.00092808,0.00181108,0.00322377,0.10743640,0.16925447,0.32491447
0,0,CanadaNewBrunswick,New Brunswick,,2021-01-17 16:34:32.534203,2020-08-23 00:00:00.000000,0.00146514,0.00280148,0.00481272,11,21,37,6,13,23,0.00087958,0.00172998,0.00304989,0.10913184,0.17126051,0.32812691
0,0,CanadaNewBrunswick,New Brunswick,,2021-01-17 16:34:32.534203,2020-08-24 00:00:00.000000,0.00148946,0.00277032,0.00471085,11,21,36,6,13,23,0.00085734,0.00167098,0.00295826,0.10882996,0.17436649,0.32980248
0,0,CanadaNewBrunswick,New Brunswick,,2021-01-17 16:34:32.534203,2020-08-25 00:00:00.000000,0.00146681,0.00268602,0.00456042,11,20,35,6,12,23,0.00086965,0.00160940,0.00297316,0.10902407,0.17771629,0.33067345
0,0,CanadaNewBrunswick,New Brunswick,,2021-01-17 16:34:32.534203,2020-08-26 00:00:00.000000,0.00148942,0.00269632,0.00476582,11,21,37,6,12,22,0.00085986,0.00156775,0.00288799,0.11227032,0.18452911,0.33171198
0,0,CanadaNewBrunswick,New Brunswick,,2021-01-17 16:34:32.534203,2020-08-27 00:00:00.000000,0.00150633,0.00258455,0.00489036,11,20,38,6,12,23,0.00086873,0.00155914,0.00300558,0.11265409,0.18890248,0.33455766
0,0,CanadaNewBrunswick,New Brunswick,,2021-01-17 16:34:32.534203,2020-08-28 00:00:00.000000,0.00153668,0.00252583,0.00526231,11,19,41,6,11,24,0.00088362,0.00150990,0.00309592,0.11631755,0.19286510,0.34353201
0,0,CanadaNewBrunswick,New Brunswick,,2021-01-17 16:34:32.534203,2020-08-29 00:00:00.000000,0.00146298,0.00248442,0.00550141,11,19,42,7,11,25,0.00090030,0.00149579,0.00333008,0.12345054,0.19583917,0.35735610
0,0,CanadaNewBrunswick,New Brunswick,,2021-01-17 16:34:32.534203,2020-08-30 00:00:00.000000,0.00132929,0.00250903,0.00573340,10,19,44,6,11,27,0.00087552,0.00149724,0.00347758,0.12386005,0.20407426,0.34845598
0,0,CanadaNewBrunswick,New Brunswick,,2021-01-17 16:34:32.534203,2020-08-31 00:00:00.000000,0.00142718,0.00248687,0.00551838,11,19,43,6,11,28,0.00079499,0.00149580,0.00362254,0.12982322,0.20918290,0.34386618
0,0,CanadaNewBrunswick,New Brunswick,,2021-01-17 16:34:32.534203,2020-09-01 00:00:00.000000,0.00144981,0.00250190,0.00531268,11,19,41,6,11,27,0.00081353,0.00151105,0.00349656,0.13252194,0.21372115,0.34393691
0,0,CanadaNewBrunswick,New Brunswick,,2021-01-17 16:34:32.534203,2020-09-02 00:00:00.000000,0.00132065,0.00253122,0.00541165,10,19,42,6,11,25,0.00086071,0.00149690,0.00333123,0.13471622,0.21684243,0.34412593
0,0,CanadaNewBrunswick,New Brunswick,,2021-01-17 16:34:32.534203,2020-09-03 00:00:00.000000,0.00120415,0.00256936,0.00557514,9,20,43,6,11,25,0.00078293,0.00153589,0.00331358,0.13711308,0.22521768,0.34437543
0,0,CanadaNewBrunswick,New Brunswick,,2021-01-17 16:34:32.534203,2020-09-04 00:00:00.000000,0.00110441,0.00267395,0.00546057,8,20,42,5,12,26,0.00071411,0.00155766,0.00341675,0.13851305,0.22890988,0.34453653
0,0,CanadaNewBrunswick,New Brunswick,,2021-01-17 16:34:32.534203,2020-09-05 00:00:00.000000,0.00106502,0.00265862,0.00553001,8,20,43,5,12,26,0.00065578,0.00156938,0.00344810,0.13949344,0.24406906,0.36185403
0,0,CanadaNewBrunswick,New Brunswick,,2021-01-17 16:34:32.534203,2020-09-06 00:00:00.000000,0.00104682,0.00260482,0.00587072,8,20,45,4,12,26,0.00063664,0.00156638,0.00338573,0.15669545,0.24781126,0.35192818
0,0,CanadaNewBrunswick,New Brunswick,,2021-01-17 16:34:32.534203,2020-09-07 00:00:00.000000,0.00116102,0.00260396,0.00576181,9,20,44,4,12,27,0.00062598,0.00161902,0.00352377,0.16509517,0.25466376,0.36567846
0,0,CanadaNewBrunswick,New Brunswick,,2021-01-17 16:34:32.534203,2020-09-08 00:00:00.000000,0.00135753,0.00273607,0.00563277,10,21,43,5,12,27,0.00068529,0.00162762,0.00348270,0.17120602,0.26427673,0.39377592
0,0,CanadaNewBrunswick,New Brunswick,,2021-01-17 16:34:32.534203,2020-09-09 00:00:00.000000,0.00136183,0.00284556,0.00616881,10,22,48,5,13,27,0.00075405,0.00168182,0.00353094,0.17870263,0.27200128,0.40937543
0,0,CanadaNewBrunswick,New Brunswick,,2021-01-17 16:34:32.534203,2020-09-10 00:00:00.000000,0.00137914,0.00288350,0.00646393,10,22,50,5,13,30,0.00074486,0.00168661,0.00387806,0.18040616,0.28199532,0.43261373
0,0,CanadaNewBrunswick,New Brunswick,,2021-01-17 16:34:32.534203,2020-09-11 00:00:00.000000,0.00142005,0.00287210,0.00666923,11,22,52,5,13,30,0.00075367,0.00169173,0.00397085,0.18258999,0.28421210,0.44128108
0,0,CanadaNewBrunswick,New Brunswick,,2021-01-17 16:34:32.534203,2020-09-12 00:00:00.000000,0.00144979,0.00292018,0.00690310,11,22,53,6,13,31,0.00077689,0.00167342,0.00408876,0.19483873,0.29548709,0.46705840
0,0,CanadaNewBrunswick,New Brunswick,,2021-01-17 16:34:32.534203,2020-09-13 00:00:00.000000,0.00150208,0.00297746,0.00729141,11,23,56,6,13,32,0.00080691,0.00169725,0.00422714,0.21484527,0.30882737,0.47407912
0,0,CanadaNewBrunswick,New Brunswick,,2021-01-17 16:34:32.534203,2020-09-14 00:00:00.000000,0.00162428,0.00305166,0.00791188,12,23,61,6,13,34,0.00081571,0.00174866,0.00437763,0.21906238,0.32644003,0.47739036
0,0,CanadaNewBrunswick,New Brunswick,,2021-01-17 16:34:32.534203,2020-09-15 00:00:00.000000,0.00175263,0.00324039,0.00858164,13,25,66,6,14,35,0.00087777,0.00181033,0.00452601,0.22175896,0.35231513,0.50067530
0,0,CanadaNewBrunswick,New Brunswick,,2021-01-17 16:34:32.534203,2020-09-16 00:00:00.000000,0.00178936,0.00369811,0.00914060,13,28,71,6,15,38,0.00088770,0.00194598,0.00491412,0.22335366,0.36976292,0.51347410
0,0,CanadaNewBrunswick,New Brunswick,,2021-01-17 16:34:32.534203,2020-09-17 00:00:00.000000,0.00174981,0.00421220,0.00993637,13,32,77,7,16,41,0.00091998,0.00216357,0.00534043,0.22301497,0.38833918,0.53510775
0,0,CanadaNewBrunswick,New Brunswick,,2021-01-17 16:34:32.534203,2020-09-18 00:00:00.000000,0.00178325,0.00457346,0.01105949,13,35,86,7,19,42,0.00098107,0.00247900,0.00545898,0.22493457,0.41350603,0.55453665
0,0,CanadaNewBrunswick,New Brunswick,,2021-01-17 16:34:32.534203,2020-09-19 00:00:00.000000,0.00189348,0.00477969,0.01200816,14,37,93,8,20,47,0.00104464,0.00263078,0.00603495,0.23094011,0.42432515,0.58026861
0,0,CanadaNewBrunswick,New Brunswick,,2021-01-17 16:34:32.534203,2020-09-20 00:00:00.000000,0.00201405,0.00488108,0.01303367,15,38,101,8,20,52,0.00112708,0.00269113,0.00671663,0.23602353,0.45328485,0.58694528
0,0,CanadaNewBrunswick,New Brunswick,,2021-01-17 16:34:32.534203,2020-09-21 00:00:00.000000,0.00239701,0.00555909,0.01413035,18,43,110,9,22,57,0.00125319,0.00285487,0.00743339,0.25033770,0.47960380,0.59699855
0,0,CanadaNewBrunswick,New Brunswick,,2021-01-17 16:34:32.534203,2020-09-22 00:00:00.000000,0.00276775,0.00619775,0.01489579,21,48,116,10,24,63,0.00136011,0.00313065,0.00820284,0.25038293,0.50404315,0.61122049
0,0,CanadaNewBrunswick,New Brunswick,,2021-01-17 16:34:32.534203,2020-09-23 00:00:00.000000,0.00323771,0.00689262,0.01572012,25,53,122,12,26,70,0.00157341,0.00345776,0.00897792,0.25540117,0.52684703,0.64299304
0,0,CanadaNewBrunswick,New Brunswick,,2021-01-17 16:34:32.534203,2020-09-24 00:00:00.000000,0.00374690,0.00770857,0.01722420,29,60,134,14,29,76,0.00189228,0.00383440,0.00980397,0.26689849,0.55450879,0.70104975
0,0,CanadaNewBrunswick,New Brunswick,,2021-01-17 16:34:32.534203,2020-09-25 00:00:00.000000,0.00404773,0.00859570,0.01985115,31,67,154,17,34,84,0.00219981,0.00436269,0.01080495,0.28775524,0.59029186,0.75820726
0,0,CanadaNewBrunswick,New Brunswick,,2021-01-17 16:34:32.534203,2020-09-26 00:00:00.000000,0.00435047,0.00952120,0.02273454,33,74,177,18,38,92,0.00242388,0.00489380,0.01187769,0.31806927,0.61693802,0.81049738
0,0,CanadaNewBrunswick,New Brunswick,,2021-01-17 16:34:32.534203,2020-09-27 00:00:00.000000,0.00465381,0.01095770,0.02547063,36,85,198,20,43,100,0.00260459,0.00555177,0.01291104,0.34177119,0.64630234,0.85169339
0,0,CanadaNewBrunswick,New Brunswick,,2021-01-17 16:34:32.534203,2020-09-28 00:00:00.000000,0.00589577,0.01226424,0.02829859,45,95,220,21,49,111,0.00278584,0.00633317,0.01425909,0.39231616,0.66313526,0.86074296
0,0,CanadaNewBrunswick,New Brunswick,,2021-01-17 16:34:32.534203,2020-09-29 00:00:00.000000,0.00713406,0.01379963,0.03126167,55,107,243,26,55,125,0.00342152,0.00706961,0.01609617,0.44186364,0.67168005,0.86208875
0,0,CanadaNewBrunswick,New Brunswick,,2021-01-17 16:34:32.534203,2020-09-30 00:00:00.000000,0.00822458,0.01587510,0.03430695,64,123,267,32,62,139,0.00412335,0.00796014,0.01792692,0.45642239,0.67743397,0.86931489
0,0,CanadaNewBrunswick,New Brunswick,,2021-01-17 16:34:32.534203,2020-10-01 00:00:00.000000,0.00899640,0.01818653,0.03832199,70,141,298,35,70,158,0.00459042,0.00905237,0.02031273,0.49377306,0.68074721,0.89946054
0,0,CanadaNewBrunswick,New Brunswick,,2021-01-17 16:34:32.534203,2020-10-02 00:00:00.000000,0.00985039,0.02086487,0.04202897,76,162,327,41,81,181,0.00533861,0.01040758,0.02328408,0.52470291,0.69253850,0.91713133
0,0,CanadaNewBrunswick,New Brunswick,,2021-01-17 16:34:32.534203,2020-10-03 00:00:00.000000,0.01077161,0.02373348,0.04740917,84,185,369,45,91,207,0.00584719,0.01169589,0.02656185,0.54082369,0.70487025,0.87977133
0,0,CanadaNewBrunswick,New Brunswick,,2021-01-17 16:34:32.534203,2020-10-04 00:00:00.000000,0.01175507,0.02700899,0.05375096,91,210,419,49,103,226,0.00639518,0.01325205,0.02900619,0.52467807,0.71102749,0.87392920
0,0,CanadaNewBrunswick,New Brunswick,,2021-01-17 16:34:32.534203,2020-10-05 00:00:00.000000,0.01379432,0.03005413,0.05979481,107,234,466,54,115,244,0.00697904,0.01485476,0.03134456,0.50276754,0.68382688,0.87246974
0,0,CanadaNewBrunswick,New Brunswick,,2021-01-17 16:34:32.534203,2020-10-06 00:00:00.000000,0.01588544,0.03334154,0.06557689,123,260,511,63,130,274,0.00813707,0.01677625,0.03522767,0.47394579,0.66412253,0.86177834
0,0,CanadaNewBrunswick,New Brunswick,,2021-01-17 16:34:32.534203,2020-10-07 00:00:00.000000,0.01819082,0.03657411,0.07078986,141,285,552,73,148,314,0.00944016,0.01899096,0.04034493,0.44206437,0.64399557,0.83335489
0,0,CanadaNewBrunswick,New Brunswick,,2021-01-17 16:34:32.534203,2020-10-08 00:00:00.000000,0.02053168,0.03984178,0.08045602,160,310,627,84,163,359,0.01081449,0.02094224,0.04610880,0.41250666,0.61372081,0.81131601
0,0,CanadaNewBrunswick,New Brunswick,,2021-01-17 16:34:32.534203,2020-10-09 00:00:00.000000,0.02271416,0.04215720,0.08870210,177,328,691,95,177,408,0.01220558,0.02273930,0.05242767,0.34839966,0.54720802,0.78645762
0,0,CanadaNewBrunswick,New Brunswick,,2021-01-17 16:34:32.534203,2020-10-10 00:00:00.000000,0.02517534,0.04448269,0.09629422,196,346,751,105,187,455,0.01350654,0.02406412,0.05838267,0.29140510,0.49167396,0.73136215
0,0,CanadaNewBrunswick,New Brunswick,,2021-01-17 16:34:32.534203,2020-10-11 00:00:00.000000,0.02762348,0.04643852,0.10066153,215,362,785,113,199,484,0.01458529,0.02558097,0.06215936,0.27011357,0.42381187,0.65275436
0,0,CanadaNewBrunswick,New Brunswick,,2021-01-17 16:34:32.534203,2020-10-12 00:00:00.000000,0.02807760,0.04695267,0.10243021,219,366,798,123,216,512,0.01578371,0.02771688,0.06574562,0.24104661,0.37674952,0.57366225
0,0,CanadaNewBrunswick,New Brunswick,,2021-01-17 16:34:32.534203,2020-10-13 00:00:00.000000,0.02803763,0.04644039,0.10210769,218,362,796,126,213,525,0.01618905,0.02742716,0.06735063,0.22920462,0.34413358,0.51279947
0,0,CanadaNewBrunswick,New Brunswick,,2021-01-17 16:34:32.534203,2020-10-14 00:00:00.000000,0.02749424,0.04574706,0.10062243,214,356,784,123,210,526,0.01579257,0.02695279,0.06754385,0.22217008,0.31368886,0.47404141
0,0,CanadaNewBrunswick,New Brunswick,,2021-01-17 16:34:32.534203,2020-10-15 00:00:00.000000,0.02662128,0.04413095,0.09836335,207,344,767,119,204,521,0.01531770,0.02616348,0.06679808,0.21479941,0.29273742,0.43746704
0,0,CanadaNewBrunswick,New Brunswick,,2021-01-17 16:34:32.534203,2020-10-16 00:00:00.000000,0.02551748,0.04224219,0.09501025,199,329,741,115,196,509,0.01474527,0.02523693,0.06528215,0.20599214,0.27112336,0.41098100
0,0,CanadaNewBrunswick,New Brunswick,,2021-01-17 16:34:32.534203,2020-10-17 00:00:00.000000,0.02427458,0.03980996,0.09047907,189,310,705,109,189,492,0.01408524,0.02429804,0.06309745,0.19599619,0.25408889,0.37823813
0,0,CanadaNewBrunswick,New Brunswick,,2021-01-17 16:34:32.534203,2020-10-18 00:00:00.000000,0.02283921,0.03730038,0.08552200,178,290,667,104,179,468,0.01337064,0.02307500,0.06009932,0.18610147,0.25089795,0.36675688
0,0,CanadaNewBrunswick,New Brunswick,,2021-01-17 16:34:32.534203,2020-10-19 00:00:00.000000,0.02101968,0.03499811,0.08044882,163,272,627,98,167,442,0.01264096,0.02151681,0.05676992,0.17755056,0.24949839,0.36137471
0,0,CanadaNewBrunswick,New Brunswick,,2021-01-17 16:34:32.534203,2020-10-20 00:00:00.000000,0.01945041,0.03306505,0.07560903,151,257,589,91,159,416,0.01175101,0.02038978,0.05338768,0.17670994,0.24762214,0.35888450
0,0,CanadaNewBrunswick,New Brunswick,,2021-01-17 16:34:32.534203,2020-10-21 00:00:00.000000,0.01817033,0.03085622,0.07110744,141,240,554,85,147,391,0.01093520,0.01892437,0.05016358,0.17666773,0.24573310,0.35768202
0,0,CanadaNewBrunswick,New Brunswick,,2021-01-17 16:34:32.534203,2020-10-22 00:00:00.000000,0.01720258,0.02848561,0.06704392,134,222,522,79,137,367,0.01023272,0.01765447,0.04717648,0.17712498,0.24491382,0.35674281
0,0,CanadaNewBrunswick,New Brunswick,,2021-01-17 16:34:32.534203,2020-10-23 00:00:00.000000,0.01615561,0.02662040,0.06349311,126,207,495,75,127,346,0.00962904,0.01637931,0.04447974,0.17635280,0.24414163,0.35360713
0,0,CanadaNewBrunswick,New Brunswick,,2021-01-17 16:34:32.534203,2020-10-24 00:00:00.000000,0.01538577,0.02487888,0.06045133,120,194,471,71,118,328,0.00911930,0.01513842,0.04212118,0.17617144,0.24769414,0.34481194
0,0,CanadaNewBrunswick,New Brunswick,,2021-01-17 16:34:32.534203,2020-10-25 00:00:00.000000,0.01430573,0.02321202,0.05781833,111,181,450,66,111,312,0.00858097,0.01434671,0.04010367,0.17641104,0.25347285,0.35180699
0,0,CanadaNewBrunswick,New Brunswick,,2021-01-17 16:34:32.534203,2020-10-26 00:00:00.000000,0.01341325,0.02190952,0.05558059,104,170,433,61,107,299,0.00786542,0.01376127,0.03836365,0.18474664,0.25746838,0.35867392
0,0,CanadaNewBrunswick,New Brunswick,,2021-01-17 16:34:32.534203,2020-10-27 00:00:00.000000,0.01254694,0.02086201,0.05355427,97,162,417,56,101,287,0.00720293,0.01301052,0.03687968,0.18732489,0.26081419,0.36058719
0,0,CanadaNewBrunswick,New Brunswick,,2021-01-17 16:34:32.534203,2020-10-28 00:00:00.000000,0.01178004,0.01988579,0.05171134,91,155,403,51,95,277,0.00665458,0.01222850,0.03554554,0.19123795,0.26323762,0.36414003
0,0,CanadaNewBrunswick,New Brunswick,,2021-01-17 16:34:32.534203,2020-10-29 00:00:00.000000,0.01112179,0.01900716,0.05004247,86,148,390,48,89,264,0.00625949,0.01146531,0.03389340,0.19337474,0.27242811,0.36337551
0,0,CanadaNewBrunswick,New Brunswick,,2021-01-17 16:34:32.534203,2020-10-30 00:00:00.000000,0.01053367,0.01832666,0.04856503,82,142,378,46,84,251,0.00590841,0.01079364,0.03224745,0.19497382,0.28206554,0.36801052
0,0,CanadaNewBrunswick,New Brunswick,,2021-01-17 16:34:32.534203,2020-10-31 00:00:00.000000,0.01000411,0.01768589,0.04689912,78,137,365,43,80,240,0.00559834,0.01033501,0.03076971,0.19912814,0.29398154,0.39180126
0,0,CanadaNewBrunswick,New Brunswick,,2021-01-17 16:34:32.534203,2020-11-01 00:00:00.000000,0.00946655,0.01709153,0.04527598,73,133,353,41,78,230,0.00532183,0.01003246,0.02948840,0.21050573,0.30911880,0.42484337
0,0,CanadaNewBrunswick,New Brunswick,,2021-01-17 16:34:32.534203,2020-11-02 00:00:00.000000,0.00909107,0.01665910,0.04379365,70,129,341,39,76,221,0.00507665,0.00983494,0.02841290,0.22863273,0.32221001,0.45328930
0,0,CanadaNewBrunswick,New Brunswick,,2021-01-17 16:34:32.534203,2020-11-03 00:00:00.000000,0.00871391,0.01678137,0.04250162,67,130,331,38,75,214,0.00496327,0.00972055,0.02745992,0.23685251,0.33906870,0.46859569
0,0,CanadaNewBrunswick,New Brunswick,,2021-01-17 16:34:32.534203,2020-11-04 00:00:00.000000,0.00863514,0.01653612,0.04133061,67,128,322,38,76,207,0.00497214,0.00974570,0.02662038,0.26519119,0.35872572,0.48766514
0,0,CanadaNewBrunswick,New Brunswick,,2021-01-17 16:34:32.534203,2020-11-05 00:00:00.000000,0.00898249,0.01649271,0.04026557,70,128,314,38,75,201,0.00495642,0.00973672,0.02586714,0.28327983,0.37592058,0.51656403
0,0,CanadaNewBrunswick,New Brunswick,,2021-01-17 16:34:32.534203,2020-11-06 00:00:00.000000,0.00939002,0.01679743,0.03937198,73,131,307,38,75,196,0.00496919,0.00970365,0.02518386,0.29806745,0.38773675,0.56232615
0,0,CanadaNewBrunswick,New Brunswick,,2021-01-17 16:34:32.534203,2020-11-07 00:00:00.000000,0.00982619,0.01747112,0.03949647,76,136,308,40,76,191,0.00519912,0.00979719,0.02459452,0.31215328,0.42164920,0.59110470
0,0,CanadaNewBrunswick,New Brunswick,,2021-01-17 16:34:32.534203,2020-11-08 00:00:00.000000,0.01009896,0.01801906,0.04106503,78,140,320,42,78,196,0.00547947,0.01008772,0.02517839,0.32903575,0.44888544,0.61963979
0,0,CanadaNewBrunswick,New Brunswick,,2021-01-17 16:34:32.534203,2020-11-09 00:00:00.000000,0.01057535,0.01925815,0.04299458,82,150,335,45,82,198,0.00581221,0.01059823,0.02550113,0.37152012,0.49228662,0.66714674
0,0,CanadaNewBrunswick,New Brunswick,,2021-01-17 16:34:32.534203,2020-11-10 00:00:00.000000,0.01124744,0.02094895,0.04535445,87,163,353,47,87,204,0.00609936,0.01122994,0.02619128,0.37972053,0.52338523,0.69329202
0,0,CanadaNewBrunswick,New Brunswick,,2021-01-17 16:34:32.534203,2020-11-11 00:00:00.000000,0.01184179,0.02256564,0.04719284,92,176,368,50,91,216,0.00642236,0.01179409,0.02769648,0.39726610,0.54812779,0.70619031
0,0,CanadaNewBrunswick,New Brunswick,,2021-01-17 16:34:32.534203,2020-11-12 00:00:00.000000,0.01292755,0.02451084,0.04940421,100,191,385,53,99,228,0.00687689,0.01273109,0.02927405,0.43571790,0.56286498,0.72537172
0,0,CanadaNewBrunswick,New Brunswick,,2021-01-17 16:34:32.534203,2020-11-13 00:00:00.000000,0.01399217,0.02647712,0.05259982,109,206,410,56,109,241,0.00729754,0.01397692,0.03090508,0.47226372,0.58477221,0.74969701
0,0,CanadaNewBrunswick,New Brunswick,,2021-01-17 16:34:32.534203,2020-11-14 00:00:00.000000,0.01536854,0.02865783,0.05624754,119,223,438,60,117,256,0.00776103,0.01507409,0.03283799,0.48226879,0.59221513,0.76493570
0,0,CanadaNewBrunswick,New Brunswick,,2021-01-17 16:34:32.534203,2020-11-15 00:00:00.000000,0.01708360,0.03084380,0.06109074,133,240,476,65,128,272,0.00834390,0.01653058,0.03495555,0.48482528,0.60061410,0.77297239
0,0,CanadaNewBrunswick,New Brunswick,,2021-01-17 16:34:32.534203,2020-11-16 00:00:00.000000,0.01991802,0.03309123,0.06685245,155,258,521,70,140,292,0.00899097,0.01797450,0.03747603,0.48110034,0.59961204,0.77683231
0,0,CanadaNewBrunswick,New Brunswick,,2021-01-17 16:34:32.534203,2020-11-17 00:00:00.000000,0.02223293,0.03565630,0.07398096,173,278,577,77,151,316,0.00996619,0.01943877,0.04055638,0.45776931,0.60117942,0.77859648
0,0,CanadaNewBrunswick,New Brunswick,,2021-01-17 16:34:32.534203,2020-11-18 00:00:00.000000,0.02415096,0.03864683,0.07875284,188,301,614,89,163,346,0.01144189,0.02094250,0.04441389,0.42925571,0.59151795,0.77932935
0,0,CanadaNewBrunswick,New Brunswick,,2021-01-17 16:34:32.534203,2020-11-19 00:00:00.000000,0.02590170,0.04210817,0.08473698,202,328,660,102,175,378,0.01308494,0.02252673,0.04852365,0.40180661,0.58530354,0.77936657
0,0,CanadaNewBrunswick,New Brunswick,,2021-01-17 16:34:32.534203,2020-11-20 00:00:00.000000,0.02785489,0.04420493,0.09230045,217,344,719,115,188,413,0.01486326,0.02413688,0.05299354,0.38726937,0.56164749,0.77826779
0,0,CanadaNewBrunswick,New Brunswick,,2021-01-17 16:34:32.534203,2020-11-21 00:00:00.000000,0.03003746,0.04743653,0.09997060,234,370,779,125,202,450,0.01608127,0.02597635,0.05775355,0.34423120,0.54585661,0.75216217
0,0,CanadaNewBrunswick,New Brunswick,,2021-01-17 16:34:32.534203,2020-11-22 00:00:00.000000,0.03212129,0.04897814,0.10412457,250,382,812,133,215,480,0.01712864,0.02758892,0.06154291,0.31453742,0.50660580,0.71118367
0,0,CanadaNewBrunswick,New Brunswick,,2021-01-17 16:34:32.534203,2020-11-23 00:00:00.000000,0.03324866,0.04938819,0.10601998,259,385,826,139,224,497,0.01793819,0.02876114,0.06378851,0.30453978,0.45752535,0.61289784
0,0,CanadaNewBrunswick,New Brunswick,,2021-01-17 16:34:32.534203,2020-11-24 00:00:00.000000,0.03443393,0.04991044,0.10758734,268,389,839,145,230,520,0.01864490,0.02957484,0.06667474,0.27266399,0.41273996,0.57247359
0,0,CanadaNewBrunswick,New Brunswick,,2021-01-17 16:34:32.534203,2020-11-25 00:00:00.000000,0.03456161,0.05076542,0.10873079,269,395,848,148,234,534,0.01900981,0.03001196,0.06851067,0.25788560,0.38523003,0.53439849
0,0,CanadaNewBrunswick,New Brunswick,,2021-01-17 16:34:32.534203,2020-11-26 00:00:00.000000,0.03438426,0.05132029,0.10916709,268,400,851,151,237,539,0.01942398,0.03048604,0.06916631,0.23311741,0.35995994,0.51283532
0,0,CanadaNewBrunswick,New Brunswick,,2021-01-17 16:34:32.534203,2020-11-27 00:00:00.000000,0.03443910,0.05080452,0.10830880,268,396,844,154,238,541,0.01982234,0.03061164,0.06943073,0.22443861,0.33910339,0.47417706
0,0,CanadaNewBrunswick,New Brunswick,,2021-01-17 16:34:32.534203,2020-11-28 00:00:00.000000,0.03369904,0.05004074,0.10575167,262,390,824,152,239,542,0.01956863,0.03067927,0.06952917,0.21952544,0.31754116,0.43369186
0,0,CanadaNewBrunswick,New Brunswick,,2021-01-17 16:34:32.534203,2020-11-29 00:00:00.000000,0.03247569,0.04872808,0.10308235,253,380,804,149,232,541,0.01910973,0.02987102,0.06948062,0.21443305,0.30590806,0.41178995
0,0,CanadaNewBrunswick,New Brunswick,,2021-01-17 16:34:32.534203,2020-11-30 00:00:00.000000,0.03100376,0.04676965,0.10048772,241,364,783,143,225,526,0.01838666,0.02888408,0.06748767,0.21161517,0.29489453,0.39143418
0,0,CanadaNewBrunswick,New Brunswick,,2021-01-17 16:34:32.534203,2020-12-01 00:00:00.000000,0.02915097,0.04399717,0.09562446,227,343,745,134,215,502,0.01726987,0.02768913,0.06438751,0.20787293,0.28439134,0.38632776
0,0,CanadaNewBrunswick,New Brunswick,,2021-01-17 16:34:32.534203,2020-12-02 00:00:00.000000,0.02717232,0.04154131,0.09089561,211,324,708,128,204,478,0.01646649,0.02620910,0.06128992,0.20434015,0.28034332,0.38169203
0,0,CanadaNewBrunswick,New Brunswick,,2021-01-17 16:34:32.534203,2020-12-03 00:00:00.000000,0.02552033,0.03901014,0.08635745,199,304,673,125,194,454,0.01606545,0.02495713,0.05826999,0.20217552,0.27567750,0.37846924
0,0,CanadaNewBrunswick,New Brunswick,,2021-01-17 16:34:32.534203,2020-12-04 00:00:00.000000,0.02414667,0.03708980,0.08203565,188,289,639,116,185,431,0.01490640,0.02380981,0.05536716,0.20092164,0.27245386,0.37652994
0,0,CanadaNewBrunswick,New Brunswick,,2021-01-17 16:34:32.534203,2020-12-05 00:00:00.000000,0.02289813,0.03535499,0.07794901,178,275,607,107,175,410,0.01377318,0.02247061,0.05259996,0.19757146,0.27102628,0.37548669
0,0,CanadaNewBrunswick,New Brunswick,,2021-01-17 16:34:32.534203,2020-12-06 00:00:00.000000,0.02175406,0.03356355,0.07419793,169,261,578,101,166,389,0.01297124,0.02131817,0.04998023,0.20020856,0.27122997,0.37489374
0,0,CanadaNewBrunswick,New Brunswick,,2021-01-17 16:34:32.534203,2020-12-07 00:00:00.000000,0.02087610,0.03227576,0.07079840,162,251,552,96,156,370,0.01231392,0.02002943,0.04756022,0.20979303,0.27225840,0.37445549
0,0,CanadaNewBrunswick,New Brunswick,,2021-01-17 16:34:32.534203,2020-12-08 00:00:00.000000,0.02006102,0.03068860,0.06767991,156,239,527,92,148,353,0.01182406,0.01906489,0.04536226,0.20953247,0.27096997,0.37389832
0,0,CanadaNewBrunswick,New Brunswick,,2021-01-17 16:34:32.534203,2020-12-09 00:00:00.000000,0.01932731,0.02947901,0.06474072,150,229,504,88,140,338,0.01138145,0.01806820,0.04335367,0.21131972,0.27326758,0.36932536
0,0,CanadaNewBrunswick,New Brunswick,,2021-01-17 16:34:32.534203,2020-12-10 00:00:00.000000,0.01839886,0.02820442,0.06195707,143,219,483,85,134,323,0.01096712,0.01720854,0.04147157,0.21065986,0.27699827,0.36803064
0,0,CanadaNewBrunswick,New Brunswick,,2021-01-17 16:34:32.534203,2020-12-11 00:00:00.000000,0.01724441,0.02723064,0.05931191,134,212,462,82,128,309,0.01057651,0.01650719,0.03968809,0.21252810,0.28182341,0.36787259
0,0,CanadaNewBrunswick,New Brunswick,,2021-01-17 16:34:32.534203,2020-12-12 00:00:00.000000,0.01632069,0.02616605,0.05680258,127,204,443,79,123,296,0.01020743,0.01583815,0.03799226,0.21432024,0.28940909,0.37461477
0,0,CanadaNewBrunswick,New Brunswick,,2021-01-17 16:34:32.534203,2020-12-13 00:00:00.000000,0.01564000,0.02531502,0.05444523,121,197,424,76,118,283,0.00982429,0.01519665,0.03638209,0.21946253,0.29624750,0.37786504
0,0,CanadaNewBrunswick,New Brunswick,,2021-01-17 16:34:32.534203,2020-12-14 00:00:00.000000,0.01523726,0.02440266,0.05228855,118,190,407,71,113,271,0.00916452,0.01455744,0.03486609,0.23449827,0.30430239,0.40511738
0,0,CanadaNewBrunswick,New Brunswick,,2021-01-17 16:34:32.534203,2020-12-15 00:00:00.000000,0.01492223,0.02384289,0.05041208,116,185,393,67,112,261,0.00870023,0.01440559,0.03347159,0.25039343,0.31507557,0.42085795
0,0,CanadaNewBrunswick,New Brunswick,,2021-01-17 16:34:32.534203,2020-12-16 00:00:00.000000,0.01462905,0.02307377,0.04878673,114,179,380,65,109,251,0.00833536,0.01399275,0.03224556,0.25502419,0.32365457,0.44064651
0,0,CanadaNewBrunswick,New Brunswick,,2021-01-17 16:34:32.534203,2020-12-17 00:00:00.000000,0.01396865,0.02253803,0.04689278,108,175,365,62,105,243,0.00803814,0.01357343,0.03121403,0.26052538,0.32906985,0.44370990
0,0,CanadaNewBrunswick,New Brunswick,,2021-01-17 16:34:32.534203,2020-12-18 00:00:00.000000,0.01336057,0.02233419,0.04610560,104,174,359,60,103,236,0.00780939,0.01332973,0.03034585,0.27807778,0.34093141,0.44751556
0,0,CanadaNewBrunswick,New Brunswick,,2021-01-17 16:34:32.534203,2020-12-19 00:00:00.000000,0.01284973,0.02243380,0.04581037,100,174,357,59,103,230,0.00758313,0.01324265,0.02959611,0.30068097,0.35903989,0.45975859
0,0,CanadaNewBrunswick,New Brunswick,,2021-01-17 16:34:32.534203,2020-12-20 00:00:00.000000,0.01255611,0.02260889,0.04691063,97,176,365,56,102,225,0.00730124,0.01311229,0.02896739,0.31702084,0.38794896,0.48955975
0,0,CanadaNewBrunswick,New Brunswick,,2021-01-17 16:34:32.534203,2020-12-21 00:00:00.000000,0.01286653,0.02326890,0.04787358,100,181,373,55,103,226,0.00715264,0.01328183,0.02902392,0.33498635,0.41771507,0.53362858
0,0,CanadaNewBrunswick,New Brunswick,,2021-01-17 16:34:32.534203,2020-12-22 00:00:00.000000,0.01341412,0.02370103,0.04833599,104,184,377,57,106,228,0.00740029,0.01361872,0.02931102,0.35288509,0.42929590,0.55474400
0,0,CanadaNewBrunswick,New Brunswick,,2021-01-17 16:34:32.534203,2020-12-23 00:00:00.000000,0.01386150,0.02424885,0.04894065,108,189,381,60,108,230,0.00776933,0.01395098,0.02958131,0.36240171,0.45825815,0.57177672
0,0,CanadaNewBrunswick,New Brunswick,,2021-01-17 16:34:32.534203,2020-12-24 00:00:00.000000,0.01494726,0.02553649,0.05082174,116,199,396,60,112,233,0.00781825,0.01444576,0.02992436,0.37660471,0.49255244,0.62246996
0,0,CanadaNewBrunswick,New Brunswick,,2021-01-17 16:34:32.534203,2020-12-25 00:00:00.000000,0.01571320,0.02682972,0.05352623,122,209,417,62,116,240,0.00796606,0.01491693,0.03080138,0.38981952,0.52033317,0.71301952
0,0,CanadaNewBrunswick,New Brunswick,,2021-01-17 16:34:32.534203,2020-12-26 00:00:00.000000,0.01613827,0.02846227,0.05735885,125,222,447,64,121,259,0.00823621,0.01560722,0.03321152,0.41113022,0.59418163,0.81409293
0,0,CanadaNewBrunswick,New Brunswick,,2021-01-17 16:34:32.534203,2020-12-27 00:00:00.000000,0.01682742,0.03096403,0.06285952,131,241,490,67,127,286,0.00871567,0.01635211,0.03676616,0.43794922,0.65867619,0.87243628
0,0,CanadaNewBrunswick,New Brunswick,,2021-01-17 16:34:32.534203,2020-12-28 00:00:00.000000,0.01872890,0.03331620,0.07209423,146,259,562,73,137,312,0.00944570,0.01763876,0.04004849,0.47333383,0.69015079,0.89119259
0,0,CanadaNewBrunswick,New Brunswick,,2021-01-17 16:34:32.534203,2020-12-29 00:00:00.000000,0.02097970,0.03731875,0.08045534,163,291,627,82,151,349,0.01060651,0.01948124,0.04480419,0.52527892,0.71350009,0.91964197
0,0,CanadaNewBrunswick,New Brunswick,,2021-01-17 16:34:32.534203,2020-12-30 00:00:00.000000,0.02386956,0.04184570,0.08991216,186,326,701,93,170,395,0.01199249,0.02192154,0.05076412,0.55108369,0.72269187,0.94537571
0,0,CanadaNewBrunswick,New Brunswick,,2021-01-17 16:34:32.534203,2020-12-31 00:00:00.000000,0.02749522,0.04756373,0.10066878,214,370,785,105,189,442,0.01356439,0.02433990,0.05672065,0.56052158,0.75023985,0.95063475
0,0,CanadaNewBrunswick,New Brunswick,,2021-01-17 16:34:32.534203,2021-01-01 00:00:00.000000,0.03171318,0.05304504,0.11293616,247,413,880,119,214,495,0.01532982,0.02747565,0.06349117,0.60874045,0.76958505,0.95381168
0,0,CanadaNewBrunswick,New Brunswick,,2021-01-17 16:34:32.534203,2021-01-02 00:00:00.000000,0.03653395,0.05942415,0.12879767,284,463,1004,134,240,555,0.01729637,0.03084047,0.07121150,0.64112366,0.77954141,0.97971848
0,0,CanadaNewBrunswick,New Brunswick,,2021-01-17 16:34:32.534203,2021-01-03 00:00:00.000000,0.04284567,0.06693994,0.14876305,334,522,1160,151,273,623,0.01948735,0.03503748,0.07998644,0.63605181,0.78524167,0.99716038
0,0,CanadaNewBrunswick,New Brunswick,,2021-01-17 16:34:32.534203,2021-01-04 00:00:00.000000,0.04931240,0.07628992,0.17107244,384,595,1334,171,306,701,0.02192424,0.03930753,0.08988659,0.62331180,0.78779025,0.99508637
0,0,CanadaNewBrunswick,New Brunswick,,2021-01-17 16:34:32.534203,2021-01-05 00:00:00.000000,0.05524605,0.08523668,0.19253706,430,664,1501,191,347,789,0.02453367,0.04455854,0.10127770,0.58289445,0.78313194,0.97913616
0,0,CanadaNewBrunswick,New Brunswick,,2021-01-17 16:34:32.534203,2021-01-06 00:00:00.000000,0.06162054,0.09490810,0.20475551,480,740,1597,213,388,906,0.02741242,0.04979281,0.11619758,0.52881057,0.74417771,0.97371505
0,0,CanadaNewBrunswick,New Brunswick,,2021-01-17 16:34:32.534203,2021-01-07 00:00:00.000000,0.06762976,0.10474431,0.21663438,527,816,1689,244,438,1003,0.03137098,0.05623375,0.12866046,0.49782405,0.67752564,0.90287315
0,0,CanadaNewBrunswick,New Brunswick,,2021-01-17 16:34:32.534203,2021-01-08 00:00:00.000000,0.07263805,0.11513680,0.22849323,566,898,1782,280,482,1062,0.03600329,0.06188926,0.13616341,0.48175967,0.62265548,0.83074791
0,0,CanadaNewBrunswick,New Brunswick,,2021-01-17 16:34:32.534203,2021-01-09 00:00:00.000000,0.07764418,0.12306628,0.24041162,605,959,1875,311,529,1120,0.03987957,0.06782862,0.14366866,0.46029394,0.56032453,0.75519757
0,0,CanadaNewBrunswick,New Brunswick,,2021-01-17 16:34:32.534203,2021-01-10 00:00:00.000000,0.08283554,0.12942532,0.25195219,646,1009,1965,333,559,1179,0.04276062,0.07174774,0.15123534,0.43978698,0.53433404,0.71200608
0,0,CanadaNewBrunswick,New Brunswick,,2021-01-17 16:34:32.534203,2021-01-11 00:00:00.000000,0.08548537,0.13368557,0.26166333,666,1042,2040,353,596,1237,0.04527347,0.07650643,0.15862816,0.41656650,0.52007023,0.67641170
0,0,CanadaNewBrunswick,New Brunswick,,2021-01-17 16:34:32.534203,2021-01-12 00:00:00.000000,0.08630731,0.13810505,0.26912086,673,1077,2099,370,626,1287,0.04751455,0.08033561,0.16504441,0.38555465,0.51087287,0.67319881
0,0,CanadaNewBrunswick,New Brunswick,,2021-01-17 16:34:32.534203,2021-01-13 00:00:00.000000,0.09032707,0.14270657,0.27496087,704,1113,2144,388,645,1326,0.04978171,0.08277588,0.17004900,0.36595181,0.50762978,0.67146508
0,0,CanadaNewBrunswick,New Brunswick,,2021-01-17 16:34:32.534203,2021-01-14 00:00:00.000000,0.09458522,0.14866960,0.27996256,737,1159,2183,406,673,1356,0.05214201,0.08639613,0.17394086,0.36190457,0.49938032,0.67309123
0,0,CanadaNewBrunswick,New Brunswick,,2021-01-17 16:34:32.534203,2021-01-15 00:00:00.000000,0.09831928,0.15492645,0.28675078,766,1208,2236,407,695,1382,0.05218698,0.08912543,0.17726107,0.35172347,0.49832635,0.67913538
0,0,CanadaNewBrunswick,New Brunswick,,2021-01-17 16:34:32.534203,2021-01-16 00:00:00.000000,0.09714080,0.16154175,0.29845138,757,1260,2327,413,710,1422,0.05306448,0.09110246,0.18234083,0.33055020,0.49471669,0.72532690
0,0,CanadaNewBrunswick,New Brunswick,,2021-01-17 16:34:32.534203,2021-01-17 00:00:00.000000,0.09945111,0.16843667,0.30660444,775,1313,2391,430,728,1481,0.05513189,0.09338755,0.18989467,0.33048054,0.49607382,0.75658964
0,0,CanadaNewBrunswick,New Brunswick,,2021-01-17 16:34:32.534203,2021-01-18 00:00:00.000000,0.10359461,0.17728743,0.30825852,808,1382,2404,439,755,1541,0.05631281,0.09689720,0.19758383,0.32737921,0.49145220,0.77340793
0,0,CanadaNewBrunswick,New Brunswick,,2021-01-17 16:34:32.534203,2021-01-19 00:00:00.000000,0.10808240,0.18504114,0.32432555,843,1443,2529,429,809,1584,0.05501347,0.10372031,0.20320282,0.32712428,0.49140145,0.78139871
0,0,CanadaNewBrunswick,New Brunswick,,2021-01-17 16:34:32.534203,2021-01-20 00:00:00.000000,0.11278837,0.19209788,0.34124949,879,1498,2661,421,842,1583,0.05399253,0.10799595,0.20297926,0.32700666,0.48904970,0.78495747
0,0,CanadaNewBrunswick,New Brunswick,,2021-01-17 16:34:32.534203,2021-01-21 00:00:00.000000,0.11365645,0.19903217,0.36337036,886,1552,2834,439,864,1581,0.05636717,0.11089178,0.20274540,0.32694995,0.48838864,0.78649728
0,0,CanadaNewBrunswick,New Brunswick,,2021-01-17 16:34:32.534203,2021-01-22 00:00:00.000000,0.11144471,0.20105179,0.37780864,869,1568,2946,459,899,1740,0.05885674,0.11534948,0.22310977,0.32692203,0.48821653,0.78715545
0,0,CanadaNewBrunswick,New Brunswick,,2021-01-17 16:34:32.534203,2021-01-23 00:00:00.000000,0.10775595,0.20926041,0.39761311,840,1632,3101,479,934,1825,0.06146186,0.11982708,0.23400354,0.32690813,0.48817194,0.78743545
0,0,CanadaNewBrunswick,New Brunswick,,2021-01-17 16:34:32.534203,2021-01-24 00:00:00.000000,0.10418334,0.22059931,0.41852936,812,1720,3264,481,976,1915,0.06170999,0.12515162,0.24561633,0.32690115,0.48816028,0.78755439
0,0,CanadaNewBrunswick,New Brunswick,,2021-01-17 16:34:32.534203,2021-01-25 00:00:00.000000,0.10072477,0.22836051,0.44049319,785,1781,3435,465,1021,2012,0.05966682,0.13099798,0.25805892,0.32689762,0.48814284,0.78760492
0,0,CanadaNewBrunswick,New Brunswick,,2021-01-17 16:34:32.534203,2021-01-26 00:00:00.000000,0.09737747,0.23300379,0.46355118,759,1817,3615,449,1061,2089,0.05768793,0.13602785,0.26785730,0.32689583,0.48813138,0.78762639
0,0,CanadaNewBrunswick,New Brunswick,,2021-01-17 16:34:32.534203,2021-01-27 00:00:00.000000,0.09413848,0.23803593,0.49635623,734,1856,3871,435,1072,2168,0.05577210,0.13751878,0.27799422,0.32689492,0.48812662,0.78763553
0,0,CanadaNewBrunswick,New Brunswick,,2021-01-17 16:34:32.534203,2021-01-28 00:00:00.000000,0.09100471,0.23975402,0.54089247,709,1870,4218,420,1091,2298,0.05391785,0.13998733,0.29466795,0.32689445,0.48812464,0.78997776
0,0,CanadaNewBrunswick,New Brunswick,,2021-01-17 16:34:32.534203,2021-01-29 00:00:00.000000,0.08797308,0.24249143,0.60652786,686,1891,4730,406,1107,2485,0.05212358,0.14204308,0.31864823,0.32689421,0.48812381,0.79243329
0,0,CanadaNewBrunswick,New Brunswick,,2021-01-17 16:34:32.534203,2021-01-30 00:00:00.000000,0.08504050,0.24781847,0.64985893,663,1932,5068,393,1135,2687,0.05038761,0.14562813,0.34452666,0.32689408,0.48812346,0.79410574
0,0,CanadaNewBrunswick,New Brunswick,,2021-01-17 16:34:32.534203,2021-01-31 00:00:00.000000,0.08220392,0.25090087,0.69652467,641,1957,5432,379,1172,2962,0.04870825,0.15027984,0.37974902,0.32689402,0.48812331,0.79519707
