FIPS,HR_UID,nameid,province,region,analysisTime,dates,pointprevalence_025,pointprevalence_50,pointprevalence_975,pointinfections_025,pointinfections_50,pointinfections_975,pointinfectious_025,pointinfectious_50,pointinfectious_975,pointinfectiousprevalence_05,pointinfectiousprevalence_50,pointinfectiousprevalence_95,infectrate_025,infectrate_50,infectrate_975
0,2409,CanadaQuebecCôte-Nord,Quebec,Côte-Nord,2021-01-17 17:54:07.148581,2020-03-15 00:00:00.000000,0.08056622,0.20439128,0.34788888,70,178,304,39,97,188,0.04496223,0.11116691,0.21516176,0.36330550,0.52997101,0.71639803
0,2409,CanadaQuebecCôte-Nord,Quebec,Côte-Nord,2021-01-17 17:54:07.148581,2020-03-16 00:00:00.000000,0.09540422,0.21823912,0.37292417,83,190,326,41,97,174,0.04766569,0.11160876,0.19918667,0.36330521,0.52996606,0.71639778
0,2409,CanadaQuebecCôte-Nord,Quebec,Côte-Nord,2021-01-17 17:54:07.148581,2020-03-17 00:00:00.000000,0.11163008,0.23785740,0.39911273,97,207,349,47,102,172,0.05389893,0.11706669,0.19681422,0.36330436,0.52995343,0.71639725
0,2409,CanadaQuebecCôte-Nord,Quebec,Côte-Nord,2021-01-17 17:54:07.148581,2020-03-18 00:00:00.000000,0.12877022,0.25260755,0.42245135,112,220,369,51,108,183,0.05832619,0.12401939,0.20979899,0.36330183,0.52992122,0.71639609
0,2409,CanadaQuebecCôte-Nord,Quebec,Côte-Nord,2021-01-17 17:54:07.148581,2020-03-19 00:00:00.000000,0.13977513,0.26812626,0.44350030,122,234,387,54,119,199,0.06279221,0.13637172,0.22758499,0.36329437,0.52983906,0.71639359
0,2409,CanadaQuebecCôte-Nord,Quebec,Côte-Nord,2021-01-17 17:54:07.148581,2020-03-20 00:00:00.000000,0.15150248,0.28972879,0.46593530,132,253,407,60,128,211,0.06878439,0.14700084,0.24189483,0.36327227,0.52962973,0.71638816
0,2409,CanadaQuebecCôte-Nord,Quebec,Côte-Nord,2021-01-17 17:54:07.148581,2020-03-21 00:00:00.000000,0.16575403,0.31429303,0.49060739,144,274,429,67,136,224,0.07755534,0.15604443,0.25654115,0.36320675,0.52909817,0.71637633
0,2409,CanadaQuebecCôte-Nord,Quebec,Côte-Nord,2021-01-17 17:54:07.148581,2020-03-22 00:00:00.000000,0.18208469,0.34077643,0.52134724,159,297,455,76,146,234,0.08707077,0.16723637,0.26787233,0.36301273,0.52662615,0.71635023
0,2409,CanadaQuebecCôte-Nord,Quebec,Côte-Nord,2021-01-17 17:54:07.148581,2020-03-23 00:00:00.000000,0.19965619,0.37132098,0.55873338,174,324,488,84,155,249,0.09652941,0.17824357,0.28570559,0.36244027,0.52056933,0.71629095
0,2409,CanadaQuebecCôte-Nord,Quebec,Côte-Nord,2021-01-17 17:54:07.148581,2020-03-24 00:00:00.000000,0.21827542,0.39969518,0.59822520,190,349,523,92,169,264,0.10629555,0.19381597,0.30301817,0.36077234,0.51761397,0.71614758
0,2409,CanadaQuebecCôte-Nord,Quebec,Côte-Nord,2021-01-17 17:54:07.148581,2020-03-25 00:00:00.000000,0.23785956,0.42737045,0.63925309,208,373,559,101,184,279,0.11647544,0.21106541,0.31918840,0.35344598,0.51244105,0.71485644
0,2409,CanadaQuebecCôte-Nord,Quebec,Côte-Nord,2021-01-17 17:54:07.148581,2020-03-26 00:00:00.000000,0.25547788,0.45356760,0.66578608,223,396,582,110,199,297,0.12654714,0.22765432,0.34055234,0.33054256,0.50152820,0.67140090
0,2409,CanadaQuebecCôte-Nord,Quebec,Côte-Nord,2021-01-17 17:54:07.148581,2020-03-27 00:00:00.000000,0.27604446,0.48572861,0.68069053,241,424,595,119,215,323,0.13620276,0.24621691,0.36969190,0.29964273,0.45869380,0.66127032
0,2409,CanadaQuebecCôte-Nord,Quebec,Côte-Nord,2021-01-17 17:54:07.148581,2020-03-28 00:00:00.000000,0.29110950,0.50713302,0.69280983,254,443,605,126,228,342,0.14487822,0.26097321,0.39119161,0.27337615,0.40952868,0.63921097
0,2409,CanadaQuebecCôte-Nord,Quebec,Côte-Nord,2021-01-17 17:54:07.148581,2020-03-29 00:00:00.000000,0.30188372,0.51798185,0.72235356,263,452,631,133,237,357,0.15263614,0.27168371,0.40935129,0.24422465,0.37318399,0.60868743
0,2409,CanadaQuebecCôte-Nord,Quebec,Côte-Nord,2021-01-17 17:54:07.148581,2020-03-30 00:00:00.000000,0.30861907,0.53350010,0.73794235,269,466,645,140,251,370,0.16077914,0.28718827,0.42351715,0.21576479,0.34089384,0.53843555
0,2409,CanadaQuebecCôte-Nord,Quebec,Côte-Nord,2021-01-17 17:54:07.148581,2020-03-31 00:00:00.000000,0.31602430,0.54313607,0.75389007,276,474,659,145,258,383,0.16603497,0.29595231,0.43857522,0.18738635,0.31052685,0.51040545
0,2409,CanadaQuebecCôte-Nord,Quebec,Côte-Nord,2021-01-17 17:54:07.148581,2020-04-01 00:00:00.000000,0.32963003,0.55429994,0.76276232,288,484,667,148,265,399,0.16999821,0.30413279,0.45705732,0.15853827,0.28551958,0.45547997
0,2409,CanadaQuebecCôte-Nord,Quebec,Côte-Nord,2021-01-17 17:54:07.148581,2020-04-02 00:00:00.000000,0.34211103,0.54736668,0.78088941,299,478,682,154,270,413,0.17634645,0.30941869,0.47285393,0.13219824,0.25958888,0.39216233
0,2409,CanadaQuebecCôte-Nord,Quebec,Côte-Nord,2021-01-17 17:54:07.148581,2020-04-03 00:00:00.000000,0.35224522,0.54430499,0.78460824,308,475,686,159,269,412,0.18205208,0.30851373,0.47191445,0.11782990,0.22559757,0.37305995
0,2409,CanadaQuebecCôte-Nord,Quebec,Côte-Nord,2021-01-17 17:54:07.148581,2020-04-04 00:00:00.000000,0.34348583,0.52929776,0.78148968,300,462,683,162,271,411,0.18546414,0.30997424,0.47062112,0.11640018,0.20057553,0.31900197
0,2409,CanadaQuebecCôte-Nord,Quebec,Côte-Nord,2021-01-17 17:54:07.148581,2020-04-05 00:00:00.000000,0.32784448,0.51374516,0.77353308,286,449,676,155,265,407,0.17800748,0.30386210,0.46629172,0.11590812,0.18453115,0.29965678
0,2409,CanadaQuebecCôte-Nord,Quebec,Côte-Nord,2021-01-17 17:54:07.148581,2020-04-06 00:00:00.000000,0.31112366,0.50287382,0.76109003,272,439,665,148,260,401,0.16944574,0.29805052,0.45935155,0.11264873,0.17550271,0.26041529
0,2409,CanadaQuebecCôte-Nord,Quebec,Côte-Nord,2021-01-17 17:54:07.148581,2020-04-07 00:00:00.000000,0.29274297,0.48012896,0.74003584,255,419,647,140,254,393,0.16044815,0.29087037,0.45055169,0.10861835,0.16672440,0.23153452
0,2409,CanadaQuebecCôte-Nord,Quebec,Côte-Nord,2021-01-17 17:54:07.148581,2020-04-08 00:00:00.000000,0.27485538,0.46041682,0.71465546,240,402,624,132,249,385,0.15141247,0.28524243,0.44032108,0.10120826,0.15691658,0.21863365
0,2409,CanadaQuebecCôte-Nord,Quebec,Côte-Nord,2021-01-17 17:54:07.148581,2020-04-09 00:00:00.000000,0.25717681,0.44014108,0.68557073,224,384,599,124,241,374,0.14250925,0.27581005,0.42846284,0.09950891,0.14590230,0.20783695
0,2409,CanadaQuebecCôte-Nord,Quebec,Côte-Nord,2021-01-17 17:54:07.148581,2020-04-10 00:00:00.000000,0.23928653,0.41746316,0.65446994,209,365,572,116,228,362,0.13372847,0.26154583,0.41486011,0.09549998,0.13738359,0.19264661
0,2409,CanadaQuebecCôte-Nord,Quebec,Côte-Nord,2021-01-17 17:54:07.148581,2020-04-11 00:00:00.000000,0.22109272,0.39337237,0.62285517,193,343,544,109,215,349,0.12494415,0.24654709,0.39995950,0.09312342,0.12997781,0.18448884
0,2409,CanadaQuebecCôte-Nord,Quebec,Côte-Nord,2021-01-17 17:54:07.148581,2020-04-12 00:00:00.000000,0.20336960,0.37220572,0.59214895,177,325,517,101,203,336,0.11606835,0.23255078,0.38438483,0.09154935,0.12610324,0.18217092
0,2409,CanadaQuebecCôte-Nord,Quebec,Côte-Nord,2021-01-17 17:54:07.148581,2020-04-13 00:00:00.000000,0.18630356,0.35008095,0.56181336,162,306,491,93,192,322,0.10727002,0.21961294,0.36889218,0.08166584,0.12012845,0.18088818
0,2409,CanadaQuebecCôte-Nord,Quebec,Côte-Nord,2021-01-17 17:54:07.148581,2020-04-14 00:00:00.000000,0.17014530,0.32842760,0.53269192,148,287,465,86,180,309,0.09869051,0.20662654,0.35368632,0.07703489,0.11761562,0.18025252
0,2409,CanadaQuebecCôte-Nord,Quebec,Côte-Nord,2021-01-17 17:54:07.148581,2020-04-15 00:00:00.000000,0.15479369,0.30862777,0.50494069,135,269,441,79,169,296,0.09045954,0.19342775,0.33883805,0.07544173,0.11453883,0.17998984
0,2409,CanadaQuebecCôte-Nord,Quebec,Côte-Nord,2021-01-17 17:54:07.148581,2020-04-16 00:00:00.000000,0.14014850,0.28916935,0.47855443,122,252,418,72,156,283,0.08260890,0.17942140,0.32423137,0.06743825,0.11028430,0.17672763
0,2409,CanadaQuebecCôte-Nord,Quebec,Côte-Nord,2021-01-17 17:54:07.148581,2020-04-17 00:00:00.000000,0.12646055,0.27059364,0.45198514,110,236,395,65,146,270,0.07512099,0.16793845,0.30953882,0.06575634,0.10548346,0.16222612
0,2409,CanadaQuebecCôte-Nord,Quebec,Côte-Nord,2021-01-17 17:54:07.148581,2020-04-18 00:00:00.000000,0.11393142,0.25197312,0.42454538,99,220,371,59,137,257,0.06805176,0.15693118,0.29452487,0.06479545,0.10151342,0.15894813
0,2409,CanadaQuebecCôte-Nord,Quebec,Côte-Nord,2021-01-17 17:54:07.148581,2020-04-19 00:00:00.000000,0.10328844,0.23379659,0.40614136,90,204,355,56,128,244,0.06408964,0.14699964,0.27934824,0.06422019,0.09969798,0.15883955
0,2409,CanadaQuebecCôte-Nord,Quebec,Côte-Nord,2021-01-17 17:54:07.148581,2020-04-20 00:00:00.000000,0.09502042,0.21701243,0.38337163,83,189,335,52,120,231,0.05992363,0.13827795,0.26463939,0.06378305,0.09854022,0.16013040
0,2409,CanadaQuebecCôte-Nord,Quebec,Côte-Nord,2021-01-17 17:54:07.148581,2020-04-21 00:00:00.000000,0.08784865,0.20361972,0.36108872,76,178,315,48,113,219,0.05573802,0.12999651,0.25052302,0.06324360,0.09562793,0.16303079
0,2409,CanadaQuebecCôte-Nord,Quebec,Côte-Nord,2021-01-17 17:54:07.148581,2020-04-22 00:00:00.000000,0.08119696,0.19010822,0.34007004,71,166,297,44,106,207,0.05067435,0.12212726,0.23707366,0.06201835,0.09066044,0.16300493
0,2409,CanadaQuebecCôte-Nord,Quebec,Côte-Nord,2021-01-17 17:54:07.148581,2020-04-23 00:00:00.000000,0.07508843,0.17665128,0.32124851,65,154,280,40,100,196,0.04583395,0.11463624,0.22480529,0.05884945,0.08832203,0.15851597
0,2409,CanadaQuebecCôte-Nord,Quebec,Côte-Nord,2021-01-17 17:54:07.148581,2020-04-24 00:00:00.000000,0.06951252,0.16409068,0.30351333,60,143,265,36,94,187,0.04165051,0.10784695,0.21461649,0.05656438,0.08724135,0.15043295
0,2409,CanadaQuebecCôte-Nord,Quebec,Côte-Nord,2021-01-17 17:54:07.148581,2020-04-25 00:00:00.000000,0.06444252,0.15240308,0.28718743,56,133,251,33,88,180,0.03803077,0.10122897,0.20652863,0.05437995,0.08520284,0.14334433
0,2409,CanadaQuebecCôte-Nord,Quebec,Côte-Nord,2021-01-17 17:54:07.148581,2020-04-26 00:00:00.000000,0.05987064,0.14141930,0.27244223,52,123,238,30,82,171,0.03489569,0.09476875,0.19634339,0.05114790,0.08540222,0.13947883
0,2409,CanadaQuebecCôte-Nord,Quebec,Côte-Nord,2021-01-17 17:54:07.148581,2020-04-27 00:00:00.000000,0.05573469,0.13158686,0.25818575,48,115,225,27,77,162,0.03179888,0.08879228,0.18529333,0.05016373,0.08367039,0.13905374
0,2409,CanadaQuebecCôte-Nord,Quebec,Côte-Nord,2021-01-17 17:54:07.148581,2020-04-28 00:00:00.000000,0.05289310,0.12315732,0.24397800,46,107,213,25,72,153,0.02888503,0.08292038,0.17570422,0.04977272,0.08300679,0.14001908
0,2409,CanadaQuebecCôte-Nord,Quebec,Côte-Nord,2021-01-17 17:54:07.148581,2020-04-29 00:00:00.000000,0.04896746,0.11597012,0.23040145,42,101,201,23,67,145,0.02730349,0.07712068,0.16636828,0.04965134,0.08295358,0.14157591
0,2409,CanadaQuebecCôte-Nord,Quebec,Côte-Nord,2021-01-17 17:54:07.148581,2020-04-30 00:00:00.000000,0.04546100,0.11000441,0.21744100,39,96,190,22,62,137,0.02600295,0.07176848,0.15736304,0.04962353,0.08104775,0.14860631
0,2409,CanadaQuebecCôte-Nord,Quebec,Côte-Nord,2021-01-17 17:54:07.148581,2020-05-01 00:00:00.000000,0.04261451,0.10279682,0.20399162,37,89,178,21,58,130,0.02487744,0.06682834,0.14872902,0.04964864,0.07966319,0.15029884
0,2409,CanadaQuebecCôte-Nord,Quebec,Côte-Nord,2021-01-17 17:54:07.148581,2020-05-02 00:00:00.000000,0.03998411,0.09667470,0.19105971,34,84,167,20,54,122,0.02391280,0.06248272,0.14047594,0.04679072,0.07923805,0.14999746
0,2409,CanadaQuebecCôte-Nord,Quebec,Côte-Nord,2021-01-17 17:54:07.148581,2020-05-03 00:00:00.000000,0.03744896,0.09175243,0.18014557,32,80,157,20,50,115,0.02306892,0.05803751,0.13259475,0.04702434,0.07870419,0.14970293
0,2409,CanadaQuebecCôte-Nord,Quebec,Côte-Nord,2021-01-17 17:54:07.148581,2020-05-04 00:00:00.000000,0.03625239,0.08596101,0.16991818,31,75,148,19,47,109,0.02180392,0.05427026,0.12525550,0.04555969,0.07804795,0.14947954
0,2409,CanadaQuebecCôte-Nord,Quebec,Côte-Nord,2021-01-17 17:54:07.148581,2020-05-05 00:00:00.000000,0.03524299,0.08070891,0.16217510,30,70,141,17,45,103,0.02041973,0.05153961,0.11838836,0.04541856,0.07787310,0.14922880
0,2409,CanadaQuebecCôte-Nord,Quebec,Côte-Nord,2021-01-17 17:54:07.148581,2020-05-06 00:00:00.000000,0.03194851,0.07592703,0.15573199,27,66,136,16,43,98,0.01912624,0.04926823,0.11260111,0.04515072,0.07664530,0.14876004
0,2409,CanadaQuebecCôte-Nord,Quebec,Côte-Nord,2021-01-17 17:54:07.148581,2020-05-07 00:00:00.000000,0.02892324,0.07233473,0.14929170,25,63,130,15,40,93,0.01793492,0.04681155,0.10667977,0.04457812,0.07530984,0.14775978
0,2409,CanadaQuebecCôte-Nord,Quebec,Côte-Nord,2021-01-17 17:54:07.148581,2020-05-08 00:00:00.000000,0.02722231,0.06776123,0.14247140,23,59,124,14,38,87,0.01684999,0.04451417,0.10027756,0.04349616,0.07666221,0.14604439
0,2409,CanadaQuebecCôte-Nord,Quebec,Côte-Nord,2021-01-17 17:54:07.148581,2020-05-09 00:00:00.000000,0.02566127,0.06519809,0.13582413,22,57,118,13,37,83,0.01584160,0.04264290,0.09498701,0.04234507,0.07513651,0.14415534
0,2409,CanadaQuebecCôte-Nord,Quebec,Côte-Nord,2021-01-17 17:54:07.148581,2020-05-10 00:00:00.000000,0.02310433,0.06053682,0.12643354,20,52,110,13,35,78,0.01491157,0.04017900,0.09003487,0.04246217,0.07433376,0.14829308
0,2409,CanadaQuebecCôte-Nord,Quebec,Côte-Nord,2021-01-17 17:54:07.148581,2020-05-11 00:00:00.000000,0.02070047,0.05600491,0.11765601,18,48,102,11,32,74,0.01348575,0.03711271,0.08479446,0.04177446,0.07437819,0.15119220
0,2409,CanadaQuebecCôte-Nord,Quebec,Côte-Nord,2021-01-17 17:54:07.148581,2020-05-12 00:00:00.000000,0.01842480,0.05139607,0.10938663,16,44,95,10,29,69,0.01213318,0.03418091,0.07949442,0.04079773,0.07485868,0.15232693
0,2409,CanadaQuebecCôte-Nord,Quebec,Côte-Nord,2021-01-17 17:54:07.148581,2020-05-13 00:00:00.000000,0.01631531,0.04700296,0.10128868,14,41,88,9,27,64,0.01087987,0.03179475,0.07428398,0.03970698,0.07438530,0.15302507
0,2409,CanadaQuebecCôte-Nord,Quebec,Côte-Nord,2021-01-17 17:54:07.148581,2020-05-14 00:00:00.000000,0.01438338,0.04279745,0.09366060,12,37,81,8,25,60,0.00973358,0.02917788,0.06925573,0.03782681,0.07431971,0.15303780
0,2409,CanadaQuebecCôte-Nord,Quebec,Côte-Nord,2021-01-17 17:54:07.148581,2020-05-15 00:00:00.000000,0.01262883,0.03881522,0.08648579,11,33,75,7,23,56,0.00869520,0.02671519,0.06446157,0.03831114,0.07166664,0.15160408
0,2409,CanadaQuebecCôte-Nord,Quebec,Côte-Nord,2021-01-17 17:54:07.148581,2020-05-16 00:00:00.000000,0.01104987,0.03513713,0.07972831,9,30,69,6,21,52,0.00776077,0.02453716,0.05992784,0.03809338,0.07194301,0.14880596
0,2409,CanadaQuebecCôte-Nord,Quebec,Côte-Nord,2021-01-17 17:54:07.148581,2020-05-17 00:00:00.000000,0.01292475,0.03436260,0.07619811,11,30,66,6,19,48,0.00687426,0.02230891,0.05566474,0.03800372,0.07104173,0.14811072
0,2409,CanadaQuebecCôte-Nord,Quebec,Côte-Nord,2021-01-17 17:54:07.148581,2020-05-18 00:00:00.000000,0.01462442,0.03307180,0.07181851,12,28,62,5,18,46,0.00673663,0.02094020,0.05263600,0.03796299,0.07256689,0.14735753
0,2409,CanadaQuebecCôte-Nord,Quebec,Côte-Nord,2021-01-17 17:54:07.148581,2020-05-19 00:00:00.000000,0.01514988,0.03295088,0.06784111,13,28,59,6,17,42,0.00708232,0.01978325,0.04894763,0.03792667,0.07136834,0.14745361
0,2409,CanadaQuebecCôte-Nord,Quebec,Côte-Nord,2021-01-17 17:54:07.148581,2020-05-20 00:00:00.000000,0.01595092,0.03243270,0.06427349,13,28,56,7,16,39,0.00823214,0.01911498,0.04534842,0.03801540,0.07204998,0.14735214
0,2409,CanadaQuebecCôte-Nord,Quebec,Côte-Nord,2021-01-17 17:54:07.148581,2020-05-21 00:00:00.000000,0.01572423,0.03282049,0.06304471,13,28,55,7,16,36,0.00834673,0.01915446,0.04201198,0.03756976,0.07300816,0.14653058
0,2409,CanadaQuebecCôte-Nord,Quebec,Côte-Nord,2021-01-17 17:54:07.148581,2020-05-22 00:00:00.000000,0.01528701,0.03252454,0.05994828,13,28,52,7,16,34,0.00827090,0.01889428,0.03923059,0.03687330,0.07365533,0.14369850
0,2409,CanadaQuebecCôte-Nord,Quebec,Côte-Nord,2021-01-17 17:54:07.148581,2020-05-23 00:00:00.000000,0.01492071,0.03123539,0.06226789,13,27,54,7,15,32,0.00827454,0.01796140,0.03666350,0.03546689,0.07358671,0.14401143
0,2409,CanadaQuebecCôte-Nord,Quebec,Côte-Nord,2021-01-17 17:54:07.148581,2020-05-24 00:00:00.000000,0.01610709,0.03002885,0.06024206,14,26,52,7,15,30,0.00822475,0.01781027,0.03510493,0.03509343,0.07400624,0.15461923
0,2409,CanadaQuebecCôte-Nord,Quebec,Côte-Nord,2021-01-17 17:54:07.148581,2020-05-25 00:00:00.000000,0.01541824,0.02940407,0.05832372,13,25,51,7,15,31,0.00833472,0.01750565,0.03547510,0.03489999,0.07386058,0.16275214
0,2409,CanadaQuebecCôte-Nord,Quebec,Côte-Nord,2021-01-17 17:54:07.148581,2020-05-26 00:00:00.000000,0.01577177,0.02947903,0.05673998,13,25,49,7,15,30,0.00835943,0.01734271,0.03513089,0.03483074,0.07300518,0.16469282
0,2409,CanadaQuebecCôte-Nord,Quebec,Côte-Nord,2021-01-17 17:54:07.148581,2020-05-27 00:00:00.000000,0.01586712,0.03010950,0.05653430,13,26,49,7,15,29,0.00837476,0.01732045,0.03415224,0.03483544,0.07236153,0.15932305
0,2409,CanadaQuebecCôte-Nord,Quebec,Côte-Nord,2021-01-17 17:54:07.148581,2020-05-28 00:00:00.000000,0.01556878,0.03018356,0.05558236,13,26,48,7,14,29,0.00849335,0.01711409,0.03326023,0.03488895,0.07149636,0.15677828
0,2409,CanadaQuebecCôte-Nord,Quebec,Côte-Nord,2021-01-17 17:54:07.148581,2020-05-29 00:00:00.000000,0.01532007,0.03121260,0.05452887,13,27,47,7,14,28,0.00835574,0.01703410,0.03310012,0.03497014,0.07157200,0.15476177
0,2409,CanadaQuebecCôte-Nord,Quebec,Côte-Nord,2021-01-17 17:54:07.148581,2020-05-30 00:00:00.000000,0.01512547,0.03040619,0.05364293,13,26,46,7,15,28,0.00832813,0.01741711,0.03276740,0.03503334,0.07260260,0.15283449
0,2409,CanadaQuebecCôte-Nord,Quebec,Côte-Nord,2021-01-17 17:54:07.148581,2020-05-31 00:00:00.000000,0.01470300,0.03088369,0.05444315,12,27,47,7,15,28,0.00829684,0.01755618,0.03225555,0.03428720,0.07254534,0.15090107
0,2409,CanadaQuebecCôte-Nord,Quebec,Côte-Nord,2021-01-17 17:54:07.148581,2020-06-01 00:00:00.000000,0.01468509,0.03126696,0.05537851,12,27,48,7,15,28,0.00843452,0.01738910,0.03212971,0.03339752,0.07267477,0.15025521
0,2409,CanadaQuebecCôte-Nord,Quebec,Côte-Nord,2021-01-17 17:54:07.148581,2020-06-02 00:00:00.000000,0.01460331,0.03089907,0.05543701,12,27,48,7,15,28,0.00877289,0.01729307,0.03222705,0.03348924,0.07273274,0.15050620
0,2409,CanadaQuebecCôte-Nord,Quebec,Côte-Nord,2021-01-17 17:54:07.148581,2020-06-03 00:00:00.000000,0.01450325,0.03072069,0.05702814,12,26,49,7,15,28,0.00887923,0.01720168,0.03252681,0.03515251,0.07366372,0.15089005
0,2409,CanadaQuebecCôte-Nord,Quebec,Côte-Nord,2021-01-17 17:54:07.148581,2020-06-04 00:00:00.000000,0.01439801,0.03073340,0.05743190,12,26,50,7,14,28,0.00901038,0.01693405,0.03298758,0.03515666,0.07389630,0.15136457
0,2409,CanadaQuebecCôte-Nord,Quebec,Côte-Nord,2021-01-17 17:54:07.148581,2020-06-05 00:00:00.000000,0.01429273,0.03098858,0.05861088,12,27,51,7,15,29,0.00864828,0.01759046,0.03346562,0.03516183,0.07382365,0.15286050
0,2409,CanadaQuebecCôte-Nord,Quebec,Côte-Nord,2021-01-17 17:54:07.148581,2020-06-06 00:00:00.000000,0.01417718,0.03209737,0.06004996,12,28,52,7,15,29,0.00831150,0.01770164,0.03394289,0.03516471,0.07369267,0.15284910
0,2409,CanadaQuebecCôte-Nord,Quebec,Côte-Nord,2021-01-17 17:54:07.148581,2020-06-07 00:00:00.000000,0.01308048,0.02996395,0.05695297,11,26,49,6,15,30,0.00800039,0.01816177,0.03442569,0.03257929,0.07332720,0.15356928
0,2409,CanadaQuebecCôte-Nord,Quebec,Côte-Nord,2021-01-17 17:54:07.148581,2020-06-08 00:00:00.000000,0.01199135,0.02774200,0.05380117,10,24,47,6,15,30,0.00754980,0.01752478,0.03444180,0.03174444,0.07256726,0.15420382
0,2409,CanadaQuebecCôte-Nord,Quebec,Côte-Nord,2021-01-17 17:54:07.148581,2020-06-09 00:00:00.000000,0.01089695,0.02533706,0.04970178,9,22,43,6,14,29,0.00703482,0.01656470,0.03370160,0.03173182,0.07252331,0.15454958
0,2409,CanadaQuebecCôte-Nord,Quebec,Côte-Nord,2021-01-17 17:54:07.148581,2020-06-10 00:00:00.000000,0.00984865,0.02325613,0.04595673,8,20,40,5,13,28,0.00650021,0.01559739,0.03257880,0.03216502,0.07254839,0.15497104
0,2409,CanadaQuebecCôte-Nord,Quebec,Côte-Nord,2021-01-17 17:54:07.148581,2020-06-11 00:00:00.000000,0.00881485,0.02099573,0.04348381,7,18,38,5,12,27,0.00597272,0.01453914,0.03089799,0.03302779,0.07398930,0.15399993
0,2409,CanadaQuebecCôte-Nord,Quebec,Côte-Nord,2021-01-17 17:54:07.148581,2020-06-12 00:00:00.000000,0.00785503,0.01905164,0.04108187,6,16,35,4,11,25,0.00546730,0.01331714,0.02879559,0.03390613,0.07279485,0.15280491
0,2409,CanadaQuebecCôte-Nord,Quebec,Côte-Nord,2021-01-17 17:54:07.148581,2020-06-13 00:00:00.000000,0.00698160,0.01706547,0.03858841,6,14,33,4,10,23,0.00499058,0.01212163,0.02690988,0.03556625,0.07284779,0.15614094
0,2409,CanadaQuebecCôte-Nord,Quebec,Côte-Nord,2021-01-17 17:54:07.148581,2020-06-14 00:00:00.000000,0.00619189,0.01524512,0.03607999,5,13,31,3,9,22,0.00454302,0.01089797,0.02527338,0.03784936,0.07242991,0.16208836
0,2409,CanadaQuebecCôte-Nord,Quebec,Côte-Nord,2021-01-17 17:54:07.148581,2020-06-15 00:00:00.000000,0.00548178,0.01359040,0.03378147,4,11,29,3,8,20,0.00412352,0.00985769,0.02370552,0.03831221,0.07315781,0.16665305
0,2409,CanadaQuebecCôte-Nord,Quebec,Côte-Nord,2021-01-17 17:54:07.148581,2020-06-16 00:00:00.000000,0.00484609,0.01231572,0.03164806,4,10,27,3,7,19,0.00370894,0.00892295,0.02222699,0.03892528,0.07316338,0.16816951
0,2409,CanadaQuebecCôte-Nord,Quebec,Côte-Nord,2021-01-17 17:54:07.148581,2020-06-17 00:00:00.000000,0.00430651,0.01128794,0.02964404,3,9,25,2,7,18,0.00323044,0.00808519,0.02083970,0.03841006,0.07186625,0.16799795
0,2409,CanadaQuebecCôte-Nord,Quebec,Côte-Nord,2021-01-17 17:54:07.148581,2020-06-18 00:00:00.000000,0.00387659,0.01034725,0.02775258,3,9,24,2,6,17,0.00280898,0.00733481,0.01953931,0.03847934,0.07136711,0.16823872
0,2409,CanadaQuebecCôte-Nord,Quebec,Côte-Nord,2021-01-17 17:54:07.148581,2020-06-19 00:00:00.000000,0.00335999,0.00953911,0.02598597,2,8,22,2,5,16,0.00243954,0.00666578,0.01831941,0.03859160,0.06989096,0.17144225
0,2409,CanadaQuebecCôte-Nord,Quebec,Côte-Nord,2021-01-17 17:54:07.148581,2020-06-20 00:00:00.000000,0.00293645,0.00882484,0.02400401,2,7,20,1,5,15,0.00211686,0.00608124,0.01715835,0.03873471,0.07108643,0.17605720
0,2409,CanadaQuebecCôte-Nord,Quebec,Côte-Nord,2021-01-17 17:54:07.148581,2020-06-21 00:00:00.000000,0.00431882,0.01002789,0.02367072,3,8,20,1,4,14,0.00183580,0.00551439,0.01607219,0.03796099,0.07135368,0.17999085
0,2409,CanadaQuebecCôte-Nord,Quebec,Côte-Nord,2021-01-17 17:54:07.148581,2020-06-22 00:00:00.000000,0.00536806,0.01125931,0.02657196,4,9,23,2,4,13,0.00231215,0.00542177,0.01562034,0.03893165,0.07130615,0.18365022
0,2409,CanadaQuebecCôte-Nord,Quebec,Côte-Nord,2021-01-17 17:54:07.148581,2020-06-23 00:00:00.000000,0.00557019,0.01274339,0.02680415,4,11,23,2,5,13,0.00258396,0.00574736,0.01510079,0.03874841,0.07211847,0.18786099
0,2409,CanadaQuebecCôte-Nord,Quebec,Côte-Nord,2021-01-17 17:54:07.148581,2020-06-24 00:00:00.000000,0.00579399,0.01402591,0.03012885,5,12,26,2,5,13,0.00295029,0.00657910,0.01555448,0.03807507,0.07251480,0.18945585
0,2409,CanadaQuebecCôte-Nord,Quebec,Côte-Nord,2021-01-17 17:54:07.148581,2020-06-25 00:00:00.000000,0.00593930,0.01478522,0.03359834,5,12,29,2,6,14,0.00341305,0.00697487,0.01644193,0.03719506,0.07376801,0.18986737
0,2409,CanadaQuebecCôte-Nord,Quebec,Côte-Nord,2021-01-17 17:54:07.148581,2020-06-26 00:00:00.000000,0.00610717,0.01611787,0.03690259,5,14,32,3,6,15,0.00358282,0.00761306,0.01730173,0.03672562,0.07333696,0.19043954
0,2409,CanadaQuebecCôte-Nord,Quebec,Côte-Nord,2021-01-17 17:54:07.148581,2020-06-27 00:00:00.000000,0.00642370,0.01687839,0.04008145,5,14,35,3,7,16,0.00355954,0.00833399,0.01921439,0.03657448,0.07508140,0.19202639
0,2409,CanadaQuebecCôte-Nord,Quebec,Côte-Nord,2021-01-17 17:54:07.148581,2020-06-28 00:00:00.000000,0.00744191,0.01810049,0.04069586,6,15,35,3,7,18,0.00354764,0.00896888,0.02108845,0.03652884,0.07588389,0.19704941
0,2409,CanadaQuebecCôte-Nord,Quebec,Côte-Nord,2021-01-17 17:54:07.148581,2020-06-29 00:00:00.000000,0.00809548,0.01906809,0.04121490,7,16,36,3,8,19,0.00403101,0.00935607,0.02233809,0.03651609,0.07780026,0.20470102
0,2409,CanadaQuebecCôte-Nord,Quebec,Côte-Nord,2021-01-17 17:54:07.148581,2020-06-30 00:00:00.000000,0.00832120,0.02010456,0.03937694,7,17,34,4,8,19,0.00475343,0.01008709,0.02271385,0.03626400,0.07962637,0.20909680
0,2409,CanadaQuebecCôte-Nord,Quebec,Côte-Nord,2021-01-17 17:54:07.148581,2020-07-01 00:00:00.000000,0.00851211,0.02104356,0.04209748,7,18,36,4,9,19,0.00521305,0.01066288,0.02182528,0.03608152,0.07956779,0.21136340
0,2409,CanadaQuebecCôte-Nord,Quebec,Côte-Nord,2021-01-17 17:54:07.148581,2020-07-02 00:00:00.000000,0.00893206,0.02130602,0.04254890,7,18,37,4,9,21,0.00535993,0.01105221,0.02428857,0.03482070,0.08074547,0.21211005
0,2409,CanadaQuebecCôte-Nord,Quebec,Côte-Nord,2021-01-17 17:54:07.148581,2020-07-03 00:00:00.000000,0.00912954,0.02187108,0.04522028,7,19,39,4,10,21,0.00548300,0.01185690,0.02467901,0.03525411,0.08030990,0.21199649
0,2409,CanadaQuebecCôte-Nord,Quebec,Côte-Nord,2021-01-17 17:54:07.148581,2020-07-04 00:00:00.000000,0.00893819,0.02314289,0.04789744,7,20,41,4,10,23,0.00558661,0.01235745,0.02673065,0.03628165,0.07923252,0.21111956
0,2409,CanadaQuebecCôte-Nord,Quebec,Côte-Nord,2021-01-17 17:54:07.148581,2020-07-05 00:00:00.000000,0.00972134,0.02373764,0.04721962,8,20,41,4,11,24,0.00567486,0.01300311,0.02745037,0.03559958,0.07795672,0.20759163
0,2409,CanadaQuebecCôte-Nord,Quebec,Côte-Nord,2021-01-17 17:54:07.148581,2020-07-06 00:00:00.000000,0.01026256,0.02440991,0.04604555,8,21,40,5,11,24,0.00577480,0.01325990,0.02793701,0.03534458,0.07791857,0.19712486
0,2409,CanadaQuebecCôte-Nord,Quebec,Côte-Nord,2021-01-17 17:54:07.148581,2020-07-07 00:00:00.000000,0.01130444,0.02520481,0.04514433,9,22,39,5,11,24,0.00596658,0.01366461,0.02824182,0.03586155,0.07734239,0.19424360
0,2409,CanadaQuebecCôte-Nord,Quebec,Côte-Nord,2021-01-17 17:54:07.148581,2020-07-08 00:00:00.000000,0.01209004,0.02574568,0.04620337,10,22,40,5,12,24,0.00622752,0.01398598,0.02764268,0.03634323,0.07733931,0.19426339
0,2409,CanadaQuebecCôte-Nord,Quebec,Côte-Nord,2021-01-17 17:54:07.148581,2020-07-09 00:00:00.000000,0.01281640,0.02596613,0.04791103,11,22,41,6,12,23,0.00710913,0.01426213,0.02715736,0.03650857,0.07797289,0.19428682
0,2409,CanadaQuebecCôte-Nord,Quebec,Côte-Nord,2021-01-17 17:54:07.148581,2020-07-10 00:00:00.000000,0.01349702,0.02579766,0.04765222,11,22,41,6,12,23,0.00758280,0.01456023,0.02738503,0.03656078,0.07821635,0.19434323
0,2409,CanadaQuebecCôte-Nord,Quebec,Côte-Nord,2021-01-17 17:54:07.148581,2020-07-11 00:00:00.000000,0.01396611,0.02557858,0.04732303,12,22,41,6,12,23,0.00779241,0.01465257,0.02724916,0.03733343,0.08002003,0.19454186
0,2409,CanadaQuebecCôte-Nord,Quebec,Côte-Nord,2021-01-17 17:54:07.148581,2020-07-12 00:00:00.000000,0.01400324,0.02598235,0.04709750,12,22,41,6,12,23,0.00799586,0.01468094,0.02722507,0.03750704,0.07955435,0.19527557
0,2409,CanadaQuebecCôte-Nord,Quebec,Côte-Nord,2021-01-17 17:54:07.148581,2020-07-13 00:00:00.000000,0.01371908,0.02604913,0.04764654,11,22,41,7,12,24,0.00808408,0.01447073,0.02751816,0.03781548,0.07991004,0.19708190
0,2409,CanadaQuebecCôte-Nord,Quebec,Côte-Nord,2021-01-17 17:54:07.148581,2020-07-14 00:00:00.000000,0.01309447,0.02609012,0.04817698,11,22,42,6,12,24,0.00785645,0.01448869,0.02782541,0.03785658,0.08067870,0.19879064
0,2409,CanadaQuebecCôte-Nord,Quebec,Côte-Nord,2021-01-17 17:54:07.148581,2020-07-15 00:00:00.000000,0.01344728,0.02614718,0.04921365,11,22,43,7,12,24,0.00803061,0.01480743,0.02813598,0.03792633,0.08213463,0.19915377
0,2409,CanadaQuebecCôte-Nord,Quebec,Côte-Nord,2021-01-17 17:54:07.148581,2020-07-16 00:00:00.000000,0.01376028,0.02744812,0.05072239,12,24,44,6,13,25,0.00800237,0.01501277,0.02916984,0.03815219,0.08130868,0.19823145
0,2409,CanadaQuebecCôte-Nord,Quebec,Côte-Nord,2021-01-17 17:54:07.148581,2020-07-17 00:00:00.000000,0.01406130,0.02733328,0.05217913,12,23,45,6,13,25,0.00794778,0.01516650,0.02937716,0.03877143,0.08121559,0.19790284
0,2409,CanadaQuebecCôte-Nord,Quebec,Côte-Nord,2021-01-17 17:54:07.148581,2020-07-18 00:00:00.000000,0.01403869,0.02733304,0.05361260,12,23,46,6,13,26,0.00789186,0.01543251,0.03000305,0.03935140,0.08147385,0.19953340
0,2409,CanadaQuebecCôte-Nord,Quebec,Côte-Nord,2021-01-17 17:54:07.148581,2020-07-19 00:00:00.000000,0.01301214,0.02551777,0.05163517,11,22,45,6,13,26,0.00783645,0.01563704,0.03018662,0.03888475,0.08294954,0.20029340
0,2409,CanadaQuebecCôte-Nord,Quebec,Côte-Nord,2021-01-17 17:54:07.148581,2020-07-20 00:00:00.000000,0.01202370,0.02356780,0.04960082,10,20,43,6,13,26,0.00756560,0.01511731,0.03027147,0.03922162,0.08338616,0.20043279
0,2409,CanadaQuebecCôte-Nord,Quebec,Côte-Nord,2021-01-17 17:54:07.148581,2020-07-21 00:00:00.000000,0.01108492,0.02174582,0.04746152,9,19,41,6,12,25,0.00718624,0.01419149,0.02967528,0.04033751,0.08775837,0.20002880
0,2409,CanadaQuebecCôte-Nord,Quebec,Côte-Nord,2021-01-17 17:54:07.148581,2020-07-22 00:00:00.000000,0.01023636,0.01998585,0.04529130,8,17,39,5,11,25,0.00671725,0.01336133,0.02892104,0.04212976,0.08700893,0.20787604
0,2409,CanadaQuebecCôte-Nord,Quebec,Côte-Nord,2021-01-17 17:54:07.148581,2020-07-23 00:00:00.000000,0.00947857,0.01875228,0.04314190,8,16,37,5,10,24,0.00623992,0.01248382,0.02770548,0.04409410,0.08811028,0.21176807
0,2409,CanadaQuebecCôte-Nord,Quebec,Côte-Nord,2021-01-17 17:54:07.148581,2020-07-24 00:00:00.000000,0.00857261,0.01717863,0.04073214,7,15,35,5,9,22,0.00576517,0.01143333,0.02620805,0.04532060,0.09404354,0.19630236
0,2409,CanadaQuebecCôte-Nord,Quebec,Côte-Nord,2021-01-17 17:54:07.148581,2020-07-25 00:00:00.000000,0.00758139,0.01578392,0.03819224,6,13,33,4,9,21,0.00530790,0.01047932,0.02466288,0.04543478,0.09328894,0.19342492
0,2409,CanadaQuebecCôte-Nord,Quebec,Côte-Nord,2021-01-17 17:54:07.148581,2020-07-26 00:00:00.000000,0.00824763,0.01625830,0.03650041,7,14,31,4,8,20,0.00479507,0.00971367,0.02315397,0.04504193,0.09126807,0.19021203
0,2409,CanadaQuebecCôte-Nord,Quebec,Côte-Nord,2021-01-17 17:54:07.148581,2020-07-27 00:00:00.000000,0.00802680,0.01695893,0.03945077,7,14,34,4,8,19,0.00470933,0.00945802,0.02231414,0.04502328,0.09023852,0.19357004
0,2409,CanadaQuebecCôte-Nord,Quebec,Côte-Nord,2021-01-17 17:54:07.148581,2020-07-28 00:00:00.000000,0.00902536,0.01757224,0.04057473,7,15,35,4,8,20,0.00483283,0.00950199,0.02381077,0.04480768,0.08794940,0.19513792
0,2409,CanadaQuebecCôte-Nord,Quebec,Côte-Nord,2021-01-17 17:54:07.148581,2020-07-29 00:00:00.000000,0.00942130,0.01834226,0.04117255,8,16,36,4,8,20,0.00502262,0.00979769,0.02384436,0.04409452,0.08927995,0.19451141
0,2409,CanadaQuebecCôte-Nord,Quebec,Côte-Nord,2021-01-17 17:54:07.148581,2020-07-30 00:00:00.000000,0.00945893,0.01942200,0.04164292,8,16,36,4,8,21,0.00514754,0.01017237,0.02402200,0.04390336,0.08989632,0.19155322
0,2409,CanadaQuebecCôte-Nord,Quebec,Côte-Nord,2021-01-17 17:54:07.148581,2020-07-31 00:00:00.000000,0.00972913,0.02026669,0.04198561,8,17,36,4,9,21,0.00521823,0.01033896,0.02420245,0.04525842,0.09129989,0.19375169
0,2409,CanadaQuebecCôte-Nord,Quebec,Côte-Nord,2021-01-17 17:54:07.148581,2020-08-01 00:00:00.000000,0.01020257,0.02070942,0.04224968,8,18,36,4,9,21,0.00530100,0.01071946,0.02438907,0.04679552,0.09356127,0.19738537
0,2409,CanadaQuebecCôte-Nord,Quebec,Côte-Nord,2021-01-17 17:54:07.148581,2020-08-02 00:00:00.000000,0.01184218,0.02198566,0.04228019,10,19,36,4,9,21,0.00538420,0.01119133,0.02456115,0.04778974,0.09370486,0.20024611
0,2409,CanadaQuebecCôte-Nord,Quebec,Côte-Nord,2021-01-17 17:54:07.148581,2020-08-03 00:00:00.000000,0.01236309,0.02339354,0.04228543,10,20,36,5,10,21,0.00594510,0.01163403,0.02466913,0.04798938,0.09584560,0.21061247
0,2409,CanadaQuebecCôte-Nord,Quebec,Côte-Nord,2021-01-17 17:54:07.148581,2020-08-04 00:00:00.000000,0.01238243,0.02422310,0.04226960,10,21,36,5,10,21,0.00678557,0.01231833,0.02473213,0.04801643,0.09576076,0.22807274
0,2409,CanadaQuebecCôte-Nord,Quebec,Côte-Nord,2021-01-17 17:54:07.148581,2020-08-05 00:00:00.000000,0.01290783,0.02468886,0.04424874,11,21,38,6,11,21,0.00723035,0.01319524,0.02476433,0.04806463,0.09852481,0.23258878
0,2409,CanadaQuebecCôte-Nord,Quebec,Côte-Nord,2021-01-17 17:54:07.148581,2020-08-06 00:00:00.000000,0.01315232,0.02610844,0.04843343,11,22,42,6,12,21,0.00727762,0.01431366,0.02480551,0.04931924,0.09785567,0.23368946
0,2409,CanadaQuebecCôte-Nord,Quebec,Côte-Nord,2021-01-17 17:54:07.148581,2020-08-07 00:00:00.000000,0.01337878,0.02658635,0.05254420,11,23,45,6,12,23,0.00730383,0.01435476,0.02723322,0.05151847,0.09758399,0.23126459
0,2409,CanadaQuebecCôte-Nord,Quebec,Côte-Nord,2021-01-17 17:54:07.148581,2020-08-08 00:00:00.000000,0.01291651,0.02663433,0.05254379,11,23,45,6,13,25,0.00702204,0.01487087,0.02904798,0.05181425,0.09770411,0.22447970
0,2409,CanadaQuebecCôte-Nord,Quebec,Côte-Nord,2021-01-17 17:54:07.148581,2020-08-09 00:00:00.000000,0.01150215,0.02512561,0.05064178,10,21,44,5,13,26,0.00675052,0.01513331,0.03063010,0.05192876,0.09914053,0.22106078
0,2409,CanadaQuebecCôte-Nord,Quebec,Côte-Nord,2021-01-17 17:54:07.148581,2020-08-10 00:00:00.000000,0.01019925,0.02358322,0.04853015,8,20,42,5,12,27,0.00637821,0.01471854,0.03140721,0.05197799,0.10141155,0.22189165
0,2409,CanadaQuebecCôte-Nord,Quebec,Côte-Nord,2021-01-17 17:54:07.148581,2020-08-11 00:00:00.000000,0.00899663,0.02209395,0.04420918,7,19,38,5,12,27,0.00595259,0.01422982,0.03099025,0.05208965,0.10227453,0.23054708
0,2409,CanadaQuebecCôte-Nord,Quebec,Côte-Nord,2021-01-17 17:54:07.148581,2020-08-12 00:00:00.000000,0.00790603,0.02090770,0.04156243,6,18,36,4,11,26,0.00531655,0.01365062,0.02986095,0.05266928,0.10203244,0.23920097
0,2409,CanadaQuebecCôte-Nord,Quebec,Côte-Nord,2021-01-17 17:54:07.148581,2020-08-13 00:00:00.000000,0.00692917,0.01955024,0.03915031,6,17,34,4,11,24,0.00470151,0.01308902,0.02832907,0.05343899,0.10330776,0.24372412
0,2409,CanadaQuebecCôte-Nord,Quebec,Côte-Nord,2021-01-17 17:54:07.148581,2020-08-14 00:00:00.000000,0.00606218,0.01846503,0.03681934,5,16,32,3,10,23,0.00422615,0.01239698,0.02659075,0.05358384,0.10208277,0.24556436
0,2409,CanadaQuebecCôte-Nord,Quebec,Côte-Nord,2021-01-17 17:54:07.148581,2020-08-15 00:00:00.000000,0.00530000,0.01714538,0.03460713,4,14,30,3,10,21,0.00379913,0.01162600,0.02477978,0.05449954,0.10070520,0.24249435
0,2409,CanadaQuebecCôte-Nord,Quebec,Côte-Nord,2021-01-17 17:54:07.148581,2020-08-16 00:00:00.000000,0.00731066,0.01808350,0.03428582,6,15,29,2,9,20,0.00341847,0.01073742,0.02297533,0.05573288,0.09964504,0.24413101
0,2409,CanadaQuebecCôte-Nord,Quebec,Côte-Nord,2021-01-17 17:54:07.148581,2020-08-17 00:00:00.000000,0.00799472,0.01932484,0.03519886,6,16,30,3,9,18,0.00386694,0.01038033,0.02157253,0.05817732,0.10568828,0.24640705
0,2409,CanadaQuebecCôte-Nord,Quebec,Côte-Nord,2021-01-17 17:54:07.148581,2020-08-18 00:00:00.000000,0.00814445,0.01993779,0.03876113,7,17,33,3,9,17,0.00430561,0.01054043,0.02042540,0.05969275,0.10607908,0.25209366
0,2409,CanadaQuebecCôte-Nord,Quebec,Côte-Nord,2021-01-17 17:54:07.148581,2020-08-19 00:00:00.000000,0.00895044,0.02120850,0.04234059,7,18,37,3,9,19,0.00449251,0.01084168,0.02239777,0.05869880,0.10671864,0.25698937
0,2409,CanadaQuebecCôte-Nord,Quebec,Côte-Nord,2021-01-17 17:54:07.148581,2020-08-20 00:00:00.000000,0.00973525,0.02202405,0.04582789,8,19,40,4,9,19,0.00473107,0.01136105,0.02258794,0.05706396,0.10799302,0.25768307
0,2409,CanadaQuebecCôte-Nord,Quebec,Côte-Nord,2021-01-17 17:54:07.148581,2020-08-21 00:00:00.000000,0.00990062,0.02332151,0.04920809,8,20,43,4,10,21,0.00500393,0.01207750,0.02413917,0.05686859,0.10789728,0.25739696
0,2409,CanadaQuebecCôte-Nord,Quebec,Côte-Nord,2021-01-17 17:54:07.148581,2020-08-22 00:00:00.000000,0.01013781,0.02427061,0.05245177,8,21,45,4,11,22,0.00530851,0.01299401,0.02598242,0.05827465,0.10865099,0.25686828
0,2409,CanadaQuebecCôte-Nord,Quebec,Côte-Nord,2021-01-17 17:54:07.148581,2020-08-23 00:00:00.000000,0.01166401,0.02599869,0.05335356,10,22,46,5,11,24,0.00575175,0.01347101,0.02784191,0.06063419,0.11170649,0.25619262
0,2409,CanadaQuebecCôte-Nord,Quebec,Côte-Nord,2021-01-17 17:54:07.148581,2020-08-24 00:00:00.000000,0.01171898,0.02774218,0.05753485,10,24,50,5,12,26,0.00617076,0.01437905,0.03006758,0.06045512,0.11268976,0.26359420
0,2409,CanadaQuebecCôte-Nord,Quebec,Côte-Nord,2021-01-17 17:54:07.148581,2020-08-25 00:00:00.000000,0.01269765,0.02945972,0.06175272,11,25,54,5,13,28,0.00655724,0.01519397,0.03249515,0.06043860,0.10918477,0.26365671
0,2409,CanadaQuebecCôte-Nord,Quebec,Côte-Nord,2021-01-17 17:54:07.148581,2020-08-26 00:00:00.000000,0.01390768,0.03056690,0.06846885,12,26,59,5,13,29,0.00662611,0.01584200,0.03380175,0.06054005,0.11108865,0.26361034
0,2409,CanadaQuebecCôte-Nord,Quebec,Côte-Nord,2021-01-17 17:54:07.148581,2020-08-27 00:00:00.000000,0.01505125,0.03198735,0.07096231,13,27,62,6,14,29,0.00712054,0.01679769,0.03362007,0.06073751,0.11608175,0.26352090
0,2409,CanadaQuebecCôte-Nord,Quebec,Côte-Nord,2021-01-17 17:54:07.148581,2020-08-28 00:00:00.000000,0.01461057,0.03304848,0.07423258,12,28,64,6,15,29,0.00776648,0.01746196,0.03414750,0.06108841,0.12280018,0.26450139
0,2409,CanadaQuebecCôte-Nord,Quebec,Côte-Nord,2021-01-17 17:54:07.148581,2020-08-29 00:00:00.000000,0.01391636,0.03393785,0.07819836,12,29,68,7,15,32,0.00834980,0.01786048,0.03749558,0.06168048,0.12521685,0.26519596
0,2409,CanadaQuebecCôte-Nord,Quebec,Côte-Nord,2021-01-17 17:54:07.148581,2020-08-30 00:00:00.000000,0.01897814,0.03739991,0.07866053,16,32,68,6,16,35,0.00797248,0.01844101,0.04073954,0.06175094,0.12697484,0.26592624
0,2409,CanadaQuebecCôte-Nord,Quebec,Côte-Nord,2021-01-17 17:54:07.148581,2020-08-31 00:00:00.000000,0.02398329,0.04200810,0.07901710,20,36,69,8,17,37,0.00947533,0.02030043,0.04261774,0.06208660,0.12755595,0.26685122
0,2409,CanadaQuebecCôte-Nord,Quebec,Côte-Nord,2021-01-17 17:54:07.148581,2020-09-01 00:00:00.000000,0.02366443,0.04465742,0.07917929,20,39,69,10,19,36,0.01209654,0.02246808,0.04184943,0.06242990,0.12690079,0.26826026
0,2409,CanadaQuebecCôte-Nord,Quebec,Côte-Nord,2021-01-17 17:54:07.148581,2020-09-02 00:00:00.000000,0.02507380,0.04692500,0.08429120,21,41,73,11,21,36,0.01261987,0.02426104,0.04147613,0.06281111,0.12710561,0.27065838
0,2409,CanadaQuebecCôte-Nord,Quebec,Côte-Nord,2021-01-17 17:54:07.148581,2020-09-03 00:00:00.000000,0.02542313,0.05109335,0.09412165,22,44,82,11,24,41,0.01287050,0.02752606,0.04760127,0.06352390,0.12921637,0.27443683
0,2409,CanadaQuebecCôte-Nord,Quebec,Côte-Nord,2021-01-17 17:54:07.148581,2020-09-04 00:00:00.000000,0.02569551,0.05617598,0.10128721,22,49,88,11,25,42,0.01307258,0.02955469,0.04915322,0.06388252,0.13087650,0.27904820
0,2409,CanadaQuebecCôte-Nord,Quebec,Côte-Nord,2021-01-17 17:54:07.148581,2020-09-05 00:00:00.000000,0.02591202,0.05972703,0.11201058,22,52,97,12,26,46,0.01378733,0.03010552,0.05342825,0.06479464,0.13098025,0.28233900
0,2409,CanadaQuebecCôte-Nord,Quebec,Côte-Nord,2021-01-17 17:54:07.148581,2020-09-06 00:00:00.000000,0.03512913,0.06416173,0.11247142,30,56,98,12,28,51,0.01479238,0.03288547,0.05892676,0.06620749,0.13175132,0.28331444
0,2409,CanadaQuebecCôte-Nord,Quebec,Côte-Nord,2021-01-17 17:54:07.148581,2020-09-07 00:00:00.000000,0.03902733,0.06728167,0.11330668,34,58,99,14,30,54,0.01634597,0.03518773,0.06238569,0.07011843,0.13107774,0.30076708
0,2409,CanadaQuebecCôte-Nord,Quebec,Côte-Nord,2021-01-17 17:54:07.148581,2020-09-08 00:00:00.000000,0.04138499,0.06944605,0.11583327,36,60,101,15,31,56,0.01828994,0.03635773,0.06449031,0.07226557,0.13287766,0.30568488
0,2409,CanadaQuebecCôte-Nord,Quebec,Côte-Nord,2021-01-17 17:54:07.148581,2020-09-09 00:00:00.000000,0.04240133,0.07157095,0.12046653,37,62,105,17,32,57,0.01999119,0.03754589,0.06581684,0.07076142,0.13402990,0.30263454
0,2409,CanadaQuebecCôte-Nord,Quebec,Côte-Nord,2021-01-17 17:54:07.148581,2020-09-10 00:00:00.000000,0.04265237,0.07419032,0.12481447,37,64,109,18,34,58,0.02086175,0.03888184,0.06673304,0.07029881,0.13622153,0.29395788
0,2409,CanadaQuebecCôte-Nord,Quebec,Côte-Nord,2021-01-17 17:54:07.148581,2020-09-11 00:00:00.000000,0.04290756,0.07581915,0.12813801,37,66,112,19,35,58,0.02246923,0.04079527,0.06741930,0.07016899,0.13784492,0.28582721
0,2409,CanadaQuebecCôte-Nord,Quebec,Côte-Nord,2021-01-17 17:54:07.148581,2020-09-12 00:00:00.000000,0.04192978,0.07652325,0.12943483,36,66,113,20,36,59,0.02288291,0.04186694,0.06798550,0.07011891,0.14118416,0.28171230
0,2409,CanadaQuebecCôte-Nord,Quebec,Côte-Nord,2021-01-17 17:54:07.148581,2020-09-13 00:00:00.000000,0.04283931,0.07879454,0.12884553,37,68,112,20,39,61,0.02320595,0.04518698,0.07078342,0.06989239,0.14592070,0.27533322
0,2409,CanadaQuebecCôte-Nord,Quebec,Côte-Nord,2021-01-17 17:54:07.148581,2020-09-14 00:00:00.000000,0.04373195,0.08048517,0.12451234,38,70,108,20,38,63,0.02306948,0.04447362,0.07295367,0.06578744,0.14398551,0.27568618
0,2409,CanadaQuebecCôte-Nord,Quebec,Côte-Nord,2021-01-17 17:54:07.148581,2020-09-15 00:00:00.000000,0.04466713,0.08306615,0.12261623,39,72,107,19,39,64,0.02270164,0.04505181,0.07372420,0.06610453,0.13962709,0.28036754
0,2409,CanadaQuebecCôte-Nord,Quebec,Côte-Nord,2021-01-17 17:54:07.148581,2020-09-16 00:00:00.000000,0.04566143,0.08194756,0.12153348,39,71,106,19,40,64,0.02224333,0.04624245,0.07332906,0.06765099,0.13814545,0.28054037
0,2409,CanadaQuebecCôte-Nord,Quebec,Côte-Nord,2021-01-17 17:54:07.148581,2020-09-17 00:00:00.000000,0.04377223,0.08221622,0.12027786,38,71,105,19,42,62,0.02222064,0.04829270,0.07203206,0.06922554,0.13998920,0.28103535
0,2409,CanadaQuebecCôte-Nord,Quebec,Côte-Nord,2021-01-17 17:54:07.148581,2020-09-18 00:00:00.000000,0.04194702,0.08184142,0.12018774,36,71,105,19,42,61,0.02190160,0.04849630,0.07047749,0.06858892,0.13991159,0.28533743
0,2409,CanadaQuebecCôte-Nord,Quebec,Côte-Nord,2021-01-17 17:54:07.148581,2020-09-19 00:00:00.000000,0.03988253,0.08046901,0.12136878,34,70,106,18,42,60,0.02124071,0.04850618,0.06959539,0.06797474,0.13768332,0.29089004
0,2409,CanadaQuebecCôte-Nord,Quebec,Côte-Nord,2021-01-17 17:54:07.148581,2020-09-20 00:00:00.000000,0.03888636,0.08057850,0.11983469,34,70,104,18,41,60,0.02066895,0.04787662,0.06946967,0.06756061,0.14312530,0.28988983
0,2409,CanadaQuebecCôte-Nord,Quebec,Côte-Nord,2021-01-17 17:54:07.148581,2020-09-21 00:00:00.000000,0.03594612,0.07839191,0.11826671,31,68,103,17,41,61,0.02047140,0.04752583,0.07021892,0.06777658,0.14068820,0.28753651
0,2409,CanadaQuebecCôte-Nord,Quebec,Côte-Nord,2021-01-17 17:54:07.148581,2020-09-22 00:00:00.000000,0.03352145,0.07758314,0.11662042,29,67,101,18,41,60,0.02070821,0.04699553,0.06956746,0.06922687,0.13846471,0.30198058
0,2409,CanadaQuebecCôte-Nord,Quebec,Côte-Nord,2021-01-17 17:54:07.148581,2020-09-23 00:00:00.000000,0.03567575,0.07822183,0.11425613,31,68,99,17,40,60,0.02038511,0.04639274,0.06917415,0.07157565,0.13959861,0.29946576
0,2409,CanadaQuebecCôte-Nord,Quebec,Côte-Nord,2021-01-17 17:54:07.148581,2020-09-24 00:00:00.000000,0.03744152,0.07613371,0.11504913,32,66,100,17,39,60,0.02025523,0.04480455,0.06887004,0.07446339,0.14070565,0.29279387
0,2409,CanadaQuebecCôte-Nord,Quebec,Côte-Nord,2021-01-17 17:54:07.148581,2020-09-25 00:00:00.000000,0.03706591,0.07328777,0.11589695,32,64,101,18,38,59,0.02117894,0.04428839,0.06775448,0.07552296,0.14112249,0.28642461
0,2409,CanadaQuebecCôte-Nord,Quebec,Côte-Nord,2021-01-17 17:54:07.148581,2020-09-26 00:00:00.000000,0.03670411,0.07161908,0.11642718,32,62,101,18,38,61,0.02152992,0.04364938,0.07045223,0.07788674,0.14089031,0.28325181
0,2409,CanadaQuebecCôte-Nord,Quebec,Côte-Nord,2021-01-17 17:54:07.148581,2020-09-27 00:00:00.000000,0.03734992,0.07013901,0.11923788,32,61,104,18,37,62,0.02097568,0.04298616,0.07091598,0.07597541,0.14057771,0.28180791
0,2409,CanadaQuebecCôte-Nord,Quebec,Côte-Nord,2021-01-17 17:54:07.148581,2020-09-28 00:00:00.000000,0.03579021,0.06965675,0.12491185,31,60,109,17,36,62,0.02011305,0.04218166,0.07133065,0.07567031,0.14048452,0.27724837
0,2409,CanadaQuebecCôte-Nord,Quebec,Côte-Nord,2021-01-17 17:54:07.148581,2020-09-29 00:00:00.000000,0.03529164,0.06930031,0.12355129,30,60,108,17,35,62,0.01950363,0.04076073,0.07169913,0.07678964,0.14120930,0.28145930
0,2409,CanadaQuebecCôte-Nord,Quebec,Côte-Nord,2021-01-17 17:54:07.148581,2020-09-30 00:00:00.000000,0.03485521,0.06874679,0.12005082,30,60,104,16,34,62,0.01906760,0.03974429,0.07199396,0.07746382,0.14144700,0.28232776
0,2409,CanadaQuebecCôte-Nord,Quebec,Côte-Nord,2021-01-17 17:54:07.148581,2020-10-01 00:00:00.000000,0.03542800,0.06814126,0.12130696,30,59,106,16,34,64,0.01875703,0.03919069,0.07382723,0.07843028,0.13989134,0.28342644
0,2409,CanadaQuebecCôte-Nord,Quebec,Côte-Nord,2021-01-17 17:54:07.148581,2020-10-02 00:00:00.000000,0.03470399,0.06699744,0.12792252,30,58,111,16,34,63,0.01857592,0.03891022,0.07215306,0.07789741,0.14099710,0.28315223
0,2409,CanadaQuebecCôte-Nord,Quebec,Côte-Nord,2021-01-17 17:54:07.148581,2020-10-03 00:00:00.000000,0.03392951,0.06790672,0.13437179,29,59,117,16,34,62,0.01874862,0.03917910,0.07188460,0.07713021,0.14191054,0.28217993
0,2409,CanadaQuebecCôte-Nord,Quebec,Côte-Nord,2021-01-17 17:54:07.148581,2020-10-04 00:00:00.000000,0.03488964,0.06780940,0.13233138,30,59,115,16,34,62,0.01831463,0.03901757,0.07141871,0.07612854,0.14434921,0.28026689
0,2409,CanadaQuebecCôte-Nord,Quebec,Côte-Nord,2021-01-17 17:54:07.148581,2020-10-05 00:00:00.000000,0.03461875,0.06796891,0.13007713,30,59,113,16,34,62,0.01863805,0.03913094,0.07120384,0.07524676,0.14753500,0.27565962
0,2409,CanadaQuebecCôte-Nord,Quebec,Côte-Nord,2021-01-17 17:54:07.148581,2020-10-06 00:00:00.000000,0.03424965,0.06770590,0.12739159,29,59,111,16,34,62,0.01921171,0.03903666,0.07108510,0.07655024,0.14933093,0.27437588
0,2409,CanadaQuebecCôte-Nord,Quebec,Côte-Nord,2021-01-17 17:54:07.148581,2020-10-07 00:00:00.000000,0.03331697,0.06802852,0.12448015,29,59,108,17,34,61,0.02045380,0.03900896,0.07046364,0.08475990,0.14971563,0.28392225
0,2409,CanadaQuebecCôte-Nord,Quebec,Côte-Nord,2021-01-17 17:54:07.148581,2020-10-08 00:00:00.000000,0.03301089,0.06923955,0.12146516,28,60,106,18,34,60,0.02071580,0.03918441,0.06965945,0.08957146,0.15254037,0.28879547
0,2409,CanadaQuebecCôte-Nord,Quebec,Côte-Nord,2021-01-17 17:54:07.148581,2020-10-09 00:00:00.000000,0.03273217,0.06788007,0.11941567,28,59,104,17,33,60,0.02041918,0.03833780,0.06975644,0.09314389,0.15592298,0.29053082
0,2409,CanadaQuebecCôte-Nord,Quebec,Côte-Nord,2021-01-17 17:54:07.148581,2020-10-10 00:00:00.000000,0.03247315,0.06783349,0.11925882,28,59,104,17,33,61,0.02003036,0.03779391,0.06980125,0.09357475,0.15671833,0.29032574
0,2409,CanadaQuebecCôte-Nord,Quebec,Côte-Nord,2021-01-17 17:54:07.148581,2020-10-11 00:00:00.000000,0.03419563,0.06731437,0.11745698,29,58,102,17,33,61,0.01967655,0.03883734,0.06979381,0.09436363,0.15710620,0.28800890
0,2409,CanadaQuebecCôte-Nord,Quebec,Côte-Nord,2021-01-17 17:54:07.148581,2020-10-12 00:00:00.000000,0.03440874,0.06720488,0.11658452,30,58,101,16,33,60,0.01939280,0.03871386,0.06938778,0.09904871,0.15700185,0.30583328
0,2409,CanadaQuebecCôte-Nord,Quebec,Côte-Nord,2021-01-17 17:54:07.148581,2020-10-13 00:00:00.000000,0.03415289,0.06665470,0.11711727,29,58,102,16,34,60,0.01917300,0.03960336,0.06871253,0.10348871,0.15799174,0.31021921
0,2409,CanadaQuebecCôte-Nord,Quebec,Côte-Nord,2021-01-17 17:54:07.148581,2020-10-14 00:00:00.000000,0.03393167,0.06660322,0.11743391,29,58,102,16,35,59,0.01899750,0.04004783,0.06785756,0.10372081,0.15977646,0.31452557
0,2409,CanadaQuebecCôte-Nord,Quebec,Côte-Nord,2021-01-17 17:54:07.148581,2020-10-15 00:00:00.000000,0.03373755,0.06656124,0.11747748,29,58,102,16,34,58,0.01864717,0.03957322,0.06688530,0.10488039,0.16264097,0.31875945
0,2409,CanadaQuebecCôte-Nord,Quebec,Côte-Nord,2021-01-17 17:54:07.148581,2020-10-16 00:00:00.000000,0.03333208,0.06630356,0.11730095,29,57,102,15,34,57,0.01821427,0.03920212,0.06583934,0.10595850,0.16384259,0.33123563
0,2409,CanadaQuebecCôte-Nord,Quebec,Côte-Nord,2021-01-17 17:54:07.148581,2020-10-17 00:00:00.000000,0.03266125,0.06658510,0.11390569,28,58,99,15,34,56,0.01781618,0.03909394,0.06474919,0.10512899,0.16780143,0.33424733
0,2409,CanadaQuebecCôte-Nord,Quebec,Côte-Nord,2021-01-17 17:54:07.148581,2020-10-18 00:00:00.000000,0.03217143,0.06709430,0.11030437,28,58,96,15,34,56,0.01744615,0.03976603,0.06411192,0.10319547,0.16957079,0.32817819
0,2409,CanadaQuebecCôte-Nord,Quebec,Côte-Nord,2021-01-17 17:54:07.148581,2020-10-19 00:00:00.000000,0.03122418,0.06729510,0.10680109,27,58,93,15,35,54,0.01762293,0.04020928,0.06285914,0.10406410,0.17486280,0.33337980
0,2409,CanadaQuebecCôte-Nord,Quebec,Côte-Nord,2021-01-17 17:54:07.148581,2020-10-20 00:00:00.000000,0.03052089,0.06876149,0.10225980,26,60,89,15,35,53,0.01793638,0.04019641,0.06170438,0.11161336,0.18374245,0.33698747
0,2409,CanadaQuebecCôte-Nord,Quebec,Côte-Nord,2021-01-17 17:54:07.148581,2020-10-21 00:00:00.000000,0.03110186,0.06890294,0.09918662,27,60,86,15,34,53,0.01770961,0.04000823,0.06070420,0.12046487,0.18357607,0.34215091
0,2409,CanadaQuebecCôte-Nord,Quebec,Côte-Nord,2021-01-17 17:54:07.148581,2020-10-22 00:00:00.000000,0.03171397,0.06856831,0.09760087,27,59,85,15,35,52,0.01751225,0.04038837,0.05969629,0.12239683,0.18370473,0.35841281
0,2409,CanadaQuebecCôte-Nord,Quebec,Côte-Nord,2021-01-17 17:54:07.148581,2020-10-23 00:00:00.000000,0.03255770,0.06979505,0.09776152,28,61,85,15,35,51,0.01762930,0.04061884,0.05885340,0.12533699,0.18790418,0.35365131
0,2409,CanadaQuebecCôte-Nord,Quebec,Côte-Nord,2021-01-17 17:54:07.148581,2020-10-24 00:00:00.000000,0.03305926,0.07025922,0.10054290,28,61,87,15,35,50,0.01733402,0.04028246,0.05785757,0.12655797,0.18869754,0.34703534
0,2409,CanadaQuebecCôte-Nord,Quebec,Côte-Nord,2021-01-17 17:54:07.148581,2020-10-25 00:00:00.000000,0.03466842,0.07162535,0.10215167,30,62,89,14,35,52,0.01694525,0.04069474,0.05962172,0.12908294,0.19724154,0.34379950
0,2409,CanadaQuebecCôte-Nord,Quebec,Côte-Nord,2021-01-17 17:54:07.148581,2020-10-26 00:00:00.000000,0.03564262,0.07381935,0.10323328,31,64,90,15,35,53,0.01734363,0.04089705,0.06105010,0.12745261,0.20206188,0.34557763
0,2409,CanadaQuebecCôte-Nord,Quebec,Côte-Nord,2021-01-17 17:54:07.148581,2020-10-27 00:00:00.000000,0.03638995,0.07423834,0.10394171,31,64,90,15,36,55,0.01810745,0.04168122,0.06299371,0.12410159,0.20621637,0.34661986
0,2409,CanadaQuebecCôte-Nord,Quebec,Côte-Nord,2021-01-17 17:54:07.148581,2020-10-28 00:00:00.000000,0.03556698,0.07453391,0.10624130,31,65,92,16,37,56,0.01904615,0.04289578,0.06482615,0.13004986,0.21236901,0.34757275
0,2409,CanadaQuebecCôte-Nord,Quebec,Côte-Nord,2021-01-17 17:54:07.148581,2020-10-29 00:00:00.000000,0.03747190,0.07448704,0.11022425,32,65,96,17,38,57,0.01985355,0.04351919,0.06626977,0.12868584,0.21738721,0.34901301
0,2409,CanadaQuebecCôte-Nord,Quebec,Côte-Nord,2021-01-17 17:54:07.148581,2020-10-30 00:00:00.000000,0.03783722,0.07559068,0.11446685,33,66,100,17,38,59,0.02048063,0.04347345,0.06766151,0.13860660,0.22671839,0.35215590
0,2409,CanadaQuebecCôte-Nord,Quebec,Côte-Nord,2021-01-17 17:54:07.148581,2020-10-31 00:00:00.000000,0.03617641,0.07676153,0.11877112,31,67,103,17,38,59,0.02033194,0.04415710,0.06825776,0.13870664,0.23029982,0.37005135
0,2409,CanadaQuebecCôte-Nord,Quebec,Côte-Nord,2021-01-17 17:54:07.148581,2020-11-01 00:00:00.000000,0.03903229,0.07965064,0.12207532,34,69,106,17,39,61,0.02011639,0.04482380,0.07066754,0.13881970,0.23611684,0.43445942
0,2409,CanadaQuebecCôte-Nord,Quebec,Côte-Nord,2021-01-17 17:54:07.148581,2020-11-02 00:00:00.000000,0.04328151,0.08185865,0.12545267,37,71,109,17,40,63,0.02033622,0.04581716,0.07208728,0.14651598,0.24516367,0.46769229
0,2409,CanadaQuebecCôte-Nord,Quebec,Côte-Nord,2021-01-17 17:54:07.148581,2020-11-03 00:00:00.000000,0.04772787,0.08490799,0.12944841,41,74,113,18,41,64,0.02153504,0.04721088,0.07342684,0.15726606,0.24996625,0.46538033
0,2409,CanadaQuebecCôte-Nord,Quebec,Côte-Nord,2021-01-17 17:54:07.148581,2020-11-04 00:00:00.000000,0.04824412,0.08831619,0.13952629,42,77,122,20,42,67,0.02292739,0.04818333,0.07695534,0.15734029,0.26259713,0.45897279
0,2409,CanadaQuebecCôte-Nord,Quebec,Côte-Nord,2021-01-17 17:54:07.148581,2020-11-05 00:00:00.000000,0.04914269,0.09303852,0.14695289,42,81,128,21,43,70,0.02444958,0.04989875,0.08088989,0.15780244,0.26736132,0.46966073
0,2409,CanadaQuebecCôte-Nord,Quebec,Côte-Nord,2021-01-17 17:54:07.148581,2020-11-06 00:00:00.000000,0.05151130,0.09680598,0.15494453,45,84,135,22,46,73,0.02607028,0.05325581,0.08415003,0.18565126,0.27481165,0.49729376
0,2409,CanadaQuebecCôte-Nord,Quebec,Côte-Nord,2021-01-17 17:54:07.148581,2020-11-07 00:00:00.000000,0.05042064,0.09981741,0.16182060,44,87,141,23,48,74,0.02724275,0.05491396,0.08566149,0.18958391,0.28134944,0.46383017
0,2409,CanadaQuebecCôte-Nord,Quebec,Côte-Nord,2021-01-17 17:54:07.148581,2020-11-08 00:00:00.000000,0.05664756,0.10758169,0.16525907,49,94,144,24,50,76,0.02751202,0.05742753,0.08726171,0.19919506,0.28945672,0.49111886
0,2409,CanadaQuebecCôte-Nord,Quebec,Côte-Nord,2021-01-17 17:54:07.148581,2020-11-09 00:00:00.000000,0.06413946,0.11484525,0.17102627,56,100,149,25,52,78,0.02951900,0.06023871,0.08927663,0.20567364,0.29402328,0.49924501
0,2409,CanadaQuebecCôte-Nord,Quebec,Côte-Nord,2021-01-17 17:54:07.148581,2020-11-10 00:00:00.000000,0.07135669,0.11993254,0.17976177,62,104,157,27,55,80,0.03121865,0.06344059,0.09253519,0.21341368,0.30781054,0.50094969
0,2409,CanadaQuebecCôte-Nord,Quebec,Côte-Nord,2021-01-17 17:54:07.148581,2020-11-11 00:00:00.000000,0.07665069,0.12900047,0.18690620,67,112,163,29,58,85,0.03407253,0.06696374,0.09770430,0.21761369,0.32164687,0.50762828
0,2409,CanadaQuebecCôte-Nord,Quebec,Côte-Nord,2021-01-17 17:54:07.148581,2020-11-12 00:00:00.000000,0.08185968,0.13757265,0.20297843,71,120,177,32,62,90,0.03725346,0.07136165,0.10396501,0.21941405,0.32155816,0.53554698
0,2409,CanadaQuebecCôte-Nord,Quebec,Côte-Nord,2021-01-17 17:54:07.148581,2020-11-13 00:00:00.000000,0.08719415,0.14329418,0.21715827,76,125,189,34,66,95,0.03992769,0.07617078,0.10873669,0.22617220,0.32243125,0.55197862
0,2409,CanadaQuebecCôte-Nord,Quebec,Côte-Nord,2021-01-17 17:54:07.148581,2020-11-14 00:00:00.000000,0.09109201,0.14953907,0.23175168,79,130,202,37,70,100,0.04265952,0.08056387,0.11454226,0.23459616,0.34074614,0.55923752
0,2409,CanadaQuebecCôte-Nord,Quebec,Côte-Nord,2021-01-17 17:54:07.148581,2020-11-15 00:00:00.000000,0.09327582,0.15761696,0.24541230,81,137,214,39,74,105,0.04545120,0.08544509,0.12040920,0.23673800,0.34201836,0.56214207
0,2409,CanadaQuebecCôte-Nord,Quebec,Côte-Nord,2021-01-17 17:54:07.148581,2020-11-16 00:00:00.000000,0.09544940,0.16571408,0.25952205,83,144,226,41,77,111,0.04710564,0.08891332,0.12734360,0.24186877,0.34488868,0.56150301
0,2409,CanadaQuebecCôte-Nord,Quebec,Côte-Nord,2021-01-17 17:54:07.148581,2020-11-17 00:00:00.000000,0.09779613,0.17109069,0.27366505,85,149,239,42,80,117,0.04808858,0.09256328,0.13446618,0.24917915,0.34737242,0.57074572
0,2409,CanadaQuebecCôte-Nord,Quebec,Côte-Nord,2021-01-17 17:54:07.148581,2020-11-18 00:00:00.000000,0.10041390,0.17850927,0.28672407,87,156,250,42,84,123,0.04906061,0.09691011,0.14121169,0.24911403,0.34611113,0.57345419
0,2409,CanadaQuebecCôte-Nord,Quebec,Côte-Nord,2021-01-17 17:54:07.148581,2020-11-19 00:00:00.000000,0.10341648,0.18466239,0.29774238,90,161,260,46,87,129,0.05301844,0.10056397,0.14783057,0.24912540,0.34700803,0.57325406
0,2409,CanadaQuebecCôte-Nord,Quebec,Côte-Nord,2021-01-17 17:54:07.148581,2020-11-20 00:00:00.000000,0.10338433,0.19273545,0.30750881,90,168,268,47,91,135,0.05454878,0.10475507,0.15446848,0.24917388,0.35154043,0.57297049
0,2409,CanadaQuebecCôte-Nord,Quebec,Côte-Nord,2021-01-17 17:54:07.148581,2020-11-21 00:00:00.000000,0.10319493,0.19830420,0.31689151,90,173,277,47,94,140,0.05393360,0.10829484,0.16123078,0.24941107,0.35102182,0.57931002
0,2409,CanadaQuebecCôte-Nord,Quebec,Côte-Nord,2021-01-17 17:54:07.148581,2020-11-22 00:00:00.000000,0.10702031,0.20447137,0.32630534,93,178,285,46,97,150,0.05331563,0.11193744,0.17266139,0.24047292,0.35819642,0.58404335
0,2409,CanadaQuebecCôte-Nord,Quebec,Côte-Nord,2021-01-17 17:54:07.148581,2020-11-23 00:00:00.000000,0.11031644,0.21197913,0.33579229,96,185,293,46,101,159,0.05321946,0.11593133,0.18195702,0.23587963,0.36113163,0.56799218
0,2409,CanadaQuebecCôte-Nord,Quebec,Côte-Nord,2021-01-17 17:54:07.148581,2020-11-24 00:00:00.000000,0.11130482,0.21959700,0.34546040,97,192,302,46,105,165,0.05344716,0.12087560,0.18965264,0.23958171,0.36731036,0.55587429
0,2409,CanadaQuebecCôte-Nord,Quebec,Côte-Nord,2021-01-17 17:54:07.148581,2020-11-25 00:00:00.000000,0.11775776,0.22919900,0.35566312,102,200,311,49,111,171,0.05708901,0.12753341,0.19640708,0.25235426,0.37022570,0.54772355
0,2409,CanadaQuebecCôte-Nord,Quebec,Côte-Nord,2021-01-17 17:54:07.148581,2020-11-26 00:00:00.000000,0.12506355,0.23858037,0.37256645,109,208,325,53,116,177,0.06124808,0.13314067,0.20331881,0.27781204,0.38097733,0.56323241
0,2409,CanadaQuebecCôte-Nord,Quebec,Côte-Nord,2021-01-17 17:54:07.148581,2020-11-27 00:00:00.000000,0.13450546,0.24736513,0.38649361,117,216,337,57,120,186,0.06590197,0.13752168,0.21353958,0.27869614,0.38526816,0.59083371
0,2409,CanadaQuebecCôte-Nord,Quebec,Côte-Nord,2021-01-17 17:54:07.148581,2020-11-28 00:00:00.000000,0.14479135,0.26029284,0.40094303,126,227,350,62,124,196,0.07100181,0.14230550,0.22515289,0.27817186,0.39594937,0.60520922
0,2409,CanadaQuebecCôte-Nord,Quebec,Côte-Nord,2021-01-17 17:54:07.148581,2020-11-29 00:00:00.000000,0.15134574,0.27516157,0.41886338,132,240,366,65,128,207,0.07460165,0.14731666,0.23729785,0.27816220,0.40286628,0.60902985
0,2409,CanadaQuebecCôte-Nord,Quebec,Côte-Nord,2021-01-17 17:54:07.148581,2020-11-30 00:00:00.000000,0.15838633,0.28688523,0.44028446,138,250,385,66,135,216,0.07638826,0.15459128,0.24804499,0.27030046,0.40760056,0.60281341
0,2409,CanadaQuebecCôte-Nord,Quebec,Côte-Nord,2021-01-17 17:54:07.148581,2020-12-01 00:00:00.000000,0.16581744,0.29854541,0.46307957,145,261,404,69,140,229,0.07904727,0.16023252,0.26279329,0.27773374,0.40871129,0.59675159
0,2409,CanadaQuebecCôte-Nord,Quebec,Côte-Nord,2021-01-17 17:54:07.148581,2020-12-02 00:00:00.000000,0.17360380,0.31089797,0.48698278,151,271,425,72,144,241,0.08292291,0.16577678,0.27594187,0.29148200,0.41585294,0.57797199
0,2409,CanadaQuebecCôte-Nord,Quebec,Côte-Nord,2021-01-17 17:54:07.148581,2020-12-03 00:00:00.000000,0.18169413,0.32323422,0.51236540,158,282,448,75,151,251,0.08684245,0.17365347,0.28805489,0.30140742,0.41921726,0.56176718
0,2409,CanadaQuebecCôte-Nord,Quebec,Côte-Nord,2021-01-17 17:54:07.148581,2020-12-04 00:00:00.000000,0.19374876,0.33413638,0.54093973,169,292,473,79,159,262,0.09086519,0.18272977,0.29975696,0.30167983,0.42084884,0.55115370
0,2409,CanadaQuebecCôte-Nord,Quebec,Côte-Nord,2021-01-17 17:54:07.148581,2020-12-05 00:00:00.000000,0.21131680,0.34645703,0.56334708,184,302,492,83,167,272,0.09502129,0.19103608,0.31205677,0.29911269,0.41242579,0.54403262
0,2409,CanadaQuebecCôte-Nord,Quebec,Côte-Nord,2021-01-17 17:54:07.148581,2020-12-06 00:00:00.000000,0.22131195,0.36670119,0.57902634,193,320,506,86,175,285,0.09941086,0.20022673,0.32693642,0.28052289,0.40360941,0.54330807
0,2409,CanadaQuebecCôte-Nord,Quebec,Côte-Nord,2021-01-17 17:54:07.148581,2020-12-07 00:00:00.000000,0.22797556,0.38748922,0.60059859,199,338,525,90,181,296,0.10387457,0.20718770,0.33929343,0.26865982,0.40248255,0.54100721
0,2409,CanadaQuebecCôte-Nord,Quebec,Côte-Nord,2021-01-17 17:54:07.148581,2020-12-08 00:00:00.000000,0.23093358,0.40494407,0.61111750,201,354,534,94,189,308,0.10845122,0.21639941,0.35232218,0.27825577,0.39561555,0.53605378
0,2409,CanadaQuebecCôte-Nord,Quebec,Côte-Nord,2021-01-17 17:54:07.148581,2020-12-09 00:00:00.000000,0.23485592,0.41746133,0.63005432,205,365,550,99,196,320,0.11350158,0.22438113,0.36637144,0.26933349,0.38669853,0.52653710
0,2409,CanadaQuebecCôte-Nord,Quebec,Côte-Nord,2021-01-17 17:54:07.148581,2020-12-10 00:00:00.000000,0.24447827,0.43649300,0.63677102,213,381,556,103,202,330,0.11875119,0.23137258,0.37772417,0.25008085,0.37096221,0.52564369
0,2409,CanadaQuebecCôte-Nord,Quebec,Côte-Nord,2021-01-17 17:54:07.148581,2020-12-11 00:00:00.000000,0.25403812,0.44862734,0.64243414,222,392,561,108,211,339,0.12389816,0.24221841,0.38809598,0.24398000,0.35631320,0.51921361
0,2409,CanadaQuebecCôte-Nord,Quebec,Côte-Nord,2021-01-17 17:54:07.148581,2020-12-12 00:00:00.000000,0.26297951,0.45629298,0.64874022,229,399,567,112,219,348,0.12879011,0.25074396,0.39890751,0.23806889,0.34447765,0.49957519
0,2409,CanadaQuebecCôte-Nord,Quebec,Côte-Nord,2021-01-17 17:54:07.148581,2020-12-13 00:00:00.000000,0.27092333,0.46348429,0.65792175,236,405,575,116,223,356,0.13299333,0.25530204,0.40769933,0.23515138,0.33142417,0.48287612
0,2409,CanadaQuebecCôte-Nord,Quebec,Côte-Nord,2021-01-17 17:54:07.148581,2020-12-14 00:00:00.000000,0.27829027,0.48043401,0.67244200,243,420,588,119,228,361,0.13668001,0.26093912,0.41365502,0.21933933,0.32091836,0.47700352
0,2409,CanadaQuebecCôte-Nord,Quebec,Côte-Nord,2021-01-17 17:54:07.148581,2020-12-15 00:00:00.000000,0.28544369,0.49632132,0.68721002,249,434,600,123,233,367,0.14070409,0.26728833,0.42016065,0.21648815,0.31385484,0.46317164
0,2409,CanadaQuebecCôte-Nord,Quebec,Côte-Nord,2021-01-17 17:54:07.148581,2020-12-16 00:00:00.000000,0.29244846,0.50235683,0.68659993,255,439,600,126,237,372,0.14483196,0.27198299,0.42580964,0.20459697,0.30193226,0.45871135
0,2409,CanadaQuebecCôte-Nord,Quebec,Côte-Nord,2021-01-17 17:54:07.148581,2020-12-17 00:00:00.000000,0.28993884,0.50571687,0.69702024,253,442,609,129,243,377,0.14827647,0.27817251,0.43139789,0.19906842,0.28800396,0.44222344
0,2409,CanadaQuebecCôte-Nord,Quebec,Côte-Nord,2021-01-17 17:54:07.148581,2020-12-18 00:00:00.000000,0.28548305,0.50382431,0.70353183,249,440,615,132,245,383,0.15110552,0.28100485,0.43877073,0.19580787,0.27541511,0.40984134
0,2409,CanadaQuebecCôte-Nord,Quebec,Côte-Nord,2021-01-17 17:54:07.148581,2020-12-19 00:00:00.000000,0.28007141,0.49522104,0.70180068,244,433,613,133,247,389,0.15315844,0.28258410,0.44531425,0.18416703,0.25533046,0.38989258
0,2409,CanadaQuebecCôte-Nord,Quebec,Côte-Nord,2021-01-17 17:54:07.148581,2020-12-20 00:00:00.000000,0.27173206,0.48507434,0.69528592,237,424,608,134,246,393,0.15413467,0.28233445,0.45049406,0.17151599,0.23427526,0.38156485
0,2409,CanadaQuebecCôte-Nord,Quebec,Côte-Nord,2021-01-17 17:54:07.148581,2020-12-21 00:00:00.000000,0.26561159,0.48240620,0.68909788,232,421,602,134,245,390,0.15379933,0.28069853,0.44674710,0.16875975,0.23013910,0.36116929
0,2409,CanadaQuebecCôte-Nord,Quebec,Côte-Nord,2021-01-17 17:54:07.148581,2020-12-22 00:00:00.000000,0.26169647,0.47814361,0.67840183,228,418,593,133,241,388,0.15254254,0.27669281,0.44422890,0.16567550,0.22706108,0.35728794
0,2409,CanadaQuebecCôte-Nord,Quebec,Côte-Nord,2021-01-17 17:54:07.148581,2020-12-23 00:00:00.000000,0.25758441,0.46461557,0.67213700,225,406,587,131,238,387,0.15073299,0.27231350,0.44290827,0.16367572,0.22489633,0.34936224
0,2409,CanadaQuebecCôte-Nord,Quebec,Côte-Nord,2021-01-17 17:54:07.148581,2020-12-24 00:00:00.000000,0.25340998,0.44767510,0.66443187,221,391,581,129,234,387,0.14862510,0.26796010,0.44360573,0.16263728,0.21781627,0.34370044
0,2409,CanadaQuebecCôte-Nord,Quebec,Côte-Nord,2021-01-17 17:54:07.148581,2020-12-25 00:00:00.000000,0.24922260,0.43919763,0.65397182,217,384,571,127,228,377,0.14637116,0.26186120,0.43212727,0.15696078,0.20793753,0.34288149
0,2409,CanadaQuebecCôte-Nord,Quebec,Côte-Nord,2021-01-17 17:54:07.148581,2020-12-26 00:00:00.000000,0.24499413,0.43284915,0.63690512,214,378,556,125,222,370,0.14405127,0.25491362,0.42318096,0.14848514,0.20060603,0.33953536
0,2409,CanadaQuebecCôte-Nord,Quebec,Côte-Nord,2021-01-17 17:54:07.148581,2020-12-27 00:00:00.000000,0.23885598,0.42149257,0.61877557,208,368,541,123,217,363,0.14169022,0.24870501,0.41579217,0.14504673,0.19210813,0.33019282
0,2409,CanadaQuebecCôte-Nord,Quebec,Côte-Nord,2021-01-17 17:54:07.148581,2020-12-28 00:00:00.000000,0.23249559,0.41365315,0.60883938,203,361,532,120,213,356,0.13806729,0.24421725,0.40727404,0.14243427,0.19151084,0.32132542
0,2409,CanadaQuebecCôte-Nord,Quebec,Côte-Nord,2021-01-17 17:54:07.148581,2020-12-29 00:00:00.000000,0.22588543,0.40488111,0.59375640,197,354,519,116,209,347,0.13332718,0.23919524,0.39770319,0.13463540,0.19259547,0.31789043
0,2409,CanadaQuebecCôte-Nord,Quebec,Côte-Nord,2021-01-17 17:54:07.148581,2020-12-30 00:00:00.000000,0.21902877,0.39566281,0.57652724,191,345,504,112,203,338,0.12873208,0.23243117,0.38731870,0.13173080,0.19179906,0.31338054
0,2409,CanadaQuebecCôte-Nord,Quebec,Côte-Nord,2021-01-17 17:54:07.148581,2020-12-31 00:00:00.000000,0.21171475,0.38042947,0.55867947,185,332,488,108,198,329,0.12427299,0.22652725,0.37636744,0.12401936,0.19339776,0.31926913
0,2409,CanadaQuebecCôte-Nord,Quebec,Côte-Nord,2021-01-17 17:54:07.148581,2021-01-01 00:00:00.000000,0.20409779,0.36856899,0.54038757,178,322,472,104,192,321,0.11997220,0.21969507,0.36766301,0.11684463,0.18811180,0.32278754
0,2409,CanadaQuebecCôte-Nord,Quebec,Côte-Nord,2021-01-17 17:54:07.148581,2021-01-02 00:00:00.000000,0.19651238,0.35697100,0.52192185,171,312,456,100,186,314,0.11497639,0.21297466,0.35971481,0.11388684,0.18809843,0.32476359
0,2409,CanadaQuebecCôte-Nord,Quebec,Côte-Nord,2021-01-17 17:54:07.148581,2021-01-03 00:00:00.000000,0.19005573,0.34840499,0.50957337,166,304,445,96,182,307,0.10979031,0.20875415,0.35187601,0.11400488,0.18961819,0.32583792
0,2409,CanadaQuebecCôte-Nord,Quebec,Côte-Nord,2021-01-17 17:54:07.148581,2021-01-04 00:00:00.000000,0.18387415,0.33932456,0.49705655,160,296,434,92,178,300,0.10571966,0.20356378,0.34391018,0.11241312,0.19103798,0.32642218
0,2409,CanadaQuebecCôte-Nord,Quebec,Côte-Nord,2021-01-17 17:54:07.148581,2021-01-05 00:00:00.000000,0.17800083,0.32955727,0.48466596,155,288,423,89,174,293,0.10237283,0.20011767,0.33593780,0.11208580,0.19194653,0.32676976
0,2409,CanadaQuebecCôte-Nord,Quebec,Côte-Nord,2021-01-17 17:54:07.148581,2021-01-06 00:00:00.000000,0.17229437,0.32171215,0.47223271,150,281,412,86,169,286,0.09934492,0.19427880,0.32803723,0.11165788,0.19414937,0.32706204
0,2409,CanadaQuebecCôte-Nord,Quebec,Côte-Nord,2021-01-17 17:54:07.148581,2021-01-07 00:00:00.000000,0.16650419,0.31341170,0.46078546,145,274,402,83,164,280,0.09558930,0.18838909,0.32025734,0.11036122,0.19251406,0.33330593
0,2409,CanadaQuebecCôte-Nord,Quebec,Côte-Nord,2021-01-17 17:54:07.148581,2021-01-08 00:00:00.000000,0.16049920,0.30277981,0.45404179,140,264,397,80,159,273,0.09216449,0.18284117,0.31262683,0.10657215,0.19184719,0.33961453
0,2409,CanadaQuebecCôte-Nord,Quebec,Côte-Nord,2021-01-17 17:54:07.148581,2021-01-09 00:00:00.000000,0.15453011,0.29128480,0.43960625,135,254,384,77,153,266,0.08912527,0.17598726,0.30502872,0.10152616,0.19389782,0.34131407
0,2409,CanadaQuebecCôte-Nord,Quebec,Côte-Nord,2021-01-17 17:54:07.148581,2021-01-10 00:00:00.000000,0.15132544,0.28550930,0.43200776,132,249,377,75,149,259,0.08648884,0.17071735,0.29687637,0.10045192,0.19329790,0.33768855
0,2409,CanadaQuebecCôte-Nord,Quebec,Côte-Nord,2021-01-17 17:54:07.148581,2021-01-11 00:00:00.000000,0.14898864,0.27492761,0.42356400,130,240,370,73,146,251,0.08432674,0.16802296,0.28707550,0.09982663,0.20246210,0.35226222
0,2409,CanadaQuebecCôte-Nord,Quebec,Côte-Nord,2021-01-17 17:54:07.148581,2021-01-12 00:00:00.000000,0.14670517,0.26758403,0.41494377,128,233,362,72,143,242,0.08312221,0.16375131,0.27687593,0.09886348,0.20418865,0.35571549
0,2409,CanadaQuebecCôte-Nord,Quebec,Côte-Nord,2021-01-17 17:54:07.148581,2021-01-13 00:00:00.000000,0.14448889,0.26262089,0.40642080,126,229,355,71,140,240,0.08190842,0.16015071,0.27530393,0.09805633,0.20507264,0.36022921
0,2409,CanadaQuebecCôte-Nord,Quebec,Côte-Nord,2021-01-17 17:54:07.148581,2021-01-14 00:00:00.000000,0.14041276,0.25891028,0.39804644,122,226,348,69,137,231,0.07985101,0.15731941,0.26512710,0.09847173,0.20827569,0.36807626
0,2409,CanadaQuebecCôte-Nord,Quebec,Côte-Nord,2021-01-17 17:54:07.148581,2021-01-15 00:00:00.000000,0.13510066,0.25485654,0.38979610,118,222,340,67,135,223,0.07761302,0.15546387,0.25526150,0.10000291,0.20726612,0.38018728
0,2409,CanadaQuebecCôte-Nord,Quebec,Côte-Nord,2021-01-17 17:54:07.148581,2021-01-16 00:00:00.000000,0.13011792,0.25108567,0.39145776,113,219,342,65,135,215,0.07517422,0.15457495,0.24639325,0.10221903,0.20215259,0.39047517
0,2409,CanadaQuebecCôte-Nord,Quebec,Côte-Nord,2021-01-17 17:54:07.148581,2021-01-17 00:00:00.000000,0.12219778,0.24634183,0.38386148,106,215,335,63,131,209,0.07307286,0.15081149,0.23996120,0.10022369,0.20291861,0.38947902
0,2409,CanadaQuebecCôte-Nord,Quebec,Côte-Nord,2021-01-17 17:54:07.148581,2021-01-18 00:00:00.000000,0.11365332,0.24067059,0.37833560,99,210,330,61,128,207,0.07037853,0.14678439,0.23701890,0.09773815,0.20206669,0.38814360
0,2409,CanadaQuebecCôte-Nord,Quebec,Côte-Nord,2021-01-17 17:54:07.148581,2021-01-19 00:00:00.000000,0.10821807,0.23241119,0.37757766,94,203,330,58,125,203,0.06722774,0.14369020,0.23279768,0.09692926,0.20247679,0.39748282
0,2409,CanadaQuebecCôte-Nord,Quebec,Côte-Nord,2021-01-17 17:54:07.148581,2021-01-20 00:00:00.000000,0.10295135,0.22440648,0.37690489,90,196,329,54,123,199,0.06212702,0.14067667,0.22792858,0.09668920,0.20196107,0.40248822
0,2409,CanadaQuebecCôte-Nord,Quebec,Côte-Nord,2021-01-17 17:54:07.148581,2021-01-21 00:00:00.000000,0.09788969,0.21437801,0.37998733,85,187,332,51,119,198,0.05857249,0.13672648,0.22691824,0.09661990,0.19916857,0.40466979
0,2409,CanadaQuebecCôte-Nord,Quebec,Côte-Nord,2021-01-17 17:54:07.148581,2021-01-22 00:00:00.000000,0.09293543,0.20841816,0.38861482,81,182,339,48,116,198,0.05538152,0.13326392,0.22681320,0.09660002,0.19921354,0.40556392
0,2409,CanadaQuebecCôte-Nord,Quebec,Côte-Nord,2021-01-17 17:54:07.148581,2021-01-23 00:00:00.000000,0.08767973,0.20292646,0.39607474,76,177,346,45,113,198,0.05231882,0.12932416,0.22660688,0.09659432,0.19922694,0.40592113
0,2409,CanadaQuebecCôte-Nord,Quebec,Côte-Nord,2021-01-17 17:54:07.148581,2021-01-24 00:00:00.000000,0.08270727,0.19304101,0.39687490,72,168,347,43,109,198,0.04939622,0.12496014,0.22645623,0.09659268,0.19923092,0.40606239
0,2409,CanadaQuebecCôte-Nord,Quebec,Côte-Nord,2021-01-17 17:54:07.148581,2021-01-25 00:00:00.000000,0.07800817,0.18712861,0.39765894,68,163,347,40,105,197,0.04661810,0.12062448,0.22636305,0.09659221,0.19923209,0.40611804
0,2409,CanadaQuebecCôte-Nord,Quebec,Côte-Nord,2021-01-17 17:54:07.148581,2021-01-26 00:00:00.000000,0.07357082,0.17971993,0.39842590,64,157,348,38,101,197,0.04398424,0.11581066,0.22632567,0.09659207,0.19923243,0.40613993
0,2409,CanadaQuebecCôte-Nord,Quebec,Côte-Nord,2021-01-17 17:54:07.148581,2021-01-27 00:00:00.000000,0.06939099,0.17102182,0.39917493,60,149,349,36,96,197,0.04149160,0.11070231,0.22634050,0.09659203,0.19923252,0.40614855
0,2409,CanadaQuebecCôte-Nord,Quebec,Côte-Nord,2021-01-17 17:54:07.148581,2021-01-28 00:00:00.000000,0.06546970,0.16425862,0.39990531,57,143,349,34,92,197,0.03913544,0.10602656,0.22640297,0.09659201,0.19923255,0.40615194
0,2409,CanadaQuebecCôte-Nord,Quebec,Côte-Nord,2021-01-17 17:54:07.148581,2021-01-29 00:00:00.000000,0.06028335,0.15776852,0.40061645,52,137,350,32,89,198,0.03691016,0.10221446,0.22650809,0.09659201,0.19923255,0.40615327
0,2409,CanadaQuebecCôte-Nord,Quebec,Côte-Nord,2021-01-17 17:54:07.148581,2021-01-30 00:00:00.000000,0.05514693,0.15151765,0.40130791,48,132,350,30,86,198,0.03480966,0.09886332,0.22665080,0.09659201,0.19923255,0.40615380
0,2409,CanadaQuebecCôte-Nord,Quebec,Côte-Nord,2021-01-17 17:54:07.148581,2021-01-31 00:00:00.000000,0.05044799,0.14782172,0.40197933,44,129,351,28,82,198,0.03282772,0.09457883,0.22682624,0.09659201,0.19923255,0.40615401
