FIPS,HR_UID,nameid,province,region,analysisTime,dates,pointprevalence_025,pointprevalence_50,pointprevalence_975,pointinfections_025,pointinfections_50,pointinfections_975,pointinfectious_025,pointinfectious_50,pointinfectious_975,pointinfectiousprevalence_05,pointinfectiousprevalence_50,pointinfectiousprevalence_95,infectrate_025,infectrate_50,infectrate_975
53003,0,USWashingtonAsotin,Washington,Asotin,2021-01-05 06:24:41.715067,2020-03-09 00:00:00.000000,0.00098025,0.01671978,0.07604499,0,3,17,0,2,9,0.00058567,0.00894713,0.04247634,0.39224791,0.50203717,0.66952102
53003,0,USWashingtonAsotin,Washington,Asotin,2021-01-05 06:24:41.715067,2020-03-10 00:00:00.000000,0.00105090,0.01835352,0.08037728,0,4,18,0,2,9,0.00057670,0.00896744,0.04110027,0.39224696,0.50184304,0.66804682
53003,0,USWashingtonAsotin,Washington,Asotin,2021-01-05 06:24:41.715067,2020-03-11 00:00:00.000000,0.00112298,0.02007389,0.08705245,0,4,19,0,2,9,0.00058276,0.00918546,0.04088039,0.39224507,0.50146485,0.66772196
53003,0,USWashingtonAsotin,Washington,Asotin,2021-01-05 06:24:41.715067,2020-03-12 00:00:00.000000,0.00120785,0.02140816,0.09023780,0,4,20,0,2,9,0.00062999,0.00994306,0.04182365,0.39224091,0.50073081,0.66680723
53003,0,USWashingtonAsotin,Washington,Asotin,2021-01-05 06:24:41.715067,2020-03-13 00:00:00.000000,0.00133614,0.02287826,0.09482968,0,5,21,0,2,9,0.00069093,0.01036973,0.04402254,0.39223034,0.49963371,0.66425370
53003,0,USWashingtonAsotin,Washington,Asotin,2021-01-05 06:24:41.715067,2020-03-14 00:00:00.000000,0.00147841,0.02462220,0.10318053,0,5,23,0,2,10,0.00076098,0.01108160,0.04458088,0.39219966,0.49880759,0.65730133
53003,0,USWashingtonAsotin,Washington,Asotin,2021-01-05 06:24:41.715067,2020-03-15 00:00:00.000000,0.00163519,0.02621965,0.11201383,0,5,25,0,2,10,0.00083977,0.01178547,0.04785541,0.39210107,0.49241442,0.64581306
53003,0,USWashingtonAsotin,Washington,Asotin,2021-01-05 06:24:41.715067,2020-03-16 00:00:00.000000,0.01169812,0.03392079,0.12418998,2,7,28,0,2,11,0.00092842,0.01252401,0.05017171,0.39176418,0.48745810,0.64482060
53003,0,USWashingtonAsotin,Washington,Asotin,2021-01-05 06:24:41.715067,2020-03-17 00:00:00.000000,0.01664245,0.04425913,0.13856555,3,9,31,0,3,12,0.00318367,0.01463277,0.05360468,0.37416494,0.48068357,0.64428706
53003,0,USWashingtonAsotin,Washington,Asotin,2021-01-05 06:24:41.715067,2020-03-18 00:00:00.000000,0.02148509,0.05378237,0.15127968,4,12,34,1,3,13,0.00610342,0.01763551,0.05833762,0.33966885,0.46040746,0.64336897
53003,0,USWashingtonAsotin,Washington,Asotin,2021-01-05 06:24:41.715067,2020-03-19 00:00:00.000000,0.02647839,0.06466141,0.16475737,5,14,37,1,5,14,0.00776636,0.02227949,0.06590012,0.31854291,0.44531774,0.64034732
53003,0,USWashingtonAsotin,Washington,Asotin,2021-01-05 06:24:41.715067,2020-03-20 00:00:00.000000,0.03159083,0.07621646,0.17903678,7,17,40,2,6,16,0.00970892,0.02759949,0.07445037,0.29259523,0.42718641,0.62782211
53003,0,USWashingtonAsotin,Washington,Asotin,2021-01-05 06:24:41.715067,2020-03-21 00:00:00.000000,0.03559172,0.08734635,0.19371061,8,19,43,2,7,18,0.01145562,0.03350905,0.08230666,0.26995173,0.41030980,0.61689368
53003,0,USWashingtonAsotin,Washington,Asotin,2021-01-05 06:24:41.715067,2020-03-22 00:00:00.000000,0.03934046,0.09688147,0.20840834,8,21,47,2,8,20,0.01300674,0.03913222,0.08971881,0.25668271,0.37411528,0.60561196
53003,0,USWashingtonAsotin,Washington,Asotin,2021-01-05 06:24:41.715067,2020-03-23 00:00:00.000000,0.04491239,0.10722983,0.22730058,10,24,51,3,10,22,0.01451329,0.04492333,0.09748427,0.24353949,0.34962601,0.57877450
53003,0,USWashingtonAsotin,Washington,Asotin,2021-01-05 06:24:41.715067,2020-03-24 00:00:00.000000,0.05027281,0.11645616,0.25149047,11,26,56,3,11,25,0.01702382,0.04898267,0.11206723,0.23096619,0.33409739,0.54269277
53003,0,USWashingtonAsotin,Washington,Asotin,2021-01-05 06:24:41.715067,2020-03-25 00:00:00.000000,0.05423070,0.12806273,0.27806177,12,28,62,4,12,28,0.02012629,0.05428377,0.12480362,0.22729532,0.32336911,0.49886129
53003,0,USWashingtonAsotin,Washington,Asotin,2021-01-05 06:24:41.715067,2020-03-26 00:00:00.000000,0.05806840,0.13983183,0.30576583,13,31,69,5,13,30,0.02338280,0.06025885,0.13470696,0.21344704,0.31197583,0.47054546
53003,0,USWashingtonAsotin,Washington,Asotin,2021-01-05 06:24:41.715067,2020-03-27 00:00:00.000000,0.06166823,0.14726193,0.33296648,13,33,75,5,14,32,0.02507809,0.06566942,0.14432446,0.19885656,0.30507176,0.46316894
53003,0,USWashingtonAsotin,Washington,Asotin,2021-01-05 06:24:41.715067,2020-03-28 00:00:00.000000,0.06493108,0.15914926,0.35080832,14,35,79,5,16,34,0.02608604,0.07149005,0.15349354,0.19136547,0.29396414,0.46215967
53003,0,USWashingtonAsotin,Washington,Asotin,2021-01-05 06:24:41.715067,2020-03-29 00:00:00.000000,0.06725179,0.16877951,0.35791783,15,38,80,6,17,36,0.02734410,0.07799421,0.16250457,0.18732778,0.28567200,0.40188627
53003,0,USWashingtonAsotin,Washington,Asotin,2021-01-05 06:24:41.715067,2020-03-30 00:00:00.000000,0.07081554,0.18016298,0.37974562,15,40,85,6,18,40,0.02962092,0.08275719,0.18035751,0.18270058,0.27543299,0.39151159
53003,0,USWashingtonAsotin,Washington,Asotin,2021-01-05 06:24:41.715067,2020-03-31 00:00:00.000000,0.07315297,0.18691959,0.38741137,16,42,87,7,19,43,0.03198458,0.08779427,0.19343155,0.17972044,0.26852040,0.38848948
53003,0,USWashingtonAsotin,Washington,Asotin,2021-01-05 06:24:41.715067,2020-04-01 00:00:00.000000,0.07995728,0.19992187,0.39448395,18,45,89,7,21,45,0.03522334,0.09436503,0.19999223,0.17543269,0.25892690,0.38348841
53003,0,USWashingtonAsotin,Washington,Asotin,2021-01-05 06:24:41.715067,2020-04-02 00:00:00.000000,0.08668030,0.20992525,0.41169248,19,47,92,8,22,47,0.03890413,0.10157144,0.20988103,0.15918802,0.24818745,0.34926844
53003,0,USWashingtonAsotin,Washington,Asotin,2021-01-05 06:24:41.715067,2020-04-03 00:00:00.000000,0.09269602,0.21854113,0.43708851,20,49,98,9,24,50,0.04038677,0.10902470,0.22439736,0.15393332,0.23671227,0.33660385
53003,0,USWashingtonAsotin,Washington,Asotin,2021-01-05 06:24:41.715067,2020-04-04 00:00:00.000000,0.09803227,0.22810330,0.46262098,22,51,104,9,25,53,0.04148266,0.11381174,0.23743614,0.14726124,0.22580092,0.33248801
53003,0,USWashingtonAsotin,Washington,Asotin,2021-01-05 06:24:41.715067,2020-04-05 00:00:00.000000,0.10294296,0.23765483,0.48448658,23,53,109,9,26,56,0.04371635,0.11821644,0.24977313,0.13408513,0.20878229,0.32734520
53003,0,USWashingtonAsotin,Washington,Asotin,2021-01-05 06:24:41.715067,2020-04-06 00:00:00.000000,0.10929525,0.24562875,0.49849606,24,55,112,10,28,59,0.04578984,0.12426483,0.26149894,0.13205287,0.20939269,0.32685697
53003,0,USWashingtonAsotin,Washington,Asotin,2021-01-05 06:24:41.715067,2020-04-07 00:00:00.000000,0.11223236,0.25222692,0.51073683,25,56,115,10,29,61,0.04743678,0.13017491,0.27194577,0.12398130,0.20743943,0.31616839
53003,0,USWashingtonAsotin,Washington,Asotin,2021-01-05 06:24:41.715067,2020-04-08 00:00:00.000000,0.11495134,0.25980360,0.52138043,25,58,117,11,30,63,0.04875826,0.13330733,0.28137166,0.11914307,0.19647628,0.30524689
53003,0,USWashingtonAsotin,Washington,Asotin,2021-01-05 06:24:41.715067,2020-04-09 00:00:00.000000,0.11733107,0.26474573,0.53066308,26,59,119,11,31,65,0.04983404,0.13878738,0.28997729,0.10079584,0.19132763,0.29802929
53003,0,USWashingtonAsotin,Washington,Asotin,2021-01-05 06:24:41.715067,2020-04-10 00:00:00.000000,0.11884117,0.27313748,0.53869832,26,61,121,11,32,67,0.05072366,0.14218379,0.29794145,0.09906591,0.18310381,0.29186004
53003,0,USWashingtonAsotin,Washington,Asotin,2021-01-05 06:24:41.715067,2020-04-11 00:00:00.000000,0.11978920,0.27904299,0.54527113,27,63,123,11,32,68,0.05147012,0.14480900,0.30534474,0.09878549,0.17929969,0.28779852
53003,0,USWashingtonAsotin,Washington,Asotin,2021-01-05 06:24:41.715067,2020-04-12 00:00:00.000000,0.12061716,0.28808796,0.54985886,27,65,124,11,33,70,0.05210326,0.14878402,0.31226375,0.09874238,0.17303746,0.27730431
53003,0,USWashingtonAsotin,Washington,Asotin,2021-01-05 06:24:41.715067,2020-04-13 00:00:00.000000,0.12671454,0.29430758,0.55060758,28,66,124,11,34,71,0.05264242,0.15224324,0.31877034,0.09873861,0.16721163,0.25476009
53003,0,USWashingtonAsotin,Washington,Asotin,2021-01-05 06:24:41.715067,2020-04-14 00:00:00.000000,0.13256670,0.29435785,0.54915817,29,66,124,12,34,73,0.05386409,0.15354679,0.32371453,0.09426590,0.15957499,0.24857641
53003,0,USWashingtonAsotin,Washington,Asotin,2021-01-05 06:24:41.715067,2020-04-15 00:00:00.000000,0.13832015,0.29466157,0.54555216,31,66,123,12,35,73,0.05558246,0.15789705,0.32738681,0.09408513,0.15709417,0.24222621
53003,0,USWashingtonAsotin,Washington,Asotin,2021-01-05 06:24:41.715067,2020-04-16 00:00:00.000000,0.14390374,0.29616402,0.53976820,32,66,121,13,36,74,0.05912126,0.16022806,0.32982018,0.09382351,0.15078318,0.23739576
53003,0,USWashingtonAsotin,Washington,Asotin,2021-01-05 06:24:41.715067,2020-04-17 00:00:00.000000,0.14290930,0.30049673,0.53245841,32,67,120,14,36,74,0.06321571,0.16196219,0.33086037,0.09356185,0.14641740,0.23845271
53003,0,USWashingtonAsotin,Washington,Asotin,2021-01-05 06:24:41.715067,2020-04-18 00:00:00.000000,0.14112551,0.30481785,0.52446352,31,68,118,15,37,74,0.06730755,0.16488241,0.32990088,0.09054655,0.14026195,0.23928069
53003,0,USWashingtonAsotin,Washington,Asotin,2021-01-05 06:24:41.715067,2020-04-19 00:00:00.000000,0.13953968,0.30257451,0.51642721,31,68,116,16,37,73,0.07126636,0.16730831,0.32668624,0.08531278,0.13413608,0.23914839
53003,0,USWashingtonAsotin,Washington,Asotin,2021-01-05 06:24:41.715067,2020-04-20 00:00:00.000000,0.14390350,0.29693886,0.51055113,32,67,115,16,37,73,0.07507516,0.16667724,0.32685792,0.08253864,0.13082745,0.23425189
53003,0,USWashingtonAsotin,Washington,Asotin,2021-01-05 06:24:41.715067,2020-04-21 00:00:00.000000,0.14551611,0.29502463,0.52090019,32,66,117,16,37,73,0.07481718,0.16621188,0.32384808,0.08179044,0.12939074,0.23077296
53003,0,USWashingtonAsotin,Washington,Asotin,2021-01-05 06:24:41.715067,2020-04-22 00:00:00.000000,0.14809329,0.29379075,0.53067237,33,66,119,16,37,72,0.07322114,0.16450064,0.32043591,0.07587355,0.12668828,0.22162877
53003,0,USWashingtonAsotin,Washington,Asotin,2021-01-05 06:24:41.715067,2020-04-23 00:00:00.000000,0.15055783,0.29217097,0.53312078,33,65,120,17,36,71,0.07714003,0.16348493,0.31674107,0.07251794,0.12466865,0.21424518
53003,0,USWashingtonAsotin,Washington,Asotin,2021-01-05 06:24:41.715067,2020-04-24 00:00:00.000000,0.15278212,0.29388612,0.52578317,34,66,118,17,36,70,0.07790763,0.16218469,0.31285422,0.06968886,0.12400827,0.20311043
53003,0,USWashingtonAsotin,Washington,Asotin,2021-01-05 06:24:41.715067,2020-04-25 00:00:00.000000,0.15296574,0.29505974,0.53768917,34,66,121,17,36,69,0.07555580,0.16073113,0.30884126,0.06832351,0.11999782,0.20174020
53003,0,USWashingtonAsotin,Washington,Asotin,2021-01-05 06:24:41.715067,2020-04-26 00:00:00.000000,0.14510424,0.28912124,0.54923457,32,65,124,17,35,69,0.07654651,0.15842913,0.30650405,0.06991388,0.11771390,0.19483472
53003,0,USWashingtonAsotin,Washington,Asotin,2021-01-05 06:24:41.715067,2020-04-27 00:00:00.000000,0.13812578,0.28068953,0.54887175,31,63,123,17,35,68,0.07748904,0.15689969,0.30228893,0.07000463,0.11445308,0.18564392
53003,0,USWashingtonAsotin,Washington,Asotin,2021-01-05 06:24:41.715067,2020-04-28 00:00:00.000000,0.13353134,0.27054706,0.53183280,30,61,120,17,35,66,0.07719951,0.15570451,0.29657846,0.07112542,0.11363237,0.18528675
53003,0,USWashingtonAsotin,Washington,Asotin,2021-01-05 06:24:41.715067,2020-04-29 00:00:00.000000,0.12884412,0.25683978,0.51281491,29,57,115,17,34,66,0.07609024,0.15270080,0.29347418,0.06873660,0.11200576,0.18465674
53003,0,USWashingtonAsotin,Washington,Asotin,2021-01-05 06:24:41.715067,2020-04-30 00:00:00.000000,0.12413705,0.24520916,0.49250032,28,55,111,16,33,66,0.07444306,0.14886704,0.29610108,0.06553219,0.10970140,0.18277205
53003,0,USWashingtonAsotin,Washington,Asotin,2021-01-05 06:24:41.715067,2020-05-01 00:00:00.000000,0.11946488,0.23471087,0.47107063,26,53,106,16,32,66,0.07188315,0.14432295,0.29664129,0.06345504,0.10765127,0.17357371
53003,0,USWashingtonAsotin,Washington,Asotin,2021-01-05 06:24:41.715067,2020-05-02 00:00:00.000000,0.11361320,0.22475490,0.44874127,25,50,101,15,31,64,0.06863621,0.13906708,0.28732627,0.06231695,0.10876812,0.17131831
53003,0,USWashingtonAsotin,Washington,Asotin,2021-01-05 06:24:41.715067,2020-05-03 00:00:00.000000,0.10732169,0.21535408,0.42589802,24,48,96,14,30,62,0.06537059,0.13447617,0.27685066,0.06163163,0.10750256,0.17006826
53003,0,USWashingtonAsotin,Washington,Asotin,2021-01-05 06:24:41.715067,2020-05-04 00:00:00.000000,0.10119588,0.20872556,0.40300385,22,47,91,14,29,59,0.06213041,0.12951813,0.26551299,0.06167835,0.10792162,0.17049859
53003,0,USWashingtonAsotin,Washington,Asotin,2021-01-05 06:24:41.715067,2020-05-05 00:00:00.000000,0.09522404,0.19892362,0.38041641,21,44,85,13,28,57,0.05893502,0.12487000,0.25359892,0.06168515,0.10748736,0.17635307
53003,0,USWashingtonAsotin,Washington,Asotin,2021-01-05 06:24:41.715067,2020-05-06 00:00:00.000000,0.08945958,0.18868519,0.36160179,20,42,81,12,27,54,0.05578971,0.12033507,0.24136402,0.06169764,0.10709653,0.17870969
53003,0,USWashingtonAsotin,Washington,Asotin,2021-01-05 06:24:41.715067,2020-05-07 00:00:00.000000,0.08395707,0.17917627,0.35367104,18,40,79,11,26,52,0.05271081,0.11591965,0.23389282,0.06170213,0.10632162,0.17541122
53003,0,USWashingtonAsotin,Washington,Asotin,2021-01-05 06:24:41.715067,2020-05-08 00:00:00.000000,0.07873688,0.17011333,0.34584344,17,38,78,11,25,51,0.04971835,0.11078962,0.22888987,0.06108929,0.10541174,0.17101259
53003,0,USWashingtonAsotin,Washington,Asotin,2021-01-05 06:24:41.715067,2020-05-09 00:00:00.000000,0.07381827,0.16147988,0.33814040,16,36,76,10,24,50,0.04682990,0.10638110,0.22394358,0.05950715,0.10399094,0.17698759
53003,0,USWashingtonAsotin,Washington,Asotin,2021-01-05 06:24:41.715067,2020-05-10 00:00:00.000000,0.06918942,0.15285670,0.33058419,15,34,74,9,22,49,0.04405804,0.10159654,0.21905371,0.05935119,0.10121204,0.18278869
53003,0,USWashingtonAsotin,Washington,Asotin,2021-01-05 06:24:41.715067,2020-05-11 00:00:00.000000,0.07378984,0.14970436,0.32860567,16,33,74,9,21,48,0.04141021,0.09648270,0.21422751,0.05930680,0.09911485,0.18730211
53003,0,USWashingtonAsotin,Washington,Asotin,2021-01-05 06:24:41.715067,2020-05-12 00:00:00.000000,0.07588472,0.14785711,0.32679125,17,33,73,9,20,47,0.04036268,0.09228921,0.21046594,0.05765875,0.09781547,0.19046593
53003,0,USWashingtonAsotin,Washington,Asotin,2021-01-05 06:24:41.715067,2020-05-13 00:00:00.000000,0.07410511,0.14759051,0.32521875,16,33,73,9,20,46,0.04015443,0.09103956,0.20748204,0.05767525,0.09703284,0.19291362
53003,0,USWashingtonAsotin,Washington,Asotin,2021-01-05 06:24:41.715067,2020-05-14 00:00:00.000000,0.07259815,0.14749867,0.32383637,16,33,73,8,20,46,0.03873126,0.08861909,0.20506929,0.05650369,0.09662099,0.19499183
53003,0,USWashingtonAsotin,Washington,Asotin,2021-01-05 06:24:41.715067,2020-05-15 00:00:00.000000,0.07393723,0.15253767,0.32234902,16,34,72,8,19,45,0.03766755,0.08799028,0.20308051,0.05748395,0.09680436,0.18738782
53003,0,USWashingtonAsotin,Washington,Asotin,2021-01-05 06:24:41.715067,2020-05-16 00:00:00.000000,0.07363659,0.15066344,0.32098486,16,34,72,8,19,45,0.03690201,0.08834242,0.20141500,0.05879949,0.09350587,0.17725592
53003,0,USWashingtonAsotin,Washington,Asotin,2021-01-05 06:24:41.715067,2020-05-17 00:00:00.000000,0.07369213,0.15144286,0.31983301,16,34,72,8,20,45,0.03734372,0.09072460,0.20000983,0.06015238,0.09318407,0.16998781
53003,0,USWashingtonAsotin,Washington,Asotin,2021-01-05 06:24:41.715067,2020-05-18 00:00:00.000000,0.07969436,0.15654129,0.32508557,17,35,73,8,20,44,0.03916773,0.09017394,0.19882346,0.06110914,0.09135648,0.16642418
53003,0,USWashingtonAsotin,Washington,Asotin,2021-01-05 06:24:41.715067,2020-05-19 00:00:00.000000,0.08161356,0.16318177,0.33043072,18,36,74,8,20,44,0.03936357,0.09064942,0.19901441,0.06090316,0.09200553,0.16340203
53003,0,USWashingtonAsotin,Washington,Asotin,2021-01-05 06:24:41.715067,2020-05-20 00:00:00.000000,0.08483246,0.16710321,0.33592166,19,37,75,9,20,45,0.04029572,0.09224022,0.20018900,0.05897825,0.09242131,0.16056838
53003,0,USWashingtonAsotin,Washington,Asotin,2021-01-05 06:24:41.715067,2020-05-21 00:00:00.000000,0.08810686,0.16563015,0.34116569,19,37,77,9,21,45,0.04279135,0.09412812,0.20143031,0.05883557,0.09275646,0.15786985
53003,0,USWashingtonAsotin,Washington,Asotin,2021-01-05 06:24:41.715067,2020-05-22 00:00:00.000000,0.09070082,0.16792957,0.33468207,20,37,75,9,21,44,0.04339771,0.09385418,0.19745748,0.05917937,0.09450548,0.15847802
53003,0,USWashingtonAsotin,Washington,Asotin,2021-01-05 06:24:41.715067,2020-05-23 00:00:00.000000,0.09294561,0.16793121,0.32785277,20,37,74,10,21,43,0.04470662,0.09514859,0.19361166,0.05317354,0.09215897,0.15864063
53003,0,USWashingtonAsotin,Washington,Asotin,2021-01-05 06:24:41.715067,2020-05-24 00:00:00.000000,0.09323792,0.16821349,0.32097462,21,37,72,10,21,42,0.04538728,0.09586694,0.18979721,0.04822642,0.09206379,0.15868303
53003,0,USWashingtonAsotin,Washington,Asotin,2021-01-05 06:24:41.715067,2020-05-25 00:00:00.000000,0.10096896,0.16842087,0.31622368,22,38,71,10,21,42,0.04694732,0.09467195,0.18599535,0.04681918,0.09166075,0.15864318
53003,0,USWashingtonAsotin,Washington,Asotin,2021-01-05 06:24:41.715067,2020-05-26 00:00:00.000000,0.10276953,0.17137896,0.31532823,23,38,71,11,21,41,0.04917124,0.09599660,0.18254081,0.04654945,0.09120289,0.15844746
53003,0,USWashingtonAsotin,Washington,Asotin,2021-01-05 06:24:41.715067,2020-05-27 00:00:00.000000,0.09972776,0.17254808,0.32951196,22,38,74,10,21,40,0.04845831,0.09707988,0.18050043,0.04650442,0.09116789,0.15783667
53003,0,USWashingtonAsotin,Washington,Asotin,2021-01-05 06:24:41.715067,2020-05-28 00:00:00.000000,0.09656582,0.17279693,0.34358149,21,39,77,10,22,42,0.04802404,0.09817503,0.18601164,0.04654245,0.09210060,0.15607624
53003,0,USWashingtonAsotin,Washington,Asotin,2021-01-05 06:24:41.715067,2020-05-29 00:00:00.000000,0.09353446,0.17430631,0.34296012,21,39,77,10,22,43,0.04776321,0.09812641,0.19244298,0.04700717,0.08931543,0.15177370
53003,0,USWashingtonAsotin,Washington,Asotin,2021-01-05 06:24:41.715067,2020-05-30 00:00:00.000000,0.09068270,0.17537439,0.33582776,20,39,75,10,22,45,0.04754681,0.09980907,0.19945683,0.04811287,0.09055609,0.14747138
53003,0,USWashingtonAsotin,Washington,Asotin,2021-01-05 06:24:41.715067,2020-05-31 00:00:00.000000,0.08799096,0.17574253,0.35320500,19,39,79,10,22,46,0.04735937,0.10041656,0.20670131,0.04843373,0.09069952,0.15689399
53003,0,USWashingtonAsotin,Washington,Asotin,2021-01-05 06:24:41.715067,2020-06-01 00:00:00.000000,0.09338803,0.17634081,0.34779280,21,39,78,10,22,48,0.04604688,0.10004494,0.21384385,0.04831792,0.09001651,0.16478989
53003,0,USWashingtonAsotin,Washington,Asotin,2021-01-05 06:24:41.715067,2020-06-02 00:00:00.000000,0.09515216,0.17618262,0.34195765,21,39,77,10,22,49,0.04609958,0.10008287,0.21710294,0.04805177,0.09026168,0.16432898
53003,0,USWashingtonAsotin,Washington,Asotin,2021-01-05 06:24:41.715067,2020-06-03 00:00:00.000000,0.09510759,0.17588222,0.33600333,21,39,75,10,22,48,0.04677676,0.10008733,0.21490105,0.04763360,0.09055172,0.16322884
53003,0,USWashingtonAsotin,Washington,Asotin,2021-01-05 06:24:41.715067,2020-06-04 00:00:00.000000,0.09303053,0.17446379,0.33004692,21,39,74,10,22,48,0.04654597,0.09943249,0.21490213,0.04731931,0.09118885,0.16224236
53003,0,USWashingtonAsotin,Washington,Asotin,2021-01-05 06:24:41.715067,2020-06-05 00:00:00.000000,0.09076863,0.17163781,0.32412548,20,38,73,10,22,47,0.04630695,0.09954684,0.21095378,0.04719635,0.09302320,0.16147590
53003,0,USWashingtonAsotin,Washington,Asotin,2021-01-05 06:24:41.715067,2020-06-06 00:00:00.000000,0.08840904,0.17043165,0.32301220,19,38,72,10,22,46,0.04606346,0.09832119,0.20680970,0.04516208,0.09331960,0.15500468
53003,0,USWashingtonAsotin,Washington,Asotin,2021-01-05 06:24:41.715067,2020-06-07 00:00:00.000000,0.08607840,0.16981155,0.33070427,19,38,74,10,22,45,0.04580204,0.09778945,0.20286915,0.04398453,0.08995770,0.14872460
53003,0,USWashingtonAsotin,Washington,Asotin,2021-01-05 06:24:41.715067,2020-06-08 00:00:00.000000,0.08605485,0.16761449,0.32401534,19,37,73,10,21,45,0.04463656,0.09718050,0.19944133,0.04308708,0.08970357,0.14933462
53003,0,USWashingtonAsotin,Washington,Asotin,2021-01-05 06:24:41.715067,2020-06-09 00:00:00.000000,0.08617357,0.16915218,0.31693951,19,38,71,9,21,44,0.04385860,0.09576707,0.19678939,0.04240164,0.09070155,0.15029552
53003,0,USWashingtonAsotin,Washington,Asotin,2021-01-05 06:24:41.715067,2020-06-10 00:00:00.000000,0.09055598,0.17050873,0.30887171,20,38,69,9,21,43,0.04336995,0.09477416,0.19462016,0.04191928,0.09172188,0.15203190
53003,0,USWashingtonAsotin,Washington,Asotin,2021-01-05 06:24:41.715067,2020-06-11 00:00:00.000000,0.09287868,0.17246729,0.30499514,20,38,68,9,21,43,0.04337938,0.09431427,0.19337537,0.04162617,0.09254311,0.14122824
53003,0,USWashingtonAsotin,Washington,Asotin,2021-01-05 06:24:41.715067,2020-06-12 00:00:00.000000,0.09221694,0.17556935,0.30353301,20,39,68,10,21,43,0.04496541,0.09481541,0.19435367,0.04201344,0.09602799,0.14515453
53003,0,USWashingtonAsotin,Washington,Asotin,2021-01-05 06:24:41.715067,2020-06-13 00:00:00.000000,0.09024138,0.17332669,0.30342351,20,39,68,10,21,43,0.04676625,0.09456282,0.19482607,0.04606605,0.09551688,0.14517846
53003,0,USWashingtonAsotin,Washington,Asotin,2021-01-05 06:24:41.715067,2020-06-14 00:00:00.000000,0.08844124,0.17426600,0.30363102,19,39,68,10,21,44,0.04870209,0.09483090,0.19494290,0.04505406,0.09673874,0.14815458
53003,0,USWashingtonAsotin,Washington,Asotin,2021-01-05 06:24:41.715067,2020-06-15 00:00:00.000000,0.09290085,0.17206082,0.30943768,20,38,69,11,21,43,0.05071519,0.09641615,0.19165380,0.04544670,0.09748273,0.15006431
53003,0,USWashingtonAsotin,Washington,Asotin,2021-01-05 06:24:41.715067,2020-06-16 00:00:00.000000,0.09778500,0.17267145,0.31192446,22,38,70,11,21,42,0.05008526,0.09676211,0.18957713,0.04537748,0.09743804,0.15190242
53003,0,USWashingtonAsotin,Washington,Asotin,2021-01-05 06:24:41.715067,2020-06-17 00:00:00.000000,0.10115740,0.17328570,0.31441826,22,39,71,10,21,43,0.04855460,0.09662632,0.19252424,0.03979826,0.09660219,0.16112056
53003,0,USWashingtonAsotin,Washington,Asotin,2021-01-05 06:24:41.715067,2020-06-18 00:00:00.000000,0.10344945,0.17628145,0.31834574,23,39,71,10,21,43,0.04730760,0.09656320,0.19195552,0.04007620,0.09682930,0.16439244
53003,0,USWashingtonAsotin,Washington,Asotin,2021-01-05 06:24:41.715067,2020-06-19 00:00:00.000000,0.10233499,0.18159599,0.33339456,23,41,75,11,21,43,0.04906898,0.09668433,0.19065278,0.04051242,0.09757142,0.16396500
53003,0,USWashingtonAsotin,Washington,Asotin,2021-01-05 06:24:41.715067,2020-06-20 00:00:00.000000,0.09992372,0.18588931,0.35298991,22,41,79,11,21,43,0.05109066,0.09741767,0.19347158,0.04087433,0.09735353,0.15784190
53003,0,USWashingtonAsotin,Washington,Asotin,2021-01-05 06:24:41.715067,2020-06-21 00:00:00.000000,0.09928381,0.18582473,0.37225624,22,41,84,12,22,45,0.05315414,0.09769466,0.19979498,0.04117954,0.09858640,0.16394456
53003,0,USWashingtonAsotin,Washington,Asotin,2021-01-05 06:24:41.715067,2020-06-22 00:00:00.000000,0.09459075,0.17782849,0.36465717,21,40,82,12,22,47,0.05328195,0.09795703,0.21128245,0.04138070,0.09848904,0.16409217
53003,0,USWashingtonAsotin,Washington,Asotin,2021-01-05 06:24:41.715067,2020-06-23 00:00:00.000000,0.08956762,0.16976575,0.35655348,20,38,80,11,21,49,0.05235326,0.09652602,0.21743659,0.04008021,0.09866542,0.16417025
53003,0,USWashingtonAsotin,Washington,Asotin,2021-01-05 06:24:41.715067,2020-06-24 00:00:00.000000,0.08445853,0.16161681,0.34737579,19,36,78,11,21,49,0.05093945,0.09446781,0.21981117,0.03902290,0.10091490,0.15999836
53003,0,USWashingtonAsotin,Washington,Asotin,2021-01-05 06:24:41.715067,2020-06-25 00:00:00.000000,0.07927040,0.15383359,0.33736202,17,34,76,11,20,49,0.04919262,0.09199225,0.21805490,0.03909433,0.10382938,0.16496974
53003,0,USWashingtonAsotin,Washington,Asotin,2021-01-05 06:24:41.715067,2020-06-26 00:00:00.000000,0.07422359,0.14494862,0.32707698,16,32,73,10,20,48,0.04722843,0.08882822,0.21469201,0.03910943,0.10206978,0.17062082
53003,0,USWashingtonAsotin,Washington,Asotin,2021-01-05 06:24:41.715067,2020-06-27 00:00:00.000000,0.06939292,0.13705045,0.31544329,15,30,71,10,19,47,0.04513458,0.08578328,0.21041975,0.03914508,0.10610708,0.16963813
53003,0,USWashingtonAsotin,Washington,Asotin,2021-01-05 06:24:41.715067,2020-06-28 00:00:00.000000,0.06481357,0.13139970,0.30296976,14,29,68,9,18,46,0.04297751,0.08241265,0.20550095,0.04012792,0.10547797,0.16893457
53003,0,USWashingtonAsotin,Washington,Asotin,2021-01-05 06:24:41.715067,2020-06-29 00:00:00.000000,0.06059732,0.12385419,0.29010506,13,27,65,9,17,45,0.04080888,0.07817180,0.20013244,0.04492956,0.10625303,0.17119800
53003,0,USWashingtonAsotin,Washington,Asotin,2021-01-05 06:24:41.715067,2020-06-30 00:00:00.000000,0.05737471,0.11680900,0.27724869,12,26,62,8,16,43,0.03848395,0.07407352,0.19447805,0.04952802,0.10767343,0.17426829
53003,0,USWashingtonAsotin,Washington,Asotin,2021-01-05 06:24:41.715067,2020-07-01 00:00:00.000000,0.05379480,0.11026138,0.26463551,12,24,59,8,16,42,0.03594648,0.07107379,0.18866649,0.05070686,0.11122323,0.17972197
53003,0,USWashingtonAsotin,Washington,Asotin,2021-01-05 06:24:41.715067,2020-07-02 00:00:00.000000,0.05014139,0.10372879,0.25415968,11,23,57,7,15,41,0.03355418,0.06708751,0.18195508,0.05096700,0.11138556,0.17992861
53003,0,USWashingtonAsotin,Washington,Asotin,2021-01-05 06:24:41.715067,2020-07-03 00:00:00.000000,0.04670553,0.09705126,0.24924498,10,21,56,7,14,39,0.03131175,0.06330654,0.17452274,0.05123946,0.11097855,0.18305638
53003,0,USWashingtonAsotin,Washington,Asotin,2021-01-05 06:24:41.715067,2020-07-04 00:00:00.000000,0.04348657,0.09263307,0.24559337,9,20,55,6,13,37,0.02922099,0.05972659,0.16710736,0.05185815,0.11474160,0.18747139
53003,0,USWashingtonAsotin,Washington,Asotin,2021-01-05 06:24:41.715067,2020-07-05 00:00:00.000000,0.04047817,0.08922429,0.23891040,9,20,53,6,12,36,0.02728170,0.05663656,0.15983201,0.05243024,0.11789926,0.18829597
53003,0,USWashingtonAsotin,Washington,Asotin,2021-01-05 06:24:41.715067,2020-07-06 00:00:00.000000,0.04358141,0.10029143,0.23845623,9,22,53,5,12,34,0.02549145,0.05379767,0.15282193,0.05274859,0.12314187,0.18441657
53003,0,USWashingtonAsotin,Washington,Asotin,2021-01-05 06:24:41.715067,2020-07-07 00:00:00.000000,0.04528014,0.10482682,0.23762134,10,23,53,5,12,33,0.02490792,0.05416216,0.14846181,0.05297172,0.12547088,0.19185837
53003,0,USWashingtonAsotin,Washington,Asotin,2021-01-05 06:24:41.715067,2020-07-08 00:00:00.000000,0.04770902,0.10841676,0.23544599,10,24,53,5,12,32,0.02549998,0.05489563,0.14601410,0.05327333,0.12634790,0.19733447
53003,0,USWashingtonAsotin,Washington,Asotin,2021-01-05 06:24:41.715067,2020-07-09 00:00:00.000000,0.04955665,0.11568448,0.23333932,11,26,52,5,12,32,0.02608468,0.05617636,0.14493627,0.05381468,0.13007194,0.19813388
53003,0,USWashingtonAsotin,Washington,Asotin,2021-01-05 06:24:41.715067,2020-07-10 00:00:00.000000,0.05161235,0.12293400,0.23984644,11,27,54,5,13,32,0.02624238,0.05851954,0.14483166,0.05482235,0.12939783,0.19862991
53003,0,USWashingtonAsotin,Washington,Asotin,2021-01-05 06:24:41.715067,2020-07-11 00:00:00.000000,0.05409783,0.12867359,0.24485733,12,29,55,6,13,32,0.02669887,0.06177371,0.14541007,0.05719974,0.13135819,0.19920434
53003,0,USWashingtonAsotin,Washington,Asotin,2021-01-05 06:24:41.715067,2020-07-12 00:00:00.000000,0.05636426,0.13165345,0.25288136,12,29,57,6,14,33,0.02811190,0.06381788,0.14646092,0.05948961,0.13402771,0.19951303
53003,0,USWashingtonAsotin,Washington,Asotin,2021-01-05 06:24:41.715067,2020-07-13 00:00:00.000000,0.06154046,0.13826472,0.26224165,13,31,59,6,15,33,0.02992279,0.06651058,0.14792700,0.06322012,0.13779111,0.19864240
53003,0,USWashingtonAsotin,Washington,Asotin,2021-01-05 06:24:41.715067,2020-07-14 00:00:00.000000,0.06344673,0.14089220,0.27361996,14,31,61,7,15,33,0.03133834,0.06868702,0.14967412,0.06475173,0.13743318,0.20252178
53003,0,USWashingtonAsotin,Washington,Asotin,2021-01-05 06:24:41.715067,2020-07-15 00:00:00.000000,0.06522066,0.14884149,0.28807948,14,33,65,7,16,34,0.03325006,0.07099961,0.15154316,0.06519720,0.13726780,0.20764711
53003,0,USWashingtonAsotin,Washington,Asotin,2021-01-05 06:24:41.715067,2020-07-16 00:00:00.000000,0.06688992,0.15695917,0.29329276,15,35,66,8,16,34,0.03557388,0.07410586,0.15380195,0.06591903,0.13982271,0.21662089
53003,0,USWashingtonAsotin,Washington,Asotin,2021-01-05 06:24:41.715067,2020-07-17 00:00:00.000000,0.06849030,0.16319349,0.29350644,15,36,66,8,17,36,0.03808600,0.07758270,0.16192775,0.06729310,0.14197185,0.22545053
53003,0,USWashingtonAsotin,Washington,Asotin,2021-01-05 06:24:41.715067,2020-07-18 00:00:00.000000,0.07006296,0.16850042,0.29299978,15,38,66,8,18,38,0.03933055,0.08140252,0.17015475,0.06773456,0.14279588,0.23947420
53003,0,USWashingtonAsotin,Washington,Asotin,2021-01-05 06:24:41.715067,2020-07-19 00:00:00.000000,0.07169350,0.17478022,0.29330661,16,39,66,9,19,39,0.04030594,0.08494923,0.17658179,0.06825784,0.14398627,0.24510336
53003,0,USWashingtonAsotin,Washington,Asotin,2021-01-05 06:24:41.715067,2020-07-20 00:00:00.000000,0.07966037,0.18478279,0.32086320,17,41,72,9,20,39,0.04127271,0.08923019,0.17676980,0.06879405,0.14903304,0.25133290
53003,0,USWashingtonAsotin,Washington,Asotin,2021-01-05 06:24:41.715067,2020-07-21 00:00:00.000000,0.08984098,0.19475464,0.35043146,20,43,79,10,21,39,0.04454903,0.09341054,0.17647366,0.06926387,0.14856752,0.26062290
53003,0,USWashingtonAsotin,Washington,Asotin,2021-01-05 06:24:41.715067,2020-07-22 00:00:00.000000,0.10084467,0.19854996,0.35533063,22,44,80,10,21,39,0.04843568,0.09721656,0.17583056,0.06961982,0.15170738,0.26724897
53003,0,USWashingtonAsotin,Washington,Asotin,2021-01-05 06:24:41.715067,2020-07-23 00:00:00.000000,0.10417574,0.20247903,0.35784834,23,45,80,11,23,41,0.04909918,0.10185392,0.18202653,0.06978006,0.15412729,0.27246765
53003,0,USWashingtonAsotin,Washington,Asotin,2021-01-05 06:24:41.715067,2020-07-24 00:00:00.000000,0.10763217,0.20712578,0.35997597,24,46,81,12,24,43,0.05513472,0.10662286,0.19481376,0.06892554,0.15515917,0.27670892
53003,0,USWashingtonAsotin,Washington,Asotin,2021-01-05 06:24:41.715067,2020-07-25 00:00:00.000000,0.11117464,0.21122874,0.36816863,25,47,83,13,25,46,0.05889540,0.11335842,0.20663604,0.06609978,0.15711512,0.28146818
53003,0,USWashingtonAsotin,Washington,Asotin,2021-01-05 06:24:41.715067,2020-07-26 00:00:00.000000,0.11491215,0.21666193,0.39896559,25,48,90,13,26,47,0.06081886,0.11787323,0.20895332,0.07001666,0.16488234,0.28558883
53003,0,USWashingtonAsotin,Washington,Asotin,2021-01-05 06:24:41.715067,2020-07-27 00:00:00.000000,0.12636259,0.22116746,0.40498140,28,49,91,14,27,47,0.06280213,0.12381005,0.21163442,0.07368577,0.16634234,0.27457522
53003,0,USWashingtonAsotin,Washington,Asotin,2021-01-05 06:24:41.715067,2020-07-28 00:00:00.000000,0.13251234,0.22866811,0.41112003,29,51,92,15,28,48,0.06654423,0.12479111,0.21475450,0.07582482,0.16732204,0.27366027
53003,0,USWashingtonAsotin,Washington,Asotin,2021-01-05 06:24:41.715067,2020-07-29 00:00:00.000000,0.13799468,0.23014663,0.41679524,31,51,94,16,28,49,0.07152171,0.12544339,0.21829860,0.07901697,0.17612598,0.27533491
53003,0,USWashingtonAsotin,Washington,Asotin,2021-01-05 06:24:41.715067,2020-07-30 00:00:00.000000,0.13756547,0.24161421,0.42208464,31,54,95,17,28,50,0.07678544,0.12618002,0.22214302,0.09038605,0.17911033,0.27862027
53003,0,USWashingtonAsotin,Washington,Asotin,2021-01-05 06:24:41.715067,2020-07-31 00:00:00.000000,0.14352619,0.24731369,0.42693957,32,55,96,17,28,51,0.07671283,0.12806371,0.22621311,0.09254118,0.18090894,0.28229206
53003,0,USWashingtonAsotin,Washington,Asotin,2021-01-05 06:24:41.715067,2020-08-01 00:00:00.000000,0.15180445,0.25115570,0.43427665,34,56,98,17,29,52,0.07662994,0.13233601,0.23047474,0.09358783,0.18082670,0.28584680
53003,0,USWashingtonAsotin,Washington,Asotin,2021-01-05 06:24:41.715067,2020-08-02 00:00:00.000000,0.15896043,0.25630807,0.43964029,35,57,99,17,31,53,0.07660814,0.13757833,0.23495736,0.09721172,0.18315486,0.28891238
53003,0,USWashingtonAsotin,Washington,Asotin,2021-01-05 06:24:41.715067,2020-08-03 00:00:00.000000,0.17249468,0.27023091,0.45952210,38,61,103,17,31,54,0.07665237,0.14114532,0.23988947,0.10789416,0.18787595,0.29145201
53003,0,USWashingtonAsotin,Washington,Asotin,2021-01-05 06:24:41.715067,2020-08-04 00:00:00.000000,0.18677696,0.28767023,0.46782361,42,64,105,17,33,55,0.07775592,0.14660789,0.24461340,0.11482458,0.18829770,0.29367918
53003,0,USWashingtonAsotin,Washington,Asotin,2021-01-05 06:24:41.715067,2020-08-05 00:00:00.000000,0.19977724,0.30589400,0.47707159,45,69,107,19,34,56,0.08486059,0.15063309,0.25164735,0.11489670,0.19261831,0.29269190
53003,0,USWashingtonAsotin,Washington,Asotin,2021-01-05 06:24:41.715067,2020-08-06 00:00:00.000000,0.20681263,0.31894191,0.48677421,46,72,109,21,35,58,0.09364056,0.15684222,0.25941235,0.11496178,0.19376621,0.30035741
53003,0,USWashingtonAsotin,Washington,Asotin,2021-01-05 06:24:41.715067,2020-08-07 00:00:00.000000,0.20985430,0.33742184,0.49620591,47,76,112,23,37,60,0.10283666,0.16613715,0.26647923,0.11506819,0.19437932,0.30447417
53003,0,USWashingtonAsotin,Washington,Asotin,2021-01-05 06:24:41.715067,2020-08-08 00:00:00.000000,0.21320651,0.35861767,0.50522188,48,80,114,24,39,62,0.10761458,0.17362438,0.27539197,0.11537687,0.19789806,0.30796102
53003,0,USWashingtonAsotin,Washington,Asotin,2021-01-05 06:24:41.715067,2020-08-09 00:00:00.000000,0.21800278,0.36815373,0.51881456,49,83,117,24,41,63,0.10802505,0.18531553,0.28152548,0.11953590,0.19750951,0.30840090
53003,0,USWashingtonAsotin,Washington,Asotin,2021-01-05 06:24:41.715067,2020-08-10 00:00:00.000000,0.22336647,0.38020371,0.52482026,50,85,118,24,43,64,0.10818841,0.19278832,0.28664806,0.12284165,0.19963784,0.31176052
53003,0,USWashingtonAsotin,Washington,Asotin,2021-01-05 06:24:41.715067,2020-08-11 00:00:00.000000,0.24707114,0.39118574,0.53670397,55,88,121,25,45,66,0.11245273,0.19964109,0.29333152,0.12819708,0.20137914,0.31449824
53003,0,USWashingtonAsotin,Washington,Asotin,2021-01-05 06:24:41.715067,2020-08-12 00:00:00.000000,0.25942013,0.40304053,0.55586338,58,91,125,26,46,67,0.11667989,0.20774505,0.30011006,0.13294809,0.20348321,0.31488487
53003,0,USWashingtonAsotin,Washington,Asotin,2021-01-05 06:24:41.715067,2020-08-13 00:00:00.000000,0.26103005,0.41646353,0.58947624,58,94,133,27,47,69,0.12023583,0.21198792,0.30700629,0.13802004,0.20735256,0.31652405
53003,0,USWashingtonAsotin,Washington,Asotin,2021-01-05 06:24:41.715067,2020-08-14 00:00:00.000000,0.26294173,0.42548698,0.62550303,59,96,141,27,49,71,0.12374852,0.21707261,0.31566120,0.14581567,0.21057103,0.34109963
53003,0,USWashingtonAsotin,Washington,Asotin,2021-01-05 06:24:41.715067,2020-08-15 00:00:00.000000,0.26524960,0.43591734,0.67130968,59,98,151,28,50,75,0.12769483,0.22290349,0.33414588,0.15011309,0.21849270,0.36304143
53003,0,USWashingtonAsotin,Washington,Asotin,2021-01-05 06:24:41.715067,2020-08-16 00:00:00.000000,0.26806967,0.45213378,0.70584699,60,102,159,30,51,80,0.13366778,0.22668843,0.35597966,0.15080936,0.21932181,0.37514549
53003,0,USWashingtonAsotin,Washington,Asotin,2021-01-05 06:24:41.715067,2020-08-17 00:00:00.000000,0.27205526,0.46757208,0.72017525,61,105,162,31,52,83,0.13980231,0.23368048,0.37134057,0.15268490,0.22720686,0.38131742
53003,0,USWashingtonAsotin,Washington,Asotin,2021-01-05 06:24:41.715067,2020-08-18 00:00:00.000000,0.28358087,0.47608704,0.73581828,64,107,166,32,53,85,0.14375407,0.23887269,0.37714286,0.15286024,0.23199519,0.38252451
53003,0,USWashingtonAsotin,Washington,Asotin,2021-01-05 06:24:41.715067,2020-08-19 00:00:00.000000,0.28803373,0.48240189,0.75330575,65,108,170,33,55,86,0.14813705,0.24580969,0.38429400,0.15271744,0.23844873,0.38052076
53003,0,USWashingtonAsotin,Washington,Asotin,2021-01-05 06:24:41.715067,2020-08-20 00:00:00.000000,0.29091813,0.49997971,0.78754801,65,112,177,34,57,90,0.15253636,0.25324901,0.40293661,0.15381644,0.24545668,0.37839147
53003,0,USWashingtonAsotin,Washington,Asotin,2021-01-05 06:24:41.715067,2020-08-21 00:00:00.000000,0.29599553,0.51364134,0.82624543,66,115,186,35,59,94,0.15655194,0.26195468,0.41896610,0.15825846,0.25414480,0.37356533
53003,0,USWashingtonAsotin,Washington,Asotin,2021-01-05 06:24:41.715067,2020-08-22 00:00:00.000000,0.30231291,0.52431308,0.86512457,68,118,195,35,60,96,0.15837918,0.26590319,0.42716777,0.16541920,0.25875176,0.37020054
53003,0,USWashingtonAsotin,Washington,Asotin,2021-01-05 06:24:41.715067,2020-08-23 00:00:00.000000,0.30912435,0.53800799,0.90361638,69,121,204,36,61,98,0.16051431,0.27311916,0.43521787,0.17733951,0.26503063,0.36873629
53003,0,USWashingtonAsotin,Washington,Asotin,2021-01-05 06:24:41.715067,2020-08-24 00:00:00.000000,0.33873792,0.56008283,0.91131503,76,126,205,36,63,101,0.16302176,0.28122946,0.44853002,0.18726222,0.26690698,0.37721096
53003,0,USWashingtonAsotin,Washington,Asotin,2021-01-05 06:24:41.715067,2020-08-25 00:00:00.000000,0.36593648,0.58519068,0.91731103,82,132,207,37,65,106,0.16628752,0.29103920,0.47045142,0.19028383,0.26890936,0.39894595
53003,0,USWashingtonAsotin,Washington,Asotin,2021-01-05 06:24:41.715067,2020-08-26 00:00:00.000000,0.39803825,0.60713612,0.94836377,89,137,214,38,67,111,0.17018121,0.29839433,0.49308693,0.19398786,0.27535495,0.41681724
53003,0,USWashingtonAsotin,Washington,Asotin,2021-01-05 06:24:41.715067,2020-08-27 00:00:00.000000,0.40300295,0.61884514,0.99199445,91,139,224,39,69,116,0.17460102,0.30818599,0.51651075,0.19583606,0.28260872,0.41868859
53003,0,USWashingtonAsotin,Washington,Asotin,2021-01-05 06:24:41.715067,2020-08-28 00:00:00.000000,0.40802309,0.64815026,1.04378608,92,146,235,40,72,122,0.17947568,0.32087082,0.54078266,0.19663756,0.29090197,0.42143268
53003,0,USWashingtonAsotin,Washington,Asotin,2021-01-05 06:24:41.715067,2020-08-29 00:00:00.000000,0.41314613,0.67991814,1.10566607,93,153,249,41,74,127,0.18476121,0.33174924,0.56595188,0.21275798,0.30088697,0.42085071
53003,0,USWashingtonAsotin,Washington,Asotin,2021-01-05 06:24:41.715067,2020-08-30 00:00:00.000000,0.41856966,0.70367478,1.17107022,94,158,264,43,77,133,0.19159283,0.34487202,0.59205635,0.22274065,0.31065761,0.42183076
53003,0,USWashingtonAsotin,Washington,Asotin,2021-01-05 06:24:41.715067,2020-08-31 00:00:00.000000,0.45035210,0.72548805,1.24079705,101,163,280,44,81,139,0.19906682,0.36212309,0.61910744,0.22791963,0.31104081,0.42495093
53003,0,USWashingtonAsotin,Washington,Asotin,2021-01-05 06:24:41.715067,2020-09-01 00:00:00.000000,0.48343279,0.75351134,1.31270878,109,170,296,47,85,146,0.20827691,0.38000129,0.65008838,0.23257557,0.31511308,0.43286570
53003,0,USWashingtonAsotin,Washington,Asotin,2021-01-05 06:24:41.715067,2020-09-02 00:00:00.000000,0.49784319,0.77718303,1.38602973,112,175,312,49,89,154,0.22017831,0.39809064,0.68413145,0.23727646,0.32350344,0.43538741
53003,0,USWashingtonAsotin,Washington,Asotin,2021-01-05 06:24:41.715067,2020-09-03 00:00:00.000000,0.51272671,0.80926387,1.45982967,115,182,329,52,92,162,0.23300364,0.41104227,0.72065998,0.24211631,0.32531037,0.44873872
53003,0,USWashingtonAsotin,Washington,Asotin,2021-01-05 06:24:41.715067,2020-09-04 00:00:00.000000,0.52804260,0.84944397,1.51681764,119,191,342,54,96,171,0.24346310,0.42579850,0.75926693,0.24896813,0.32795255,0.45962662
53003,0,USWashingtonAsotin,Washington,Asotin,2021-01-05 06:24:41.715067,2020-09-05 00:00:00.000000,0.55394376,0.88328048,1.56497776,125,199,353,58,99,180,0.25718082,0.44227883,0.79975738,0.25381259,0.32908746,0.46923724
53003,0,USWashingtonAsotin,Washington,Asotin,2021-01-05 06:24:41.715067,2020-09-06 00:00:00.000000,0.58649600,0.92636090,1.65429290,132,209,373,61,103,190,0.27195209,0.45856668,0.84227081,0.26632777,0.33223753,0.47381859
53003,0,USWashingtonAsotin,Washington,Asotin,2021-01-05 06:24:41.715067,2020-09-07 00:00:00.000000,0.61809810,0.96324006,1.74328268,139,217,393,64,108,200,0.28766871,0.47875371,0.88800253,0.27268372,0.34373075,0.47565356
53003,0,USWashingtonAsotin,Washington,Asotin,2021-01-05 06:24:41.715067,2020-09-08 00:00:00.000000,0.65184239,1.01764543,1.80601194,147,229,407,68,113,207,0.30130517,0.50129868,0.91761617,0.27225871,0.34896271,0.47603265
53003,0,USWashingtonAsotin,Washington,Asotin,2021-01-05 06:24:41.715067,2020-09-09 00:00:00.000000,0.68749785,1.07722429,1.86638981,155,243,421,70,118,214,0.31357168,0.52373110,0.94882031,0.27046853,0.35418090,0.47537629
53003,0,USWashingtonAsotin,Washington,Asotin,2021-01-05 06:24:41.715067,2020-09-10 00:00:00.000000,0.72545371,1.14591956,1.92472527,163,258,434,73,124,221,0.32496073,0.54924109,0.98191428,0.27414182,0.35683647,0.47345862
53003,0,USWashingtonAsotin,Washington,Asotin,2021-01-05 06:24:41.715067,2020-09-11 00:00:00.000000,0.76694207,1.18984226,1.98364871,173,268,447,75,130,229,0.33584397,0.57984223,1.01667186,0.27875171,0.36124446,0.46932668
53003,0,USWashingtonAsotin,Washington,Asotin,2021-01-05 06:24:41.715067,2020-09-12 00:00:00.000000,0.81402606,1.25078343,2.08355619,183,282,470,78,137,237,0.34658268,0.60993702,1.05308817,0.28933240,0.35820612,0.47258756
53003,0,USWashingtonAsotin,Washington,Asotin,2021-01-05 06:24:41.715067,2020-09-13 00:00:00.000000,0.84123510,1.32357313,2.18090061,189,298,492,80,145,246,0.35773218,0.64609161,1.09137340,0.28882055,0.35961587,0.47650293
53003,0,USWashingtonAsotin,Washington,Asotin,2021-01-05 06:24:41.715067,2020-09-14 00:00:00.000000,0.88807158,1.39228705,2.27590699,200,314,513,83,153,255,0.37032546,0.67847528,1.13187036,0.28262653,0.36255312,0.47582256
53003,0,USWashingtonAsotin,Washington,Asotin,2021-01-05 06:24:41.715067,2020-09-15 00:00:00.000000,0.93527877,1.46205527,2.36518103,211,330,534,87,162,264,0.38608291,0.71826471,1.17218775,0.28411812,0.37029824,0.49395211
53003,0,USWashingtonAsotin,Washington,Asotin,2021-01-05 06:24:41.715067,2020-09-16 00:00:00.000000,0.98415948,1.53309190,2.45064339,222,346,553,91,169,273,0.40496185,0.75071103,1.21300573,0.28506137,0.36791599,0.50562589
53003,0,USWashingtonAsotin,Washington,Asotin,2021-01-05 06:24:41.715067,2020-09-17 00:00:00.000000,1.03472992,1.60365684,2.53069819,233,362,571,96,177,283,0.42654186,0.78421548,1.25417305,0.28769837,0.37502605,0.50749424
53003,0,USWashingtonAsotin,Washington,Asotin,2021-01-05 06:24:41.715067,2020-09-18 00:00:00.000000,1.08712976,1.65220429,2.60371203,245,373,587,101,185,299,0.45053417,0.82093882,1.32499437,0.28105635,0.37676643,0.49633807
53003,0,USWashingtonAsotin,Washington,Asotin,2021-01-05 06:24:41.715067,2020-09-19 00:00:00.000000,1.14155245,1.72987231,2.69645859,257,390,608,107,194,316,0.47658077,0.86085390,1.40205316,0.27268534,0.37497185,0.48013810
53003,0,USWashingtonAsotin,Washington,Asotin,2021-01-05 06:24:41.715067,2020-09-20 00:00:00.000000,1.19813481,1.81906387,2.80619430,270,410,633,113,203,332,0.50447946,0.89974592,1.47141069,0.26624799,0.36938989,0.47888710
53003,0,USWashingtonAsotin,Washington,Asotin,2021-01-05 06:24:41.715067,2020-09-21 00:00:00.000000,1.23438155,1.89124074,2.90713401,278,427,656,120,211,346,0.53412470,0.93452789,1.53360826,0.26506216,0.36769203,0.48098972
53003,0,USWashingtonAsotin,Washington,Asotin,2021-01-05 06:24:41.715067,2020-09-22 00:00:00.000000,1.27265454,1.97977186,3.01068467,287,447,679,127,217,359,0.56485145,0.96486838,1.58976418,0.26168153,0.36275620,0.47514012
53003,0,USWashingtonAsotin,Washington,Asotin,2021-01-05 06:24:41.715067,2020-09-23 00:00:00.000000,1.31207805,2.03938897,3.09003416,296,460,697,134,226,370,0.59679107,1.00122724,1.64270415,0.26037290,0.36349895,0.49189844
53003,0,USWashingtonAsotin,Washington,Asotin,2021-01-05 06:24:41.715067,2020-09-24 00:00:00.000000,1.35325742,2.09508276,3.22817324,305,473,728,142,234,384,0.62999829,1.03695063,1.70186453,0.26273528,0.35871375,0.49347835
53003,0,USWashingtonAsotin,Washington,Asotin,2021-01-05 06:24:41.715067,2020-09-25 00:00:00.000000,1.39566584,2.16880081,3.37915510,315,489,763,150,244,399,0.66443073,1.08319127,1.77118513,0.26488073,0.35433338,0.49162131
53003,0,USWashingtonAsotin,Washington,Asotin,2021-01-05 06:24:41.715067,2020-09-26 00:00:00.000000,1.43885843,2.26534453,3.54467677,324,511,800,155,256,406,0.68843145,1.13491944,1.79860755,0.26499541,0.35027378,0.48766297
53003,0,USWashingtonAsotin,Washington,Asotin,2021-01-05 06:24:41.715067,2020-09-27 00:00:00.000000,1.48209568,2.33317606,3.70424427,334,526,836,159,268,418,0.70606787,1.18718524,1.85179467,0.27744949,0.34631161,0.50333597
53003,0,USWashingtonAsotin,Washington,Asotin,2021-01-05 06:24:41.715067,2020-09-28 00:00:00.000000,1.52582002,2.40039094,3.83673433,344,542,866,163,280,430,0.72456470,1.24311280,1.90502980,0.26972551,0.34300594,0.51034826
53003,0,USWashingtonAsotin,Washington,Asotin,2021-01-05 06:24:41.715067,2020-09-29 00:00:00.000000,1.56619322,2.50647569,3.96571177,353,566,895,169,289,442,0.74957810,1.28358622,1.95739716,0.26443312,0.34129184,0.50780412
53003,0,USWashingtonAsotin,Washington,Asotin,2021-01-05 06:24:41.715067,2020-09-30 00:00:00.000000,1.62658273,2.61256871,4.09571243,367,589,924,177,298,453,0.78467205,1.32283787,2.00899855,0.26006302,0.34121212,0.50266350
53003,0,USWashingtonAsotin,Washington,Asotin,2021-01-05 06:24:41.715067,2020-10-01 00:00:00.000000,1.66707083,2.66534107,4.22737870,376,601,954,185,306,465,0.82094770,1.35649534,2.06007653,0.26155636,0.34911404,0.50059609
53003,0,USWashingtonAsotin,Washington,Asotin,2021-01-05 06:24:41.715067,2020-10-02 00:00:00.000000,1.70853245,2.72032613,4.36045201,385,614,984,193,314,476,0.85806793,1.39336531,2.11097474,0.26088517,0.35429634,0.49928280
53003,0,USWashingtonAsotin,Washington,Asotin,2021-01-05 06:24:41.715067,2020-10-03 00:00:00.000000,1.75132081,2.86834029,4.49479837,395,647,1015,200,323,499,0.88972695,1.43134668,2.21200337,0.26027030,0.36366578,0.51072428
53003,0,USWashingtonAsotin,Washington,Asotin,2021-01-05 06:24:41.715067,2020-10-04 00:00:00.000000,1.79618436,2.98090468,4.63059982,405,673,1045,205,335,528,0.90905598,1.48685018,2.34070816,0.25988656,0.36365002,0.51862963
53003,0,USWashingtonAsotin,Washington,Asotin,2021-01-05 06:24:41.715067,2020-10-05 00:00:00.000000,1.83977057,3.12311677,4.78347019,415,705,1080,211,345,558,0.93559328,1.52874464,2.47414422,0.26000867,0.36416579,0.52244472
53003,0,USWashingtonAsotin,Washington,Asotin,2021-01-05 06:24:41.715067,2020-10-06 00:00:00.000000,1.89135110,3.25814231,4.98237667,427,735,1125,220,354,588,0.97702623,1.56932421,2.60634582,0.26041981,0.36661004,0.51892376
53003,0,USWashingtonAsotin,Washington,Asotin,2021-01-05 06:24:41.715067,2020-10-07 00:00:00.000000,1.97156487,3.36674644,5.11699465,445,760,1155,231,364,617,1.02447766,1.61420447,2.73523922,0.26174345,0.37154911,0.51502661
53003,0,USWashingtonAsotin,Washington,Asotin,2021-01-05 06:24:41.715067,2020-10-08 00:00:00.000000,2.05701446,3.49942011,5.24316952,464,790,1184,241,381,645,1.06818973,1.68930031,2.85708738,0.26446684,0.37918618,0.51387768
53003,0,USWashingtonAsotin,Washington,Asotin,2021-01-05 06:24:41.715067,2020-10-09 00:00:00.000000,2.15192360,3.60934055,5.38882163,485,815,1216,247,399,670,1.09720882,1.76844135,2.96916633,0.27049655,0.38733876,0.51564944
53003,0,USWashingtonAsotin,Washington,Asotin,2021-01-05 06:24:41.715067,2020-10-10 00:00:00.000000,2.25974330,3.75467344,5.53072438,510,847,1248,254,421,693,1.12835936,1.86774693,3.07071870,0.27981069,0.39356581,0.52752997
53003,0,USWashingtonAsotin,Washington,Asotin,2021-01-05 06:24:41.715067,2020-10-11 00:00:00.000000,2.36767459,3.89646732,5.67776561,534,879,1282,264,437,713,1.17024783,1.93679562,3.15869388,0.29883378,0.40401060,0.53370874
53003,0,USWashingtonAsotin,Washington,Asotin,2021-01-05 06:24:41.715067,2020-10-12 00:00:00.000000,2.45830414,4.06071404,5.83247727,555,916,1317,277,457,730,1.22724067,2.02450606,3.23394139,0.29987531,0.41431615,0.53643506
53003,0,USWashingtonAsotin,Washington,Asotin,2021-01-05 06:24:41.715067,2020-10-13 00:00:00.000000,2.55568465,4.24622068,6.01456670,577,958,1358,290,473,746,1.28679651,2.09643485,3.30664214,0.28991368,0.42479340,0.53639453
53003,0,USWashingtonAsotin,Washington,Asotin,2021-01-05 06:24:41.715067,2020-10-14 00:00:00.000000,2.70277036,4.43310369,6.20486819,610,1001,1401,304,491,760,1.34888693,2.17639439,3.36594500,0.30467826,0.43030058,0.54307491
53003,0,USWashingtonAsotin,Washington,Asotin,2021-01-05 06:24:41.715067,2020-10-15 00:00:00.000000,2.86514271,4.63611286,6.38155468,647,1046,1441,319,519,772,1.41330768,2.29933481,3.41877244,0.31545482,0.44440109,0.57419645
53003,0,USWashingtonAsotin,Washington,Asotin,2021-01-05 06:24:41.715067,2020-10-16 00:00:00.000000,2.99680512,4.85448651,6.61949000,676,1096,1494,334,544,783,1.47997532,2.41045397,3.46848073,0.31358189,0.45216029,0.56599902
53003,0,USWashingtonAsotin,Washington,Asotin,2021-01-05 06:24:41.715067,2020-10-17 00:00:00.000000,3.13353563,5.09059437,6.93017050,707,1149,1564,349,568,795,1.54898595,2.51561501,3.52274739,0.31851372,0.45536898,0.58577510
53003,0,USWashingtonAsotin,Washington,Asotin,2021-01-05 06:24:41.715067,2020-10-18 00:00:00.000000,3.28384091,5.34902201,7.33221876,741,1207,1655,362,598,830,1.60575946,2.65028779,3.67969588,0.31893674,0.46235958,0.61140276
53003,0,USWashingtonAsotin,Washington,Asotin,2021-01-05 06:24:41.715067,2020-10-19 00:00:00.000000,3.51991793,5.63647703,7.95316593,794,1272,1795,373,625,880,1.65483916,2.76809939,3.90034690,0.31771281,0.46911709,0.62479934
53003,0,USWashingtonAsotin,Washington,Asotin,2021-01-05 06:24:41.715067,2020-10-20 00:00:00.000000,3.78773998,5.94035684,8.45509146,855,1341,1909,391,654,934,1.73343884,2.90010836,4.13722456,0.31972481,0.47296406,0.61618138
53003,0,USWashingtonAsotin,Washington,Asotin,2021-01-05 06:24:41.715067,2020-10-21 00:00:00.000000,4.08050460,6.26234046,8.92182464,921,1414,2014,417,687,984,1.84975585,3.04412731,4.36029807,0.32123496,0.47436815,0.61285209
53003,0,USWashingtonAsotin,Washington,Asotin,2021-01-05 06:24:41.715067,2020-10-22 00:00:00.000000,4.28658450,6.54711814,9.40806500,967,1478,2124,429,722,1031,1.90413665,3.19875292,4.56571125,0.32947308,0.48768179,0.62558465
53003,0,USWashingtonAsotin,Washington,Asotin,2021-01-05 06:24:41.715067,2020-10-23 00:00:00.000000,4.43432965,6.89655250,9.91703590,1001,1557,2239,442,757,1077,1.95926412,3.35593417,4.77184074,0.34827791,0.49131057,0.64098639
53003,0,USWashingtonAsotin,Washington,Asotin,2021-01-05 06:24:41.715067,2020-10-24 00:00:00.000000,4.58909233,7.23659385,10.44680778,1036,1634,2359,456,803,1126,2.02014964,3.55661368,4.98885239,0.35064039,0.49075789,0.64511500
53003,0,USWashingtonAsotin,Washington,Asotin,2021-01-05 06:24:41.715067,2020-10-25 00:00:00.000000,4.75067552,7.62931438,10.99515179,1072,1722,2482,471,844,1189,2.08845372,3.74112567,5.26770708,0.36080554,0.48560027,0.63738981
53003,0,USWashingtonAsotin,Washington,Asotin,2021-01-05 06:24:41.715067,2020-10-26 00:00:00.000000,4.91914457,8.01245113,11.56228165,1110,1809,2610,492,892,1249,2.18089480,3.95289136,5.53374245,0.38293215,0.49001072,0.65060456
53003,0,USWashingtonAsotin,Washington,Asotin,2021-01-05 06:24:41.715067,2020-10-27 00:00:00.000000,5.09720355,8.44189038,12.07965568,1151,1906,2727,520,937,1300,2.30483867,4.15232441,5.75878944,0.38210889,0.50049014,0.64972678
53003,0,USWashingtonAsotin,Washington,Asotin,2021-01-05 06:24:41.715067,2020-10-28 00:00:00.000000,5.29295434,8.87748855,12.58971174,1195,2004,2843,552,978,1351,2.44679842,4.33283250,5.98489180,0.39843580,0.50518711,0.64703298
53003,0,USWashingtonAsotin,Washington,Asotin,2021-01-05 06:24:41.715067,2020-10-29 00:00:00.000000,5.52355010,9.32906343,13.09998243,1247,2106,2958,583,1022,1414,2.58246539,4.52653389,6.26371194,0.40041636,0.50575489,0.65869909
53003,0,USWashingtonAsotin,Washington,Asotin,2021-01-05 06:24:41.715067,2020-10-30 00:00:00.000000,5.81239783,9.77677683,13.60544705,1312,2207,3072,609,1066,1479,2.69767456,4.72291142,6.55138085,0.40542115,0.50131455,0.67926100
53003,0,USWashingtonAsotin,Washington,Asotin,2021-01-05 06:24:41.715067,2020-10-31 00:00:00.000000,6.17126278,10.15958202,14.09478504,1393,2294,3182,637,1111,1546,2.82280423,4.92330548,6.84637515,0.41447711,0.50553306,0.67417948
53003,0,USWashingtonAsotin,Washington,Asotin,2021-01-05 06:24:41.715067,2020-11-01 00:00:00.000000,6.58931731,10.63082639,14.53990940,1487,2400,3283,667,1167,1613,2.95628890,5.17156687,7.14717112,0.40718956,0.49736244,0.67517409
53003,0,USWashingtonAsotin,Washington,Asotin,2021-01-05 06:24:41.715067,2020-11-02 00:00:00.000000,7.06255604,11.02699018,14.90456674,1594,2490,3365,699,1226,1682,3.09685523,5.42981714,7.45241770,0.39160859,0.49450313,0.66892602
53003,0,USWashingtonAsotin,Washington,Asotin,2021-01-05 06:24:41.715067,2020-11-03 00:00:00.000000,7.56756044,11.41260053,15.43437206,1708,2577,3485,733,1282,1753,3.24951444,5.67855327,7.76294738,0.38359295,0.49469911,0.67770221
53003,0,USWashingtonAsotin,Washington,Asotin,2021-01-05 06:24:41.715067,2020-11-04 00:00:00.000000,8.09961787,11.78056451,15.93538512,1829,2660,3598,770,1343,1824,3.41188687,5.94945795,8.07730022,0.38315600,0.49210849,0.67638539
53003,0,USWashingtonAsotin,Washington,Asotin,2021-01-05 06:24:41.715067,2020-11-05 00:00:00.000000,8.65147768,12.16975716,16.30562393,1953,2748,3682,808,1415,1895,3.58243909,6.26747438,8.39410168,0.37625575,0.47987288,0.67709368
53003,0,USWashingtonAsotin,Washington,Asotin,2021-01-05 06:24:41.715067,2020-11-06 00:00:00.000000,9.19277812,12.58175791,16.67892069,2075,2841,3766,849,1481,1964,3.75982206,6.55900914,8.70083444,0.36483698,0.46628884,0.66708038
53003,0,USWashingtonAsotin,Washington,Asotin,2021-01-05 06:24:41.715067,2020-11-07 00:00:00.000000,9.64285240,13.09228785,17.30812506,2177,2956,3908,893,1517,2005,3.95577435,6.72014927,8.88222647,0.36660557,0.45903052,0.60454421
53003,0,USWashingtonAsotin,Washington,Asotin,2021-01-05 06:24:41.715067,2020-11-08 00:00:00.000000,9.99425304,13.49832944,18.05036826,2256,3048,4076,938,1564,2070,4.15606172,6.92695187,9.16674146,0.36047187,0.45032699,0.58476840
53003,0,USWashingtonAsotin,Washington,Asotin,2021-01-05 06:24:41.715067,2020-11-09 00:00:00.000000,10.32249303,13.83238161,18.35967691,2331,3123,4145,979,1622,2175,4.33834391,7.18379036,9.63591316,0.34321591,0.43425769,0.55207129
53003,0,USWashingtonAsotin,Washington,Asotin,2021-01-05 06:24:41.715067,2020-11-10 00:00:00.000000,10.53731759,13.92712212,18.46813646,2379,3145,4170,1017,1675,2234,4.50496613,7.41836698,9.89648341,0.33198259,0.42246127,0.54317119
53003,0,USWashingtonAsotin,Washington,Asotin,2021-01-05 06:24:41.715067,2020-11-11 00:00:00.000000,10.67448800,14.11803786,18.52012533,2410,3188,4182,1052,1719,2286,4.66015030,7.61665557,10.12745674,0.33111366,0.41200851,0.53786516
53003,0,USWashingtonAsotin,Washington,Asotin,2021-01-05 06:24:41.715067,2020-11-12 00:00:00.000000,10.79561402,14.37587304,18.82476308,2437,3246,4251,1085,1743,2333,4.80654200,7.72263004,10.33372819,0.31702267,0.40427071,0.52423744
53003,0,USWashingtonAsotin,Washington,Asotin,2021-01-05 06:24:41.715067,2020-11-13 00:00:00.000000,10.90430346,14.54421559,19.25195204,2462,3284,4347,1116,1766,2375,4.94396113,7.82429941,10.51739281,0.29853491,0.39290084,0.50328347
53003,0,USWashingtonAsotin,Washington,Asotin,2021-01-05 06:24:41.715067,2020-11-14 00:00:00.000000,11.00168073,14.61351886,19.45254454,2484,3300,4392,1144,1811,2449,5.06634581,8.02005679,10.84859117,0.28319100,0.38439808,0.48135311
53003,0,USWashingtonAsotin,Washington,Asotin,2021-01-05 06:24:41.715067,2020-11-15 00:00:00.000000,11.08644884,14.65088646,19.39280109,2503,3308,4379,1167,1826,2513,5.17022456,8.08912209,11.12933766,0.26284978,0.37804166,0.48272270
53003,0,USWashingtonAsotin,Washington,Asotin,2021-01-05 06:24:41.715067,2020-11-16 00:00:00.000000,11.10863838,14.68885458,19.23508586,2508,3317,4343,1187,1837,2559,5.25824770,8.13921489,11.33430991,0.25663692,0.37582025,0.47948108
53003,0,USWashingtonAsotin,Washington,Asotin,2021-01-05 06:24:41.715067,2020-11-17 00:00:00.000000,10.93407656,14.67679084,19.03836455,2469,3314,4299,1203,1844,2560,5.33140044,8.16852091,11.33739511,0.25110857,0.36796689,0.46926500
53003,0,USWashingtonAsotin,Washington,Asotin,2021-01-05 06:24:41.715067,2020-11-18 00:00:00.000000,10.77306532,14.62694740,18.81201308,2432,3303,4248,1217,1846,2549,5.39055691,8.17620233,11.29077204,0.24978618,0.36060093,0.45895705
53003,0,USWashingtonAsotin,Washington,Asotin,2021-01-05 06:24:41.715067,2020-11-19 00:00:00.000000,10.83274522,14.58370396,18.59062328,2446,3293,4198,1228,1840,2532,5.43838510,8.14927739,11.21449089,0.25079833,0.35469208,0.44168404
53003,0,USWashingtonAsotin,Washington,Asotin,2021-01-05 06:24:41.715067,2020-11-20 00:00:00.000000,10.86318750,14.32903753,18.46695898,2453,3235,4170,1216,1825,2521,5.38748513,8.08437085,11.16799929,0.24842816,0.34871588,0.45516670
53003,0,USWashingtonAsotin,Washington,Asotin,2021-01-05 06:24:41.715067,2020-11-21 00:00:00.000000,10.74944016,14.17885294,18.23390349,2427,3201,4117,1198,1830,2529,5.30705777,8.10550678,11.20111277,0.24337540,0.34349192,0.45379064
53003,0,USWashingtonAsotin,Washington,Asotin,2021-01-05 06:24:41.715067,2020-11-22 00:00:00.000000,10.46799047,14.02658371,18.02034163,2363,3167,4069,1188,1812,2527,5.26337880,8.02574126,11.19217219,0.23644677,0.33607978,0.43765262
53003,0,USWashingtonAsotin,Washington,Asotin,2021-01-05 06:24:41.715067,2020-11-23 00:00:00.000000,10.19521020,13.87859877,17.80647115,2302,3134,4021,1184,1799,2540,5.24481810,7.96727662,11.25204774,0.23419623,0.33290841,0.44171909
53003,0,USWashingtonAsotin,Washington,Asotin,2021-01-05 06:24:41.715067,2020-11-24 00:00:00.000000,9.93745719,13.58886197,17.57330117,2244,3068,3968,1167,1770,2542,5.17212674,7.84222799,11.25859415,0.23140174,0.33239704,0.44132858
53003,0,USWashingtonAsotin,Washington,Asotin,2021-01-05 06:24:41.715067,2020-11-25 00:00:00.000000,9.69351618,13.39326953,17.33851050,2188,3024,3915,1151,1754,2518,5.09760268,7.76969730,11.15410457,0.22481293,0.32934975,0.43929855
53003,0,USWashingtonAsotin,Washington,Asotin,2021-01-05 06:24:41.715067,2020-11-26 00:00:00.000000,9.45811218,13.21103041,17.09327124,2135,2983,3860,1133,1732,2479,5.02035974,7.67027002,10.97885161,0.22190353,0.33071513,0.45231832
53003,0,USWashingtonAsotin,Washington,Asotin,2021-01-05 06:24:41.715067,2020-11-27 00:00:00.000000,9.26609844,13.04018984,16.83355540,2092,2944,3801,1114,1703,2436,4.93653550,7.54564597,10.78814449,0.22736938,0.32502409,0.43740221
53003,0,USWashingtonAsotin,Washington,Asotin,2021-01-05 06:24:41.715067,2020-11-28 00:00:00.000000,9.07005456,12.80060650,16.55336358,2048,2890,3738,1091,1678,2390,4.83195226,7.43352432,10.58530641,0.21681663,0.32101762,0.44444640
53003,0,USWashingtonAsotin,Washington,Asotin,2021-01-05 06:24:41.715067,2020-11-29 00:00:00.000000,8.85342132,12.54901774,16.26136825,1999,2833,3672,1066,1654,2342,4.72462154,7.32862822,10.37294288,0.20999870,0.32407591,0.44779890
53003,0,USWashingtonAsotin,Washington,Asotin,2021-01-05 06:24:41.715067,2020-11-30 00:00:00.000000,8.61200208,12.26703290,15.96420299,1944,2770,3605,1042,1618,2292,4.61447759,7.16928238,10.15313054,0.21187614,0.32485831,0.46977852
53003,0,USWashingtonAsotin,Washington,Asotin,2021-01-05 06:24:41.715067,2020-12-01 00:00:00.000000,8.35719850,11.96862433,15.65714874,1887,2702,3535,1016,1581,2244,4.50267067,7.00285925,9.93879040,0.21457058,0.32188786,0.47399015
53003,0,USWashingtonAsotin,Washington,Asotin,2021-01-05 06:24:41.715067,2020-12-02 00:00:00.000000,8.10025463,11.67735543,15.34030060,1829,2636,3464,991,1549,2195,4.39023575,6.85977258,9.72374090,0.21712112,0.32275074,0.47609304
53003,0,USWashingtonAsotin,Washington,Asotin,2021-01-05 06:24:41.715067,2020-12-03 00:00:00.000000,7.87761264,11.39466508,15.01303195,1778,2573,3390,966,1518,2143,4.28196737,6.72438660,9.49206670,0.22115402,0.32533232,0.48493814
53003,0,USWashingtonAsotin,Washington,Asotin,2021-01-05 06:24:41.715067,2020-12-04 00:00:00.000000,7.66360620,11.12440643,14.67489630,1730,2512,3313,944,1487,2093,4.18336782,6.58542180,9.27039985,0.22650966,0.32945674,0.49766017
53003,0,USWashingtonAsotin,Washington,Asotin,2021-01-05 06:24:41.715067,2020-12-05 00:00:00.000000,7.45617046,10.87304358,14.32720005,1683,2455,3235,916,1452,2044,4.06064090,6.43276198,9.05182977,0.23842824,0.32976665,0.50801357
53003,0,USWashingtonAsotin,Washington,Asotin,2021-01-05 06:24:41.715067,2020-12-06 00:00:00.000000,7.25779215,10.63636282,13.97355124,1638,2401,3155,889,1416,2002,3.93916503,6.27149856,8.86549118,0.24704507,0.33439309,0.50800750
53003,0,USWashingtonAsotin,Washington,Asotin,2021-01-05 06:24:41.715067,2020-12-07 00:00:00.000000,7.07272432,10.38712545,13.62142111,1597,2345,3075,865,1384,1971,3.83262030,6.13027363,8.73051300,0.25635535,0.34041271,0.50827876
53003,0,USWashingtonAsotin,Washington,Asotin,2021-01-05 06:24:41.715067,2020-12-08 00:00:00.000000,6.89836645,10.09105110,13.27280111,1557,2278,2997,845,1349,1939,3.74341228,5.97722029,8.58814223,0.25043096,0.34776021,0.53007721
53003,0,USWashingtonAsotin,Washington,Asotin,2021-01-05 06:24:41.715067,2020-12-09 00:00:00.000000,6.69598828,9.81095464,12.93236750,1512,2215,2920,824,1313,1905,3.64983248,5.81480028,8.43730676,0.23728862,0.34975478,0.57546801
53003,0,USWashingtonAsotin,Washington,Asotin,2021-01-05 06:24:41.715067,2020-12-10 00:00:00.000000,6.49918257,9.55206691,12.61378873,1467,2157,2848,806,1284,1869,3.57291887,5.68849716,8.27862507,0.23380721,0.35716713,0.58916838
53003,0,USWashingtonAsotin,Washington,Asotin,2021-01-05 06:24:41.715067,2020-12-11 00:00:00.000000,6.29366144,9.31353561,12.42432392,1421,2103,2805,788,1253,1832,3.49121855,5.54968460,8.11350962,0.25287313,0.36328964,0.61476549
53003,0,USWashingtonAsotin,Washington,Asotin,2021-01-05 06:24:41.715067,2020-12-12 00:00:00.000000,6.12074250,9.07078665,12.19161796,1382,2048,2753,773,1223,1793,3.42412177,5.41648898,7.94366102,0.26874980,0.37387761,0.64927313
53003,0,USWashingtonAsotin,Washington,Asotin,2021-01-05 06:24:41.715067,2020-12-13 00:00:00.000000,5.94345425,8.83887744,11.94447716,1342,1995,2697,759,1195,1745,3.36194781,5.29574042,7.72758132,0.27365868,0.38801457,0.66026371
53003,0,USWashingtonAsotin,Washington,Asotin,2021-01-05 06:24:41.715067,2020-12-14 00:00:00.000000,5.74897397,8.66503615,11.71121526,1298,1956,2644,745,1172,1714,3.30171725,5.19188973,7.59250575,0.27860099,0.40800933,0.69074548
53003,0,USWashingtonAsotin,Washington,Asotin,2021-01-05 06:24:41.715067,2020-12-15 00:00:00.000000,5.64638480,8.49353796,11.47267180,1275,1918,2590,728,1147,1678,3.22621450,5.08064527,7.43203221,0.28036455,0.41778625,0.69246565
53003,0,USWashingtonAsotin,Washington,Asotin,2021-01-05 06:24:41.715067,2020-12-16 00:00:00.000000,5.54712823,8.36520561,11.23370267,1252,1889,2536,710,1122,1650,3.14561513,4.97252910,7.30789398,0.28104376,0.42759939,0.69313848
53003,0,USWashingtonAsotin,Washington,Asotin,2021-01-05 06:24:41.715067,2020-12-17 00:00:00.000000,5.47081829,8.27499239,11.00705360,1235,1868,2485,692,1099,1621,3.06595291,4.86816459,7.18269064,0.28174972,0.43600342,0.69493138
53003,0,USWashingtonAsotin,Washington,Asotin,2021-01-05 06:24:41.715067,2020-12-18 00:00:00.000000,5.36004691,8.16065196,10.82320672,1210,1842,2444,674,1077,1593,2.98736854,4.77265597,7.05828960,0.28305649,0.45875566,0.70020015
53003,0,USWashingtonAsotin,Washington,Asotin,2021-01-05 06:24:41.715067,2020-12-19 00:00:00.000000,5.25190740,8.07967426,10.69269456,1185,1824,2414,657,1054,1564,2.91096058,4.67121487,6.92800261,0.31656771,0.48648055,0.77553291
53003,0,USWashingtonAsotin,Washington,Asotin,2021-01-05 06:24:41.715067,2020-12-20 00:00:00.000000,5.22594423,8.01551564,10.60313733,1180,1810,2394,641,1046,1534,2.84228305,4.63282958,6.79585863,0.33093935,0.51159264,0.77797462
53003,0,USWashingtonAsotin,Washington,Asotin,2021-01-05 06:24:41.715067,2020-12-21 00:00:00.000000,5.28633364,7.95731067,10.69398232,1193,1796,2414,631,1030,1510,2.79458547,4.56280945,6.68992980,0.33495867,0.52674302,0.81368852
53003,0,USWashingtonAsotin,Washington,Asotin,2021-01-05 06:24:41.715067,2020-12-22 00:00:00.000000,5.35976003,7.90175164,10.79314584,1210,1784,2437,627,1016,1490,2.77718898,4.49959048,6.59975178,0.34545968,0.55089799,0.83353199
53003,0,USWashingtonAsotin,Washington,Asotin,2021-01-05 06:24:41.715067,2020-12-23 00:00:00.000000,5.37073125,7.86425624,10.86570947,1212,1775,2453,620,1001,1488,2.74852456,4.43715797,6.59317140,0.34901579,0.57054582,0.84082303
53003,0,USWashingtonAsotin,Washington,Asotin,2021-01-05 06:24:41.715067,2020-12-24 00:00:00.000000,5.38007045,7.81272637,10.98805634,1214,1764,2481,607,993,1494,2.69045718,4.39989173,6.62020228,0.34948215,0.58642779,0.88422621
53003,0,USWashingtonAsotin,Washington,Asotin,2021-01-05 06:24:41.715067,2020-12-25 00:00:00.000000,5.38755231,7.73471391,11.09310173,1216,1746,2505,595,979,1490,2.63589136,4.33856572,6.59934744,0.34797176,0.61120755,0.97212646
53003,0,USWashingtonAsotin,Washington,Asotin,2021-01-05 06:24:41.715067,2020-12-26 00:00:00.000000,5.35483533,7.74733257,11.06457274,1209,1749,2498,585,983,1480,2.59272413,4.35678294,6.55792729,0.34774755,0.63213696,1.07175881
53003,0,USWashingtonAsotin,Washington,Asotin,2021-01-05 06:24:41.715067,2020-12-27 00:00:00.000000,5.25475463,7.77786028,11.00244894,1186,1756,2484,581,977,1484,2.57558559,4.32980029,6.57461657,0.33776361,0.64960340,1.13745649
53003,0,USWashingtonAsotin,Washington,Asotin,2021-01-05 06:24:41.715067,2020-12-28 00:00:00.000000,5.13798167,7.80216277,10.89506430,1160,1761,2460,578,979,1508,2.56022371,4.33738001,6.68082023,0.32738617,0.65313407,1.16904883
53003,0,USWashingtonAsotin,Washington,Asotin,2021-01-05 06:24:41.715067,2020-12-29 00:00:00.000000,5.01552814,7.78256833,10.74025809,1132,1757,2425,574,974,1532,2.54257267,4.31420602,6.78824201,0.33443455,0.64819398,1.18192988
53003,0,USWashingtonAsotin,Washington,Asotin,2021-01-05 06:24:41.715067,2020-12-30 00:00:00.000000,4.88918166,7.77700086,10.53637949,1104,1756,2379,569,970,1546,2.52141093,4.29884277,6.84895944,0.33930846,0.65139524,1.18680473
53003,0,USWashingtonAsotin,Washington,Asotin,2021-01-05 06:24:41.715067,2020-12-31 00:00:00.000000,4.75785668,7.72390946,10.65982758,1074,1744,2407,563,972,1531,2.49667599,4.30808684,6.78217470,0.34244983,0.64626704,1.18852838
53003,0,USWashingtonAsotin,Washington,Asotin,2021-01-05 06:24:41.715067,2021-01-01 00:00:00.000000,4.65329262,7.70168724,10.77908229,1050,1739,2434,557,974,1515,2.46889455,4.31408801,6.71028631,0.34464495,0.64313108,1.21871162
53003,0,USWashingtonAsotin,Washington,Asotin,2021-01-05 06:24:41.715067,2021-01-02 00:00:00.000000,4.60212124,7.64115860,10.87390858,1039,1725,2455,550,966,1498,2.43748509,4.27840243,6.63608071,0.36368115,0.63705328,1.24602662
53003,0,USWashingtonAsotin,Washington,Asotin,2021-01-05 06:24:41.715067,2021-01-03 00:00:00.000000,4.69131654,7.57975091,10.94699909,1059,1711,2472,542,970,1482,2.40309381,4.29934012,6.56431780,0.36494579,0.62814454,1.25639497
53003,0,USWashingtonAsotin,Washington,Asotin,2021-01-05 06:24:41.715067,2021-01-04 00:00:00.000000,4.77081519,7.47320369,10.99983279,1077,1687,2483,534,970,1467,2.36801610,4.29948733,6.49998435,0.39239468,0.62828791,1.26165483
53003,0,USWashingtonAsotin,Washington,Asotin,2021-01-05 06:24:41.715067,2021-01-05 00:00:00.000000,4.67400173,7.42964283,11.03222531,1055,1677,2491,527,964,1469,2.33522589,4.27056409,6.50596096,0.38369245,0.61941968,1.26589026
53003,0,USWashingtonAsotin,Washington,Asotin,2021-01-05 06:24:41.715067,2021-01-06 00:00:00.000000,4.57295262,7.35047462,11.04218623,1032,1659,2493,518,949,1479,2.29602104,4.20491261,6.55292100,0.37088614,0.61621450,1.26855750
53003,0,USWashingtonAsotin,Washington,Asotin,2021-01-05 06:24:41.715067,2021-01-07 00:00:00.000000,4.37441082,7.33806268,11.02980477,987,1657,2490,509,935,1492,2.25798717,4.14379315,6.60857233,0.36373110,0.61566986,1.26959383
53003,0,USWashingtonAsotin,Washington,Asotin,2021-01-05 06:24:41.715067,2021-01-08 00:00:00.000000,4.18161886,7.25550650,10.99528573,944,1638,2482,501,924,1505,2.21942560,4.09359576,6.66599052,0.36002667,0.62697401,1.26990697
53003,0,USWashingtonAsotin,Washington,Asotin,2021-01-05 06:24:41.715067,2021-01-09 00:00:00.000000,3.99483155,7.14635108,10.95706792,902,1613,2474,492,915,1517,2.18048422,4.05288115,6.71890952,0.35818104,0.62660883,1.26999456
53003,0,USWashingtonAsotin,Washington,Asotin,2021-01-05 06:24:41.715067,2021-01-10 00:00:00.000000,3.81420194,7.03362112,11.03607935,861,1588,2492,481,897,1527,2.13238859,3.97463573,6.76525369,0.35727764,0.62644151,1.27001877
53003,0,USWashingtonAsotin,Washington,Asotin,2021-01-05 06:24:41.715067,2021-01-11 00:00:00.000000,3.63980756,6.90480478,11.09055209,821,1559,2504,466,882,1536,2.06757222,3.90935867,6.80276041,0.35683853,0.62636535,1.27002552
53003,0,USWashingtonAsotin,Washington,Asotin,2021-01-05 06:24:41.715067,2021-01-12 00:00:00.000000,3.47166909,6.72527427,11.12034027,783,1518,2511,456,869,1538,2.02117414,3.85134732,6.81406191,0.35664951,0.62633082,1.27002744
53003,0,USWashingtonAsotin,Washington,Asotin,2021-01-05 06:24:41.715067,2021-01-13 00:00:00.000000,3.30976372,6.55019700,11.03566761,747,1479,2492,445,856,1524,1.97484591,3.79271861,6.75164940,0.35656493,0.62631521,1.27002800
53003,0,USWashingtonAsotin,Washington,Asotin,2021-01-05 06:24:41.715067,2021-01-14 00:00:00.000000,3.15403501,6.35982734,10.88150854,712,1436,2457,435,842,1509,1.92867303,3.73137188,6.68339581,0.35652494,0.62630816,1.27002817
53003,0,USWashingtonAsotin,Washington,Asotin,2021-01-05 06:24:41.715067,2021-01-15 00:00:00.000000,3.00440013,6.17028375,10.75370825,678,1393,2428,425,830,1492,1.88272928,3.67691065,6.60963069,0.35650599,0.62630497,1.27002823
53003,0,USWashingtonAsotin,Washington,Asotin,2021-01-05 06:24:41.715067,2021-01-16 00:00:00.000000,2.86075543,6.00278665,10.65904792,646,1355,2407,414,815,1474,1.83707946,3.60991930,6.53068143,0.35649698,0.62630354,1.27002825
53003,0,USWashingtonAsotin,Washington,Asotin,2021-01-05 06:24:41.715067,2021-01-17 00:00:00.000000,2.72298080,5.90671613,10.54036012,614,1333,2380,404,797,1455,1.79178119,3.53144277,6.44592628,0.35649267,0.62630289,1.27002825
