FIPS,HR_UID,nameid,province,region,analysisTime,dates,pointprevalence_025,pointprevalence_50,pointprevalence_975,pointinfections_025,pointinfections_50,pointinfections_975,pointinfectious_025,pointinfectious_50,pointinfectious_975,pointinfectiousprevalence_05,pointinfectiousprevalence_50,pointinfectiousprevalence_95,infectrate_025,infectrate_50,infectrate_975
48355,0,USTexasNueces,Texas,Nueces,2021-01-05 08:40:34.159579,2020-03-09 00:00:00.000000,0.00032269,0.00098913,0.00365375,1,3,13,0,1,7,0.00006169,0.00039316,0.00202971,0.36280647,0.48998360,0.60841435
48355,0,USTexasNueces,Texas,Nueces,2021-01-05 08:40:34.159579,2020-03-10 00:00:00.000000,0.00046415,0.00133630,0.00416633,1,4,15,0,1,7,0.00011676,0.00045927,0.00209232,0.36279375,0.48983602,0.60841420
48355,0,USTexasNueces,Texas,Nueces,2021-01-05 08:40:34.159579,2020-03-11 00:00:00.000000,0.00060912,0.00175449,0.00470857,2,6,17,0,2,8,0.00019131,0.00063078,0.00228971,0.36276626,0.48958814,0.60841361
48355,0,USTexasNueces,Texas,Nueces,2021-01-05 08:40:34.159579,2020-03-12 00:00:00.000000,0.00074913,0.00211595,0.00548058,2,7,19,1,2,9,0.00028689,0.00078026,0.00256255,0.36270689,0.48917214,0.60841013
48355,0,USTexasNueces,Texas,Nueces,2021-01-05 08:40:34.159579,2020-03-13 00:00:00.000000,0.00090553,0.00254329,0.00655575,3,9,23,1,3,10,0.00039348,0.00097845,0.00285248,0.36257880,0.48847545,0.60838418
48355,0,USTexasNueces,Texas,Nueces,2021-01-05 08:40:34.159579,2020-03-14 00:00:00.000000,0.00107217,0.00292901,0.00731196,3,10,26,1,4,11,0.00050834,0.00122623,0.00316254,0.36230330,0.48768475,0.60817398
48355,0,USTexasNueces,Texas,Nueces,2021-01-05 08:40:34.159579,2020-03-15 00:00:00.000000,0.00126110,0.00340655,0.00828289,4,12,30,2,5,12,0.00063262,0.00145524,0.00357559,0.36171442,0.48707344,0.60644242
48355,0,USTexasNueces,Texas,Nueces,2021-01-05 08:40:34.159579,2020-03-16 00:00:00.000000,0.00182264,0.00408050,0.00921921,6,14,33,2,6,15,0.00075328,0.00175094,0.00423685,0.36047244,0.48357928,0.60497648
48355,0,USTexasNueces,Texas,Nueces,2021-01-05 08:40:34.159579,2020-03-17 00:00:00.000000,0.00229264,0.00481172,0.01003204,8,17,36,3,7,17,0.00092184,0.00206372,0.00473235,0.35792550,0.47606777,0.60450860
48355,0,USTexasNueces,Texas,Nueces,2021-01-05 08:40:34.159579,2020-03-18 00:00:00.000000,0.00265818,0.00538969,0.01118386,9,19,40,4,8,19,0.00112806,0.00247326,0.00540217,0.34904875,0.46151090,0.60189655
48355,0,USTexasNueces,Texas,Nueces,2021-01-05 08:40:34.159579,2020-03-19 00:00:00.000000,0.00304262,0.00591418,0.01240141,11,21,44,4,10,22,0.00130635,0.00286884,0.00614092,0.33037786,0.44750819,0.59279196
48355,0,USTexasNueces,Texas,Nueces,2021-01-05 08:40:34.159579,2020-03-20 00:00:00.000000,0.00338012,0.00651481,0.01367600,12,23,49,5,11,24,0.00151380,0.00325269,0.00676514,0.31995960,0.41663194,0.55758828
48355,0,USTexasNueces,Texas,Nueces,2021-01-05 08:40:34.159579,2020-03-21 00:00:00.000000,0.00366903,0.00709860,0.01495420,13,25,54,6,12,27,0.00171752,0.00355901,0.00756942,0.30888078,0.38957352,0.51795925
48355,0,USTexasNueces,Texas,Nueces,2021-01-05 08:40:34.159579,2020-03-22 00:00:00.000000,0.00396746,0.00784275,0.01610969,14,28,58,6,14,30,0.00187296,0.00387881,0.00844213,0.27589397,0.36467001,0.47138292
48355,0,USTexasNueces,Texas,Nueces,2021-01-05 08:40:34.159579,2020-03-23 00:00:00.000000,0.00472317,0.00871498,0.01702111,17,31,61,7,15,33,0.00201328,0.00429743,0.00929734,0.23801834,0.34756382,0.46240019
48355,0,USTexasNueces,Texas,Nueces,2021-01-05 08:40:34.159579,2020-03-24 00:00:00.000000,0.00527575,0.00944620,0.01786863,19,34,64,8,17,36,0.00226784,0.00473457,0.00994269,0.23238137,0.33244600,0.45279885
48355,0,USTexasNueces,Texas,Nueces,2021-01-05 08:40:34.159579,2020-03-25 00:00:00.000000,0.00568507,0.00999903,0.01899214,20,36,68,9,19,37,0.00259859,0.00526287,0.01046223,0.23007496,0.31788246,0.42054864
48355,0,USTexasNueces,Texas,Nueces,2021-01-05 08:40:34.159579,2020-03-26 00:00:00.000000,0.00614628,0.01082162,0.02012177,22,39,72,10,20,39,0.00297973,0.00572817,0.01090735,0.21873870,0.30586333,0.40421984
48355,0,USTexasNueces,Texas,Nueces,2021-01-05 08:40:34.159579,2020-03-27 00:00:00.000000,0.00654761,0.01151824,0.02098333,23,41,76,12,22,40,0.00333951,0.00611978,0.01130967,0.20051632,0.29650441,0.39437297
48355,0,USTexasNueces,Texas,Nueces,2021-01-05 08:40:34.159579,2020-03-28 00:00:00.000000,0.00700065,0.01230058,0.02182328,25,44,79,13,23,43,0.00371732,0.00659447,0.01200923,0.19515239,0.28036040,0.38652301
48355,0,USTexasNueces,Texas,Nueces,2021-01-05 08:40:34.159579,2020-03-29 00:00:00.000000,0.00746671,0.01301473,0.02363073,27,47,85,14,24,45,0.00398740,0.00685971,0.01263567,0.18998747,0.27372038,0.38214311
48355,0,USTexasNueces,Texas,Nueces,2021-01-05 08:40:34.159579,2020-03-30 00:00:00.000000,0.00792102,0.01372402,0.02488838,28,49,90,15,26,48,0.00426663,0.00723827,0.01348794,0.18263907,0.26794655,0.37308692
48355,0,USTexasNueces,Texas,Nueces,2021-01-05 08:40:34.159579,2020-03-31 00:00:00.000000,0.00836872,0.01433527,0.02538731,30,51,91,16,27,51,0.00450946,0.00769629,0.01424950,0.17443282,0.25932264,0.35193920
48355,0,USTexasNueces,Texas,Nueces,2021-01-05 08:40:34.159579,2020-04-01 00:00:00.000000,0.00873681,0.01499607,0.02580789,31,54,93,17,29,53,0.00482908,0.00810514,0.01487486,0.16932299,0.25136756,0.32924495
48355,0,USTexasNueces,Texas,Nueces,2021-01-05 08:40:34.159579,2020-04-02 00:00:00.000000,0.00902502,0.01549559,0.02620738,32,56,94,18,30,54,0.00509419,0.00847348,0.01517141,0.16535100,0.24202846,0.32626214
48355,0,USTexasNueces,Texas,Nueces,2021-01-05 08:40:34.159579,2020-04-03 00:00:00.000000,0.00927019,0.01606631,0.02725370,33,58,98,19,32,57,0.00527735,0.00883449,0.01584853,0.16140540,0.23375471,0.32300092
48355,0,USTexasNueces,Texas,Nueces,2021-01-05 08:40:34.159579,2020-04-04 00:00:00.000000,0.00944420,0.01662662,0.02855150,34,60,103,19,32,60,0.00544212,0.00908656,0.01678419,0.15342053,0.22699978,0.32063895
48355,0,USTexasNueces,Texas,Nueces,2021-01-05 08:40:34.159579,2020-04-05 00:00:00.000000,0.00956643,0.01701661,0.02984217,34,61,108,20,34,64,0.00558652,0.00946333,0.01769032,0.15052816,0.21829799,0.30779015
48355,0,USTexasNueces,Texas,Nueces,2021-01-05 08:40:34.159579,2020-04-06 00:00:00.000000,0.00983571,0.01749898,0.03021367,35,63,109,20,35,67,0.00570637,0.00981138,0.01857722,0.14332087,0.21348236,0.30040216
48355,0,USTexasNueces,Texas,Nueces,2021-01-05 08:40:34.159579,2020-04-07 00:00:00.000000,0.01009766,0.01834227,0.03064735,36,66,111,21,36,69,0.00582460,0.01018455,0.01920697,0.13990120,0.21246488,0.29458008
48355,0,USTexasNueces,Texas,Nueces,2021-01-05 08:40:34.159579,2020-04-08 00:00:00.000000,0.01031046,0.01882095,0.03116184,37,68,112,21,38,71,0.00585712,0.01058111,0.01969325,0.13975305,0.20890334,0.29311058
48355,0,USTexasNueces,Texas,Nueces,2021-01-05 08:40:34.159579,2020-04-09 00:00:00.000000,0.01022945,0.01906682,0.03191553,37,69,115,21,39,72,0.00598704,0.01098360,0.02011881,0.13480023,0.20522595,0.28997364
48355,0,USTexasNueces,Texas,Nueces,2021-01-05 08:40:34.159579,2020-04-10 00:00:00.000000,0.01056402,0.01941256,0.03313641,38,70,120,22,41,74,0.00618353,0.01149932,0.02058115,0.13333636,0.20200150,0.28699667
48355,0,USTexasNueces,Texas,Nueces,2021-01-05 08:40:34.159579,2020-04-11 00:00:00.000000,0.01056070,0.01958785,0.03427425,38,70,124,22,42,77,0.00622489,0.01164053,0.02144834,0.13143001,0.19886034,0.28453953
48355,0,USTexasNueces,Texas,Nueces,2021-01-05 08:40:34.159579,2020-04-12 00:00:00.000000,0.01040678,0.01982822,0.03534737,37,71,128,22,42,80,0.00632496,0.01185491,0.02226217,0.12909798,0.19916612,0.28195312
48355,0,USTexasNueces,Texas,Nueces,2021-01-05 08:40:34.159579,2020-04-13 00:00:00.000000,0.01087138,0.02040488,0.03515034,39,73,127,23,43,83,0.00641249,0.01206735,0.02302728,0.12701202,0.19174017,0.28200371
48355,0,USTexasNueces,Texas,Nueces,2021-01-05 08:40:34.159579,2020-04-14 00:00:00.000000,0.01100041,0.02088839,0.03579832,39,75,129,23,44,84,0.00652236,0.01236163,0.02334161,0.12623861,0.19177938,0.28758211
48355,0,USTexasNueces,Texas,Nueces,2021-01-05 08:40:34.159579,2020-04-15 00:00:00.000000,0.01106721,0.02139098,0.03735260,40,77,135,23,46,84,0.00656720,0.01277791,0.02340236,0.12596575,0.19101620,0.28800423
48355,0,USTexasNueces,Texas,Nueces,2021-01-05 08:40:34.159579,2020-04-16 00:00:00.000000,0.01112012,0.02196179,0.03920230,40,79,142,23,47,88,0.00662226,0.01313618,0.02438697,0.12582336,0.19014461,0.27846266
48355,0,USTexasNueces,Texas,Nueces,2021-01-05 08:40:34.159579,2020-04-17 00:00:00.000000,0.01097758,0.02251647,0.04102944,39,81,148,24,48,92,0.00667316,0.01341594,0.02561261,0.12559428,0.19043746,0.27421037
48355,0,USTexasNueces,Texas,Nueces,2021-01-05 08:40:34.159579,2020-04-18 00:00:00.000000,0.01088758,0.02300624,0.04273500,39,83,154,24,49,96,0.00671619,0.01363822,0.02665736,0.12705550,0.18814609,0.28149144
48355,0,USTexasNueces,Texas,Nueces,2021-01-05 08:40:34.159579,2020-04-19 00:00:00.000000,0.01083350,0.02340822,0.04423913,39,84,160,24,50,98,0.00676262,0.01386719,0.02713667,0.12812942,0.18772777,0.28935964
48355,0,USTexasNueces,Texas,Nueces,2021-01-05 08:40:34.159579,2020-04-20 00:00:00.000000,0.01109286,0.02358932,0.04504415,40,85,163,24,51,99,0.00680922,0.01415821,0.02758821,0.12892667,0.18676902,0.28737825
48355,0,USTexasNueces,Texas,Nueces,2021-01-05 08:40:34.159579,2020-04-21 00:00:00.000000,0.01138705,0.02369592,0.04580400,41,85,165,25,52,101,0.00690930,0.01447812,0.02806213,0.13085778,0.18537757,0.28632905
48355,0,USTexasNueces,Texas,Nueces,2021-01-05 08:40:34.159579,2020-04-22 00:00:00.000000,0.01160886,0.02432068,0.04652281,42,88,168,25,53,103,0.00702858,0.01480469,0.02853390,0.13711186,0.18596035,0.28553353
48355,0,USTexasNueces,Texas,Nueces,2021-01-05 08:40:34.159579,2020-04-23 00:00:00.000000,0.01198702,0.02514556,0.04722740,43,91,171,26,54,104,0.00720690,0.01506676,0.02897216,0.13751875,0.18454846,0.28458419
48355,0,USTexasNueces,Texas,Nueces,2021-01-05 08:40:34.159579,2020-04-24 00:00:00.000000,0.01237063,0.02564507,0.04794721,44,92,173,26,55,106,0.00737931,0.01525687,0.02936240,0.13832185,0.18524860,0.28316580
48355,0,USTexasNueces,Texas,Nueces,2021-01-05 08:40:34.159579,2020-04-25 00:00:00.000000,0.01254663,0.02592663,0.04837447,45,93,175,27,56,107,0.00755222,0.01547511,0.02971118,0.13984369,0.18879318,0.28403327
48355,0,USTexasNueces,Texas,Nueces,2021-01-05 08:40:34.159579,2020-04-26 00:00:00.000000,0.01270502,0.02659218,0.04880727,46,96,176,27,57,108,0.00763094,0.01585280,0.03003165,0.14229271,0.19160629,0.28922640
48355,0,USTexasNueces,Texas,Nueces,2021-01-05 08:40:34.159579,2020-04-27 00:00:00.000000,0.01286501,0.02694389,0.04910542,46,97,177,27,58,109,0.00771448,0.01622696,0.03033690,0.14429503,0.19431615,0.28459467
48355,0,USTexasNueces,Texas,Nueces,2021-01-05 08:40:34.159579,2020-04-28 00:00:00.000000,0.01253200,0.02721444,0.04944282,45,98,179,27,59,110,0.00759834,0.01650534,0.03060131,0.14896334,0.19731233,0.28519339
48355,0,USTexasNueces,Texas,Nueces,2021-01-05 08:40:34.159579,2020-04-29 00:00:00.000000,0.01220069,0.02780078,0.04966994,44,100,179,27,60,111,0.00750405,0.01676131,0.03084744,0.14981248,0.19718007,0.28948779
48355,0,USTexasNueces,Texas,Nueces,2021-01-05 08:40:34.159579,2020-04-30 00:00:00.000000,0.01188560,0.02795827,0.05026860,43,101,182,27,61,112,0.00758126,0.01692206,0.03109078,0.15098937,0.19708354,0.29006040
48355,0,USTexasNueces,Texas,Nueces,2021-01-05 08:40:34.159579,2020-05-01 00:00:00.000000,0.01170994,0.02861864,0.05076871,42,103,183,27,61,113,0.00764198,0.01709167,0.03134063,0.15392482,0.19703377,0.29982757
48355,0,USTexasNueces,Texas,Nueces,2021-01-05 08:40:34.159579,2020-05-02 00:00:00.000000,0.01200344,0.02909228,0.05128927,43,105,185,27,63,114,0.00769163,0.01739510,0.03160119,0.15556310,0.20127833,0.30772648
48355,0,USTexasNueces,Texas,Nueces,2021-01-05 08:40:34.159579,2020-05-03 00:00:00.000000,0.01232309,0.02962158,0.05285857,44,107,191,28,64,115,0.00773262,0.01769380,0.03187361,0.15574857,0.20830107,0.31646098
48355,0,USTexasNueces,Texas,Nueces,2021-01-05 08:40:34.159579,2020-05-04 00:00:00.000000,0.01299386,0.03035066,0.05477056,47,109,198,28,65,119,0.00776514,0.01818643,0.03284741,0.15616365,0.21127496,0.32727982
48355,0,USTexasNueces,Texas,Nueces,2021-01-05 08:40:34.159579,2020-05-05 00:00:00.000000,0.01316304,0.03132788,0.05674080,47,113,205,28,67,124,0.00776898,0.01849365,0.03428708,0.16245164,0.21403688,0.33206384
48355,0,USTexasNueces,Texas,Nueces,2021-01-05 08:40:34.159579,2020-05-06 00:00:00.000000,0.01309807,0.03175495,0.05807945,47,115,210,28,67,129,0.00789887,0.01873732,0.03571083,0.16690800,0.21608866,0.33483148
48355,0,USTexasNueces,Texas,Nueces,2021-01-05 08:40:34.159579,2020-05-07 00:00:00.000000,0.01311075,0.03236790,0.05780927,47,117,209,29,69,131,0.00806829,0.01914418,0.03637008,0.16822115,0.22031395,0.33706815
48355,0,USTexasNueces,Texas,Nueces,2021-01-05 08:40:34.159579,2020-05-08 00:00:00.000000,0.01313911,0.03335721,0.05802228,47,120,210,29,70,134,0.00826963,0.01945149,0.03708866,0.17009303,0.22841275,0.33735622
48355,0,USTexasNueces,Texas,Nueces,2021-01-05 08:40:34.159579,2020-05-09 00:00:00.000000,0.01346863,0.03412590,0.06078828,48,123,220,30,71,136,0.00850212,0.01982421,0.03758857,0.18290887,0.23545297,0.33762166
48355,0,USTexasNueces,Texas,Nueces,2021-01-05 08:40:34.159579,2020-05-10 00:00:00.000000,0.01398081,0.03505245,0.06367548,50,126,230,31,73,135,0.00876856,0.02019995,0.03742233,0.18381296,0.24328906,0.35940997
48355,0,USTexasNueces,Texas,Nueces,2021-01-05 08:40:34.159579,2020-05-11 00:00:00.000000,0.01524129,0.03648640,0.06664809,55,132,241,32,75,135,0.00907024,0.02075315,0.03744259,0.18389821,0.25226768,0.36872464
48355,0,USTexasNueces,Texas,Nueces,2021-01-05 08:40:34.159579,2020-05-12 00:00:00.000000,0.01653605,0.03836012,0.06973941,59,138,252,34,77,138,0.00961563,0.02150406,0.03810303,0.18446846,0.26269937,0.36597873
48355,0,USTexasNueces,Texas,Nueces,2021-01-05 08:40:34.159579,2020-05-13 00:00:00.000000,0.01789805,0.04046630,0.07264389,64,146,263,37,80,144,0.01031216,0.02210651,0.03998299,0.18587707,0.27067860,0.36538593
48355,0,USTexasNueces,Texas,Nueces,2021-01-05 08:40:34.159579,2020-05-14 00:00:00.000000,0.01933431,0.04149366,0.07449826,70,150,269,40,83,151,0.01110924,0.02307352,0.04193334,0.19034598,0.28090312,0.36950831
48355,0,USTexasNueces,Texas,Nueces,2021-01-05 08:40:34.159579,2020-05-15 00:00:00.000000,0.01996652,0.04286994,0.07738865,72,155,280,43,87,159,0.01198422,0.02405512,0.04398754,0.19357965,0.28804769,0.38716380
48355,0,USTexasNueces,Texas,Nueces,2021-01-05 08:40:34.159579,2020-05-16 00:00:00.000000,0.02061176,0.04463275,0.08147206,74,161,295,46,90,167,0.01271575,0.02508287,0.04618745,0.19975313,0.29283063,0.41465536
48355,0,USTexasNueces,Texas,Nueces,2021-01-05 08:40:34.159579,2020-05-17 00:00:00.000000,0.02149613,0.04646814,0.08566618,77,168,310,47,95,175,0.01312204,0.02630339,0.04854547,0.21051298,0.30017964,0.43266482
48355,0,USTexasNueces,Texas,Nueces,2021-01-05 08:40:34.159579,2020-05-18 00:00:00.000000,0.02243218,0.04761870,0.08827025,81,172,319,49,99,181,0.01361130,0.02752018,0.04997781,0.22204411,0.30691774,0.43998350
48355,0,USTexasNueces,Texas,Nueces,2021-01-05 08:40:34.159579,2020-05-19 00:00:00.000000,0.02379673,0.04909649,0.09147928,86,177,331,51,103,187,0.01416300,0.02857112,0.05177697,0.22763821,0.32600401,0.45161873
48355,0,USTexasNueces,Texas,Nueces,2021-01-05 08:40:34.159579,2020-05-20 00:00:00.000000,0.02532703,0.05170426,0.09514823,91,187,344,53,107,195,0.01488023,0.02953823,0.05396190,0.23461875,0.34105223,0.46181089
48355,0,USTexasNueces,Texas,Nueces,2021-01-05 08:40:34.159579,2020-05-21 00:00:00.000000,0.02696692,0.05480103,0.09931623,97,198,359,57,112,202,0.01574025,0.03111827,0.05575843,0.24013696,0.34653792,0.46697076
48355,0,USTexasNueces,Texas,Nueces,2021-01-05 08:40:34.159579,2020-05-22 00:00:00.000000,0.02871301,0.05947601,0.10409880,104,215,377,60,118,208,0.01670876,0.03279329,0.05761325,0.24797580,0.35321555,0.48478503
48355,0,USTexasNueces,Texas,Nueces,2021-01-05 08:40:34.159579,2020-05-23 00:00:00.000000,0.03058008,0.06350788,0.10959633,110,230,397,64,123,215,0.01776614,0.03418062,0.05954690,0.25441212,0.37227615,0.51112916
48355,0,USTexasNueces,Texas,Nueces,2021-01-05 08:40:34.159579,2020-05-24 00:00:00.000000,0.03260144,0.06785227,0.11692093,118,245,423,68,129,223,0.01890707,0.03570348,0.06158503,0.26662809,0.39724269,0.53095712
48355,0,USTexasNueces,Texas,Nueces,2021-01-05 08:40:34.159579,2020-05-25 00:00:00.000000,0.03635549,0.07288956,0.12548626,131,264,454,71,136,233,0.01976735,0.03772220,0.06453023,0.27389039,0.41254721,0.53639679
48355,0,USTexasNueces,Texas,Nueces,2021-01-05 08:40:34.159579,2020-05-26 00:00:00.000000,0.03875635,0.07678106,0.13498690,140,278,489,76,147,246,0.02108199,0.04061368,0.06792751,0.28315172,0.42470620,0.56444897
48355,0,USTexasNueces,Texas,Nueces,2021-01-05 08:40:34.159579,2020-05-27 00:00:00.000000,0.04191035,0.08172995,0.14566973,151,296,527,82,159,259,0.02284165,0.04404506,0.07172897,0.29452940,0.44113956,0.57227103
48355,0,USTexasNueces,Texas,Nueces,2021-01-05 08:40:34.159579,2020-05-28 00:00:00.000000,0.04586789,0.08819130,0.15726100,166,319,569,90,171,275,0.02495439,0.04735714,0.07601835,0.31569951,0.46290981,0.61764672
48355,0,USTexasNueces,Texas,Nueces,2021-01-05 08:40:34.159579,2020-05-29 00:00:00.000000,0.05069325,0.09620210,0.17169837,183,348,622,99,184,294,0.02756989,0.05096253,0.08130560,0.32535813,0.48069530,0.64632291
48355,0,USTexasNueces,Texas,Nueces,2021-01-05 08:40:34.159579,2020-05-30 00:00:00.000000,0.05644909,0.10639063,0.18743611,204,385,679,111,204,321,0.03088878,0.05639245,0.08861915,0.39347351,0.51111179,0.70855332
48355,0,USTexasNueces,Texas,Nueces,2021-01-05 08:40:34.159579,2020-05-31 00:00:00.000000,0.06239406,0.11783337,0.20461423,226,426,741,122,219,350,0.03383972,0.06058308,0.09662932,0.39558321,0.55113243,0.73282587
48355,0,USTexasNueces,Texas,Nueces,2021-01-05 08:40:34.159579,2020-06-01 00:00:00.000000,0.07084443,0.13220090,0.22359269,256,478,810,133,236,383,0.03694951,0.06541381,0.10590818,0.41972790,0.57698818,0.76585109
48355,0,USTexasNueces,Texas,Nueces,2021-01-05 08:40:34.159579,2020-06-02 00:00:00.000000,0.08062174,0.14750862,0.24504691,292,534,887,148,261,417,0.04089439,0.07221924,0.11525087,0.44434261,0.60486193,0.77368934
48355,0,USTexasNueces,Texas,Nueces,2021-01-05 08:40:34.159579,2020-06-03 00:00:00.000000,0.09177506,0.16703220,0.26903188,332,605,974,165,287,456,0.04572197,0.07936345,0.12611123,0.45733686,0.63335717,0.77440419
48355,0,USTexasNueces,Texas,Nueces,2021-01-05 08:40:34.159579,2020-06-04 00:00:00.000000,0.10199071,0.18856386,0.29575055,369,683,1071,182,320,502,0.05026955,0.08838074,0.13877080,0.48900842,0.64653966,0.80665069
48355,0,USTexasNueces,Texas,Nueces,2021-01-05 08:40:34.159579,2020-06-05 00:00:00.000000,0.11545473,0.21514329,0.33040427,418,779,1197,202,364,555,0.05589070,0.10054300,0.15341552,0.52530118,0.68179892,0.92321694
48355,0,USTexasNueces,Texas,Nueces,2021-01-05 08:40:34.159579,2020-06-06 00:00:00.000000,0.13345526,0.25018554,0.37115664,483,906,1344,232,412,617,0.06410457,0.11385809,0.17038287,0.55963956,0.71104752,0.95031595
48355,0,USTexasNueces,Texas,Nueces,2021-01-05 08:40:34.159579,2020-06-07 00:00:00.000000,0.15628349,0.29504526,0.42151223,566,1068,1527,266,478,689,0.07344669,0.13197720,0.19018737,0.60211357,0.74865013,0.97120531
48355,0,USTexasNueces,Texas,Nueces,2021-01-05 08:40:34.159579,2020-06-08 00:00:00.000000,0.18162730,0.33800466,0.48802015,658,1224,1768,304,543,777,0.08405343,0.15012187,0.21450725,0.61870409,0.76830963,0.98495637
48355,0,USTexasNueces,Texas,Nueces,2021-01-05 08:40:34.159579,2020-06-09 00:00:00.000000,0.21066851,0.39365365,0.56848293,763,1426,2059,348,632,894,0.09620382,0.17456470,0.24698357,0.62707618,0.80003975,0.99000415
48355,0,USTexasNueces,Texas,Nueces,2021-01-05 08:40:34.159579,2020-06-10 00:00:00.000000,0.24317710,0.45371622,0.66254353,881,1643,2400,402,733,1036,0.11122257,0.20239635,0.28595970,0.64052516,0.81841290,0.99116262
48355,0,USTexasNueces,Texas,Nueces,2021-01-05 08:40:34.159579,2020-06-11 00:00:00.000000,0.28470221,0.52166489,0.77123220,1031,1889,2794,470,848,1203,0.12978463,0.23417890,0.33217187,0.65493835,0.83314297,1.04877072
48355,0,USTexasNueces,Texas,Nueces,2021-01-05 08:40:34.159579,2020-06-12 00:00:00.000000,0.33723161,0.60363549,0.89561213,1221,2186,3244,548,986,1400,0.15146090,0.27240730,0.38662467,0.67966433,0.84884898,1.08774344
48355,0,USTexasNueces,Texas,Nueces,2021-01-05 08:40:34.159579,2020-06-13 00:00:00.000000,0.39652527,0.70948762,1.04439367,1436,2570,3783,640,1133,1635,0.17676506,0.31285450,0.45154839,0.71248062,0.86402517,1.12741342
48355,0,USTexasNueces,Texas,Nueces,2021-01-05 08:40:34.159579,2020-06-14 00:00:00.000000,0.46262594,0.83295182,1.21893626,1676,3017,4416,747,1300,1957,0.20629049,0.35888149,0.54028977,0.74203951,0.86882711,1.12015187
48355,0,USTexasNueces,Texas,Nueces,2021-01-05 08:40:34.159579,2020-06-15 00:00:00.000000,0.53943907,0.97654557,1.41689760,1954,3537,5133,872,1506,2312,0.24070667,0.41582341,0.63833202,0.75191713,0.87603496,1.13933080
48355,0,USTexasNueces,Texas,Nueces,2021-01-05 08:40:34.159579,2020-06-16 00:00:00.000000,0.62888632,1.13722203,1.64659679,2278,4120,5965,1017,1729,2697,0.28075385,0.47726021,0.74449774,0.76565765,0.87995962,1.14218979
48355,0,USTexasNueces,Texas,Nueces,2021-01-05 08:40:34.159579,2020-06-17 00:00:00.000000,0.73297653,1.31166366,1.91280587,2655,4752,6929,1186,1995,3149,0.32737036,0.55087461,0.86933960,0.76046507,0.88289507,1.13400960
48355,0,USTexasNueces,Texas,Nueces,2021-01-05 08:40:34.159579,2020-06-18 00:00:00.000000,0.85404967,1.51800205,2.22094575,3094,5499,8046,1382,2312,3679,0.38162613,0.63821804,1.01553247,0.75720697,0.88875455,1.11953239
48355,0,USTexasNueces,Texas,Nueces,2021-01-05 08:40:34.159579,2020-06-19 00:00:00.000000,0.99476994,1.74841447,2.57661808,3603,6334,9334,1604,2697,4295,0.44291539,0.74444570,1.18552206,0.75494503,0.88313941,1.11074400
48355,0,USTexasNueces,Texas,Nueces,2021-01-05 08:40:34.159579,2020-06-20 00:00:00.000000,1.15541906,2.04168525,2.95302236,4186,7396,10698,1854,3136,4986,0.51201385,0.86582840,1.37650556,0.72255320,0.88344911,1.10528900
48355,0,USTexasNueces,Texas,Nueces,2021-01-05 08:40:34.159579,2020-06-21 00:00:00.000000,1.33838364,2.32516169,3.33524151,4848,8423,12083,2143,3612,5708,0.59168075,0.99699147,1.57557195,0.69032056,0.86985749,1.09995010
48355,0,USTexasNueces,Texas,Nueces,2021-01-05 08:40:34.159579,2020-06-22 00:00:00.000000,1.54977546,2.65489984,3.87030399,5614,9618,14021,2476,4179,6462,0.68347849,1.15372355,1.78365446,0.67773917,0.85406760,1.07481591
48355,0,USTexasNueces,Texas,Nueces,2021-01-05 08:40:34.159579,2020-06-23 00:00:00.000000,1.79317638,3.04354947,4.48678147,6496,11026,16255,2860,4832,7268,0.78943882,1.33394259,2.00616143,0.63994497,0.83827260,1.05425225
48355,0,USTexasNueces,Texas,Nueces,2021-01-05 08:40:34.159579,2020-06-24 00:00:00.000000,2.07321779,3.48802083,5.19565558,7511,12636,18823,3302,5608,8173,0.91146826,1.54797683,2.25594526,0.60581026,0.81627198,1.04421784
48355,0,USTexasNueces,Texas,Nueces,2021-01-05 08:40:34.159579,2020-06-25 00:00:00.000000,2.39448728,3.99481341,5.88402554,8675,14472,21317,3809,6459,9364,1.05138570,1.78284708,2.58474363,0.56731282,0.78382795,0.99886861
48355,0,USTexasNueces,Texas,Nueces,2021-01-05 08:40:34.159579,2020-06-26 00:00:00.000000,2.76061490,4.55371576,6.55714146,10001,16497,23756,4389,7422,10665,1.21154726,2.04869245,2.94392196,0.53110568,0.74879374,0.94007875
48355,0,USTexasNueces,Texas,Nueces,2021-01-05 08:40:34.159579,2020-06-27 00:00:00.000000,3.12384001,5.09811876,7.26392703,11317,18470,26316,5051,8492,11961,1.39417954,2.34420718,3.30157183,0.49969024,0.71588595,0.90261454
48355,0,USTexasNueces,Texas,Nueces,2021-01-05 08:40:34.159579,2020-06-28 00:00:00.000000,3.50058606,5.65713252,7.90003711,12682,20495,28621,5789,9670,13530,1.59806951,2.66927604,3.73479417,0.43375438,0.68059699,0.85688333
48355,0,USTexasNueces,Texas,Nueces,2021-01-05 08:40:34.159579,2020-06-29 00:00:00.000000,3.90628794,6.20055894,8.54081709,14152,22464,30942,6549,10921,15128,1.80768541,3.01455964,4.17583142,0.42389849,0.62867778,0.82093675
48355,0,USTexasNueces,Texas,Nueces,2021-01-05 08:40:34.159579,2020-06-30 00:00:00.000000,4.28925139,6.89308880,9.35856677,15539,24973,33905,7262,12229,16751,2.00459298,3.37561736,4.62380895,0.42107452,0.57857737,0.78181575
48355,0,USTexasNueces,Texas,Nueces,2021-01-05 08:40:34.159579,2020-07-01 00:00:00.000000,4.70726608,7.50599854,10.16441311,17054,27193,36825,7941,13502,18463,2.19197669,3.72682517,5.09633565,0.40961485,0.54207108,0.73610310
48355,0,USTexasNueces,Texas,Nueces,2021-01-05 08:40:34.159579,2020-07-02 00:00:00.000000,5.22256902,8.06551373,10.74942326,18921,29220,38944,8610,14858,20149,2.37676644,4.10125815,5.56162305,0.38257713,0.50326283,0.70302948
48355,0,USTexasNueces,Texas,Nueces,2021-01-05 08:40:34.159579,2020-07-03 00:00:00.000000,5.66558269,8.59487268,11.23704429,20526,31138,40711,9486,16231,21943,2.61836606,4.48030763,6.05681413,0.36290309,0.47842237,0.64354443
48355,0,USTexasNueces,Texas,Nueces,2021-01-05 08:40:34.159579,2020-07-04 00:00:00.000000,5.94233873,8.96042239,11.82992317,21528,32463,42859,10532,17318,23763,2.90703914,4.78036428,6.55927609,0.34052711,0.44405388,0.62368256
48355,0,USTexasNueces,Texas,Nueces,2021-01-05 08:40:34.159579,2020-07-05 00:00:00.000000,6.18035269,9.26405263,12.30734838,22391,33563,44588,11612,18392,25281,3.20516784,5.07663548,6.97803702,0.33260464,0.42157496,0.55109112
48355,0,USTexasNueces,Texas,Nueces,2021-01-05 08:40:34.159579,2020-07-06 00:00:00.000000,6.39787980,9.62114704,12.77745046,23179,34856,46291,12666,19618,26545,3.49622337,5.41496127,7.32714463,0.32990552,0.41036945,0.48994422
48355,0,USTexasNueces,Texas,Nueces,2021-01-05 08:40:34.159579,2020-07-07 00:00:00.000000,6.60511180,10.09150380,13.40682449,23929,36560,48572,13195,20704,27703,3.64224897,5.71495741,7.64666126,0.32912513,0.39307840,0.48770066
48355,0,USTexasNueces,Texas,Nueces,2021-01-05 08:40:34.159579,2020-07-08 00:00:00.000000,6.80706512,10.48507824,13.98548086,24661,37986,50668,13679,21623,28833,3.77591589,5.96851837,7.95846724,0.32282755,0.37354078,0.47479820
48355,0,USTexasNueces,Texas,Nueces,2021-01-05 08:40:34.159579,2020-07-09 00:00:00.000000,7.00744847,10.80600140,14.49795174,25387,39149,52525,14137,22534,29936,3.90209566,6.21988511,8.26290747,0.30182857,0.35353831,0.46221459
48355,0,USTexasNueces,Texas,Nueces,2021-01-05 08:40:34.159579,2020-07-10 00:00:00.000000,7.21521994,11.03286286,14.86608944,26140,39971,53858,14579,23464,30786,4.02423677,6.47662012,8.49764464,0.27822667,0.33953636,0.45110891
48355,0,USTexasNueces,Texas,Nueces,2021-01-05 08:40:34.159579,2020-07-11 00:00:00.000000,7.46713844,11.27605738,15.20870556,27052,40852,55100,15022,24380,31783,4.14663183,6.72949889,8.77288218,0.26285221,0.32608512,0.43621710
48355,0,USTexasNueces,Texas,Nueces,2021-01-05 08:40:34.159579,2020-07-12 00:00:00.000000,7.73466377,11.53719361,15.51181998,28022,41798,56198,15500,24838,32750,4.27849926,6.85594732,9.03988559,0.25791759,0.31587814,0.44750675
48355,0,USTexasNueces,Texas,Nueces,2021-01-05 08:40:34.159579,2020-07-13 00:00:00.000000,8.02846647,11.75977285,15.74715377,29086,42604,57050,16040,25300,33518,4.42756983,6.98336018,9.25171454,0.23814859,0.30698329,0.44093964
48355,0,USTexasNueces,Texas,Nueces,2021-01-05 08:40:34.159579,2020-07-14 00:00:00.000000,8.20899475,11.90822394,15.86540400,29740,43142,57479,16627,25647,34180,4.58961588,7.07931280,9.43441316,0.23424058,0.30391318,0.42992049
48355,0,USTexasNueces,Texas,Nueces,2021-01-05 08:40:34.159579,2020-07-15 00:00:00.000000,8.31331531,12.04857301,15.93945882,30118,43651,57747,17222,25965,34847,4.75368084,7.16689651,9.61851192,0.23311713,0.30277031,0.41233046
48355,0,USTexasNueces,Texas,Nueces,2021-01-05 08:40:34.159579,2020-07-16 00:00:00.000000,8.23092776,12.08617057,15.95386679,29820,43787,57799,17388,26250,35420,4.79949700,7.24574181,9.77680659,0.23259864,0.29565937,0.39073197
48355,0,USTexasNueces,Texas,Nueces,2021-01-05 08:40:34.159579,2020-07-17 00:00:00.000000,8.13857386,12.15443577,15.90658607,29485,44034,57628,17236,26510,35891,4.75754613,7.31735446,9.90682292,0.23257066,0.29686601,0.38220940
48355,0,USTexasNueces,Texas,Nueces,2021-01-05 08:40:34.159579,2020-07-18 00:00:00.000000,8.03894924,12.16830051,15.91598950,29124,44085,57662,17146,26620,36249,4.73275526,7.34785277,10.00548513,0.23389253,0.28993925,0.37754259
48355,0,USTexasNueces,Texas,Nueces,2021-01-05 08:40:34.159579,2020-07-19 00:00:00.000000,7.96798219,12.08274131,15.83256254,28867,43775,57360,17196,26761,36485,4.74655950,7.38655843,10.07056052,0.23559325,0.28198706,0.38092827
48355,0,USTexasNueces,Texas,Nueces,2021-01-05 08:40:34.159579,2020-07-20 00:00:00.000000,7.94766334,12.05138855,15.79618734,28793,43661,57228,17235,27030,36601,4.75740252,7.46105080,10.10262042,0.23568168,0.28362472,0.38544704
48355,0,USTexasNueces,Texas,Nueces,2021-01-05 08:40:34.159579,2020-07-21 00:00:00.000000,7.93201023,11.98073163,15.74770186,28737,43405,57052,17331,27200,36609,4.78385135,7.50789845,10.10495473,0.23301505,0.28944180,0.40230628
48355,0,USTexasNueces,Texas,Nueces,2021-01-05 08:40:34.159579,2020-07-22 00:00:00.000000,7.93391655,11.91296952,15.67754882,28744,43159,56798,17236,27296,36526,4.75770262,7.53423089,10.08200689,0.23806730,0.29182203,0.41535583
48355,0,USTexasNueces,Texas,Nueces,2021-01-05 08:40:34.159579,2020-07-23 00:00:00.000000,8.01419660,11.88550936,15.57858381,29034,43060,56440,17273,27313,37025,4.76785729,7.53893472,10.21981163,0.24040466,0.29588028,0.40512892
48355,0,USTexasNueces,Texas,Nueces,2021-01-05 08:40:34.159579,2020-07-24 00:00:00.000000,8.07513468,11.92971963,15.64385653,29255,43220,56676,17381,27211,37178,4.79748913,7.51079543,10.26202915,0.23933566,0.30239999,0.41375456
48355,0,USTexasNueces,Texas,Nueces,2021-01-05 08:40:34.159579,2020-07-25 00:00:00.000000,8.09132767,11.90802033,15.73840274,29314,43142,57019,17499,27155,36959,4.83011714,7.49539678,10.20140966,0.24265201,0.30403929,0.42649707
48355,0,USTexasNueces,Texas,Nueces,2021-01-05 08:40:34.159579,2020-07-26 00:00:00.000000,8.06422695,11.84044645,15.80676177,29216,42897,57266,17576,27081,36877,4.85139757,7.47498203,10.17887406,0.24263256,0.30084920,0.43120011
48355,0,USTexasNueces,Texas,Nueces,2021-01-05 08:40:34.159579,2020-07-27 00:00:00.000000,8.01134115,11.78132177,15.83442189,29024,42683,57367,17585,27140,37032,4.85385407,7.49117914,10.22171952,0.24275300,0.30173776,0.43172467
48355,0,USTexasNueces,Texas,Nueces,2021-01-05 08:40:34.159579,2020-07-28 00:00:00.000000,7.94791108,11.75724717,15.80135035,28794,42595,57247,17525,27198,37633,4.83724712,7.50741498,10.38752795,0.24280079,0.30494788,0.42977455
48355,0,USTexasNueces,Texas,Nueces,2021-01-05 08:40:34.159579,2020-07-29 00:00:00.000000,7.87632557,11.74368045,15.68653096,28535,42546,56831,17402,27106,38090,4.80337859,7.48200825,10.51364026,0.23590099,0.30691199,0.43100067
48355,0,USTexasNueces,Texas,Nueces,2021-01-05 08:40:34.159579,2020-07-30 00:00:00.000000,7.79955426,11.66578214,15.51837733,28257,42264,56222,17282,27201,37612,4.77031055,7.50800605,10.38187371,0.22963597,0.30164530,0.42789082
48355,0,USTexasNueces,Texas,Nueces,2021-01-05 08:40:34.159579,2020-07-31 00:00:00.000000,7.71888376,11.53306983,15.31203489,27965,41783,55474,17155,27117,37005,4.73528818,7.48495662,10.21432774,0.21423686,0.29615573,0.42307144
48355,0,USTexasNueces,Texas,Nueces,2021-01-05 08:40:34.159579,2020-08-01 00:00:00.000000,7.63446289,11.46240212,15.07044455,27659,41527,54599,16995,26761,36421,4.69121236,7.38672432,10.05304885,0.20691577,0.29031710,0.41634260
48355,0,USTexasNueces,Texas,Nueces,2021-01-05 08:40:34.159579,2020-08-02 00:00:00.000000,7.54583504,11.31461751,14.71675427,27338,40992,53317,16749,26401,35978,4.62322097,7.28740541,9.93063088,0.18571501,0.28323606,0.39856002
48355,0,USTexasNueces,Texas,Nueces,2021-01-05 08:40:34.159579,2020-08-03 00:00:00.000000,7.41308178,11.08726648,14.26367388,26857,40168,51676,16391,26031,35449,4.52447342,7.18514989,9.78486928,0.18437759,0.27281607,0.39673665
48355,0,USTexasNueces,Texas,Nueces,2021-01-05 08:40:34.159579,2020-08-04 00:00:00.000000,7.13881779,10.78537691,14.03712213,25863,39074,50855,15947,25735,34852,4.40184714,7.10334744,9.62005658,0.18386970,0.26678280,0.39707543
48355,0,USTexasNueces,Texas,Nueces,2021-01-05 08:40:34.159579,2020-08-05 00:00:00.000000,6.97354746,10.55800593,13.65498514,25264,38251,49471,15448,25487,34197,4.26417566,7.03493102,9.43904674,0.17724626,0.25905816,0.38885499
48355,0,USTexasNueces,Texas,Nueces,2021-01-05 08:40:34.159579,2020-08-06 00:00:00.000000,6.88347812,10.36860173,13.33376883,24938,37564,48307,14919,25063,33482,4.11815795,6.91807302,9.24171026,0.16816346,0.24866014,0.37892340
48355,0,USTexasNueces,Texas,Nueces,2021-01-05 08:40:34.159579,2020-08-07 00:00:00.000000,6.76615648,10.11700601,12.94343345,24513,36653,46893,14432,24633,32691,3.98371061,6.79931294,9.02348895,0.15578011,0.23409926,0.37152249
48355,0,USTexasNueces,Texas,Nueces,2021-01-05 08:40:34.159579,2020-08-08 00:00:00.000000,6.59547446,9.78521738,12.56012868,23895,35451,45504,14026,24036,31966,3.87162952,6.63452957,8.82331269,0.15043049,0.21800815,0.34791210
48355,0,USTexasNueces,Texas,Nueces,2021-01-05 08:40:34.159579,2020-08-09 00:00:00.000000,6.36546865,9.49806008,12.22799615,23061,34410,44301,13755,23232,31232,3.79678999,6.41268143,8.62089149,0.14821423,0.21324363,0.32977278
48355,0,USTexasNueces,Texas,Nueces,2021-01-05 08:40:34.159579,2020-08-10 00:00:00.000000,6.10072373,9.20724388,11.88385865,22102,33357,43054,13392,22608,30353,3.69653917,6.24039422,8.37823404,0.14505384,0.20389018,0.31448782
48355,0,USTexasNueces,Texas,Nueces,2021-01-05 08:40:34.159579,2020-08-11 00:00:00.000000,5.82396433,8.80687653,11.52755077,21099,31906,41763,12945,21835,29338,3.57327689,6.02708241,8.09788388,0.14400048,0.19559060,0.30627289
48355,0,USTexasNueces,Texas,Nueces,2021-01-05 08:40:34.159579,2020-08-12 00:00:00.000000,5.54541417,8.44210228,11.15324317,20090,30585,40407,12445,21046,28262,3.43508609,5.80915026,7.80109451,0.14276434,0.19399608,0.29928338
48355,0,USTexasNueces,Texas,Nueces,2021-01-05 08:40:34.159579,2020-08-13 00:00:00.000000,5.27143192,8.06350174,10.74409073,19098,29213,38925,11913,20262,27450,3.28839782,5.59279817,7.57680817,0.14265670,0.18925616,0.29215267
48355,0,USTexasNueces,Texas,Nueces,2021-01-05 08:40:34.159579,2020-08-14 00:00:00.000000,5.00543202,7.71092524,10.37654775,18134,27936,37593,11370,19354,26590,3.13840754,5.34215045,7.33946908,0.14260537,0.18529562,0.28966567
48355,0,USTexasNueces,Texas,Nueces,2021-01-05 08:40:34.159579,2020-08-15 00:00:00.000000,4.74909271,7.40356511,9.96956923,17205,26822,36119,10828,18431,25700,2.98880499,5.08747994,7.09381331,0.14254194,0.18193268,0.27651628
48355,0,USTexasNueces,Texas,Nueces,2021-01-05 08:40:34.159579,2020-08-16 00:00:00.000000,4.50282836,7.13013420,9.46542045,16313,25832,34292,10296,17642,24794,2.84195193,4.86961424,6.84373976,0.13671772,0.17929736,0.27069162
48355,0,USTexasNueces,Texas,Nueces,2021-01-05 08:40:34.159579,2020-08-17 00:00:00.000000,4.26059956,6.80384777,8.96580662,15435,24649,32482,9779,16860,23882,2.69919118,4.65393671,6.59189465,0.13362783,0.17842720,0.26895441
48355,0,USTexasNueces,Texas,Nueces,2021-01-05 08:40:34.159579,2020-08-18 00:00:00.000000,4.02340941,6.48880344,8.55999298,14576,23508,31012,9273,16075,22971,2.55968283,4.43704072,6.34053246,0.13011030,0.17864334,0.26610416
48355,0,USTexasNueces,Texas,Nueces,2021-01-05 08:40:34.159579,2020-08-19 00:00:00.000000,3.79701265,6.19495009,8.10592125,13756,22443,29367,8778,15347,22067,2.42315416,4.23629434,6.09116964,0.12070100,0.17815329,0.26428202
48355,0,USTexasNueces,Texas,Nueces,2021-01-05 08:40:34.159579,2020-08-20 00:00:00.000000,3.58156121,5.89500584,7.67230099,12975,21357,27796,8300,14763,21173,2.29096119,4.07510745,5.84427825,0.11511351,0.17792806,0.25945641
48355,0,USTexasNueces,Texas,Nueces,2021-01-05 08:40:34.159579,2020-08-21 00:00:00.000000,3.37702073,5.59231581,7.26149981,12234,20260,26307,7839,14030,20120,2.16395009,3.87275591,5.55366984,0.11946741,0.17782082,0.25253841
48355,0,USTexasNueces,Texas,Nueces,2021-01-05 08:40:34.159579,2020-08-22 00:00:00.000000,3.18320877,5.30749025,6.87367108,11532,19228,24902,7400,13337,19061,2.04255484,3.68142456,5.26131880,0.11611636,0.17892672,0.25963189
48355,0,USTexasNueces,Texas,Nueces,2021-01-05 08:40:34.159579,2020-08-23 00:00:00.000000,3.00249231,5.00794515,6.50707091,10877,18143,23574,6981,12784,18072,1.92695306,3.52885327,4.98838061,0.11841071,0.17896888,0.26480881
48355,0,USTexasNueces,Texas,Nueces,2021-01-05 08:40:34.159579,2020-08-24 00:00:00.000000,2.86074520,4.74533412,6.16031530,10364,17192,22318,6585,12211,17244,1.81784013,3.37052527,4.75994174,0.12100103,0.17761093,0.26593299
48355,0,USTexasNueces,Texas,Nueces,2021-01-05 08:40:34.159579,2020-08-25 00:00:00.000000,2.72899965,4.52119316,5.85215462,9887,16380,21202,6239,11630,16339,1.72221872,3.21031670,4.50995996,0.12325332,0.18009712,0.26939016
48355,0,USTexasNueces,Texas,Nueces,2021-01-05 08:40:34.159579,2020-08-26 00:00:00.000000,2.60532932,4.33881079,5.61013135,9438,15719,20325,5929,11112,15498,1.63674409,3.06723821,4.27798259,0.12471046,0.18044361,0.27209704
48355,0,USTexasNueces,Texas,Nueces,2021-01-05 08:40:34.159579,2020-08-27 00:00:00.000000,2.48864808,4.17378801,5.40072265,9016,15121,19566,5647,10610,14934,1.55870088,2.92874491,4.12211567,0.12564338,0.18357604,0.27062579
48355,0,USTexasNueces,Texas,Nueces,2021-01-05 08:40:34.159579,2020-08-28 00:00:00.000000,2.37838317,3.98928321,5.19496843,8616,14452,18821,5385,10102,14366,1.48638171,2.78850829,3.96552489,0.12703898,0.18829139,0.27312695
48355,0,USTexasNueces,Texas,Nueces,2021-01-05 08:40:34.159579,2020-08-29 00:00:00.000000,2.27508606,3.80784808,4.99281073,8242,13795,18088,5140,9627,13714,1.41876389,2.65733682,3.78538518,0.13018249,0.19395918,0.27315351
48355,0,USTexasNueces,Texas,Nueces,2021-01-05 08:40:34.159579,2020-08-30 00:00:00.000000,2.16190905,3.62979318,4.79443390,7832,13150,17369,4910,9185,13090,1.35546421,2.53525146,3.61322408,0.13633000,0.19695698,0.28034225
48355,0,USTexasNueces,Texas,Nueces,2021-01-05 08:40:34.159579,2020-08-31 00:00:00.000000,2.05256170,3.46006484,4.61778532,7436,12535,16729,4699,8717,12496,1.29710608,2.40611114,3.44920365,0.13733057,0.20130180,0.28876648
48355,0,USTexasNueces,Texas,Nueces,2021-01-05 08:40:34.159579,2020-09-01 00:00:00.000000,1.94374000,3.29875213,4.44771757,7042,11951,16113,4510,8325,11932,1.24491508,2.29788611,3.29370636,0.13920841,0.20473846,0.28995465
48355,0,USTexasNueces,Texas,Nueces,2021-01-05 08:40:34.159579,2020-09-02 00:00:00.000000,1.82115582,3.14614127,4.28236477,6597,11398,15514,4347,7987,11398,1.20001234,2.20476271,3.14611784,0.14145224,0.20610756,0.30155156
48355,0,USTexasNueces,Texas,Nueces,2021-01-05 08:40:34.159579,2020-09-03 00:00:00.000000,1.70753287,3.01361055,4.12213083,6186,10918,14934,4150,7677,10889,1.14564074,2.11903398,3.00580888,0.14325132,0.20901519,0.30999538
48355,0,USTexasNueces,Texas,Nueces,2021-01-05 08:40:34.159579,2020-09-04 00:00:00.000000,1.60168410,2.89267820,3.94345224,5802,10479,14286,3887,7400,10405,1.07292824,2.04271175,2.87221848,0.14370943,0.21072452,0.31557360
48355,0,USTexasNueces,Texas,Nueces,2021-01-05 08:40:34.159579,2020-09-05 00:00:00.000000,1.53318239,2.76196303,3.78900933,5554,10006,13727,3643,7124,9944,1.00561233,1.96656420,2.74487479,0.14455252,0.21667073,0.31755432
48355,0,USTexasNueces,Texas,Nueces,2021-01-05 08:40:34.159579,2020-09-06 00:00:00.000000,1.48721462,2.64299794,3.62364145,5388,9575,13128,3416,6794,9504,0.94303346,1.87536438,2.62345513,0.14712047,0.22061479,0.31889112
48355,0,USTexasNueces,Texas,Nueces,2021-01-05 08:40:34.159579,2020-09-07 00:00:00.000000,1.40099572,2.52791330,3.47662992,5075,9158,12595,3217,6502,9134,0.88812302,1.79478196,2.52131966,0.14698029,0.22334440,0.32061189
48355,0,USTexasNueces,Texas,Nueces,2021-01-05 08:40:34.159579,2020-09-08 00:00:00.000000,1.32269709,2.41981164,3.37641833,4792,8766,12232,3121,6207,8831,0.86163360,1.71336150,2.43769788,0.14849511,0.22096956,0.34270036
48355,0,USTexasNueces,Texas,Nueces,2021-01-05 08:40:34.159579,2020-09-09 00:00:00.000000,1.25423493,2.31775680,3.28464136,4544,8397,11900,2958,5932,8487,0.81664498,1.63755165,2.34277831,0.15103453,0.22526990,0.34713119
48355,0,USTexasNueces,Texas,Nueces,2021-01-05 08:40:34.159579,2020-09-10 00:00:00.000000,1.19586414,2.22062444,3.16805051,4332,8045,11477,2796,5680,8146,0.77198416,1.56794468,2.24847788,0.15374197,0.22591513,0.34906341
48355,0,USTexasNueces,Texas,Nueces,2021-01-05 08:40:34.159579,2020-09-11 00:00:00.000000,1.14496584,2.13888260,3.05519072,4148,7749,11068,2654,5448,7826,0.73280066,1.50387852,2.16024474,0.15775437,0.22940458,0.35606219
48355,0,USTexasNueces,Texas,Nueces,2021-01-05 08:40:34.159579,2020-09-12 00:00:00.000000,1.09880464,2.05023584,2.94552171,3980,7427,10671,2530,5195,7525,0.69856156,1.43401332,2.07710970,0.16313666,0.23132265,0.36320972
48355,0,USTexasNueces,Texas,Nueces,2021-01-05 08:40:34.159579,2020-09-13 00:00:00.000000,1.05581064,1.96161211,2.83849319,3825,7106,10283,2420,4963,7239,0.66816708,1.37003192,1.99833439,0.16328530,0.23061781,0.36466250
48355,0,USTexasNueces,Texas,Nueces,2021-01-05 08:40:34.159579,2020-09-14 00:00:00.000000,1.01545506,1.86844945,2.73403440,3678,6769,9905,2320,4762,6968,0.64058277,1.31441709,1.92335508,0.16053972,0.23193923,0.36491373
48355,0,USTexasNueces,Texas,Nueces,2021-01-05 08:40:34.159579,2020-09-15 00:00:00.000000,0.97696401,1.78758106,2.63052642,3539,6476,9530,2228,4544,6708,0.61511452,1.25430090,1.85177595,0.16317913,0.23592742,0.36560124
48355,0,USTexasNueces,Texas,Nueces,2021-01-05 08:40:34.159579,2020-09-16 00:00:00.000000,0.94000191,1.70033076,2.52742212,3405,6160,9156,2141,4313,6460,0.59122795,1.19056622,1.78326896,0.16203995,0.23359640,0.36503067
48355,0,USTexasNueces,Texas,Nueces,2021-01-05 08:40:34.159579,2020-09-17 00:00:00.000000,0.90433957,1.62505066,2.42499299,3276,5887,8785,2059,4106,6225,0.56857461,1.13349869,1.71834073,0.15985623,0.23200294,0.36543504
48355,0,USTexasNueces,Texas,Nueces,2021-01-05 08:40:34.159579,2020-09-18 00:00:00.000000,0.86977283,1.56194576,2.32338675,3151,5658,8417,1981,3944,6011,0.54691726,1.08880441,1.65935708,0.15660043,0.23201075,0.36122828
48355,0,USTexasNueces,Texas,Nueces,2021-01-05 08:40:34.159579,2020-09-19 00:00:00.000000,0.83622058,1.50588609,2.22475743,3029,5455,8060,1905,3816,5801,0.52607789,1.05333026,1.60119753,0.15477130,0.23141235,0.35768132
48355,0,USTexasNueces,Texas,Nueces,2021-01-05 08:40:34.159579,2020-09-20 00:00:00.000000,0.80351262,1.44821695,2.14782451,2911,5246,7781,1832,3671,5596,0.50591440,1.01331356,1.54484021,0.14235339,0.23393455,0.35431064
48355,0,USTexasNueces,Texas,Nueces,2021-01-05 08:40:34.159579,2020-09-21 00:00:00.000000,0.77245096,1.39244254,2.07589218,2798,5044,7520,1761,3509,5407,0.48632959,0.96858256,1.49244371,0.13925320,0.23303994,0.35317267
48355,0,USTexasNueces,Texas,Nueces,2021-01-05 08:40:34.159579,2020-09-22 00:00:00.000000,0.74237110,1.33066113,2.00696202,2689,4820,7271,1693,3376,5233,0.46750611,0.93204696,1.44465733,0.13999930,0.23124304,0.35284214
48355,0,USTexasNueces,Texas,Nueces,2021-01-05 08:40:34.159579,2020-09-23 00:00:00.000000,0.71338362,1.27405526,1.94020734,2584,4615,7029,1628,3261,5074,0.44935906,0.90015927,1.40060741,0.13856752,0.23442346,0.35272768
48355,0,USTexasNueces,Texas,Nueces,2021-01-05 08:40:34.159579,2020-09-24 00:00:00.000000,0.68553348,1.22140974,1.87543739,2483,4425,6794,1564,3149,4922,0.43186479,0.86944848,1.35863813,0.13832078,0.23383791,0.35261131
48355,0,USTexasNueces,Texas,Nueces,2021-01-05 08:40:34.159579,2020-09-25 00:00:00.000000,0.65888816,1.16260046,1.81266952,2387,4212,6567,1503,3009,4771,0.41502697,0.83070447,1.31688922,0.13927903,0.23647887,0.35226895
48355,0,USTexasNueces,Texas,Nueces,2021-01-05 08:40:34.159579,2020-09-26 00:00:00.000000,0.63359004,1.11425020,1.75192464,2295,4036,6347,1445,2863,4587,0.39886805,0.79044077,1.26625364,0.14449302,0.23625670,0.36053660
48355,0,USTexasNueces,Texas,Nueces,2021-01-05 08:40:34.159579,2020-09-27 00:00:00.000000,0.60990437,1.07368799,1.69319975,2209,3889,6134,1389,2735,4390,0.38344111,0.75501285,1.21190214,0.14323348,0.23716949,0.35967275
48355,0,USTexasNueces,Texas,Nueces,2021-01-05 08:40:34.159579,2020-09-28 00:00:00.000000,0.58717601,1.03117959,1.62809065,2127,3735,5898,1336,2624,4202,0.36885050,0.72448471,1.15992946,0.14797242,0.23977736,0.35386889
48355,0,USTexasNueces,Texas,Nueces,2021-01-05 08:40:34.159579,2020-09-29 00:00:00.000000,0.56663285,0.98940066,1.57402858,2052,3584,5702,1286,2514,4043,0.35496383,0.69406625,1.11612544,0.15266578,0.24188507,0.36310337
48355,0,USTexasNueces,Texas,Nueces,2021-01-05 08:40:34.159579,2020-09-30 00:00:00.000000,0.54844322,0.94685721,1.52270909,1986,3430,5516,1239,2404,3906,0.34205492,0.66367616,1.07828028,0.14843590,0.24410436,0.37819253
48355,0,USTexasNueces,Texas,Nueces,2021-01-05 08:40:34.159579,2020-10-01 00:00:00.000000,0.53283588,0.91912087,1.47507399,1930,3329,5344,1196,2319,3775,0.33032970,0.64036153,1.04205436,0.15772815,0.24583427,0.39733376
48355,0,USTexasNueces,Texas,Nueces,2021-01-05 08:40:34.159579,2020-10-02 00:00:00.000000,0.51617313,0.88689609,1.43216594,1870,3213,5188,1159,2242,3650,0.31995522,0.61892112,1.00763614,0.17212568,0.25361596,0.41809909
48355,0,USTexasNueces,Texas,Nueces,2021-01-05 08:40:34.159579,2020-10-03 00:00:00.000000,0.49756677,0.85881149,1.39387823,1802,3111,5049,1126,2158,3533,0.31100975,0.59574855,0.97529045,0.18192950,0.26051522,0.42800209
48355,0,USTexasNueces,Texas,Nueces,2021-01-05 08:40:34.159579,2020-10-04 00:00:00.000000,0.47996782,0.83335604,1.35889790,1738,3019,4923,1099,2085,3407,0.30342248,0.57561454,0.94047878,0.18931652,0.27261132,0.43664473
48355,0,USTexasNueces,Texas,Nueces,2021-01-05 08:40:34.159579,2020-10-05 00:00:00.000000,0.46322159,0.80848083,1.32463002,1678,2929,4799,1076,2030,3310,0.29701610,0.56033179,0.91362469,0.19249192,0.27845182,0.45176582
48355,0,USTexasNueces,Texas,Nueces,2021-01-05 08:40:34.159579,2020-10-06 00:00:00.000000,0.44779439,0.78812848,1.29181816,1622,2855,4680,1049,1954,3200,0.28969602,0.53953877,0.88353067,0.19699660,0.28764738,0.46759037
48355,0,USTexasNueces,Texas,Nueces,2021-01-05 08:40:34.159579,2020-10-07 00:00:00.000000,0.43404362,0.76292091,1.26021083,1572,2764,4565,1013,1881,3092,0.27972044,0.51931121,0.85361768,0.20245087,0.29974773,0.48319322
48355,0,USTexasNueces,Texas,Nueces,2021-01-05 08:40:34.159579,2020-10-08 00:00:00.000000,0.42951472,0.74088409,1.22984081,1556,2684,4455,980,1813,2992,0.27058838,0.50057788,0.82586149,0.22290214,0.30666407,0.50404380
48355,0,USTexasNueces,Texas,Nueces,2021-01-05 08:40:34.159579,2020-10-09 00:00:00.000000,0.41712988,0.72027850,1.20161206,1511,2609,4353,951,1761,2931,0.26253638,0.48626742,0.80907457,0.23819966,0.31219399,0.53266928
48355,0,USTexasNueces,Texas,Nueces,2021-01-05 08:40:34.159579,2020-10-10 00:00:00.000000,0.40738468,0.70079979,1.17935668,1475,2538,4272,926,1716,2902,0.25582706,0.47375567,0.80118435,0.24241771,0.32650146,0.57358675
48355,0,USTexasNueces,Texas,Nueces,2021-01-05 08:40:34.159579,2020-10-11 00:00:00.000000,0.40280460,0.68503094,1.15951910,1459,2481,4200,927,1675,2842,0.25597022,0.46244001,0.78466453,0.24658233,0.35119554,0.62798054
48355,0,USTexasNueces,Texas,Nueces,2021-01-05 08:40:34.159579,2020-10-12 00:00:00.000000,0.40070697,0.67564510,1.14793553,1451,2447,4158,909,1638,2783,0.25113596,0.45224794,0.76829608,0.25831957,0.36066287,0.66314144
48355,0,USTexasNueces,Texas,Nueces,2021-01-05 08:40:34.159579,2020-10-13 00:00:00.000000,0.40006989,0.67332855,1.13954432,1449,2439,4128,892,1602,2734,0.24625271,0.44241771,0.75473108,0.27375844,0.37932842,0.68552869
48355,0,USTexasNueces,Texas,Nueces,2021-01-05 08:40:34.159579,2020-10-14 00:00:00.000000,0.40068407,0.66975239,1.13293402,1451,2426,4104,879,1571,2698,0.24276382,0.43380659,0.74493844,0.29583687,0.39903440,0.70439669
48355,0,USTexasNueces,Texas,Nueces,2021-01-05 08:40:34.159579,2020-10-15 00:00:00.000000,0.40277836,0.66543621,1.12804542,1459,2410,4086,877,1549,2671,0.24222320,0.42774155,0.73750497,0.30972661,0.41113545,0.72587086
48355,0,USTexasNueces,Texas,Nueces,2021-01-05 08:40:34.159579,2020-10-16 00:00:00.000000,0.40708857,0.66371278,1.13018207,1474,2404,4094,878,1528,2651,0.24258366,0.42179846,0.73192804,0.31350715,0.43646852,0.77973165
48355,0,USTexasNueces,Texas,Nueces,2021-01-05 08:40:34.159579,2020-10-17 00:00:00.000000,0.41453001,0.67096578,1.13598424,1501,2430,4115,884,1522,2638,0.24405750,0.42030146,0.72818335,0.32094374,0.46800798,0.81374417
48355,0,USTexasNueces,Texas,Nueces,2021-01-05 08:40:34.159579,2020-10-18 00:00:00.000000,0.42121104,0.67604872,1.14918117,1526,2449,4163,894,1510,2632,0.24703217,0.41705827,0.72652184,0.32324667,0.49386154,0.84846232
48355,0,USTexasNueces,Texas,Nueces,2021-01-05 08:40:34.159579,2020-10-19 00:00:00.000000,0.42132340,0.68020758,1.17362962,1526,2464,4251,912,1513,2635,0.25178733,0.41766355,0.72747818,0.33682395,0.51137266,0.87115568
48355,0,USTexasNueces,Texas,Nueces,2021-01-05 08:40:34.159579,2020-10-20 00:00:00.000000,0.42258858,0.67636459,1.20708692,1531,2450,4373,923,1552,2650,0.25492139,0.42840694,0.73146201,0.35906932,0.53720878,0.87372482
48355,0,USTexasNueces,Texas,Nueces,2021-01-05 08:40:34.159579,2020-10-21 00:00:00.000000,0.42454336,0.68516242,1.24523288,1538,2482,4511,928,1563,2677,0.25631584,0.43143235,0.73898796,0.38326478,0.55879742,0.85717643
48355,0,USTexasNueces,Texas,Nueces,2021-01-05 08:40:34.159579,2020-10-22 00:00:00.000000,0.42747351,0.70559488,1.28574931,1548,2556,4658,935,1594,2718,0.25819328,0.44020357,0.75038901,0.39867493,0.58564857,0.83513593
48355,0,USTexasNueces,Texas,Nueces,2021-01-05 08:40:34.159579,2020-10-23 00:00:00.000000,0.44265538,0.73269028,1.32782134,1603,2654,4810,944,1639,2768,0.26064334,0.45263837,0.76418095,0.41684688,0.60921937,0.82089398
48355,0,USTexasNueces,Texas,Nueces,2021-01-05 08:40:34.159579,2020-10-24 00:00:00.000000,0.46058951,0.76314278,1.37120410,1668,2764,4967,955,1688,2789,0.26381222,0.46594531,0.76995065,0.44370017,0.62481915,0.83712824
48355,0,USTexasNueces,Texas,Nueces,2021-01-05 08:40:34.159579,2020-10-25 00:00:00.000000,0.48086938,0.79531924,1.41590571,1742,2881,5129,970,1726,2853,0.26785915,0.47662170,0.78760683,0.46534236,0.64853860,0.90792325
48355,0,USTexasNueces,Texas,Nueces,2021-01-05 08:40:34.159579,2020-10-26 00:00:00.000000,0.50061551,0.82778367,1.46220320,1813,2999,5297,994,1794,2939,0.27446864,0.49542196,0.81125398,0.48671426,0.66958761,0.94582358
48355,0,USTexasNueces,Texas,Nueces,2021-01-05 08:40:34.159579,2020-10-27 00:00:00.000000,0.51548029,0.86338358,1.51375348,1867,3127,5484,1035,1824,3034,0.28587463,0.50352825,0.83761268,0.50349259,0.69456699,0.95176360
48355,0,USTexasNueces,Texas,Nueces,2021-01-05 08:40:34.159579,2020-10-28 00:00:00.000000,0.53176656,0.90010641,1.58007890,1926,3261,5724,1067,1889,3139,0.29451340,0.52148677,0.86658831,0.51490589,0.72129457,1.02130839
48355,0,USTexasNueces,Texas,Nueces,2021-01-05 08:40:34.159579,2020-10-29 00:00:00.000000,0.54953583,0.94400445,1.66276460,1990,3420,6024,1096,1970,3256,0.30279180,0.54402124,0.89894286,0.52378143,0.76658074,1.08141749
48355,0,USTexasNueces,Texas,Nueces,2021-01-05 08:40:34.159579,2020-10-30 00:00:00.000000,0.57444040,0.99237649,1.76150992,2081,3595,6381,1136,2051,3394,0.31373050,0.56628794,0.93697479,0.53043477,0.79248183,1.08888740
48355,0,USTexasNueces,Texas,Nueces,2021-01-05 08:40:34.159579,2020-10-31 00:00:00.000000,0.60932939,1.04771985,1.86521606,2207,3795,6757,1186,2140,3560,0.32750133,0.59077765,0.98273048,0.53666473,0.81298311,1.10085194
48355,0,USTexasNueces,Texas,Nueces,2021-01-05 08:40:34.159579,2020-11-01 00:00:00.000000,0.64664106,1.11440661,1.97132466,2342,4037,7141,1249,2244,3748,0.34481745,0.61949715,1.03463680,0.55919929,0.82713360,1.15093443
48355,0,USTexasNueces,Texas,Nueces,2021-01-05 08:40:34.159579,2020-11-02 00:00:00.000000,0.68540699,1.19061995,2.05700570,2483,4313,7452,1326,2342,3955,0.36621820,0.64665810,1.09171560,0.62359936,0.84581400,1.16048447
48355,0,USTexasNueces,Texas,Nueces,2021-01-05 08:40:34.159579,2020-11-03 00:00:00.000000,0.72654712,1.26863773,2.17639942,2632,4596,7884,1415,2474,4178,0.39080855,0.68304489,1.15322542,0.66412468,0.86950853,1.17435488
48355,0,USTexasNueces,Texas,Nueces,2021-01-05 08:40:34.159579,2020-11-04 00:00:00.000000,0.77014649,1.34009717,2.30147579,2790,4855,8338,1513,2629,4415,0.41782689,0.72592845,1.21885814,0.70404056,0.89899706,1.20249169
48355,0,USTexasNueces,Texas,Nueces,2021-01-05 08:40:34.159579,2020-11-05 00:00:00.000000,0.81633479,1.41822230,2.43241995,2957,5138,8812,1619,2785,4666,0.44700251,0.76877268,1.28796013,0.70621505,0.91330557,1.25405516
48355,0,USTexasNueces,Texas,Nueces,2021-01-05 08:40:34.159579,2020-11-06 00:00:00.000000,0.86521110,1.50099545,2.56457475,3134,5438,9291,1731,2971,4929,0.47800728,0.82006193,1.36076218,0.71750347,0.90784967,1.32772331
48355,0,USTexasNueces,Texas,Nueces,2021-01-05 08:40:34.159579,2020-11-07 00:00:00.000000,0.91704754,1.59633870,2.68934737,3322,5783,9743,1824,3173,5204,0.50347519,0.87593159,1.43647454,0.74017315,0.91035505,1.39856878
48355,0,USTexasNueces,Texas,Nueces,2021-01-05 08:40:34.159579,2020-11-08 00:00:00.000000,0.97351334,1.69117610,2.81230459,3526,6127,10188,1919,3371,5480,0.52975907,0.93068785,1.51279340,0.75208777,0.91788245,1.44593538
48355,0,USTexasNueces,Texas,Nueces,2021-01-05 08:40:34.159579,2020-11-09 00:00:00.000000,1.03254761,1.79206192,2.93704673,3740,6492,10640,2016,3562,5737,0.55672914,0.98331303,1.58376853,0.77292652,0.91555526,1.47099081
48355,0,USTexasNueces,Texas,Nueces,2021-01-05 08:40:34.159579,2020-11-10 00:00:00.000000,1.09430376,1.90880975,3.06439837,3964,6915,11102,2117,3802,5987,0.58444204,1.04959928,1.65268225,0.77755046,0.91458060,1.48259767
48355,0,USTexasNueces,Texas,Nueces,2021-01-05 08:40:34.159579,2020-11-11 00:00:00.000000,1.17266071,2.01084494,3.19502660,4248,7285,11575,2220,4040,6248,0.61288124,1.11523726,1.72473216,0.77941144,0.92209302,1.48626996
48355,0,USTexasNueces,Texas,Nueces,2021-01-05 08:40:34.159579,2020-11-12 00:00:00.000000,1.25485764,2.13456385,3.32898118,4546,7733,12060,2326,4273,6549,0.64225761,1.17961716,1.80773342,0.76437684,0.93058805,1.46627307
48355,0,USTexasNueces,Texas,Nueces,2021-01-05 08:40:34.159579,2020-11-13 00:00:00.000000,1.33751350,2.27981651,3.46605683,4845,8259,12557,2478,4512,6857,0.68408194,1.24565718,1.89269435,0.73307974,0.94240036,1.41492433
48355,0,USTexasNueces,Texas,Nueces,2021-01-05 08:40:34.159579,2020-11-14 00:00:00.000000,1.41561035,2.40360488,3.60590207,5128,8708,13063,2647,4784,7169,0.73088167,1.32068711,1.97880321,0.65574273,0.93728064,1.37790308
48355,0,USTexasNueces,Texas,Nueces,2021-01-05 08:40:34.159579,2020-11-15 00:00:00.000000,1.48786612,2.54201049,3.74801666,5390,9209,13578,2814,5036,7486,0.77696688,1.39009081,2.06634771,0.64552681,0.92046898,1.39434217
48355,0,USTexasNueces,Texas,Nueces,2021-01-05 08:40:34.159579,2020-11-16 00:00:00.000000,1.57675125,2.66397077,3.89126418,5712,9651,14097,2988,5309,7806,0.82499829,1.46564303,2.15468535,0.64309068,0.92317744,1.37724524
48355,0,USTexasNueces,Texas,Nueces,2021-01-05 08:40:34.159579,2020-11-17 00:00:00.000000,1.67880633,2.79609525,4.03461020,6082,10130,14617,3171,5597,8123,0.87540161,1.54493202,2.24221061,0.64201133,0.90292562,1.37290896
48355,0,USTexasNueces,Texas,Nueces,2021-01-05 08:40:34.159579,2020-11-18 00:00:00.000000,1.78635879,2.93818128,4.17690959,6471,10644,15132,3355,5881,8441,0.92623434,1.62353355,2.32994087,0.60344260,0.89882909,1.37306319
48355,0,USTexasNueces,Texas,Nueces,2021-01-05 08:40:34.159579,2020-11-19 00:00:00.000000,1.89956269,3.09405108,4.29532956,6882,11209,15561,3543,6172,8800,0.97803840,1.70381839,2.42913933,0.60939760,0.89078780,1.39072420
48355,0,USTexasNueces,Texas,Nueces,2021-01-05 08:40:34.159579,2020-11-20 00:00:00.000000,2.01855611,3.24584056,4.48287072,7313,11759,16241,3736,6481,9227,1.03129978,1.78891903,2.54683386,0.59799801,0.85859036,1.41771783
48355,0,USTexasNueces,Texas,Nueces,2021-01-05 08:40:34.159579,2020-11-21 00:00:00.000000,2.13242481,3.41243090,4.67658482,7725,12363,16942,3936,6835,9675,1.08661114,1.88675928,2.67059999,0.59417585,0.84497927,1.44260085
48355,0,USTexasNueces,Texas,Nueces,2021-01-05 08:40:34.159579,2020-11-22 00:00:00.000000,2.24137396,3.56674080,4.86953825,8120,12922,17642,4144,7202,10142,1.14405901,1.98803110,2.79946401,0.59364654,0.83013351,1.46099544
48355,0,USTexasNueces,Texas,Nueces,2021-01-05 08:40:34.159579,2020-11-23 00:00:00.000000,2.35286969,3.68632632,5.02460840,8524,13355,18203,4360,7542,10624,1.20361553,2.08173923,2.93269807,0.59289045,0.79990005,1.51210053
48355,0,USTexasNueces,Texas,Nueces,2021-01-05 08:40:34.159579,2020-11-24 00:00:00.000000,2.46548111,3.81878263,5.24022365,8932,13835,18985,4583,7860,11122,1.26501020,2.16968884,3.06989428,0.58673241,0.76815844,1.57585619
48355,0,USTexasNueces,Texas,Nueces,2021-01-05 08:40:34.159579,2020-11-25 00:00:00.000000,2.54281831,3.93406209,5.45835518,9212,14252,19775,4810,8172,11454,1.32773261,2.25578013,3.16156688,0.54526984,0.75101057,1.61152914
48355,0,USTexasNueces,Texas,Nueces,2021-01-05 08:40:34.159579,2020-11-26 00:00:00.000000,2.57034530,4.06020673,5.66663786,9312,14709,20529,5038,8517,11678,1.39070392,2.35101666,3.22357443,0.54499369,0.73371571,1.60347884
48355,0,USTexasNueces,Texas,Nueces,2021-01-05 08:40:34.159579,2020-11-27 00:00:00.000000,2.67208548,4.16016918,5.84406389,9680,15072,21172,5262,8814,11950,1.45263068,2.43289859,3.29843549,0.53027382,0.71956480,1.51900938
48355,0,USTexasNueces,Texas,Nueces,2021-01-05 08:40:34.159579,2020-11-28 00:00:00.000000,2.80522411,4.24873045,5.97050435,10163,15392,21630,5480,9113,12407,1.51266443,2.51545521,3.42475935,0.52455314,0.69935674,1.64471401
48355,0,USTexasNueces,Texas,Nueces,2021-01-05 08:40:34.159579,2020-11-29 00:00:00.000000,2.84787712,4.34914158,6.17247817,10317,15756,22362,5687,9409,12864,1.56979085,2.59723193,3.55074813,0.50458056,0.68443205,1.77769347
48355,0,USTexasNueces,Texas,Nueces,2021-01-05 08:40:34.159579,2020-11-30 00:00:00.000000,2.85767723,4.39860133,6.35558447,10353,15935,23025,5882,9643,13317,1.62371892,2.66171879,3.67589856,0.49384714,0.68979386,1.87387528
48355,0,USTexasNueces,Texas,Nueces,2021-01-05 08:40:34.159579,2020-12-01 00:00:00.000000,2.88305651,4.46123484,6.46017138,10445,16162,23404,5976,9794,13764,1.64948950,2.70356495,3.79933018,0.48487737,0.67514718,1.93324850
48355,0,USTexasNueces,Texas,Nueces,2021-01-05 08:40:34.159579,2020-12-02 00:00:00.000000,2.87950618,4.54350091,6.54316043,10432,16460,23705,5950,10011,14006,1.64256041,2.76347510,3.86611657,0.46293350,0.67269502,1.96777426
48355,0,USTexasNueces,Texas,Nueces,2021-01-05 08:40:34.159579,2020-12-03 00:00:00.000000,2.83440405,4.63638356,6.61727241,10268,16797,23973,5912,10132,14171,1.63189800,2.79688864,3.91155565,0.45814603,0.66139045,1.99085526
48355,0,USTexasNueces,Texas,Nueces,2021-01-05 08:40:34.159579,2020-12-04 00:00:00.000000,2.82065071,4.71749315,6.69687764,10219,17091,24262,5988,10307,14441,1.65293889,2.84515586,3.98602399,0.46980439,0.66497347,2.01553121
48355,0,USTexasNueces,Texas,Nueces,2021-01-05 08:40:34.159579,2020-12-05 00:00:00.000000,2.85611529,4.78074806,6.80951701,10347,17320,24670,6070,10475,14812,1.67562008,2.89155393,4.08862302,0.48049377,0.66713783,2.05269095
48355,0,USTexasNueces,Texas,Nueces,2021-01-05 08:40:34.159579,2020-12-06 00:00:00.000000,2.88411881,4.82848079,6.92167437,10448,17493,25076,6127,10773,15154,1.69121014,2.97377359,4.18288495,0.47860917,0.66007476,2.08727772
48355,0,USTexasNueces,Texas,Nueces,2021-01-05 08:40:34.159579,2020-12-07 00:00:00.000000,2.89763107,4.90542466,7.02330833,10497,17772,25445,6218,11058,15443,1.71653099,3.05231680,4.26261159,0.48233713,0.66319379,2.08618813
48355,0,USTexasNueces,Texas,Nueces,2021-01-05 08:40:34.159579,2020-12-08 00:00:00.000000,2.90273585,4.98783211,7.06918516,10516,18070,25611,6271,11211,15553,1.73113446,3.09464786,4.29312537,0.47819423,0.66503032,2.07587764
48355,0,USTexasNueces,Texas,Nueces,2021-01-05 08:40:34.159579,2020-12-09 00:00:00.000000,2.90432678,5.02934950,7.15102083,10522,18221,25907,6302,11356,15627,1.73953273,3.13457535,4.31356856,0.47013584,0.66621283,2.08073370
48355,0,USTexasNueces,Texas,Nueces,2021-01-05 08:40:34.159579,2020-12-10 00:00:00.000000,2.90408046,5.05432874,7.17326823,10521,18311,25988,6318,11457,15664,1.74409614,3.16253794,4.32383352,0.46732384,0.66661804,2.08205641
48355,0,USTexasNueces,Texas,Nueces,2021-01-05 08:40:34.159579,2020-12-11 00:00:00.000000,2.90406326,5.09715014,7.25551760,10521,18466,26286,6326,11616,15689,1.74623105,3.20644730,4.33058145,0.47559841,0.66313870,2.08152122
48355,0,USTexasNueces,Texas,Nueces,2021-01-05 08:40:34.159579,2020-12-12 00:00:00.000000,2.90938242,5.13313538,7.34102103,10540,18597,26596,6330,11755,15932,1.74725060,3.24475897,4.39771703,0.47898432,0.68346288,2.07880730
48355,0,USTexasNueces,Texas,Nueces,2021-01-05 08:40:34.159579,2020-12-13 00:00:00.000000,2.92819653,5.20722181,7.36134034,10608,18865,26669,6337,11795,16282,1.74932156,3.25568361,4.49429915,0.48744342,0.69188899,2.06951589
48355,0,USTexasNueces,Texas,Nueces,2021-01-05 08:40:34.159579,2020-12-14 00:00:00.000000,2.96114576,5.31146970,7.36936046,10728,19243,26698,6362,11893,16628,1.75612588,3.28273903,4.58990523,0.47920874,0.68909275,2.04567538
48355,0,USTexasNueces,Texas,Nueces,2021-01-05 08:40:34.159579,2020-12-15 00:00:00.000000,3.00118461,5.36960881,7.36639026,10873,19453,26687,6412,12048,16972,1.76988434,3.32553233,4.68470424,0.47820604,0.69290452,1.94503821
48355,0,USTexasNueces,Texas,Nueces,2021-01-05 08:40:34.159579,2020-12-16 00:00:00.000000,3.04379472,5.42345719,7.35351871,11027,19648,26641,6481,12165,17047,1.78897810,3.35783520,4.70533003,0.47955597,0.71428568,1.71558990
48355,0,USTexasNueces,Texas,Nueces,2021-01-05 08:40:34.159579,2020-12-17 00:00:00.000000,3.08717730,5.44196643,7.33163107,11184,19715,26562,6562,12351,17075,1.81125649,3.40922370,4.71329851,0.48422554,0.72049247,1.70283861
48355,0,USTexasNueces,Texas,Nueces,2021-01-05 08:40:34.159579,2020-12-18 00:00:00.000000,3.12996348,5.54171593,7.30144280,11339,20077,26452,6648,12498,17139,1.83503118,3.44969286,4.73079525,0.49344116,0.71902358,1.68213140
48355,0,USTexasNueces,Texas,Nueces,2021-01-05 08:40:34.159579,2020-12-19 00:00:00.000000,3.16615801,5.58895876,7.28620141,11470,20248,26397,6737,12648,17259,1.85977006,3.49132699,4.76391691,0.49245481,0.71564037,1.64345450
48355,0,USTexasNueces,Texas,Nueces,2021-01-05 08:40:34.159579,2020-12-20 00:00:00.000000,3.18507076,5.59679081,7.25882372,11539,20276,26298,6822,12717,17343,1.88313455,3.51015400,4.78709004,0.49342754,0.72027808,1.55750772
48355,0,USTexasNueces,Texas,Nueces,2021-01-05 08:40:34.159579,2020-12-21 00:00:00.000000,3.27718904,5.57802572,7.22132504,11873,20208,26162,6885,12789,17381,1.90049500,3.53015032,4.79751641,0.49954968,0.73062384,1.56131349
48355,0,USTexasNueces,Texas,Nueces,2021-01-05 08:40:34.159579,2020-12-22 00:00:00.000000,3.41145044,5.55340961,7.17520265,12359,20119,25995,6930,12903,17350,1.91292526,3.56163708,4.78908279,0.49268471,0.72822305,1.55835034
48355,0,USTexasNueces,Texas,Nueces,2021-01-05 08:40:34.159579,2020-12-23 00:00:00.000000,3.46116259,5.55344532,7.14566019,12539,20119,25888,6963,13062,17240,1.92203585,3.60542369,4.75870037,0.46443151,0.73379741,1.55801383
48355,0,USTexasNueces,Texas,Nueces,2021-01-05 08:40:34.159579,2020-12-24 00:00:00.000000,3.46276605,5.57894274,7.12723395,12545,20212,25821,6987,13175,17231,1.92878304,3.63665266,4.75630678,0.45450277,0.73266276,1.55511616
48355,0,USTexasNueces,Texas,Nueces,2021-01-05 08:40:34.159579,2020-12-25 00:00:00.000000,3.46877927,5.54539649,7.16640996,12567,20090,25963,7171,13130,17196,1.97960082,3.62439639,4.74667659,0.43257114,0.72639233,1.49582852
48355,0,USTexasNueces,Texas,Nueces,2021-01-05 08:40:34.159579,2020-12-26 00:00:00.000000,3.48150136,5.51606671,7.21974350,12613,19984,26156,7407,13115,17135,2.04470579,3.62021830,4.72969927,0.42929610,0.74222186,1.45973370
48355,0,USTexasNueces,Texas,Nueces,2021-01-05 08:40:34.159579,2020-12-27 00:00:00.000000,3.43927322,5.51838525,7.25986135,12460,19992,26302,7597,13089,17044,2.09705783,3.61307325,4.70472314,0.42512170,0.72628079,1.49563371
48355,0,USTexasNueces,Texas,Nueces,2021-01-05 08:40:34.159579,2020-12-28 00:00:00.000000,3.40306157,5.49768806,7.09212165,12329,19917,25694,7563,12928,16996,2.08761772,3.56849012,4.69124864,0.42095458,0.73496797,1.53585879
48355,0,USTexasNueces,Texas,Nueces,2021-01-05 08:40:34.159579,2020-12-29 00:00:00.000000,3.44339372,5.42038471,7.04130272,12475,19637,25510,7528,12727,16960,2.07799103,3.51298440,4.68140653,0.41874233,0.75344216,1.55934941
48355,0,USTexasNueces,Texas,Nueces,2021-01-05 08:40:34.159579,2020-12-30 00:00:00.000000,3.47776555,5.35272990,7.07289943,12599,19392,25624,7425,12602,16563,2.04962711,3.47863048,4.57174298,0.41787560,0.75432231,1.59923593
48355,0,USTexasNueces,Texas,Nueces,2021-01-05 08:40:34.159579,2020-12-31 00:00:00.000000,3.50670271,5.37807623,6.96810306,12704,19484,25245,7264,12476,16314,2.00507215,3.44372404,4.50300531,0.41727893,0.76191713,1.64338424
48355,0,USTexasNueces,Texas,Nueces,2021-01-05 08:40:34.159579,2021-01-01 00:00:00.000000,3.52914010,5.40499692,6.99802667,12785,19581,25353,7297,12338,16336,2.01421683,3.40565895,4.50924945,0.41683454,0.75321260,1.66328305
48355,0,USTexasNueces,Texas,Nueces,2021-01-05 08:40:34.159579,2021-01-02 00:00:00.000000,3.48659149,5.35693179,7.01862402,12631,19407,25428,7355,12302,16245,2.03016895,3.39566476,4.48408238,0.40259962,0.75839095,1.67160255
48355,0,USTexasNueces,Texas,Nueces,2021-01-05 08:40:34.159579,2021-01-03 00:00:00.000000,3.33014233,5.24362103,7.02982268,12064,18997,25468,7359,12059,15904,2.03134364,3.32864642,4.39006225,0.37821934,0.74709226,1.67490841
48355,0,USTexasNueces,Texas,Nueces,2021-01-05 08:40:34.159579,2021-01-04 00:00:00.000000,3.17904925,5.19943948,7.03160203,11517,18837,25475,7349,11971,16114,2.02858695,3.30425159,4.44778670,0.37524435,0.75040000,1.67618690
48355,0,USTexasNueces,Texas,Nueces,2021-01-05 08:40:34.159579,2021-01-05 00:00:00.000000,3.03359810,5.11189223,7.02399295,10990,18520,25447,7237,11819,16314,1.99775379,3.26251661,4.50322794,0.37519020,0.76669122,1.67667842
48355,0,USTexasNueces,Texas,Nueces,2021-01-05 08:40:34.159579,2021-01-06 00:00:00.000000,2.90192563,5.03198362,6.99062176,10513,18230,25326,6990,11754,16386,1.92954169,3.24444949,4.52303530,0.37518663,0.77284895,1.67686873
48355,0,USTexasNueces,Texas,Nueces,2021-01-05 08:40:34.159579,2021-01-07 00:00:00.000000,2.84820523,4.97712956,6.93255491,10318,18031,25116,6743,11500,16322,1.86123525,3.17427401,4.50522182,0.37518540,0.77488345,1.67694352
48355,0,USTexasNueces,Texas,Nueces,2021-01-05 08:40:34.159579,2021-01-08 00:00:00.000000,2.79393972,4.90485307,6.90235339,10122,17769,25006,6497,11485,16337,1.79350545,3.17035154,4.50940413,0.37518492,0.77556849,1.67697348
48355,0,USTexasNueces,Texas,Nueces,2021-01-05 08:40:34.159579,2021-01-09 00:00:00.000000,2.73929258,4.84774733,6.88279122,9924,17563,24935,6256,11392,16132,1.72681396,3.14449263,4.45290620,0.37518471,0.77413701,1.67698576
48355,0,USTexasNueces,Texas,Nueces,2021-01-05 08:40:34.159579,2021-01-10 00:00:00.000000,2.68439105,4.80594975,6.85041551,9725,17411,24818,6106,11255,15953,1.68546704,3.10670940,4.40334744,0.37518462,0.77310249,1.67699092
48355,0,USTexasNueces,Texas,Nueces,2021-01-05 08:40:34.159579,2021-01-11 00:00:00.000000,2.58439116,4.69402703,6.79438991,9363,17006,24615,5988,11029,15783,1.65292045,3.04438506,4.35654105,0.37518457,0.77252112,1.67699314
48355,0,USTexasNueces,Texas,Nueces,2021-01-05 08:40:34.159579,2021-01-12 00:00:00.000000,2.48016574,4.54547249,6.72720384,8985,16467,24372,5869,10857,15590,1.62015499,2.99683945,4.30335354,0.37518456,0.77219912,1.67699412
48355,0,USTexasNueces,Texas,Nueces,2021-01-05 08:40:34.159579,2021-01-13 00:00:00.000000,2.37932817,4.39761839,6.65242154,8620,15932,24101,5750,10767,15376,1.58724802,2.97191123,4.24414355,0.37518455,0.77202222,1.67699456
48355,0,USTexasNueces,Texas,Nueces,2021-01-05 08:40:34.159579,2021-01-14 00:00:00.000000,2.28185477,4.28229996,6.57043730,8267,15514,23804,5493,10685,15141,1.51629748,2.94944351,4.17929825,0.37518454,0.77192546,1.67699477
48355,0,USTexasNueces,Texas,Nueces,2021-01-05 08:40:34.159579,2021-01-15 00:00:00.000000,2.18770801,4.21812617,6.51483632,7925,15282,23602,5229,10438,14887,1.44354869,2.88124042,4.10922786,0.37518454,0.77187266,1.67699486
48355,0,USTexasNueces,Texas,Nueces,2021-01-05 08:40:34.159579,2021-01-16 00:00:00.000000,2.09683993,4.16576436,6.41961580,7596,15092,23257,4978,10251,14616,1.37404415,2.82965008,4.03436022,0.37518454,0.77184389,1.67699491
48355,0,USTexasNueces,Texas,Nueces,2021-01-05 08:40:34.159579,2021-01-17 00:00:00.000000,2.00919446,4.08629065,6.31522937,7279,14804,22879,4737,10134,14359,1.30766652,2.79722962,3.96358887,0.37518454,0.77182822,1.67699493
