FIPS,HR_UID,nameid,province,region,analysisTime,dates,pointprevalence_025,pointprevalence_50,pointprevalence_975,pointinfections_025,pointinfections_50,pointinfections_975,pointinfectious_025,pointinfectious_50,pointinfectious_975,pointinfectiousprevalence_05,pointinfectiousprevalence_50,pointinfectiousprevalence_95,infectrate_025,infectrate_50,infectrate_975
38015,0,USNorthDakotaBurleigh,North Dakota,Burleigh,2021-01-05 14:06:55.570837,2020-03-09 00:00:00.000000,0.00200601,0.00803038,0.02003128,1,7,19,0,3,9,0.00052926,0.00413380,0.00977469,0.35883713,0.46546595,0.69504504
38015,0,USNorthDakotaBurleigh,North Dakota,Burleigh,2021-01-05 14:06:55.570837,2020-03-10 00:00:00.000000,0.00272164,0.01064830,0.02396258,2,10,22,0,3,9,0.00092944,0.00406298,0.00958856,0.35883693,0.46515169,0.69504232
38015,0,USNorthDakotaBurleigh,North Dakota,Burleigh,2021-01-05 14:06:55.570837,2020-03-11 00:00:00.000000,0.00338690,0.01337560,0.02928772,3,12,28,0,4,9,0.00104531,0.00469366,0.00967866,0.35883594,0.46463004,0.69503616
38015,0,USNorthDakotaBurleigh,North Dakota,Burleigh,2021-01-05 14:06:55.570837,2020-03-12 00:00:00.000000,0.00407417,0.01569343,0.03460715,3,15,33,1,5,9,0.00128235,0.00534136,0.01018538,0.35741290,0.46376770,0.69502210
38015,0,USNorthDakotaBurleigh,North Dakota,Burleigh,2021-01-05 14:06:55.570837,2020-03-13 00:00:00.000000,0.00479683,0.01829674,0.03966643,4,17,37,1,5,11,0.00164853,0.00607823,0.01173172,0.35509536,0.46263614,0.69498969
38015,0,USNorthDakotaBurleigh,North Dakota,Burleigh,2021-01-05 14:06:55.570837,2020-03-14 00:00:00.000000,0.00560871,0.02071038,0.04532158,5,19,43,1,6,12,0.00196820,0.00705584,0.01313315,0.35181112,0.46247811,0.69491302
38015,0,USNorthDakotaBurleigh,North Dakota,Burleigh,2021-01-05 14:06:55.570837,2020-03-15 00:00:00.000000,0.00664466,0.02318727,0.05172878,6,22,49,2,7,14,0.00232415,0.00813019,0.01482750,0.34718283,0.46081761,0.69472023
38015,0,USNorthDakotaBurleigh,North Dakota,Burleigh,2021-01-05 14:06:55.570837,2020-03-16 00:00:00.000000,0.00931329,0.02690380,0.05578668,8,25,53,2,8,16,0.00272982,0.00923433,0.01729648,0.34622795,0.45969762,0.69416901
38015,0,USNorthDakotaBurleigh,North Dakota,Burleigh,2021-01-05 14:06:55.570837,2020-03-17 00:00:00.000000,0.01254445,0.03104984,0.06359527,11,29,60,3,10,18,0.00360658,0.01069010,0.01977304,0.33138642,0.45428253,0.69122382
38015,0,USNorthDakotaBurleigh,North Dakota,Burleigh,2021-01-05 14:06:55.570837,2020-03-18 00:00:00.000000,0.01540372,0.03414561,0.06754675,14,32,64,4,11,21,0.00467961,0.01194862,0.02281891,0.31919276,0.43880566,0.67253271
38015,0,USNorthDakotaBurleigh,North Dakota,Burleigh,2021-01-05 14:06:55.570837,2020-03-19 00:00:00.000000,0.01707950,0.03773953,0.07429953,16,36,71,5,12,24,0.00567595,0.01347421,0.02534591,0.30322877,0.42203426,0.64977568
38015,0,USNorthDakotaBurleigh,North Dakota,Burleigh,2021-01-05 14:06:55.570837,2020-03-20 00:00:00.000000,0.01879329,0.04108756,0.08041717,17,39,76,6,14,26,0.00680762,0.01508816,0.02739856,0.26882208,0.39842365,0.63505860
38015,0,USNorthDakotaBurleigh,North Dakota,Burleigh,2021-01-05 14:06:55.570837,2020-03-21 00:00:00.000000,0.02046371,0.04363020,0.08526570,19,41,81,7,15,28,0.00780296,0.01653174,0.02946586,0.24460795,0.38210864,0.59014408
38015,0,USNorthDakotaBurleigh,North Dakota,Burleigh,2021-01-05 14:06:55.570837,2020-03-22 00:00:00.000000,0.02200070,0.04601098,0.08958692,21,43,85,8,17,30,0.00883260,0.01779426,0.03187344,0.24177532,0.36606862,0.52114236
38015,0,USNorthDakotaBurleigh,North Dakota,Burleigh,2021-01-05 14:06:55.570837,2020-03-23 00:00:00.000000,0.02411535,0.04936678,0.09292278,23,47,88,9,18,33,0.00992226,0.01943112,0.03536949,0.23687707,0.34083884,0.49316305
38015,0,USNorthDakotaBurleigh,North Dakota,Burleigh,2021-01-05 14:06:55.570837,2020-03-24 00:00:00.000000,0.02609836,0.05194942,0.09628084,24,49,92,10,20,37,0.01117949,0.02112934,0.03884517,0.19956326,0.31911970,0.48490242
38015,0,USNorthDakotaBurleigh,North Dakota,Burleigh,2021-01-05 14:06:55.570837,2020-03-25 00:00:00.000000,0.02863821,0.05508389,0.09957796,27,52,95,11,21,40,0.01239912,0.02263307,0.04228618,0.18597491,0.30835774,0.45933849
38015,0,USNorthDakotaBurleigh,North Dakota,Burleigh,2021-01-05 14:06:55.570837,2020-03-26 00:00:00.000000,0.03148189,0.05882730,0.10277646,30,56,98,12,23,43,0.01347302,0.02445833,0.04568892,0.17647077,0.29896451,0.44997023
38015,0,USNorthDakotaBurleigh,North Dakota,Burleigh,2021-01-05 14:06:55.570837,2020-03-27 00:00:00.000000,0.03367988,0.06250567,0.10576740,32,59,101,13,25,46,0.01455386,0.02663488,0.04905679,0.16901802,0.28984921,0.44998736
38015,0,USNorthDakotaBurleigh,North Dakota,Burleigh,2021-01-05 14:06:55.570837,2020-03-28 00:00:00.000000,0.03530978,0.06518807,0.10917481,33,62,104,14,26,50,0.01477481,0.02815510,0.05239421,0.16396723,0.27910522,0.45040300
38015,0,USNorthDakotaBurleigh,North Dakota,Burleigh,2021-01-05 14:06:55.570837,2020-03-29 00:00:00.000000,0.03695992,0.06781377,0.11459489,35,64,109,14,28,53,0.01485767,0.02935061,0.05569933,0.16022963,0.26462167,0.44890850
38015,0,USNorthDakotaBurleigh,North Dakota,Burleigh,2021-01-05 14:06:55.570837,2020-03-30 00:00:00.000000,0.03884880,0.07184317,0.11741809,37,68,112,15,28,56,0.01575500,0.03029509,0.05896033,0.15640851,0.25168220,0.43608844
38015,0,USNorthDakotaBurleigh,North Dakota,Burleigh,2021-01-05 14:06:55.570837,2020-03-31 00:00:00.000000,0.04073734,0.07485502,0.12015249,38,71,114,16,30,59,0.01715684,0.03202201,0.06174559,0.15233698,0.24417781,0.41680029
38015,0,USNorthDakotaBurleigh,North Dakota,Burleigh,2021-01-05 14:06:55.570837,2020-04-01 00:00:00.000000,0.04152714,0.07681648,0.12281131,39,73,117,17,31,61,0.01846627,0.03329035,0.06418690,0.15153669,0.24231071,0.39376094
38015,0,USNorthDakotaBurleigh,North Dakota,Burleigh,2021-01-05 14:06:55.570837,2020-04-02 00:00:00.000000,0.04293579,0.07771590,0.12732860,41,74,121,19,33,63,0.01993225,0.03465622,0.06642795,0.14445461,0.23461572,0.37289914
38015,0,USNorthDakotaBurleigh,North Dakota,Burleigh,2021-01-05 14:06:55.570837,2020-04-03 00:00:00.000000,0.04573328,0.07933420,0.13244390,43,75,126,20,34,65,0.02094258,0.03619225,0.06848538,0.13989121,0.22566679,0.35812880
38015,0,USNorthDakotaBurleigh,North Dakota,Burleigh,2021-01-05 14:06:55.570837,2020-04-04 00:00:00.000000,0.04754714,0.08097146,0.13825947,45,77,132,20,35,67,0.02151530,0.03763877,0.07040967,0.13419277,0.21225617,0.34890293
38015,0,USNorthDakotaBurleigh,North Dakota,Burleigh,2021-01-05 14:06:55.570837,2020-04-05 00:00:00.000000,0.04895351,0.08320862,0.14343107,46,79,137,21,37,69,0.02200919,0.03894109,0.07219842,0.12721510,0.20057651,0.33336063
38015,0,USNorthDakotaBurleigh,North Dakota,Burleigh,2021-01-05 14:06:55.570837,2020-04-06 00:00:00.000000,0.05024050,0.08584688,0.14381989,48,82,137,21,38,70,0.02243200,0.04056607,0.07383471,0.12187569,0.19249301,0.31765697
38015,0,USNorthDakotaBurleigh,North Dakota,Burleigh,2021-01-05 14:06:55.570837,2020-04-07 00:00:00.000000,0.05149749,0.08798371,0.14475111,49,84,138,21,39,72,0.02289375,0.04151846,0.07530931,0.11912668,0.19038279,0.30273331
38015,0,USNorthDakotaBurleigh,North Dakota,Burleigh,2021-01-05 14:06:55.570837,2020-04-08 00:00:00.000000,0.05147778,0.08926967,0.14494211,49,85,138,22,40,73,0.02338009,0.04261529,0.07708750,0.11539361,0.18676199,0.29438950
38015,0,USNorthDakotaBurleigh,North Dakota,Burleigh,2021-01-05 14:06:55.570837,2020-04-09 00:00:00.000000,0.05060258,0.08924465,0.14496393,48,85,138,22,41,75,0.02388286,0.04385595,0.07897017,0.11577035,0.18305788,0.29001194
38015,0,USNorthDakotaBurleigh,North Dakota,Burleigh,2021-01-05 14:06:55.570837,2020-04-10 00:00:00.000000,0.04974472,0.09062258,0.14591764,47,86,139,23,43,77,0.02412074,0.04500024,0.08059304,0.11657004,0.17710636,0.28774703
38015,0,USNorthDakotaBurleigh,North Dakota,Burleigh,2021-01-05 14:06:55.570837,2020-04-11 00:00:00.000000,0.04890366,0.09283032,0.14732914,46,88,140,22,44,78,0.02391923,0.04619013,0.08199314,0.11388564,0.17105885,0.28503502
38015,0,USNorthDakotaBurleigh,North Dakota,Burleigh,2021-01-05 14:06:55.570837,2020-04-12 00:00:00.000000,0.04808013,0.09518496,0.14850206,45,91,142,23,44,79,0.02459699,0.04676334,0.08320869,0.11397287,0.16913757,0.26552578
38015,0,USNorthDakotaBurleigh,North Dakota,Burleigh,2021-01-05 14:06:55.570837,2020-04-13 00:00:00.000000,0.05041973,0.09863121,0.14899932,48,94,142,24,45,80,0.02528155,0.04708474,0.08425049,0.11473823,0.16657309,0.25212664
38015,0,USNorthDakotaBurleigh,North Dakota,Burleigh,2021-01-05 14:06:55.570837,2020-04-14 00:00:00.000000,0.05336743,0.10000607,0.14926613,51,95,142,25,45,81,0.02615028,0.04803922,0.08502627,0.11248171,0.16062630,0.24533576
38015,0,USNorthDakotaBurleigh,North Dakota,Burleigh,2021-01-05 14:06:55.570837,2020-04-15 00:00:00.000000,0.05679310,0.10112209,0.14944287,54,96,142,25,46,81,0.02715007,0.04869816,0.08559279,0.11032672,0.15889766,0.24388481
38015,0,USNorthDakotaBurleigh,North Dakota,Burleigh,2021-01-05 14:06:55.570837,2020-04-16 00:00:00.000000,0.05796282,0.10248160,0.14963426,55,97,143,26,47,83,0.02746071,0.04972541,0.08686625,0.10712571,0.15778667,0.25589791
38015,0,USNorthDakotaBurleigh,North Dakota,Burleigh,2021-01-05 14:06:55.570837,2020-04-17 00:00:00.000000,0.06072637,0.10314077,0.14968690,58,98,143,26,48,84,0.02753960,0.05070190,0.08845786,0.10222242,0.15838766,0.25573721
38015,0,USNorthDakotaBurleigh,North Dakota,Burleigh,2021-01-05 14:06:55.570837,2020-04-18 00:00:00.000000,0.06192558,0.10427682,0.15208981,59,99,145,26,49,86,0.02757724,0.05157308,0.09000071,0.09754707,0.15666855,0.24362251
38015,0,USNorthDakotaBurleigh,North Dakota,Burleigh,2021-01-05 14:06:55.570837,2020-04-19 00:00:00.000000,0.06300233,0.10426040,0.15558976,60,99,148,26,50,86,0.02757436,0.05233973,0.09077467,0.09416487,0.15751146,0.24448163
38015,0,USNorthDakotaBurleigh,North Dakota,Burleigh,2021-01-05 14:06:55.570837,2020-04-20 00:00:00.000000,0.06393968,0.10540534,0.15917508,61,100,152,26,50,86,0.02793952,0.05310567,0.09046754,0.09329713,0.15746260,0.25334451
38015,0,USNorthDakotaBurleigh,North Dakota,Burleigh,2021-01-05 14:06:55.570837,2020-04-21 00:00:00.000000,0.06344770,0.10527824,0.16272386,60,100,155,26,51,85,0.02793832,0.05340480,0.08978816,0.08990890,0.15751935,0.24965751
38015,0,USNorthDakotaBurleigh,North Dakota,Burleigh,2021-01-05 14:06:55.570837,2020-04-22 00:00:00.000000,0.06649438,0.10494032,0.16622383,63,100,158,27,51,84,0.02867498,0.05361647,0.08884471,0.09074597,0.15603626,0.24339986
38015,0,USNorthDakotaBurleigh,North Dakota,Burleigh,2021-01-05 14:06:55.570837,2020-04-23 00:00:00.000000,0.06664922,0.10369173,0.16958759,63,99,162,27,51,83,0.02874225,0.05373319,0.08775066,0.09003299,0.15499715,0.24131409
38015,0,USNorthDakotaBurleigh,North Dakota,Burleigh,2021-01-05 14:06:55.570837,2020-04-24 00:00:00.000000,0.06571920,0.10500281,0.17259517,62,100,165,27,51,83,0.02858709,0.05391716,0.08725858,0.08957360,0.15469944,0.24934775
38015,0,USNorthDakotaBurleigh,North Dakota,Burleigh,2021-01-05 14:06:55.570837,2020-04-25 00:00:00.000000,0.06479383,0.10593048,0.17506007,61,101,167,27,51,85,0.02832190,0.05394547,0.08904690,0.08951711,0.15481614,0.23461641
38015,0,USNorthDakotaBurleigh,North Dakota,Burleigh,2021-01-05 14:06:55.570837,2020-04-26 00:00:00.000000,0.06384937,0.10526557,0.17584049,61,100,168,26,51,86,0.02798456,0.05400627,0.09067969,0.09266916,0.15279218,0.23070182
38015,0,USNorthDakotaBurleigh,North Dakota,Burleigh,2021-01-05 14:06:55.570837,2020-04-27 00:00:00.000000,0.06392375,0.10574346,0.17598758,61,101,168,26,52,88,0.02763416,0.05442982,0.09214614,0.09271827,0.15236731,0.22777746
38015,0,USNorthDakotaBurleigh,North Dakota,Burleigh,2021-01-05 14:06:55.570837,2020-04-28 00:00:00.000000,0.06286721,0.10675421,0.17574858,60,102,168,26,52,88,0.02766255,0.05454711,0.09298468,0.08917736,0.15264712,0.22614883
38015,0,USNorthDakotaBurleigh,North Dakota,Burleigh,2021-01-05 14:06:55.570837,2020-04-29 00:00:00.000000,0.06191864,0.10668741,0.17481089,59,102,167,26,52,89,0.02771348,0.05444609,0.09338069,0.08520114,0.15340576,0.22531816
38015,0,USNorthDakotaBurleigh,North Dakota,Burleigh,2021-01-05 14:06:55.570837,2020-04-30 00:00:00.000000,0.06173830,0.10722055,0.17372462,59,102,166,26,51,89,0.02780305,0.05419005,0.09346315,0.08760947,0.15393064,0.23032521
38015,0,USNorthDakotaBurleigh,North Dakota,Burleigh,2021-01-05 14:06:55.570837,2020-05-01 00:00:00.000000,0.06016305,0.10848822,0.17277431,57,103,165,26,51,89,0.02790885,0.05428982,0.09331485,0.08876198,0.15473267,0.24214182
38015,0,USNorthDakotaBurleigh,North Dakota,Burleigh,2021-01-05 14:06:55.570837,2020-05-02 00:00:00.000000,0.05877768,0.10762976,0.17353099,56,102,165,27,52,88,0.02832992,0.05453049,0.09299051,0.08916289,0.15270565,0.24378827
38015,0,USNorthDakotaBurleigh,North Dakota,Burleigh,2021-01-05 14:06:55.570837,2020-05-03 00:00:00.000000,0.05763482,0.10804943,0.17194283,55,103,164,27,52,88,0.02894506,0.05514823,0.09253554,0.10013484,0.15138257,0.23975250
38015,0,USNorthDakotaBurleigh,North Dakota,Burleigh,2021-01-05 14:06:55.570837,2020-05-04 00:00:00.000000,0.05860323,0.10831689,0.17317128,56,103,165,27,53,88,0.02842322,0.05564603,0.09221005,0.09728229,0.15359071,0.22112731
38015,0,USNorthDakotaBurleigh,North Dakota,Burleigh,2021-01-05 14:06:55.570837,2020-05-05 00:00:00.000000,0.05971006,0.10797866,0.17711515,57,103,169,27,53,88,0.02832588,0.05565211,0.09228347,0.09489651,0.15752146,0.22759914
38015,0,USNorthDakotaBurleigh,North Dakota,Burleigh,2021-01-05 14:06:55.570837,2020-05-06 00:00:00.000000,0.06092804,0.10687923,0.18046543,58,102,172,27,53,87,0.02841549,0.05564752,0.09159126,0.09497019,0.15822647,0.22770533
38015,0,USNorthDakotaBurleigh,North Dakota,Burleigh,2021-01-05 14:06:55.570837,2020-05-07 00:00:00.000000,0.06220548,0.10679685,0.18050035,59,102,172,27,53,87,0.02849855,0.05568807,0.09161126,0.09830761,0.15779180,0.22529584
38015,0,USNorthDakotaBurleigh,North Dakota,Burleigh,2021-01-05 14:06:55.570837,2020-05-08 00:00:00.000000,0.06351303,0.10786788,0.18022434,60,103,172,27,53,87,0.02856717,0.05555520,0.09171066,0.10459719,0.16110565,0.23405106
38015,0,USNorthDakotaBurleigh,North Dakota,Burleigh,2021-01-05 14:06:55.570837,2020-05-09 00:00:00.000000,0.06412000,0.10825516,0.17945352,61,103,171,27,53,87,0.02862675,0.05573112,0.09186005,0.10461395,0.16552087,0.22967715
38015,0,USNorthDakotaBurleigh,North Dakota,Burleigh,2021-01-05 14:06:55.570837,2020-05-10 00:00:00.000000,0.06487895,0.10760319,0.17804611,62,102,170,27,53,88,0.02872931,0.05562044,0.09203756,0.10416063,0.16921384,0.22554647
38015,0,USNorthDakotaBurleigh,North Dakota,Burleigh,2021-01-05 14:06:55.570837,2020-05-11 00:00:00.000000,0.06548951,0.11036660,0.17670409,62,105,168,27,52,88,0.02889252,0.05537895,0.09222764,0.10262622,0.16879577,0.22280711
38015,0,USNorthDakotaBurleigh,North Dakota,Burleigh,2021-01-05 14:06:55.570837,2020-05-12 00:00:00.000000,0.06499997,0.11113507,0.17706550,62,106,169,28,53,88,0.02954892,0.05574340,0.09287266,0.09844675,0.16678422,0.22116346
38015,0,USNorthDakotaBurleigh,North Dakota,Burleigh,2021-01-05 14:06:55.570837,2020-05-13 00:00:00.000000,0.06399354,0.11193992,0.17837898,61,107,170,28,53,88,0.03029176,0.05599014,0.09262694,0.09617890,0.17138999,0.22028519
38015,0,USNorthDakotaBurleigh,North Dakota,Burleigh,2021-01-05 14:06:55.570837,2020-05-14 00:00:00.000000,0.06259280,0.11277813,0.17971535,59,107,171,28,53,88,0.03026802,0.05641356,0.09222854,0.09563340,0.17698400,0.22546148
38015,0,USNorthDakotaBurleigh,North Dakota,Burleigh,2021-01-05 14:06:55.570837,2020-05-15 00:00:00.000000,0.06142705,0.11365469,0.18108864,58,108,173,28,54,87,0.03017437,0.05651997,0.09196798,0.10457095,0.17915719,0.23430655
38015,0,USNorthDakotaBurleigh,North Dakota,Burleigh,2021-01-05 14:06:55.570837,2020-05-16 00:00:00.000000,0.06139708,0.11454376,0.18250937,58,109,174,28,54,87,0.03003204,0.05708944,0.09181897,0.10760347,0.17838310,0.24374360
38015,0,USNorthDakotaBurleigh,North Dakota,Burleigh,2021-01-05 14:06:55.570837,2020-05-17 00:00:00.000000,0.06142823,0.11481583,0.18397815,58,109,175,28,54,87,0.02985272,0.05738628,0.09177979,0.10828006,0.18103674,0.25157186
38015,0,USNorthDakotaBurleigh,North Dakota,Burleigh,2021-01-05 14:06:55.570837,2020-05-18 00:00:00.000000,0.06198095,0.11543083,0.18486720,59,110,176,28,55,88,0.02963188,0.05800164,0.09236647,0.10853103,0.18147453,0.26108901
38015,0,USNorthDakotaBurleigh,North Dakota,Burleigh,2021-01-05 14:06:55.570837,2020-05-19 00:00:00.000000,0.06158808,0.11712876,0.18607176,58,112,177,28,56,88,0.02944188,0.05878199,0.09270604,0.10902040,0.18330234,0.26762811
38015,0,USNorthDakotaBurleigh,North Dakota,Burleigh,2021-01-05 14:06:55.570837,2020-05-20 00:00:00.000000,0.06134999,0.11808789,0.18852298,58,112,180,27,57,89,0.02926344,0.05961101,0.09343487,0.11006996,0.18547048,0.27301137
38015,0,USNorthDakotaBurleigh,North Dakota,Burleigh,2021-01-05 14:06:55.570837,2020-05-21 00:00:00.000000,0.06270724,0.11965273,0.19090768,59,114,182,27,57,90,0.02909241,0.06028033,0.09462126,0.11145611,0.18844581,0.27829711
38015,0,USNorthDakotaBurleigh,North Dakota,Burleigh,2021-01-05 14:06:55.570837,2020-05-22 00:00:00.000000,0.06406184,0.12094892,0.19319212,61,115,184,27,58,91,0.02901200,0.06101957,0.09616411,0.11528889,0.19177369,0.29204697
38015,0,USNorthDakotaBurleigh,North Dakota,Burleigh,2021-01-05 14:06:55.570837,2020-05-23 00:00:00.000000,0.06542408,0.12388211,0.19534402,62,118,186,28,59,93,0.02987552,0.06195344,0.09788326,0.11773732,0.19901350,0.29894703
38015,0,USNorthDakotaBurleigh,North Dakota,Burleigh,2021-01-05 14:06:55.570837,2020-05-24 00:00:00.000000,0.06681744,0.12598661,0.19744053,63,120,188,29,60,95,0.03082333,0.06285828,0.09975275,0.12703515,0.20367615,0.30163838
38015,0,USNorthDakotaBurleigh,North Dakota,Burleigh,2021-01-05 14:06:55.570837,2020-05-25 00:00:00.000000,0.06827173,0.12849012,0.20252091,65,122,193,30,61,97,0.03184777,0.06400745,0.10178812,0.13249157,0.21087139,0.30936129
38015,0,USNorthDakotaBurleigh,North Dakota,Burleigh,2021-01-05 14:06:55.570837,2020-05-26 00:00:00.000000,0.07006329,0.13013581,0.21157543,66,124,202,31,62,99,0.03316883,0.06489874,0.10365376,0.13260677,0.21737448,0.31596610
38015,0,USNorthDakotaBurleigh,North Dakota,Burleigh,2021-01-05 14:06:55.570837,2020-05-27 00:00:00.000000,0.07069606,0.13428329,0.21182908,67,128,202,33,63,100,0.03475836,0.06652676,0.10545499,0.13318754,0.22127424,0.31658496
38015,0,USNorthDakotaBurleigh,North Dakota,Burleigh,2021-01-05 14:06:55.570837,2020-05-28 00:00:00.000000,0.07127540,0.13843414,0.21050594,68,132,201,34,65,102,0.03658195,0.06799282,0.10723755,0.13506790,0.22722750,0.31455171
38015,0,USNorthDakotaBurleigh,North Dakota,Burleigh,2021-01-05 14:06:55.570837,2020-05-29 00:00:00.000000,0.07192433,0.14374844,0.21533227,68,137,205,36,66,104,0.03778096,0.06975044,0.10916793,0.13995343,0.23558403,0.31663002
38015,0,USNorthDakotaBurleigh,North Dakota,Burleigh,2021-01-05 14:06:55.570837,2020-05-30 00:00:00.000000,0.07402704,0.14860875,0.22139440,70,142,211,37,68,109,0.03893551,0.07167138,0.11401322,0.14706141,0.24828288,0.32686055
38015,0,USNorthDakotaBurleigh,North Dakota,Burleigh,2021-01-05 14:06:55.570837,2020-05-31 00:00:00.000000,0.07729686,0.15217826,0.23161457,73,145,221,38,71,109,0.04026996,0.07442914,0.11446046,0.15184013,0.25755322,0.35115338
38015,0,USNorthDakotaBurleigh,North Dakota,Burleigh,2021-01-05 14:06:55.570837,2020-06-01 00:00:00.000000,0.08325341,0.16174192,0.24058459,79,154,230,39,73,110,0.04182098,0.07717699,0.11543666,0.16627881,0.26690826,0.36703329
38015,0,USNorthDakotaBurleigh,North Dakota,Burleigh,2021-01-05 14:06:55.570837,2020-06-02 00:00:00.000000,0.08865562,0.16660144,0.24983808,84,159,238,42,75,113,0.04407669,0.07907782,0.11824986,0.17839287,0.27644256,0.38090030
38015,0,USNorthDakotaBurleigh,North Dakota,Burleigh,2021-01-05 14:06:55.570837,2020-06-03 00:00:00.000000,0.09493298,0.17408621,0.25936122,90,166,248,44,76,117,0.04641874,0.08044443,0.12254049,0.18405087,0.28465390,0.39968664
38015,0,USNorthDakotaBurleigh,North Dakota,Burleigh,2021-01-05 14:06:55.570837,2020-06-04 00:00:00.000000,0.09715276,0.17995855,0.26922381,92,172,257,45,78,121,0.04723968,0.08191166,0.12723464,0.18921670,0.29688019,0.42300203
38015,0,USNorthDakotaBurleigh,North Dakota,Burleigh,2021-01-05 14:06:55.570837,2020-06-05 00:00:00.000000,0.09971268,0.18783686,0.27974549,95,179,267,46,81,126,0.04817459,0.08494394,0.13208802,0.20218081,0.30698986,0.44916015
38015,0,USNorthDakotaBurleigh,North Dakota,Burleigh,2021-01-05 14:06:55.570837,2020-06-06 00:00:00.000000,0.10352168,0.19675133,0.29218431,98,188,279,47,85,131,0.04924443,0.08930866,0.13702417,0.21080909,0.31178472,0.45927146
38015,0,USNorthDakotaBurleigh,North Dakota,Burleigh,2021-01-05 14:06:55.570837,2020-06-07 00:00:00.000000,0.10779999,0.20722626,0.30799324,103,198,294,48,89,135,0.05051007,0.09335888,0.14208222,0.21458617,0.32069797,0.47081791
38015,0,USNorthDakotaBurleigh,North Dakota,Burleigh,2021-01-05 14:06:55.570837,2020-06-08 00:00:00.000000,0.11431347,0.21501718,0.32026302,109,205,306,49,93,140,0.05203341,0.09823871,0.14726077,0.21663263,0.32747636,0.47364117
38015,0,USNorthDakotaBurleigh,North Dakota,Burleigh,2021-01-05 14:06:55.570837,2020-06-09 00:00:00.000000,0.12185361,0.22535128,0.33667522,116,215,321,51,98,146,0.05372762,0.10333037,0.15348098,0.21904665,0.33628666,0.47457538
38015,0,USNorthDakotaBurleigh,North Dakota,Burleigh,2021-01-05 14:06:55.570837,2020-06-10 00:00:00.000000,0.12982280,0.23332998,0.35470971,124,223,339,53,103,152,0.05561231,0.10781490,0.15995027,0.22258606,0.34468108,0.49398419
38015,0,USNorthDakotaBurleigh,North Dakota,Burleigh,2021-01-05 14:06:55.570837,2020-06-11 00:00:00.000000,0.13824878,0.24428994,0.37330530,132,233,356,55,107,158,0.05770080,0.11197286,0.16625989,0.23847962,0.35239263,0.52582997
38015,0,USNorthDakotaBurleigh,North Dakota,Burleigh,2021-01-05 14:06:55.570837,2020-06-12 00:00:00.000000,0.14169237,0.25683134,0.39225453,135,245,375,57,111,164,0.06001817,0.11670657,0.17249847,0.24657857,0.36636058,0.52498030
38015,0,USNorthDakotaBurleigh,North Dakota,Burleigh,2021-01-05 14:06:55.570837,2020-06-13 00:00:00.000000,0.14427826,0.27118960,0.41119724,137,259,393,59,115,171,0.06264446,0.12053797,0.17942247,0.24983617,0.37202493,0.52853982
38015,0,USNorthDakotaBurleigh,North Dakota,Burleigh,2021-01-05 14:06:55.570837,2020-06-14 00:00:00.000000,0.14761440,0.28505095,0.42990741,141,272,411,62,120,181,0.06566330,0.12604892,0.19014130,0.25778192,0.38327326,0.52915928
38015,0,USNorthDakotaBurleigh,North Dakota,Burleigh,2021-01-05 14:06:55.570837,2020-06-15 00:00:00.000000,0.15914968,0.29937084,0.44931631,152,286,429,66,127,190,0.06993149,0.13316817,0.19948660,0.27245707,0.39066749,0.53212079
38015,0,USNorthDakotaBurleigh,North Dakota,Burleigh,2021-01-05 14:06:55.570837,2020-06-16 00:00:00.000000,0.17279948,0.31494146,0.47068466,165,301,450,71,134,201,0.07468199,0.14038973,0.21079911,0.28348716,0.39835408,0.53679528
38015,0,USNorthDakotaBurleigh,North Dakota,Burleigh,2021-01-05 14:06:55.570837,2020-06-17 00:00:00.000000,0.18903282,0.33527981,0.49713540,180,320,475,76,140,213,0.07988471,0.14726884,0.22298295,0.30087446,0.40665051,0.54131569
38015,0,USNorthDakotaBurleigh,North Dakota,Burleigh,2021-01-05 14:06:55.570837,2020-06-18 00:00:00.000000,0.20740670,0.35775757,0.53233024,198,342,509,82,150,225,0.08578966,0.15738663,0.23619218,0.30612040,0.41058936,0.55061133
38015,0,USNorthDakotaBurleigh,North Dakota,Burleigh,2021-01-05 14:06:55.570837,2020-06-19 00:00:00.000000,0.22743086,0.38048761,0.56860828,217,363,543,88,160,243,0.09216135,0.16732718,0.25413171,0.31187920,0.41780020,0.59053657
38015,0,USNorthDakotaBurleigh,North Dakota,Burleigh,2021-01-05 14:06:55.570837,2020-06-20 00:00:00.000000,0.24881772,0.40578212,0.60758733,237,388,581,94,169,261,0.09911157,0.17728181,0.27359285,0.31838573,0.43777838,0.61542863
38015,0,USNorthDakotaBurleigh,North Dakota,Burleigh,2021-01-05 14:06:55.570837,2020-06-21 00:00:00.000000,0.27147593,0.43695101,0.65668319,259,417,627,102,180,280,0.10679492,0.18858525,0.29379877,0.32489722,0.44443240,0.62397002
38015,0,USNorthDakotaBurleigh,North Dakota,Burleigh,2021-01-05 14:06:55.570837,2020-06-22 00:00:00.000000,0.28852031,0.46683124,0.69602855,275,446,665,110,191,300,0.11540262,0.20033778,0.31467487,0.32380002,0.44599598,0.62997463
38015,0,USNorthDakotaBurleigh,North Dakota,Burleigh,2021-01-05 14:06:55.570837,2020-06-23 00:00:00.000000,0.30693125,0.50449066,0.73138498,293,482,699,119,203,322,0.12543410,0.21331266,0.33677466,0.32063418,0.45617866,0.65282461
38015,0,USNorthDakotaBurleigh,North Dakota,Burleigh,2021-01-05 14:06:55.570837,2020-06-24 00:00:00.000000,0.32631767,0.53966098,0.78715633,312,516,752,130,217,344,0.13698345,0.22737420,0.35993932,0.32315151,0.46040029,0.66848993
38015,0,USNorthDakotaBurleigh,North Dakota,Burleigh,2021-01-05 14:06:55.570837,2020-06-25 00:00:00.000000,0.34719750,0.57287856,0.84310193,332,547,806,143,231,367,0.15012385,0.24244528,0.38410194,0.32896827,0.46038115,0.66729698
38015,0,USNorthDakotaBurleigh,North Dakota,Burleigh,2021-01-05 14:06:55.570837,2020-06-26 00:00:00.000000,0.37990115,0.60629472,0.89918912,363,579,859,157,247,391,0.16480644,0.25921968,0.40922557,0.32949152,0.45419164,0.62097381
38015,0,USNorthDakotaBurleigh,North Dakota,Burleigh,2021-01-05 14:06:55.570837,2020-06-27 00:00:00.000000,0.41445543,0.64523506,0.95711947,396,617,915,168,265,419,0.17583609,0.27759346,0.43863136,0.33657545,0.45603282,0.61968136
38015,0,USNorthDakotaBurleigh,North Dakota,Burleigh,2021-01-05 14:06:55.570837,2020-06-28 00:00:00.000000,0.45155447,0.69427277,1.01843043,431,663,973,176,283,445,0.18443456,0.29625242,0.46554926,0.34154818,0.45598388,0.62514977
38015,0,USNorthDakotaBurleigh,North Dakota,Burleigh,2021-01-05 14:06:55.570837,2020-06-29 00:00:00.000000,0.48965780,0.75202242,1.09258477,468,719,1044,192,301,471,0.20155219,0.31550175,0.49343137,0.34450468,0.45759452,0.62696868
38015,0,USNorthDakotaBurleigh,North Dakota,Burleigh,2021-01-05 14:06:55.570837,2020-06-30 00:00:00.000000,0.53052650,0.80367669,1.16716955,507,768,1116,210,320,495,0.21969630,0.33562929,0.51777715,0.33103745,0.46112757,0.62727012
38015,0,USNorthDakotaBurleigh,North Dakota,Burleigh,2021-01-05 14:06:55.570837,2020-07-01 00:00:00.000000,0.57404688,0.86247161,1.24205530,548,824,1187,228,341,525,0.23891420,0.35761554,0.54947345,0.32277128,0.45974416,0.62675796
38015,0,USNorthDakotaBurleigh,North Dakota,Burleigh,2021-01-05 14:06:55.570837,2020-07-02 00:00:00.000000,0.62028051,0.92213710,1.31932158,593,881,1261,247,365,558,0.25830734,0.38248904,0.58434517,0.32164372,0.45501611,0.62510802
38015,0,USNorthDakotaBurleigh,North Dakota,Burleigh,2021-01-05 14:06:55.570837,2020-07-03 00:00:00.000000,0.66073934,0.97673150,1.40314813,631,934,1341,260,391,589,0.27283395,0.40895708,0.61633306,0.32895857,0.45296887,0.62117306
38015,0,USNorthDakotaBurleigh,North Dakota,Burleigh,2021-01-05 14:06:55.570837,2020-07-04 00:00:00.000000,0.70066198,1.03088135,1.49606752,670,985,1430,275,417,620,0.28799543,0.43665069,0.64926722,0.31946695,0.45106013,0.60832794
38015,0,USNorthDakotaBurleigh,North Dakota,Burleigh,2021-01-05 14:06:55.570837,2020-07-05 00:00:00.000000,0.74569549,1.09925618,1.59509985,713,1051,1525,292,443,660,0.30535858,0.46358889,0.69102318,0.31795407,0.44498048,0.58375336
38015,0,USNorthDakotaBurleigh,North Dakota,Burleigh,2021-01-05 14:06:55.570837,2020-07-06 00:00:00.000000,0.79546341,1.17806029,1.70030294,760,1126,1625,314,473,702,0.32923596,0.49466863,0.73451352,0.31670641,0.43877177,0.56961332
38015,0,USNorthDakotaBurleigh,North Dakota,Burleigh,2021-01-05 14:06:55.570837,2020-07-07 00:00:00.000000,0.84274984,1.25245595,1.81149064,805,1197,1732,337,507,745,0.35246622,0.53099947,0.77919078,0.31549316,0.43658334,0.56305432
38015,0,USNorthDakotaBurleigh,North Dakota,Burleigh,2021-01-05 14:06:55.570837,2020-07-08 00:00:00.000000,0.89359955,1.34269865,1.91731310,854,1283,1833,358,540,788,0.37507424,0.56495882,0.82427821,0.31416289,0.42942923,0.56006273
38015,0,USNorthDakotaBurleigh,North Dakota,Burleigh,2021-01-05 14:06:55.570837,2020-07-09 00:00:00.000000,0.94544837,1.43400187,1.99546258,904,1371,1908,380,569,830,0.39753801,0.59552857,0.86885073,0.31256558,0.42073882,0.55863138
38015,0,USNorthDakotaBurleigh,North Dakota,Burleigh,2021-01-05 14:06:55.570837,2020-07-10 00:00:00.000000,0.99639327,1.50517986,2.10868046,952,1439,2016,401,604,871,0.42020953,0.63238124,0.91084049,0.29659152,0.40793883,0.55814145
38015,0,USNorthDakotaBurleigh,North Dakota,Burleigh,2021-01-05 14:06:55.570837,2020-07-11 00:00:00.000000,1.05884591,1.58698474,2.22776403,1012,1517,2130,423,641,906,0.44258874,0.67079097,0.94812548,0.29428273,0.39751326,0.55795815
38015,0,USNorthDakotaBurleigh,North Dakota,Burleigh,2021-01-05 14:06:55.570837,2020-07-12 00:00:00.000000,1.11588762,1.65200109,2.30540144,1067,1579,2204,444,675,937,0.46459215,0.70632165,0.98065098,0.29038530,0.38803606,0.55790554
38015,0,USNorthDakotaBurleigh,North Dakota,Burleigh,2021-01-05 14:06:55.570837,2020-07-13 00:00:00.000000,1.15717642,1.72031974,2.36522228,1106,1645,2261,466,714,986,0.48798962,0.74691439,1.03125189,0.28103167,0.37758471,0.55039543
38015,0,USNorthDakotaBurleigh,North Dakota,Burleigh,2021-01-05 14:06:55.570837,2020-07-14 00:00:00.000000,1.19972120,1.79771631,2.48898348,1147,1719,2380,490,756,1047,0.51302984,0.79082400,1.09536400,0.26768995,0.37068233,0.52993576
38015,0,USNorthDakotaBurleigh,North Dakota,Burleigh,2021-01-05 14:06:55.570837,2020-07-15 00:00:00.000000,1.24372718,1.86820508,2.59464527,1189,1786,2481,516,797,1108,0.53967300,0.83345896,1.15909968,0.26267450,0.36648357,0.48905162
38015,0,USNorthDakotaBurleigh,North Dakota,Burleigh,2021-01-05 14:06:55.570837,2020-07-16 00:00:00.000000,1.28971897,1.95508566,2.67525429,1233,1869,2558,543,841,1169,0.56786848,0.87954139,1.22273879,0.27411030,0.36084273,0.48633811
38015,0,USNorthDakotaBurleigh,North Dakota,Burleigh,2021-01-05 14:06:55.570837,2020-07-17 00:00:00.000000,1.34003892,2.02361883,2.75539206,1281,1935,2634,566,883,1230,0.59274059,0.92341100,1.28636860,0.27047062,0.35416892,0.49151759
38015,0,USNorthDakotaBurleigh,North Dakota,Burleigh,2021-01-05 14:06:55.570837,2020-07-18 00:00:00.000000,1.39172468,2.10088997,2.83384175,1330,2008,2709,588,924,1270,0.61491143,0.96648917,1.32878687,0.26871193,0.34978469,0.47334145
38015,0,USNorthDakotaBurleigh,North Dakota,Burleigh,2021-01-05 14:06:55.570837,2020-07-19 00:00:00.000000,1.45014334,2.17517874,2.88858925,1386,2080,2762,610,964,1308,0.63847949,1.00827749,1.36804153,0.26364498,0.34281099,0.45826551
38015,0,USNorthDakotaBurleigh,North Dakota,Burleigh,2021-01-05 14:06:55.570837,2020-07-20 00:00:00.000000,1.51248323,2.26422746,2.93906571,1446,2165,2810,634,993,1345,0.66383381,1.03932181,1.40709811,0.26238255,0.33866940,0.45589385
38015,0,USNorthDakotaBurleigh,North Dakota,Burleigh,2021-01-05 14:06:55.570837,2020-07-21 00:00:00.000000,1.57706273,2.35359183,2.98905950,1508,2250,2858,660,1030,1387,0.69103391,1.07750796,1.45068907,0.26175850,0.33460140,0.45358264
38015,0,USNorthDakotaBurleigh,North Dakota,Burleigh,2021-01-05 14:06:55.570837,2020-07-22 00:00:00.000000,1.63706583,2.42758188,3.03986734,1565,2321,2906,688,1076,1427,0.71982128,1.12576023,1.49294672,0.26246268,0.32623734,0.45150375
38015,0,USNorthDakotaBurleigh,North Dakota,Burleigh,2021-01-05 14:06:55.570837,2020-07-23 00:00:00.000000,1.67819734,2.48933133,3.09861311,1604,2380,2963,717,1119,1464,0.74986396,1.17115454,1.53134271,0.26500437,0.32111303,0.44962843
38015,0,USNorthDakotaBurleigh,North Dakota,Burleigh,2021-01-05 14:06:55.570837,2020-07-24 00:00:00.000000,1.71757034,2.55314769,3.17792164,1642,2441,3038,746,1156,1507,0.78090775,1.20971241,1.57609967,0.25963709,0.31698712,0.41367426
38015,0,USNorthDakotaBurleigh,North Dakota,Burleigh,2021-01-05 14:06:55.570837,2020-07-25 00:00:00.000000,1.75605142,2.62976915,3.26029438,1679,2514,3117,777,1193,1551,0.81279023,1.24782038,1.62257950,0.23800889,0.31223881,0.41735775
38015,0,USNorthDakotaBurleigh,North Dakota,Burleigh,2021-01-05 14:06:55.570837,2020-07-26 00:00:00.000000,1.79424813,2.70904312,3.35401174,1715,2590,3207,808,1231,1597,0.84533485,1.28735146,1.67056450,0.21754377,0.30341224,0.42131702
38015,0,USNorthDakotaBurleigh,North Dakota,Burleigh,2021-01-05 14:06:55.570837,2020-07-27 00:00:00.000000,1.83769205,2.76520222,3.43558441,1757,2644,3285,840,1257,1644,0.87858098,1.31513221,1.71988278,0.20960841,0.29635369,0.42399430
38015,0,USNorthDakotaBurleigh,North Dakota,Burleigh,2021-01-05 14:06:55.570837,2020-07-28 00:00:00.000000,1.88149873,2.84693208,3.50581024,1799,2722,3352,872,1280,1692,0.91231262,1.33908533,1.76989628,0.20751005,0.29622689,0.41928889
38015,0,USNorthDakotaBurleigh,North Dakota,Burleigh,2021-01-05 14:06:55.570837,2020-07-29 00:00:00.000000,1.92606637,2.91475058,3.60091717,1841,2787,3443,905,1312,1740,0.94671528,1.37271658,1.82044868,0.20698007,0.29757673,0.41315251
38015,0,USNorthDakotaBurleigh,North Dakota,Burleigh,2021-01-05 14:06:55.570837,2020-07-30 00:00:00.000000,1.97149688,2.95171910,3.69317583,1885,2822,3531,938,1345,1789,0.98192278,1.40655268,1.87089937,0.20678062,0.29566466,0.40394900
38015,0,USNorthDakotaBurleigh,North Dakota,Burleigh,2021-01-05 14:06:55.570837,2020-07-31 00:00:00.000000,2.01780350,2.98252142,3.78679537,1929,2852,3621,968,1384,1841,1.01259181,1.44760060,1.92603538,0.20564504,0.29066640,0.40005927
38015,0,USNorthDakotaBurleigh,North Dakota,Burleigh,2021-01-05 14:06:55.570837,2020-08-01 00:00:00.000000,2.06492634,3.04090018,3.87905763,1974,2907,3709,994,1408,1881,1.03985832,1.47315534,1.96706863,0.20403482,0.28681289,0.37959226
38015,0,USNorthDakotaBurleigh,North Dakota,Burleigh,2021-01-05 14:06:55.570837,2020-08-02 00:00:00.000000,2.11278795,3.10084422,3.96716171,2020,2965,3793,1019,1442,1923,1.06584814,1.50897050,2.01148071,0.20409647,0.28808057,0.37016323
38015,0,USNorthDakotaBurleigh,North Dakota,Burleigh,2021-01-05 14:06:55.570837,2020-08-03 00:00:00.000000,2.15854627,3.14003318,4.04887836,2064,3002,3871,1041,1477,1963,1.08904534,1.54468394,2.05321279,0.20308286,0.28730154,0.36067112
38015,0,USNorthDakotaBurleigh,North Dakota,Burleigh,2021-01-05 14:06:55.570837,2020-08-04 00:00:00.000000,2.20494936,3.20447479,4.14825705,2108,3064,3966,1052,1503,2000,1.10107037,1.57235625,2.09193648,0.20278683,0.28572682,0.36185493
38015,0,USNorthDakotaBurleigh,North Dakota,Burleigh,2021-01-05 14:06:55.570837,2020-08-05 00:00:00.000000,2.25188091,3.25937150,4.23899171,2153,3116,4053,1063,1545,2035,1.11243325,1.61589458,2.12889882,0.20392670,0.28142026,0.36242701
38015,0,USNorthDakotaBurleigh,North Dakota,Burleigh,2021-01-05 14:06:55.570837,2020-08-06 00:00:00.000000,2.29936672,3.33681783,4.32774667,2198,3190,4138,1074,1573,2069,1.12338675,1.64547864,2.16456034,0.20646583,0.28082309,0.36273976
38015,0,USNorthDakotaBurleigh,North Dakota,Burleigh,2021-01-05 14:06:55.570837,2020-08-07 00:00:00.000000,2.34743033,3.40412653,4.38962877,2244,3255,4197,1084,1594,2103,1.13421033,1.66745925,2.19951074,0.21141940,0.28128033,0.36222376
38015,0,USNorthDakotaBurleigh,North Dakota,Burleigh,2021-01-05 14:06:55.570837,2020-08-08 00:00:00.000000,2.39606166,3.45084796,4.43329167,2291,3299,4239,1097,1623,2137,1.14718621,1.69745388,2.23490741,0.21239306,0.27864696,0.36198532
38015,0,USNorthDakotaBurleigh,North Dakota,Burleigh,2021-01-05 14:06:55.570837,2020-08-09 00:00:00.000000,2.42636690,3.48506322,4.51343513,2320,3332,4316,1117,1654,2171,1.16900290,1.72989796,2.27118356,0.21358561,0.28030481,0.37615700
38015,0,USNorthDakotaBurleigh,North Dakota,Burleigh,2021-01-05 14:06:55.570837,2020-08-10 00:00:00.000000,2.44672581,3.52870827,4.59229670,2339,3374,4391,1137,1687,2207,1.18997592,1.76486315,2.30819665,0.21473958,0.27806050,0.38028830
38015,0,USNorthDakotaBurleigh,North Dakota,Burleigh,2021-01-05 14:06:55.570837,2020-08-11 00:00:00.000000,2.47161042,3.57202132,4.66082795,2363,3415,4456,1157,1724,2232,1.21079779,1.80378086,2.33436371,0.21542815,0.27683294,0.37561493
38015,0,USNorthDakotaBurleigh,North Dakota,Burleigh,2021-01-05 14:06:55.570837,2020-08-12 00:00:00.000000,2.49817931,3.61649240,4.70800845,2388,3458,4502,1177,1756,2262,1.23153429,1.83713721,2.36589687,0.21592220,0.27988582,0.38647640
38015,0,USNorthDakotaBurleigh,North Dakota,Burleigh,2021-01-05 14:06:55.570837,2020-08-13 00:00:00.000000,2.52561955,3.65897650,4.78417386,2415,3498,4574,1183,1788,2290,1.23804574,1.86990254,2.39540159,0.21220836,0.27774015,0.38621053
38015,0,USNorthDakotaBurleigh,North Dakota,Burleigh,2021-01-05 14:06:55.570837,2020-08-14 00:00:00.000000,2.55346179,3.69795717,4.82739159,2441,3536,4616,1191,1806,2324,1.24635082,1.88867707,2.43096628,0.21449356,0.27683578,0.37892244
38015,0,USNorthDakotaBurleigh,North Dakota,Burleigh,2021-01-05 14:06:55.570837,2020-08-15 00:00:00.000000,2.65087026,3.75302175,4.86119765,2534,3588,4648,1214,1824,2357,1.27047709,1.90829078,2.46541145,0.21496902,0.27505651,0.36456027
38015,0,USNorthDakotaBurleigh,North Dakota,Burleigh,2021-01-05 14:06:55.570837,2020-08-16 00:00:00.000000,2.75710973,3.79622582,4.88844331,2636,3630,4674,1239,1850,2385,1.29619668,1.93492359,2.49454458,0.21162330,0.27009001,0.38466631
38015,0,USNorthDakotaBurleigh,North Dakota,Burleigh,2021-01-05 14:06:55.570837,2020-08-17 00:00:00.000000,2.79227288,3.85679079,4.98897661,2670,3688,4770,1262,1869,2407,1.31974050,1.95496199,2.51784506,0.20667439,0.27046497,0.38564307
38015,0,USNorthDakotaBurleigh,North Dakota,Burleigh,2021-01-05 14:06:55.570837,2020-08-18 00:00:00.000000,2.81029524,3.88960636,5.12063741,2687,3719,4896,1274,1898,2425,1.33311598,1.98507420,2.53607684,0.20321306,0.27743461,0.38645749
38015,0,USNorthDakotaBurleigh,North Dakota,Burleigh,2021-01-05 14:06:55.570837,2020-08-19 00:00:00.000000,2.85457156,3.93825490,5.27206894,2729,3765,5041,1288,1927,2448,1.34777765,2.01535845,2.56092616,0.20106135,0.27633867,0.38656911
38015,0,USNorthDakotaBurleigh,North Dakota,Burleigh,2021-01-05 14:06:55.570837,2020-08-20 00:00:00.000000,2.97084616,3.98148845,5.35021717,2840,3807,5116,1303,1944,2490,1.36360421,2.03368382,2.60483908,0.20056808,0.27599655,0.38833982
38015,0,USNorthDakotaBurleigh,North Dakota,Burleigh,2021-01-05 14:06:55.570837,2020-08-21 00:00:00.000000,3.05225647,4.04144574,5.41281736,2918,3864,5176,1321,1953,2535,1.38187838,2.04312646,2.65178350,0.20109419,0.27636283,0.38977655
38015,0,USNorthDakotaBurleigh,North Dakota,Burleigh,2021-01-05 14:06:55.570837,2020-08-22 00:00:00.000000,3.10020082,4.08746064,5.54887601,2964,3908,5306,1358,1968,2588,1.42093204,2.05905373,2.70719383,0.21187278,0.27998046,0.39422576
38015,0,USNorthDakotaBurleigh,North Dakota,Burleigh,2021-01-05 14:06:55.570837,2020-08-23 00:00:00.000000,3.15059810,4.14373526,5.69261116,3012,3962,5443,1393,1991,2640,1.45718961,2.08250393,2.76105672,0.20792182,0.28521013,0.41362213
38015,0,USNorthDakotaBurleigh,North Dakota,Burleigh,2021-01-05 14:06:55.570837,2020-08-24 00:00:00.000000,3.21066367,4.21049476,5.84849687,3070,4026,5592,1408,2012,2691,1.47241136,2.10497931,2.81423528,0.20621904,0.29158945,0.41501663
38015,0,USNorthDakotaBurleigh,North Dakota,Burleigh,2021-01-05 14:06:55.570837,2020-08-25 00:00:00.000000,3.26119616,4.26551064,6.00659553,3118,4078,5743,1421,2023,2744,1.48660738,2.11568743,2.87055227,0.20960776,0.29341806,0.41333690
38015,0,USNorthDakotaBurleigh,North Dakota,Burleigh,2021-01-05 14:06:55.570837,2020-08-26 00:00:00.000000,3.27990661,4.30886807,6.08204130,3136,4120,5816,1436,2038,2836,1.50223177,2.13184307,2.96664057,0.21478662,0.29304552,0.40897526
38015,0,USNorthDakotaBurleigh,North Dakota,Burleigh,2021-01-05 14:06:55.570837,2020-08-27 00:00:00.000000,3.28880200,4.36434749,6.14189710,3144,4173,5873,1452,2074,2933,1.51880627,2.16947655,3.06720058,0.21496064,0.29452946,0.39940763
38015,0,USNorthDakotaBurleigh,North Dakota,Burleigh,2021-01-05 14:06:55.570837,2020-08-28 00:00:00.000000,3.30143330,4.46990570,6.27764898,3157,4274,6003,1469,2118,3029,1.53703828,2.21576370,3.16859305,0.21564510,0.29873098,0.39262031
38015,0,USNorthDakotaBurleigh,North Dakota,Burleigh,2021-01-05 14:06:55.570837,2020-08-29 00:00:00.000000,3.34199473,4.56620364,6.40279326,3195,4366,6122,1485,2146,3125,1.55317253,2.24508575,3.26874232,0.21675538,0.30520906,0.39469093
38015,0,USNorthDakotaBurleigh,North Dakota,Burleigh,2021-01-05 14:06:55.570837,2020-08-30 00:00:00.000000,3.44111256,4.64122330,6.50584351,3290,4438,6221,1501,2171,3220,1.57066646,2.27048281,3.36786033,0.21829358,0.30912267,0.39847791
38015,0,USNorthDakotaBurleigh,North Dakota,Burleigh,2021-01-05 14:06:55.570837,2020-08-31 00:00:00.000000,3.52681359,4.73565370,6.67396539,3372,4528,6382,1519,2181,3314,1.58928319,2.28106698,3.46637517,0.22155094,0.31117062,0.39843319
38015,0,USNorthDakotaBurleigh,North Dakota,Burleigh,2021-01-05 14:06:55.570837,2020-09-01 00:00:00.000000,3.59810159,4.80320210,6.79989815,3440,4593,6502,1540,2206,3408,1.61122837,2.30763061,3.56434209,0.22153858,0.31714497,0.38907369
38015,0,USNorthDakotaBurleigh,North Dakota,Burleigh,2021-01-05 14:06:55.570837,2020-09-02 00:00:00.000000,3.67159420,4.86746342,6.84445934,3510,4654,6545,1565,2237,3501,1.63692313,2.33976267,3.66210830,0.22345986,0.32119836,0.39855489
38015,0,USNorthDakotaBurleigh,North Dakota,Burleigh,2021-01-05 14:06:55.570837,2020-09-03 00:00:00.000000,3.72750292,4.93244497,6.88719861,3564,4716,6585,1592,2281,3595,1.66551245,2.38547950,3.75989492,0.22589706,0.32406409,0.40164573
38015,0,USNorthDakotaBurleigh,North Dakota,Burleigh,2021-01-05 14:06:55.570837,2020-09-04 00:00:00.000000,3.81809317,5.04172257,6.92937268,3651,4821,6626,1621,2333,3637,1.69618302,2.44044116,3.80397876,0.22636112,0.32520126,0.40306543
38015,0,USNorthDakotaBurleigh,North Dakota,Burleigh,2021-01-05 14:06:55.570837,2020-09-05 00:00:00.000000,3.89194482,5.17447747,6.97387410,3721,4948,6668,1652,2396,3674,1.72834667,2.50585395,3.84260048,0.22789629,0.32508220,0.40661107
38015,0,USNorthDakotaBurleigh,North Dakota,Burleigh,2021-01-05 14:06:55.570837,2020-09-06 00:00:00.000000,3.96744655,5.29540628,7.02604572,3793,5063,6718,1684,2462,3708,1.76188704,2.57490425,3.87789580,0.23094655,0.32904320,0.42492990
38015,0,USNorthDakotaBurleigh,North Dakota,Burleigh,2021-01-05 14:06:55.570837,2020-09-07 00:00:00.000000,4.04621444,5.42116086,7.08935487,3869,5184,6779,1716,2521,3740,1.79490038,2.63701394,3.91160875,0.23449450,0.33218616,0.43818623
38015,0,USNorthDakotaBurleigh,North Dakota,Burleigh,2021-01-05 14:06:55.570837,2020-09-08 00:00:00.000000,4.11944785,5.52978670,7.16611167,3939,5287,6852,1749,2572,3773,1.82937077,2.69019837,3.94602794,0.23759117,0.33446810,0.44375123
38015,0,USNorthDakotaBurleigh,North Dakota,Burleigh,2021-01-05 14:06:55.570837,2020-09-09 00:00:00.000000,4.22784166,5.63256010,7.33559798,4042,5386,7014,1784,2640,3808,1.86649791,2.76076598,3.98282618,0.24240717,0.33858073,0.44472316
38015,0,USNorthDakotaBurleigh,North Dakota,Burleigh,2021-01-05 14:06:55.570837,2020-09-10 00:00:00.000000,4.33939578,5.77201675,7.54922157,4149,5519,7219,1825,2698,3847,1.90865687,2.82171338,4.02304696,0.24754530,0.34126925,0.44026901
38015,0,USNorthDakotaBurleigh,North Dakota,Burleigh,2021-01-05 14:06:55.570837,2020-09-11 00:00:00.000000,4.40372785,5.89740772,7.78744814,4211,5639,7446,1869,2739,3889,1.95529580,2.86466617,4.06703866,0.24997581,0.34600346,0.43073543
38015,0,USNorthDakotaBurleigh,North Dakota,Burleigh,2021-01-05 14:06:55.570837,2020-09-12 00:00:00.000000,4.46732002,6.00377428,7.91825304,4271,5741,7571,1917,2789,3934,2.00527535,2.91727898,4.11453196,0.24898903,0.34988188,0.43558741
38015,0,USNorthDakotaBurleigh,North Dakota,Burleigh,2021-01-05 14:06:55.570837,2020-09-13 00:00:00.000000,4.53176541,6.08970264,8.01816460,4333,5823,7667,1967,2825,3982,2.05771540,2.95506327,4.16492988,0.25593851,0.35167468,0.42647476
38015,0,USNorthDakotaBurleigh,North Dakota,Burleigh,2021-01-05 14:06:55.570837,2020-09-14 00:00:00.000000,4.60560873,6.14358775,8.05784658,4404,5874,7705,2015,2875,4033,2.10744724,3.00700070,4.21754084,0.24619523,0.35017691,0.41701498
38015,0,USNorthDakotaBurleigh,North Dakota,Burleigh,2021-01-05 14:06:55.570837,2020-09-15 00:00:00.000000,4.68608165,6.24970861,8.25800975,4481,5976,7896,2056,2940,4084,2.15038719,3.07497637,4.27144745,0.24042144,0.35144332,0.42498953
38015,0,USNorthDakotaBurleigh,North Dakota,Burleigh,2021-01-05 14:06:55.570837,2020-09-16 00:00:00.000000,4.77494457,6.35330926,8.39578872,4566,6075,8028,2100,3022,4136,2.19642143,3.16101818,4.32607034,0.24012984,0.34842412,0.43319018
38015,0,USNorthDakotaBurleigh,North Dakota,Burleigh,2021-01-05 14:06:55.570837,2020-09-17 00:00:00.000000,4.88213478,6.44725691,8.61953075,4668,6165,8242,2147,3105,4189,2.24584421,3.24771554,4.38077971,0.24463453,0.34920624,0.43314534
38015,0,USNorthDakotaBurleigh,North Dakota,Burleigh,2021-01-05 14:06:55.570837,2020-09-18 00:00:00.000000,5.01342029,6.53229965,8.86804837,4794,6246,8480,2198,3187,4239,2.29912703,3.33285331,4.43383628,0.25390795,0.35091438,0.44413286
38015,0,USNorthDakotaBurleigh,North Dakota,Burleigh,2021-01-05 14:06:55.570837,2020-09-19 00:00:00.000000,5.16201556,6.62321705,9.07878732,4936,6333,8681,2253,3250,4289,2.35690163,3.39956338,4.48600839,0.25606387,0.34974282,0.44837592
38015,0,USNorthDakotaBurleigh,North Dakota,Burleigh,2021-01-05 14:06:55.570837,2020-09-20 00:00:00.000000,5.31925956,6.76337996,9.23030894,5086,6467,8826,2313,3317,4338,2.41958902,3.46905891,4.53708926,0.25578240,0.34344433,0.44217248
38015,0,USNorthDakotaBurleigh,North Dakota,Burleigh,2021-01-05 14:06:55.570837,2020-09-21 00:00:00.000000,5.37429704,6.89035739,9.34135681,5139,6588,8932,2360,3365,4351,2.46875326,3.51932482,4.55083356,0.25623211,0.34235770,0.45183330
38015,0,USNorthDakotaBurleigh,North Dakota,Burleigh,2021-01-05 14:06:55.570837,2020-09-22 00:00:00.000000,5.40988172,7.01645210,9.47411693,5173,6709,9059,2389,3408,4405,2.49930067,3.56441590,4.60673628,0.25392570,0.34198783,0.45765470
38015,0,USNorthDakotaBurleigh,North Dakota,Burleigh,2021-01-05 14:06:55.570837,2020-09-23 00:00:00.000000,5.46256601,7.18574976,9.67165362,5223,6871,9248,2416,3437,4484,2.52747086,3.59496949,4.68966179,0.25614185,0.34480820,0.46086680
38015,0,USNorthDakotaBurleigh,North Dakota,Burleigh,2021-01-05 14:06:55.570837,2020-09-24 00:00:00.000000,5.55448661,7.33368335,9.86943614,5311,7012,9437,2442,3472,4532,2.55445958,3.63101638,4.74000028,0.25826625,0.35360822,0.45950106
38015,0,USNorthDakotaBurleigh,North Dakota,Burleigh,2021-01-05 14:06:55.570837,2020-09-25 00:00:00.000000,5.68688204,7.48580408,10.06789615,5438,7158,9627,2470,3548,4579,2.58344747,3.71089920,4.78942985,0.25929559,0.35825018,0.46373431
38015,0,USNorthDakotaBurleigh,North Dakota,Burleigh,2021-01-05 14:06:55.570837,2020-09-26 00:00:00.000000,5.80659254,7.61986498,10.26920108,5552,7286,9820,2504,3587,4638,2.61916963,3.75119337,4.85054401,0.26245187,0.36205211,0.46503677
38015,0,USNorthDakotaBurleigh,North Dakota,Burleigh,2021-01-05 14:06:55.570837,2020-09-27 00:00:00.000000,5.86919812,7.70290864,10.47930522,5612,7365,10020,2547,3634,4712,2.66355256,3.80094960,4.92840600,0.26886093,0.36921885,0.48437107
38015,0,USNorthDakotaBurleigh,North Dakota,Burleigh,2021-01-05 14:06:55.570837,2020-09-28 00:00:00.000000,5.93943019,7.84678903,10.70577980,5679,7503,10237,2596,3702,4786,2.71537768,3.87167762,5.00513598,0.27097902,0.37802176,0.49232218
38015,0,USNorthDakotaBurleigh,North Dakota,Burleigh,2021-01-05 14:06:55.570837,2020-09-29 00:00:00.000000,6.02350344,8.02970407,10.99647814,5760,7678,10515,2651,3780,4860,2.77245882,3.95313243,5.08290617,0.28682078,0.38370929,0.50382386
38015,0,USNorthDakotaBurleigh,North Dakota,Burleigh,2021-01-05 14:06:55.570837,2020-09-30 00:00:00.000000,6.13558624,8.18601472,11.33640882,5867,7827,10840,2708,3856,4979,2.83247179,4.03258610,5.20738608,0.29814275,0.39525127,0.51414625
38015,0,USNorthDakotaBurleigh,North Dakota,Burleigh,2021-01-05 14:06:55.570837,2020-10-01 00:00:00.000000,6.29791770,8.39042748,11.69009388,6022,8023,11178,2767,3914,5124,2.89390117,4.09399836,5.35911266,0.31029972,0.40544827,0.52074755
38015,0,USNorthDakotaBurleigh,North Dakota,Burleigh,2021-01-05 14:06:55.570837,2020-10-02 00:00:00.000000,6.42123504,8.53720186,12.05030100,6140,8163,11523,2826,3989,5282,2.95579914,4.17240752,5.52415226,0.32097104,0.41069370,0.53900582
38015,0,USNorthDakotaBurleigh,North Dakota,Burleigh,2021-01-05 14:06:55.570837,2020-10-03 00:00:00.000000,6.48034523,8.82008971,12.41375773,6196,8434,11870,2885,4073,5449,3.01761441,4.26001287,5.69870078,0.34053134,0.42669473,0.55294031
38015,0,USNorthDakotaBurleigh,North Dakota,Burleigh,2021-01-05 14:06:55.570837,2020-10-04 00:00:00.000000,6.55718312,9.09881227,12.78038278,6270,8700,12221,2944,4171,5623,3.07919585,4.36254430,5.88048020,0.35252528,0.44267264,0.57691700
38015,0,USNorthDakotaBurleigh,North Dakota,Burleigh,2021-01-05 14:06:55.570837,2020-10-05 00:00:00.000000,6.68459393,9.44440171,13.02611180,6392,9031,12456,3003,4293,5806,3.14111541,4.48974586,6.07205661,0.36387362,0.45500676,0.59034959
38015,0,USNorthDakotaBurleigh,North Dakota,Burleigh,2021-01-05 14:06:55.570837,2020-10-06 00:00:00.000000,6.88190440,9.76547464,13.27648787,6580,9338,12695,3064,4434,6001,3.20468862,4.63713908,6.27583914,0.36330661,0.45904922,0.60635158
38015,0,USNorthDakotaBurleigh,North Dakota,Burleigh,2021-01-05 14:06:55.570837,2020-10-07 00:00:00.000000,7.12278058,9.99969964,13.62931808,6811,9562,13033,3129,4577,6205,3.27306614,4.78675198,6.48921816,0.36923039,0.46478363,0.61019908
38015,0,USNorthDakotaBurleigh,North Dakota,Burleigh,2021-01-05 14:06:55.570837,2020-10-08 00:00:00.000000,7.34204546,10.18587057,13.98385301,7020,9740,13372,3201,4716,6416,3.34783026,4.93183176,6.70992828,0.37256451,0.47233080,0.62872051
38015,0,USNorthDakotaBurleigh,North Dakota,Burleigh,2021-01-05 14:06:55.570837,2020-10-09 00:00:00.000000,7.58461201,10.57297168,14.35062683,7252,10110,13722,3277,4885,6636,3.42789530,5.10944794,6.93992861,0.38174768,0.47609815,0.62981986
38015,0,USNorthDakotaBurleigh,North Dakota,Burleigh,2021-01-05 14:06:55.570837,2020-10-10 00:00:00.000000,7.91053119,11.01158062,14.75403613,7564,10529,14108,3357,5020,6842,3.51150667,5.24996161,7.15592408,0.38338132,0.48445772,0.64556519
38015,0,USNorthDakotaBurleigh,North Dakota,Burleigh,2021-01-05 14:06:55.570837,2020-10-11 00:00:00.000000,8.19290429,11.35383800,15.22513690,7834,10857,14559,3439,5163,6984,3.59701695,5.39981205,7.30357091,0.39817396,0.48892006,0.70248885
38015,0,USNorthDakotaBurleigh,North Dakota,Burleigh,2021-01-05 14:06:55.570837,2020-10-12 00:00:00.000000,8.48799829,11.75153395,15.72541986,8116,11237,15037,3521,5315,7133,3.68265343,5.55839983,7.46003457,0.40140737,0.49104902,0.70369092
38015,0,USNorthDakotaBurleigh,North Dakota,Burleigh,2021-01-05 14:06:55.570837,2020-10-13 00:00:00.000000,8.80134967,12.11826131,16.34572806,8416,11588,15630,3603,5475,7407,3.76834158,5.72575631,7.74641609,0.39317106,0.49247845,0.70411174
38015,0,USNorthDakotaBurleigh,North Dakota,Burleigh,2021-01-05 14:06:55.570837,2020-10-14 00:00:00.000000,9.07153012,12.49127461,16.80963395,8674,11944,16074,3684,5644,7700,3.85294638,5.90267013,8.05285918,0.39124290,0.49458716,0.70464174
38015,0,USNorthDakotaBurleigh,North Dakota,Burleigh,2021-01-05 14:06:55.570837,2020-10-15 00:00:00.000000,9.32476578,12.86656637,17.26898483,8916,12303,16513,3836,5811,7996,4.01243403,6.07760908,8.36200361,0.39017024,0.49994513,0.70432485
38015,0,USNorthDakotaBurleigh,North Dakota,Burleigh,2021-01-05 14:06:55.570837,2020-10-16 00:00:00.000000,9.51533398,13.22914587,17.72484146,9099,12650,16949,3961,5988,8222,4.14276050,6.26262151,8.59894012,0.39024931,0.49879483,0.70365209
38015,0,USNorthDakotaBurleigh,North Dakota,Burleigh,2021-01-05 14:06:55.570837,2020-10-17 00:00:00.000000,9.71889636,13.55576300,18.17937808,9293,12962,17384,4077,6132,8448,4.26440089,6.41290508,8.83524153,0.38625354,0.50464664,0.70144583
38015,0,USNorthDakotaBurleigh,North Dakota,Burleigh,2021-01-05 14:06:55.570837,2020-10-18 00:00:00.000000,9.93762824,13.86312308,18.63208784,9502,13256,17817,4197,6240,8676,4.38899617,6.52619780,9.07365362,0.38795799,0.51122217,0.68660766
38015,0,USNorthDakotaBurleigh,North Dakota,Burleigh,2021-01-05 14:06:55.570837,2020-10-19 00:00:00.000000,10.14222598,14.12747605,19.07565938,9698,13509,18241,4329,6404,8904,4.52802418,6.69792092,9.31174795,0.36796219,0.51170143,0.66639340
38015,0,USNorthDakotaBurleigh,North Dakota,Burleigh,2021-01-05 14:06:55.570837,2020-10-20 00:00:00.000000,10.30773168,14.37832632,19.50184963,9856,13749,18648,4480,6541,9130,4.68523620,6.84118521,9.54803122,0.36554874,0.51124539,0.67606159
38015,0,USNorthDakotaBurleigh,North Dakota,Burleigh,2021-01-05 14:06:55.570837,2020-10-21 00:00:00.000000,10.48524979,14.61329164,19.90817007,10026,13974,19037,4614,6668,9321,4.82570854,6.97346305,9.74826652,0.37124027,0.52221129,0.67619462
38015,0,USNorthDakotaBurleigh,North Dakota,Burleigh,2021-01-05 14:06:55.570837,2020-10-22 00:00:00.000000,10.69120105,14.83074056,20.28929372,10223,14182,19401,4737,6829,9406,4.95439665,7.14192210,9.83652673,0.39549854,0.52492220,0.67489635
38015,0,USNorthDakotaBurleigh,North Dakota,Burleigh,2021-01-05 14:06:55.570837,2020-10-23 00:00:00.000000,10.91088374,15.06801691,20.64011246,10433,14408,19737,4856,6983,9470,5.07814828,7.30322506,9.90349760,0.39618432,0.53601629,0.67460538
38015,0,USNorthDakotaBurleigh,North Dakota,Burleigh,2021-01-05 14:06:55.570837,2020-10-24 00:00:00.000000,11.12602716,15.21856062,20.95431315,10639,14552,20037,4970,7103,9657,5.19798253,7.42817332,10.09970384,0.39686473,0.54602071,0.68268334
38015,0,USNorthDakotaBurleigh,North Dakota,Burleigh,2021-01-05 14:06:55.570837,2020-10-25 00:00:00.000000,11.33248225,15.44080725,21.22431937,10836,14765,20295,5081,7250,9843,5.31363131,7.58196721,10.29334223,0.39790354,0.54914460,0.69873962
38015,0,USNorthDakotaBurleigh,North Dakota,Burleigh,2021-01-05 14:06:55.570837,2020-10-26 00:00:00.000000,11.53196936,15.71635155,21.45113892,11027,15028,20512,5187,7438,9991,5.42443451,7.77913022,10.44893991,0.39988846,0.55850113,0.73509656
38015,0,USNorthDakotaBurleigh,North Dakota,Burleigh,2021-01-05 14:06:55.570837,2020-10-27 00:00:00.000000,11.72595071,16.13728561,21.63874768,11213,15431,20692,5287,7623,10190,5.52970152,7.97249768,10.65687073,0.40386200,0.57375802,0.74773919
38015,0,USNorthDakotaBurleigh,North Dakota,Burleigh,2021-01-05 14:06:55.570837,2020-10-28 00:00:00.000000,11.92336452,16.53679347,21.80472800,11401,15813,20850,5383,7767,10391,5.63003740,8.12311326,10.86685001,0.42735163,0.58309275,0.74675763
38015,0,USNorthDakotaBurleigh,North Dakota,Burleigh,2021-01-05 14:06:55.570837,2020-10-29 00:00:00.000000,12.13588394,16.85109204,21.98115170,11605,16114,21019,5475,7922,10591,5.72642305,8.28469730,11.07630014,0.42754155,0.59385496,0.74569199
38015,0,USNorthDakotaBurleigh,North Dakota,Burleigh,2021-01-05 14:06:55.570837,2020-10-30 00:00:00.000000,12.36854161,17.10915761,22.05352700,11827,16360,21088,5565,8069,10787,5.81996801,8.43898445,11.28135663,0.44014591,0.60698340,0.74436845
38015,0,USNorthDakotaBurleigh,North Dakota,Burleigh,2021-01-05 14:06:55.570837,2020-10-31 00:00:00.000000,12.61323914,17.37213158,22.39084972,12061,16612,21411,5653,8226,10976,5.91232318,8.60244850,11.47821672,0.46118981,0.62090435,0.75640399
38015,0,USNorthDakotaBurleigh,North Dakota,Burleigh,2021-01-05 14:06:55.570837,2020-11-01 00:00:00.000000,12.84961380,17.60748257,22.85824694,12287,16837,21858,5741,8371,11152,6.00370411,8.75483521,11.66300860,0.48298154,0.63195569,0.78569310
38015,0,USNorthDakotaBurleigh,North Dakota,Burleigh,2021-01-05 14:06:55.570837,2020-11-02 00:00:00.000000,13.02795133,17.76665167,23.28122673,12458,16989,22262,5827,8483,11317,6.09363234,8.87116815,11.83525220,0.49230481,0.64047412,0.81377261
38015,0,USNorthDakotaBurleigh,North Dakota,Burleigh,2021-01-05 14:06:55.570837,2020-11-03 00:00:00.000000,13.24133358,17.88430533,23.65745539,12662,17102,22622,5910,8594,11470,6.18121522,8.98785567,11.99490697,0.49538101,0.65137864,0.81464826
38015,0,USNorthDakotaBurleigh,North Dakota,Burleigh,2021-01-05 14:06:55.570837,2020-11-04 00:00:00.000000,13.43811201,17.97962009,23.96025251,12850,17193,22912,5991,8712,11611,6.26515643,9.11129007,12.14246881,0.48079572,0.65541423,0.85309188
38015,0,USNorthDakotaBurleigh,North Dakota,Burleigh,2021-01-05 14:06:55.570837,2020-11-05 00:00:00.000000,13.59683617,18.03528970,24.14281928,13002,17246,23086,6066,8842,11740,6.34390145,9.24685849,12.27770855,0.47442313,0.66513698,0.87689863
38015,0,USNorthDakotaBurleigh,North Dakota,Burleigh,2021-01-05 14:06:55.570837,2020-11-06 00:00:00.000000,13.71805033,18.09292505,24.22123836,13118,17301,23161,6135,8907,11855,6.41587787,9.31470385,12.39825661,0.47629635,0.67099158,0.89533575
38015,0,USNorthDakotaBurleigh,North Dakota,Burleigh,2021-01-05 14:06:55.570837,2020-11-07 00:00:00.000000,13.81750781,18.25686463,24.20305116,13213,17458,23144,6182,9010,11954,6.46567551,9.42273324,12.50119609,0.47781289,0.67095459,0.90840479
38015,0,USNorthDakotaBurleigh,North Dakota,Burleigh,2021-01-05 14:06:55.570837,2020-11-08 00:00:00.000000,13.86242152,18.20462875,24.23075452,13256,17408,23170,6210,9077,12033,6.49505533,9.49290315,12.58439316,0.47848743,0.67114219,0.91296082
38015,0,USNorthDakotaBurleigh,North Dakota,Burleigh,2021-01-05 14:06:55.570837,2020-11-09 00:00:00.000000,13.74053311,18.18707248,24.39865349,13139,17391,23331,6229,9114,12096,6.51397151,9.53096430,12.64931278,0.49902390,0.67920415,0.91112509
38015,0,USNorthDakotaBurleigh,North Dakota,Burleigh,2021-01-05 14:06:55.570837,2020-11-10 00:00:00.000000,13.58887212,18.15342328,24.40477759,12994,17359,23337,6237,9141,12148,6.52254378,9.55997469,12.70452418,0.50470786,0.69308169,0.91588313
38015,0,USNorthDakotaBurleigh,North Dakota,Burleigh,2021-01-05 14:06:55.570837,2020-11-11 00:00:00.000000,13.41052835,18.10502655,24.16287657,12823,17313,23105,6235,9158,12143,6.52037720,9.57740787,12.69915832,0.49757926,0.69644484,0.93716888
38015,0,USNorthDakotaBurleigh,North Dakota,Burleigh,2021-01-05 14:06:55.570837,2020-11-12 00:00:00.000000,13.20860357,17.94989139,23.84049240,12630,17164,22797,6222,9130,12244,6.50707146,9.54784472,12.80466771,0.49482426,0.70023647,0.97250770
38015,0,USNorthDakotaBurleigh,North Dakota,Burleigh,2021-01-05 14:06:55.570837,2020-11-13 00:00:00.000000,12.98676919,17.87752248,23.44209041,12418,17095,22416,6198,9133,12253,6.48199513,9.55121044,12.81449662,0.49627741,0.70482887,0.98488855
38015,0,USNorthDakotaBurleigh,North Dakota,Burleigh,2021-01-05 14:06:55.570837,2020-11-14 00:00:00.000000,12.74933068,17.69946197,22.99187391,12191,16925,21986,6162,9076,12191,6.44398193,9.49132910,12.74875421,0.50462330,0.70134375,1.03582073
38015,0,USNorthDakotaBurleigh,North Dakota,Burleigh,2021-01-05 14:06:55.570837,2020-11-15 00:00:00.000000,12.50107125,17.53673684,22.81576759,11954,16769,21817,6111,9034,12239,6.39127583,9.44788305,12.79947243,0.50623637,0.70863221,1.09914140
38015,0,USNorthDakotaBurleigh,North Dakota,Burleigh,2021-01-05 14:06:55.570837,2020-11-16 00:00:00.000000,12.24805871,17.37390862,22.68052934,11712,16613,21688,6045,8995,12273,6.32237386,9.40696259,12.83451377,0.51639244,0.71591784,1.15041585
38015,0,USNorthDakotaBurleigh,North Dakota,Burleigh,2021-01-05 14:06:55.570837,2020-11-17 00:00:00.000000,11.99800985,17.15658581,22.47693923,11473,16406,21493,5964,8970,12290,6.23688312,9.38083775,12.85247266,0.51342361,0.72125800,1.16541782
38015,0,USNorthDakotaBurleigh,North Dakota,Burleigh,2021-01-05 14:06:55.570837,2020-11-18 00:00:00.000000,11.76264337,16.86307649,22.21641294,11248,16125,21244,5868,8844,12289,6.13649705,9.24854351,12.85130362,0.51919343,0.72276327,1.18601914
38015,0,USNorthDakotaBurleigh,North Dakota,Burleigh,2021-01-05 14:06:55.570837,2020-11-19 00:00:00.000000,11.55220539,16.55132008,21.89910505,11046,15827,20941,5760,8704,12267,6.02365044,9.10214329,12.82877595,0.51938864,0.74151345,1.28330286
38015,0,USNorthDakotaBurleigh,North Dakota,Burleigh,2021-01-05 14:06:55.570837,2020-11-20 00:00:00.000000,11.36574019,16.22112081,21.52699769,10868,15511,20585,5642,8587,12182,5.90090003,8.97993863,12.73969031,0.52012416,0.75541923,1.31145739
38015,0,USNorthDakotaBurleigh,North Dakota,Burleigh,2021-01-05 14:06:55.570837,2020-11-21 00:00:00.000000,11.19077174,15.88652129,21.10353883,10701,15191,20180,5518,8452,12069,5.77068906,8.83911659,12.62113878,0.52162260,0.76264235,1.30623311
38015,0,USNorthDakotaBurleigh,North Dakota,Burleigh,2021-01-05 14:06:55.570837,2020-11-22 00:00:00.000000,11.01343252,15.46264370,20.63163425,10531,14786,19729,5388,8300,11926,5.63522561,8.68001172,12.47209014,0.49593553,0.75506332,1.30030588
38015,0,USNorthDakotaBurleigh,North Dakota,Burleigh,2021-01-05 14:06:55.570837,2020-11-23 00:00:00.000000,10.77321443,15.03578852,20.12098942,10301,14378,19240,5255,8131,11757,5.49627147,8.50347881,12.29544868,0.47928651,0.76022465,1.29844036
38015,0,USNorthDakotaBurleigh,North Dakota,Burleigh,2021-01-05 14:06:55.570837,2020-11-24 00:00:00.000000,10.42214518,14.56557909,19.57691055,9966,13928,18720,5120,7947,11563,5.35480075,8.31124509,12.09264096,0.46195749,0.75817913,1.30935160
38015,0,USNorthDakotaBurleigh,North Dakota,Burleigh,2021-01-05 14:06:55.570837,2020-11-25 00:00:00.000000,10.06799551,14.06252592,19.03337771,9627,13447,18200,4984,7750,11351,5.21283323,8.10467183,11.87027657,0.45390711,0.76360460,1.36256886
38015,0,USNorthDakotaBurleigh,North Dakota,Burleigh,2021-01-05 14:06:55.570837,2020-11-26 00:00:00.000000,9.71509408,13.62462246,18.41739949,9290,13028,17611,4848,7547,11174,5.07051283,7.89269024,11.68601642,0.45428831,0.74677598,1.40016158
38015,0,USNorthDakotaBurleigh,North Dakota,Burleigh,2021-01-05 14:06:55.570837,2020-11-27 00:00:00.000000,9.31689901,13.17605639,17.81071597,8909,12599,17031,4709,7375,10986,4.92541714,7.71295658,11.48855782,0.46577698,0.74466648,1.38173481
38015,0,USNorthDakotaBurleigh,North Dakota,Burleigh,2021-01-05 14:06:55.570837,2020-11-28 00:00:00.000000,9.00471396,12.64490354,17.19016134,8610,12091,16438,4516,7193,10769,4.72276316,7.52204959,11.26174698,0.46369767,0.77167256,1.36249174
38015,0,USNorthDakotaBurleigh,North Dakota,Burleigh,2021-01-05 14:06:55.570837,2020-11-29 00:00:00.000000,8.64908547,12.14372739,16.56019757,8270,11612,15835,4323,7000,10526,4.52156384,7.32041453,11.00815983,0.45243601,0.78829095,1.42937359
38015,0,USNorthDakotaBurleigh,North Dakota,Burleigh,2021-01-05 14:06:55.570837,2020-11-30 00:00:00.000000,8.29388515,11.65466504,15.92584211,7931,11144,15229,4134,6784,10324,4.32369581,7.09446157,10.79717959,0.44685882,0.76596283,1.51795274
38015,0,USNorthDakotaBurleigh,North Dakota,Burleigh,2021-01-05 14:06:55.570837,2020-12-01 00:00:00.000000,7.94679384,11.15201990,15.28790046,7599,10664,14619,3964,6531,10133,4.14603900,6.82989200,10.59656395,0.44122795,0.75010816,1.63951810
38015,0,USNorthDakotaBurleigh,North Dakota,Burleigh,2021-01-05 14:06:55.570837,2020-12-02 00:00:00.000000,7.58677363,10.70285020,14.65189436,7254,10234,14011,3879,6274,9877,4.05715732,6.56130255,10.32962497,0.42412433,0.74996555,1.66345917
38015,0,USNorthDakotaBurleigh,North Dakota,Burleigh,2021-01-05 14:06:55.570837,2020-12-03 00:00:00.000000,7.27144170,10.24132785,14.02133354,6953,9793,13408,3788,6014,9570,3.96151377,6.28993452,10.00781991,0.41038725,0.75155210,1.68829781
38015,0,USNorthDakotaBurleigh,North Dakota,Burleigh,2021-01-05 14:06:55.570837,2020-12-04 00:00:00.000000,6.95122703,9.75966021,13.49164196,6647,9332,12901,3689,5754,9255,3.85797950,6.01759368,9.67861872,0.38332631,0.74555632,1.75114011
38015,0,USNorthDakotaBurleigh,North Dakota,Burleigh,2021-01-05 14:06:55.570837,2020-12-05 00:00:00.000000,6.64596837,9.28643759,13.07235611,6355,8880,12500,3582,5494,8934,3.74602788,5.74612901,9.34305949,0.37713400,0.73910369,1.90339600
38015,0,USNorthDakotaBurleigh,North Dakota,Burleigh,2021-01-05 14:06:55.570837,2020-12-06 00:00:00.000000,6.34996202,8.85783854,12.63698830,6072,8470,12084,3465,5217,8610,3.62439988,5.45648393,9.00425666,0.36227925,0.73463825,2.06219490
38015,0,USNorthDakotaBurleigh,North Dakota,Burleigh,2021-01-05 14:06:55.570837,2020-12-07 00:00:00.000000,6.06066302,8.40678101,12.19754401,5795,8039,11664,3330,4981,8285,3.48252324,5.20893735,8.66401143,0.34791776,0.71281060,2.12927599
38015,0,USNorthDakotaBurleigh,North Dakota,Burleigh,2021-01-05 14:06:55.570837,2020-12-08 00:00:00.000000,5.77066256,7.96967157,11.75121094,5518,7621,11237,3195,4747,7959,3.34159340,4.96510649,8.32366971,0.33879051,0.70137119,2.14693255
38015,0,USNorthDakotaBurleigh,North Dakota,Burleigh,2021-01-05 14:06:55.570837,2020-12-09 00:00:00.000000,5.47583883,7.53539538,11.30235613,5236,7205,10807,3006,4523,7635,3.14395641,4.73007618,7.98485241,0.33343595,0.67888112,2.15210504
38015,0,USNorthDakotaBurleigh,North Dakota,Burleigh,2021-01-05 14:06:55.570837,2020-12-10 00:00:00.000000,5.17505473,7.11150078,10.85322160,4948,6800,10378,2809,4302,7314,2.93847281,4.49956383,7.64902289,0.32210936,0.66306036,2.15753346
38015,0,USNorthDakotaBurleigh,North Dakota,Burleigh,2021-01-05 14:06:55.570837,2020-12-11 00:00:00.000000,4.87221874,6.72081823,10.31542533,4659,6426,9864,2624,4087,6997,2.74412887,4.27454135,7.31748665,0.30934012,0.64865250,2.17317959
38015,0,USNorthDakotaBurleigh,North Dakota,Burleigh,2021-01-05 14:06:55.570837,2020-12-12 00:00:00.000000,4.57353152,6.35047048,9.79433010,4373,6072,9365,2452,3862,6685,2.56425204,4.03945845,6.99139384,0.29643002,0.64294468,2.22210886
38015,0,USNorthDakotaBurleigh,North Dakota,Burleigh,2021-01-05 14:06:55.570837,2020-12-13 00:00:00.000000,4.28395384,6.00269999,9.29041795,4096,5740,8884,2296,3644,6379,2.40129949,3.81085008,6.67174408,0.28306407,0.64083787,2.35021254
38015,0,USNorthDakotaBurleigh,North Dakota,Burleigh,2021-01-05 14:06:55.570837,2020-12-14 00:00:00.000000,4.00602068,5.67584053,8.80525547,3830,5427,8420,2155,3433,6081,2.25363151,3.59063614,6.35939305,0.27101590,0.63686476,2.46365761
38015,0,USNorthDakotaBurleigh,North Dakota,Burleigh,2021-01-05 14:06:55.570837,2020-12-15 00:00:00.000000,3.74151382,5.34589756,8.33862447,3577,5112,7973,2026,3244,5790,2.11924062,3.39310065,6.05505669,0.26524221,0.62907015,2.44752147
38015,0,USNorthDakotaBurleigh,North Dakota,Burleigh,2021-01-05 14:06:55.570837,2020-12-16 00:00:00.000000,3.49090390,5.03120184,7.89071450,3338,4811,7545,1908,3067,5507,1.99579689,3.20770331,5.75933166,0.26506108,0.62375606,2.44412688
38015,0,USNorthDakotaBurleigh,North Dakota,Burleigh,2021-01-05 14:06:55.570837,2020-12-17 00:00:00.000000,3.25408605,4.74554936,7.46155706,3111,4537,7135,1799,2897,5233,1.88161120,3.02996039,5.47270682,0.26658710,0.62599577,2.44869075
38015,0,USNorthDakotaBurleigh,North Dakota,Burleigh,2021-01-05 14:06:55.570837,2020-12-18 00:00:00.000000,2.99714838,4.47036727,7.05055044,2866,4274,6742,1697,2734,4968,1.77548776,2.85984922,5.19555795,0.26855979,0.62516397,2.48182488
38015,0,USNorthDakotaBurleigh,North Dakota,Burleigh,2021-01-05 14:06:55.570837,2020-12-19 00:00:00.000000,2.75976219,4.19642607,6.65717994,2639,4012,6365,1603,2570,4712,1.67658420,2.68813394,4.92815866,0.25406532,0.62291980,2.54571177
38015,0,USNorthDakotaBurleigh,North Dakota,Burleigh,2021-01-05 14:06:55.570837,2020-12-20 00:00:00.000000,2.54122109,3.93642266,6.28202798,2430,3764,6007,1514,2408,4466,1.58429590,2.51915692,4.67069105,0.24270356,0.62570772,2.56865715
38015,0,USNorthDakotaBurleigh,North Dakota,Burleigh,2021-01-05 14:06:55.570837,2020-12-21 00:00:00.000000,2.36284579,3.68802802,5.92417362,2259,3526,5665,1432,2256,4229,1.49815537,2.35966070,4.42325411,0.23995071,0.62356799,2.57261141
38015,0,USNorthDakotaBurleigh,North Dakota,Burleigh,2021-01-05 14:06:55.570837,2020-12-22 00:00:00.000000,2.24042035,3.47565059,5.58370609,2142,3323,5339,1344,2119,4002,1.40593977,2.21642267,4.18579951,0.23833081,0.62564210,2.57367310
38015,0,USNorthDakotaBurleigh,North Dakota,Burleigh,2021-01-05 14:06:55.570837,2020-12-23 00:00:00.000000,2.10268897,3.26016171,5.26010623,2010,3117,5030,1246,1994,3785,1.30302603,2.08581796,3.95830298,0.23733500,0.62575137,2.57432707
38015,0,USNorthDakotaBurleigh,North Dakota,Burleigh,2021-01-05 14:06:55.570837,2020-12-24 00:00:00.000000,1.95210451,3.05461423,4.95282730,1866,2921,4736,1147,1876,3577,1.19957837,1.96200610,3.74067745,0.23669537,0.62261539,2.57549058
38015,0,USNorthDakotaBurleigh,North Dakota,Burleigh,2021-01-05 14:06:55.570837,2020-12-25 00:00:00.000000,1.81216209,2.87195414,4.66135363,1732,2746,4457,1056,1764,3378,1.10430254,1.84475437,3.53278334,0.22778348,0.62512407,2.57960512
38015,0,USNorthDakotaBurleigh,North Dakota,Burleigh,2021-01-05 14:06:55.570837,2020-12-26 00:00:00.000000,1.68125421,2.68886385,4.38518646,1607,2571,4193,972,1657,3188,1.01669336,1.73383078,3.33444670,0.22162317,0.61654531,2.59584069
38015,0,USNorthDakotaBurleigh,North Dakota,Burleigh,2021-01-05 14:06:55.570837,2020-12-27 00:00:00.000000,1.54725299,2.52125231,4.12379163,1479,2410,3943,895,1557,3007,0.93616968,1.62902822,3.14547029,0.21871612,0.61226006,2.65065129
38015,0,USNorthDakotaBurleigh,North Dakota,Burleigh,2021-01-05 14:06:55.570837,2020-12-28 00:00:00.000000,1.41622115,2.36794804,3.87540277,1354,2264,3705,824,1463,2835,0.86215008,1.53025446,2.96563354,0.21759133,0.60971184,2.78274589
38015,0,USNorthDakotaBurleigh,North Dakota,Burleigh,2021-01-05 14:06:55.570837,2020-12-29 00:00:00.000000,1.29592633,2.21147495,3.64064143,1239,2114,3481,759,1374,2672,0.79381521,1.43717911,2.79452729,0.21718112,0.60934967,2.93540335
38015,0,USNorthDakotaBurleigh,North Dakota,Burleigh,2021-01-05 14:06:55.570837,2020-12-30 00:00:00.000000,1.18356782,2.07011956,3.41892511,1131,1979,3269,706,1284,2516,0.73871613,1.34282932,2.63192693,0.21705680,0.61861007,3.01316533
38015,0,USNorthDakotaBurleigh,North Dakota,Burleigh,2021-01-05 14:06:55.570837,2020-12-31 00:00:00.000000,1.07835929,1.94010546,3.20968821,1031,1855,3069,661,1202,2369,0.69190116,1.25732350,2.47758543,0.21710054,0.61337611,3.03769064
38015,0,USNorthDakotaBurleigh,North Dakota,Burleigh,2021-01-05 14:06:55.570837,2021-01-01 00:00:00.000000,0.98295560,1.82290500,3.01207044,939,1743,2880,605,1128,2229,0.63291813,1.18030918,2.33123819,0.21741571,0.61542243,3.04430437
38015,0,USNorthDakotaBurleigh,North Dakota,Burleigh,2021-01-05 14:06:55.570837,2021-01-02 00:00:00.000000,0.89687315,1.70768330,2.81503689,857,1632,2691,555,1059,2096,0.58049317,1.10804372,2.19260640,0.21846370,0.62185709,3.04412131
38015,0,USNorthDakotaBurleigh,North Dakota,Burleigh,2021-01-05 14:06:55.570837,2021-01-03 00:00:00.000000,0.81922487,1.59343079,2.63068041,783,1523,2515,516,993,1971,0.54010716,1.03870842,2.06140052,0.22117959,0.61403502,3.03420196
38015,0,USNorthDakotaBurleigh,North Dakota,Burleigh,2021-01-05 14:06:55.570837,2021-01-04 00:00:00.000000,0.74893974,1.48648352,2.45812305,716,1421,2350,479,936,1852,0.50168471,0.97907379,1.93732459,0.22564189,0.60864806,3.01476052
38015,0,USNorthDakotaBurleigh,North Dakota,Burleigh,2021-01-05 14:06:55.570837,2021-01-05 00:00:00.000000,0.68491108,1.38543901,2.29660658,654,1324,2196,444,875,1740,0.46525245,0.91502515,1.82008011,0.22719057,0.61013417,2.99831690
38015,0,USNorthDakotaBurleigh,North Dakota,Burleigh,2021-01-05 14:06:55.570837,2021-01-06 00:00:00.000000,0.62649296,1.30075452,2.14544640,599,1243,2051,411,817,1634,0.43075656,0.85528822,1.70936904,0.22662208,0.61097967,2.98807795
38015,0,USNorthDakotaBurleigh,North Dakota,Burleigh,2021-01-05 14:06:55.570837,2021-01-07 00:00:00.000000,0.57314744,1.21464343,2.00400730,548,1161,1916,380,772,1534,0.39824145,0.80781763,1.60489601,0.22638999,0.61140513,2.97913328
38015,0,USNorthDakotaBurleigh,North Dakota,Burleigh,2021-01-05 14:06:55.570837,2021-01-08 00:00:00.000000,0.52440456,1.13138499,1.87212991,501,1081,1790,351,723,1440,0.36772521,0.75681982,1.50637011,0.22630084,0.61160563,2.97712410
38015,0,USNorthDakotaBurleigh,North Dakota,Burleigh,2021-01-05 14:06:55.570837,2021-01-09 00:00:00.000000,0.47984709,1.04784398,1.76067599,458,1002,1683,324,676,1351,0.33919262,0.70716174,1.41350618,0.22626741,0.61169698,2.97669177
38015,0,USNorthDakotaBurleigh,North Dakota,Burleigh,2021-01-05 14:06:55.570837,2021-01-10 00:00:00.000000,0.43806925,0.96898826,1.65556927,418,926,1583,298,628,1268,0.31259926,0.65714298,1.32602591,0.22625498,0.61173781,2.97659960
38015,0,USNorthDakotaBurleigh,North Dakota,Burleigh,2021-01-05 14:06:55.570837,2021-01-11 00:00:00.000000,0.39981424,0.89759299,1.55648175,382,858,1488,275,581,1189,0.28787862,0.60835572,1.24365870,0.22625038,0.61175582,2.97657999
38015,0,USNorthDakotaBurleigh,North Dakota,Burleigh,2021-01-05 14:06:55.570837,2021-01-12 00:00:00.000000,0.36487849,0.83474157,1.46309838,348,798,1399,253,538,1112,0.26494890,0.56299843,1.16316480,0.22624867,0.61176366,2.97657582
38015,0,USNorthDakotaBurleigh,North Dakota,Burleigh,2021-01-05 14:06:55.570837,2021-01-13 00:00:00.000000,0.33297935,0.77410747,1.37511711,318,740,1314,233,498,1039,0.24371876,0.52130173,1.08692745,0.22624804,0.61176703,2.97657493
38015,0,USNorthDakotaBurleigh,North Dakota,Burleigh,2021-01-05 14:06:55.570837,2021-01-14 00:00:00.000000,0.30385707,0.71715871,1.29543955,290,685,1238,214,463,971,0.22409164,0.48477780,1.01555123,0.22624781,0.61176844,2.97657474
38015,0,USNorthDakotaBurleigh,North Dakota,Burleigh,2021-01-05 14:06:55.570837,2021-01-15 00:00:00.000000,0.27727317,0.66443584,1.21503614,265,635,1161,196,429,907,0.20557504,0.44930812,0.94874435,0.22624772,0.61176901,2.97657470
38015,0,USNorthDakotaBurleigh,North Dakota,Burleigh,2021-01-05 14:06:55.570837,2021-01-16 00:00:00.000000,0.25300892,0.61879399,1.14217044,241,591,1092,179,398,847,0.18813154,0.41680920,0.88623000,0.22624769,0.61176923,2.97657469
38015,0,USNorthDakotaBurleigh,North Dakota,Burleigh,2021-01-05 14:06:55.570837,2021-01-17 00:00:00.000000,0.23086383,0.57625400,1.07355900,220,551,1026,164,372,791,0.17217082,0.38920600,0.82774600,0.22624768,0.61176930,2.97657469
