FIPS,HR_UID,nameid,province,region,analysisTime,dates,pointprevalence_025,pointprevalence_50,pointprevalence_975,pointinfections_025,pointinfections_50,pointinfections_975,pointinfectious_025,pointinfectious_50,pointinfectious_975,pointinfectiousprevalence_05,pointinfectiousprevalence_50,pointinfectiousprevalence_95,infectrate_025,infectrate_50,infectrate_975
12121,0,USFloridaSuwannee,Florida,Suwannee,2021-01-06 02:34:08.936229,2020-03-09 00:00:00.000000,0.00254499,0.00981511,0.03203715,1,4,14,0,2,8,0.00140406,0.00528812,0.01814916,0.40629008,0.55961530,0.72135902
12121,0,USFloridaSuwannee,Florida,Suwannee,2021-01-06 02:34:08.936229,2020-03-10 00:00:00.000000,0.00270197,0.01054965,0.03475603,1,4,15,0,2,8,0.00145120,0.00565912,0.01960232,0.40629002,0.55961532,0.72135973
12121,0,USFloridaSuwannee,Florida,Suwannee,2021-01-06 02:34:08.936229,2020-03-11 00:00:00.000000,0.00292357,0.01135146,0.03826705,1,5,16,0,2,9,0.00158024,0.00613906,0.02138182,0.40628985,0.55961529,0.72136078
12121,0,USFloridaSuwannee,Florida,Suwannee,2021-01-06 02:34:08.936229,2020-03-12 00:00:00.000000,0.00329649,0.01228650,0.04195558,1,5,18,0,3,10,0.00175473,0.00680308,0.02333115,0.40628931,0.55961504,0.72136231
12121,0,USFloridaSuwannee,Florida,Suwannee,2021-01-06 02:34:08.936229,2020-03-13 00:00:00.000000,0.00363374,0.01323218,0.04571622,1,5,20,0,3,11,0.00190388,0.00740791,0.02541966,0.40628756,0.55961360,0.72136455
12121,0,USFloridaSuwannee,Florida,Suwannee,2021-01-06 02:34:08.936229,2020-03-14 00:00:00.000000,0.00388989,0.01408272,0.05027548,1,6,22,0,3,12,0.00208854,0.00808619,0.02765150,0.40628187,0.55960608,0.72136781
12121,0,USFloridaSuwannee,Florida,Suwannee,2021-01-06 02:34:08.936229,2020-03-15 00:00:00.000000,0.00415984,0.01539025,0.05528491,1,6,24,1,3,13,0.00231626,0.00882437,0.03003935,0.40626340,0.55223650,0.72137251
12121,0,USFloridaSuwannee,Florida,Suwannee,2021-01-06 02:34:08.936229,2020-03-16 00:00:00.000000,0.00680868,0.02087086,0.06498032,3,9,28,1,4,14,0.00256195,0.00962626,0.03259596,0.40620329,0.54990853,0.72137913
12121,0,USFloridaSuwannee,Florida,Suwannee,2021-01-06 02:34:08.936229,2020-03-17 00:00:00.000000,0.00974344,0.02691346,0.07521916,4,11,33,1,5,16,0.00385772,0.01187308,0.03714724,0.40600795,0.54407769,0.72138756
12121,0,USFloridaSuwannee,Florida,Suwannee,2021-01-06 02:34:08.936229,2020-03-18 00:00:00.000000,0.01314569,0.03231171,0.08657035,5,14,38,2,6,19,0.00542785,0.01574971,0.04291644,0.40332432,0.53010787,0.72139043
12121,0,USFloridaSuwannee,Florida,Suwannee,2021-01-06 02:34:08.936229,2020-03-19 00:00:00.000000,0.01684882,0.03695907,0.09902652,7,16,43,3,8,22,0.00732356,0.01902794,0.05054871,0.37904091,0.51567537,0.72125205
12121,0,USFloridaSuwannee,Florida,Suwannee,2021-01-06 02:34:08.936229,2020-03-20 00:00:00.000000,0.01838188,0.04199734,0.11244650,8,18,49,4,9,26,0.00940489,0.02236148,0.05996016,0.33678595,0.49799873,0.71788239
12121,0,USFloridaSuwannee,Florida,Suwannee,2021-01-06 02:34:08.936229,2020-03-21 00:00:00.000000,0.01975115,0.04869470,0.12940605,8,21,57,4,11,31,0.01111433,0.02528006,0.06999967,0.32906831,0.48292967,0.66996048
12121,0,USFloridaSuwannee,Florida,Suwannee,2021-01-06 02:34:08.936229,2020-03-22 00:00:00.000000,0.02110409,0.05567062,0.14794916,9,24,65,5,13,35,0.01197863,0.03013042,0.07957221,0.32598187,0.46971776,0.65861796
12121,0,USFloridaSuwannee,Florida,Suwannee,2021-01-06 02:34:08.936229,2020-03-23 00:00:00.000000,0.02581364,0.06320108,0.16666365,11,28,74,5,15,39,0.01282623,0.03544699,0.08791120,0.32417230,0.46107995,0.62654195
12121,0,USFloridaSuwannee,Florida,Suwannee,2021-01-06 02:34:08.936229,2020-03-24 00:00:00.000000,0.03051351,0.07105513,0.18236906,13,31,81,6,17,43,0.01509730,0.03968901,0.09700748,0.30522933,0.44458913,0.58624632
12121,0,USFloridaSuwannee,Florida,Suwannee,2021-01-06 02:34:08.936229,2020-03-25 00:00:00.000000,0.03548445,0.07839779,0.19787946,15,34,87,7,19,48,0.01791657,0.04362997,0.10877642,0.28678782,0.43136313,0.56586279
12121,0,USFloridaSuwannee,Florida,Suwannee,2021-01-06 02:34:08.936229,2020-03-26 00:00:00.000000,0.04047470,0.08699572,0.21404395,17,38,95,9,21,53,0.02095281,0.04824280,0.12070876,0.27113137,0.42412007,0.56590816
12121,0,USFloridaSuwannee,Florida,Suwannee,2021-01-06 02:34:08.936229,2020-03-27 00:00:00.000000,0.04543708,0.09523812,0.23331176,20,42,103,10,23,58,0.02397155,0.05337568,0.13280252,0.25956168,0.40941370,0.56602178
12121,0,USFloridaSuwannee,Florida,Suwannee,2021-01-06 02:34:08.936229,2020-03-28 00:00:00.000000,0.05054558,0.10600872,0.25370148,22,47,112,11,26,64,0.02698887,0.05923477,0.14508446,0.25222057,0.39821507,0.56640595
12121,0,USFloridaSuwannee,Florida,Suwannee,2021-01-06 02:34:08.936229,2020-03-29 00:00:00.000000,0.05553540,0.11497237,0.27152048,24,51,120,13,29,69,0.03011305,0.06649310,0.15755845,0.24798310,0.38150928,0.56764083
12121,0,USFloridaSuwannee,Florida,Suwannee,2021-01-06 02:34:08.936229,2020-03-30 00:00:00.000000,0.06271148,0.12844391,0.29068302,27,57,129,14,32,75,0.03329285,0.07318694,0.17010861,0.23745273,0.36974519,0.57095511
12121,0,USFloridaSuwannee,Florida,Suwannee,2021-01-06 02:34:08.936229,2020-03-31 00:00:00.000000,0.06538779,0.13742819,0.30834499,29,61,136,16,36,79,0.03756855,0.08106302,0.18007955,0.23185396,0.35532209,0.56315355
12121,0,USFloridaSuwannee,Florida,Suwannee,2021-01-06 02:34:08.936229,2020-04-01 00:00:00.000000,0.06797426,0.14888420,0.33191976,30,66,147,18,38,84,0.04192152,0.08684512,0.18973803,0.22859837,0.34473642,0.50584435
12121,0,USFloridaSuwannee,Florida,Suwannee,2021-01-06 02:34:08.936229,2020-04-02 00:00:00.000000,0.07062108,0.16168778,0.34013302,31,71,151,19,42,89,0.04464554,0.09662843,0.20220752,0.22390242,0.33415711,0.50168518
12121,0,USFloridaSuwannee,Florida,Suwannee,2021-01-06 02:34:08.936229,2020-04-03 00:00:00.000000,0.07349492,0.17408829,0.34192291,32,77,151,20,46,92,0.04650189,0.10540914,0.20774779,0.20966624,0.32673280,0.49267217
12121,0,USFloridaSuwannee,Florida,Suwannee,2021-01-06 02:34:08.936229,2020-04-04 00:00:00.000000,0.07665342,0.18436453,0.34453586,34,81,153,21,50,97,0.04842693,0.11269891,0.21882337,0.19499659,0.31080314,0.47569750
12121,0,USFloridaSuwannee,Florida,Suwannee,2021-01-06 02:34:08.936229,2020-04-05 00:00:00.000000,0.08017418,0.19702369,0.35436273,35,87,157,22,52,103,0.05049735,0.11830596,0.23222789,0.17478964,0.30061105,0.45075697
12121,0,USFloridaSuwannee,Florida,Suwannee,2021-01-06 02:34:08.936229,2020-04-06 00:00:00.000000,0.08981159,0.20491810,0.35614321,39,91,158,23,55,106,0.05277353,0.12490686,0.23895701,0.15994652,0.29018361,0.42650710
12121,0,USFloridaSuwannee,Florida,Suwannee,2021-01-06 02:34:08.936229,2020-04-07 00:00:00.000000,0.09978708,0.20670920,0.35712347,44,91,158,25,57,106,0.05772170,0.13025042,0.24040876,0.15830484,0.27835250,0.42602155
12121,0,USFloridaSuwannee,Florida,Suwannee,2021-01-06 02:34:08.936229,2020-04-08 00:00:00.000000,0.11071122,0.21035342,0.35620008,49,93,158,28,59,106,0.06390228,0.13494958,0.24062931,0.15857351,0.26940732,0.42561723
12121,0,USFloridaSuwannee,Florida,Suwannee,2021-01-06 02:34:08.936229,2020-04-09 00:00:00.000000,0.12233791,0.21187414,0.35240061,54,94,156,31,60,102,0.07076075,0.13690703,0.23098191,0.15626522,0.26118717,0.42496455
12121,0,USFloridaSuwannee,Florida,Suwannee,2021-01-06 02:34:08.936229,2020-04-10 00:00:00.000000,0.12838259,0.21343122,0.34840977,57,94,154,34,60,97,0.07745838,0.13576552,0.22005053,0.15040208,0.24943579,0.41874743
12121,0,USFloridaSuwannee,Florida,Suwannee,2021-01-06 02:34:08.936229,2020-04-11 00:00:00.000000,0.12577603,0.21282138,0.35233493,55,94,156,35,60,99,0.07925968,0.13539297,0.22397621,0.14219842,0.23663350,0.39728645
12121,0,USFloridaSuwannee,Florida,Suwannee,2021-01-06 02:34:08.936229,2020-04-12 00:00:00.000000,0.12754976,0.21378059,0.34761049,56,94,154,35,60,99,0.08032278,0.13628064,0.22455185,0.13605784,0.22560830,0.37737024
12121,0,USFloridaSuwannee,Florida,Suwannee,2021-01-06 02:34:08.936229,2020-04-13 00:00:00.000000,0.12535312,0.21174604,0.34395885,55,94,152,35,61,98,0.08067146,0.13809204,0.22266549,0.12843197,0.21531268,0.36268159
12121,0,USFloridaSuwannee,Florida,Suwannee,2021-01-06 02:34:08.936229,2020-04-14 00:00:00.000000,0.12513263,0.20934563,0.33945726,55,92,150,35,60,97,0.08073424,0.13613391,0.22034231,0.12276890,0.21357878,0.35382044
12121,0,USFloridaSuwannee,Florida,Suwannee,2021-01-06 02:34:08.936229,2020-04-15 00:00:00.000000,0.12738785,0.20757997,0.33501811,56,92,148,36,59,96,0.08255589,0.13437899,0.21772290,0.11863886,0.20948020,0.34956492
12121,0,USFloridaSuwannee,Florida,Suwannee,2021-01-06 02:34:08.936229,2020-04-16 00:00:00.000000,0.12796592,0.20749547,0.33059363,56,92,146,36,59,95,0.08312112,0.13353143,0.21501109,0.11570544,0.20284403,0.34862615
12121,0,USFloridaSuwannee,Florida,Suwannee,2021-01-06 02:34:08.936229,2020-04-17 00:00:00.000000,0.12623481,0.20647404,0.32629363,56,91,144,37,60,94,0.08343959,0.13654910,0.21229100,0.11375310,0.20139946,0.35016104
12121,0,USFloridaSuwannee,Florida,Suwannee,2021-01-06 02:34:08.936229,2020-04-18 00:00:00.000000,0.12403199,0.20790393,0.32242211,55,92,143,36,60,93,0.08121665,0.13670842,0.20972339,0.11261761,0.19898945,0.35325357
12121,0,USFloridaSuwannee,Florida,Suwannee,2021-01-06 02:34:08.936229,2020-04-19 00:00:00.000000,0.11924371,0.20663176,0.31912267,52,91,141,34,59,92,0.07843701,0.13419535,0.20845857,0.11198413,0.19533912,0.35604695
12121,0,USFloridaSuwannee,Florida,Suwannee,2021-01-06 02:34:08.936229,2020-04-20 00:00:00.000000,0.11544756,0.19885315,0.32309986,51,88,143,34,59,95,0.07760218,0.13311245,0.21450387,0.11162217,0.19088234,0.31986763
12121,0,USFloridaSuwannee,Florida,Suwannee,2021-01-06 02:34:08.936229,2020-04-21 00:00:00.000000,0.11468996,0.19449886,0.32399527,50,86,143,33,57,95,0.07538456,0.13054178,0.21586955,0.11141673,0.18824644,0.29059096
12121,0,USFloridaSuwannee,Florida,Suwannee,2021-01-06 02:34:08.936229,2020-04-22 00:00:00.000000,0.11423785,0.19150633,0.32363020,50,85,143,33,57,95,0.07430655,0.12920751,0.21446150,0.11132476,0.18537939,0.29044557
12121,0,USFloridaSuwannee,Florida,Suwannee,2021-01-06 02:34:08.936229,2020-04-23 00:00:00.000000,0.11112013,0.18540761,0.32276688,49,82,143,33,56,93,0.07453700,0.12724046,0.21097421,0.11254342,0.18495794,0.27735494
12121,0,USFloridaSuwannee,Florida,Suwannee,2021-01-06 02:34:08.936229,2020-04-24 00:00:00.000000,0.10520740,0.17983446,0.31782149,46,79,141,31,54,91,0.07163382,0.12340515,0.20586379,0.11107995,0.18154126,0.26459550
12121,0,USFloridaSuwannee,Florida,Suwannee,2021-01-06 02:34:08.936229,2020-04-25 00:00:00.000000,0.09967188,0.17543310,0.30628069,44,77,136,30,53,88,0.06833896,0.12071025,0.19960083,0.10998159,0.18210829,0.26439440
12121,0,USFloridaSuwannee,Florida,Suwannee,2021-01-06 02:34:08.936229,2020-04-26 00:00:00.000000,0.09425758,0.17386986,0.29436942,41,77,130,28,52,85,0.06487203,0.11737997,0.19264768,0.10965659,0.18161221,0.27393255
12121,0,USFloridaSuwannee,Florida,Suwannee,2021-01-06 02:34:08.936229,2020-04-27 00:00:00.000000,0.09246828,0.16954109,0.28372490,41,75,126,27,51,83,0.06200152,0.11490927,0.18899207,0.10946964,0.17989736,0.26712854
12121,0,USFloridaSuwannee,Florida,Suwannee,2021-01-06 02:34:08.936229,2020-04-28 00:00:00.000000,0.09170293,0.16617274,0.27346524,40,73,121,26,49,83,0.06039866,0.11106769,0.18792121,0.10921311,0.17509338,0.26321204
12121,0,USFloridaSuwannee,Florida,Suwannee,2021-01-06 02:34:08.936229,2020-04-29 00:00:00.000000,0.09177842,0.16058791,0.26771376,40,71,118,26,47,82,0.05881048,0.10718756,0.18512989,0.10841738,0.17636720,0.24467224
12121,0,USFloridaSuwannee,Florida,Suwannee,2021-01-06 02:34:08.936229,2020-04-30 00:00:00.000000,0.09071443,0.15529170,0.26214572,40,68,116,25,46,80,0.05752815,0.10485824,0.18153348,0.10770505,0.17741840,0.24344131
12121,0,USFloridaSuwannee,Florida,Suwannee,2021-01-06 02:34:08.936229,2020-05-01 00:00:00.000000,0.08940915,0.15162682,0.25728181,39,67,114,25,45,79,0.05647177,0.10192255,0.17787269,0.10719643,0.17591283,0.24474423
12121,0,USFloridaSuwannee,Florida,Suwannee,2021-01-06 02:34:08.936229,2020-05-02 00:00:00.000000,0.08847772,0.14816123,0.25284424,39,65,112,24,44,77,0.05562434,0.10035467,0.17455101,0.10708460,0.17629476,0.24502035
12121,0,USFloridaSuwannee,Florida,Suwannee,2021-01-06 02:34:08.936229,2020-05-03 00:00:00.000000,0.08665207,0.14650911,0.24866580,38,65,110,24,44,76,0.05501138,0.09934288,0.17153838,0.10706070,0.17776612,0.25213793
12121,0,USFloridaSuwannee,Florida,Suwannee,2021-01-06 02:34:08.936229,2020-05-04 00:00:00.000000,0.08436740,0.14336535,0.24382164,37,63,108,24,43,74,0.05464742,0.09772122,0.16872110,0.10681719,0.17975288,0.25779156
12121,0,USFloridaSuwannee,Florida,Suwannee,2021-01-06 02:34:08.936229,2020-05-05 00:00:00.000000,0.08101546,0.14113912,0.23913887,35,62,106,23,42,73,0.05282036,0.09645614,0.16565826,0.10706593,0.17983215,0.26098490
12121,0,USFloridaSuwannee,Florida,Suwannee,2021-01-06 02:34:08.936229,2020-05-06 00:00:00.000000,0.07761638,0.13895468,0.23455875,34,61,104,22,41,72,0.05064745,0.09396519,0.16254783,0.10711805,0.18052844,0.26324291
12121,0,USFloridaSuwannee,Florida,Suwannee,2021-01-06 02:34:08.936229,2020-05-07 00:00:00.000000,0.07438248,0.13639185,0.23328194,33,60,103,21,40,70,0.04849502,0.09206096,0.15947422,0.10797801,0.18201126,0.26457262
12121,0,USFloridaSuwannee,Florida,Suwannee,2021-01-06 02:34:08.936229,2020-05-08 00:00:00.000000,0.07136401,0.13353060,0.23590870,31,59,104,20,40,70,0.04646409,0.09137178,0.15811081,0.11299768,0.18801661,0.26603389
12121,0,USFloridaSuwannee,Florida,Suwannee,2021-01-06 02:34:08.936229,2020-05-09 00:00:00.000000,0.06856229,0.13255884,0.24129456,30,58,107,19,40,70,0.04457302,0.09033982,0.15813687,0.11841538,0.19369168,0.26792459
12121,0,USFloridaSuwannee,Florida,Suwannee,2021-01-06 02:34:08.936229,2020-05-10 00:00:00.000000,0.06850635,0.13172717,0.24737063,30,58,109,19,39,71,0.04346971,0.08946335,0.16163624,0.12188695,0.19371309,0.27106353
12121,0,USFloridaSuwannee,Florida,Suwannee,2021-01-06 02:34:08.936229,2020-05-11 00:00:00.000000,0.06539185,0.13069718,0.24462438,29,58,108,19,39,73,0.04339542,0.08788277,0.16548583,0.12354808,0.19910613,0.27509005
12121,0,USFloridaSuwannee,Florida,Suwannee,2021-01-06 02:34:08.936229,2020-05-12 00:00:00.000000,0.06480383,0.13117666,0.24245006,28,58,107,18,38,73,0.04216682,0.08598920,0.16573344,0.12902957,0.20070269,0.27858391
12121,0,USFloridaSuwannee,Florida,Suwannee,2021-01-06 02:34:08.936229,2020-05-13 00:00:00.000000,0.06457800,0.13180404,0.23992138,28,58,106,17,38,73,0.04044869,0.08576118,0.16472610,0.13881382,0.20338548,0.28801368
12121,0,USFloridaSuwannee,Florida,Suwannee,2021-01-06 02:34:08.936229,2020-05-14 00:00:00.000000,0.06446600,0.13348414,0.23732733,28,59,105,17,38,72,0.04013057,0.08595154,0.16328856,0.14437872,0.20757888,0.30614470
12121,0,USFloridaSuwannee,Florida,Suwannee,2021-01-06 02:34:08.936229,2020-05-15 00:00:00.000000,0.06442978,0.13444174,0.23493064,28,59,104,17,38,71,0.04005264,0.08719468,0.16170863,0.15372571,0.21207768,0.30188612
12121,0,USFloridaSuwannee,Florida,Suwannee,2021-01-06 02:34:08.936229,2020-05-16 00:00:00.000000,0.06453717,0.13471385,0.23395801,28,59,103,17,38,71,0.04001646,0.08595122,0.16016056,0.15463356,0.21800997,0.30409019
12121,0,USFloridaSuwannee,Florida,Suwannee,2021-01-06 02:34:08.936229,2020-05-17 00:00:00.000000,0.06507019,0.13608751,0.23994236,28,60,106,17,38,70,0.04005874,0.08593888,0.15922172,0.15714079,0.22725597,0.31742143
12121,0,USFloridaSuwannee,Florida,Suwannee,2021-01-06 02:34:08.936229,2020-05-18 00:00:00.000000,0.06500670,0.13625515,0.24698474,28,60,109,17,38,70,0.04033203,0.08636459,0.15919694,0.15993608,0.23419969,0.35119780
12121,0,USFloridaSuwannee,Florida,Suwannee,2021-01-06 02:34:08.936229,2020-05-19 00:00:00.000000,0.06519640,0.13898167,0.24339945,28,61,108,17,38,71,0.04036553,0.08609867,0.16081680,0.16193347,0.24452027,0.38640792
12121,0,USFloridaSuwannee,Florida,Suwannee,2021-01-06 02:34:08.936229,2020-05-20 00:00:00.000000,0.06543889,0.14258138,0.24694618,29,63,109,17,39,72,0.04043440,0.08819828,0.16312070,0.16208476,0.25401995,0.39042538
12121,0,USFloridaSuwannee,Florida,Suwannee,2021-01-06 02:34:08.936229,2020-05-21 00:00:00.000000,0.06585413,0.14681322,0.25150361,29,65,111,18,39,73,0.04056804,0.08966885,0.16571061,0.16242211,0.26072653,0.39254738
12121,0,USFloridaSuwannee,Florida,Suwannee,2021-01-06 02:34:08.936229,2020-05-22 00:00:00.000000,0.06689983,0.14846877,0.26631667,29,65,118,18,41,74,0.04080454,0.09281067,0.16857737,0.16329285,0.26872844,0.39386083
12121,0,USFloridaSuwannee,Florida,Suwannee,2021-01-06 02:34:08.936229,2020-05-23 00:00:00.000000,0.07010490,0.15113398,0.28414980,31,67,126,18,42,76,0.04129427,0.09491364,0.17158771,0.16569599,0.27619732,0.42814896
12121,0,USFloridaSuwannee,Florida,Suwannee,2021-01-06 02:34:08.936229,2020-05-24 00:00:00.000000,0.07338718,0.15363645,0.30216878,32,68,134,19,43,78,0.04328093,0.09687403,0.17580873,0.17942960,0.29405067,0.45327972
12121,0,USFloridaSuwannee,Florida,Suwannee,2021-01-06 02:34:08.936229,2020-05-25 00:00:00.000000,0.08416004,0.16188103,0.30191621,37,71,134,20,43,83,0.04532088,0.09770489,0.18729975,0.19346608,0.30514514,0.48027449
12121,0,USFloridaSuwannee,Florida,Suwannee,2021-01-06 02:34:08.936229,2020-05-26 00:00:00.000000,0.08731101,0.16561193,0.31223221,38,73,138,23,45,85,0.05197712,0.10249188,0.19229137,0.20515558,0.32164724,0.48157568
12121,0,USFloridaSuwannee,Florida,Suwannee,2021-01-06 02:34:08.936229,2020-05-27 00:00:00.000000,0.09132477,0.17032181,0.33571587,40,75,149,24,47,90,0.05499495,0.10613619,0.20365879,0.22722238,0.33567203,0.48171929
12121,0,USFloridaSuwannee,Florida,Suwannee,2021-01-06 02:34:08.936229,2020-05-28 00:00:00.000000,0.09582044,0.17775116,0.36073518,42,78,160,25,48,97,0.05780756,0.11003321,0.21849253,0.23729606,0.34491640,0.49174168
12121,0,USFloridaSuwannee,Florida,Suwannee,2021-01-06 02:34:08.936229,2020-05-29 00:00:00.000000,0.09916991,0.19143438,0.38833101,44,85,172,27,51,104,0.06159859,0.11625578,0.23458350,0.24333529,0.36710219,0.52830631
12121,0,USFloridaSuwannee,Florida,Suwannee,2021-01-06 02:34:08.936229,2020-05-30 00:00:00.000000,0.10621582,0.20211295,0.41511550,47,89,184,28,55,112,0.06326673,0.12473557,0.25228955,0.25109736,0.37777429,0.55686094
12121,0,USFloridaSuwannee,Florida,Suwannee,2021-01-06 02:34:08.936229,2020-05-31 00:00:00.000000,0.11178145,0.21599526,0.43435730,49,95,192,29,57,117,0.06673095,0.13056178,0.26561785,0.25417223,0.39163066,0.57354207
12121,0,USFloridaSuwannee,Florida,Suwannee,2021-01-06 02:34:08.936229,2020-06-01 00:00:00.000000,0.12038208,0.23411534,0.46053091,53,103,204,31,60,122,0.07199272,0.13690845,0.27642778,0.26303165,0.41377288,0.58094225
12121,0,USFloridaSuwannee,Florida,Suwannee,2021-01-06 02:34:08.936229,2020-06-02 00:00:00.000000,0.12920725,0.25246943,0.49233003,57,112,218,34,65,129,0.07848935,0.14734907,0.29043522,0.28523511,0.43819405,0.58460441
12121,0,USFloridaSuwannee,Florida,Suwannee,2021-01-06 02:34:08.936229,2020-06-03 00:00:00.000000,0.13912583,0.27127133,0.52856005,61,120,234,37,71,136,0.08439688,0.16131806,0.30803991,0.31445059,0.45491122,0.60690447
12121,0,USFloridaSuwannee,Florida,Suwannee,2021-01-06 02:34:08.936229,2020-06-04 00:00:00.000000,0.15057238,0.29633976,0.57451506,66,131,255,40,78,146,0.09080927,0.17774540,0.32884264,0.33698919,0.47581828,0.64027834
12121,0,USFloridaSuwannee,Florida,Suwannee,2021-01-06 02:34:08.936229,2020-06-05 00:00:00.000000,0.16395913,0.32867017,0.64077005,72,145,284,43,86,159,0.09815158,0.19475074,0.35821855,0.38803443,0.50021206,0.65236255
12121,0,USFloridaSuwannee,Florida,Suwannee,2021-01-06 02:34:08.936229,2020-06-06 00:00:00.000000,0.18534423,0.36571768,0.71106745,82,162,315,47,95,175,0.10717123,0.21581710,0.39434872,0.40974262,0.53381699,0.71257061
12121,0,USFloridaSuwannee,Florida,Suwannee,2021-01-06 02:34:08.936229,2020-06-07 00:00:00.000000,0.21245299,0.40467529,0.79576260,94,179,353,53,104,186,0.12028413,0.23466927,0.42006270,0.40449983,0.57432301,0.75867434
12121,0,USFloridaSuwannee,Florida,Suwannee,2021-01-06 02:34:08.936229,2020-06-08 00:00:00.000000,0.24396297,0.44672487,0.88638139,108,198,393,60,114,207,0.13685856,0.25712761,0.46795447,0.42046958,0.60076434,0.79069622
12121,0,USFloridaSuwannee,Florida,Suwannee,2021-01-06 02:34:08.936229,2020-06-09 00:00:00.000000,0.28006014,0.49652817,0.98632541,124,220,438,69,125,234,0.15663108,0.28305695,0.52687424,0.42884425,0.61741908,0.80103251
12121,0,USFloridaSuwannee,Florida,Suwannee,2021-01-06 02:34:08.936229,2020-06-10 00:00:00.000000,0.32130764,0.55887812,1.09567040,142,248,486,79,138,263,0.17954247,0.31077628,0.59417179,0.43326223,0.62426530,0.81618035
12121,0,USFloridaSuwannee,Florida,Suwannee,2021-01-06 02:34:08.936229,2020-06-11 00:00:00.000000,0.36839473,0.63826286,1.21403808,163,283,539,91,152,298,0.20583965,0.34438869,0.67109492,0.43761538,0.63153862,0.81991955
12121,0,USFloridaSuwannee,Florida,Suwannee,2021-01-06 02:34:08.936229,2020-06-12 00:00:00.000000,0.42619243,0.72698898,1.34132953,189,322,595,103,174,336,0.23266069,0.39344787,0.75829012,0.46421305,0.64588145,0.81674800
12121,0,USFloridaSuwannee,Florida,Suwannee,2021-01-06 02:34:08.936229,2020-06-13 00:00:00.000000,0.49460371,0.82534930,1.45800834,219,366,647,115,196,373,0.26064251,0.44301339,0.84002074,0.48483933,0.65745925,0.81809763
12121,0,USFloridaSuwannee,Florida,Suwannee,2021-01-06 02:34:08.936229,2020-06-14 00:00:00.000000,0.56987592,0.93616231,1.57859328,253,415,701,130,226,411,0.29416836,0.51078158,0.92704871,0.49520691,0.67517984,0.82348637
12121,0,USFloridaSuwannee,Florida,Suwannee,2021-01-06 02:34:08.936229,2020-06-15 00:00:00.000000,0.67208380,1.06810203,1.72360787,298,474,765,149,261,452,0.33579470,0.58856705,1.01935464,0.46974984,0.67810283,0.82142370
12121,0,USFloridaSuwannee,Florida,Suwannee,2021-01-06 02:34:08.936229,2020-06-16 00:00:00.000000,0.75811689,1.19455299,1.94584908,336,530,864,174,294,489,0.39179202,0.66303876,1.10142995,0.48328182,0.66900095,0.82810499
12121,0,USFloridaSuwannee,Florida,Suwannee,2021-01-06 02:34:08.936229,2020-06-17 00:00:00.000000,0.85349256,1.33853959,2.12724056,379,594,944,200,332,527,0.45146784,0.74835760,1.18762408,0.48198038,0.64846849,0.82742289
12121,0,USFloridaSuwannee,Florida,Suwannee,2021-01-06 02:34:08.936229,2020-06-18 00:00:00.000000,0.96667971,1.49915285,2.31102057,429,665,1026,225,370,568,0.50839179,0.83413728,1.27897113,0.46410591,0.64073637,0.82847023
12121,0,USFloridaSuwannee,Florida,Suwannee,2021-01-06 02:34:08.936229,2020-06-19 00:00:00.000000,1.09048482,1.67582901,2.50754167,484,744,1113,254,415,611,0.57192642,0.93456049,1.37625512,0.43242340,0.62492518,0.81834316
12121,0,USFloridaSuwannee,Florida,Suwannee,2021-01-06 02:34:08.936229,2020-06-20 00:00:00.000000,1.21416709,1.82862004,2.68690320,539,812,1193,285,462,658,0.64266364,1.04181262,1.48227262,0.42434039,0.58552797,0.79588874
12121,0,USFloridaSuwannee,Florida,Suwannee,2021-01-06 02:34:08.936229,2020-06-21 00:00:00.000000,1.35018339,2.00752777,2.85671880,599,891,1268,321,504,711,0.72393174,1.13675771,1.60146955,0.40970503,0.54605192,0.75741945
12121,0,USFloridaSuwannee,Florida,Suwannee,2021-01-06 02:34:08.936229,2020-06-22 00:00:00.000000,1.47938229,2.16341367,3.02698850,657,960,1344,358,551,778,0.80651459,1.24180835,1.75216706,0.36186220,0.51166323,0.70155018
12121,0,USFloridaSuwannee,Florida,Suwannee,2021-01-06 02:34:08.936229,2020-06-23 00:00:00.000000,1.56651240,2.28287316,3.16634553,695,1013,1406,398,603,845,0.89785660,1.35964037,1.90324191,0.34894809,0.47218369,0.64939599
12121,0,USFloridaSuwannee,Florida,Suwannee,2021-01-06 02:34:08.936229,2020-06-24 00:00:00.000000,1.67462056,2.38227637,3.32283577,743,1058,1475,428,636,880,0.96576519,1.43380649,1.98139702,0.29736601,0.45092783,0.61650857
12121,0,USFloridaSuwannee,Florida,Suwannee,2021-01-06 02:34:08.936229,2020-06-25 00:00:00.000000,1.72631120,2.48503413,3.44147512,766,1103,1528,467,680,921,1.05148218,1.53152113,2.07447520,0.29255202,0.43644218,0.56682478
12121,0,USFloridaSuwannee,Florida,Suwannee,2021-01-06 02:34:08.936229,2020-06-26 00:00:00.000000,1.77952918,2.58034185,3.48935305,790,1146,1549,507,708,958,1.14188420,1.59595392,2.15759243,0.28965416,0.40922554,0.56316073
12121,0,USFloridaSuwannee,Florida,Suwannee,2021-01-06 02:34:08.936229,2020-06-27 00:00:00.000000,1.83834537,2.66229858,3.51835584,816,1182,1562,528,734,993,1.18993217,1.65317291,2.23718205,0.28586679,0.37528720,0.54891324
12121,0,USFloridaSuwannee,Florida,Suwannee,2021-01-06 02:34:08.936229,2020-06-28 00:00:00.000000,1.88805080,2.76308655,3.56801596,838,1227,1584,543,766,1032,1.22316695,1.72602014,2.32477176,0.26583863,0.36023912,0.50530526
12121,0,USFloridaSuwannee,Florida,Suwannee,2021-01-06 02:34:08.936229,2020-06-29 00:00:00.000000,1.92966325,2.83521512,3.60056252,857,1259,1599,557,788,1058,1.25482225,1.77544261,2.38244168,0.25573588,0.34120805,0.46556542
12121,0,USFloridaSuwannee,Florida,Suwannee,2021-01-06 02:34:08.936229,2020-06-30 00:00:00.000000,1.97339263,2.85830231,3.66148712,876,1269,1626,565,805,1075,1.27403264,1.81380098,2.42037603,0.24417228,0.32329054,0.45922434
12121,0,USFloridaSuwannee,Florida,Suwannee,2021-01-06 02:34:08.936229,2020-07-01 00:00:00.000000,2.00731605,2.87804296,3.69865250,891,1278,1642,573,816,1090,1.29017609,1.83733725,2.45451949,0.24153323,0.31067536,0.44394880
12121,0,USFloridaSuwannee,Florida,Suwannee,2021-01-06 02:34:08.936229,2020-07-02 00:00:00.000000,1.99349756,2.88057891,3.71998157,885,1279,1652,579,825,1103,1.30373770,1.85813223,2.48358345,0.23382138,0.30255346,0.41721940
12121,0,USFloridaSuwannee,Florida,Suwannee,2021-01-06 02:34:08.936229,2020-07-03 00:00:00.000000,2.00441509,2.89996659,3.71505131,890,1288,1650,572,830,1111,1.28814576,1.86988822,2.50338561,0.22798845,0.29220197,0.38469476
12121,0,USFloridaSuwannee,Florida,Suwannee,2021-01-06 02:34:08.936229,2020-07-04 00:00:00.000000,1.95061964,2.89110695,3.70259775,866,1284,1644,559,836,1118,1.26045526,1.88310809,2.51739530,0.22471591,0.28691449,0.37973391
12121,0,USFloridaSuwannee,Florida,Suwannee,2021-01-06 02:34:08.936229,2020-07-05 00:00:00.000000,1.86365844,2.85913454,3.73199881,827,1269,1657,549,834,1113,1.23689819,1.87968919,2.50762297,0.22291616,0.28510444,0.36343406
12121,0,USFloridaSuwannee,Florida,Suwannee,2021-01-06 02:34:08.936229,2020-07-06 00:00:00.000000,1.79628772,2.80090846,3.74880085,797,1244,1665,535,824,1110,1.20457822,1.85652768,2.49970260,0.22185031,0.28486831,0.36109706
12121,0,USFloridaSuwannee,Florida,Suwannee,2021-01-06 02:34:08.936229,2020-07-07 00:00:00.000000,1.76690334,2.74956947,3.76229034,784,1221,1671,520,812,1116,1.17229280,1.82920611,2.51426565,0.22005117,0.28417924,0.36596828
12121,0,USFloridaSuwannee,Florida,Suwannee,2021-01-06 02:34:08.936229,2020-07-08 00:00:00.000000,1.73796741,2.69527047,3.76918290,771,1197,1674,506,797,1121,1.13957293,1.79499464,2.52503352,0.22163212,0.28563179,0.37345369
12121,0,USFloridaSuwannee,Florida,Suwannee,2021-01-06 02:34:08.936229,2020-07-09 00:00:00.000000,1.70698317,2.64832698,3.76421461,758,1176,1671,491,783,1124,1.10692865,1.76498139,2.53200370,0.22185233,0.28457630,0.36880029
12121,0,USFloridaSuwannee,Florida,Suwannee,2021-01-06 02:34:08.936229,2020-07-10 00:00:00.000000,1.67456089,2.63629645,3.75559450,743,1170,1668,480,771,1118,1.08191794,1.73701250,2.51864340,0.22257870,0.28709144,0.37153327
12121,0,USFloridaSuwannee,Florida,Suwannee,2021-01-06 02:34:08.936229,2020-07-11 00:00:00.000000,1.64129232,2.61044718,3.77613838,729,1159,1677,471,764,1109,1.06134180,1.72170134,2.49861592,0.22816202,0.29219992,0.37392580
12121,0,USFloridaSuwannee,Florida,Suwannee,2021-01-06 02:34:08.936229,2020-07-12 00:00:00.000000,1.60777096,2.58183303,3.80358574,714,1146,1689,462,755,1109,1.04024086,1.70096326,2.49719993,0.22907640,0.29601914,0.37796419
12121,0,USFloridaSuwannee,Florida,Suwannee,2021-01-06 02:34:08.936229,2020-07-13 00:00:00.000000,1.57054651,2.56252282,3.83543669,697,1138,1703,452,743,1113,1.01898598,1.67333566,2.50711458,0.23842622,0.30097300,0.38235581
12121,0,USFloridaSuwannee,Florida,Suwannee,2021-01-06 02:34:08.936229,2020-07-14 00:00:00.000000,1.53655542,2.54303904,3.88219800,682,1129,1724,442,733,1127,0.99554392,1.65067304,2.53884236,0.23820833,0.30483356,0.39053615
12121,0,USFloridaSuwannee,Florida,Suwannee,2021-01-06 02:34:08.936229,2020-07-15 00:00:00.000000,1.51364227,2.54685687,3.95509622,672,1131,1756,432,729,1147,0.97363288,1.64158196,2.58319431,0.23828594,0.31141718,0.40067624
12121,0,USFloridaSuwannee,Florida,Suwannee,2021-01-06 02:34:08.936229,2020-07-16 00:00:00.000000,1.51547426,2.51889362,3.98627596,673,1118,1770,425,733,1168,0.95886051,1.65042692,2.63020626,0.23870307,0.31763025,0.40916183
12121,0,USFloridaSuwannee,Florida,Suwannee,2021-01-06 02:34:08.936229,2020-07-17 00:00:00.000000,1.53876226,2.52510580,4.01970065,683,1121,1785,426,730,1177,0.95988357,1.64556668,2.65097350,0.24149211,0.32274320,0.44392429
12121,0,USFloridaSuwannee,Florida,Suwannee,2021-01-06 02:34:08.936229,2020-07-18 00:00:00.000000,1.57260168,2.52783822,4.06805965,698,1122,1806,433,733,1187,0.97561328,1.65126747,2.67264849,0.24295023,0.33019364,0.44599794
12121,0,USFloridaSuwannee,Florida,Suwannee,2021-01-06 02:34:08.936229,2020-07-19 00:00:00.000000,1.61191499,2.55037301,4.13837219,715,1132,1838,443,733,1199,0.99826364,1.65112722,2.70025040,0.24629431,0.34106327,0.44514137
12121,0,USFloridaSuwannee,Florida,Suwannee,2021-01-06 02:34:08.936229,2020-07-20 00:00:00.000000,1.65305389,2.57536439,4.22706208,734,1143,1877,454,731,1216,1.02356463,1.64786767,2.73839743,0.27225101,0.35496812,0.46348754
12121,0,USFloridaSuwannee,Florida,Suwannee,2021-01-06 02:34:08.936229,2020-07-21 00:00:00.000000,1.69577284,2.61069308,4.35628511,753,1159,1934,466,729,1238,1.04961718,1.64148762,2.78793461,0.28998617,0.37311009,0.48050440
12121,0,USFloridaSuwannee,Florida,Suwannee,2021-01-06 02:34:08.936229,2020-07-22 00:00:00.000000,1.73976331,2.62695984,4.57394681,772,1166,2031,478,741,1264,1.07646564,1.66985533,2.84757184,0.29504158,0.38301077,0.50055148
12121,0,USFloridaSuwannee,Florida,Suwannee,2021-01-06 02:34:08.936229,2020-07-23 00:00:00.000000,1.78617676,2.67052941,4.82249439,793,1186,2142,490,750,1296,1.10418652,1.68929250,2.91814357,0.30070718,0.39809581,0.51928026
12121,0,USFloridaSuwannee,Florida,Suwannee,2021-01-06 02:34:08.936229,2020-07-24 00:00:00.000000,1.83923736,2.74507108,5.08902558,816,1219,2260,503,764,1358,1.13346340,1.72140463,3.05740805,0.31869684,0.42485756,0.57031162
12121,0,USFloridaSuwannee,Florida,Suwannee,2021-01-06 02:34:08.936229,2020-07-25 00:00:00.000000,1.90984886,2.78131360,5.36846565,848,1235,2384,517,777,1427,1.16444186,1.75066674,3.21458479,0.33065581,0.45345675,0.58031909
12121,0,USFloridaSuwannee,Florida,Suwannee,2021-01-06 02:34:08.936229,2020-07-26 00:00:00.000000,2.01212614,2.90418115,5.58894608,893,1289,2482,533,793,1503,1.20001567,1.78587479,3.38444474,0.35627677,0.48482918,0.65111032
12121,0,USFloridaSuwannee,Florida,Suwannee,2021-01-06 02:34:08.936229,2020-07-27 00:00:00.000000,2.14779247,3.06020049,5.79876031,953,1359,2575,560,832,1583,1.26161645,1.87458202,3.56418803,0.39235527,0.50570911,0.72725792
12121,0,USFloridaSuwannee,Florida,Suwannee,2021-01-06 02:34:08.936229,2020-07-28 00:00:00.000000,2.31333319,3.30962003,6.02454173,1027,1470,2675,595,873,1666,1.34056343,1.96714882,3.75248512,0.41102305,0.52899650,0.75468189
12121,0,USFloridaSuwannee,Florida,Suwannee,2021-01-06 02:34:08.936229,2020-07-29 00:00:00.000000,2.52772578,3.65229426,6.43518354,1122,1622,2858,636,923,1751,1.43335173,2.07985374,3.94300874,0.42037967,0.57258607,0.78728115
12121,0,USFloridaSuwannee,Florida,Suwannee,2021-01-06 02:34:08.936229,2020-07-30 00:00:00.000000,2.77334048,3.96865367,6.91600435,1231,1762,3071,707,1006,1823,1.59393234,2.26640488,4.10528774,0.45872081,0.62751401,0.82340914
12121,0,USFloridaSuwannee,Florida,Suwannee,2021-01-06 02:34:08.936229,2020-07-31 00:00:00.000000,3.11817449,4.35400268,7.41510048,1384,1933,3293,781,1113,1910,1.76021489,2.50797365,4.30202317,0.50012977,0.68063796,0.84088138
12121,0,USFloridaSuwannee,Florida,Suwannee,2021-01-06 02:34:08.936229,2020-08-01 00:00:00.000000,3.44591261,4.80964708,7.90383295,1530,2136,3510,875,1232,2024,1.97184557,2.77428534,4.55903383,0.52261310,0.73043948,0.84544742
12121,0,USFloridaSuwannee,Florida,Suwannee,2021-01-06 02:34:08.936229,2020-08-02 00:00:00.000000,3.85875891,5.31803321,8.44799686,1713,2362,3752,965,1372,2177,2.17288982,3.08966332,4.90269578,0.55578114,0.77098079,0.88209009
12121,0,USFloridaSuwannee,Florida,Suwannee,2021-01-06 02:34:08.936229,2020-08-03 00:00:00.000000,4.26707911,5.95278237,9.32321054,1895,2644,4141,1041,1536,2334,2.34381878,3.45982763,5.25548216,0.60815382,0.80069735,0.90485281
12121,0,USFloridaSuwannee,Florida,Suwannee,2021-01-06 02:34:08.936229,2020-08-04 00:00:00.000000,4.72686237,6.69709316,10.09314846,2099,2974,4483,1166,1707,2577,2.62604859,3.84348803,5.80398951,0.60949486,0.81765296,0.91742672
12121,0,USFloridaSuwannee,Florida,Suwannee,2021-01-06 02:34:08.936229,2020-08-05 00:00:00.000000,5.30174118,7.53388270,11.00248788,2354,3346,4886,1320,1898,2878,2.97352705,4.27457176,6.48014113,0.60981876,0.82669563,0.92312104
12121,0,USFloridaSuwannee,Florida,Suwannee,2021-01-06 02:34:08.936229,2020-08-06 00:00:00.000000,6.00472963,8.37151816,11.70077224,2667,3718,5197,1500,2111,3165,3.37830733,4.75450990,7.12749958,0.60967974,0.82751885,0.92855195
12121,0,USFloridaSuwannee,Florida,Suwannee,2021-01-06 02:34:08.936229,2020-08-07 00:00:00.000000,6.78985836,9.34149835,12.54476719,3015,4149,5572,1705,2344,3371,3.83999742,5.27747823,7.58988507,0.60765077,0.82608428,0.92665053
12121,0,USFloridaSuwannee,Florida,Suwannee,2021-01-06 02:34:08.936229,2020-08-08 00:00:00.000000,7.66098922,10.35591326,13.80740547,3402,4599,6132,1936,2608,3581,4.35963615,5.87226930,8.06308063,0.59166269,0.82157541,0.91810235
12121,0,USFloridaSuwannee,Florida,Suwannee,2021-01-06 02:34:08.936229,2020-08-09 00:00:00.000000,8.61523144,11.38566096,15.15855304,3826,5057,6732,2160,2887,3831,4.86367155,6.50010324,8.62552729,0.52914496,0.77835691,0.91033110
12121,0,USFloridaSuwannee,Florida,Suwannee,2021-01-06 02:34:08.936229,2020-08-10 00:00:00.000000,9.64729948,12.12349426,16.27481774,4285,5384,7228,2322,3164,4159,5.22901123,7.12498510,9.36483826,0.39201757,0.67086495,0.90026743
12121,0,USFloridaSuwannee,Florida,Suwannee,2021-01-06 02:34:08.936229,2020-08-11 00:00:00.000000,9.95141739,12.50219864,16.36302891,4420,5553,7267,2512,3416,4451,5.65732081,7.69210594,10.02304571,0.26041659,0.51170438,0.84569713
12121,0,USFloridaSuwannee,Florida,Suwannee,2021-01-06 02:34:08.936229,2020-08-12 00:00:00.000000,9.95052449,12.47696381,16.03973978,4419,5541,7124,2740,3597,4709,6.17044767,8.09964738,10.60225318,0.19283174,0.35366501,0.58586983
12121,0,USFloridaSuwannee,Florida,Suwannee,2021-01-06 02:34:08.936229,2020-08-13 00:00:00.000000,9.45029482,11.88543877,15.50424249,4197,5279,6886,2730,3628,4785,6.14794925,8.16922664,10.77423375,0.15739010,0.24764159,0.34711680
12121,0,USFloridaSuwannee,Florida,Suwannee,2021-01-06 02:34:08.936229,2020-08-14 00:00:00.000000,8.75693387,11.14272757,14.78605857,3889,4949,6567,2631,3496,4737,5.92518791,7.87152260,10.66668255,0.15057654,0.20735439,0.27015901
12121,0,USFloridaSuwannee,Florida,Suwannee,2021-01-06 02:34:08.936229,2020-08-15 00:00:00.000000,7.94052526,10.29648374,13.94978093,3526,4573,6196,2428,3289,4607,5.46807948,7.40508699,10.37272732,0.14466048,0.19207242,0.24593015
12121,0,USFloridaSuwannee,Florida,Suwannee,2021-01-06 02:34:08.936229,2020-08-16 00:00:00.000000,7.14961990,9.50569474,13.08014865,3175,4222,5809,2217,3051,4424,4.99254869,6.87093267,9.96074901,0.13309936,0.18644672,0.23737261
12121,0,USFloridaSuwannee,Florida,Suwannee,2021-01-06 02:34:08.936229,2020-08-17 00:00:00.000000,6.43223033,8.75334371,12.23144139,2857,3887,5432,1996,2861,4211,4.49513915,6.44298021,9.48153640,0.12772071,0.18305115,0.23694465
12121,0,USFloridaSuwannee,Florida,Suwannee,2021-01-06 02:34:08.936229,2020-08-18 00:00:00.000000,5.78488859,8.07771750,11.41939716,2569,3587,5072,1797,2632,3981,4.04605892,5.92742282,8.96490993,0.12759164,0.18110811,0.23523913
12121,0,USFloridaSuwannee,Florida,Suwannee,2021-01-06 02:34:08.936229,2020-08-19 00:00:00.000000,5.23076829,7.50027223,10.65139133,2323,3331,4731,1617,2432,3748,3.64211696,5.47577292,8.43895694,0.12758354,0.17907795,0.23558773
12121,0,USFloridaSuwannee,Florida,Suwannee,2021-01-06 02:34:08.936229,2020-08-20 00:00:00.000000,4.72759872,6.89355986,9.92937149,2099,3061,4410,1456,2249,3518,3.28021567,5.06462137,7.92053136,0.11883908,0.17464000,0.22831811
12121,0,USFloridaSuwannee,Florida,Suwannee,2021-01-06 02:34:08.936229,2020-08-21 00:00:00.000000,4.26546475,6.31664589,9.25294729,1894,2805,4109,1313,2062,3294,2.95731949,4.64284166,7.41767275,0.11526962,0.17358869,0.23038934
12121,0,USFloridaSuwannee,Florida,Suwannee,2021-01-06 02:34:08.936229,2020-08-22 00:00:00.000000,3.84357492,5.79716855,8.62065712,1707,2574,3829,1186,1899,3078,2.67078676,4.27711578,6.93187515,0.11308392,0.17257488,0.22625235
12121,0,USFloridaSuwannee,Florida,Suwannee,2021-01-06 02:34:08.936229,2020-08-23 00:00:00.000000,3.47544327,5.29575724,8.03014315,1543,2352,3566,1073,1746,2871,2.41779713,3.93151586,6.46582905,0.11361243,0.17065653,0.22684617
12121,0,USFloridaSuwannee,Florida,Suwannee,2021-01-06 02:34:08.936229,2020-08-24 00:00:00.000000,3.15719869,4.85654667,7.47210066,1402,2157,3318,975,1616,2675,2.19510692,3.63911033,6.02323427,0.11413953,0.17113437,0.23020809
12121,0,USFloridaSuwannee,Florida,Suwannee,2021-01-06 02:34:08.936229,2020-08-25 00:00:00.000000,2.87568522,4.46380017,6.94939283,1277,1982,3086,886,1495,2490,1.99555996,3.36677278,5.60771312,0.11432217,0.17229301,0.23584507
12121,0,USFloridaSuwannee,Florida,Suwannee,2021-01-06 02:34:08.936229,2020-08-26 00:00:00.000000,2.62477887,4.10123146,6.45852077,1165,1821,2868,802,1371,2318,1.80597762,3.08822773,5.21897160,0.11546301,0.17242298,0.24430166
12121,0,USFloridaSuwannee,Florida,Suwannee,2021-01-06 02:34:08.936229,2020-08-27 00:00:00.000000,2.39888779,3.75535225,5.99703723,1065,1668,2663,732,1255,2156,1.64996010,2.82632714,4.85608259,0.11992933,0.17618961,0.25473615
12121,0,USFloridaSuwannee,Florida,Suwannee,2021-01-06 02:34:08.936229,2020-08-28 00:00:00.000000,2.20108069,3.45978171,5.56296539,977,1536,2470,673,1155,2006,1.51661093,2.60207277,4.51779570,0.12626220,0.18199562,0.25594976
12121,0,USFloridaSuwannee,Florida,Suwannee,2021-01-06 02:34:08.936229,2020-08-29 00:00:00.000000,2.00809442,3.18910000,5.18043904,891,1416,2300,616,1057,1866,1.38691802,2.38182002,4.20272876,0.12675639,0.19065356,0.28543082
12121,0,USFloridaSuwannee,Florida,Suwannee,2021-01-06 02:34:08.936229,2020-08-30 00:00:00.000000,1.83751271,2.94392721,4.86855217,816,1307,2162,563,969,1736,1.26914302,2.18271010,3.90947951,0.12924599,0.19734674,0.28939332
12121,0,USFloridaSuwannee,Florida,Suwannee,2021-01-06 02:34:08.936229,2020-08-31 00:00:00.000000,1.68736537,2.70867227,4.52534594,749,1203,2010,516,894,1615,1.16256307,2.01323894,3.63668690,0.12959516,0.20070751,0.29683228
12121,0,USFloridaSuwannee,Florida,Suwannee,2021-01-06 02:34:08.936229,2020-09-01 00:00:00.000000,1.55153798,2.50671599,4.20668020,689,1113,1868,472,826,1503,1.06458825,1.86025224,3.38493987,0.12930344,0.20742956,0.31276500
12121,0,USFloridaSuwannee,Florida,Suwannee,2021-01-06 02:34:08.936229,2020-09-02 00:00:00.000000,1.42820873,2.32888013,3.97026474,634,1034,1763,439,762,1397,0.98958913,1.71738581,3.14636939,0.12925108,0.21667164,0.32167962
12121,0,USFloridaSuwannee,Florida,Suwannee,2021-01-06 02:34:08.936229,2020-09-03 00:00:00.000000,1.33737480,2.15564619,3.80963711,594,957,1692,412,705,1299,0.92810548,1.58746809,2.92633289,0.12931865,0.22715300,0.32253456
12121,0,USFloridaSuwannee,Florida,Suwannee,2021-01-06 02:34:08.936229,2020-09-04 00:00:00.000000,1.24203662,2.01005905,3.66658944,551,892,1628,377,654,1208,0.84881817,1.47259047,2.72161100,0.12967307,0.23792687,0.33186866
12121,0,USFloridaSuwannee,Florida,Suwannee,2021-01-06 02:34:08.936229,2020-09-05 00:00:00.000000,1.13572147,1.88993945,3.49398374,504,839,1551,346,608,1157,0.78066354,1.37027140,2.60553074,0.13177997,0.24477947,0.35286325
12121,0,USFloridaSuwannee,Florida,Suwannee,2021-01-06 02:34:08.936229,2020-09-06 00:00:00.000000,1.04603071,1.77081734,3.30174063,464,786,1466,316,566,1111,0.71346438,1.27577423,2.50315707,0.14439802,0.25274589,0.36919512
12121,0,USFloridaSuwannee,Florida,Suwannee,2021-01-06 02:34:08.936229,2020-09-07 00:00:00.000000,0.97503510,1.66814901,3.11946867,433,740,1385,294,529,1070,0.66228898,1.19195103,2.41012056,0.17283913,0.26328846,0.38335745
12121,0,USFloridaSuwannee,Florida,Suwannee,2021-01-06 02:34:08.936229,2020-09-08 00:00:00.000000,0.92197112,1.57596475,2.94765297,409,699,1309,275,497,1025,0.62107846,1.12070028,2.30842236,0.19237435,0.26966208,0.41095670
12121,0,USFloridaSuwannee,Florida,Suwannee,2021-01-06 02:34:08.936229,2020-09-09 00:00:00.000000,0.87332264,1.48932171,2.78707344,387,661,1237,259,470,968,0.58489652,1.05816534,2.18138613,0.19998412,0.28846428,0.41338129
12121,0,USFloridaSuwannee,Florida,Suwannee,2021-01-06 02:34:08.936229,2020-09-10 00:00:00.000000,0.82954514,1.41107417,2.64052137,368,626,1172,245,444,915,0.55303503,1.00118244,2.06191224,0.20299000,0.29945979,0.43681570
12121,0,USFloridaSuwannee,Florida,Suwannee,2021-01-06 02:34:08.936229,2020-09-11 00:00:00.000000,0.79297800,1.34561092,2.51416094,352,597,1116,233,421,866,0.52530301,0.94948129,1.95110240,0.20615134,0.31915908,0.46211056
12121,0,USFloridaSuwannee,Florida,Suwannee,2021-01-06 02:34:08.936229,2020-09-12 00:00:00.000000,0.76361410,1.28642801,2.40910413,339,571,1070,222,401,821,0.50052330,0.90314222,1.85043383,0.20594916,0.33838141,0.49720657
12121,0,USFloridaSuwannee,Florida,Suwannee,2021-01-06 02:34:08.936229,2020-09-13 00:00:00.000000,0.74071380,1.23623918,2.31166975,329,549,1026,210,383,781,0.47360318,0.86264833,1.75947009,0.20559566,0.35227648,0.53362932
12121,0,USFloridaSuwannee,Florida,Suwannee,2021-01-06 02:34:08.936229,2020-09-14 00:00:00.000000,0.73924710,1.19840763,2.22019512,328,532,986,201,362,744,0.45473032,0.81714666,1.67636173,0.20522978,0.36040800,0.56903759
12121,0,USFloridaSuwannee,Florida,Suwannee,2021-01-06 02:34:08.936229,2020-09-15 00:00:00.000000,0.73428155,1.17789864,2.13280046,326,523,947,200,347,711,0.45029051,0.78343253,1.60169734,0.20530011,0.36978089,0.57105137
12121,0,USFloridaSuwannee,Florida,Suwannee,2021-01-06 02:34:08.936229,2020-09-16 00:00:00.000000,0.73159162,1.15211129,2.05026343,324,511,910,200,340,681,0.45178123,0.76570650,1.53355257,0.20912277,0.37691042,0.58546159
12121,0,USFloridaSuwannee,Florida,Suwannee,2021-01-06 02:34:08.936229,2020-09-17 00:00:00.000000,0.72979944,1.13753382,1.98398381,324,505,881,201,335,653,0.45262829,0.75565931,1.47078427,0.21634742,0.39233088,0.59479126
12121,0,USFloridaSuwannee,Florida,Suwannee,2021-01-06 02:34:08.936229,2020-09-18 00:00:00.000000,0.71234744,1.11950959,1.96183601,316,497,871,199,329,627,0.44986487,0.74156031,1.41323614,0.22725977,0.39756888,0.59777458
12121,0,USFloridaSuwannee,Florida,Suwannee,2021-01-06 02:34:08.936229,2020-09-19 00:00:00.000000,0.70198586,1.09738121,1.94095115,311,487,862,197,322,604,0.44429833,0.72570690,1.36147488,0.24065907,0.41404013,0.59890447
12121,0,USFloridaSuwannee,Florida,Suwannee,2021-01-06 02:34:08.936229,2020-09-20 00:00:00.000000,0.69744781,1.08919532,1.92225193,309,483,853,194,315,583,0.43882914,0.71123008,1.31448608,0.25350170,0.41569106,0.64836980
12121,0,USFloridaSuwannee,Florida,Suwannee,2021-01-06 02:34:08.936229,2020-09-21 00:00:00.000000,0.69567177,1.07340024,1.90421256,308,476,845,196,314,566,0.44200484,0.70884171,1.27476962,0.26354141,0.41590064,0.64974701
12121,0,USFloridaSuwannee,Florida,Suwannee,2021-01-06 02:34:08.936229,2020-09-22 00:00:00.000000,0.69350086,1.06563809,1.89058320,308,473,839,195,310,560,0.44069015,0.69819824,1.26175587,0.26481608,0.43467549,0.63444063
12121,0,USFloridaSuwannee,Florida,Suwannee,2021-01-06 02:34:08.936229,2020-09-23 00:00:00.000000,0.69213181,1.05434772,1.83288044,307,468,814,195,307,555,0.43947822,0.69137350,1.25077178,0.26217101,0.43723330,0.63628184
12121,0,USFloridaSuwannee,Florida,Suwannee,2021-01-06 02:34:08.936229,2020-09-24 00:00:00.000000,0.69319032,1.06247467,1.77195054,307,471,787,194,305,551,0.43856068,0.68780231,1.24218643,0.26717040,0.43804031,0.63659255
12121,0,USFloridaSuwannee,Florida,Suwannee,2021-01-06 02:34:08.936229,2020-09-25 00:00:00.000000,0.69436307,1.06191517,1.71347272,308,471,761,194,302,548,0.43899096,0.68125768,1.23534109,0.26757526,0.43686502,0.63567538
12121,0,USFloridaSuwannee,Florida,Suwannee,2021-01-06 02:34:08.936229,2020-09-26 00:00:00.000000,0.67755660,1.05496805,1.65754978,300,468,736,195,300,545,0.44076115,0.67683426,1.22887595,0.26898588,0.43722138,0.63257457
12121,0,USFloridaSuwannee,Florida,Suwannee,2021-01-06 02:34:08.936229,2020-09-27 00:00:00.000000,0.68489014,1.03573168,1.60851159,304,460,714,196,300,531,0.44324994,0.67675885,1.19626226,0.27437435,0.43519915,0.62170399
12121,0,USFloridaSuwannee,Florida,Suwannee,2021-01-06 02:34:08.936229,2020-09-28 00:00:00.000000,0.67620862,1.03526447,1.58717270,300,459,704,193,299,514,0.43559786,0.67518909,1.15732283,0.27840563,0.43796254,0.61671944
12121,0,USFloridaSuwannee,Florida,Suwannee,2021-01-06 02:34:08.936229,2020-09-29 00:00:00.000000,0.67263941,1.04260496,1.56485305,298,463,695,190,295,497,0.42962855,0.66594798,1.11918591,0.28485952,0.44143080,0.60991052
12121,0,USFloridaSuwannee,Florida,Suwannee,2021-01-06 02:34:08.936229,2020-09-30 00:00:00.000000,0.67123506,1.04498116,1.54183848,298,464,684,191,295,482,0.43018633,0.66492418,1.08629071,0.28334718,0.44059033,0.59046829
12121,0,USFloridaSuwannee,Florida,Suwannee,2021-01-06 02:34:08.936229,2020-10-01 00:00:00.000000,0.66903150,1.02841873,1.51800593,297,456,674,190,296,472,0.42901509,0.66836096,1.06469200,0.28126200,0.44169743,0.57646247
12121,0,USFloridaSuwannee,Florida,Suwannee,2021-01-06 02:34:08.936229,2020-10-02 00:00:00.000000,0.65050085,1.01223340,1.49255767,288,449,662,188,299,463,0.42427493,0.67396891,1.04269690,0.27663373,0.44160199,0.57044435
12121,0,USFloridaSuwannee,Florida,Suwannee,2021-01-06 02:34:08.936229,2020-10-03 00:00:00.000000,0.62909586,0.99780149,1.46437290,279,443,650,183,298,453,0.41239042,0.67210271,1.02022781,0.27049594,0.43925929,0.57206665
12121,0,USFloridaSuwannee,Florida,Suwannee,2021-01-06 02:34:08.936229,2020-10-04 00:00:00.000000,0.60639745,0.98634323,1.43264057,269,438,636,177,296,443,0.39864126,0.66788919,0.99760507,0.26723626,0.43565670,0.57109846
12121,0,USFloridaSuwannee,Florida,Suwannee,2021-01-06 02:34:08.936229,2020-10-05 00:00:00.000000,0.58452024,0.98312547,1.45270950,259,436,645,170,291,433,0.38412370,0.65554039,0.97496171,0.26600252,0.43551814,0.57814027
12121,0,USFloridaSuwannee,Florida,Suwannee,2021-01-06 02:34:08.936229,2020-10-06 00:00:00.000000,0.56347604,0.97728420,1.41769506,250,434,629,164,287,435,0.37002654,0.64793792,0.98081001,0.26566785,0.43319311,0.57906346
12121,0,USFloridaSuwannee,Florida,Suwannee,2021-01-06 02:34:08.936229,2020-10-07 00:00:00.000000,0.56703055,0.95017103,1.41769139,251,422,629,158,290,438,0.35657375,0.65317480,0.98784344,0.26580776,0.43196206,0.59020362
12121,0,USFloridaSuwannee,Florida,Suwannee,2021-01-06 02:34:08.936229,2020-10-08 00:00:00.000000,0.58463500,0.92887210,1.42247750,259,412,631,156,283,433,0.35338221,0.63895849,0.97510993,0.26667200,0.43571051,0.59548244
12121,0,USFloridaSuwannee,Florida,Suwannee,2021-01-06 02:34:08.936229,2020-10-09 00:00:00.000000,0.60349272,0.92355862,1.42602215,268,410,633,160,278,434,0.36135784,0.62810922,0.97902810,0.26966268,0.43228857,0.60001402
12121,0,USFloridaSuwannee,Florida,Suwannee,2021-01-06 02:34:08.936229,2020-10-10 00:00:00.000000,0.59962034,0.90657709,1.42881962,266,402,634,165,273,436,0.37291401,0.61687872,0.98205225,0.27926957,0.43358013,0.61709748
12121,0,USFloridaSuwannee,Florida,Suwannee,2021-01-06 02:34:08.936229,2020-10-11 00:00:00.000000,0.61789600,0.89548078,1.43111944,274,397,635,168,269,437,0.37975596,0.60655098,0.98441983,0.29969127,0.43679172,0.62689060
12121,0,USFloridaSuwannee,Florida,Suwannee,2021-01-06 02:34:08.936229,2020-10-12 00:00:00.000000,0.60828904,0.88544519,1.42287196,270,393,631,170,261,438,0.38406813,0.58859728,0.98632698,0.29206424,0.43132544,0.62324153
12121,0,USFloridaSuwannee,Florida,Suwannee,2021-01-06 02:34:08.936229,2020-10-13 00:00:00.000000,0.59955554,0.87010052,1.40665182,266,386,624,168,256,436,0.37967704,0.57770415,0.98376881,0.28992431,0.43151070,0.62101839
12121,0,USFloridaSuwannee,Florida,Suwannee,2021-01-06 02:34:08.936229,2020-10-14 00:00:00.000000,0.59125809,0.85121534,1.39003646,262,378,617,167,251,432,0.37647615,0.56527832,0.97349965,0.28962965,0.42771858,0.62046331
12121,0,USFloridaSuwannee,Florida,Suwannee,2021-01-06 02:34:08.936229,2020-10-15 00:00:00.000000,0.57718789,0.84081919,1.37236968,256,373,609,165,246,427,0.37214821,0.55495806,0.96282078,0.28962915,0.42577436,0.59898222
12121,0,USFloridaSuwannee,Florida,Suwannee,2021-01-06 02:34:08.936229,2020-10-16 00:00:00.000000,0.56903501,0.82367467,1.35192353,252,365,600,157,240,422,0.35562307,0.54092477,0.95154639,0.28894519,0.42457831,0.59282205
12121,0,USFloridaSuwannee,Florida,Suwannee,2021-01-06 02:34:08.936229,2020-10-17 00:00:00.000000,0.55585415,0.82087035,1.32547779,246,364,588,150,236,416,0.33984213,0.53205013,0.93842523,0.28810409,0.42397764,0.59002248
12121,0,USFloridaSuwannee,Florida,Suwannee,2021-01-06 02:34:08.936229,2020-10-18 00:00:00.000000,0.54297250,0.81121601,1.29213656,241,360,573,144,232,409,0.32618960,0.52408709,0.92269441,0.28106732,0.42138848,0.58581512
12121,0,USFloridaSuwannee,Florida,Suwannee,2021-01-06 02:34:08.936229,2020-10-19 00:00:00.000000,0.53981486,0.79664798,1.25268778,239,353,556,141,228,401,0.31866607,0.51507246,0.90336952,0.28844088,0.41963336,0.59672537
12121,0,USFloridaSuwannee,Florida,Suwannee,2021-01-06 02:34:08.936229,2020-10-20 00:00:00.000000,0.53279192,0.79195420,1.23018442,236,351,546,139,227,390,0.31494118,0.51234820,0.88014140,0.29040004,0.41828949,0.60508519
12121,0,USFloridaSuwannee,Florida,Suwannee,2021-01-06 02:34:08.936229,2020-10-21 00:00:00.000000,0.51682950,0.77872183,1.22265478,229,345,543,138,226,379,0.31287384,0.50924722,0.85448618,0.29667973,0.41694613,0.60616613
12121,0,USFloridaSuwannee,Florida,Suwannee,2021-01-06 02:34:08.936229,2020-10-22 00:00:00.000000,0.50154471,0.75756169,1.20954581,222,336,537,138,223,367,0.31153600,0.50251377,0.82768733,0.30157804,0.41944469,0.60629025
12121,0,USFloridaSuwannee,Florida,Suwannee,2021-01-06 02:34:08.936229,2020-10-23 00:00:00.000000,0.48694948,0.73438405,1.19302418,216,326,529,137,221,362,0.31052691,0.49883470,0.81627028,0.30413794,0.41178803,0.60639943
12121,0,USFloridaSuwannee,Florida,Suwannee,2021-01-06 02:34:08.936229,2020-10-24 00:00:00.000000,0.47306330,0.71980968,1.17479479,210,319,521,137,220,358,0.30969078,0.49630862,0.80766531,0.30844119,0.42417437,0.60527882
12121,0,USFloridaSuwannee,Florida,Suwannee,2021-01-06 02:34:08.936229,2020-10-25 00:00:00.000000,0.45994629,0.71438456,1.15434162,204,317,512,137,214,351,0.30953976,0.48352303,0.79037646,0.31543750,0.42451304,0.59277586
12121,0,USFloridaSuwannee,Florida,Suwannee,2021-01-06 02:34:08.936229,2020-10-26 00:00:00.000000,0.45609892,0.70681745,1.14383812,202,313,508,138,209,348,0.31099328,0.47068453,0.78383256,0.32609188,0.42478663,0.63352442
12121,0,USFloridaSuwannee,Florida,Suwannee,2021-01-06 02:34:08.936229,2020-10-27 00:00:00.000000,0.45375129,0.69881468,1.13162317,201,310,502,136,205,344,0.30704361,0.46179310,0.77638221,0.33505375,0.42808149,0.63782657
12121,0,USFloridaSuwannee,Florida,Suwannee,2021-01-06 02:34:08.936229,2020-10-28 00:00:00.000000,0.45490420,0.69076345,1.11917353,202,306,497,132,202,341,0.29930931,0.45648898,0.76796719,0.33860762,0.43539558,0.64042846
12121,0,USFloridaSuwannee,Florida,Suwannee,2021-01-06 02:34:08.936229,2020-10-29 00:00:00.000000,0.44363743,0.68523535,1.10553300,197,304,491,127,199,337,0.28810465,0.44841606,0.75952122,0.34248468,0.44873940,0.63982908
12121,0,USFloridaSuwannee,Florida,Suwannee,2021-01-06 02:34:08.936229,2020-10-30 00:00:00.000000,0.43120601,0.67327870,1.09288298,191,299,485,123,197,333,0.27874951,0.44457018,0.75069593,0.35400363,0.45228969,0.63290358
12121,0,USFloridaSuwannee,Florida,Suwannee,2021-01-06 02:34:08.936229,2020-10-31 00:00:00.000000,0.42012353,0.65809559,1.08501792,186,292,481,120,194,329,0.27077912,0.43720831,0.74228252,0.36126468,0.45341962,0.62640184
12121,0,USFloridaSuwannee,Florida,Suwannee,2021-01-06 02:34:08.936229,2020-11-01 00:00:00.000000,0.40990352,0.64564687,1.07744290,182,286,478,117,192,329,0.26369662,0.43338150,0.74167288,0.36609634,0.45854400,0.64652260
12121,0,USFloridaSuwannee,Florida,Suwannee,2021-01-06 02:34:08.936229,2020-11-02 00:00:00.000000,0.40682049,0.64130172,1.07032271,180,284,475,114,191,327,0.25717388,0.43088755,0.73646892,0.37203758,0.46480171,0.66435885
12121,0,USFloridaSuwannee,Florida,Suwannee,2021-01-06 02:34:08.936229,2020-11-03 00:00:00.000000,0.40421393,0.64187849,1.06314586,179,285,472,112,189,324,0.25412285,0.42669237,0.73151254,0.37543385,0.47135012,0.68040105
12121,0,USFloridaSuwannee,Florida,Suwannee,2021-01-06 02:34:08.936229,2020-11-04 00:00:00.000000,0.40600663,0.64632957,1.05595263,180,287,469,111,188,322,0.25174568,0.42460152,0.72662608,0.37643346,0.47875186,0.68147952
12121,0,USFloridaSuwannee,Florida,Suwannee,2021-01-06 02:34:08.936229,2020-11-05 00:00:00.000000,0.40318055,0.64689361,1.04888701,179,287,465,110,188,320,0.24988583,0.42349385,0.72143754,0.37850565,0.48902706,0.68225659
12121,0,USFloridaSuwannee,Florida,Suwannee,2021-01-06 02:34:08.936229,2020-11-06 00:00:00.000000,0.40180409,0.64703619,1.04243763,178,287,463,111,186,315,0.25021513,0.42071722,0.71060107,0.39532995,0.50322603,0.69630151
12121,0,USFloridaSuwannee,Florida,Suwannee,2021-01-06 02:34:08.936229,2020-11-07 00:00:00.000000,0.40649113,0.64895564,1.02744850,180,288,456,110,186,310,0.24914895,0.41912052,0.69830936,0.38581318,0.53965077,0.73221317
12121,0,USFloridaSuwannee,Florida,Suwannee,2021-01-06 02:34:08.936229,2020-11-08 00:00:00.000000,0.42144538,0.66214031,1.03486525,187,294,459,110,189,304,0.24940301,0.42563152,0.68525502,0.37867852,0.55268940,0.73946925
12121,0,USFloridaSuwannee,Florida,Suwannee,2021-01-06 02:34:08.936229,2020-11-09 00:00:00.000000,0.43467451,0.67460276,1.03884761,193,299,461,113,191,311,0.25610698,0.43147135,0.70206041,0.38284058,0.57271924,0.74066251
12121,0,USFloridaSuwannee,Florida,Suwannee,2021-01-06 02:34:08.936229,2020-11-10 00:00:00.000000,0.45036371,0.69198319,1.06720931,200,307,474,114,198,313,0.25805094,0.44650194,0.70684736,0.39153400,0.59150208,0.74087329
12121,0,USFloridaSuwannee,Florida,Suwannee,2021-01-06 02:34:08.936229,2020-11-11 00:00:00.000000,0.45442319,0.71380032,1.09935042,201,317,488,115,203,314,0.26063912,0.45860862,0.70819222,0.39100380,0.60074961,0.76652297
12121,0,USFloridaSuwannee,Florida,Suwannee,2021-01-06 02:34:08.936229,2020-11-12 00:00:00.000000,0.44862752,0.73098253,1.14460044,199,324,508,117,206,315,0.26373785,0.46422947,0.71060957,0.39268575,0.61503486,0.79740054
12121,0,USFloridaSuwannee,Florida,Suwannee,2021-01-06 02:34:08.936229,2020-11-13 00:00:00.000000,0.47181804,0.75472022,1.18146339,209,335,524,124,212,319,0.28073655,0.47756428,0.72037419,0.41056719,0.62875224,0.82165299
12121,0,USFloridaSuwannee,Florida,Suwannee,2021-01-06 02:34:08.936229,2020-11-14 00:00:00.000000,0.47886199,0.78204840,1.21042564,212,347,537,127,217,325,0.28747975,0.48906465,0.73345547,0.43760564,0.64483732,0.87997684
12121,0,USFloridaSuwannee,Florida,Suwannee,2021-01-06 02:34:08.936229,2020-11-15 00:00:00.000000,0.49604039,0.80319953,1.25178075,220,356,556,132,219,336,0.29912206,0.49420961,0.75777166,0.45214403,0.66865230,0.96864925
12121,0,USFloridaSuwannee,Florida,Suwannee,2021-01-06 02:34:08.936229,2020-11-16 00:00:00.000000,0.51686834,0.83787432,1.29450873,229,372,574,140,223,348,0.31607082,0.50243824,0.78424025,0.47218695,0.68784813,0.99605506
12121,0,USFloridaSuwannee,Florida,Suwannee,2021-01-06 02:34:08.936229,2020-11-17 00:00:00.000000,0.54694622,0.87517417,1.33434409,242,388,592,148,231,360,0.33514143,0.52102123,0.81120767,0.48607823,0.70668177,1.03478075
12121,0,USFloridaSuwannee,Florida,Suwannee,2021-01-06 02:34:08.936229,2020-11-18 00:00:00.000000,0.57968979,0.91007651,1.35474179,257,404,601,155,240,372,0.34911637,0.54249132,0.83925194,0.49590847,0.70858353,1.06265880
12121,0,USFloridaSuwannee,Florida,Suwannee,2021-01-06 02:34:08.936229,2020-11-19 00:00:00.000000,0.61492544,0.94724737,1.40933296,273,420,625,159,252,392,0.36000102,0.56883652,0.88262441,0.50591056,0.71842883,1.18083978
12121,0,USFloridaSuwannee,Florida,Suwannee,2021-01-06 02:34:08.936229,2020-11-20 00:00:00.000000,0.65396086,0.98150218,1.44912424,290,435,643,167,264,415,0.37627055,0.59612912,0.93457334,0.50447879,0.72302995,1.18660008
12121,0,USFloridaSuwannee,Florida,Suwannee,2021-01-06 02:34:08.936229,2020-11-21 00:00:00.000000,0.69981438,1.01708452,1.48466019,310,451,659,176,273,418,0.39801043,0.61606464,0.94280761,0.49594457,0.71959804,1.19664546
12121,0,USFloridaSuwannee,Florida,Suwannee,2021-01-06 02:34:08.936229,2020-11-22 00:00:00.000000,0.72494050,1.06621785,1.48440239,321,473,659,186,285,423,0.42083891,0.64341538,0.95372349,0.50057519,0.73218815,1.25442492
12121,0,USFloridaSuwannee,Florida,Suwannee,2021-01-06 02:34:08.936229,2020-11-23 00:00:00.000000,0.76539633,1.09532548,1.54843967,339,486,687,197,294,443,0.44476471,0.66349284,0.99799803,0.49349040,0.73347743,1.28800712
12121,0,USFloridaSuwannee,Florida,Suwannee,2021-01-06 02:34:08.936229,2020-11-24 00:00:00.000000,0.80108231,1.13255239,1.61788638,355,503,718,209,305,463,0.47085399,0.68826973,1.04380030,0.49459679,0.73756373,1.31172359
12121,0,USFloridaSuwannee,Florida,Suwannee,2021-01-06 02:34:08.936229,2020-11-25 00:00:00.000000,0.83950727,1.17473353,1.68156750,372,521,746,221,316,481,0.49841396,0.71360281,1.08436972,0.49971942,0.74861297,1.33306807
12121,0,USFloridaSuwannee,Florida,Suwannee,2021-01-06 02:34:08.936229,2020-11-26 00:00:00.000000,0.87759298,1.20694047,1.75333140,389,536,778,233,327,496,0.52679644,0.73828222,1.11789092,0.51173429,0.75085769,1.36767633
12121,0,USFloridaSuwannee,Florida,Suwannee,2021-01-06 02:34:08.936229,2020-11-27 00:00:00.000000,0.90134472,1.24875803,1.81557060,400,554,806,241,343,511,0.54333558,0.77346547,1.15231716,0.53457531,0.76129113,1.38842221
12121,0,USFloridaSuwannee,Florida,Suwannee,2021-01-06 02:34:08.936229,2020-11-28 00:00:00.000000,0.92850664,1.31182284,1.88119406,412,582,835,256,357,527,0.57679261,0.80435124,1.18748675,0.56555936,0.76239256,1.39133902
12121,0,USFloridaSuwannee,Florida,Suwannee,2021-01-06 02:34:08.936229,2020-11-29 00:00:00.000000,0.96075683,1.37266461,1.95269911,426,609,867,267,372,543,0.60160769,0.83769096,1.22334074,0.57850923,0.76409894,1.38618550
12121,0,USFloridaSuwannee,Florida,Suwannee,2021-01-06 02:34:08.936229,2020-11-30 00:00:00.000000,0.99375464,1.42523838,2.03685509,441,633,904,275,387,565,0.62071348,0.87132205,1.27350399,0.57933961,0.76567230,1.43148257
12121,0,USFloridaSuwannee,Florida,Suwannee,2021-01-06 02:34:08.936229,2020-12-01 00:00:00.000000,1.01435597,1.49681716,2.16716173,450,664,962,280,400,595,0.63219578,0.90210232,1.33996908,0.57407176,0.77262338,1.45795088
12121,0,USFloridaSuwannee,Florida,Suwannee,2021-01-06 02:34:08.936229,2020-12-02 00:00:00.000000,1.03445167,1.57058966,2.30350601,459,697,1023,291,419,627,0.65579317,0.94333925,1.41195568,0.56970133,0.77689983,1.46705383
12121,0,USFloridaSuwannee,Florida,Suwannee,2021-01-06 02:34:08.936229,2020-12-03 00:00:00.000000,1.07453332,1.65590524,2.44563465,477,735,1086,301,439,660,0.67990121,0.99021490,1.48749729,0.56948106,0.79120334,1.46950676
12121,0,USFloridaSuwannee,Florida,Suwannee,2021-01-06 02:34:08.936229,2020-12-04 00:00:00.000000,1.12602138,1.72150752,2.59337828,500,764,1151,306,457,696,0.69041199,1.02951728,1.56718337,0.57269511,0.82014221,1.46812327
12121,0,USFloridaSuwannee,Florida,Suwannee,2021-01-06 02:34:08.936229,2020-12-05 00:00:00.000000,1.16411961,1.79512319,2.74656218,517,797,1219,316,480,732,0.71262073,1.08135132,1.64992350,0.59916904,0.82195773,1.45847269
12121,0,USFloridaSuwannee,Florida,Suwannee,2021-01-06 02:34:08.936229,2020-12-06 00:00:00.000000,1.18894472,1.86097764,2.89464196,528,826,1285,327,507,770,0.73840674,1.14156659,1.73553196,0.59736215,0.83180615,1.43886432
12121,0,USFloridaSuwannee,Florida,Suwannee,2021-01-06 02:34:08.936229,2020-12-07 00:00:00.000000,1.22486293,1.94316381,3.03149884,544,863,1346,339,532,810,0.76474801,1.19792878,1.82385923,0.59664202,0.84475863,1.43964751
12121,0,USFloridaSuwannee,Florida,Suwannee,2021-01-06 02:34:08.936229,2020-12-08 00:00:00.000000,1.26271578,2.03646544,3.17172189,560,904,1408,352,555,849,0.79286874,1.24957598,1.91303118,0.59649590,0.84572980,1.67828764
12121,0,USFloridaSuwannee,Florida,Suwannee,2021-01-06 02:34:08.936229,2020-12-09 00:00:00.000000,1.30414795,2.11805659,3.31463468,579,940,1472,365,575,890,0.82179550,1.29679512,2.00376379,0.61018579,0.85965427,1.69948423
12121,0,USFloridaSuwannee,Florida,Suwannee,2021-01-06 02:34:08.936229,2020-12-10 00:00:00.000000,1.34981615,2.20265726,3.46000403,599,978,1536,378,603,931,0.85132702,1.35819262,2.09625564,0.61560738,0.87705883,1.70208601
12121,0,USFloridaSuwannee,Florida,Suwannee,2021-01-06 02:34:08.936229,2020-12-11 00:00:00.000000,1.40241994,2.29412842,3.60542357,622,1018,1601,391,629,972,0.88142330,1.41819163,2.19046937,0.61601707,0.88203506,1.70335320
12121,0,USFloridaSuwannee,Florida,Suwannee,2021-01-06 02:34:08.936229,2020-12-12 00:00:00.000000,1.46606253,2.39348169,3.69491535,651,1063,1641,405,655,1015,0.91219341,1.47499236,2.28553737,0.63424606,0.90373277,1.71634695
12121,0,USFloridaSuwannee,Florida,Suwannee,2021-01-06 02:34:08.936229,2020-12-13 00:00:00.000000,1.54503104,2.49844278,3.75506476,686,1109,1667,419,684,1049,0.94393009,1.54003516,2.36171238,0.65773084,0.91689023,1.77090025
12121,0,USFloridaSuwannee,Florida,Suwannee,2021-01-06 02:34:08.936229,2020-12-14 00:00:00.000000,1.62799136,2.59949701,3.81454879,723,1154,1694,434,713,1074,0.97724921,1.60540586,2.41839638,0.65485845,0.93359485,1.82669885
12121,0,USFloridaSuwannee,Florida,Suwannee,2021-01-06 02:34:08.936229,2020-12-15 00:00:00.000000,1.71523445,2.72029454,3.88066012,761,1208,1723,449,749,1095,1.01122524,1.68639849,2.46610377,0.66448944,0.93710125,1.74163602
12121,0,USFloridaSuwannee,Florida,Suwannee,2021-01-06 02:34:08.936229,2020-12-16 00:00:00.000000,1.80576635,2.83680349,3.96558045,802,1260,1761,465,782,1115,1.04790932,1.76259685,2.51242656,0.67558583,0.96370630,1.78024753
12121,0,USFloridaSuwannee,Florida,Suwannee,2021-01-06 02:34:08.936229,2020-12-17 00:00:00.000000,1.89923222,2.95528044,4.07983328,843,1312,1812,487,814,1139,1.09827632,1.83356132,2.56472088,0.68827266,0.97095225,1.85305607
12121,0,USFloridaSuwannee,Florida,Suwannee,2021-01-06 02:34:08.936229,2020-12-18 00:00:00.000000,1.99547390,3.08784320,4.22282808,886,1371,1875,513,845,1168,1.15521478,1.90363002,2.62991288,0.69428238,0.98226489,1.86192248
12121,0,USFloridaSuwannee,Florida,Suwannee,2021-01-06 02:34:08.936229,2020-12-19 00:00:00.000000,2.09435592,3.20398056,4.39483799,930,1423,1952,547,878,1209,1.23156862,1.97683500,2.72229368,0.70418336,0.96911558,1.87447831
12121,0,USFloridaSuwannee,Florida,Suwannee,2021-01-06 02:34:08.936229,2020-12-20 00:00:00.000000,2.19722443,3.34269212,4.59720932,975,1484,2041,589,904,1268,1.32609411,2.03657412,2.85565644,0.74462219,1.02574383,1.89218756
12121,0,USFloridaSuwannee,Florida,Suwannee,2021-01-06 02:34:08.936229,2020-12-21 00:00:00.000000,2.32399712,3.48130071,4.80212714,1032,1546,2132,635,942,1328,1.43179895,2.12245030,2.99061733,0.78835313,1.02100179,1.91697382
12121,0,USFloridaSuwannee,Florida,Suwannee,2021-01-06 02:34:08.936229,2020-12-22 00:00:00.000000,2.51522847,3.62476553,5.00599349,1117,1610,2223,686,975,1389,1.54636985,2.19603648,3.12726428,0.78527299,1.03039576,2.00457530
12121,0,USFloridaSuwannee,Florida,Suwannee,2021-01-06 02:34:08.936229,2020-12-23 00:00:00.000000,2.71981478,3.76463943,5.20822103,1208,1672,2313,742,1016,1450,1.67259098,2.28825553,3.26465487,0.77749234,1.03434014,2.07845085
12121,0,USFloridaSuwannee,Florida,Suwannee,2021-01-06 02:34:08.936229,2020-12-24 00:00:00.000000,2.87739448,3.93233664,5.40818111,1278,1746,2402,790,1050,1510,1.77943359,2.36410573,3.40128003,0.76699460,1.03418449,2.12909468
12121,0,USFloridaSuwannee,Florida,Suwannee,2021-01-06 02:34:08.936229,2020-12-25 00:00:00.000000,3.02976627,4.05768265,5.60462611,1345,1802,2489,815,1089,1570,1.83698558,2.45321842,3.53667104,0.75673116,1.05085717,2.15846551
12121,0,USFloridaSuwannee,Florida,Suwannee,2021-01-06 02:34:08.936229,2020-12-26 00:00:00.000000,3.13123014,4.23025761,5.74830229,1390,1878,2553,838,1134,1630,1.88839666,2.55341089,3.67034287,0.75892774,1.05587488,2.18423718
12121,0,USFloridaSuwannee,Florida,Suwannee,2021-01-06 02:34:08.936229,2020-12-27 00:00:00.000000,3.20863922,4.37514377,5.78182763,1425,1943,2568,861,1181,1688,1.93849833,2.65992264,3.80145079,0.75794585,1.07138223,2.22686662
12121,0,USFloridaSuwannee,Florida,Suwannee,2021-01-06 02:34:08.936229,2020-12-28 00:00:00.000000,3.27796712,4.49573923,5.80038652,1455,1996,2576,882,1216,1731,1.98705112,2.73892010,3.89809606,0.76586613,1.08338340,2.30566176
12121,0,USFloridaSuwannee,Florida,Suwannee,2021-01-06 02:34:08.936229,2020-12-29 00:00:00.000000,3.34394380,4.57662985,5.98614666,1485,2032,2658,902,1259,1783,2.03128817,2.83650787,4.01453983,0.76499309,1.09492812,2.39582141
12121,0,USFloridaSuwannee,Florida,Suwannee,2021-01-06 02:34:08.936229,2020-12-30 00:00:00.000000,3.40556791,4.64933012,6.21276957,1512,2065,2759,920,1295,1853,2.07276887,2.91569028,4.17358336,0.76246205,1.11684195,2.38265122
12121,0,USFloridaSuwannee,Florida,Suwannee,2021-01-06 02:34:08.936229,2020-12-31 00:00:00.000000,3.43468251,4.74066064,6.36066706,1525,2105,2825,937,1334,1882,2.11172383,3.00381495,4.23760388,0.73330501,1.13303953,2.41361438
12121,0,USFloridaSuwannee,Florida,Suwannee,2021-01-06 02:34:08.936229,2021-01-01 00:00:00.000000,3.45161141,4.82973498,6.54792108,1533,2145,2908,954,1357,1895,2.14805756,3.05629722,4.26753552,0.70782317,1.14124112,2.39315094
12121,0,USFloridaSuwannee,Florida,Suwannee,2021-01-06 02:34:08.936229,2021-01-02 00:00:00.000000,3.54548079,4.91444902,6.81958182,1574,2182,3029,969,1383,1918,2.18159871,3.11415092,4.31936001,0.70569551,1.17814170,2.32982031
12121,0,USFloridaSuwannee,Florida,Suwannee,2021-01-06 02:34:08.936229,2021-01-03 00:00:00.000000,3.60248319,4.96447812,7.00369827,1600,2205,3110,966,1405,2001,2.17572136,3.16464509,4.50565318,0.72106395,1.16596228,2.26467260
12121,0,USFloridaSuwannee,Florida,Suwannee,2021-01-06 02:34:08.936229,2021-01-04 00:00:00.000000,3.63969987,4.98759462,7.09584800,1616,2215,3151,989,1431,2068,2.22717503,3.22296877,4.65630020,0.70516057,1.17509204,2.22896502
12121,0,USFloridaSuwannee,Florida,Suwannee,2021-01-06 02:34:08.936229,2021-01-05 00:00:00.000000,3.67128695,5.05012230,7.17139714,1630,2243,3185,1005,1442,2100,2.26313300,3.24767606,4.72799960,0.70514017,1.18515669,2.21506493
12121,0,USFloridaSuwannee,Florida,Suwannee,2021-01-06 02:34:08.936229,2021-01-06 00:00:00.000000,3.71207698,5.10239989,7.27962729,1648,2266,3233,1020,1474,2127,2.29824177,3.32052050,4.78879798,0.70513162,1.18494376,2.21030548
12121,0,USFloridaSuwannee,Florida,Suwannee,2021-01-06 02:34:08.936229,2021-01-07 00:00:00.000000,3.74327060,5.14415525,7.38701237,1662,2284,3281,1027,1503,2148,2.31314475,3.38513765,4.83801643,0.70512786,1.18808858,2.20885836
12121,0,USFloridaSuwannee,Florida,Suwannee,2021-01-06 02:34:08.936229,2021-01-08 00:00:00.000000,3.73035091,5.19766816,7.53791369,1656,2308,3348,1032,1519,2165,2.32441414,3.42120989,4.87524823,0.70512614,1.19138797,2.20849190
12121,0,USFloridaSuwannee,Florida,Suwannee,2021-01-06 02:34:08.936229,2021-01-09 00:00:00.000000,3.73371185,5.18165991,7.76777588,1658,2301,3450,1035,1529,2194,2.33198483,3.44423082,4.93994478,0.70512532,1.19119607,2.20844561
12121,0,USFloridaSuwannee,Florida,Suwannee,2021-01-06 02:34:08.936229,2021-01-10 00:00:00.000000,3.73332033,5.26379541,7.87893290,1658,2338,3499,1037,1537,2259,2.33581464,3.46206399,5.08639012,0.70512491,1.19112863,2.20847828
12121,0,USFloridaSuwannee,Florida,Suwannee,2021-01-06 02:34:08.936229,2021-01-11 00:00:00.000000,3.72677865,5.32816195,8.01562438,1655,2366,3560,1037,1520,2337,2.33588507,3.42350543,5.26164318,0.70512470,1.19110502,2.20851985
12121,0,USFloridaSuwannee,Florida,Suwannee,2021-01-06 02:34:08.936229,2021-01-12 00:00:00.000000,3.69732732,5.32392613,8.06408830,1642,2364,3581,1035,1513,2408,2.33220159,3.40748444,5.42322360,0.70512459,1.19109675,2.20855358
12121,0,USFloridaSuwannee,Florida,Suwannee,2021-01-06 02:34:08.936229,2021-01-13 00:00:00.000000,3.63715509,5.31205237,8.20399541,1615,2359,3643,1032,1514,2445,2.32479360,3.41029116,5.50686765,0.70512453,1.19109385,2.20857791
12121,0,USFloridaSuwannee,Florida,Suwannee,2021-01-06 02:34:08.936229,2021-01-14 00:00:00.000000,3.53908778,5.28436002,8.32241692,1571,2347,3696,1027,1500,2447,2.31371403,3.37727328,5.51007873,0.70512449,1.19109284,2.20859476
12121,0,USFloridaSuwannee,Florida,Suwannee,2021-01-06 02:34:08.936229,2021-01-15 00:00:00.000000,3.48885755,5.20785248,8.41815912,1549,2313,3739,1021,1494,2471,2.29903860,3.36363590,5.56407109,0.70512448,1.19109248,2.20860629
12121,0,USFloridaSuwannee,Florida,Suwannee,2021-01-06 02:34:08.936229,2021-01-16 00:00:00.000000,3.43478971,5.09088049,8.49028085,1525,2261,3771,1008,1486,2505,2.27023053,3.34639224,5.63977258,0.70512447,1.19109235,2.20861417
12121,0,USFloridaSuwannee,Florida,Suwannee,2021-01-06 02:34:08.936229,2021-01-17 00:00:00.000000,3.37716201,4.96765088,8.53811445,1500,2206,3792,993,1476,2532,2.23628671,3.32362153,5.70210645,0.70512446,1.19109231,2.20861957
