FIPS,HR_UID,nameid,province,region,analysisTime,dates,pointprevalence_025,pointprevalence_50,pointprevalence_975,pointinfections_025,pointinfections_50,pointinfections_975,pointinfectious_025,pointinfectious_50,pointinfectious_975,pointinfectiousprevalence_05,pointinfectiousprevalence_50,pointinfectiousprevalence_95,infectrate_025,infectrate_50,infectrate_975
51075,0,USVirginiaGoochland,Virginia,Goochland,2021-01-05 07:07:00.025421,2020-03-09 00:00:00.000000,0.00960272,0.03817187,0.11752125,2,9,27,0,3,11,0.00169565,0.01608197,0.05019481,0.50213794,0.63599364,0.78572072
51075,0,USVirginiaGoochland,Virginia,Goochland,2021-01-05 07:07:00.025421,2020-03-10 00:00:00.000000,0.01849071,0.04959623,0.14508271,4,11,34,0,4,13,0.00374679,0.01853137,0.05491835,0.50213699,0.63599282,0.78571768
51075,0,USVirginiaGoochland,Virginia,Goochland,2021-01-05 07:07:00.025421,2020-03-11 00:00:00.000000,0.02266620,0.06018472,0.17368957,5,14,41,1,5,15,0.00671037,0.02259887,0.06485184,0.50213500,0.63599092,0.78571232
51075,0,USVirginiaGoochland,Virginia,Goochland,2021-01-05 07:07:00.025421,2020-03-12 00:00:00.000000,0.02988754,0.07330865,0.19823964,7,17,47,2,6,18,0.01024675,0.02884339,0.07746361,0.50213080,0.63598653,0.78570287
51075,0,USVirginiaGoochland,Virginia,Goochland,2021-01-05 07:07:00.025421,2020-03-13 00:00:00.000000,0.03881484,0.08474971,0.22511146,9,20,53,3,8,21,0.01374962,0.03373717,0.09218421,0.50212198,0.63597620,0.78568624
51075,0,USVirginiaGoochland,Virginia,Goochland,2021-01-05 07:07:00.025421,2020-03-14 00:00:00.000000,0.04899264,0.09898657,0.25455339,11,23,60,4,9,25,0.01822359,0.04028719,0.10878137,0.50210355,0.63595097,0.78565694
51075,0,USVirginiaGoochland,Virginia,Goochland,2021-01-05 07:07:00.025421,2020-03-15 00:00:00.000000,0.06061422,0.11536253,0.28682251,14,27,68,5,11,30,0.02332036,0.04794171,0.12721460,0.50027203,0.63588115,0.78560536
51075,0,USVirginiaGoochland,Virginia,Goochland,2021-01-05 07:07:00.025421,2020-03-16 00:00:00.000000,0.07943402,0.13513004,0.32860712,18,32,78,6,12,34,0.02902468,0.05454580,0.14394405,0.49600320,0.63562497,0.78551457
51075,0,USVirginiaGoochland,Virginia,Goochland,2021-01-05 07:07:00.025421,2020-03-17 00:00:00.000000,0.09619573,0.15707843,0.37955867,22,37,90,8,15,38,0.03583454,0.06364734,0.16265552,0.47558117,0.63427790,0.78535499
51075,0,USVirginiaGoochland,Virginia,Goochland,2021-01-05 07:07:00.025421,2020-03-18 00:00:00.000000,0.11172205,0.18074707,0.43502658,26,42,103,10,17,43,0.04364933,0.07550928,0.18335463,0.46648658,0.62863074,0.78507513
51075,0,USVirginiaGoochland,Virginia,Goochland,2021-01-05 07:07:00.025421,2020-03-19 00:00:00.000000,0.12645043,0.20698907,0.49040669,30,49,116,12,21,48,0.05243783,0.08918325,0.20598877,0.45448288,0.61620743,0.78458769
51075,0,USVirginiaGoochland,Virginia,Goochland,2021-01-05 07:07:00.025421,2020-03-20 00:00:00.000000,0.14172764,0.23195047,0.54221402,33,55,128,14,24,54,0.06084737,0.10238206,0.22991793,0.44154285,0.61131291,0.78354159
51075,0,USVirginiaGoochland,Virginia,Goochland,2021-01-05 07:07:00.025421,2020-03-21 00:00:00.000000,0.15715997,0.25925727,0.59749218,37,61,141,16,27,61,0.06758268,0.11531875,0.25755401,0.42828687,0.59359674,0.77905873
51075,0,USVirginiaGoochland,Virginia,Goochland,2021-01-05 07:07:00.025421,2020-03-22 00:00:00.000000,0.17945238,0.28977527,0.65700490,42,68,156,17,30,69,0.07496180,0.12978153,0.29156302,0.42353010,0.58579000,0.74833368
51075,0,USVirginiaGoochland,Virginia,Goochland,2021-01-05 07:07:00.025421,2020-03-23 00:00:00.000000,0.21045229,0.32401573,0.72776074,49,76,172,19,34,77,0.08390178,0.14611512,0.32624803,0.41673127,0.57573898,0.71523367
51075,0,USVirginiaGoochland,Virginia,Goochland,2021-01-05 07:07:00.025421,2020-03-24 00:00:00.000000,0.23623670,0.36099170,0.80381036,56,85,190,23,39,85,0.09828861,0.16613878,0.36078711,0.36261730,0.56129361,0.70364798
51075,0,USVirginiaGoochland,Virginia,Goochland,2021-01-05 07:07:00.025421,2020-03-25 00:00:00.000000,0.25473423,0.40381658,0.86501583,60,95,205,25,43,93,0.10804483,0.18496423,0.39346518,0.36028476,0.54495434,0.69432530
51075,0,USVirginiaGoochland,Virginia,Goochland,2021-01-05 07:07:00.025421,2020-03-26 00:00:00.000000,0.27394192,0.46094239,0.90436791,65,109,214,28,49,100,0.12167772,0.20651875,0.42170062,0.35496136,0.53327927,0.69438237
51075,0,USVirginiaGoochland,Virginia,Goochland,2021-01-05 07:07:00.025421,2020-03-27 00:00:00.000000,0.29314755,0.51215698,1.00341053,69,121,238,32,54,110,0.13513486,0.23136688,0.46584670,0.34334792,0.50928053,0.69486681
51075,0,USVirginiaGoochland,Virginia,Goochland,2021-01-05 07:07:00.025421,2020-03-28 00:00:00.000000,0.31118218,0.55625533,1.07169098,73,132,254,34,60,122,0.14453150,0.25478001,0.51745110,0.32632017,0.49055598,0.68080293
51075,0,USVirginiaGoochland,Virginia,Goochland,2021-01-05 07:07:00.025421,2020-03-29 00:00:00.000000,0.33387301,0.60344450,1.14122814,79,143,271,36,66,131,0.15391774,0.27914710,0.55356867,0.32561045,0.46876869,0.64105763
51075,0,USVirginiaGoochland,Virginia,Goochland,2021-01-05 07:07:00.025421,2020-03-30 00:00:00.000000,0.35992365,0.64562293,1.20872227,85,153,287,38,72,140,0.16337135,0.30335086,0.59096860,0.31462790,0.45328588,0.62512438
51075,0,USVirginiaGoochland,Virginia,Goochland,2021-01-05 07:07:00.025421,2020-03-31 00:00:00.000000,0.38275745,0.69580182,1.29045925,90,165,306,41,79,156,0.17641445,0.33305778,0.65864894,0.31557013,0.43668590,0.60495622
51075,0,USVirginiaGoochland,Virginia,Goochland,2021-01-05 07:07:00.025421,2020-04-01 00:00:00.000000,0.40624813,0.74288922,1.38633710,96,176,329,46,86,173,0.19645102,0.36304157,0.73208323,0.31780967,0.42120543,0.60054340
51075,0,USVirginiaGoochland,Virginia,Goochland,2021-01-05 07:07:00.025421,2020-04-02 00:00:00.000000,0.44031365,0.79052468,1.48469223,104,187,352,51,92,190,0.21617939,0.38957493,0.80018058,0.29223664,0.41040297,0.57833427
51075,0,USVirginiaGoochland,Virginia,Goochland,2021-01-05 07:07:00.025421,2020-04-03 00:00:00.000000,0.49624861,0.83671307,1.58784269,117,198,377,54,101,205,0.23135690,0.42739677,0.86579289,0.28376645,0.39855824,0.53643653
51075,0,USVirginiaGoochland,Virginia,Goochland,2021-01-05 07:07:00.025421,2020-04-04 00:00:00.000000,0.53151394,0.87600301,1.69623227,126,208,402,58,108,221,0.24617551,0.45574412,0.93152599,0.25826109,0.37963337,0.52606531
51075,0,USVirginiaGoochland,Virginia,Goochland,2021-01-05 07:07:00.025421,2020-04-05 00:00:00.000000,0.56561970,0.92198408,1.81338306,134,218,430,62,116,237,0.26131399,0.48997004,0.99890506,0.23701263,0.35662572,0.50508775
51075,0,USVirginiaGoochland,Virginia,Goochland,2021-01-05 07:07:00.025421,2020-04-06 00:00:00.000000,0.59088790,0.97046875,1.91615930,140,230,455,65,123,253,0.27611440,0.52168914,1.06863994,0.22386967,0.33474985,0.50206032
51075,0,USVirginiaGoochland,Virginia,Goochland,2021-01-05 07:07:00.025421,2020-04-07 00:00:00.000000,0.61124728,1.01108760,2.01086256,145,240,477,69,129,266,0.29130056,0.54513645,1.12238740,0.22210321,0.32450293,0.46709335
51075,0,USVirginiaGoochland,Virginia,Goochland,2021-01-05 07:07:00.025421,2020-04-08 00:00:00.000000,0.63369798,1.03559893,2.09015672,150,245,496,72,135,274,0.30425355,0.57025779,1.15546783,0.21299334,0.31982153,0.44046891
51075,0,USVirginiaGoochland,Virginia,Goochland,2021-01-05 07:07:00.025421,2020-04-09 00:00:00.000000,0.64936125,1.05670290,2.14426729,154,250,509,74,140,280,0.31568555,0.59147505,1.18285183,0.19491717,0.30055218,0.43699459
51075,0,USVirginiaGoochland,Virginia,Goochland,2021-01-05 07:07:00.025421,2020-04-10 00:00:00.000000,0.65485147,1.07798028,2.17281613,155,256,516,76,145,286,0.32413048,0.61093128,1.20451027,0.17135926,0.28548835,0.42271556
51075,0,USVirginiaGoochland,Virginia,Goochland,2021-01-05 07:07:00.025421,2020-04-11 00:00:00.000000,0.65484488,1.10394607,2.18652844,155,262,519,77,148,289,0.32751693,0.62542243,1.22008367,0.16974310,0.27389031,0.40932453
51075,0,USVirginiaGoochland,Virginia,Goochland,2021-01-05 07:07:00.025421,2020-04-12 00:00:00.000000,0.64960572,1.11943337,2.19186445,154,265,520,78,151,291,0.33214896,0.63885120,1.22930626,0.16469119,0.25833922,0.38985788
51075,0,USVirginiaGoochland,Virginia,Goochland,2021-01-05 07:07:00.025421,2020-04-13 00:00:00.000000,0.63193711,1.12717810,2.18304664,150,267,518,78,155,294,0.33003194,0.65453430,1.23778397,0.15305162,0.24124148,0.34798784
51075,0,USVirginiaGoochland,Virginia,Goochland,2021-01-05 07:07:00.025421,2020-04-14 00:00:00.000000,0.61304715,1.11826752,2.16556579,145,265,514,77,155,295,0.32525422,0.65612311,1.24568496,0.14917667,0.23011743,0.32279616
51075,0,USVirginiaGoochland,Virginia,Goochland,2021-01-05 07:07:00.025421,2020-04-15 00:00:00.000000,0.60646347,1.10976928,2.13788480,144,263,507,78,154,296,0.32904866,0.65127590,1.24665482,0.14739525,0.21939478,0.32249243
51075,0,USVirginiaGoochland,Virginia,Goochland,2021-01-05 07:07:00.025421,2020-04-16 00:00:00.000000,0.60634373,1.09340260,2.10195145,144,259,499,77,153,295,0.32560727,0.64635601,1.24273922,0.14236386,0.21137792,0.32187692
51075,0,USVirginiaGoochland,Virginia,Goochland,2021-01-05 07:07:00.025421,2020-04-17 00:00:00.000000,0.60102957,1.08528726,2.05886285,142,257,489,76,152,294,0.32028372,0.64294076,1.24128430,0.12202928,0.20497516,0.32014997
51075,0,USVirginiaGoochland,Virginia,Goochland,2021-01-05 07:07:00.025421,2020-04-18 00:00:00.000000,0.58588717,1.07191242,2.00881235,139,254,477,74,152,293,0.31406746,0.64010804,1.23471285,0.11544472,0.18776950,0.30686587
51075,0,USVirginiaGoochland,Virginia,Goochland,2021-01-05 07:07:00.025421,2020-04-19 00:00:00.000000,0.56966333,1.06062458,1.95192484,135,251,463,72,149,290,0.30704773,0.63129620,1.22407687,0.11325295,0.17678265,0.29017707
51075,0,USVirginiaGoochland,Virginia,Goochland,2021-01-05 07:07:00.025421,2020-04-20 00:00:00.000000,0.55600682,1.04253978,1.89487424,132,247,450,71,148,287,0.29933191,0.62631755,1.21066771,0.10955252,0.17283283,0.28012955
51075,0,USVirginiaGoochland,Virginia,Goochland,2021-01-05 07:07:00.025421,2020-04-21 00:00:00.000000,0.54220291,1.01763833,1.84226848,128,241,437,69,145,284,0.29194357,0.61331936,1.19565669,0.10628163,0.16711253,0.25116187
51075,0,USVirginiaGoochland,Virginia,Goochland,2021-01-05 07:07:00.025421,2020-04-22 00:00:00.000000,0.51918135,0.98667009,1.81311447,123,234,430,67,141,280,0.28471080,0.59668237,1.17948893,0.10433644,0.16522776,0.24903451
51075,0,USVirginiaGoochland,Virginia,Goochland,2021-01-05 07:07:00.025421,2020-04-23 00:00:00.000000,0.49542175,0.95561389,1.78440593,117,226,423,65,138,276,0.27562530,0.58437445,1.16201627,0.09986907,0.16067619,0.24856172
51075,0,USVirginiaGoochland,Virginia,Goochland,2021-01-05 07:07:00.025421,2020-04-24 00:00:00.000000,0.47260030,0.92485475,1.75590302,112,219,417,62,136,271,0.26368359,0.57319013,1.14437070,0.09817983,0.15780911,0.24811734
51075,0,USVirginiaGoochland,Virginia,Goochland,2021-01-05 07:07:00.025421,2020-04-25 00:00:00.000000,0.45084518,0.89757066,1.72680368,107,213,410,59,133,267,0.25195635,0.56021666,1.12666846,0.09147922,0.15249867,0.24657695
51075,0,USVirginiaGoochland,Virginia,Goochland,2021-01-05 07:07:00.025421,2020-04-26 00:00:00.000000,0.43026279,0.87583751,1.67794980,102,208,398,57,129,263,0.24056794,0.54470734,1.10878108,0.08712795,0.14971727,0.23901800
51075,0,USVirginiaGoochland,Virginia,Goochland,2021-01-05 07:07:00.025421,2020-04-27 00:00:00.000000,0.40966007,0.84263956,1.59192307,97,200,378,54,125,258,0.22964033,0.52720495,1.09034471,0.08664191,0.14601714,0.23390453
51075,0,USVirginiaGoochland,Virginia,Goochland,2021-01-05 07:07:00.025421,2020-04-28 00:00:00.000000,0.39088985,0.81149658,1.51690195,92,192,360,52,120,252,0.21896614,0.50776621,1.06410006,0.08655085,0.14345059,0.22908175
51075,0,USVirginiaGoochland,Virginia,Goochland,2021-01-05 07:07:00.025421,2020-04-29 00:00:00.000000,0.37345641,0.78739884,1.45640999,88,187,345,49,115,243,0.20884000,0.48716574,1.02456126,0.08656296,0.14220263,0.22900733
51075,0,USVirginiaGoochland,Virginia,Goochland,2021-01-05 07:07:00.025421,2020-04-30 00:00:00.000000,0.35691611,0.77038770,1.40922835,84,182,334,47,110,230,0.19933145,0.46603083,0.97232270,0.08530384,0.13899032,0.22567845
51075,0,USVirginiaGoochland,Virginia,Goochland,2021-01-05 07:07:00.025421,2020-05-01 00:00:00.000000,0.34034263,0.74177101,1.35028798,80,176,320,45,106,223,0.19036825,0.44694378,0.93978399,0.08189731,0.13593436,0.22488553
51075,0,USVirginiaGoochland,Virginia,Goochland,2021-01-05 07:07:00.025421,2020-05-02 00:00:00.000000,0.32260787,0.71265466,1.29400914,76,169,307,43,103,216,0.18169374,0.43537133,0.91109792,0.08070466,0.13221066,0.22623786
51075,0,USVirginiaGoochland,Virginia,Goochland,2021-01-05 07:07:00.025421,2020-05-03 00:00:00.000000,0.30506631,0.68228343,1.24657681,72,162,296,41,101,206,0.17290232,0.42628363,0.86822698,0.08080779,0.13216713,0.22102655
51075,0,USVirginiaGoochland,Virginia,Goochland,2021-01-05 07:07:00.025421,2020-05-04 00:00:00.000000,0.29528859,0.66600191,1.20230051,70,158,285,38,99,196,0.16407392,0.41695449,0.82575702,0.08271249,0.13095274,0.21157021
51075,0,USVirginiaGoochland,Virginia,Goochland,2021-01-05 07:07:00.025421,2020-05-05 00:00:00.000000,0.28641138,0.63687676,1.16047186,68,151,275,37,95,187,0.15699773,0.40143588,0.78774169,0.07823133,0.12959940,0.20467897
51075,0,USVirginiaGoochland,Virginia,Goochland,2021-01-05 07:07:00.025421,2020-05-06 00:00:00.000000,0.27579461,0.61310197,1.12078974,65,145,266,35,92,178,0.15116266,0.38750695,0.75339072,0.07745411,0.12884435,0.20434840
51075,0,USVirginiaGoochland,Virginia,Goochland,2021-01-05 07:07:00.025421,2020-05-07 00:00:00.000000,0.25990594,0.59059464,1.08299317,61,140,257,34,88,171,0.14622233,0.37053182,0.72211413,0.07682237,0.12899284,0.19963506
51075,0,USVirginiaGoochland,Virginia,Goochland,2021-01-05 07:07:00.025421,2020-05-08 00:00:00.000000,0.24546994,0.57167440,1.04219647,58,135,247,33,84,164,0.14195174,0.35589267,0.69345255,0.07666946,0.12885842,0.19546162
51075,0,USVirginiaGoochland,Virginia,Goochland,2021-01-05 07:07:00.025421,2020-05-09 00:00:00.000000,0.23669873,0.55174352,0.99730946,56,131,236,32,81,158,0.13822090,0.34177996,0.66936493,0.07620310,0.12839628,0.19221946
51075,0,USVirginiaGoochland,Virginia,Goochland,2021-01-05 07:07:00.025421,2020-05-10 00:00:00.000000,0.22898486,0.53228559,0.95635324,54,126,227,31,78,154,0.13241808,0.32922725,0.65105297,0.07533049,0.12743020,0.19047880
51075,0,USVirginiaGoochland,Virginia,Goochland,2021-01-05 07:07:00.025421,2020-05-11 00:00:00.000000,0.22174499,0.51152665,0.93212940,52,121,221,29,75,150,0.12525716,0.31689341,0.63257187,0.07503250,0.12986819,0.20211268
51075,0,USVirginiaGoochland,Virginia,Goochland,2021-01-05 07:07:00.025421,2020-05-12 00:00:00.000000,0.21527019,0.49173523,0.90865208,51,116,215,28,72,146,0.11842759,0.30447403,0.61528227,0.07499434,0.12969179,0.20113576
51075,0,USVirginiaGoochland,Virginia,Goochland,2021-01-05 07:07:00.025421,2020-05-13 00:00:00.000000,0.20928623,0.47432623,0.88625936,49,112,210,26,69,142,0.11201771,0.29196099,0.59892577,0.07499193,0.12585524,0.19705119
51075,0,USVirginiaGoochland,Virginia,Goochland,2021-01-05 07:07:00.025421,2020-05-14 00:00:00.000000,0.20361224,0.46126679,0.86497452,48,109,205,25,66,138,0.10813619,0.27946874,0.58104488,0.07499180,0.12484214,0.19474473
51075,0,USVirginiaGoochland,Virginia,Goochland,2021-01-05 07:07:00.025421,2020-05-15 00:00:00.000000,0.19812937,0.44891163,0.84478760,47,106,200,24,64,132,0.10504165,0.27227785,0.55847388,0.07497494,0.12455472,0.19226934
51075,0,USVirginiaGoochland,Virginia,Goochland,2021-01-05 07:07:00.025421,2020-05-16 00:00:00.000000,0.19278137,0.43533608,0.82576493,45,103,196,24,62,127,0.10211724,0.26136658,0.53696272,0.07667830,0.12501460,0.20701000
51075,0,USVirginiaGoochland,Virginia,Goochland,2021-01-05 07:07:00.025421,2020-05-17 00:00:00.000000,0.18757187,0.42797374,0.80810246,44,101,191,23,60,122,0.09775175,0.25554092,0.51641681,0.07818923,0.12572250,0.21134921
51075,0,USVirginiaGoochland,Virginia,Goochland,2021-01-05 07:07:00.025421,2020-05-18 00:00:00.000000,0.18458817,0.41279993,0.78333409,43,98,186,22,58,118,0.09332880,0.24612996,0.49678084,0.07625098,0.12504479,0.21141866
51075,0,USVirginiaGoochland,Virginia,Goochland,2021-01-05 07:07:00.025421,2020-05-19 00:00:00.000000,0.18146168,0.40442212,0.76034878,43,96,180,21,56,113,0.08942890,0.23936874,0.47843887,0.07489196,0.12560477,0.21060397
51075,0,USVirginiaGoochland,Virginia,Goochland,2021-01-05 07:07:00.025421,2020-05-20 00:00:00.000000,0.17518452,0.39301583,0.73872315,41,93,175,20,55,111,0.08595284,0.23563829,0.46928992,0.07423369,0.12452882,0.20846542
51075,0,USVirginiaGoochland,Virginia,Goochland,2021-01-05 07:07:00.025421,2020-05-21 00:00:00.000000,0.16954411,0.38543474,0.71815973,40,91,170,19,54,109,0.08283605,0.22941023,0.46135554,0.07487430,0.12490074,0.20567957
51075,0,USVirginiaGoochland,Virginia,Goochland,2021-01-05 07:07:00.025421,2020-05-22 00:00:00.000000,0.16450297,0.37953434,0.69838169,39,90,165,19,53,107,0.08003633,0.22430282,0.45370528,0.07722892,0.12266468,0.20736560
51075,0,USVirginiaGoochland,Virginia,Goochland,2021-01-05 07:07:00.025421,2020-05-23 00:00:00.000000,0.16004427,0.37466747,0.67914542,38,88,161,18,51,106,0.07752751,0.21629792,0.44631594,0.08046387,0.12758374,0.21230243
51075,0,USVirginiaGoochland,Virginia,Goochland,2021-01-05 07:07:00.025421,2020-05-24 00:00:00.000000,0.15548137,0.36506846,0.66632157,36,86,158,17,51,104,0.07529525,0.21533579,0.43920365,0.08251839,0.12740632,0.20751055
51075,0,USVirginiaGoochland,Virginia,Goochland,2021-01-05 07:07:00.025421,2020-05-25 00:00:00.000000,0.16037264,0.35617060,0.65003198,38,84,154,17,51,102,0.07333239,0.21475897,0.43254377,0.08339467,0.12826115,0.21521670
51075,0,USVirginiaGoochland,Virginia,Goochland,2021-01-05 07:07:00.025421,2020-05-26 00:00:00.000000,0.15684287,0.35004827,0.64374492,37,83,152,17,49,100,0.07373969,0.20931315,0.42505296,0.08371863,0.12775964,0.22564918
51075,0,USVirginiaGoochland,Virginia,Goochland,2021-01-05 07:07:00.025421,2020-05-27 00:00:00.000000,0.15635181,0.34653623,0.64875081,37,82,154,18,48,99,0.07588902,0.20460252,0.41983423,0.08246092,0.12689915,0.22144624
51075,0,USVirginiaGoochland,Virginia,Goochland,2021-01-05 07:07:00.025421,2020-05-28 00:00:00.000000,0.16444285,0.33802005,0.65326724,39,80,155,18,47,98,0.07945457,0.20082554,0.41451166,0.08205319,0.12756288,0.21323622
51075,0,USVirginiaGoochland,Virginia,Goochland,2021-01-05 07:07:00.025421,2020-05-29 00:00:00.000000,0.17239224,0.33083757,0.65627308,40,78,155,19,46,97,0.08024048,0.19693621,0.40890365,0.08197602,0.12798643,0.21189909
51075,0,USVirginiaGoochland,Virginia,Goochland,2021-01-05 07:07:00.025421,2020-05-30 00:00:00.000000,0.18009760,0.32544290,0.65756147,42,77,156,19,46,95,0.08283982,0.19374346,0.40318405,0.08234715,0.12865236,0.21437430
51075,0,USVirginiaGoochland,Virginia,Goochland,2021-01-05 07:07:00.025421,2020-05-31 00:00:00.000000,0.18748383,0.31600889,0.65751082,44,75,156,20,45,94,0.08543876,0.19046197,0.39728432,0.08486208,0.12835134,0.21745653
51075,0,USVirginiaGoochland,Virginia,Goochland,2021-01-05 07:07:00.025421,2020-06-01 00:00:00.000000,0.18419226,0.31297554,0.65326921,43,74,155,20,44,92,0.08797450,0.18530238,0.39122872,0.08702829,0.13046094,0.21769812
51075,0,USVirginiaGoochland,Virginia,Goochland,2021-01-05 07:07:00.025421,2020-06-02 00:00:00.000000,0.18042685,0.31288857,0.64699910,42,74,153,21,43,91,0.08876302,0.18406783,0.38572185,0.08734483,0.13563662,0.21587514
51075,0,USVirginiaGoochland,Virginia,Goochland,2021-01-05 07:07:00.025421,2020-06-03 00:00:00.000000,0.17614137,0.31314146,0.63774883,41,74,151,21,42,90,0.08865086,0.18008085,0.38061020,0.09009713,0.13478521,0.21597899
51075,0,USVirginiaGoochland,Virginia,Goochland,2021-01-05 07:07:00.025421,2020-06-04 00:00:00.000000,0.17164566,0.30865480,0.62515589,40,73,148,20,42,89,0.08810240,0.17903644,0.37580093,0.08853119,0.13306385,0.21598306
51075,0,USVirginiaGoochland,Virginia,Goochland,2021-01-05 07:07:00.025421,2020-06-05 00:00:00.000000,0.16708879,0.30318884,0.60981482,39,72,144,20,42,88,0.08683401,0.17827051,0.37124545,0.09060578,0.13414989,0.21597190
51075,0,USVirginiaGoochland,Virginia,Goochland,2021-01-05 07:07:00.025421,2020-06-06 00:00:00.000000,0.16257432,0.30097115,0.59282665,38,71,140,20,41,87,0.08472878,0.17541089,0.36695692,0.09141177,0.13560458,0.21832908
51075,0,USVirginiaGoochland,Virginia,Goochland,2021-01-05 07:07:00.025421,2020-06-07 00:00:00.000000,0.15817406,0.29685276,0.57516440,37,70,136,19,41,86,0.08290122,0.17543755,0.36308875,0.09067411,0.13396135,0.22066817
51075,0,USVirginiaGoochland,Virginia,Goochland,2021-01-05 07:07:00.025421,2020-06-08 00:00:00.000000,0.15855644,0.29509022,0.55639493,37,70,132,19,41,85,0.08131367,0.17419800,0.35999016,0.09011542,0.13700141,0.22822868
51075,0,USVirginiaGoochland,Virginia,Goochland,2021-01-05 07:07:00.025421,2020-06-09 00:00:00.000000,0.15353401,0.29289529,0.53791880,36,69,127,18,40,85,0.07930953,0.17108309,0.35873984,0.08929305,0.13843373,0.23164756
51075,0,USVirginiaGoochland,Virginia,Goochland,2021-01-05 07:07:00.025421,2020-06-10 00:00:00.000000,0.14871533,0.29292619,0.52870980,35,69,125,18,40,85,0.07710262,0.16845405,0.35892052,0.08797195,0.13812538,0.23212155
51075,0,USVirginiaGoochland,Virginia,Goochland,2021-01-05 07:07:00.025421,2020-06-11 00:00:00.000000,0.14436536,0.29165712,0.52381393,34,69,124,17,40,83,0.07483217,0.16994907,0.35351199,0.09061368,0.13949157,0.23130321
51075,0,USVirginiaGoochland,Virginia,Goochland,2021-01-05 07:07:00.025421,2020-06-12 00:00:00.000000,0.14043099,0.29224293,0.51854142,33,69,123,17,39,82,0.07263593,0.16675094,0.34796807,0.09063319,0.13906578,0.22868087
51075,0,USVirginiaGoochland,Virginia,Goochland,2021-01-05 07:07:00.025421,2020-06-13 00:00:00.000000,0.14390371,0.28981151,0.51250173,34,68,121,16,40,81,0.07076485,0.16874586,0.34262941,0.09109661,0.13932104,0.22672190
51075,0,USVirginiaGoochland,Virginia,Goochland,2021-01-05 07:07:00.025421,2020-06-14 00:00:00.000000,0.13894268,0.29395493,0.50602019,33,69,120,16,40,80,0.06952921,0.17020814,0.33745809,0.09339010,0.14166593,0.22844847
51075,0,USVirginiaGoochland,Virginia,Goochland,2021-01-05 07:07:00.025421,2020-06-15 00:00:00.000000,0.13831249,0.29072909,0.50140104,32,69,119,15,40,78,0.06694129,0.16910643,0.33236617,0.09971090,0.14336090,0.22679301
51075,0,USVirginiaGoochland,Virginia,Goochland,2021-01-05 07:07:00.025421,2020-06-16 00:00:00.000000,0.13825014,0.28762211,0.50356955,32,68,119,15,40,77,0.06538780,0.16909655,0.32735997,0.09277117,0.14797683,0.22659714
51075,0,USVirginiaGoochland,Virginia,Goochland,2021-01-05 07:07:00.025421,2020-06-17 00:00:00.000000,0.13103355,0.28502079,0.50781654,31,67,120,15,39,76,0.06399535,0.16810502,0.32225471,0.08897917,0.15066831,0.22603608
51075,0,USVirginiaGoochland,Virginia,Goochland,2021-01-05 07:07:00.025421,2020-06-18 00:00:00.000000,0.12411444,0.28269762,0.51175358,29,67,121,15,39,75,0.06398462,0.16584245,0.31948597,0.08816270,0.15190834,0.22486158
51075,0,USVirginiaGoochland,Virginia,Goochland,2021-01-05 07:07:00.025421,2020-06-19 00:00:00.000000,0.12199155,0.27891650,0.51550296,28,66,122,15,39,76,0.06429741,0.16553788,0.32207466,0.09057325,0.15176020,0.22978636
51075,0,USVirginiaGoochland,Virginia,Goochland,2021-01-05 07:07:00.025421,2020-06-20 00:00:00.000000,0.12009308,0.27862559,0.51918568,28,66,123,14,39,77,0.06274635,0.16423460,0.32457786,0.09493170,0.15738126,0.23945747
51075,0,USVirginiaGoochland,Virginia,Goochland,2021-01-05 07:07:00.025421,2020-06-21 00:00:00.000000,0.11853978,0.27675607,0.52282094,28,65,124,14,38,77,0.05945675,0.16252295,0.32700830,0.09665840,0.15900371,0.24165276
51075,0,USVirginiaGoochland,Virginia,Goochland,2021-01-05 07:07:00.025421,2020-06-22 00:00:00.000000,0.11726401,0.27578880,0.52094080,27,65,123,13,38,77,0.05853939,0.16108318,0.32641626,0.09713189,0.16035545,0.24401758
51075,0,USVirginiaGoochland,Virginia,Goochland,2021-01-05 07:07:00.025421,2020-06-23 00:00:00.000000,0.11629002,0.27745777,0.51899679,27,65,123,13,38,76,0.05776229,0.16144498,0.32385715,0.09807592,0.16415231,0.24864618
51075,0,USVirginiaGoochland,Virginia,Goochland,2021-01-05 07:07:00.025421,2020-06-24 00:00:00.000000,0.11559875,0.27975614,0.51682141,27,66,122,13,37,76,0.05712628,0.15994611,0.32375894,0.09938878,0.16585798,0.25659207
51075,0,USVirginiaGoochland,Virginia,Goochland,2021-01-05 07:07:00.025421,2020-06-25 00:00:00.000000,0.11498860,0.27643361,0.51451525,27,65,122,13,37,77,0.05660109,0.15992123,0.32532463,0.10090271,0.16718470,0.26788163
51075,0,USVirginiaGoochland,Virginia,Goochland,2021-01-05 07:07:00.025421,2020-06-26 00:00:00.000000,0.11427410,0.27702336,0.51214948,27,65,121,13,37,77,0.05476755,0.15968254,0.32801620,0.10300122,0.16718027,0.26617558
51075,0,USVirginiaGoochland,Virginia,Goochland,2021-01-05 07:07:00.025421,2020-06-27 00:00:00.000000,0.11353320,0.27553173,0.50980607,26,65,121,13,37,77,0.05577047,0.15851120,0.32677536,0.10423813,0.17055656,0.26552460
51075,0,USVirginiaGoochland,Virginia,Goochland,2021-01-05 07:07:00.025421,2020-06-28 00:00:00.000000,0.11290795,0.27376764,0.52059104,26,65,123,13,37,77,0.05542742,0.15835746,0.32536969,0.10543599,0.17606275,0.27401629
51075,0,USVirginiaGoochland,Virginia,Goochland,2021-01-05 07:07:00.025421,2020-06-29 00:00:00.000000,0.11482947,0.27956559,0.52846894,27,66,125,13,37,76,0.05511707,0.15808020,0.32395380,0.10650752,0.17889439,0.27873356
51075,0,USVirginiaGoochland,Virginia,Goochland,2021-01-05 07:07:00.025421,2020-06-30 00:00:00.000000,0.11540254,0.28122538,0.53892191,27,66,128,13,37,77,0.05535358,0.15776183,0.32694126,0.10597205,0.18080683,0.28117839
51075,0,USVirginiaGoochland,Virginia,Goochland,2021-01-05 07:07:00.025421,2020-07-01 00:00:00.000000,0.11875579,0.28364401,0.55900077,28,67,132,13,37,79,0.05702978,0.15830837,0.33370656,0.10529540,0.18209280,0.29306004
51075,0,USVirginiaGoochland,Virginia,Goochland,2021-01-05 07:07:00.025421,2020-07-02 00:00:00.000000,0.12183152,0.28616351,0.57979488,28,67,137,14,38,81,0.05990696,0.16136618,0.34151963,0.11047912,0.18515825,0.29162418
51075,0,USVirginiaGoochland,Virginia,Goochland,2021-01-05 07:07:00.025421,2020-07-03 00:00:00.000000,0.12257882,0.29148415,0.60098894,29,69,142,14,38,81,0.06296451,0.16268092,0.34178886,0.11508860,0.18497584,0.29795971
51075,0,USVirginiaGoochland,Virginia,Goochland,2021-01-05 07:07:00.025421,2020-07-04 00:00:00.000000,0.12441627,0.29641793,0.60766763,29,70,144,15,38,81,0.06614182,0.16293002,0.34231329,0.11881127,0.19406677,0.30157945
51075,0,USVirginiaGoochland,Virginia,Goochland,2021-01-05 07:07:00.025421,2020-07-05 00:00:00.000000,0.12631533,0.29955304,0.60922606,30,71,144,15,39,81,0.06454026,0.16606765,0.34374845,0.11891888,0.20053497,0.30405588
51075,0,USVirginiaGoochland,Virginia,Goochland,2021-01-05 07:07:00.025421,2020-07-06 00:00:00.000000,0.13533346,0.30473187,0.61186747,32,72,145,15,39,82,0.06447722,0.16743197,0.34694086,0.11951646,0.20086673,0.30512965
51075,0,USVirginiaGoochland,Virginia,Goochland,2021-01-05 07:07:00.025421,2020-07-07 00:00:00.000000,0.14481819,0.31242274,0.61592762,34,74,146,16,39,83,0.06838898,0.16836993,0.35211328,0.11927683,0.20368207,0.30615141
51075,0,USVirginiaGoochland,Virginia,Goochland,2021-01-05 07:07:00.025421,2020-07-08 00:00:00.000000,0.15501401,0.32169767,0.62099376,36,76,147,17,41,83,0.07289891,0.17404200,0.35357167,0.12325978,0.21210701,0.31111085
51075,0,USVirginiaGoochland,Virginia,Goochland,2021-01-05 07:07:00.025421,2020-07-09 00:00:00.000000,0.16074800,0.32017907,0.62673915,38,76,148,18,42,84,0.07608373,0.18038098,0.35562201,0.12809678,0.21346741,0.31718050
51075,0,USVirginiaGoochland,Virginia,Goochland,2021-01-05 07:07:00.025421,2020-07-10 00:00:00.000000,0.16449672,0.32218515,0.63277531,39,76,150,18,43,85,0.07892433,0.18137479,0.35818288,0.13062593,0.21606749,0.32496468
51075,0,USVirginiaGoochland,Virginia,Goochland,2021-01-05 07:07:00.025421,2020-07-11 00:00:00.000000,0.16930101,0.32282378,0.63890995,40,76,151,19,43,85,0.08198061,0.18353460,0.36110715,0.13629139,0.21977497,0.33277522
51075,0,USVirginiaGoochland,Virginia,Goochland,2021-01-05 07:07:00.025421,2020-07-12 00:00:00.000000,0.17486243,0.32862675,0.64507628,41,78,153,20,45,86,0.08514371,0.19091374,0.36425842,0.13986111,0.22591437,0.34629721
51075,0,USVirginiaGoochland,Virginia,Goochland,2021-01-05 07:07:00.025421,2020-07-13 00:00:00.000000,0.17853462,0.33939463,0.65863249,42,80,156,20,45,87,0.08831204,0.19197999,0.36754449,0.14621225,0.22676195,0.37419990
51075,0,USVirginiaGoochland,Virginia,Goochland,2021-01-05 07:07:00.025421,2020-07-14 00:00:00.000000,0.18231834,0.34391226,0.67220635,43,81,159,21,45,88,0.09082385,0.19045015,0.37242912,0.14414070,0.22857938,0.39649574
51075,0,USVirginiaGoochland,Virginia,Goochland,2021-01-05 07:07:00.025421,2020-07-15 00:00:00.000000,0.18608611,0.35085798,0.68589324,44,83,162,22,45,89,0.09300336,0.19139327,0.37837452,0.14204092,0.23749202,0.39708396
51075,0,USVirginiaGoochland,Virginia,Goochland,2021-01-05 07:07:00.025421,2020-07-16 00:00:00.000000,0.18989782,0.36516329,0.69962329,45,86,166,22,45,91,0.09504551,0.19360408,0.38502741,0.14189659,0.24313986,0.39294791
51075,0,USVirginiaGoochland,Virginia,Goochland,2021-01-05 07:07:00.025421,2020-07-17 00:00:00.000000,0.19378671,0.38107505,0.71351218,46,90,169,22,48,93,0.09641664,0.20288525,0.39441815,0.14506138,0.24660821,0.41810331
51075,0,USVirginiaGoochland,Virginia,Goochland,2021-01-05 07:07:00.025421,2020-07-18 00:00:00.000000,0.19775263,0.39002370,0.72765924,46,92,172,23,50,97,0.09810127,0.21102413,0.40885648,0.15155813,0.25240451,0.41937801
51075,0,USVirginiaGoochland,Virginia,Goochland,2021-01-05 07:07:00.025421,2020-07-19 00:00:00.000000,0.19908546,0.40354865,0.74232810,47,95,176,23,51,100,0.10003634,0.21787699,0.42304210,0.15922300,0.25728898,0.42809944
51075,0,USVirginiaGoochland,Virginia,Goochland,2021-01-05 07:07:00.025421,2020-07-20 00:00:00.000000,0.19744608,0.41904088,0.75334663,46,99,178,24,52,104,0.10199497,0.22108484,0.43846644,0.16492172,0.26266341,0.43404488
51075,0,USVirginiaGoochland,Virginia,Goochland,2021-01-05 07:07:00.025421,2020-07-21 00:00:00.000000,0.20286652,0.43090197,0.76490637,48,102,181,24,53,107,0.10515520,0.22351035,0.45146153,0.16834346,0.26581450,0.43508078
51075,0,USVirginiaGoochland,Virginia,Goochland,2021-01-05 07:07:00.025421,2020-07-22 00:00:00.000000,0.20419186,0.44311060,0.77675743,48,105,184,25,54,110,0.10893955,0.23071007,0.46593738,0.17134563,0.27170550,0.43548198
51075,0,USVirginiaGoochland,Virginia,Goochland,2021-01-05 07:07:00.025421,2020-07-23 00:00:00.000000,0.20639308,0.45890610,0.78902157,49,109,187,26,57,114,0.11305158,0.24081344,0.48078526,0.17718222,0.27475245,0.43642414
51075,0,USVirginiaGoochland,Virginia,Goochland,2021-01-05 07:07:00.025421,2020-07-24 00:00:00.000000,0.20973903,0.47574550,0.80960420,49,113,192,27,59,117,0.11729673,0.25107472,0.49615483,0.18847194,0.28135300,0.44563463
51075,0,USVirginiaGoochland,Virginia,Goochland,2021-01-05 07:07:00.025421,2020-07-25 00:00:00.000000,0.20991616,0.49245932,0.83696788,49,116,198,28,62,121,0.12071462,0.26128731,0.51220040,0.19487893,0.29298064,0.46007263
51075,0,USVirginiaGoochland,Virginia,Goochland,2021-01-05 07:07:00.025421,2020-07-26 00:00:00.000000,0.21288515,0.51458164,0.86606744,50,122,205,28,64,124,0.12034924,0.27248968,0.52261685,0.20734155,0.30725974,0.47426386
51075,0,USVirginiaGoochland,Virginia,Goochland,2021-01-05 07:07:00.025421,2020-07-27 00:00:00.000000,0.23999314,0.53368953,0.90459145,57,126,214,28,67,127,0.12070480,0.28407678,0.53490922,0.21975336,0.32383343,0.48391085
51075,0,USVirginiaGoochland,Virginia,Goochland,2021-01-05 07:07:00.025421,2020-07-28 00:00:00.000000,0.26284270,0.55109807,0.94494764,62,130,224,29,70,130,0.12368250,0.29834182,0.55125047,0.22464737,0.33362268,0.49252591
51075,0,USVirginiaGoochland,Virginia,Goochland,2021-01-05 07:07:00.025421,2020-07-29 00:00:00.000000,0.26756581,0.56959849,0.98746022,63,135,234,30,73,135,0.12855035,0.30905333,0.57060885,0.22911117,0.34588263,0.49670379
51075,0,USVirginiaGoochland,Virginia,Goochland,2021-01-05 07:07:00.025421,2020-07-30 00:00:00.000000,0.27262030,0.58959753,1.03222228,64,140,245,32,77,140,0.13552648,0.32663603,0.59223862,0.24013272,0.35254369,0.50054990
51075,0,USVirginiaGoochland,Virginia,Goochland,2021-01-05 07:07:00.025421,2020-07-31 00:00:00.000000,0.29068584,0.61976393,1.08753122,69,147,258,34,81,146,0.14519025,0.34142272,0.61575580,0.24291136,0.35912454,0.50664162
51075,0,USVirginiaGoochland,Virginia,Goochland,2021-01-05 07:07:00.025421,2020-08-01 00:00:00.000000,0.30191041,0.66260798,1.14894092,71,157,272,37,83,152,0.15846170,0.35297998,0.64139666,0.25594615,0.36927354,0.51918407
51075,0,USVirginiaGoochland,Virginia,Goochland,2021-01-05 07:07:00.025421,2020-08-02 00:00:00.000000,0.31617591,0.70257856,1.21640695,75,166,288,40,87,159,0.17123408,0.36788191,0.67036624,0.26057456,0.38181678,0.52797094
51075,0,USVirginiaGoochland,Virginia,Goochland,2021-01-05 07:07:00.025421,2020-08-03 00:00:00.000000,0.33131375,0.74798738,1.28504271,78,177,305,44,91,167,0.18600947,0.38657640,0.70368330,0.26293738,0.39611355,0.59017428
51075,0,USVirginiaGoochland,Virginia,Goochland,2021-01-05 07:07:00.025421,2020-08-04 00:00:00.000000,0.34767051,0.78516163,1.35876816,82,186,322,46,96,175,0.19375252,0.40747374,0.74056154,0.26448610,0.40474161,0.60650788
51075,0,USVirginiaGoochland,Virginia,Goochland,2021-01-05 07:07:00.025421,2020-08-05 00:00:00.000000,0.36489921,0.82994476,1.43703165,86,197,341,47,101,185,0.19956780,0.42909006,0.78064078,0.26588068,0.43097027,0.61142317
51075,0,USVirginiaGoochland,Virginia,Goochland,2021-01-05 07:07:00.025421,2020-08-06 00:00:00.000000,0.38297115,0.88260273,1.54616752,90,209,367,48,108,195,0.20600749,0.45482960,0.82360890,0.26810402,0.43930366,0.61312018
51075,0,USVirginiaGoochland,Virginia,Goochland,2021-01-05 07:07:00.025421,2020-08-07 00:00:00.000000,0.40202060,0.94397511,1.66814647,95,224,396,50,115,206,0.21297786,0.48462094,0.86923740,0.27268312,0.44701734,0.61497202
51075,0,USVirginiaGoochland,Virginia,Goochland,2021-01-05 07:07:00.025421,2020-08-08 00:00:00.000000,0.42263841,1.00436943,1.75072582,100,238,415,52,121,217,0.22040798,0.51083235,0.91740358,0.28079469,0.45158192,0.61952463
51075,0,USVirginiaGoochland,Virginia,Goochland,2021-01-05 07:07:00.025421,2020-08-09 00:00:00.000000,0.44603849,1.05917264,1.83964744,105,251,436,54,127,229,0.22823447,0.53814614,0.96800322,0.27643829,0.45462255,0.63529639
51075,0,USVirginiaGoochland,Virginia,Goochland,2021-01-05 07:07:00.025421,2020-08-10 00:00:00.000000,0.47364593,1.11562556,1.94870036,112,264,462,57,135,242,0.24072401,0.56884696,1.02052502,0.26903998,0.46233150,0.63625066
51075,0,USVirginiaGoochland,Virginia,Goochland,2021-01-05 07:07:00.025421,2020-08-11 00:00:00.000000,0.50502836,1.18179592,2.07868098,119,280,493,61,142,255,0.25730345,0.60010500,1.07541555,0.29848688,0.47045196,0.63532026
51075,0,USVirginiaGoochland,Virginia,Goochland,2021-01-05 07:07:00.025421,2020-08-12 00:00:00.000000,0.53946565,1.25468965,2.22884900,128,298,529,65,151,269,0.27446136,0.63693167,1.13308955,0.29888012,0.46614743,0.63273037
51075,0,USVirginiaGoochland,Virginia,Goochland,2021-01-05 07:07:00.025421,2020-08-13 00:00:00.000000,0.57625039,1.33260183,2.38269325,136,316,565,69,159,286,0.29220044,0.67332627,1.20590213,0.30022715,0.46392106,0.62771401
51075,0,USVirginiaGoochland,Virginia,Goochland,2021-01-05 07:07:00.025421,2020-08-14 00:00:00.000000,0.61810530,1.40368575,2.53810851,146,333,602,73,168,306,0.31052426,0.71113588,1.28904386,0.30475156,0.47188943,0.61855626
51075,0,USVirginiaGoochland,Virginia,Goochland,2021-01-05 07:07:00.025421,2020-08-15 00:00:00.000000,0.68177474,1.48033694,2.68693716,161,351,638,78,178,327,0.32958101,0.75196151,1.37728223,0.31208640,0.45915496,0.60670934
51075,0,USVirginiaGoochland,Virginia,Goochland,2021-01-05 07:07:00.025421,2020-08-16 00:00:00.000000,0.74902124,1.56807526,2.82247391,177,372,670,83,189,348,0.35181883,0.79793394,1.46771579,0.30022837,0.46108600,0.58710667
51075,0,USVirginiaGoochland,Virginia,Goochland,2021-01-05 07:07:00.025421,2020-08-17 00:00:00.000000,0.80692632,1.66161174,2.95742239,191,394,702,92,200,370,0.38747078,0.84394983,1.56029786,0.29346167,0.46806896,0.60359950
51075,0,USVirginiaGoochland,Virginia,Goochland,2021-01-05 07:07:00.025421,2020-08-18 00:00:00.000000,0.86649868,1.72944703,3.14950241,205,410,748,100,213,391,0.42264573,0.90060317,1.64863883,0.29408778,0.46419080,0.60566495
51075,0,USVirginiaGoochland,Virginia,Goochland,2021-01-05 07:07:00.025421,2020-08-19 00:00:00.000000,0.93143259,1.83990055,3.29732932,221,437,783,108,225,412,0.45716046,0.95127795,1.73628994,0.29428238,0.45295619,0.60722784
51075,0,USVirginiaGoochland,Virginia,Goochland,2021-01-05 07:07:00.025421,2020-08-20 00:00:00.000000,0.98388518,1.91975858,3.37090467,233,456,800,114,241,427,0.48117490,1.01655335,1.80072957,0.28615962,0.44678768,0.59502428
51075,0,USVirginiaGoochland,Virginia,Goochland,2021-01-05 07:07:00.025421,2020-08-21 00:00:00.000000,1.04272158,2.01658546,3.49993396,247,478,831,119,255,440,0.50438151,1.07546729,1.85515739,0.27660212,0.43227481,0.59107708
51075,0,USVirginiaGoochland,Virginia,Goochland,2021-01-05 07:07:00.025421,2020-08-22 00:00:00.000000,1.10014181,2.14411009,3.63013243,261,509,862,126,266,469,0.53088891,1.12184888,1.97585856,0.24735423,0.40861937,0.57776556
51075,0,USVirginiaGoochland,Virginia,Goochland,2021-01-05 07:07:00.025421,2020-08-23 00:00:00.000000,1.14926709,2.24884995,3.75671396,272,534,892,132,278,492,0.55831787,1.17096658,2.07391624,0.22198966,0.37726589,0.54736347
51075,0,USVirginiaGoochland,Virginia,Goochland,2021-01-05 07:07:00.025421,2020-08-24 00:00:00.000000,1.17122783,2.31638186,3.81840498,278,550,906,139,291,507,0.58611390,1.22723218,2.13695112,0.21856640,0.33526570,0.51912331
51075,0,USVirginiaGoochland,Virginia,Goochland,2021-01-05 07:07:00.025421,2020-08-25 00:00:00.000000,1.17206146,2.34570560,3.88429095,278,557,922,144,306,519,0.60666028,1.29114459,2.18873339,0.20951234,0.29726083,0.48803601
51075,0,USVirginiaGoochland,Virginia,Goochland,2021-01-05 07:07:00.025421,2020-08-26 00:00:00.000000,1.18749186,2.37975322,3.86089622,282,565,917,147,315,537,0.62256104,1.32781710,2.26351705,0.18990708,0.27114894,0.42999560
51075,0,USVirginiaGoochland,Virginia,Goochland,2021-01-05 07:07:00.025421,2020-08-27 00:00:00.000000,1.16269674,2.39011423,3.80957279,276,567,904,150,318,544,0.63541202,1.33881332,2.29403092,0.16409492,0.24983386,0.34186239
51075,0,USVirginiaGoochland,Virginia,Goochland,2021-01-05 07:07:00.025421,2020-08-28 00:00:00.000000,1.13213982,2.36491122,3.75756306,268,561,892,153,319,542,0.64612158,1.34528338,2.28377274,0.15614816,0.22660556,0.31107272
51075,0,USVirginiaGoochland,Virginia,Goochland,2021-01-05 07:07:00.025421,2020-08-29 00:00:00.000000,1.10472350,2.30986998,3.68770505,262,548,875,150,322,533,0.63275685,1.35856248,2.24519080,0.15225626,0.21048217,0.29673247
51075,0,USVirginiaGoochland,Virginia,Goochland,2021-01-05 07:07:00.025421,2020-08-30 00:00:00.000000,1.06718479,2.25435744,3.60562931,253,535,856,142,324,531,0.60041702,1.36667889,2.23663260,0.15121749,0.20315512,0.28059910
51075,0,USVirginiaGoochland,Virginia,Goochland,2021-01-05 07:07:00.025421,2020-08-31 00:00:00.000000,1.03916556,2.22481527,3.51968927,246,528,836,134,325,525,0.56705107,1.36902767,2.21413209,0.13245115,0.19653846,0.27615948
51075,0,USVirginiaGoochland,Virginia,Goochland,2021-01-05 07:07:00.025421,2020-09-01 00:00:00.000000,1.00814669,2.18682461,3.43172217,239,519,815,127,323,518,0.53470638,1.36233747,2.18377544,0.13109281,0.19456905,0.27360161
51075,0,USVirginiaGoochland,Virginia,Goochland,2021-01-05 07:07:00.025421,2020-09-02 00:00:00.000000,0.96195344,2.11168815,3.34338856,228,501,794,123,317,503,0.52000393,1.33463846,2.11841060,0.12560326,0.19235840,0.27157293
51075,0,USVirginiaGoochland,Virginia,Goochland,2021-01-05 07:07:00.025421,2020-09-03 00:00:00.000000,0.91751331,2.05323182,3.25511251,217,487,773,120,312,486,0.50602680,1.31388898,2.04818911,0.12597634,0.18862158,0.26747480
51075,0,USVirginiaGoochland,Virginia,Goochland,2021-01-05 07:07:00.025421,2020-09-04 00:00:00.000000,0.87499602,2.00052773,3.16582489,207,475,751,116,306,471,0.49221157,1.29015329,1.98694854,0.12251309,0.18438176,0.25814166
51075,0,USVirginiaGoochland,Virginia,Goochland,2021-01-05 07:07:00.025421,2020-09-05 00:00:00.000000,0.83445992,1.94361997,3.07195324,198,461,729,113,299,461,0.47842140,1.26004684,1.94302668,0.11675087,0.18187631,0.25175448
51075,0,USVirginiaGoochland,Virginia,Goochland,2021-01-05 07:07:00.025421,2020-09-06 00:00:00.000000,0.79585237,1.90084813,2.96879689,189,451,705,110,289,451,0.46457491,1.21995530,1.90066254,0.11353627,0.17791673,0.25204406
51075,0,USVirginiaGoochland,Virginia,Goochland,2021-01-05 07:07:00.025421,2020-09-07 00:00:00.000000,0.76366848,1.82848044,2.86118157,181,434,679,105,278,441,0.44333796,1.17217787,1.85975104,0.11203461,0.17485594,0.25165737
51075,0,USVirginiaGoochland,Virginia,Goochland,2021-01-05 07:07:00.025421,2020-09-08 00:00:00.000000,0.73314432,1.75418935,2.75111116,174,416,653,100,269,431,0.42227885,1.13467692,1.81614787,0.11120443,0.17441655,0.24466954
51075,0,USVirginiaGoochland,Virginia,Goochland,2021-01-05 07:07:00.025421,2020-09-09 00:00:00.000000,0.70430814,1.69261850,2.72179645,167,402,646,95,260,422,0.40205209,1.09650867,1.77680280,0.11082252,0.17544167,0.24430790
51075,0,USVirginiaGoochland,Virginia,Goochland,2021-01-05 07:07:00.025421,2020-09-10 00:00:00.000000,0.67686111,1.63199530,2.70404631,160,387,642,90,252,418,0.38268121,1.06118063,1.76274688,0.11056367,0.17524588,0.24354943
51075,0,USVirginiaGoochland,Virginia,Goochland,2021-01-05 07:07:00.025421,2020-09-11 00:00:00.000000,0.64946376,1.56781949,2.66873143,154,372,633,86,242,407,0.36434271,1.01940527,1.71575271,0.11017757,0.17488060,0.24239551
51075,0,USVirginiaGoochland,Virginia,Goochland,2021-01-05 07:07:00.025421,2020-09-12 00:00:00.000000,0.62326953,1.51886921,2.58324032,148,360,613,82,234,392,0.34735459,0.98661849,1.65082523,0.10903953,0.17699565,0.25533626
51075,0,USVirginiaGoochland,Virginia,Goochland,2021-01-05 07:07:00.025421,2020-09-13 00:00:00.000000,0.60096576,1.46420968,2.49960185,142,347,593,78,227,377,0.33211365,0.95627487,1.59036300,0.10713956,0.17730787,0.25936671
51075,0,USVirginiaGoochland,Virginia,Goochland,2021-01-05 07:07:00.025421,2020-09-14 00:00:00.000000,0.57596383,1.39525085,2.42205625,136,331,575,75,219,365,0.31873451,0.92350120,1.53870676,0.10616728,0.17532575,0.25967012
51075,0,USVirginiaGoochland,Virginia,Goochland,2021-01-05 07:07:00.025421,2020-09-15 00:00:00.000000,0.55269614,1.36105859,2.34575220,131,323,557,72,211,353,0.30576132,0.89248810,1.48627182,0.10927441,0.17558367,0.25951816
51075,0,USVirginiaGoochland,Virginia,Goochland,2021-01-05 07:07:00.025421,2020-09-16 00:00:00.000000,0.53062171,1.32189342,2.27112561,126,313,539,69,204,340,0.29334758,0.85955345,1.43385038,0.11484442,0.17595268,0.25902351
51075,0,USVirginiaGoochland,Virginia,Goochland,2021-01-05 07:07:00.025421,2020-09-17 00:00:00.000000,0.50965899,1.28635316,2.19866284,121,305,522,66,195,329,0.28152029,0.82338641,1.38716714,0.11484492,0.17897512,0.25746313
51075,0,USVirginiaGoochland,Virginia,Goochland,2021-01-05 07:07:00.025421,2020-09-18 00:00:00.000000,0.49009933,1.25723264,2.12708907,116,298,505,64,189,319,0.27026997,0.79930701,1.34300870,0.11512238,0.18071993,0.24069792
51075,0,USVirginiaGoochland,Virginia,Goochland,2021-01-05 07:07:00.025421,2020-09-19 00:00:00.000000,0.47209705,1.22245785,2.05229352,112,290,487,61,181,308,0.25959053,0.76334760,1.29986615,0.11542849,0.18244480,0.25168952
51075,0,USVirginiaGoochland,Virginia,Goochland,2021-01-05 07:07:00.025421,2020-09-20 00:00:00.000000,0.45653972,1.18267953,1.97195381,108,280,468,59,175,298,0.24957791,0.74089978,1.25648242,0.11561679,0.18330574,0.25952291
51075,0,USVirginiaGoochland,Virginia,Goochland,2021-01-05 07:07:00.025421,2020-09-21 00:00:00.000000,0.45494317,1.14307694,1.89520638,108,271,450,57,173,289,0.24050964,0.73096454,1.21763090,0.11572922,0.18510051,0.26309734
51075,0,USVirginiaGoochland,Virginia,Goochland,2021-01-05 07:07:00.025421,2020-09-22 00:00:00.000000,0.45215571,1.12917523,1.82054246,107,268,432,55,169,282,0.23519814,0.71378449,1.19097191,0.11591926,0.18772328,0.26337163
51075,0,USVirginiaGoochland,Virginia,Goochland,2021-01-05 07:07:00.025421,2020-09-23 00:00:00.000000,0.43896261,1.10989670,1.76883064,104,263,420,55,163,274,0.23227198,0.68815625,1.15639634,0.11682180,0.18848818,0.26318749
51075,0,USVirginiaGoochland,Virginia,Goochland,2021-01-05 07:07:00.025421,2020-09-24 00:00:00.000000,0.42121334,1.08991784,1.72953622,100,258,410,54,158,265,0.22910765,0.66605994,1.11841916,0.12275698,0.18993003,0.26457071
51075,0,USVirginiaGoochland,Virginia,Goochland,2021-01-05 07:07:00.025421,2020-09-25 00:00:00.000000,0.40439566,1.07361559,1.69094798,96,255,401,52,154,260,0.21981082,0.65106193,1.09491534,0.12719435,0.19235934,0.26624948
51075,0,USVirginiaGoochland,Virginia,Goochland,2021-01-05 07:07:00.025421,2020-09-26 00:00:00.000000,0.38852148,1.05157986,1.65311515,92,249,392,50,151,254,0.21095576,0.63829132,1.07216800,0.12935925,0.19798380,0.26840678
51075,0,USVirginiaGoochland,Virginia,Goochland,2021-01-05 07:07:00.025421,2020-09-27 00:00:00.000000,0.37358013,1.03386620,1.61652809,88,245,383,48,149,249,0.20255607,0.62731499,1.04972751,0.13045940,0.20405644,0.27019931
51075,0,USVirginiaGoochland,Virginia,Goochland,2021-01-05 07:07:00.025421,2020-09-28 00:00:00.000000,0.36636876,1.01647953,1.60827617,87,241,382,46,146,244,0.19461597,0.61603243,1.02743771,0.13207210,0.20417384,0.30090398
51075,0,USVirginiaGoochland,Virginia,Goochland,2021-01-05 07:07:00.025421,2020-09-29 00:00:00.000000,0.36011749,1.00597202,1.61341156,85,238,383,44,143,238,0.18868042,0.60525070,1.00505130,0.13216087,0.20664037,0.31904758
51075,0,USVirginiaGoochland,Virginia,Goochland,2021-01-05 07:07:00.025421,2020-09-30 00:00:00.000000,0.34989398,0.99001147,1.61970322,83,235,384,43,140,233,0.18411367,0.59255148,0.98270842,0.13327682,0.20777157,0.33990517
51075,0,USVirginiaGoochland,Virginia,Goochland,2021-01-05 07:07:00.025421,2020-10-01 00:00:00.000000,0.33634035,0.96422338,1.62642195,79,229,386,42,139,228,0.18059553,0.58815327,0.96059396,0.13135103,0.21219550,0.35931801
51075,0,USVirginiaGoochland,Virginia,Goochland,2021-01-05 07:07:00.025421,2020-10-02 00:00:00.000000,0.32588822,0.94664892,1.63306679,77,224,387,42,138,227,0.17812068,0.58247294,0.95776043,0.13087540,0.21583730,0.35757054
51075,0,USVirginiaGoochland,Virginia,Goochland,2021-01-05 07:07:00.025421,2020-10-03 00:00:00.000000,0.33159944,0.96002395,1.63947118,78,228,389,42,138,227,0.17689366,0.58148686,0.95788683,0.13149211,0.21899526,0.35248591
51075,0,USVirginiaGoochland,Virginia,Goochland,2021-01-05 07:07:00.025421,2020-10-04 00:00:00.000000,0.33745712,0.94501291,1.64562851,80,224,390,42,137,227,0.17695385,0.58057039,0.95938003,0.13518047,0.21954741,0.34573778
51075,0,USVirginiaGoochland,Virginia,Goochland,2021-01-05 07:07:00.025421,2020-10-05 00:00:00.000000,0.35880767,0.93662379,1.63316606,85,222,387,42,136,228,0.17805956,0.57598841,0.96241670,0.14112099,0.22631802,0.33821146
51075,0,USVirginiaGoochland,Virginia,Goochland,2021-01-05 07:07:00.025421,2020-10-06 00:00:00.000000,0.35880269,0.93139704,1.62061453,85,221,384,42,136,229,0.17848031,0.57486747,0.96409486,0.14806019,0.23102674,0.33387765
51075,0,USVirginiaGoochland,Virginia,Goochland,2021-01-05 07:07:00.025421,2020-10-07 00:00:00.000000,0.35918318,0.92686226,1.60753460,85,220,381,42,137,229,0.17865643,0.57823194,0.96485577,0.14998608,0.23328781,0.33341341
51075,0,USVirginiaGoochland,Virginia,Goochland,2021-01-05 07:07:00.025421,2020-10-08 00:00:00.000000,0.36079435,0.92662468,1.59460286,85,220,378,43,136,229,0.18240601,0.57619230,0.96496599,0.15091562,0.23580888,0.33601413
51075,0,USVirginiaGoochland,Virginia,Goochland,2021-01-05 07:07:00.025421,2020-10-09 00:00:00.000000,0.36310497,0.92252896,1.58306850,86,219,376,45,135,229,0.19337852,0.57012366,0.96459406,0.15358075,0.24883613,0.34536596
51075,0,USVirginiaGoochland,Virginia,Goochland,2021-01-05 07:07:00.025421,2020-10-10 00:00:00.000000,0.36570695,0.92230975,1.57305312,86,219,373,48,133,228,0.20444885,0.56273884,0.96389450,0.15574732,0.25253525,0.35492891
51075,0,USVirginiaGoochland,Virginia,Goochland,2021-01-05 07:07:00.025421,2020-10-11 00:00:00.000000,0.36844026,0.93099046,1.56497185,87,221,371,49,133,228,0.20992479,0.56325508,0.96337852,0.15668111,0.26369739,0.36282733
51075,0,USVirginiaGoochland,Virginia,Goochland,2021-01-05 07:07:00.025421,2020-10-12 00:00:00.000000,0.37459660,0.94299657,1.57089788,88,223,373,49,133,229,0.20969793,0.56192929,0.96483438,0.15698739,0.26210755,0.36077242
51075,0,USVirginiaGoochland,Virginia,Goochland,2021-01-05 07:07:00.025421,2020-10-13 00:00:00.000000,0.38083395,0.94964366,1.57969277,90,225,375,49,133,230,0.20983647,0.56135669,0.97117663,0.15713336,0.27058369,0.36077038
51075,0,USVirginiaGoochland,Virginia,Goochland,2021-01-05 07:07:00.025421,2020-10-14 00:00:00.000000,0.38740587,0.96382035,1.59192355,92,228,378,50,132,232,0.21058928,0.55618548,0.98048699,0.15708966,0.27050145,0.37428358
51075,0,USVirginiaGoochland,Virginia,Goochland,2021-01-05 07:07:00.025421,2020-10-15 00:00:00.000000,0.39479542,0.96156687,1.60728493,93,228,381,48,130,235,0.20615138,0.55066807,0.99089019,0.15759380,0.27234373,0.37577494
51075,0,USVirginiaGoochland,Virginia,Goochland,2021-01-05 07:07:00.025421,2020-10-16 00:00:00.000000,0.40307581,0.95563630,1.62516071,95,226,386,47,130,237,0.20168315,0.54851966,1.00089705,0.15822158,0.27550022,0.39586114
51075,0,USVirginiaGoochland,Virginia,Goochland,2021-01-05 07:07:00.025421,2020-10-17 00:00:00.000000,0.41175815,0.95658547,1.64524492,97,227,390,46,129,239,0.19758672,0.54566839,1.00950405,0.16144076,0.28060358,0.41163964
51075,0,USVirginiaGoochland,Virginia,Goochland,2021-01-05 07:07:00.025421,2020-10-18 00:00:00.000000,0.41837607,0.95353179,1.66825084,99,226,396,47,128,241,0.20133789,0.54239760,1.01623769,0.16977236,0.28055606,0.41176182
51075,0,USVirginiaGoochland,Virginia,Goochland,2021-01-05 07:07:00.025421,2020-10-19 00:00:00.000000,0.42163113,0.94248916,1.68812076,100,223,400,48,128,242,0.20402662,0.54047313,1.02106998,0.18256426,0.28238937,0.45001192
51075,0,USVirginiaGoochland,Virginia,Goochland,2021-01-05 07:07:00.025421,2020-10-20 00:00:00.000000,0.42547157,0.93109756,1.71261162,101,221,406,48,129,243,0.20405099,0.54352251,1.02584746,0.18868333,0.28939291,0.46055147
51075,0,USVirginiaGoochland,Virginia,Goochland,2021-01-05 07:07:00.025421,2020-10-21 00:00:00.000000,0.42933772,0.93570407,1.73923859,101,222,413,48,129,244,0.20505571,0.54610520,1.03043768,0.20193440,0.29617769,0.47489144
51075,0,USVirginiaGoochland,Virginia,Goochland,2021-01-05 07:07:00.025421,2020-10-22 00:00:00.000000,0.43293114,0.94296558,1.76806282,102,223,419,49,129,245,0.20648795,0.54597644,1.03494431,0.21660321,0.29879140,0.48162655
51075,0,USVirginiaGoochland,Virginia,Goochland,2021-01-05 07:07:00.025421,2020-10-23 00:00:00.000000,0.44210840,0.95380660,1.80471514,105,226,428,50,130,246,0.21202359,0.54827381,1.03962780,0.21968611,0.30734344,0.48340782
51075,0,USVirginiaGoochland,Virginia,Goochland,2021-01-05 07:07:00.025421,2020-10-24 00:00:00.000000,0.45128820,0.96544221,1.82920197,107,229,434,52,130,248,0.22056200,0.54917661,1.04484383,0.22136045,0.31543865,0.48373657
51075,0,USVirginiaGoochland,Virginia,Goochland,2021-01-05 07:07:00.025421,2020-10-25 00:00:00.000000,0.45296136,0.97820572,1.84456105,107,232,438,53,131,249,0.22610400,0.55296313,1.05092943,0.22233986,0.32175099,0.48138930
51075,0,USVirginiaGoochland,Virginia,Goochland,2021-01-05 07:07:00.025421,2020-10-26 00:00:00.000000,0.47085695,0.99838757,1.84789308,111,237,438,54,132,251,0.22942980,0.55793807,1.05802857,0.22402687,0.32582851,0.48231711
51075,0,USVirginiaGoochland,Virginia,Goochland,2021-01-05 07:07:00.025421,2020-10-27 00:00:00.000000,0.50341327,1.01907340,1.85242467,119,242,440,55,134,252,0.23270441,0.56512459,1.06329545,0.22407750,0.34446509,0.47344991
51075,0,USVirginiaGoochland,Virginia,Goochland,2021-01-05 07:07:00.025421,2020-10-28 00:00:00.000000,0.52196332,1.05025918,1.85796603,123,249,441,56,137,253,0.23596956,0.57724318,1.06758101,0.22586461,0.34561515,0.47001273
51075,0,USVirginiaGoochland,Virginia,Goochland,2021-01-05 07:07:00.025421,2020-10-29 00:00:00.000000,0.52781532,1.07874739,1.86638283,125,256,443,57,140,254,0.24408509,0.59056121,1.07147158,0.22902473,0.35319040,0.46483334
51075,0,USVirginiaGoochland,Virginia,Goochland,2021-01-05 07:07:00.025421,2020-10-30 00:00:00.000000,0.53319811,1.09999395,1.88029899,126,261,446,59,142,255,0.25042067,0.59949555,1.07572288,0.23323384,0.37023372,0.48369398
51075,0,USVirginiaGoochland,Virginia,Goochland,2021-01-05 07:07:00.025421,2020-10-31 00:00:00.000000,0.53796282,1.12577845,1.89861481,127,267,450,59,144,256,0.25250556,0.60985027,1.08136675,0.24294801,0.36832015,0.48954065
51075,0,USVirginiaGoochland,Virginia,Goochland,2021-01-05 07:07:00.025421,2020-11-01 00:00:00.000000,0.54215735,1.15227523,1.91856805,128,273,455,60,148,258,0.25641162,0.62425213,1.08943547,0.25066501,0.36853883,0.49051351
51075,0,USVirginiaGoochland,Virginia,Goochland,2021-01-05 07:07:00.025421,2020-11-02 00:00:00.000000,0.55512409,1.19666969,1.95122687,131,284,463,62,151,263,0.26180533,0.63706960,1.10821928,0.25045058,0.37915549,0.50095219
51075,0,USVirginiaGoochland,Virginia,Goochland,2021-01-05 07:07:00.025421,2020-11-03 00:00:00.000000,0.56794722,1.22825970,1.98401813,134,291,471,63,156,268,0.26808688,0.65971500,1.13125606,0.25052554,0.38940933,0.50816129
51075,0,USVirginiaGoochland,Virginia,Goochland,2021-01-05 07:07:00.025421,2020-11-04 00:00:00.000000,0.58153231,1.26084902,2.08452006,138,299,495,65,161,274,0.27509587,0.68180408,1.15699660,0.26070106,0.39298096,0.50888563
51075,0,USVirginiaGoochland,Virginia,Goochland,2021-01-05 07:07:00.025421,2020-11-05 00:00:00.000000,0.59617148,1.31465217,2.17222897,141,312,515,67,166,288,0.28285515,0.70255885,1.21308800,0.26224920,0.39681936,0.51170846
51075,0,USVirginiaGoochland,Virginia,Goochland,2021-01-05 07:07:00.025421,2020-11-06 00:00:00.000000,0.61302647,1.35597910,2.22729984,145,322,529,69,172,301,0.29162087,0.72581619,1.27130631,0.26446942,0.40225821,0.50989564
51075,0,USVirginiaGoochland,Virginia,Goochland,2021-01-05 07:07:00.025421,2020-11-07 00:00:00.000000,0.63394663,1.40358989,2.27777422,150,333,541,71,179,315,0.30220272,0.75403822,1.32642611,0.26743615,0.41253635,0.50212916
51075,0,USVirginiaGoochland,Virginia,Goochland,2021-01-05 07:07:00.025421,2020-11-08 00:00:00.000000,0.65983584,1.47194193,2.34261169,156,349,556,74,186,327,0.31491981,0.78307700,1.37978958,0.27168595,0.40830834,0.52997012
51075,0,USVirginiaGoochland,Virginia,Goochland,2021-01-05 07:07:00.025421,2020-11-09 00:00:00.000000,0.68052380,1.52988921,2.41336338,161,363,573,79,194,340,0.33541111,0.81833069,1.43257072,0.27984395,0.41204430,0.55087654
51075,0,USVirginiaGoochland,Virginia,Goochland,2021-01-05 07:07:00.025421,2020-11-10 00:00:00.000000,0.72473639,1.59128210,2.54108588,172,377,603,84,203,352,0.35772322,0.85842297,1.48402545,0.28484785,0.41010554,0.56084032
51075,0,USVirginiaGoochland,Virginia,Goochland,2021-01-05 07:07:00.025421,2020-11-11 00:00:00.000000,0.75868050,1.64286083,2.66195615,180,390,632,88,211,364,0.37179744,0.89120553,1.53558937,0.29235827,0.41368277,0.57343211
51075,0,USVirginiaGoochland,Virginia,Goochland,2021-01-05 07:07:00.025421,2020-11-12 00:00:00.000000,0.78252477,1.70556865,2.74667203,185,405,652,93,218,377,0.39208601,0.91948882,1.58779878,0.29788406,0.41256883,0.57877994
51075,0,USVirginiaGoochland,Virginia,Goochland,2021-01-05 07:07:00.025421,2020-11-13 00:00:00.000000,0.80690547,1.78238681,2.83245764,191,423,672,98,227,389,0.41525721,0.95640659,1.64054008,0.30182062,0.41125979,0.57901625
51075,0,USVirginiaGoochland,Virginia,Goochland,2021-01-05 07:07:00.025421,2020-11-14 00:00:00.000000,0.82784880,1.83133403,2.91828525,196,434,693,104,237,406,0.43855929,1.00183257,1.71122783,0.30564641,0.40682315,0.57939847
51075,0,USVirginiaGoochland,Virginia,Goochland,2021-01-05 07:07:00.025421,2020-11-15 00:00:00.000000,0.84004380,1.87835146,2.99758899,199,446,712,109,244,420,0.46171521,1.02951370,1.76986849,0.29094633,0.40214271,0.58121951
51075,0,USVirginiaGoochland,Virginia,Goochland,2021-01-05 07:07:00.025421,2020-11-16 00:00:00.000000,0.87086370,1.94784533,3.13047918,206,462,743,113,252,431,0.47905156,1.06360920,1.81567603,0.29374125,0.39988160,0.58965499
51075,0,USVirginiaGoochland,Virginia,Goochland,2021-01-05 07:07:00.025421,2020-11-17 00:00:00.000000,0.89137734,2.01314081,3.26911640,211,478,776,116,260,439,0.49076870,1.09661155,1.84936567,0.29227374,0.40338260,0.59649422
51075,0,USVirginiaGoochland,Virginia,Goochland,2021-01-05 07:07:00.025421,2020-11-18 00:00:00.000000,0.93411538,2.07187012,3.35990315,221,492,798,120,268,463,0.50631529,1.13158274,1.95341299,0.28322474,0.40170065,0.59161133
51075,0,USVirginiaGoochland,Virginia,Goochland,2021-01-05 07:07:00.025421,2020-11-19 00:00:00.000000,0.98324964,2.13904422,3.44612148,233,508,818,123,277,490,0.51974410,1.16995909,2.06599784,0.28088350,0.39910232,0.59605937
51075,0,USVirginiaGoochland,Virginia,Goochland,2021-01-05 07:07:00.025421,2020-11-20 00:00:00.000000,1.03142842,2.20180631,3.52416609,244,522,837,126,283,514,0.53375523,1.19501575,2.16611334,0.26807820,0.39423345,0.58746016
51075,0,USVirginiaGoochland,Virginia,Goochland,2021-01-05 07:07:00.025421,2020-11-21 00:00:00.000000,1.07775946,2.26230259,3.60225604,256,537,855,128,295,527,0.53982669,1.24353744,2.22185379,0.26540183,0.38775818,0.56623840
51075,0,USVirginiaGoochland,Virginia,Goochland,2021-01-05 07:07:00.025421,2020-11-22 00:00:00.000000,1.10756422,2.29693219,3.70869841,263,545,880,129,307,540,0.54323458,1.29364022,2.27361260,0.25337845,0.37875863,0.54621219
51075,0,USVirginiaGoochland,Virginia,Goochland,2021-01-05 07:07:00.025421,2020-11-23 00:00:00.000000,1.11645027,2.34594764,3.79395844,265,557,901,130,316,551,0.54740965,1.33180750,2.32199416,0.23690427,0.36590016,0.52842286
51075,0,USVirginiaGoochland,Virginia,Goochland,2021-01-05 07:07:00.025421,2020-11-24 00:00:00.000000,1.12717203,2.37680283,3.89930348,267,564,926,131,326,562,0.55208019,1.37606890,2.37008215,0.23216940,0.36254576,0.50457582
51075,0,USVirginiaGoochland,Virginia,Goochland,2021-01-05 07:07:00.025421,2020-11-25 00:00:00.000000,1.13900419,2.42445292,3.99138018,270,575,948,133,331,573,0.56193891,1.39728787,2.41637809,0.24033745,0.35106390,0.47255338
51075,0,USVirginiaGoochland,Virginia,Goochland,2021-01-05 07:07:00.025421,2020-11-26 00:00:00.000000,1.15133621,2.46775832,4.00029367,273,586,950,140,336,584,0.58963912,1.41483837,2.46067268,0.23800128,0.34699934,0.46791187
51075,0,USVirginiaGoochland,Virginia,Goochland,2021-01-05 07:07:00.025421,2020-11-27 00:00:00.000000,1.16368725,2.49010781,4.06058040,276,591,964,146,335,599,0.61778273,1.41123753,2.52191648,0.23465921,0.35067539,0.45070783
51075,0,USVirginiaGoochland,Virginia,Goochland,2021-01-05 07:07:00.025421,2020-11-28 00:00:00.000000,1.17553735,2.52653348,4.11845670,279,600,978,149,334,605,0.63024583,1.40909716,2.54962703,0.23380491,0.34797870,0.43982055
51075,0,USVirginiaGoochland,Virginia,Goochland,2021-01-05 07:07:00.025421,2020-11-29 00:00:00.000000,1.18637410,2.55016541,4.17553608,281,605,991,152,335,615,0.64193166,1.41373738,2.59286047,0.23391937,0.35009838,0.43797148
51075,0,USVirginiaGoochland,Virginia,Goochland,2021-01-05 07:07:00.025421,2020-11-30 00:00:00.000000,1.19764577,2.55751606,4.24133048,284,607,1007,155,338,625,0.65342610,1.42571721,2.63153481,0.23447844,0.34773104,0.43793217
51075,0,USVirginiaGoochland,Virginia,Goochland,2021-01-05 07:07:00.025421,2020-12-01 00:00:00.000000,1.19824251,2.57901692,4.31137696,284,612,1024,156,344,632,0.65926980,1.45221803,2.66431246,0.23432521,0.35230295,0.43845627
51075,0,USVirginiaGoochland,Virginia,Goochland,2021-01-05 07:07:00.025421,2020-12-02 00:00:00.000000,1.21679824,2.60744676,4.38882501,289,619,1042,158,351,639,0.66761660,1.47838225,2.69311308,0.23730269,0.35223184,0.44289769
51075,0,USVirginiaGoochland,Virginia,Goochland,2021-01-05 07:07:00.025421,2020-12-03 00:00:00.000000,1.22359932,2.62499323,4.47101185,290,623,1061,161,353,650,0.68026779,1.48794960,2.73779464,0.24131434,0.35118869,0.44323212
51075,0,USVirginiaGoochland,Virginia,Goochland,2021-01-05 07:07:00.025421,2020-12-04 00:00:00.000000,1.21868483,2.63429126,4.55502252,289,625,1081,165,354,661,0.69648525,1.49367171,2.78559496,0.25129894,0.35421699,0.44271868
51075,0,USVirginiaGoochland,Virginia,Goochland,2021-01-05 07:07:00.025421,2020-12-05 00:00:00.000000,1.24345070,2.64799452,4.63941720,295,628,1102,169,355,673,0.71485918,1.49530298,2.83575858,0.26669723,0.35500639,0.44920982
51075,0,USVirginiaGoochland,Virginia,Goochland,2021-01-05 07:07:00.025421,2020-12-06 00:00:00.000000,1.27348517,2.68194993,4.70646127,302,637,1117,172,355,685,0.72690039,1.49769792,2.88745039,0.26704790,0.35851558,0.46451142
51075,0,USVirginiaGoochland,Virginia,Goochland,2021-01-05 07:07:00.025421,2020-12-07 00:00:00.000000,1.32822717,2.71329012,4.69587139,315,644,1115,171,358,687,0.72394156,1.50957207,2.89369879,0.27080626,0.35905051,0.46275698
51075,0,USVirginiaGoochland,Virginia,Goochland,2021-01-05 07:07:00.025421,2020-12-08 00:00:00.000000,1.35003546,2.75269183,4.68072234,320,653,1111,171,366,686,0.72017784,1.54360270,2.89066251,0.28086167,0.36390074,0.47688248
51075,0,USVirginiaGoochland,Virginia,Goochland,2021-01-05 07:07:00.025421,2020-12-09 00:00:00.000000,1.36965768,2.79763824,4.66171620,325,664,1107,170,376,685,0.71753362,1.58674561,2.88413826,0.28531461,0.37308405,0.48368223
51075,0,USVirginiaGoochland,Virginia,Goochland,2021-01-05 07:07:00.025421,2020-12-10 00:00:00.000000,1.38796069,2.86251715,4.67720708,329,679,1110,171,385,688,0.72208339,1.62177897,2.89842207,0.28099082,0.38930490,0.48885890
51075,0,USVirginiaGoochland,Virginia,Goochland,2021-01-05 07:07:00.025421,2020-12-11 00:00:00.000000,1.39417901,2.90783099,4.82686973,331,690,1146,178,389,703,0.75133932,1.64131857,2.96265088,0.27637760,0.39847164,0.51493126
51075,0,USVirginiaGoochland,Virginia,Goochland,2021-01-05 07:07:00.025421,2020-12-12 00:00:00.000000,1.40560510,2.96958487,4.99002270,333,705,1185,185,390,722,0.78190585,1.64592181,3.04084319,0.27517061,0.40456312,0.54998995
51075,0,USVirginiaGoochland,Virginia,Goochland,2021-01-05 07:07:00.025421,2020-12-13 00:00:00.000000,1.42199658,3.04268153,5.16126635,337,722,1225,190,399,743,0.80244368,1.68277490,3.13089276,0.28961719,0.41116519,0.57891800
51075,0,USVirginiaGoochland,Virginia,Goochland,2021-01-05 07:07:00.025421,2020-12-14 00:00:00.000000,1.47232233,3.10575259,5.32896756,349,737,1265,195,408,767,0.82417966,1.71774662,3.23006901,0.29463275,0.42416728,0.59925645
51075,0,USVirginiaGoochland,Virginia,Goochland,2021-01-05 07:07:00.025421,2020-12-15 00:00:00.000000,1.49807841,3.18795837,5.47585660,355,757,1300,201,417,791,0.84757484,1.75962082,3.33365306,0.30160087,0.43160300,0.61180124
51075,0,USVirginiaGoochland,Virginia,Goochland,2021-01-05 07:07:00.025421,2020-12-16 00:00:00.000000,1.53213075,3.27241705,5.51867864,363,777,1310,205,428,814,0.86507944,1.80573585,3.42760431,0.32026808,0.44140368,0.61987415
51075,0,USVirginiaGoochland,Virginia,Goochland,2021-01-05 07:07:00.025421,2020-12-17 00:00:00.000000,1.58174486,3.38208705,5.56968323,375,803,1322,209,442,823,0.88166134,1.86277116,3.46838440,0.33641982,0.45180898,0.63069762
51075,0,USVirginiaGoochland,Virginia,Goochland,2021-01-05 07:07:00.025421,2020-12-18 00:00:00.000000,1.63827774,3.52550419,5.65646866,389,837,1343,214,457,830,0.90346476,1.92759152,3.49658588,0.33697760,0.46561956,0.63639463
51075,0,USVirginiaGoochland,Virginia,Goochland,2021-01-05 07:07:00.025421,2020-12-19 00:00:00.000000,1.69775081,3.66550817,5.95280959,403,870,1413,220,471,838,0.93001692,1.98605018,3.53214971,0.33762087,0.47148128,0.64402569
51075,0,USVirginiaGoochland,Virginia,Goochland,2021-01-05 07:07:00.025421,2020-12-20 00:00:00.000000,1.75943756,3.79746267,6.24714172,417,902,1483,228,488,851,0.96001872,2.05628147,3.58296394,0.34809060,0.47754557,0.65367717
51075,0,USVirginiaGoochland,Virginia,Goochland,2021-01-05 07:07:00.025421,2020-12-21 00:00:00.000000,1.81737065,3.96387463,6.40113097,431,941,1520,235,500,868,0.99254109,2.10673648,3.65455946,0.35376735,0.47986402,0.66132284
51075,0,USVirginiaGoochland,Virginia,Goochland,2021-01-05 07:07:00.025421,2020-12-22 00:00:00.000000,1.87683983,4.11697584,6.55439705,445,977,1556,242,515,889,1.02284820,2.16927293,3.74540695,0.35324112,0.48860063,0.66624838
51075,0,USVirginiaGoochland,Virginia,Goochland,2021-01-05 07:07:00.025421,2020-12-23 00:00:00.000000,1.93723570,4.25355510,6.70363408,460,1010,1592,247,537,914,1.04025317,2.26228254,3.85097192,0.35409387,0.48983078,0.68606542
51075,0,USVirginiaGoochland,Virginia,Goochland,2021-01-05 07:07:00.025421,2020-12-24 00:00:00.000000,2.01196648,4.40320298,6.85100553,477,1045,1627,252,558,942,1.06115794,2.35086738,3.96670949,0.35640911,0.49078881,0.69400464
51075,0,USVirginiaGoochland,Virginia,Goochland,2021-01-05 07:07:00.025421,2020-12-25 00:00:00.000000,2.12472431,4.54532342,7.16679324,504,1079,1702,260,577,973,1.09627528,2.42923635,4.09719345,0.36170573,0.49419581,0.71804332
51075,0,USVirginiaGoochland,Virginia,Goochland,2021-01-05 07:07:00.025421,2020-12-26 00:00:00.000000,2.25071263,4.68153377,7.58838622,534,1112,1802,268,589,1027,1.13224978,2.48198925,4.32529649,0.36251242,0.49742074,0.73254366
51075,0,USVirginiaGoochland,Virginia,Goochland,2021-01-05 07:07:00.025421,2020-12-27 00:00:00.000000,2.38835738,4.84057839,8.02324698,567,1149,1905,277,596,1065,1.16913904,2.51097498,4.48504292,0.36092657,0.49993484,0.73780217
51075,0,USVirginiaGoochland,Virginia,Goochland,2021-01-05 07:07:00.025421,2020-12-28 00:00:00.000000,2.47595028,4.94954110,8.38570995,588,1175,1991,286,608,1111,1.20689362,2.56213220,4.67928318,0.35998808,0.51127153,0.73962315
51075,0,USVirginiaGoochland,Virginia,Goochland,2021-01-05 07:07:00.025421,2020-12-29 00:00:00.000000,2.54502716,5.02901805,8.66818737,604,1194,2058,295,641,1155,1.24360596,2.69952392,4.86444238,0.35914793,0.51744523,0.74575464
51075,0,USVirginiaGoochland,Virginia,Goochland,2021-01-05 07:07:00.025421,2020-12-30 00:00:00.000000,2.61436293,5.21197905,8.96138292,620,1238,2128,304,671,1197,1.28387597,2.82773236,5.03958068,0.34651848,0.52530967,0.75486438
51075,0,USVirginiaGoochland,Virginia,Goochland,2021-01-05 07:07:00.025421,2020-12-31 00:00:00.000000,2.68381266,5.31735630,9.25733893,637,1263,2198,317,695,1236,1.33619434,2.92841864,5.20383759,0.32313566,0.52753924,0.75476415
51075,0,USVirginiaGoochland,Virginia,Goochland,2021-01-05 07:07:00.025421,2021-01-01 00:00:00.000000,2.75327577,5.40967572,9.55272064,653,1284,2269,333,711,1273,1.40315281,2.99607858,5.35965517,0.32916075,0.52261917,0.75183901
51075,0,USVirginiaGoochland,Virginia,Goochland,2021-01-05 07:07:00.025421,2021-01-02 00:00:00.000000,2.82357943,5.56991886,9.84761544,670,1323,2339,336,733,1308,1.41522878,3.08671909,5.50757035,0.33753617,0.53038113,0.79081174
51075,0,USVirginiaGoochland,Virginia,Goochland,2021-01-05 07:07:00.025421,2021-01-03 00:00:00.000000,2.86948916,5.74476418,10.14265370,681,1364,2409,338,758,1341,1.42648208,3.19204826,5.64811496,0.33556520,0.53553963,0.79854937
51075,0,USVirginiaGoochland,Virginia,Goochland,2021-01-05 07:07:00.025421,2021-01-04 00:00:00.000000,2.91500536,5.95716101,10.44251581,692,1415,2480,346,768,1373,1.45987151,3.23408877,5.78171453,0.33351689,0.53281205,0.82397100
51075,0,USVirginiaGoochland,Virginia,Goochland,2021-01-05 07:07:00.025421,2021-01-05 00:00:00.000000,2.96087539,6.12783806,10.75224162,703,1455,2553,354,795,1406,1.49180377,3.35100829,5.92312927,0.33303936,0.53332627,0.83318627
51075,0,USVirginiaGoochland,Virginia,Goochland,2021-01-05 07:07:00.025421,2021-01-06 00:00:00.000000,3.00562533,6.28496905,10.93551298,713,1492,2597,359,823,1437,1.51447075,3.46882867,6.05319405,0.33292953,0.52944190,0.84470148
51075,0,USVirginiaGoochland,Virginia,Goochland,2021-01-05 07:07:00.025421,2021-01-07 00:00:00.000000,3.03785892,6.45571195,11.26324224,721,1533,2675,363,840,1475,1.52933350,3.53702667,6.21220813,0.33290434,0.52381915,0.85531005
51075,0,USVirginiaGoochland,Virginia,Goochland,2021-01-05 07:07:00.025421,2021-01-08 00:00:00.000000,3.02795920,6.72871456,11.70295679,719,1598,2779,365,863,1517,1.53938300,3.63418996,6.38853349,0.33289857,0.52095366,0.86096130
51075,0,USVirginiaGoochland,Virginia,Goochland,2021-01-05 07:07:00.025421,2021-01-09 00:00:00.000000,3.03501863,6.92503800,12.00557707,720,1644,2851,367,874,1558,1.54649481,3.67998863,6.56018912,0.33289725,0.51961196,0.86382442
51075,0,USVirginiaGoochland,Virginia,Goochland,2021-01-05 07:07:00.025421,2021-01-10 00:00:00.000000,3.04026853,7.07032686,12.28056711,722,1679,2917,368,898,1597,1.55169765,3.78449030,6.72614503,0.33289695,0.51934629,0.86523811
51075,0,USVirginiaGoochland,Virginia,Goochland,2021-01-05 07:07:00.025421,2021-01-11 00:00:00.000000,3.04390376,7.20990203,12.73881228,723,1712,3025,369,927,1654,1.55554401,3.90685316,6.96740999,0.33289688,0.51934662,0.86592727
51075,0,USVirginiaGoochland,Virginia,Goochland,2021-01-05 07:07:00.025421,2021-01-12 00:00:00.000000,3.04603078,7.35345910,13.19416309,723,1746,3134,370,947,1742,1.55833033,3.99004110,7.33783412,0.33289686,0.51934680,0.86626114
51075,0,USVirginiaGoochland,Virginia,Goochland,2021-01-05 07:07:00.025421,2021-01-13 00:00:00.000000,3.04670913,7.51656316,13.91952874,723,1785,3306,370,966,1829,1.56021636,4.06848320,7.70207413,0.33289686,0.51934689,0.86642239
51075,0,USVirginiaGoochland,Virginia,Goochland,2021-01-05 07:07:00.025421,2021-01-14 00:00:00.000000,3.04597373,7.68856072,14.48668990,723,1826,3441,370,980,1913,1.56128897,4.12637714,8.05600552,0.33289686,0.51934694,0.86650016
51075,0,USVirginiaGoochland,Virginia,Goochland,2021-01-05 07:07:00.025421,2021-01-15 00:00:00.000000,3.04384705,7.90544511,15.02763006,723,1877,3569,370,989,1976,1.56159631,4.16429577,8.32266838,0.33289686,0.51934696,0.86653765
51075,0,USVirginiaGoochland,Virginia,Goochland,2021-01-05 07:07:00.025421,2021-01-16 00:00:00.000000,3.04034557,8.18317896,15.53606947,722,1943,3690,370,1004,2026,1.56116601,4.23069298,8.53217500,0.33289685,0.51934697,0.86655570
51075,0,USVirginiaGoochland,Virginia,Goochland,2021-01-05 07:07:00.025421,2021-01-17 00:00:00.000000,3.03548341,8.33864997,16.11682084,721,1980,3828,370,1030,2058,1.56001507,4.33722556,8.66641332,0.33289685,0.51934698,0.86656440
