FIPS,HR_UID,nameid,province,region,analysisTime,dates,pointprevalence_025,pointprevalence_50,pointprevalence_975,pointinfections_025,pointinfections_50,pointinfections_975,pointinfectious_025,pointinfectious_50,pointinfectious_975,pointinfectiousprevalence_05,pointinfectiousprevalence_50,pointinfectiousprevalence_95,infectrate_025,infectrate_50,infectrate_975
39075,0,USOhioHolmes,Ohio,Holmes,2021-01-05 13:10:32.496138,2020-03-09 00:00:00.000000,0.00116757,0.00588698,0.02695443,0,2,11,0,1,6,0.00059078,0.00328084,0.01576079,0.42914857,0.54675426,0.77540778
39075,0,USOhioHolmes,Ohio,Holmes,2021-01-05 13:10:32.496138,2020-03-10 00:00:00.000000,0.00132170,0.00638954,0.02791295,0,2,12,0,1,6,0.00059288,0.00321611,0.01431386,0.42914856,0.54674644,0.77540736
39075,0,USOhioHolmes,Ohio,Holmes,2021-01-05 13:10:32.496138,2020-03-11 00:00:00.000000,0.00148303,0.00693509,0.02881194,0,3,12,0,1,6,0.00062365,0.00325013,0.01393876,0.42914854,0.54673227,0.77540638
39075,0,USOhioHolmes,Ohio,Holmes,2021-01-05 13:10:32.496138,2020-03-12 00:00:00.000000,0.00165664,0.00752383,0.02960631,0,3,13,0,1,5,0.00067728,0.00352672,0.01362254,0.42914851,0.54670494,0.77540383
39075,0,USOhioHolmes,Ohio,Holmes,2021-01-05 13:10:32.496138,2020-03-13 00:00:00.000000,0.00184617,0.00797300,0.03052488,0,3,13,0,1,6,0.00074622,0.00380498,0.01378557,0.42914846,0.54664885,0.77539647
39075,0,USOhioHolmes,Ohio,Holmes,2021-01-05 13:10:32.496138,2020-03-14 00:00:00.000000,0.00205458,0.00854635,0.03247567,0,3,14,0,1,6,0.00082714,0.00404548,0.01433639,0.42914834,0.54652666,0.77537385
39075,0,USOhioHolmes,Ohio,Holmes,2021-01-05 13:10:32.496138,2020-03-15 00:00:00.000000,0.00228462,0.00908860,0.03482223,1,3,15,0,1,6,0.00091889,0.00438422,0.01528866,0.42914804,0.54624440,0.77530140
39075,0,USOhioHolmes,Ohio,Holmes,2021-01-05 13:10:32.496138,2020-03-16 00:00:00.000000,0.00427089,0.01302728,0.04107170,1,5,18,0,2,7,0.00102147,0.00475499,0.01634958,0.42914670,0.54576317,0.77506459
39075,0,USOhioHolmes,Ohio,Holmes,2021-01-05 13:10:32.496138,2020-03-17 00:00:00.000000,0.00561141,0.01684194,0.04737004,2,7,20,0,2,8,0.00156042,0.00581081,0.01831791,0.42913864,0.54469124,0.77428480
39075,0,USOhioHolmes,Ohio,Holmes,2021-01-05 13:10:32.496138,2020-03-18 00:00:00.000000,0.00691347,0.02000497,0.05273557,3,8,23,1,3,9,0.00236587,0.00727650,0.02236024,0.41917686,0.53145639,0.77173558
39075,0,USOhioHolmes,Ohio,Holmes,2021-01-05 13:10:32.496138,2020-03-19 00:00:00.000000,0.00812918,0.02325235,0.05755604,3,10,25,1,3,12,0.00290359,0.00893879,0.02733459,0.37316264,0.49820357,0.76372645
39075,0,USOhioHolmes,Ohio,Holmes,2021-01-05 13:10:32.496138,2020-03-20 00:00:00.000000,0.00925617,0.02664290,0.06367611,4,11,27,1,4,14,0.00336831,0.01051919,0.03234837,0.34202081,0.48101482,0.74157600
39075,0,USOhioHolmes,Ohio,Holmes,2021-01-05 13:10:32.496138,2020-03-21 00:00:00.000000,0.01042321,0.03024652,0.06977288,4,13,30,1,5,16,0.00387371,0.01224066,0.03755080,0.32740641,0.45983381,0.69720611
39075,0,USOhioHolmes,Ohio,Holmes,2021-01-05 13:10:32.496138,2020-03-22 00:00:00.000000,0.01162046,0.03374381,0.07457784,5,14,32,1,6,18,0.00441180,0.01399470,0.04134217,0.29285575,0.43197835,0.62483605
39075,0,USOhioHolmes,Ohio,Holmes,2021-01-05 13:10:32.496138,2020-03-23 00:00:00.000000,0.01357247,0.03721979,0.07711418,5,16,33,2,6,19,0.00497581,0.01575326,0.04434941,0.28272274,0.40314151,0.61494274
39075,0,USOhioHolmes,Ohio,Holmes,2021-01-05 13:10:32.496138,2020-03-24 00:00:00.000000,0.01555192,0.04155511,0.08746752,6,18,38,2,7,20,0.00570052,0.01778884,0.04728834,0.25980296,0.38291323,0.60240776
39075,0,USOhioHolmes,Ohio,Holmes,2021-01-05 13:10:32.496138,2020-03-25 00:00:00.000000,0.01760002,0.04549461,0.09215397,7,19,40,2,8,21,0.00653406,0.01983226,0.05002272,0.25515822,0.37380757,0.59726180
39075,0,USOhioHolmes,Ohio,Holmes,2021-01-05 13:10:32.496138,2020-03-26 00:00:00.000000,0.01972137,0.05035491,0.09810345,8,22,43,3,9,23,0.00744666,0.02208176,0.05261425,0.24416848,0.36480619,0.59315698
39075,0,USOhioHolmes,Ohio,Holmes,2021-01-05 13:10:32.496138,2020-03-27 00:00:00.000000,0.02191799,0.05403934,0.10408407,9,23,45,3,10,24,0.00842158,0.02491213,0.05511684,0.24204305,0.36197792,0.58583638
39075,0,USOhioHolmes,Ohio,Holmes,2021-01-05 13:10:32.496138,2020-03-28 00:00:00.000000,0.02430305,0.05945334,0.11078896,10,26,48,4,12,25,0.00944924,0.02770514,0.05754982,0.23977298,0.35271487,0.57080393
39075,0,USOhioHolmes,Ohio,Holmes,2021-01-05 13:10:32.496138,2020-03-29 00:00:00.000000,0.02755679,0.06307765,0.11949458,12,27,52,4,13,26,0.01058591,0.02999354,0.06104632,0.23518906,0.34697204,0.53392449
39075,0,USOhioHolmes,Ohio,Holmes,2021-01-05 13:10:32.496138,2020-03-30 00:00:00.000000,0.03572513,0.06721902,0.12380833,15,29,54,5,13,29,0.01221892,0.03173087,0.06749709,0.23065972,0.34172900,0.49292640
39075,0,USOhioHolmes,Ohio,Holmes,2021-01-05 13:10:32.496138,2020-03-31 00:00:00.000000,0.04254267,0.07058103,0.12815512,18,31,56,6,14,31,0.01409373,0.03333956,0.07200901,0.22185999,0.33661878,0.50024402
39075,0,USOhioHolmes,Ohio,Holmes,2021-01-05 13:10:32.496138,2020-04-01 00:00:00.000000,0.04531816,0.07386917,0.13235477,19,32,58,7,15,32,0.01741693,0.03526488,0.07351278,0.21386669,0.32573236,0.49143648
39075,0,USOhioHolmes,Ohio,Holmes,2021-01-05 13:10:32.496138,2020-04-02 00:00:00.000000,0.04639725,0.07864100,0.13630659,20,34,59,9,16,32,0.02132232,0.03730329,0.07489435,0.20782948,0.31690925,0.47985242
39075,0,USOhioHolmes,Ohio,Holmes,2021-01-05 13:10:32.496138,2020-04-03 00:00:00.000000,0.04728728,0.08248487,0.14424705,20,36,63,9,16,33,0.02262657,0.03841767,0.07619400,0.20428477,0.30257045,0.47158679
39075,0,USOhioHolmes,Ohio,Holmes,2021-01-05 13:10:32.496138,2020-04-04 00:00:00.000000,0.04845621,0.08663011,0.15564734,21,38,68,10,17,34,0.02373764,0.04022137,0.07741746,0.20190957,0.29045481,0.44569097
39075,0,USOhioHolmes,Ohio,Holmes,2021-01-05 13:10:32.496138,2020-04-05 00:00:00.000000,0.04992038,0.09084041,0.16477817,21,39,72,10,18,35,0.02442344,0.04247071,0.08164606,0.19801103,0.28595112,0.44593131
39075,0,USOhioHolmes,Ohio,Holmes,2021-01-05 13:10:32.496138,2020-04-06 00:00:00.000000,0.05523221,0.09322521,0.17134184,24,40,75,10,19,38,0.02496574,0.04483438,0.08790694,0.19261552,0.27710359,0.43756425
39075,0,USOhioHolmes,Ohio,Holmes,2021-01-05 13:10:32.496138,2020-04-07 00:00:00.000000,0.05859854,0.09626079,0.17863469,25,42,78,11,20,41,0.02670390,0.04676823,0.09400323,0.19027488,0.27109273,0.43612481
39075,0,USOhioHolmes,Ohio,Holmes,2021-01-05 13:10:32.496138,2020-04-08 00:00:00.000000,0.06081803,0.09952217,0.18569890,26,43,81,12,21,43,0.02821192,0.04853046,0.09892413,0.18925933,0.26503032,0.43007818
39075,0,USOhioHolmes,Ohio,Holmes,2021-01-05 13:10:32.496138,2020-04-09 00:00:00.000000,0.06308075,0.09986339,0.19267890,27,43,84,12,22,44,0.02934533,0.05094984,0.10070159,0.18562485,0.25912378,0.41708503
39075,0,USOhioHolmes,Ohio,Holmes,2021-01-05 13:10:32.496138,2020-04-10 00:00:00.000000,0.06528660,0.10051135,0.20175876,28,44,88,13,22,44,0.03074514,0.05190157,0.10190975,0.18291385,0.25387237,0.40948138
39075,0,USOhioHolmes,Ohio,Holmes,2021-01-05 13:10:32.496138,2020-04-11 00:00:00.000000,0.06718299,0.10335683,0.20665840,29,45,90,14,23,45,0.03201803,0.05289116,0.10269491,0.18202843,0.25636794,0.39558567
39075,0,USOhioHolmes,Ohio,Holmes,2021-01-05 13:10:32.496138,2020-04-12 00:00:00.000000,0.06608090,0.10642194,0.21132389,29,46,92,14,23,46,0.03298663,0.05373597,0.10522330,0.18151204,0.25394703,0.38799107
39075,0,USOhioHolmes,Ohio,Holmes,2021-01-05 13:10:32.496138,2020-04-13 00:00:00.000000,0.06668979,0.10982714,0.21454549,29,48,94,14,24,48,0.03345983,0.05485913,0.10965702,0.18374450,0.25465701,0.38765877
39075,0,USOhioHolmes,Ohio,Holmes,2021-01-05 13:10:32.496138,2020-04-14 00:00:00.000000,0.06773006,0.11483383,0.21754061,29,50,95,14,25,49,0.03363216,0.05704824,0.11343801,0.18400076,0.25193077,0.38250585
39075,0,USOhioHolmes,Ohio,Holmes,2021-01-05 13:10:32.496138,2020-04-15 00:00:00.000000,0.06993373,0.11825239,0.22033939,30,51,96,15,25,52,0.03438117,0.05890019,0.11958077,0.18239642,0.25273324,0.37435431
39075,0,USOhioHolmes,Ohio,Holmes,2021-01-05 13:10:32.496138,2020-04-16 00:00:00.000000,0.07263382,0.12269519,0.22301488,31,53,98,15,26,55,0.03518067,0.06102019,0.12677178,0.18312669,0.24895952,0.37487818
39075,0,USOhioHolmes,Ohio,Holmes,2021-01-05 13:10:32.496138,2020-04-17 00:00:00.000000,0.07510807,0.12737862,0.22565482,33,55,99,15,27,58,0.03597579,0.06280523,0.13395154,0.18504750,0.24424512,0.37667030
39075,0,USOhioHolmes,Ohio,Holmes,2021-01-05 13:10:32.496138,2020-04-18 00:00:00.000000,0.07442798,0.13170397,0.24063903,32,57,105,16,28,59,0.03672603,0.06408850,0.13615107,0.18147386,0.24221093,0.37946063
39075,0,USOhioHolmes,Ohio,Holmes,2021-01-05 13:10:32.496138,2020-04-19 00:00:00.000000,0.07372525,0.13441742,0.24246705,32,59,106,16,29,60,0.03712301,0.06605022,0.13816569,0.17405860,0.24502288,0.39523380
39075,0,USOhioHolmes,Ohio,Holmes,2021-01-05 13:10:32.496138,2020-04-20 00:00:00.000000,0.07666469,0.13660052,0.24543203,33,60,107,16,29,61,0.03681174,0.06809492,0.14002659,0.17234677,0.24804916,0.39662612
39075,0,USOhioHolmes,Ohio,Holmes,2021-01-05 13:10:32.496138,2020-04-21 00:00:00.000000,0.08007457,0.13894255,0.25339050,35,61,111,16,31,64,0.03704091,0.07084265,0.14578159,0.17231226,0.24696066,0.38957026
39075,0,USOhioHolmes,Ohio,Holmes,2021-01-05 13:10:32.496138,2020-04-22 00:00:00.000000,0.08348474,0.13939248,0.26560828,36,61,116,16,31,65,0.03832726,0.07261264,0.14863697,0.17604610,0.24759273,0.38734429
39075,0,USOhioHolmes,Ohio,Holmes,2021-01-05 13:10:32.496138,2020-04-23 00:00:00.000000,0.08554897,0.14119581,0.27696874,37,62,121,17,32,67,0.03988100,0.07452370,0.15338904,0.17513626,0.25000172,0.38773593
39075,0,USOhioHolmes,Ohio,Holmes,2021-01-05 13:10:32.496138,2020-04-24 00:00:00.000000,0.08765412,0.14582178,0.28697789,38,64,126,18,34,70,0.04151822,0.07822679,0.15934484,0.17622108,0.25902241,0.38663918
39075,0,USOhioHolmes,Ohio,Holmes,2021-01-05 13:10:32.496138,2020-04-25 00:00:00.000000,0.09044704,0.15022386,0.29671616,39,66,130,19,33,71,0.04325916,0.07733075,0.16226647,0.17701910,0.26239912,0.38656184
39075,0,USOhioHolmes,Ohio,Holmes,2021-01-05 13:10:32.496138,2020-04-26 00:00:00.000000,0.09385581,0.15157524,0.30614684,41,66,134,19,34,71,0.04511967,0.07741270,0.16251065,0.17784716,0.26972122,0.41734266
39075,0,USOhioHolmes,Ohio,Holmes,2021-01-05 13:10:32.496138,2020-04-27 00:00:00.000000,0.09773306,0.15608349,0.31437315,42,68,138,20,34,71,0.04705634,0.07916243,0.16311866,0.17879861,0.27260179,0.41864230
39075,0,USOhioHolmes,Ohio,Holmes,2021-01-05 13:10:32.496138,2020-04-28 00:00:00.000000,0.09722630,0.16081929,0.31833230,42,70,139,20,36,73,0.04759701,0.08190829,0.16806514,0.17942907,0.27732510,0.42495593
39075,0,USOhioHolmes,Ohio,Holmes,2021-01-05 13:10:32.496138,2020-04-29 00:00:00.000000,0.09514613,0.16847821,0.32177195,41,74,141,20,37,74,0.04713869,0.08511947,0.17057649,0.18194092,0.28388569,0.42503874
39075,0,USOhioHolmes,Ohio,Holmes,2021-01-05 13:10:32.496138,2020-04-30 00:00:00.000000,0.09302247,0.17726194,0.32510741,40,77,142,20,39,75,0.04642421,0.08928557,0.17216484,0.18420429,0.28758005,0.42504651
39075,0,USOhioHolmes,Ohio,Holmes,2021-01-05 13:10:32.496138,2020-05-01 00:00:00.000000,0.09330935,0.18572476,0.32837238,41,81,144,20,40,76,0.04557139,0.09249468,0.17369653,0.18566453,0.29353213,0.42677273
39075,0,USOhioHolmes,Ohio,Holmes,2021-01-05 13:10:32.496138,2020-05-02 00:00:00.000000,0.09389023,0.19475670,0.33754603,41,85,148,20,41,77,0.04592163,0.09545615,0.17527504,0.19277715,0.29501835,0.42938647
39075,0,USOhioHolmes,Ohio,Holmes,2021-01-05 13:10:32.496138,2020-05-03 00:00:00.000000,0.09444393,0.19884882,0.35133360,41,87,154,20,43,79,0.04623764,0.10001570,0.17979441,0.19811052,0.31075521,0.44049260
39075,0,USOhioHolmes,Ohio,Holmes,2021-01-05 13:10:32.496138,2020-05-04 00:00:00.000000,0.09516548,0.20759183,0.35162462,41,91,154,20,45,82,0.04653090,0.10444269,0.18764219,0.20255062,0.31993659,0.44124254
39075,0,USOhioHolmes,Ohio,Holmes,2021-01-05 13:10:32.496138,2020-05-05 00:00:00.000000,0.09561850,0.21237714,0.35171143,42,93,154,20,48,84,0.04685579,0.10966197,0.19210379,0.20671772,0.32282024,0.44321437
39075,0,USOhioHolmes,Ohio,Holmes,2021-01-05 13:10:32.496138,2020-05-06 00:00:00.000000,0.09554073,0.22036683,0.35509039,41,96,156,20,50,84,0.04713028,0.11444642,0.19306354,0.21130807,0.33042569,0.44394912
39075,0,USOhioHolmes,Ohio,Holmes,2021-01-05 13:10:32.496138,2020-05-07 00:00:00.000000,0.09520584,0.22806820,0.37106376,41,100,163,20,52,88,0.04724148,0.11951911,0.20023194,0.21964828,0.33341367,0.44432997
39075,0,USOhioHolmes,Ohio,Holmes,2021-01-05 13:10:32.496138,2020-05-08 00:00:00.000000,0.09481617,0.23590079,0.38802259,41,103,170,20,53,91,0.04720203,0.12230483,0.20861016,0.21738330,0.33039396,0.45494345
39075,0,USOhioHolmes,Ohio,Holmes,2021-01-05 13:10:32.496138,2020-05-09 00:00:00.000000,0.09450638,0.24455025,0.39977718,41,107,175,20,55,95,0.04707583,0.12686847,0.21766338,0.22507098,0.33093245,0.47440108
39075,0,USOhioHolmes,Ohio,Holmes,2021-01-05 13:10:32.496138,2020-05-10 00:00:00.000000,0.09458985,0.25258816,0.40801209,41,111,179,20,57,97,0.04693078,0.13027785,0.22185894,0.23252944,0.33667195,0.50508819
39075,0,USOhioHolmes,Ohio,Holmes,2021-01-05 13:10:32.496138,2020-05-11 00:00:00.000000,0.11063858,0.26411760,0.41637822,48,116,183,20,59,99,0.04687946,0.13595542,0.22648785,0.23160828,0.34510813,0.51843306
39075,0,USOhioHolmes,Ohio,Holmes,2021-01-05 13:10:32.496138,2020-05-12 00:00:00.000000,0.12892838,0.27902146,0.42499354,56,122,186,22,61,102,0.05090287,0.14087269,0.23271718,0.23166349,0.35884248,0.52679336
39075,0,USOhioHolmes,Ohio,Holmes,2021-01-05 13:10:32.496138,2020-05-13 00:00:00.000000,0.14598419,0.28967098,0.43611296,64,127,191,25,65,105,0.05742653,0.14798361,0.24021186,0.23522864,0.36366408,0.53570066
39075,0,USOhioHolmes,Ohio,Holmes,2021-01-05 13:10:32.496138,2020-05-14 00:00:00.000000,0.16486841,0.30416655,0.45782371,72,133,201,27,68,109,0.06199787,0.15537808,0.24875528,0.25488277,0.36617050,0.53770200
39075,0,USOhioHolmes,Ohio,Holmes,2021-01-05 13:10:32.496138,2020-05-15 00:00:00.000000,0.18422578,0.32047793,0.48113136,80,140,211,31,72,113,0.07245505,0.16428123,0.25880347,0.27737341,0.37884937,0.53166684
39075,0,USOhioHolmes,Ohio,Holmes,2021-01-05 13:10:32.496138,2020-05-16 00:00:00.000000,0.20061969,0.33952416,0.50629306,88,149,222,36,76,118,0.08327562,0.17330789,0.26983941,0.28394108,0.38705320,0.53594200
39075,0,USOhioHolmes,Ohio,Holmes,2021-01-05 13:10:32.496138,2020-05-17 00:00:00.000000,0.20939792,0.36374816,0.52481616,92,159,230,40,79,123,0.09278165,0.18057863,0.28170221,0.28585477,0.41628941,0.55239794
39075,0,USOhioHolmes,Ohio,Holmes,2021-01-05 13:10:32.496138,2020-05-18 00:00:00.000000,0.22014972,0.38195738,0.56246977,96,167,247,45,83,129,0.10259316,0.19044799,0.29496014,0.29261268,0.42808947,0.55592408
39075,0,USOhioHolmes,Ohio,Holmes,2021-01-05 13:10:32.496138,2020-05-19 00:00:00.000000,0.23201671,0.40180425,0.60275594,101,176,264,48,88,136,0.10966364,0.20211956,0.30970033,0.29794168,0.42921192,0.58835074
39075,0,USOhioHolmes,Ohio,Holmes,2021-01-05 13:10:32.496138,2020-05-20 00:00:00.000000,0.24510638,0.42023617,0.64058422,107,184,281,50,94,140,0.11550880,0.21433416,0.32050339,0.29925146,0.43777352,0.58951301
39075,0,USOhioHolmes,Ohio,Holmes,2021-01-05 13:10:32.496138,2020-05-21 00:00:00.000000,0.25806347,0.45077513,0.68056221,113,198,299,53,101,146,0.12164899,0.23110111,0.33371538,0.30002236,0.44496984,0.62185764
39075,0,USOhioHolmes,Ohio,Holmes,2021-01-05 13:10:32.496138,2020-05-22 00:00:00.000000,0.26587293,0.48855110,0.72289923,116,214,317,56,108,156,0.12844411,0.24694828,0.35624937,0.30985593,0.44986177,0.65082003
39075,0,USOhioHolmes,Ohio,Holmes,2021-01-05 13:10:32.496138,2020-05-23 00:00:00.000000,0.27642648,0.53065573,0.76833180,121,233,337,59,115,167,0.13591500,0.26171597,0.38018033,0.31545399,0.45734884,0.67070707
39075,0,USOhioHolmes,Ohio,Holmes,2021-01-05 13:10:32.496138,2020-05-24 00:00:00.000000,0.29205675,0.57237954,0.81852616,128,251,359,63,120,181,0.14405039,0.27380999,0.41211021,0.31114212,0.47049000,0.68199212
39075,0,USOhioHolmes,Ohio,Holmes,2021-01-05 13:10:32.496138,2020-05-25 00:00:00.000000,0.30929113,0.60951398,0.87263250,135,267,383,67,128,195,0.15286985,0.29163431,0.44455771,0.31403838,0.48154954,0.68755062
39075,0,USOhioHolmes,Ohio,Holmes,2021-01-05 13:10:32.496138,2020-05-26 00:00:00.000000,0.32747114,0.63082226,0.92035797,143,277,404,71,135,209,0.16265566,0.30830976,0.47552182,0.31111127,0.49132109,0.68912804
39075,0,USOhioHolmes,Ohio,Holmes,2021-01-05 13:10:32.496138,2020-05-27 00:00:00.000000,0.34666739,0.65940115,0.96564150,152,289,424,76,142,222,0.17328621,0.32471122,0.50625559,0.31017856,0.49570622,0.70086238
39075,0,USOhioHolmes,Ohio,Holmes,2021-01-05 13:10:32.496138,2020-05-28 00:00:00.000000,0.36691461,0.70352954,1.02004765,161,309,448,81,151,236,0.18438389,0.34462330,0.53736599,0.31004775,0.49307132,0.70525646
39075,0,USOhioHolmes,Ohio,Holmes,2021-01-05 13:10:32.496138,2020-05-29 00:00:00.000000,0.38828385,0.73821937,1.07669960,170,324,473,86,160,250,0.19641722,0.36476748,0.56910457,0.31384981,0.49029921,0.71529766
39075,0,USOhioHolmes,Ohio,Holmes,2021-01-05 13:10:32.496138,2020-05-30 00:00:00.000000,0.41092692,0.78514791,1.14488871,180,345,503,92,169,263,0.21002694,0.38519141,0.60023608,0.31039613,0.49761490,0.72811937
39075,0,USOhioHolmes,Ohio,Holmes,2021-01-05 13:10:32.496138,2020-05-31 00:00:00.000000,0.43518779,0.83565310,1.22564919,191,367,538,97,179,276,0.22285486,0.40926920,0.62932663,0.31010248,0.50253124,0.72865409
39075,0,USOhioHolmes,Ohio,Holmes,2021-01-05 13:10:32.496138,2020-06-01 00:00:00.000000,0.46726896,0.88249777,1.31917740,205,387,579,103,189,289,0.23589404,0.43053763,0.65872603,0.31005461,0.50350979,0.73639952
39075,0,USOhioHolmes,Ohio,Holmes,2021-01-05 13:10:32.496138,2020-06-02 00:00:00.000000,0.51971414,0.93933583,1.41802218,228,412,623,109,200,301,0.24999812,0.45513103,0.68662902,0.31039284,0.50377149,0.74514586
39075,0,USOhioHolmes,Ohio,Holmes,2021-01-05 13:10:32.496138,2020-06-03 00:00:00.000000,0.57566249,0.99435341,1.52304849,253,437,669,116,213,316,0.26531974,0.48480618,0.72052077,0.30920689,0.50849520,0.73313756
39075,0,USOhioHolmes,Ohio,Holmes,2021-01-05 13:10:32.496138,2020-06-04 00:00:00.000000,0.63551066,1.05438060,1.63464289,279,463,718,123,225,338,0.28191809,0.51349494,0.76889020,0.30681691,0.51166746,0.73543565
39075,0,USOhioHolmes,Ohio,Holmes,2021-01-05 13:10:32.496138,2020-06-05 00:00:00.000000,0.67610837,1.10674249,1.75304780,297,486,770,131,239,356,0.29991143,0.54427954,0.81195519,0.31403400,0.50924021,0.72126558
39075,0,USOhioHolmes,Ohio,Holmes,2021-01-05 13:10:32.496138,2020-06-06 00:00:00.000000,0.71861103,1.17484381,1.87741531,315,516,825,140,253,380,0.31954046,0.57682215,0.86577959,0.31524808,0.49610585,0.70486243
39075,0,USOhioHolmes,Ohio,Holmes,2021-01-05 13:10:32.496138,2020-06-07 00:00:00.000000,0.76350858,1.25010235,2.00565426,335,549,881,149,268,401,0.34096317,0.61177805,0.91261981,0.31599978,0.48577243,0.70365593
39075,0,USOhioHolmes,Ohio,Holmes,2021-01-05 13:10:32.496138,2020-06-08 00:00:00.000000,0.81107881,1.31595323,2.13112908,356,578,936,160,280,431,0.36416255,0.63862043,0.98215020,0.31677235,0.47429258,0.72367751
39075,0,USOhioHolmes,Ohio,Holmes,2021-01-05 13:10:32.496138,2020-06-09 00:00:00.000000,0.86120525,1.39136524,2.24529746,378,611,987,171,297,462,0.38950365,0.67675139,1.05152135,0.31837308,0.47123071,0.72523264
39075,0,USOhioHolmes,Ohio,Holmes,2021-01-05 13:10:32.496138,2020-06-10 00:00:00.000000,0.91393994,1.47001553,2.33495122,401,646,1026,183,314,481,0.41672984,0.71595167,1.09474297,0.32003446,0.45833447,0.70643016
39075,0,USOhioHolmes,Ohio,Holmes,2021-01-05 13:10:32.496138,2020-06-11 00:00:00.000000,0.96923881,1.53897502,2.38985370,426,676,1050,195,329,512,0.44569873,0.74968315,1.16511833,0.32467075,0.44802901,0.70476105
39075,0,USOhioHolmes,Ohio,Holmes,2021-01-05 13:10:32.496138,2020-06-12 00:00:00.000000,1.01632679,1.59269248,2.41343670,446,700,1060,209,343,539,0.47627641,0.78040215,1.22837332,0.32081985,0.44031190,0.69525122
39075,0,USOhioHolmes,Ohio,Holmes,2021-01-05 13:10:32.496138,2020-06-13 00:00:00.000000,1.05548460,1.66265960,2.41453733,463,730,1061,223,361,552,0.50823858,0.82256894,1.25756412,0.30426897,0.43164508,0.67731346
39075,0,USOhioHolmes,Ohio,Holmes,2021-01-05 13:10:32.496138,2020-06-14 00:00:00.000000,1.08661316,1.73584074,2.47878727,477,763,1089,235,375,559,0.53648264,0.85353127,1.27325123,0.29782478,0.42175478,0.62455500
39075,0,USOhioHolmes,Ohio,Holmes,2021-01-05 13:10:32.496138,2020-06-15 00:00:00.000000,1.11456016,1.80214250,2.57085824,489,792,1130,247,392,583,0.56378442,0.89353062,1.32800342,0.29334300,0.41403677,0.60688150
39075,0,USOhioHolmes,Ohio,Holmes,2021-01-05 13:10:32.496138,2020-06-16 00:00:00.000000,1.16847111,1.86615206,2.70662414,513,820,1189,259,410,624,0.59022621,0.93457998,1.42068089,0.28647622,0.39665954,0.60536133
39075,0,USOhioHolmes,Ohio,Holmes,2021-01-05 13:10:32.496138,2020-06-17 00:00:00.000000,1.19366320,1.90820582,2.82312553,524,838,1241,271,424,658,0.61690955,0.96599727,1.49896151,0.27952953,0.38883943,0.53342441
39075,0,USOhioHolmes,Ohio,Holmes,2021-01-05 13:10:32.496138,2020-06-18 00:00:00.000000,1.25005762,1.95090166,2.91319662,549,857,1280,283,437,677,0.64437868,0.99608050,1.54182226,0.26780484,0.36542152,0.52128154
39075,0,USOhioHolmes,Ohio,Holmes,2021-01-05 13:10:32.496138,2020-06-19 00:00:00.000000,1.27690268,1.99347699,2.97135531,561,876,1306,295,448,693,0.67230997,1.01928391,1.57849061,0.23161486,0.35093878,0.51681162
39075,0,USOhioHolmes,Ohio,Holmes,2021-01-05 13:10:32.496138,2020-06-20 00:00:00.000000,1.29533489,2.01440065,3.01812738,569,885,1326,308,456,708,0.70086606,1.03818494,1.61131557,0.21945499,0.33193341,0.49936249
39075,0,USOhioHolmes,Ohio,Holmes,2021-01-05 13:10:32.496138,2020-06-21 00:00:00.000000,1.30840035,2.03484229,3.05126949,575,894,1341,319,466,721,0.72583951,1.06171160,1.64056328,0.20728915,0.31660354,0.47839978
39075,0,USOhioHolmes,Ohio,Holmes,2021-01-05 13:10:32.496138,2020-06-22 00:00:00.000000,1.31405771,2.03005150,3.04111571,577,892,1336,323,469,732,0.73667216,1.06875195,1.66565550,0.18619432,0.30092730,0.43975803
39075,0,USOhioHolmes,Ohio,Holmes,2021-01-05 13:10:32.496138,2020-06-23 00:00:00.000000,1.31743401,2.03425644,3.01496490,579,894,1325,326,476,740,0.74346517,1.08386381,1.68559693,0.17626039,0.29242932,0.42055997
39075,0,USOhioHolmes,Ohio,Holmes,2021-01-05 13:10:32.496138,2020-06-24 00:00:00.000000,1.31891140,2.04773753,2.97675047,579,900,1308,328,483,747,0.74760600,1.09919337,1.69955232,0.17459431,0.28554295,0.41938541
39075,0,USOhioHolmes,Ohio,Holmes,2021-01-05 13:10:32.496138,2020-06-25 00:00:00.000000,1.31847272,2.06320496,2.93008210,579,906,1288,329,486,750,0.74995934,1.10679081,1.70796152,0.16365083,0.26849060,0.41512718
39075,0,USOhioHolmes,Ohio,Holmes,2021-01-05 13:10:32.496138,2020-06-26 00:00:00.000000,1.31497643,2.04856409,2.87279486,578,900,1262,330,489,752,0.75091950,1.11377600,1.71184144,0.15577661,0.25645223,0.40600724
39075,0,USOhioHolmes,Ohio,Holmes,2021-01-05 13:10:32.496138,2020-06-27 00:00:00.000000,1.30686264,2.02992193,2.82447044,574,892,1241,329,486,739,0.75032746,1.10583863,1.68307831,0.14692665,0.24012759,0.39404403
39075,0,USOhioHolmes,Ohio,Holmes,2021-01-05 13:10:32.496138,2020-06-28 00:00:00.000000,1.29467503,2.00912637,2.78493427,569,883,1224,328,482,728,0.74762635,1.09656716,1.65802784,0.14404212,0.23435219,0.36753008
39075,0,USOhioHolmes,Ohio,Holmes,2021-01-05 13:10:32.496138,2020-06-29 00:00:00.000000,1.27580066,1.96417909,2.77616865,560,863,1220,321,477,739,0.73072935,1.08579632,1.68239735,0.14391710,0.22676748,0.34260331
39075,0,USOhioHolmes,Ohio,Holmes,2021-01-05 13:10:32.496138,2020-06-30 00:00:00.000000,1.25057109,1.90943871,2.73477670,549,839,1202,312,472,746,0.71139589,1.07520845,1.69710923,0.14403678,0.21831059,0.32886445
39075,0,USOhioHolmes,Ohio,Holmes,2021-01-05 13:10:32.496138,2020-07-01 00:00:00.000000,1.23903771,1.87562123,2.66668373,544,824,1172,304,464,740,0.69302739,1.05718027,1.68436383,0.14478696,0.21259471,0.30977610
39075,0,USOhioHolmes,Ohio,Holmes,2021-01-05 13:10:32.496138,2020-07-02 00:00:00.000000,1.19846885,1.82222478,2.58835069,526,801,1137,292,456,731,0.66580877,1.03906296,1.66290605,0.13648087,0.20471410,0.30647359
39075,0,USOhioHolmes,Ohio,Holmes,2021-01-05 13:10:32.496138,2020-07-03 00:00:00.000000,1.15634742,1.76656129,2.51572480,508,776,1105,280,446,709,0.63869764,1.01675256,1.61365503,0.12887932,0.19853306,0.30131554
39075,0,USOhioHolmes,Ohio,Holmes,2021-01-05 13:10:32.496138,2020-07-04 00:00:00.000000,1.09861732,1.68669923,2.43190431,482,741,1069,269,433,685,0.61228780,0.98513920,1.56013134,0.12829235,0.18857262,0.28485945
39075,0,USOhioHolmes,Ohio,Holmes,2021-01-05 13:10:32.496138,2020-07-05 00:00:00.000000,1.03963249,1.63532475,2.34492197,457,718,1030,258,418,663,0.58874043,0.95209321,1.50943998,0.12347081,0.17926824,0.28138068
39075,0,USOhioHolmes,Ohio,Holmes,2021-01-05 13:10:32.496138,2020-07-06 00:00:00.000000,0.98449477,1.58006486,2.26682838,432,694,996,250,404,642,0.56978957,0.91975641,1.46260273,0.12010499,0.17441845,0.26555010
39075,0,USOhioHolmes,Ohio,Holmes,2021-01-05 13:10:32.496138,2020-07-07 00:00:00.000000,0.93238506,1.53806942,2.19076618,409,676,963,238,388,624,0.54172144,0.88435829,1.42095580,0.11358543,0.17226403,0.25878923
39075,0,USOhioHolmes,Ohio,Holmes,2021-01-05 13:10:32.496138,2020-07-08 00:00:00.000000,0.88327179,1.47864700,2.11665567,388,650,930,229,376,608,0.52101493,0.85636405,1.38331244,0.11179084,0.17049411,0.25862223
39075,0,USOhioHolmes,Ohio,Holmes,2021-01-05 13:10:32.496138,2020-07-09 00:00:00.000000,0.83711842,1.42104379,2.04455051,367,624,898,220,364,592,0.50225164,0.82837042,1.34837918,0.11751913,0.16677714,0.25807100
39075,0,USOhioHolmes,Ohio,Holmes,2021-01-05 13:10:32.496138,2020-07-10 00:00:00.000000,0.79426652,1.37481991,1.97468362,349,604,868,210,349,577,0.47785278,0.79514353,1.31478219,0.11432419,0.16234458,0.25582543
39075,0,USOhioHolmes,Ohio,Holmes,2021-01-05 13:10:32.496138,2020-07-11 00:00:00.000000,0.75599346,1.31793069,1.90735005,332,579,838,200,332,563,0.45636410,0.75539869,1.28110762,0.10659146,0.16159214,0.24691884
39075,0,USOhioHolmes,Ohio,Holmes,2021-01-05 13:10:32.496138,2020-07-12 00:00:00.000000,0.72228489,1.26970896,1.86619895,317,558,820,192,315,547,0.43748834,0.71709168,1.24658501,0.10560972,0.15984508,0.21947120
39075,0,USOhioHolmes,Ohio,Holmes,2021-01-05 13:10:32.496138,2020-07-13 00:00:00.000000,0.69059952,1.20248265,1.80398915,303,528,793,184,302,539,0.42073974,0.68849400,1.22752402,0.10551879,0.15363594,0.21694371
39075,0,USOhioHolmes,Ohio,Holmes,2021-01-05 13:10:32.496138,2020-07-14 00:00:00.000000,0.66036265,1.12769231,1.72457151,290,495,758,178,291,527,0.40510451,0.66222000,1.19963641,0.10468846,0.15153389,0.21700516
39075,0,USOhioHolmes,Ohio,Holmes,2021-01-05 13:10:32.496138,2020-07-15 00:00:00.000000,0.63091337,1.05566968,1.66784033,277,464,733,171,278,509,0.39044154,0.63249079,1.15876290,0.10255479,0.14693875,0.21470910
39075,0,USOhioHolmes,Ohio,Holmes,2021-01-05 13:10:32.496138,2020-07-16 00:00:00.000000,0.60898095,0.98401732,1.61207528,267,432,708,165,265,487,0.37663167,0.60422138,1.10961538,0.10230625,0.14513474,0.21440016
39075,0,USOhioHolmes,Ohio,Holmes,2021-01-05 13:10:32.496138,2020-07-17 00:00:00.000000,0.57335055,0.93598015,1.55703258,252,411,684,154,254,469,0.35169695,0.57793780,1.06774191,0.09527216,0.14403112,0.21401321
39075,0,USOhioHolmes,Ohio,Holmes,2021-01-05 13:10:32.496138,2020-07-18 00:00:00.000000,0.54571845,0.88048673,1.50265693,239,387,660,143,240,451,0.32735484,0.54685964,1.02747588,0.09331131,0.14190463,0.21351054
39075,0,USOhioHolmes,Ohio,Holmes,2021-01-05 13:10:32.496138,2020-07-19 00:00:00.000000,0.51925312,0.83196586,1.44033524,228,365,633,133,225,433,0.30414075,0.51372557,0.98633295,0.09009238,0.13943405,0.21375476
39075,0,USOhioHolmes,Ohio,Holmes,2021-01-05 13:10:32.496138,2020-07-20 00:00:00.000000,0.49573630,0.77989901,1.37699406,217,342,605,124,210,415,0.28354070,0.47968567,0.94509107,0.08544335,0.13622499,0.21199208
39075,0,USOhioHolmes,Ohio,Holmes,2021-01-05 13:10:32.496138,2020-07-21 00:00:00.000000,0.45587231,0.73738069,1.31620677,200,324,578,118,198,396,0.27013678,0.45154024,0.90263823,0.08387279,0.13504070,0.20408635
39075,0,USOhioHolmes,Ohio,Holmes,2021-01-05 13:10:32.496138,2020-07-22 00:00:00.000000,0.42401102,0.69785799,1.25821462,186,306,553,113,187,378,0.25755748,0.42637219,0.86033660,0.07839993,0.13518112,0.20421517
39075,0,USOhioHolmes,Ohio,Holmes,2021-01-05 13:10:32.496138,2020-07-23 00:00:00.000000,0.40400561,0.65578540,1.20298272,177,288,528,108,177,360,0.24571955,0.40392478,0.81900447,0.07714379,0.13550200,0.22010799
39075,0,USOhioHolmes,Ohio,Holmes,2021-01-05 13:10:32.496138,2020-07-24 00:00:00.000000,0.38775740,0.62150226,1.15048317,170,273,505,103,166,343,0.23455271,0.37866852,0.78166463,0.07619174,0.13581685,0.22168994
39075,0,USOhioHolmes,Ohio,Holmes,2021-01-05 13:10:32.496138,2020-07-25 00:00:00.000000,0.36583791,0.59088048,1.10070392,160,259,483,96,155,326,0.21920719,0.35335257,0.74373695,0.07560771,0.13649005,0.21993176
39075,0,USOhioHolmes,Ohio,Holmes,2021-01-05 13:10:32.496138,2020-07-26 00:00:00.000000,0.34683648,0.56121485,1.05367172,152,246,463,89,145,310,0.20368927,0.33206853,0.70579358,0.07544987,0.13802263,0.21908825
39075,0,USOhioHolmes,Ohio,Holmes,2021-01-05 13:10:32.496138,2020-07-27 00:00:00.000000,0.32707765,0.53379447,1.00279521,143,234,440,83,137,295,0.18927621,0.31257980,0.67136519,0.07543499,0.13745494,0.21914335
39075,0,USOhioHolmes,Ohio,Holmes,2021-01-05 13:10:32.496138,2020-07-28 00:00:00.000000,0.30926450,0.50913278,0.95450246,135,223,419,77,130,281,0.17555568,0.29653410,0.64054207,0.07545527,0.13800474,0.22023746
39075,0,USOhioHolmes,Ohio,Holmes,2021-01-05 13:10:32.496138,2020-07-29 00:00:00.000000,0.29156770,0.48372356,0.90846416,128,212,399,71,123,269,0.16276226,0.28181926,0.61297757,0.07456710,0.13931901,0.22281449
39075,0,USOhioHolmes,Ohio,Holmes,2021-01-05 13:10:32.496138,2020-07-30 00:00:00.000000,0.27550715,0.45868981,0.86293324,121,201,379,66,118,258,0.15105731,0.26871161,0.58877389,0.07401341,0.14303289,0.22408475
39075,0,USOhioHolmes,Ohio,Holmes,2021-01-05 13:10:32.496138,2020-07-31 00:00:00.000000,0.25881099,0.43865182,0.82297362,113,192,361,61,113,249,0.14054159,0.25737089,0.56746561,0.07351275,0.14409696,0.22433718
39075,0,USOhioHolmes,Ohio,Holmes,2021-01-05 13:10:32.496138,2020-08-01 00:00:00.000000,0.24802693,0.41796555,0.78668840,109,183,345,57,108,242,0.13112436,0.24698295,0.55103572,0.07268315,0.14527077,0.22491845
39075,0,USOhioHolmes,Ohio,Holmes,2021-01-05 13:10:32.496138,2020-08-02 00:00:00.000000,0.23444802,0.39968488,0.75944133,103,175,333,53,102,236,0.12276356,0.23409541,0.53731331,0.07253266,0.14579277,0.22522207
39075,0,USOhioHolmes,Ohio,Holmes,2021-01-05 13:10:32.496138,2020-08-03 00:00:00.000000,0.22698725,0.38096819,0.72824062,99,167,320,50,96,228,0.11534756,0.22061985,0.51873034,0.07299166,0.14767382,0.22519469
39075,0,USOhioHolmes,Ohio,Holmes,2021-01-05 13:10:32.496138,2020-08-04 00:00:00.000000,0.22000438,0.36389515,0.70344048,96,159,309,49,91,220,0.11333949,0.20751697,0.50163783,0.07370968,0.14980123,0.22825999
39075,0,USOhioHolmes,Ohio,Holmes,2021-01-05 13:10:32.496138,2020-08-05 00:00:00.000000,0.21390151,0.34878880,0.69047637,94,153,303,48,87,215,0.11058167,0.19848710,0.49026549,0.07456843,0.15221242,0.23220908
39075,0,USOhioHolmes,Ohio,Holmes,2021-01-05 13:10:32.496138,2020-08-06 00:00:00.000000,0.20844146,0.33591363,0.67829813,91,147,298,47,84,211,0.10753426,0.19160794,0.48000329,0.07550291,0.15107421,0.23482170
39075,0,USOhioHolmes,Ohio,Holmes,2021-01-05 13:10:32.496138,2020-08-07 00:00:00.000000,0.20348677,0.32530090,0.66677743,89,143,293,45,79,206,0.10435636,0.18103561,0.46883749,0.07645858,0.15187343,0.24792891
39075,0,USOhioHolmes,Ohio,Holmes,2021-01-05 13:10:32.496138,2020-08-08 00:00:00.000000,0.19897663,0.31200259,0.65543309,87,137,288,44,75,197,0.10119874,0.17161365,0.44923715,0.07632228,0.15684750,0.25154553
39075,0,USOhioHolmes,Ohio,Holmes,2021-01-05 13:10:32.496138,2020-08-09 00:00:00.000000,0.19283996,0.29938889,0.64457736,84,131,283,43,73,189,0.09815901,0.16765703,0.43098483,0.07640001,0.16206033,0.25392325
39075,0,USOhioHolmes,Ohio,Holmes,2021-01-05 13:10:32.496138,2020-08-10 00:00:00.000000,0.18510228,0.29038652,0.62974668,81,127,276,41,71,182,0.09529836,0.16218598,0.41407904,0.07684777,0.16353711,0.25393803
39075,0,USOhioHolmes,Ohio,Holmes,2021-01-05 13:10:32.496138,2020-08-11 00:00:00.000000,0.17526803,0.27831760,0.61534372,77,122,270,40,68,175,0.09305429,0.15629470,0.39811781,0.07784079,0.16303815,0.25349249
39075,0,USOhioHolmes,Ohio,Holmes,2021-01-05 13:10:32.496138,2020-08-12 00:00:00.000000,0.16617569,0.26689194,0.60120685,73,117,264,40,66,168,0.09131329,0.15018212,0.38324935,0.08009608,0.16789844,0.25243782
39075,0,USOhioHolmes,Ohio,Holmes,2021-01-05 13:10:32.496138,2020-08-13 00:00:00.000000,0.15775707,0.25719867,0.58737325,69,113,258,39,63,162,0.09001989,0.14532551,0.36956356,0.08033876,0.17141709,0.25732212
39075,0,USOhioHolmes,Ohio,Holmes,2021-01-05 13:10:32.496138,2020-08-14 00:00:00.000000,0.15000003,0.25056490,0.57383344,65,110,252,37,61,156,0.08598923,0.14082137,0.35709686,0.08091028,0.17522734,0.26488417
39075,0,USOhioHolmes,Ohio,Holmes,2021-01-05 13:10:32.496138,2020-08-15 00:00:00.000000,0.14305375,0.24602781,0.56055933,62,108,246,35,60,152,0.08159164,0.13733190,0.34585621,0.08254084,0.18113810,0.27380280
39075,0,USOhioHolmes,Ohio,Holmes,2021-01-05 13:10:32.496138,2020-08-16 00:00:00.000000,0.13742903,0.23861125,0.54754149,60,104,240,34,58,147,0.07758207,0.13347953,0.33579509,0.08686519,0.18737627,0.27635583
39075,0,USOhioHolmes,Ohio,Holmes,2021-01-05 13:10:32.496138,2020-08-17 00:00:00.000000,0.13621389,0.23364173,0.53434067,59,102,234,32,57,143,0.07408350,0.13053010,0.32678189,0.09259629,0.19292270,0.27768365
39075,0,USOhioHolmes,Ohio,Holmes,2021-01-05 13:10:32.496138,2020-08-18 00:00:00.000000,0.13581358,0.23008797,0.52146537,59,101,229,31,57,139,0.07153103,0.13032986,0.31840294,0.09787477,0.20053199,0.27879560
39075,0,USOhioHolmes,Ohio,Holmes,2021-01-05 13:10:32.496138,2020-08-19 00:00:00.000000,0.13407739,0.22736681,0.50893723,58,99,223,30,56,136,0.06922561,0.12965078,0.31057334,0.10065021,0.20279290,0.29197507
39075,0,USOhioHolmes,Ohio,Holmes,2021-01-05 13:10:32.496138,2020-08-20 00:00:00.000000,0.13405063,0.22486619,0.49679703,58,98,218,29,56,133,0.06769121,0.12870233,0.30321330,0.10354377,0.20598927,0.29542309
39075,0,USOhioHolmes,Ohio,Holmes,2021-01-05 13:10:32.496138,2020-08-21 00:00:00.000000,0.13472787,0.22353609,0.49312865,59,98,216,29,55,130,0.06697359,0.12674021,0.29625458,0.10914289,0.21207484,0.29577745
39075,0,USOhioHolmes,Ohio,Holmes,2021-01-05 13:10:32.496138,2020-08-22 00:00:00.000000,0.13041655,0.22158434,0.48861814,57,97,214,29,55,127,0.06688398,0.12539349,0.28965311,0.11565666,0.21492238,0.29578468
39075,0,USOhioHolmes,Ohio,Holmes,2021-01-05 13:10:32.496138,2020-08-23 00:00:00.000000,0.12693964,0.22035932,0.48307473,55,96,212,29,54,124,0.06718998,0.12323428,0.28378873,0.11620768,0.21693758,0.29925620
39075,0,USOhioHolmes,Ohio,Holmes,2021-01-05 13:10:32.496138,2020-08-24 00:00:00.000000,0.12350916,0.22067080,0.47829954,54,97,210,29,53,122,0.06772526,0.12184136,0.27876103,0.11651219,0.22140208,0.32106744
39075,0,USOhioHolmes,Ohio,Holmes,2021-01-05 13:10:32.496138,2020-08-25 00:00:00.000000,0.12922409,0.22026861,0.47371125,56,96,208,29,53,120,0.06795001,0.12272758,0.27447337,0.11674552,0.22684541,0.35411955
39075,0,USOhioHolmes,Ohio,Holmes,2021-01-05 13:10:32.496138,2020-08-26 00:00:00.000000,0.13022812,0.22191765,0.46933156,57,97,206,29,54,119,0.06607892,0.12342302,0.27074051,0.12280703,0.23379460,0.36149316
39075,0,USOhioHolmes,Ohio,Holmes,2021-01-05 13:10:32.496138,2020-08-27 00:00:00.000000,0.12669607,0.22411006,0.46514095,55,98,204,28,54,117,0.06485948,0.12495258,0.26742198,0.13191195,0.23823078,0.37461551
39075,0,USOhioHolmes,Ohio,Holmes,2021-01-05 13:10:32.496138,2020-08-28 00:00:00.000000,0.12789751,0.22521505,0.46129404,56,99,202,27,55,116,0.06297360,0.12567527,0.26441827,0.14140979,0.25465051,0.38005404
39075,0,USOhioHolmes,Ohio,Holmes,2021-01-05 13:10:32.496138,2020-08-29 00:00:00.000000,0.12961083,0.22759131,0.45879639,56,100,201,27,55,115,0.06290140,0.12665951,0.26340794,0.15189333,0.26209932,0.38159866
39075,0,USOhioHolmes,Ohio,Holmes,2021-01-05 13:10:32.496138,2020-08-30 00:00:00.000000,0.13104481,0.23192643,0.45799206,57,101,201,27,56,115,0.06366362,0.12829343,0.26287830,0.16337158,0.26764107,0.41265396
39075,0,USOhioHolmes,Ohio,Holmes,2021-01-05 13:10:32.496138,2020-08-31 00:00:00.000000,0.13802236,0.23321382,0.45538901,60,102,200,28,56,115,0.06450630,0.12807669,0.26249910,0.16733475,0.28226596,0.41785612
39075,0,USOhioHolmes,Ohio,Holmes,2021-01-05 13:10:32.496138,2020-09-01 00:00:00.000000,0.14003745,0.23616711,0.45460259,61,103,199,29,56,115,0.06685891,0.12809088,0.26205233,0.17266007,0.28577607,0.41807348
39075,0,USOhioHolmes,Ohio,Holmes,2021-01-05 13:10:32.496138,2020-09-02 00:00:00.000000,0.14221493,0.24000073,0.45455195,62,105,199,30,56,114,0.07011666,0.12846834,0.26156951,0.17284594,0.29312981,0.41794335
39075,0,USOhioHolmes,Ohio,Holmes,2021-01-05 13:10:32.496138,2020-09-03 00:00:00.000000,0.15063976,0.24472866,0.46116369,66,107,202,32,57,114,0.07393813,0.13129126,0.26107639,0.17351115,0.29961634,0.41783309
39075,0,USOhioHolmes,Ohio,Holmes,2021-01-05 13:10:32.496138,2020-09-04 00:00:00.000000,0.16215653,0.25188784,0.46904511,71,110,206,34,57,114,0.07738695,0.13057425,0.26061738,0.17686529,0.30774927,0.42376528
39075,0,USOhioHolmes,Ohio,Holmes,2021-01-05 13:10:32.496138,2020-09-05 00:00:00.000000,0.16453573,0.25365841,0.47700445,72,111,209,35,58,114,0.08046755,0.13220771,0.26029202,0.18674261,0.31865034,0.45392406
39075,0,USOhioHolmes,Ohio,Holmes,2021-01-05 13:10:32.496138,2020-09-06 00:00:00.000000,0.16423355,0.26278867,0.48533701,72,115,213,38,59,114,0.08671365,0.13576428,0.26152555,0.20973279,0.32707044,0.49701434
39075,0,USOhioHolmes,Ohio,Holmes,2021-01-05 13:10:32.496138,2020-09-07 00:00:00.000000,0.16799864,0.27268003,0.49357055,73,119,216,38,62,117,0.08767020,0.14128210,0.26642207,0.23234471,0.34172227,0.52260407
39075,0,USOhioHolmes,Ohio,Holmes,2021-01-05 13:10:32.496138,2020-09-08 00:00:00.000000,0.17454894,0.28239136,0.50542400,76,124,222,38,63,119,0.08748583,0.14506104,0.27201260,0.23972764,0.35063835,0.52249756
39075,0,USOhioHolmes,Ohio,Holmes,2021-01-05 13:10:32.496138,2020-09-09 00:00:00.000000,0.18089516,0.29366772,0.51910366,79,129,228,38,65,122,0.08859140,0.14925387,0.27804848,0.24850496,0.36826628,0.55066886
39075,0,USOhioHolmes,Ohio,Holmes,2021-01-05 13:10:32.496138,2020-09-10 00:00:00.000000,0.18970564,0.30580387,0.53412361,83,134,234,41,67,125,0.09341502,0.15324925,0.28438188,0.25984810,0.38649207,0.58076136
39075,0,USOhioHolmes,Ohio,Holmes,2021-01-05 13:10:32.496138,2020-09-11 00:00:00.000000,0.19833179,0.31990640,0.55009272,87,140,241,43,69,127,0.09960225,0.15895145,0.29096227,0.26845271,0.39825673,0.60471041
39075,0,USOhioHolmes,Ohio,Holmes,2021-01-05 13:10:32.496138,2020-09-12 00:00:00.000000,0.20765820,0.33363227,0.56696176,91,146,249,45,72,130,0.10461891,0.16550940,0.29789823,0.27047039,0.40667355,0.73858696
39075,0,USOhioHolmes,Ohio,Holmes,2021-01-05 13:10:32.496138,2020-09-13 00:00:00.000000,0.21892297,0.35006749,0.59184718,96,153,260,48,77,134,0.10950267,0.17579098,0.30570688,0.27030968,0.43518721,0.73844292
39075,0,USOhioHolmes,Ohio,Holmes,2021-01-05 13:10:32.496138,2020-09-14 00:00:00.000000,0.23364423,0.36930196,0.62478793,102,162,274,50,82,138,0.11583692,0.18720419,0.31555474,0.27074931,0.46098690,0.73420753
39075,0,USOhioHolmes,Ohio,Holmes,2021-01-05 13:10:32.496138,2020-09-15 00:00:00.000000,0.24112821,0.38999276,0.66271596,105,171,291,54,86,144,0.12322644,0.19758877,0.32959488,0.27627269,0.48184731,0.74360195
39075,0,USOhioHolmes,Ohio,Holmes,2021-01-05 13:10:32.496138,2020-09-16 00:00:00.000000,0.24772907,0.40867567,0.70564111,108,179,310,57,92,151,0.13074603,0.20942830,0.34388074,0.30394227,0.48733160,0.74569771
39075,0,USOhioHolmes,Ohio,Holmes,2021-01-05 13:10:32.496138,2020-09-17 00:00:00.000000,0.25827259,0.43549716,0.75158650,113,191,330,59,97,159,0.13563573,0.22221994,0.36211579,0.31184841,0.49640221,0.72041328
39075,0,USOhioHolmes,Ohio,Holmes,2021-01-05 13:10:32.496138,2020-09-18 00:00:00.000000,0.27053929,0.46849578,0.80303068,118,205,353,62,103,167,0.14131222,0.23596005,0.38125501,0.33101887,0.50318480,0.73918283
39075,0,USOhioHolmes,Ohio,Holmes,2021-01-05 13:10:32.496138,2020-09-19 00:00:00.000000,0.28718726,0.50347396,0.86073050,126,221,378,64,108,176,0.14773814,0.24698787,0.40135538,0.35026413,0.51356122,0.76207638
39075,0,USOhioHolmes,Ohio,Holmes,2021-01-05 13:10:32.496138,2020-09-20 00:00:00.000000,0.31072280,0.53484663,0.91652023,136,235,402,68,113,185,0.15491189,0.25883747,0.42249555,0.38088534,0.54400052,0.76192610
39075,0,USOhioHolmes,Ohio,Holmes,2021-01-05 13:10:32.496138,2020-09-21 00:00:00.000000,0.33857150,0.57247286,0.96912708,148,251,426,72,120,195,0.16418881,0.27309795,0.44464484,0.39323265,0.54775282,0.77313395
39075,0,USOhioHolmes,Ohio,Holmes,2021-01-05 13:10:32.496138,2020-09-22 00:00:00.000000,0.36870514,0.61178854,1.02474540,162,268,450,77,127,206,0.17645455,0.29087640,0.46885788,0.41366586,0.56873397,0.78034517
39075,0,USOhioHolmes,Ohio,Holmes,2021-01-05 13:10:32.496138,2020-09-23 00:00:00.000000,0.40107971,0.65946041,1.08400606,176,289,476,84,136,217,0.19175674,0.31068029,0.49504186,0.42107305,0.58479698,0.79540338
39075,0,USOhioHolmes,Ohio,Holmes,2021-01-05 13:10:32.496138,2020-09-24 00:00:00.000000,0.42119035,0.72036003,1.14752499,185,316,504,91,146,229,0.20803020,0.33350481,0.52318828,0.43687653,0.60928657,0.82233821
39075,0,USOhioHolmes,Ohio,Holmes,2021-01-05 13:10:32.496138,2020-09-25 00:00:00.000000,0.46091598,0.79223136,1.21633842,202,348,534,99,156,243,0.22593445,0.35658969,0.55344576,0.45426007,0.62006026,0.85093700
39075,0,USOhioHolmes,Ohio,Holmes,2021-01-05 13:10:32.496138,2020-09-26 00:00:00.000000,0.50593739,0.85270249,1.32305852,222,374,581,107,166,260,0.24543359,0.37856202,0.59273962,0.47685965,0.62969797,0.91143073
39075,0,USOhioHolmes,Ohio,Holmes,2021-01-05 13:10:32.496138,2020-09-27 00:00:00.000000,0.56015418,0.92941559,1.39894810,246,408,614,112,182,286,0.25694441,0.41498285,0.65284888,0.48268859,0.65047237,0.93726138
39075,0,USOhioHolmes,Ohio,Holmes,2021-01-05 13:10:32.496138,2020-09-28 00:00:00.000000,0.61785108,1.03049500,1.48785500,271,453,654,126,198,316,0.28733562,0.45103564,0.72063718,0.48803202,0.66202360,0.99014652
39075,0,USOhioHolmes,Ohio,Holmes,2021-01-05 13:10:32.496138,2020-09-29 00:00:00.000000,0.68929835,1.13729702,1.64872078,303,499,724,139,214,339,0.31719469,0.48896468,0.77262302,0.50008931,0.68703554,1.01401375
39075,0,USOhioHolmes,Ohio,Holmes,2021-01-05 13:10:32.496138,2020-09-30 00:00:00.000000,0.77660215,1.23291140,1.83245400,341,541,805,153,233,371,0.35024608,0.53039744,0.84589128,0.50837141,0.70430228,1.03087816
39075,0,USOhioHolmes,Ohio,Holmes,2021-01-05 13:10:32.496138,2020-10-01 00:00:00.000000,0.87054924,1.32884293,2.03775812,382,584,895,171,252,415,0.38963015,0.57466542,0.94602050,0.52180730,0.72391737,1.03307313
39075,0,USOhioHolmes,Ohio,Holmes,2021-01-05 13:10:32.496138,2020-10-02 00:00:00.000000,0.94031632,1.45504809,2.26768675,413,639,996,181,276,464,0.41353728,0.62918167,1.05755121,0.52875275,0.74059170,1.03520472
39075,0,USOhioHolmes,Ohio,Holmes,2021-01-05 13:10:32.496138,2020-10-03 00:00:00.000000,1.01974777,1.58250144,2.52536465,448,695,1110,195,302,513,0.44433938,0.68839581,1.16831286,0.53503334,0.76186356,1.04492937
39075,0,USOhioHolmes,Ohio,Holmes,2021-01-05 13:10:32.496138,2020-10-04 00:00:00.000000,1.10892509,1.74455925,2.80379995,487,766,1232,211,329,556,0.48068875,0.74977009,1.26623473,0.53690708,0.75772033,1.08478361
39075,0,USOhioHolmes,Ohio,Holmes,2021-01-05 13:10:32.496138,2020-10-05 00:00:00.000000,1.23008814,1.90591900,3.08247838,540,837,1355,229,361,602,0.52198179,0.82220067,1.37112128,0.54285879,0.75586564,1.11486990
39075,0,USOhioHolmes,Ohio,Holmes,2021-01-05 13:10:32.496138,2020-10-06 00:00:00.000000,1.37177922,2.08976764,3.34271628,603,918,1469,250,397,649,0.57006938,0.90319029,1.47781591,0.55389268,0.76137896,1.09287127
39075,0,USOhioHolmes,Ohio,Holmes,2021-01-05 13:10:32.496138,2020-10-07 00:00:00.000000,1.52767072,2.29269954,3.59579868,671,1007,1580,275,441,697,0.62677591,1.00399659,1.58621960,0.55967143,0.77001784,1.03790743
39075,0,USOhioHolmes,Ohio,Holmes,2021-01-05 13:10:32.496138,2020-10-08 00:00:00.000000,1.69945875,2.50417098,3.85561238,747,1100,1694,303,484,760,0.69014746,1.10151780,1.73036982,0.56271312,0.77053477,1.03474105
39075,0,USOhioHolmes,Ohio,Holmes,2021-01-05 13:10:32.496138,2020-10-09 00:00:00.000000,1.88867642,2.76420632,4.12757428,830,1215,1814,334,532,837,0.75979360,1.21023884,1.90400793,0.56456615,0.77428155,1.02914596
39075,0,USOhioHolmes,Ohio,Holmes,2021-01-05 13:10:32.496138,2020-10-10 00:00:00.000000,2.09693664,3.04589671,4.46261770,921,1338,1961,370,577,919,0.84337177,1.31423493,2.09163389,0.56755461,0.78363774,1.01833395
39075,0,USOhioHolmes,Ohio,Holmes,2021-01-05 13:10:32.496138,2020-10-11 00:00:00.000000,2.32594171,3.36461168,4.91797692,1022,1479,2161,423,635,1007,0.96380603,1.44640688,2.29248331,0.57625055,0.78590918,1.01480529
39075,0,USOhioHolmes,Ohio,Holmes,2021-01-05 13:10:32.496138,2020-10-12 00:00:00.000000,2.57266457,3.72004793,5.38942179,1130,1635,2369,484,699,1102,1.10100533,1.59081803,2.50745880,0.58765205,0.78853556,1.02398858
39075,0,USOhioHolmes,Ohio,Holmes,2021-01-05 13:10:32.496138,2020-10-13 00:00:00.000000,2.84603209,4.09710753,5.93154758,1251,1801,2607,550,771,1221,1.25180801,1.75548007,2.77943691,0.58533225,0.79548121,1.03018672
39075,0,USOhioHolmes,Ohio,Holmes,2021-01-05 13:10:32.496138,2020-10-14 00:00:00.000000,3.14358996,4.52930890,6.57395295,1381,1991,2889,610,849,1313,1.38869775,1.93215450,2.98904827,0.58505958,0.80400152,1.01585353
39075,0,USOhioHolmes,Ohio,Holmes,2021-01-05 13:10:32.496138,2020-10-15 00:00:00.000000,3.46145082,4.95550677,7.27420582,1521,2178,3197,661,942,1451,1.50461689,2.14490335,3.30298767,0.58459644,0.79878461,1.03506043
39075,0,USOhioHolmes,Ohio,Holmes,2021-01-05 13:10:32.496138,2020-10-16 00:00:00.000000,3.83729412,5.43852274,8.03485790,1686,2390,3532,723,1043,1616,1.64628314,2.37310171,3.67809449,0.56901873,0.78617592,1.04050229
39075,0,USOhioHolmes,Ohio,Holmes,2021-01-05 13:10:32.496138,2020-10-17 00:00:00.000000,4.18906399,5.95869439,8.85783672,1841,2619,3893,794,1140,1794,1.80830129,2.59479468,4.08162888,0.56775753,0.77544966,1.01873073
39075,0,USOhioHolmes,Ohio,Holmes,2021-01-05 13:10:32.496138,2020-10-18 00:00:00.000000,4.57593294,6.47188186,9.66885014,2011,2845,4250,869,1252,1978,1.97901116,2.84964462,4.50103742,0.56691451,0.76171670,0.96651325
39075,0,USOhioHolmes,Ohio,Holmes,2021-01-05 13:10:32.496138,2020-10-19 00:00:00.000000,4.99981635,7.02302595,10.33913630,2197,3087,4545,939,1367,2129,2.13715260,3.11042111,4.84315752,0.55603799,0.74619936,0.95706329
39075,0,USOhioHolmes,Ohio,Holmes,2021-01-05 13:10:32.496138,2020-10-20 00:00:00.000000,5.45039576,7.60186843,10.84859091,2395,3341,4769,989,1484,2287,2.25157466,3.37610494,5.20259689,0.52547190,0.70784115,0.94295454
39075,0,USOhioHolmes,Ohio,Holmes,2021-01-05 13:10:32.496138,2020-10-21 00:00:00.000000,5.66825154,8.06371866,11.35322693,2491,3544,4990,1063,1601,2482,2.42007021,3.64212159,5.64783065,0.49618539,0.68631141,0.90000554
39075,0,USOhioHolmes,Ohio,Holmes,2021-01-05 13:10:32.496138,2020-10-22 00:00:00.000000,6.05081939,8.57606198,12.15923643,2659,3770,5345,1158,1725,2683,2.63497542,3.92416413,6.10482987,0.47314725,0.64487558,0.87252388
39075,0,USOhioHolmes,Ohio,Holmes,2021-01-05 13:10:32.496138,2020-10-23 00:00:00.000000,6.39433802,8.99961769,12.70578302,2810,3956,5585,1256,1839,2800,2.85917583,4.18382075,6.37017725,0.43836879,0.60725556,0.85459410
39075,0,USOhioHolmes,Ohio,Holmes,2021-01-05 13:10:32.496138,2020-10-24 00:00:00.000000,6.64475816,9.35279629,12.99334297,2921,4111,5711,1357,1945,2888,3.08844815,4.42595669,6.57040525,0.39919777,0.57367720,0.79286873
39075,0,USOhioHolmes,Ohio,Holmes,2021-01-05 13:10:32.496138,2020-10-25 00:00:00.000000,6.85719598,9.69795446,13.08860599,3014,4263,5753,1456,2063,2960,3.31346875,4.69429862,6.73481978,0.37390865,0.52513268,0.74224906
39075,0,USOhioHolmes,Ohio,Holmes,2021-01-05 13:10:32.496138,2020-10-26 00:00:00.000000,6.98907223,9.87536336,13.23714794,3072,4341,5819,1528,2159,3033,3.47810111,4.91212219,6.89965057,0.35574148,0.48133709,0.69335815
39075,0,USOhioHolmes,Ohio,Holmes,2021-01-05 13:10:32.496138,2020-10-27 00:00:00.000000,7.02031707,10.02637471,13.17611694,3086,4407,5792,1572,2228,3178,3.57752176,5.07024506,7.23098692,0.33202838,0.44196581,0.61948405
39075,0,USOhioHolmes,Ohio,Holmes,2021-01-05 13:10:32.496138,2020-10-28 00:00:00.000000,6.95354419,10.08669476,13.43177257,3056,4434,5904,1608,2279,3192,3.65836124,5.18639236,7.26169063,0.30659400,0.41310769,0.60270330
39075,0,USOhioHolmes,Ohio,Holmes,2021-01-05 13:10:32.496138,2020-10-29 00:00:00.000000,6.95538087,10.06910378,13.66237583,3057,4426,6005,1636,2313,3284,3.72380118,5.26337531,7.47165258,0.28709506,0.39615385,0.56444133
39075,0,USOhioHolmes,Ohio,Holmes,2021-01-05 13:10:32.496138,2020-10-30 00:00:00.000000,6.99281269,9.96833915,13.85055038,3074,4382,6088,1660,2324,3395,3.77679439,5.28730259,7.72518635,0.26955136,0.37056073,0.55675712
39075,0,USOhioHolmes,Ohio,Holmes,2021-01-05 13:10:32.496138,2020-10-31 00:00:00.000000,7.00457245,9.83636663,13.96720180,3079,4324,6139,1678,2315,3481,3.81926620,5.26831973,7.91870280,0.25255889,0.36021022,0.51908783
39075,0,USOhioHolmes,Ohio,Holmes,2021-01-05 13:10:32.496138,2020-11-01 00:00:00.000000,6.90843003,9.71566297,13.94688427,3036,4271,6131,1648,2316,3485,3.75008179,5.26889151,7.92871149,0.22353547,0.35101701,0.48704230
39075,0,USOhioHolmes,Ohio,Holmes,2021-01-05 13:10:32.496138,2020-11-02 00:00:00.000000,6.65790607,9.51250105,13.80095175,2926,4181,6066,1598,2309,3442,3.63532494,5.25424281,7.83074706,0.21478523,0.34584090,0.45897375
39075,0,USOhioHolmes,Ohio,Holmes,2021-01-05 13:10:32.496138,2020-11-03 00:00:00.000000,6.40744532,9.29444478,13.59188525,2816,4085,5974,1542,2280,3466,3.50840143,5.18718487,7.88621218,0.21458052,0.34142737,0.44138607
39075,0,USOhioHolmes,Ohio,Holmes,2021-01-05 13:10:32.496138,2020-11-04 00:00:00.000000,6.16180771,9.10597206,13.35013612,2708,4002,5868,1484,2251,3469,3.37747382,5.12271372,7.89263866,0.21733135,0.33911553,0.43366543
39075,0,USOhioHolmes,Ohio,Holmes,2021-01-05 13:10:32.496138,2020-11-05 00:00:00.000000,5.92723797,8.90105751,13.07958472,2605,3912,5749,1426,2210,3456,3.24501118,5.02767044,7.86264845,0.22098337,0.34034435,0.43070342
39075,0,USOhioHolmes,Ohio,Holmes,2021-01-05 13:10:32.496138,2020-11-06 00:00:00.000000,5.71562758,8.70462609,12.84436545,2512,3826,5646,1396,2165,3431,3.17645569,4.92710488,7.80511252,0.22466854,0.34252589,0.43320951
39075,0,USOhioHolmes,Ohio,Holmes,2021-01-05 13:10:32.496138,2020-11-07 00:00:00.000000,5.54439626,8.50199810,12.73174700,2437,3737,5596,1390,2125,3396,3.16298499,4.83555617,7.72549203,0.23157770,0.34557756,0.44011952
39075,0,USOhioHolmes,Ohio,Holmes,2021-01-05 13:10:32.496138,2020-11-08 00:00:00.000000,5.41805957,8.33629973,12.59745444,2381,3664,5537,1383,2089,3344,3.14792124,4.75352947,7.60829322,0.24296983,0.34960298,0.45714165
39075,0,USOhioHolmes,Ohio,Holmes,2021-01-05 13:10:32.496138,2020-11-09 00:00:00.000000,5.32107508,8.14276149,12.45280368,2339,3579,5474,1376,2046,3263,3.13180820,4.65598095,7.42301937,0.24380164,0.35608734,0.46278241
39075,0,USOhioHolmes,Ohio,Holmes,2021-01-05 13:10:32.496138,2020-11-10 00:00:00.000000,5.20474692,8.01533889,12.29584817,2288,3523,5405,1369,2005,3214,3.11433331,4.56127039,7.31226600,0.23936871,0.36302493,0.48460024
39075,0,USOhioHolmes,Ohio,Holmes,2021-01-05 13:10:32.496138,2020-11-11 00:00:00.000000,5.04610560,7.84062337,12.13637597,2218,3446,5335,1320,1964,3171,3.00334814,4.46978335,7.21475402,0.24620687,0.36967610,0.49017577
39075,0,USOhioHolmes,Ohio,Holmes,2021-01-05 13:10:32.496138,2020-11-12 00:00:00.000000,4.94303305,7.71714669,11.98889976,2172,3392,5270,1269,1928,3136,2.88682241,4.38605146,7.13555544,0.25578034,0.38279559,0.53036244
39075,0,USOhioHolmes,Ohio,Holmes,2021-01-05 13:10:32.496138,2020-11-13 00:00:00.000000,4.84060280,7.58932402,11.87050438,2127,3336,5218,1219,1884,3079,2.77450917,4.28717468,7.00424844,0.26153289,0.39049603,0.55076231
39075,0,USOhioHolmes,Ohio,Holmes,2021-01-05 13:10:32.496138,2020-11-14 00:00:00.000000,4.81718995,7.45573942,11.78949422,2117,3277,5182,1173,1843,3023,2.66956964,4.19347938,6.87863362,0.26647040,0.40047019,0.55991664
39075,0,USOhioHolmes,Ohio,Holmes,2021-01-05 13:10:32.496138,2020-11-15 00:00:00.000000,4.81666261,7.42729041,11.73732818,2117,3265,5159,1132,1806,2975,2.57658386,4.10862049,6.76817158,0.27386236,0.41769594,0.58048117
39075,0,USOhioHolmes,Ohio,Holmes,2021-01-05 13:10:32.496138,2020-11-16 00:00:00.000000,4.81000378,7.34966124,11.69278358,2114,3230,5140,1099,1769,2937,2.50021129,4.02461125,6.68239025,0.27876839,0.43526785,0.58117602
39075,0,USOhioHolmes,Ohio,Holmes,2021-01-05 13:10:32.496138,2020-11-17 00:00:00.000000,4.85328508,7.30129507,11.64864747,2133,3209,5120,1072,1744,2904,2.44010328,3.96949536,6.60686169,0.28037328,0.45656250,0.63305286
39075,0,USOhioHolmes,Ohio,Holmes,2021-01-05 13:10:32.496138,2020-11-18 00:00:00.000000,4.84917429,7.29081964,11.60195464,2131,3205,5100,1069,1740,2874,2.43390551,3.96020130,6.53898459,0.29483802,0.47095298,0.63886026
39075,0,USOhioHolmes,Ohio,Holmes,2021-01-05 13:10:32.496138,2020-11-19 00:00:00.000000,4.79137235,7.23586986,11.52766444,2106,3180,5067,1074,1730,2851,2.44344679,3.93762055,6.48670670,0.32345700,0.48282561,0.65289154
39075,0,USOhioHolmes,Ohio,Holmes,2021-01-05 13:10:32.496138,2020-11-20 00:00:00.000000,4.72865180,7.21683408,11.47290744,2078,3172,5043,1084,1706,2838,2.46741435,3.88205884,6.45681422,0.33015429,0.49400541,0.65540909
39075,0,USOhioHolmes,Ohio,Holmes,2021-01-05 13:10:32.496138,2020-11-21 00:00:00.000000,4.66002102,7.20698472,11.43449817,2048,3168,5026,1091,1706,2825,2.48326795,3.88251077,6.42695496,0.33819893,0.50342739,0.68711563
39075,0,USOhioHolmes,Ohio,Holmes,2021-01-05 13:10:32.496138,2020-11-22 00:00:00.000000,4.76703959,7.24524983,11.36350740,2095,3185,4995,1080,1707,2811,2.45769870,3.88444013,6.39606663,0.34614546,0.51038467,0.71501007
39075,0,USOhioHolmes,Ohio,Holmes,2021-01-05 13:10:32.496138,2020-11-23 00:00:00.000000,4.93016226,7.18891393,11.26853415,2167,3160,4953,1074,1711,2797,2.44403120,3.89363043,6.36351213,0.34696230,0.51932443,0.71549295
39075,0,USOhioHolmes,Ohio,Holmes,2021-01-05 13:10:32.496138,2020-11-24 00:00:00.000000,5.07874159,7.11778985,11.17927911,2232,3128,4914,1071,1720,2782,2.43671872,3.91443461,6.33013472,0.34568916,0.52616476,0.71519368
39075,0,USOhioHolmes,Ohio,Holmes,2021-01-05 13:10:32.496138,2020-11-25 00:00:00.000000,5.07389040,7.15809630,11.09423703,2230,3146,4877,1069,1727,2767,2.43277317,3.93066319,6.29569643,0.34233961,0.53140621,0.71263243
39075,0,USOhioHolmes,Ohio,Holmes,2021-01-05 13:10:32.496138,2020-11-26 00:00:00.000000,5.06640738,7.17523788,10.90822734,2227,3154,4795,1068,1719,2751,2.42978208,3.91263426,6.26020882,0.34235484,0.53650318,0.70970750
39075,0,USOhioHolmes,Ohio,Holmes,2021-01-05 13:10:32.496138,2020-11-27 00:00:00.000000,5.05637047,7.09281047,10.69805887,2222,3117,4702,1066,1719,2735,2.42698254,3.91065960,6.22370567,0.33417874,0.55126708,0.73622861
39075,0,USOhioHolmes,Ohio,Holmes,2021-01-05 13:10:32.496138,2020-11-28 00:00:00.000000,4.97393132,7.06373762,10.56801045,2186,3105,4645,1065,1718,2719,2.42366006,3.91030720,6.18611277,0.32440213,0.55784375,0.73822481
39075,0,USOhioHolmes,Ohio,Holmes,2021-01-05 13:10:32.496138,2020-11-29 00:00:00.000000,4.91177208,7.01513143,10.54721427,2159,3083,4636,1063,1723,2702,2.41825357,3.92077732,6.14707692,0.31993698,0.56650657,0.73887819
39075,0,USOhioHolmes,Ohio,Holmes,2021-01-05 13:10:32.496138,2020-11-30 00:00:00.000000,4.85382344,7.03916528,10.54519681,2133,3094,4635,1057,1710,2683,2.40612074,3.89095740,6.10425810,0.31986866,0.55973744,0.76989204
39075,0,USOhioHolmes,Ohio,Holmes,2021-01-05 13:10:32.496138,2020-12-01 00:00:00.000000,4.79520116,7.07575557,10.55380062,2107,3110,4639,1044,1695,2662,2.37492325,3.85783054,6.05769806,0.32083097,0.57713695,0.77672764
39075,0,USOhioHolmes,Ohio,Holmes,2021-01-05 13:10:32.496138,2020-12-02 00:00:00.000000,4.73711098,7.04484586,10.56415089,2082,3096,4644,1030,1681,2640,2.34332861,3.82523015,6.00755598,0.32199517,0.58074560,0.77732813
39075,0,USOhioHolmes,Ohio,Holmes,2021-01-05 13:10:32.496138,2020-12-03 00:00:00.000000,4.71684660,7.02787800,10.47566282,2073,3089,4605,1015,1657,2617,2.31095133,3.77114956,5.95434705,0.32342101,0.58078816,0.77905224
39075,0,USOhioHolmes,Ohio,Holmes,2021-01-05 13:10:32.496138,2020-12-04 00:00:00.000000,4.80722724,6.98084506,10.39395755,2113,3068,4569,1001,1634,2593,2.27753146,3.71872854,5.89969607,0.32507135,0.57871845,0.78835322
39075,0,USOhioHolmes,Ohio,Holmes,2021-01-05 13:10:32.496138,2020-12-05 00:00:00.000000,4.72354672,6.92183677,10.33786334,2076,3042,4544,986,1639,2573,2.24344530,3.72979812,5.85415393,0.32539705,0.56250945,0.78992860
39075,0,USOhioHolmes,Ohio,Holmes,2021-01-05 13:10:32.496138,2020-12-06 00:00:00.000000,4.63840254,6.85911714,10.29496945,2039,3015,4525,1003,1642,2550,2.28359269,3.73739726,5.80257166,0.32586401,0.55573553,0.79853841
39075,0,USOhioHolmes,Ohio,Holmes,2021-01-05 13:10:32.496138,2020-12-07 00:00:00.000000,4.56691619,6.80461939,10.25507390,2007,2991,4508,1014,1633,2534,2.30769733,3.71560197,5.76571717,0.32737397,0.55541193,0.80654254
39075,0,USOhioHolmes,Ohio,Holmes,2021-01-05 13:10:32.496138,2020-12-08 00:00:00.000000,4.53437714,6.73359866,10.20770610,1993,2960,4487,1006,1617,2520,2.28990008,3.68000812,5.73301280,0.32739999,0.54883760,0.81165428
39075,0,USOhioHolmes,Ohio,Holmes,2021-01-05 13:10:32.496138,2020-12-09 00:00:00.000000,4.46509022,6.65788620,10.15061876,1962,2926,4462,998,1606,2506,2.27163282,3.65495612,5.70180660,0.33100814,0.54658776,0.81257996
39075,0,USOhioHolmes,Ohio,Holmes,2021-01-05 13:10:32.496138,2020-12-10 00:00:00.000000,4.40000410,6.55747081,10.08299563,1934,2882,4432,990,1581,2492,2.25283164,3.59658562,5.66996919,0.34160767,0.55257974,0.80807706
39075,0,USOhioHolmes,Ohio,Holmes,2021-01-05 13:10:32.496138,2020-12-11 00:00:00.000000,4.37353918,6.46302192,10.00461341,1922,2841,4398,982,1541,2477,2.23435325,3.50670684,5.63599245,0.34718758,0.56776654,0.79645652
39075,0,USOhioHolmes,Ohio,Holmes,2021-01-05 13:10:32.496138,2020-12-12 00:00:00.000000,4.41362045,6.38827795,9.90931742,1940,2808,4356,978,1518,2451,2.22497468,3.45429356,5.57642471,0.35635575,0.57870642,0.83054216
39075,0,USOhioHolmes,Ohio,Holmes,2021-01-05 13:10:32.496138,2020-12-13 00:00:00.000000,4.42425363,6.30582374,9.79341158,1944,2772,4305,970,1490,2425,2.20796088,3.39079233,5.51713543,0.36755006,0.58655170,0.94710056
39075,0,USOhioHolmes,Ohio,Holmes,2021-01-05 13:10:32.496138,2020-12-14 00:00:00.000000,4.35758773,6.21151149,9.67134239,1915,2730,4251,969,1477,2404,2.20580133,3.36213242,5.46928608,0.37622935,0.59892088,0.99656604
39075,0,USOhioHolmes,Ohio,Holmes,2021-01-05 13:10:32.496138,2020-12-15 00:00:00.000000,4.28115078,6.14884486,9.54055019,1881,2703,4194,972,1468,2386,2.21279690,3.34002461,5.42897025,0.38153841,0.61758165,1.00835755
39075,0,USOhioHolmes,Ohio,Holmes,2021-01-05 13:10:32.496138,2020-12-16 00:00:00.000000,4.16794582,6.09632579,9.40408156,1832,2679,4134,978,1450,2370,2.22635022,3.29934902,5.39207974,0.38677634,0.62454586,1.00907469
39075,0,USOhioHolmes,Ohio,Holmes,2021-01-05 13:10:32.496138,2020-12-17 00:00:00.000000,4.17744325,6.04074432,9.26854690,1836,2655,4074,984,1443,2352,2.23954567,3.28360198,5.35226601,0.38821558,0.65010012,1.00594934
39075,0,USOhioHolmes,Ohio,Holmes,2021-01-05 13:10:32.496138,2020-12-18 00:00:00.000000,4.14503158,6.05974511,9.12820844,1822,2663,4012,961,1436,2325,2.18671520,3.26758364,5.29108160,0.39279211,0.66141799,1.00011009
39075,0,USOhioHolmes,Ohio,Holmes,2021-01-05 13:10:32.496138,2020-12-19 00:00:00.000000,4.12853990,6.08804874,9.04066396,1814,2676,3974,936,1432,2298,2.13122271,3.25879789,5.22934910,0.40872133,0.67869206,1.04505532
39075,0,USOhioHolmes,Ohio,Holmes,2021-01-05 13:10:32.496138,2020-12-20 00:00:00.000000,4.12431378,6.08932910,8.94982479,1813,2676,3934,938,1418,2273,2.13493787,3.22665160,5.17100982,0.43036923,0.69937670,1.16506755
39075,0,USOhioHolmes,Ohio,Holmes,2021-01-05 13:10:32.496138,2020-12-21 00:00:00.000000,4.16166345,6.08275728,8.84425339,1829,2673,3887,946,1403,2250,2.15395222,3.19340148,5.12056320,0.45091788,0.71909549,1.23075148
39075,0,USOhioHolmes,Ohio,Holmes,2021-01-05 13:10:32.496138,2020-12-22 00:00:00.000000,4.23510342,6.02278799,8.81222721,1861,2647,3873,955,1390,2269,2.17275865,3.16239907,5.16287569,0.45122605,0.73238611,1.25991962
39075,0,USOhioHolmes,Ohio,Holmes,2021-01-05 13:10:32.496138,2020-12-23 00:00:00.000000,4.36373179,5.96275650,8.93123375,1918,2621,3926,963,1386,2315,2.19098563,3.15496534,5.26677980,0.45962883,0.74885967,1.25634647
39075,0,USOhioHolmes,Ohio,Holmes,2021-01-05 13:10:32.496138,2020-12-24 00:00:00.000000,4.50557439,5.96337790,8.94315302,1980,2621,3931,970,1393,2330,2.20814388,3.16913488,5.30094156,0.47316948,0.77746388,1.28248452
39075,0,USOhioHolmes,Ohio,Holmes,2021-01-05 13:10:32.496138,2020-12-25 00:00:00.000000,4.62250933,5.97233009,8.95537391,2032,2625,3936,977,1414,2326,2.22410615,3.21751053,5.29191310,0.48082764,0.79740132,1.29073051
39075,0,USOhioHolmes,Ohio,Holmes,2021-01-05 13:10:32.496138,2020-12-26 00:00:00.000000,4.55549371,5.96418054,8.99301428,2002,2621,3953,984,1431,2311,2.23904168,3.25554485,5.25908147,0.48375046,0.81237782,1.27284865
39075,0,USOhioHolmes,Ohio,Holmes,2021-01-05 13:10:32.496138,2020-12-27 00:00:00.000000,4.43426342,5.98983275,9.07252043,1949,2633,3988,990,1418,2281,2.25388881,3.22636787,5.18886901,0.49282031,0.82775307,1.25155548
39075,0,USOhioHolmes,Ohio,Holmes,2021-01-05 13:10:32.496138,2020-12-28 00:00:00.000000,4.31590285,6.06854248,9.12986648,1897,2667,4013,992,1427,2256,2.25825784,3.24686166,5.13253541,0.49562050,0.83196024,1.26863054
39075,0,USOhioHolmes,Ohio,Holmes,2021-01-05 13:10:32.496138,2020-12-29 00:00:00.000000,4.33008128,6.04009057,9.17456286,1903,2655,4033,985,1431,2234,2.24218861,3.25609527,5.08372672,0.46552781,0.83363568,1.29476123
39075,0,USOhioHolmes,Ohio,Holmes,2021-01-05 13:10:32.496138,2020-12-30 00:00:00.000000,4.33341502,6.03443840,9.20596150,1904,2652,4046,956,1443,2217,2.17649894,3.28401924,5.04513115,0.43734877,0.83550484,1.30492432
39075,0,USOhioHolmes,Ohio,Holmes,2021-01-05 13:10:32.496138,2020-12-31 00:00:00.000000,4.29374705,5.99516208,9.22376098,1887,2635,4054,920,1443,2224,2.09450296,3.28439886,5.06082772,0.42672881,0.83351696,1.30906930
39075,0,USOhioHolmes,Ohio,Holmes,2021-01-05 13:10:32.496138,2021-01-01 00:00:00.000000,4.21609053,5.97627442,9.22777436,1853,2627,4056,905,1451,2204,2.06001094,3.30083676,5.01562242,0.40650575,0.84330356,1.33233185
39075,0,USOhioHolmes,Ohio,Holmes,2021-01-05 13:10:32.496138,2021-01-02 00:00:00.000000,4.09525529,5.87872374,9.21792673,1800,2584,4052,903,1433,2187,2.05638816,3.26147195,4.97721315,0.39413066,0.84376176,1.39076192
39075,0,USOhioHolmes,Ohio,Holmes,2021-01-05 13:10:32.496138,2021-01-03 00:00:00.000000,3.91233524,5.83864528,9.19425068,1719,2566,4041,900,1414,2179,2.04857676,3.21881807,4.95797489,0.39302600,0.84891781,1.41039870
39075,0,USOhioHolmes,Ohio,Holmes,2021-01-05 13:10:32.496138,2021-01-04 00:00:00.000000,3.73216273,5.74795029,9.15688082,1640,2526,4025,896,1394,2183,2.03830120,3.17241411,4.96627436,0.39301281,0.84112397,1.41578527
39075,0,USOhioHolmes,Ohio,Holmes,2021-01-05 13:10:32.496138,2021-01-05 00:00:00.000000,3.55608505,5.64108077,9.10604740,1563,2479,4003,880,1376,2184,2.00357343,3.13085261,4.96832351,0.39303008,0.84184783,1.42752706
39075,0,USOhioHolmes,Ohio,Holmes,2021-01-05 13:10:32.496138,2021-01-06 00:00:00.000000,3.38516806,5.53710317,9.04206946,1488,2434,3974,848,1355,2191,1.92977261,3.08262955,4.98462691,0.39307964,0.82668448,1.45491109
39075,0,USOhioHolmes,Ohio,Holmes,2021-01-05 13:10:32.496138,2021-01-07 00:00:00.000000,3.28371227,5.40964793,8.97925126,1443,2378,3947,809,1335,2219,1.84039314,3.03798850,5.04876995,0.39310929,0.80259076,1.47106013
39075,0,USOhioHolmes,Ohio,Holmes,2021-01-05 13:10:32.496138,2021-01-08 00:00:00.000000,3.20206617,5.32678012,8.88585233,1407,2341,3906,770,1313,2207,1.75327428,2.98800378,5.02107105,0.39312582,0.80329400,1.47961041
39075,0,USOhioHolmes,Ohio,Holmes,2021-01-05 13:10:32.496138,2021-01-09 00:00:00.000000,3.11929166,5.25077207,8.78555726,1371,2308,3862,733,1286,2191,1.66884359,2.92627804,4.98603370,0.39313475,0.80379301,1.48388101
39075,0,USOhioHolmes,Ohio,Holmes,2021-01-05 13:10:32.496138,2021-01-10 00:00:00.000000,3.03566353,5.15662014,8.67703575,1334,2266,3814,697,1258,2201,1.58738010,2.86200923,5.00709198,0.39313950,0.80413934,1.48595209
39075,0,USOhioHolmes,Ohio,Holmes,2021-01-05 13:10:32.496138,2021-01-11 00:00:00.000000,2.95144457,5.01979979,8.63615148,1297,2206,3796,663,1228,2236,1.50972124,2.79563051,5.08853111,0.39314200,0.80437626,1.48694220
39075,0,USOhioHolmes,Ohio,Holmes,2021-01-05 13:10:32.496138,2021-01-12 00:00:00.000000,2.82601021,4.92519374,8.78684109,1242,2165,3862,645,1199,2267,1.46850329,2.72755715,5.15856404,0.39314332,0.80453683,1.48741233
39075,0,USOhioHolmes,Ohio,Holmes,2021-01-05 13:10:32.496138,2021-01-13 00:00:00.000000,2.68276236,4.85600956,8.92303981,1179,2134,3922,627,1169,2293,1.42706055,2.66046230,5.21653914,0.39314401,0.80464498,1.48763488
39075,0,USOhioHolmes,Ohio,Holmes,2021-01-05 13:10:32.496138,2021-01-14 00:00:00.000000,2.54520684,4.75808305,9.04377211,1118,2091,3975,609,1146,2313,1.38551336,2.60841511,5.26192475,0.39314437,0.80471752,1.48774009
39075,0,USOhioHolmes,Ohio,Holmes,2021-01-05 13:10:32.496138,2021-01-15 00:00:00.000000,2.41329298,4.62503010,9.01239891,1060,2033,3961,590,1125,2327,1.34397537,2.56108650,5.29371399,0.39314456,0.80476605,1.48778981
39075,0,USOhioHolmes,Ohio,Holmes,2021-01-05 13:10:32.496138,2021-01-16 00:00:00.000000,2.28694759,4.50221475,8.93774764,1005,1979,3929,572,1103,2319,1.30255339,2.51040123,5.27610550,0.39314466,0.80479845,1.48781332
39075,0,USOhioHolmes,Ohio,Holmes,2021-01-05 13:10:32.496138,2021-01-17 00:00:00.000000,2.16607811,4.38281756,8.84915144,952,1926,3890,544,1078,2306,1.23784811,2.45310790,5.24788280,0.39314471,0.80482007,1.48782444
